{
  "2019\u201320_Coupe_de_France_Preliminary_Rounds,_Overseas_departments_and_territories_8": {
    "/wiki/AJ_Petite-\u00cele": "AJ Petite-\u00cele is a R\u00e9union football club based in Saint-Joseph .",
    "/wiki/SS_Jeanne_d'Arc": "Soci\u00e9t\u00e9 Sportive La Jeanne d'Arc , is a football ( soccer ) club from Le Port , R\u00e9union Island .",
    "/wiki/Penalty_shoot-out_(association_football)": "A penalty shoot-out ( officially kicks from the penalty mark ) is a method of determining which team is awarded victory in an association football match that can not end in a draw , when the score is tied after the regulation playing time as well as extra time ( if used ) have expired . In a penalty shoot-out , each team takes turns shooting at goal from the penalty mark , with the goal only defended by the opposing team 's goalkeeper . Each team has five shots which must be taken by different kickers ; the team that makes more successful kicks is declared the victor . Shoot-outs finish as soon as one team has an insurmountable lead . If scores are level after five pairs of shots , the shootout progresses into additional sudden-death rounds . Balls successfully kicked into the goal during a shoot-out do not count as goals for the individual kickers or the team , and are tallied separately from the goals scored during normal play ( including extra time , if any ) . Although the procedure for each individual kick in the shoot-out resembles that of a penalty kick , there are some differences . Most notably , neither the kicker nor any player other than the goalkeeper may play the ball again once it has been kicked . The penalty shoot-out is one of the three methods of breaking a draw that are currently approved by the Laws of the Game ; the others are extra time and , for two-legged ties , the away goals rule . A shoot-out is usually used only after one or more of the other methods fail to produce a winner . The method of breaking a draw for a specific match is determined beforehand by the match organizing body . In most professional level competitions , two 15-minute extra time periods are played if the score is tied at the end of regulation time , and a shoot-out is held if the score is still tied after the extra time periods .",
    "/wiki/Saint-Denis_FC": "Saint-Denis FC , is a football club from Saint-Denis , R\u00e9union Island . They currently plays in the R\u00e9union Premier League .",
    "/wiki/JS_Saint-Pierroise": "Jeunesse Sportive Saint-Pierroise is a French football club from Saint-Pierre , R\u00e9union . Their most notable player is Didier Agathe , who is known for playing for Celtic and Aston Villa . He signed for JS Saint-Pierroise in 2007 .",
    "/wiki/US_Sainte-Marienne": "Union Sportive Sainte-Marienne is a football ( soccer ) club from R\u00e9union based in Sainte-Marie .",
    "/wiki/AS_Excelsior": "Association Sportive de l'Excelsior is an association football club from Saint-Joseph , R\u00e9union Island .",
    "/wiki/AS_Marsouins": "Association Sportive Les Marsouins , is a football ( soccer ) club from Saint-Leu , R\u00e9union Island .",
    "/wiki/Saint-Pauloise_FC": "The Saint-Pauloise FC is a football club based in Saint-Paul , R\u00e9union , France ."
  },
  "List_of_awards_and_nominations_received_by_Amitabh_Bachchan_8": {
    "/wiki/Producers_Guild_Film_Award_for_Best_Actor_in_a_Leading_Role": "The Producers Guild Film Award for Best Actor in a Leading Role ( previously known as the Apsara Award for Best Actor in a Leading Role ) is given by the producers of the film and television guild as part of its annual award ceremony for Hindi films , to recognise a male actor who has delivered an outstanding performance in a leading role . Following its inception in 2004 , no one was awarded in 2005 and 2007 . \u2020 - indicates the performance also won the Filmfare Award \u2021 - indicates the performance was also nominated for the Filmfare Award",
    "/wiki/Khakee": "Khakee ( English translation : The Uniform ) is a 2004 Indian Hindi-language neo-noir action thriller film directed by Rajkumar Santoshi and written by Santoshi and Sridhar Raghavan . The story revolves around an Indian police team on a mission to escort an accused terrorist from a small town in Maharashtra to Mumbai . Khakee stars an ensemble cast consisting of Amitabh Bachchan , Akshay Kumar , Ajay Devgn , Aishwarya Rai , and Tusshar Kapoor . It was theatrically released on 23 January 2004 to widespread critical acclaim . Critical response was mixed to positive , with praise towards the direction , performances , and story . Produced on a budget of \u20b925.77 crore ( US $ 3.6 million ) , Khakee earned a total of \u20b949.89 crore ( US $ 7.0 million ) at the worldwide box office , becoming one of the year 's highest-grossing Bollywood films .",
    "/wiki/Black_(2005_film)": "Black is a 2005 Indian Hindi-language drama film directed by Sanjay Leela Bhansali and starring Rani Mukerji and Amitabh Bachchan . Black revolves around a deaf-blind girl , and her relationship with her teacher who himself later develops Alzheimer 's disease . The film draws inspiration from the life of Helen Keller , the blind academic and activist . Black was a commercial success , becoming the second highest grossing Indian film worldwide in 2005 and the highest-grossing 2005 Indian film overseas . The movie was majorly inspired or an unofficial remake of the 1962 movie The Miracle Worker . The film was screened at the Casablanca Film Festival and the International Film Festival of India . It won the Filmfare Award for best film . Time Magazine ( Europe ) selected the film as one of the 10 Best Movies of the Year 2005 from around the globe . The movie was positioned at number five . Indiatimes Movies ranks the movie amongst the 25 Must See Bollywood Films . The film was premiered in the March\u00e9 du Film section of the 2005 Cannes Film Festival . Amitabh Bachchan received his second National Film Award for Best Actor at the 53rd National Film Awards , his fourth Filmfare Award for Best Actor and his second Filmfare Critics Award for Best Actor for his performance and Rani Mukerji won her second Filmfare Award for Best Actress and her second Filmfare Critics Award for Best Actress .",
    "/wiki/Cheeni_Kum": "Cheeni Kum ( Hindi-Urdu for Less Sugar ) is a 2007 Bollywood romance film directed by R. Balki and starring Amitabh Bachchan , Tabu , Paresh Rawal , Zohra Sehgal and Swini Khara .",
    "/wiki/Paa_(film)": "Paa ( Hindi : \u092a\u093e , English : Father ) is a 2009 Indian Hindi-language comedy-drama film directed by R. Balakrishnan ( credited onscreen as R. Balki ) starring Amitabh Bachchan , Abhishek Bachchan , and Vidya Balan . The film is based on a rare genetic condition known as progeria and places emphasis on a father-son relationship . Amitabh Bachchan and Abhishek Bachchan , in real life , are father and son respectively , but in Paa , they played opposite roles . The film was released worldwide on 4 Dec 2009 . Veteran composer Ilaiyaraaja scored the music . The film was critically acclaimed in India and fared well at the box office . Despite a warm reception from Indian film critics , the film received mixed reviews from overseas film critics , according to the websites Metacritic and Rotten Tomatoes . Amitabh Bachchan received his third National Film Award for Best Actor at the 57th National Film Awards for his performance and his fifth Filmfare Best Actor Award and Vidya Balan got her first Filmfare Best Actress Award .",
    "/wiki/Kaun_Banega_Crorepati": "Kaun Banega Crorepati ( transl . Who is going to be the millionaire ? ; also simply known as KBC ) is an Indian television game show based on the British programme Who Wants to Be a Millionaire ? It originally aired on Star Plus for the first 3 seasons from 2000 to 2007 and was commissioned by the programming team of Sameer Nair . Since 2010 , it has been airing on Sony TV and produced by Big Synergy ."
  },
  "List_of_Geelong_Football_Club_individual_awards_and_records_2": {
    "/wiki/The_Age": "The Age , a daily newspaper , has been published in Melbourne , Victoria , Australia , since 1854 . Owned and published by Nine , The Age primarily serves Victoria , but copies also sell in Tasmania , the Australian Capital Territory and border regions of South Australia and southern New South Wales . It is delivered both in hardcopy and in online formats . The newspaper shares many articles with other Nine Publishing metropolitan daily newspapers , such as The Sydney Morning Herald . As of February 2017 [ update ] , The Age had an average weekday circulation of 88,000 , increasing to 152,000 on Saturdays ( in a city of 5.0 million ) . The Sunday Age had a circulation of 123,000 . These represented year-on-year declines of somewhere from 8% to 9% . The Age 's website , according to third-party web analytics providers Alexa and SimilarWeb , is the 44th- and 58th-most visited website in Australia , respectively , as of July 2015 . SimilarWeb rates the site as the seventh-most visited news website in Australia , attracting more than 7 million visitors per month .",
    "/wiki/2007_AFL_season": "The 2007 Australian Football League season was the 111th season of the elite Australian rules football competition and the 18th under the name 'Australian Football League ' , having switched from 'Victorian Football League ' after 1989 . The regular season commenced on 30 March 2007 and concluded with the 2007 AFL Grand Final on 29 September 2007 with Geelong defeating Port Adelaide by 119 points , the highest winning-margin in an AFL Grand Final , to claim the 2007 AFL premiership .",
    "/wiki/Gary_Ablett_Jr.": "Gary Ablett Jr. ( born 14 May 1984 ) is a professional Australian rules footballer playing for the Geelong Football Club in the Australian Football League ( AFL ) . He previously played for the Gold Coast Suns from 2011 to 2017 . The eldest son of Australian Football Hall of Fame member and former Hawthorn and Geelong player Gary Ablett Sr. , Ablett was drafted to Geelong under the father-son rule in the 2001 national draft and has since become recognised as one of the all-time great midfielders . Regarded as one of the greatest players of the modern era , Ablett is a dual premiership player , dual Brownlow Medallist , five-time Leigh Matthews Trophy winner , three-time AFLCA Champion Player of the Year Award winner and eight-time All-Australian . During his first stint at Geelong , Ablett won two premierships , two Carji Greeves Medals , a Geelong leading goalkicker award and the 2009 Brownlow Medal . He is also a life member of the club and has been inducted into the club 's Hall of Fame . At Gold Coast , Ablett was the club 's inaugural captain , holding the role for the club 's first six seasons , and won four Gold Coast Suns Club Champion awards ( including the first three in the club 's history ) , two Gold Coast leading goalkicker awards and the 2013 Brownlow Medal , the first Brownlow Medal in the club 's history . Between 2014 and 2018 , Ablett suffered a number of setbacks through injury ; despite this , Ablett has played 345 games , the second-most among currently active players .",
    "/wiki/2016_AFL_season": "The 2016 Australian Football League season was the 120th season of the elite Australian rules football competition and the 27th under the name 'Australian Football League ' , having switched from 'Victorian Football League ' after 1989 . There were 18 teams competing in the league , the same as the previous four seasons . The first game was played on Thursday , 24 March , and the 2016 AFL Grand Final was played on Saturday , 1 October with the Western Bulldogs defeating Sydney by 22 points to win its second premiership and first in 62 years , breaking the then-longest active drought in VFL/AFL history . Patrick Dangerfield won the Brownlow Medal , voted by the umpires to be the fairest and best player in the league for the home-and-away season . Josh Kennedy won the Coleman Medal as the highest goal scorer in the competition .",
    "/wiki/Patrick_Dangerfield": "Patrick Dangerfield ( born 5 April 1990 ) is an Australian rules footballer playing for the Geelong Football Club in the Australian Football League ( AFL ) . He previously played for the Adelaide Crows . Drafted to the Adelaide Football Club in 2007 , Dangerfield was immediately able to make a lasting impression with his ability to explode from stoppages through the midfield as well as play virtually all of the forward positions . [ citation needed ] His consistency and power around the contest has seen him become one of the best players of the 2010s . [ citation needed ] His fierce competitiveness on field is often juxtaposed with his quirky personality which is evident in his interactions with the media . [ citation needed ] Since debuting in 2008 , Dangerfield 's accomplishments include winning the Brownlow Medal , the Leigh Matthews Trophy , and the AFLCA Champion Player of the Year Award . He is also a dual Carji Greeves Medallist and a Malcolm Blight Medallist . As well as receiving several media awards , he is also a 7-time All Australian and has represented Australia 4 times in the International Rules Series . Dangerfield is also president of the AFL Players 's Association ( AFLPA ) . Dangerfield is also a frequent AFL media performer , with regular spots on Channel 7 , Fox Footy and SEN adding to a wide range of accolades achieved on field . A keen fisherman , he also hosts a weekly fishing program which has achieved excellent ratings . [ citation needed ]",
    "/wiki/Herald_Sun_Player_of_the_Year": "The Herald Sun Player of the Year award is a media award for the Australian Football League ( AFL ) given by Melbourne newspaper the Herald Sun . It has been awarded annually since 1991 to the player who garners the most votes throughout the season , with a selected Herald Sun journalist awarding five votes to the player they judge to be the best on ground , four votes to the second-best player , three votes to the third-best player , two votes to the fourth-best player and one vote for the fifth best player .",
    "/wiki/2014_AFL_season": "The 2014 Australian Football League season was the 118th season of the elite Australian rules football competition and the 25th under the name 'Australian Football League ' , having switched from 'Victorian Football League ' after 1989 . The premiership season began on 14 March with hosting at Etihad Stadium in Melbourne . The season concluded on 27 September with the AFL Grand Final at the Melbourne Cricket Ground , with successfully defending their 2013 premiership by defeating by 63 points . Matt Priddis won the 2014 Brownlow Medal , voted to be the best and fairest player in the league . Lance Franklin , who transferred from Hawthorn to Sydney after the 2013 season , won the Coleman Medal as the league 's leading goal kicker .",
    "/wiki/Joel_Selwood": "Joel Anthony Selwood ( born 26 May 1988 ) is a professional Australian rules footballer playing for the Geelong Football Club in the Australian Football League ( AFL ) . A standout junior track and field athlete and footballer , Selwood entered top-level football early , joining the TAC Cup competition as a bottom-aged player . His accomplishments as a junior included Most Valuable Player awards at state and international levels , captaining Australia in the International Rules Series , and selection in the All-Australian and TAC Cup Team of the Year sides . Despite a serious knee injury during his final year of junior football , Selwood was selected with Geelong 's first pick , and seventh overall , in the 2006 AFL Draft . Selwood made his AFL debut in 2007 , winning the AFL Rising Star Award and AFLPA Best First Year Player Award . He has since become a triple premiership player , a NAB Cup winner , a six-time All-Australian - three times as captain - a triple Carji Greeves Medallist , a Michael Tuck Medallist , an AFLPA Best Captain Award winner , and a four-time recipient of the AFLPA Robert Rose Most Courageous Player Award . Selwood has also captained Australia in the International Rules Series , represented the Victorian state team as the youngest player to feature in the all-star event , and has been awarded life membership with Geelong . Selwood holds one of the highest winning-percentage records of any player in VFL-AFL history , helping the club reach three successive AFL Grand Finals from 2007 to 2009 and another in 2011 . After serving one season as the club vice-captain in 2011 , Selwood was appointed as the captain of Geelong at the beginning of 2012 following the retirement of Cameron Ling .",
    "/wiki/Lou_Richards_Medal": "The Lou Richards Medal is an annual Most Valuable Player award for the Australian Football League , based on votes from the Sunday Footy Show panel each week .",
    "/wiki/2009_AFL_season": "The 2009 Australian Football League season commenced on 26 March and concluded on 26 September . It was the 113th season of the VFL/AFL competition and the 20th under the name 'Australian Football League ' , having switched from 'Victorian Football League ' after 1989 . The season consisted of 22 home and away rounds and four rounds of finals , culminating in the 2009 AFL Grand Final which determined the 2009 AFL premiers . Geelong won the Grand Final against St Kilda ."
  },
  "List_of_international_cricket_centuries_at_St_George's_Park_0": {
    "/wiki/Phil_Mead": "Charles Phillip Mead ( 9 March 1887 - 26 March 1958 ) was an English first-class cricketer . He played as a left-handed batsman for Hampshire and England between 1905 and 1936 . He was born at 10 Ashton Buildings ( since pulled down ) , second eldest of seven children . As a child he played for South London Schools , attending Shillingstone Street School . His exceptionally straight bat and quick footwork ( surprising for a man of heavy build as he was ) made him one of the most difficult batsmen to dismiss throughout his career . His mastery over the best county spin bowlers even on the most treacherous pitches is remarkable , but he could also be very good against the fastest bowling because he could get closer into line than just about any batsman in cricket history . Mead holds many batting records , notably that of scoring the most runs in the County Championship and the fourth-highest total in all first-class matches . His number of runs for Hampshire , 48,892 , is the greatest number any batsman has scored for a single team . He also exceeded one thousand runs in every season of first-class cricket except his first - when he only played one match . He was also a fine fieldsman , holding 675 catches .",
    "/wiki/England_cricket_team": "The England cricket team represents England and Wales in international cricket . Since 1997 , it has been governed by the England and Wales Cricket Board ( ECB ) , having been previously governed by Marylebone Cricket Club ( the MCC ) since 1903 . England , as a founding nation , is a Full Member of the International Cricket Council ( ICC ) with Test , One Day International ( ODI ) and Twenty20 International ( T20I ) status . Until the 1990s , Scottish and Irish players also played for England as those countries were not yet ICC members in their own right . England and Australia were the first teams to play a Test match ( 15-19 March 1877 ) , and along with South Africa , these nations formed the Imperial Cricket Conference ( the predecessor to today 's International Cricket Council ) on 15 June 1909 . England and Australia also played the first ODI on 5 January 1971 . England 's first T20I was played on 13 June 2005 , once more against Australia . As of 16 February 2020 [ update ] , England have played 1,022 Test matches , winning 371 and losing 304 ( with 347 draws ) . In Test series against Australia , England play for The Ashes , one of the most famous trophies in all of sport , and they have won the urn on 32 occasions . England have also played 746 ODIs , winning 375 . They have appeared in the final of the Cricket World Cup four times , winning once in 2019 ; they have also finished as runners-up in two ICC Champions Trophies ( 2004 and 2013 ) . England have played 117 T20Is , winning 58 .",
    "/wiki/South_Africa_national_cricket_team": "The South Africa national cricket team also known as Proteas represents South Africa in men 's international cricket ( after South Africa 's national flower , Protea cynaroides , commonly known as the king protea ) , is administered by Cricket South Africa . South Africa is a full member of the International Cricket Council ( ICC ) with Test , One-Day International ( ODI ) and Twenty20 International ( T20I ) status . South Africa entered first-class and international cricket at the same time when they hosted an England cricket team in the 1888-89 season . At first , the team was no match for Australia or England but , having gained in experience and expertise , they were able to field a competitive team in the first decade of the 20th century . The team regularly played against Australia , England and New Zealand through to the 1960s , by which time there was considerable opposition to the country 's apartheid policy and an international ban was imposed by the ICC , commensurate with actions taken by other global sporting bodies . When the ban was imposed , South Africa had developed to a point where its team including Eddie Barlow , Graeme Pollock and Mike Procter was arguably the best in the world and had just outplayed Australia . The ban remained in place until 1991 and South Africa could then play against India , Pakistan , Sri Lanka and the West Indies for the first time . The team since reinstatement has mostly been strong and has at times held number one positions in international rankings ( had best ranking of No.1 in all three formats ) but has lacked success in ICC organised tournaments . Outstanding players since reinstatement have included Allan Donald , Makhaya Ntini , Shaun Pollock , Jacques Kallis , Graeme Smith , Kagiso Rabada , AB de Villiers , Dale Steyn , Herschelle Gibbs , Faf du Plessis , Morne Morkel , Imran Tahir and Hashim Amla .",
    "/wiki/Billy_Wade_(cricketer)": "Walter Wareham 'Billy ' Wade ( 18 June 1914 in Durban , Natal - 31 May 2003 in Durban , Natal ) was a South African cricketer who played in 11 Tests between 1938 and 1950 . He attended Hilton College along with his brother , Herby , who also played test cricket for South Africa .",
    "/wiki/George_Mann_(cricketer)": "Francis George Mann , ( 6 September 1917 - 8 August 2001 ) was an English cricketer , who played for Cambridge University , Middlesex and England . He was born at Byfleet , Surrey and died at Stockcross , Berkshire . As a cricketer , George Mann was a right-handed middle-order batsman . His father , Frank Mann , also captained England , making them the first father and son to both captain England . Colin and Chris Cowdrey are the only other father and son to have done this for England .",
    "/wiki/Arthur_Morris": "Arthur Robert Morris ( 19 January 1922 - 22 August 2015 ) was an Australian cricketer who played 46 Test matches between 1946 and 1955 . An opener , Morris is regarded as one of Australia 's greatest left-handed batsmen . He is best known for his key role in Don Bradman 's Invincibles side , which made an undefeated tour of England in 1948 . He was the leading scorer in the Tests on the tour , with three centuries . His efforts in the Fourth Test at Headingley helped Australia to reach a world record victory target of 404 on the final day . Morris was named in the Australian Cricket Board 's Team of the Century in 2000 and was inducted into the Australian Cricket Hall of Fame in 2001 . In his youth , Morris excelled at rugby union as well as cricket , being selected for the state schoolboys ' team in both sports . Originally trained in spin bowling , Morris developed as a batsman during his teens and during the 1940-41 season became the first player in the world to score two centuries on his first-class debut . His career was interrupted by the Second World War , during which he served in the Australian Army and gained selection in its rugby union team . Upon the resumption of cricket in 1946 , Morris made his Test debut against England and quickly made himself a core member of the team . He made a century in his third match and scored twin centuries in the following Test , becoming only the second Australian to do so in an Ashes Test . His rise was such that he was made a selector during the Invincibles tour after only 18 months in the team .",
    "/wiki/Australia_national_cricket_team": "The Australian men 's national cricket team represents Australia in men 's international cricket . As one of the oldest teams in Test cricket history , playing in the first ever Test match in 1877 , the team also plays One-Day International ( ODI ) and Twenty20 International ( T20I ) cricket , participating in both the first ODI , against England in the 1970-71 season and the first T20I , against New Zealand in the 2004-05 season , winning both games . The team draws its players from teams playing in the Australian domestic competitions - the Sheffield Shield , the Australian domestic limited-overs cricket tournament and the Big Bash League . The national team has played 830 Test matches , winning 393 , losing 224 , drawing 211 and tying 2 . As of February 2020 [ update ] , Australia is ranked second in the ICC Test Championship on 108 rating points . Australia is the most successful team in Test cricket history , in terms of overall wins , win-loss ratio and wins percentage . The Australian cricket team has played 942 ODI matches , winning 573 , losing 326 , tying 9 and with 34 ending in a no-result . As of January 2020 [ update ] , Australia is ranked fifth in the ICC ODI Championship on 110 rating points , though have been ranked first for 141 of 185 months since its introduction in 2002 . Australia is the most successful team in ODI cricket history , winning more than 60 per cent of their matches . Australia have made a record seven World Cup final appearances ( 1975 , 1987 , 1996 , 1999 , 2003 , 2007 and 2015 ) and have won the World Cup a record five times : 1987 , 1999 , 2003 , 2007 and 2015 . Australia is the first team to appear in four consecutive World Cup finals ( 1996 , 1999 , 2003 and 2007 ) , surpassing the old record of three consecutive World Cup appearances by the West Indies ( 1975 , 1979 and 1983 ) and the first team to win 3 consecutive World Cups ( 1999 , 2003 and 2007 ) . The team was undefeated in 34 consecutive World Cup matches until the 2011 Cricket World Cup where Pakistan beat them by 4 wickets in the Quarter-final .",
    "/wiki/Neil_Harvey": "Robert Neil Harvey ( born 8 October 1928 ) is an Australian former cricketer who represented the Australian cricket team between 1948 and 1963 , playing in 79 Test matches . He was the vice-captain of the team from 1957 until his retirement . An attacking left-handed batsman , sharp fielder and occasional off-spin bowler , Harvey was the senior batsman in the Australian team for much of the 1950s and was regarded by Wisden as the finest fielder of his era . Upon his retirement , Harvey was the second-most prolific Test run-scorer and century-maker for Australia . One of six cricketing brothers , four of whom represented Victoria , Harvey followed his elder brother Merv into Test cricket and made his debut in January 1948 , aged 19 and three months . In his second match , he became the youngest Australian to score a Test century , a record that still stands . Harvey was the youngest member of the 1948 Invincibles of Don Bradman to tour England , regarded as one of the finest teams in history . After initially struggling in English conditions , he made a century on his Ashes debut . Harvey started his career strongly , with six centuries in his first thirteen Test innings at an average over 100 , including four in 1949-50 against South Africa , including a match-winning 151 not out on a sticky wicket . As Bradman 's team broke up in the 1950s due to retirements , Harvey became Australia 's senior batsman , and was named as one of the Wisden Cricketers of the Year in 1954 , in recognition of his feat in scoring more than 2,000 runs during the 1953 tour of England . In 1957 he was passed over for the captaincy and was named as the deputy of Ian Craig , who had played just six matches , as Australia sought to rebuild the team with a youth policy following a decline in the team . Craig later offered to demote himself due to poor form , but Harvey prevented him from doing so .",
    "/wiki/Lindsay_Hassett": "Arthur Lindsay Hassett ( 28 August 1913 - 16 June 1993 ) was a cricketer who played for Victoria and Australia . The diminutive Hassett was an elegant middle-order batsman , described by Wisden as , . a master of nearly every stroke . his superb timing , nimble footwork and strong wrists enabled him to make batting look a simple matter . His sporting career at school singled him out as a precocious talent , but he took a number of seasons to secure a regular place in first-class cricket and initially struggled to make large scores . Selected for the 1938 tour of England with only one first-class century to his name , Hassett established himself with three consecutive first-class tons at the start of the campaign . Although he struggled in the Tests , he played a crucial role in Australia 's win in the Fourth Test , with a composed display in the run-chase which sealed the retention of the Ashes . Upon returning to Australia , he distinguished himself in domestic cricket with a series of high scores , becoming the only player to score two centuries in a match against Bill O'Reilly - widely regarded as the best bowler in the world . However , the eruption of World War II interrupted Hassett 's progress . With first-class cricket cancelled , he enlisted in the Second Australian Imperial Force , serving in the Middle East and New Guinea before being chosen to captain the Australian Services cricket team that played the Victory Tests in England during the months immediately following Victory in Europe Day . Hassett was the only capped Test player in the team and his men unexpectedly drew the series 2-2 against an English team consisting of Test cricketers . Hassett 's leadership was intrinsic to the success of the team , which toured and helped to re-establish the game in England , India and Australia in the aftermath of the war .",
    "/wiki/Paul_Barton": "Paul Thomas Barton ( born 9 October 1935 ) is a former New Zealand cricketer who played in seven Tests from 1961 to 1963 .",
    "/wiki/New_Zealand_national_cricket_team": "The New Zealand national cricket team represents New Zealand in men 's international cricket . Nicknamed the Black Caps , they played their first Test in 1930 against England in Christchurch , becoming the fifth country to play Test cricket . From 1930 New Zealand had to wait until 1956 , more than 26 years , for its first Test victory , against the West Indies at Eden Park in Auckland . They played their first ODI in the 1972-73 season against Pakistan in Christchurch . The current captain in all formats of the game is Kane Williamson , who replaced Brendon McCullum after the latter 's retirement in December 2015 . The national team is organised by New Zealand Cricket . The New Zealand cricket team became known as the Black Caps in January 1998 , after its sponsor at the time , Clear Communications , held a competition to choose a name for the team . This is one of many national team nicknames related to the All Blacks . As of 8 September 2019 , New Zealand have played 1324 international matches , winning 505 , losing 599 , tying 12 and drawing 165 matches while 43 matches ended as no result . The team is ranked 2nd in Tests , 3rd in ODIs and 6th in T20Is by the ICC . New Zealand defeated South Africa in the semi final of the 2015 World Cup , which was their first win in the a world cup semi final and hence they made their maiden appearance in a World Cup Final , but they ultimately lost to Trans-Tasman rivals Australia . In the next World Cup in 2019 , New Zealand again reached the final which they lost to the hosts England on boundary count after the match and the subsequent Super Over both ended as ties .",
    "/wiki/Graeme_Pollock": "Robert Graeme Pollock ( born 27 February 1944 ) is a former cricketer for South Africa , Transvaal and Eastern Province . A member of a famous cricketing family , Pollock is widely regarded as South Africa 's greatest cricketer , and as one of the finest batsmen to have played Test cricket . Despite Pollock 's international career being cut short at the age of 26 by the sporting boycott of South Africa , and all but one of his 23 Test matches being against England and Australia , the leading cricket nations of the day , he broke a number of records . His completed career Test match batting average of 60.97 remains fourth best after Sir Donald Bradman 's ( 99.94 ) , Steve Smith 's and Adam Voges 's averages . Pollock has been the recipient of numerous awards and accolades , including being voted in 1999 as South Africa 's Cricketer of the 20th Century , one of Wisden 's Cricketers of the Year in 1966 , as well as being retrospectively selected in 2007 as the Wisden Leading Cricketer in the World in 1967 and 1969 . In South Africa he was player of the year in 1961 and 1984 , with special tributes in the S.A. Cricket annuals of 1977 and 1987 . Bradman described Pollock , along with Sir Garfield Sobers , as the best left-handed batsman he had ever seen play cricket . In 2009 , Pollock was inducted into the ICC Cricket Hall of Fame .",
    "/wiki/Geoffrey_Boycott": "Sir Geoffrey Boycott , ( born 21 October 1940 ) , is a retired Test cricketer , who played cricket for Yorkshire and England . In a prolific and sometimes controversial playing career from 1962 to 1986 , Boycott established himself as one of England 's most successful opening batsmen . Since retiring as a player , he has pursued a successful career as a cricket commentator , and was knighted in 2019 . Boycott made his international debut in a 1964 Test match against Australia . He was known for his ability to occupy the crease and became a key feature of England 's Test batting line-up for many years , although he was less successful in his limited One Day International ( ODI ) appearances . He accumulated large scores - he is the equal fifth-highest accumulator of first-class centuries in history , eighth in career runs and the first English player to average over 100 in a season ( 1971 and 1979 ) - but often encountered friction with his teammates . Never the most popular of players among his peers , journalist Ian Wooldridge commented that Boycott , in short , walks alone , while cricket writer John Arlott wrote that Boycott had a lonely career . Others , however , have stated that the extent of his introverted and anti-social nature has been exaggerated , and that while he was obsessed with his own success he was not by nature a selfish player . After 108 Test match appearances for England , Boycott 's international career ended in 1982 when he was the leading Test run scorer with over 8,000 Test match runs , earning him an OBE for services to cricket . When dropped from the Yorkshire team in 1986 he was the leading run scorer in first-class cricket . In 1965 , while still a young player , he had been named as one of five Cricketers of the Year by Wisden Cricketers ' Almanack , and he was inducted into the International Cricket Council 's Hall of Fame in 2009 . After his playing career ended , Boycott became an often outspoken and controversial cricket commentator on both radio and television , never slow to criticise modern players ' techniques .",
    "/wiki/Barry_Richards": "Barry Anderson Richards ( born 21 July 1945 ) is a former South African first-class cricketer . A right-handed talent of such enormous stature , Richards is considered one of South Africa 's most successful batsmen . He was able to play only four Test matches - all against Australia - before South Africa 's exclusion from the international scene in 1970 . In that brief career , against a competitive Australian attack , Richards scored 508 runs at the high average of 72.57 . Richards ' contribution in that series was instrumental in the 4-0 win that South Africa inflicted on the side , captained by Bill Lawry . His first century , 140 , was scored in conjunction with Graeme Pollock 's 274 in a famous 103-run partnership . Mike Procter , whose South African and English career roughly paralleled that of Richards , was prominent in that series as a bowler . With such limited international exposure , Richards plied his trade in first-class cricket between 1964 and 1983 , becoming a prolific batsman with 28,358 runs . He scored 80 centuries , including a best of 356 , at an overall average of 54.74 . He also scored 8,506 one day runs , with 16 further centuries . Wisden Cricketer of the Year for 1969 , Richards scored runs for Gloucestershire , Hampshire , Natal , South Australia , Transvaal and in World Series Cricket , and has been described as one of the finest talents of the 20th century , and it is jokingly said that the merest suggestion that he does not belong among the definitive all-time greats will spark violence in most bars in South Africa . In 2009 , Richards was inducted into the ICC Cricket Hall of Fame .",
    "/wiki/Lee_Irvine": "Brian Lee Irvine ( born 9 March 1944 in Durban , South Africa ) was a cricketer who played four Tests for South Africa in 1969-70 in the last Test series played by South Africa before official sporting links were broken over the apartheid policy . Irvine was a hard-hitting left-handed middle-order batsman , a fine outfielder who became a regular wicketkeeper and an occasional right-arm medium pace bowler . He played one first-class match as an 18-year-old for a Western Province XI against the International Cavaliers - he turned 19 during the match . But he did not then reappear in first-class cricket until he became a regular in the Natal side in the 1965-66 season . After two seasons of modest batting , Irvine made a big advance in the 1967-68 season , scoring 504 runs in the South African domestic season and hitting his first two centuries . He was , however , pretty much an unknown quantity when he was signed by Essex as an overseas player for the 1968 English cricket season , the first season when limited numbers of overseas players were allowed to be registered without a period of qualification or a special dispensation . Irvine proved a success in county cricket . In his first season for Essex , he scored 1,439 runs , and though he did not score a century , he made his runs fast and hit a lot of sixes . Wisden Cricketers ' Almanack for 1969 recorded that rarely did he emerge from a match without hitting at least one six , and in fact he was responsible for more sixes than any other player in first-class cricket . He was awarded his county cap in his first season . His record in South African domestic cricket for Natal in 1968-69 was very similar to his English record : a lot of runs but no centuries . He returned to Essex for 1969 , and increased his batting average , though Wisden remarked that he was less forthright in his batting .",
    "/wiki/Hansie_Cronje": "Wessel Johannes Hansie Cronje ( 25 September 1969 - 1 June 2002 ) was a South African international cricketer and captain of the South African national cricket team in the 1990s . He was voted the 11th greatest South African in 2004 despite having been banned from cricket for life due to his role in a match-fixing scandal . He died in a plane crash in 2002 . Cronje led South Africa to a record 23 wins in his 53 test matches , with just 11 losses . Under his captaincy they had won 99 ODIs . He along with coach Bob Woolmer were a deadly pair , which brought many wins to the nation . Sachin Tendulkar when asked which bowler he hated facing , he said 'it was Hansie Cronje , as he got him out quite often , and he would rather not face Cronje when he is bowling ' .",
    "/wiki/India_national_cricket_team": "The India men 's national cricket team , also known as Team India and Men in Blue , is governed by the Board of Control for Cricket in India ( BCCI ) , and is a Full Member of the International Cricket Council ( ICC ) with Test , One-Day International ( ODI ) and Twenty20 International ( T20I ) status . Cricket was introduced to India by European merchant sailors in the 18th century , and the first cricket club was established in 1792 . India 's national cricket team did not play its first Test match until 25 June 1932 at Lord 's , becoming the sixth team to be granted test cricket status . From 1932 India had to wait until 1952 , almost 20 years for its first Test victory . In its first fifty years of international cricket , India was one of the weaker teams , winning only 35 of the first 196 Test matches it played . The team , however , gained strength in the 1970s with the emergence of players such as batsmen Gavaskar , Viswanath , Kapil Dev , and the Indian spin quartet . Traditionally much stronger at home than abroad , the Indian team has improved its overseas form , especially in limited-overs cricket , since the start of the 21st century , winning Test matches in Australia , England and South Africa . It has won the Cricket World Cup twice - in 1983 under the captaincy of Kapil Dev and in 2011 under the captaincy of Mahendra Singh Dhoni . After winning the 2011 World Cup , India became only the third team after West Indies and Australia to have won the World Cup more than once , and the first cricket team to win the World Cup at home . It also won the 2007 ICC World Twenty20 and 2013 ICC Champions Trophy , under the captaincy of MS Dhoni . It was also the joint champions of 2002 ICC Champions Trophy , along with Sri Lanka . The Indian cricket team has rivalries with other Test-playing nations , most notably with Pakistan , the political arch-rival of India .",
    "/wiki/Kapil_Dev": "Kapil Dev Ram Lal Nikhanj ( born 6 January 1959 ) is a former Indian cricketer . He was a fast bowler and a hard hitting middle order batsman . Regarded as one of the greatest all-rounders to play the game , he is also regarded as one of the greatest captains in the history of cricket . He was named by Wisden as the Indian Cricketer of the Century in 2002 . Dev captained the Indian cricket team that won the 1983 Cricket World Cup . He was India 's national cricket coach between October 1999 and August 2000 . He retired in 1994 , holding the world record for the greatest number of wickets taken in Test cricket , a record subsequently broken by Courtney Walsh in 2000 . At the time , he was also India 's highest wicket taker in both major forms of cricket , Tests and ODIs . He is the first player to take 200 ODI wickets . He is the only player in the history of cricket to have taken more than 400 wickets ( 434 wickets ) and scored more than 5000 runs in Tests , making him one of the greatest all-rounders to have played the game . On 11 March 2010 , Dev was inducted into the ICC Cricket Hall of Fame .",
    "/wiki/Mark_Waugh": "Mark Edward Waugh ( born 2 June 1965 ) is an Australian cricket commentator and former international cricketer , who represented Australia in Test matches from early 1991 to late 2002 , after previously making his One Day International ( ODI ) debut in 1988 . Waugh is often nicknamed Junior as he is younger than his twin brother Steve by a few minutes . Dean Waugh , another of Mark 's brothers , is also a cricketer , having played both First-class and List A cricket in Australia for New South Wales . His nephew and Steve 's son , Austin , was selected in the Australian under-19 team . He was previously a national selector , holding that position until August 2018 . On 15 May 2018 , he announced his intentions to swap national selector duties for a TV commentating role with Fox Sports .",
    "/wiki/Lance_Klusener": "Lance Klusener ( born 4 September 1971 ) is a South African cricket coach and former cricketer . He was known for his aggressive batting and his fast-medium swing bowling . He is nicknamed Zulu because of his fluency in the Zulu language . Since his retirement he has occasionally commentated on cricket in both Zulu and Xhosa , as the two languages are mutually intelligible . His ODI batting average of 41.0 and ODI bowling average of 29.0 places him among the ranks of South Africa 's most accomplished one-day players . He also has a particularly impressive first class record , with a batting average of 43.0 and a bowling average of 30.0 . In September 2019 , Klusener was appointed as the head coach of the Afghanistan national cricket team .",
    "/wiki/Michael_Atherton": "Michael Andrew Atherton OBE ( born 23 March 1968 ) is a broadcaster , journalist and a former England international first-class cricketer . A right-handed opening batsman for Lancashire and England , and occasional leg-break bowler , he achieved the captaincy of England at the age of 25 and led the side in a record 54 Test matches . Known for his stubborn resistance during an era of hostile fast bowling , Atherton was described in 2001 as a determined defensive opener who made batting look like trench warfare . He had several famed bouts with bowlers including South Africa 's Allan Donald and Australia 's Glenn McGrath . Atherton often played the anchor role at a time when England batting performances lacked consistency . His playing career included some controversy , including an accusation of ball tampering , and several brushes with the media with whom , by Atherton 's own admission , he did not have a good understanding when he was a player . Often hampered by a chronic back complaint which was to contribute to the end of his career , Atherton was considered a leading England batsman during the 1990s . Following retirement he became a journalist and is a cricket commentator with Sky Sports , and cricket correspondent of The Times .",
    "/wiki/Mathew_Sinclair": "Mathew Stuart Sinclair ( born 9 November 1975 ) is an Australian-born New Zealand cricketer . He is a right-handed middle order batsman who has also opened the innings . He holds the equal world record for the highest Test score ( 214 ) by a number three batsman on debut when he opened his international career against West Indies in the 1999 Boxing Day Test .",
    "/wiki/Neil_McKenzie": "Neil Douglas McKenzie ( born 24 November 1975 ) is a former South African cricketer , who played all three forms of the game . He is a right-handed opening batsman who played for South Africa , making his first appearance in 2000 . He is currently the batting coach of Bangladesh . He played for the Highveld Lions in South African domestic cricket and has also played county cricket for Somerset , Durham and Hampshire . He announced his retirement from all forms of cricket in January 2016 .",
    "/wiki/Herschelle_Gibbs": "Herschelle Herman Gibbs ( born 23 February 1974 ) is a South African former cricketer , who played all formats of the game for fourteen years . A right-handed batsman , mostly opened the batting , Gibbs became the first player to hit six consecutive sixes in one over in One Day International ( ODI ) cricket , doing so against the Netherlands in the 2007 Cricket World Cup . Regarded as one of the most naturally talented cricketers South Africa have ever produced , Gibbs was also known as an excellent fielder , like his compatriot Jonty Rhodes , with former Australian captain Ricky Ponting noting that in his opinion Gibbs is better than Rhodes in his ability to hit the stumps , with a report prepared by Cricinfo in late 2005 showing that since the 1999 Cricket World Cup , he had effected the eighth highest number of run-outs in ODI cricket of any fieldsman , with the tenth highest success rate . He was the fifth international franchise player signed to the Caribbean Premier League and the first South African player to be named to the new Twenty20 tournament ."
  },
  "California_Historical_Landmarks_in_Placer_County,_California_0": {
    "/wiki/Auburn,_California": "Auburn is a city in and the county seat of Placer County , California . Its population was 13,330 during the 2010 census . Auburn is known for its California Gold Rush history , and is registered as a California Historical Landmark . Auburn is part of the Sacramento metropolitan area and is home to the Auburn State Recreation Area , the site of a number of sporting endurance events . Events include the Western States Endurance Run ; the Western States Trail Ride , also known as Tevis Cup Equestrian Ride ; American River 50 Mile Endurance Run ; American River 50 Mile Equestrian Ride ; Way Too Cool 50 Kilometer Endurance Run ; Auburn International Half Iron Triathlon ; Auburn Century 100 Mile Bike Ride ; Coolest 24 Hour Mountain Bike Race ; Rio Del Lago 100 Mile Endurance Run ; Sierra Nevada 50 Mile Endurance Run ; and the Coolest Run : Ride & Tie .",
    "/wiki/Dutch_Flat,_California": "Dutch Flat ( also , Dutchman 's Flat , Dutch Charlie 's Flat , and Charley 's Flat ) is a small unincorporated community and census-designated place ( CDP ) in Placer County , California , United States , about 30 miles ( 48 km ) northeast of Auburn along Interstate 80 . It was founded by German immigrants in 1851 and was once one of the richest gold mining locations in California . Dutch Flat is now registered as a California Historical Landmark . The community 's ZIP code is 95714 and its area code 530 .",
    "/wiki/Emigrant_Gap": "Emigrant Gap is a gap in a ridge on the California Trail as it crosses the Sierra Nevada , to the west of what is now known as Donner Pass . Here the cliffs are so steep that , back in the 1840s , the pioneers on their way to California had to lower their wagons on ropes in order to continue . The Emigrant Gap was so named because it was a low gap on a ridge where the emigrants ' wagons crossed from the American River drainage to the Bear River drainage . It was part of the Truckee Route , a portion of the California Trail by which pioneers , heading west , emigrated from the United States to California , which was part of Mexico until it was captured by the United States in the Mexican-American War ( 1846-1848 ) . There is a California historical marker ( number 403 ) on Interstate 80 commemorating this brave and arduous task , which was dedicated on June 25 , 1950 .",
    "/wiki/Emigrant_Gap,_California": "Emigrant Gap ( formerly , Wilsons Ranch ) is an unincorporated community in Placer County , California . Emigrant Gap is located 0.25 miles ( 0.4 km ) southwest of Emigrant Gap . It lies at an elevation of 5190 feet ( 1582 m ) . The Wilsons Ranch post office opened in 1865 , changed its name to Emigrant Gap in 1868 . The name Wilsons Ranch honored a stage stop operator .",
    "/wiki/Foresthill,_California": "Foresthill is a census-designated place ( CDP ) in Placer County , California , United States . It is part of the Sacramento-Arden-Arcade-Roseville Metropolitan Statistical Area . The population was 1,483 at the 2010 census , down from 1,791 at the 2000 census .",
    "/wiki/Gold_Run,_California": "Gold Run was a former mining town of the California Gold Rush , located in Placer County , California . The former settlement is a listed California Historical Landmark ( # 405 ) .",
    "/wiki/Griffith_Quarry": "Griffith Quarry , a registered California Historical Landmark listed on the National Register of Historic Places , was a former granite quarry near Penryn , California .",
    "/wiki/Penryn,_California": "Penryn ( Washo : p\u00e9nwin ) is a census-designated place in Placer County , California , in the United States . Geographic location is 38\u00b051\u203208\u2033N 121\u00b010\u203206\u2033W / 38.85222\u00b0N 121.16833\u00b0W / 38.85222 ; -121.16833 . Penryn is located 5.5 miles ( 8.9 km ) northeast of Rocklin . The community 's ZIP code is 95663 and the area code 916 . The population was 831 at the 2010 census .",
    "/wiki/Iowa_Hill,_California": "Iowa Hill ( formerly , Iowa City ) is an unincorporated community in Placer County , California . The town is located 6.5 miles northwest of Foresthill 9 miles east of Colfax and 58 miles northeast of Sacramento . It lies at an elevation of 2861 feet . The community relies completely upon solar panels and generators for power . Population is around 200 people . Iowa Hill Road claims a small handful of lives every decade , and along with its off grid status , prevents the town from growing in population . The community boasts many hardcore cyclists and is appealing to visitors due to the abundance of recreational opportunities . Iowa Hill Road is a very steep , one-lane , winding road embedded within the mountains . There are no safety guardrails . Since ambulance service from Colfax takes a long time , emergency medical transport is supplemented by CALSTAR , the area 's air rescue helicopter . A landing pad is located next to the town fire house .",
    "/wiki/Lake_Tahoe_Dam": "Lake Tahoe Dam is a concrete gravity dam on the Truckee River , at the outlet of Lake Tahoe in Placer County , California . Tahoe Dam regulates the top six feet of Lake Tahoe , and distributes the water into Tahoe 's primary outflow , the Truckee River . The dam is located in Tahoe City and serves as the main storage facility for the U.S. Bureau of Reclamation 's Newlands Project that also includes the Lahontan Dam and two diversion dams , providing irrigation water for 55,000 acres ( 22,000 ha ) of cropland mainly in the Lahontan Valley of western Nevada . The present Lake Tahoe dam replaced an older , privately owned dam built in 1870 at roughly the same location . The dam was built between 1909 and 1913 and stands 18.2 ft ( 5.5 m ) high and 109 ft ( 33 m ) long , raising Lake Tahoe by up to 10.1 ft ( 3.1 m ) . Outflows from the dam are regulated by a gated spillway with 17 bays , with a maximum release capacity of 2,100 cubic feet per second ( 59 m3/s ) . It is situated 400 feet downstream from the lake 's natural shore . This is meant to help hydraulic control during a dry season with low water levels . The reservoir receives water from a catchment of 505 sq mi ( 1,310 km2 ) and has a maximum storage capacity of 732,000 acre\u22c5ft ( 0.903 km3 ) .",
    "/wiki/Tahoe_City,_California": "Tahoe City ( formerly , Tahoe ) is an unincorporated community in Placer County , California . Tahoe City is located on Lake Tahoe , 14 miles ( 22.5 km ) southeast of Donner Pass . It lies at an elevation of 6250 feet ( 1905 m ) . The site was surveyed in 1863 , and Tahoe House was built in 1864 . The Tahoe post office opened in 1871 , closed for a period in 1896 , and changed its name to Tahoe City in 1949 . The ZIP Code is 96145 . Tahoe City is combined with Sunnyside for census purposes into Sunnyside-Tahoe City census-designated place ( CDP ) .",
    "/wiki/Michigan_Bluff,_California": "Michigan Bluff ( formerly , Michigan Bluffs and Michigan City ) is an unincorporated community in Placer County , California . Michigan Bluff is 4.35 miles ( 7.0 km ) east-northeast of Foresthill . It is at an elevation of 3,510 feet ( 1,070 m ) .",
    "/wiki/Ophir,_California": "Ophir ( also , Spanish Corral and Ophirville ) is an unincorporated community in Placer County , California . Ophir is located 2.5 miles ( 4.0 km ) west of Auburn . It lies at an elevation of 682 feet ( 208 m ) . Ophir addresses have the ZIP code of 95658 , a Newcastle address .",
    "/wiki/California_Trail": "The California Trail was an emigrant trail of about 3,000 mi ( 4,800 km ) across the western half of the North American continent from Missouri River towns to what is now the state of California . After it was established , the first half of the California Trail followed the same corridor of networked river valley trails as the Oregon Trail and the Mormon Trail , namely the valleys of the Platte , North Platte , and Sweetwater rivers to Wyoming . In the present states of Wyoming , Idaho , and Utah , the California and Oregon trails split into several different trails or cutoffs .",
    "/wiki/Soda_Springs,_Placer_County,_California": "Soda Springs ( also , Berkeley Soda Springs and Summit Soda Springs ) is an unincorporated community in Placer County , California . Soda Springs is located on the North Fork of the American River , 4 miles ( 6.4 km ) north-northwest of Granite Chief . It lies at an elevation of 6047 feet ( 1843 m ) . A resort that operated at Soda Springs burned down in 1898 .",
    "/wiki/Folsom_Lake_State_Recreation_Area": "The Folsom Lake State Recreation Area surrounds Folsom Lake in the foothills of the Sierra Nevada , and is managed by the California Department of Parks and Recreation . It is located near the city of Folsom , California , about 25 miles ( 40 km ) east of Sacramento .",
    "/wiki/Folsom,_California": "Folsom is a city in Sacramento County , California , United States . It is commonly known for Folsom Prison , the song Folsom Prison Blues as well as for Folsom Lake . The population was 72,203 at the 2010 census . The median home price in Folsom , CA is $ 624,000 with the average household income at $ 102,692 . Folsom is part of the Sacramento\u2212Arden-Arcade\u2212Roseville Metropolitan Statistical Area .",
    "/wiki/Squaw_Valley,_Placer_County,_California": "Olympic Valley , California ( also known as Squaw Valley ) is an unincorporated community located in Placer County northwest of Tahoe City along California State Highway 89 on the banks of the Truckee River near Lake Tahoe . It is home to Squaw Valley Ski Resort , the site of the 1960 Winter Olympics . Olympic Valley is the smallest resort area to host the Olympic Winter Games .",
    "/wiki/First_Transcontinental_Railroad": "The First Transcontinental Railroad ( known originally as the Pacific Railroad and later as the Overland Route ) was a 1,912-mile ( 3,077 km ) continuous railroad line constructed between 1863 and 1869 that connected the existing eastern U.S. rail network at Council Bluffs , Iowa with the Pacific coast at the Oakland Long Wharf on San Francisco Bay . The rail line was built by three private companies over public lands provided by extensive US land grants . Construction was financed by both state and US government subsidy bonds as well as by company issued mortgage bonds . [ N 1 ] The Western Pacific Railroad Company built 132 mi ( 212 km ) of track from the road 's western terminus at Alameda/Oakland to Sacramento , California . The Central Pacific Railroad Company of California ( CPRR ) constructed 690 mi ( 1,110 km ) eastward from Sacramento to Promontory Summit , Utah Territory . The Union Pacific built 1,085 mi ( 1,746 km ) from the road 's eastern terminus at Council Bluffs near Omaha , Nebraska westward to Promontory Summit . The railroad opened for through traffic between Sacramento and Omaha on May 10 , 1869 , when CPRR President Leland Stanford ceremonially tapped the gold Last Spike ( later often referred to as the Golden Spike ) with a silver hammer at Promontory Summit . In the following six months , the last leg from Sacramento to San Francisco Bay was completed . The resulting coast-to-coast railroad connection revolutionized the settlement and economy of the American West . It brought the western states and territories into alignment with the northern Union states and made transporting passengers and goods coast-to-coast considerably quicker , safer and less expensive . Paddle steamers linked Sacramento to the cities and their harbor facilities in the San Francisco Bay until late 1869 , when the CPRR completed and opened the Western Pacific portion ( which the CPRR had acquired control of in 1867-68 [ N 2 ] [ N 3 ] ) to Alameda first and then to Oakland . The first transcontinental rail passengers arrived at the Pacific Railroad 's original western terminus at the Alameda Terminal on September 6 , 1869 , where they transferred to the steamer Alameda for transport across the Bay to San Francisco .",
    "/wiki/Colfax,_California": "Colfax ( formerly , Alden Grove , Alder Grove , Illinoistown , and Upper Corral ) is a city in Placer County , California , at the crossroads of Interstate 80 and State Route 174 . The population was 1,963 at the 2010 census . The town is named in honor of U.S. Vice President Schuyler Colfax ( 1869-73 ) , a bronze statue of whom stands at Railroad Street and Grass Valley Street . ( This is the only known statue of Schuyler Colfax in the United States ) . Some of the town 's notable features include the newly restored Southern Pacific Railroad colonnade-style depot ( which houses the Colfax Museum and Chamber of Commerce ) built in 1905 , the downtown shops on Main Street , and Colfax High School , which serves a large surrounding area .",
    "/wiki/Newcastle,_California": "Newcastle is an unincorporated community and census-designated place ( CDP ) in Placer County , California . Newcastle is located 8 miles ( 12.9 km ) northeast of Rocklin . It is nestled in the Sierra Nevada foothills , 31 miles northeast of Sacramento . Newcastle generally has moderate winters and warm summers . The latitude of Newcastle is 38.874N , the longitude is -121.132W , and an elevation of 945 ft . The town 's zip code is 95658 and area code 916 . The population of the CDP as of the 2010 U.S. Census is 1,224 .",
    "/wiki/Rocklin,_California": "Rocklin is a city in Placer County , California located approximately 22 miles ( 35 km ) from Sacramento , California , and about 6.1 miles ( 9.8 km ) northeast of Roseville in the Sacramento metropolitan area . Besides Roseville , it shares borders with Granite Bay , Loomis and Lincoln . As of the 2010 census , Rocklin 's population was 56,974 . The California Department of Finance placed the 2019 population at 69,249 with a 3.8% YOY growth rate .",
    "/wiki/Roseville,_California": "Roseville ( formerly Roseville Junction , Junction , and Grider 's ) is the largest city in Placer County , California , United States , in the Sacramento metropolitan area . As of 2018 , the US Census Bureau estimated the city 's population to be 139,117 . Interstate 80 runs through Roseville and State Route 65 runs through part of the northern edge of the city .",
    "/wiki/Virginiatown,_California": "Virginiatown ( formerly , Virginia ) is an unincorporated community in Placer County , California . Virginiatown is located on Auburn Ravine , 7.5 miles ( 12.1 km ) west of Auburn . It lies at an elevation of 322 feet ( 98 m ) . Virginiatown is California Historical Landmark # 400 .",
    "/wiki/Yankee_Jims,_California": "Yankee Jims ( also , Yankee Jim and Yankee Jim 's ) is a small community in Placer County , California . It lies at an elevation of 2582 feet ( 787 m ) in the Sierra Nevada foothills . Yankee Jims is located 2.5 miles ( 4.0 km ) west-northwest of Foresthill ."
  }
}