{
  "List_of_winners_of_the_Scottish_Championship_and_predecessors_1": {
    "/wiki/1893\u201394_in_Scottish_football": "1893-94 in Scottish football was the 21st season of competitive football in Scotland and the fourth season of Scottish league football . For the first time there were two divisions in the Scottish Football League , there was no automatic promotion and relegation but the bottom three clubs in Division One and the top three clubs in Division Two were subject to a vote of the remaining First Division clubs . This season also saw the introduction of the Highland Football League .",
    "/wiki/Hibernian_F.C.": "Hibernian Football Club ( /h\u026a\u02c8b\u025c\u02d0rni\u0259n/ ) , commonly known as Hibs , is a professional football club based in the Leith area of Edinburgh , Scotland . The club plays in the Scottish Premiership , the top tier of the Scottish Professional Football League ( SPFL ) , finishing 5th in the 2018-19 season . The club was founded in 1875 by members of Edinburgh 's Irish community , and named after the Roman word for Ireland . Nowadays , whilst the Irish heritage of Hibernian is still reflected in the name , colours and badge , support for the club is now based more on geography than ethnicity or religion . Home matches are played at Easter Road Stadium , which has been in use since 1893 when the club joined the Scottish Football League . Their local rivals are Heart of Midlothian , with whom they contest the Edinburgh derby . The name of the club is regularly shortened to Hibs , with the team also being known as The Hibees ( pronounced /\u02c8ha\u026abi\u02d0z/ ) and supporters known as Hibbies . A less frequently used nickname is The Cabbage , derived from the shortened rhyming slang for Hibs , which is Cabbage and Ribs . Hibernian have won the Scottish league championship four times , most recently in 1952 . Three of those four championships were won between 1948 and 1952 , when the club had the services of The Famous Five , a notable forward line . The club have won the Scottish Cup three times , in 1887 , 1902 and 2016 , with the latter victory ending a notorious drought . Hibs have also won the Scottish League Cup three times , in 1972 , 1991 and 2007 .",
    "/wiki/Cowlairs_F.C.": "Cowlairs Football Club was a 19th-century football club from the Cowlairs area of Glasgow in Scotland . The club were one of the founder members of the Scottish Football League in 1890 , and played at Springvale Park during their time in the league .",
    "/wiki/Clyde_F.C.": "Clyde Football Club are a Scottish semi-professional football club based in Cumbernauld , North Lanarkshire who play in Scottish League One . Formed in 1877 at the River Clyde in Glasgow , since 1994 the team have played their home games at Broadwood Stadium . Their biggest accomplishment was winning the Scottish Cup on three occasions : 1939 , 1955 and 1958 ; they reached the final a further three times , all during a long period based at Shawfield . They have not played in the top division of Scottish football since 1975 .",
    "/wiki/1894\u201395_in_Scottish_football": "The 1894-95 season in Scottish football was the 22nd season of competitive football in Scotland and the fifth season of the Scottish Football League .",
    "/wiki/Motherwell_F.C.": "Motherwell Football Club are a Scottish professional football club in Motherwell , North Lanarkshire . The club compete in the Scottish Premiership . Motherwell have not dropped out of the top-flight of Scottish football since 1985 , and have lifted one trophy in that time - the Scottish Cup in 1991 . Clad in their traditional claret and amber , Motherwell play their home matches at Fir Park Stadium and have done since 1896 . The club 's main rivals over the years have been Hamilton Academical and Airdrieonians , due in part to their close geographical proximities . These matches are known as the Lanarkshire derby . The club have won six major trophies in domestic football : the Scottish League Title in 1931-32 , the Scottish Cup in 1951-52 and 1990-91 , the Scottish League Cup in 1950-51 and the Summer Cup in 1943-44 and in 1964-65 .",
    "/wiki/Port_Glasgow_Athletic_F.C.": "Port Glasgow Athletic was a football club based in Port Glasgow , Scotland . The club was formed in 1878 and originally named Broadfield before changing their name in 1881 . They played in the Scottish Football League between 1893 and 1911 , and were based at Clune Park . In 2018 Port Glasgow Athletic was reformed joining the Strathclyde Saturday Morning Amateur Football League ( SSMAFL ) . The club are now based from parklea playing fields Port Glasgow .",
    "/wiki/Renton_F.C.": "Renton Football Club was a football club based in Renton , West Dunbartonshire , Scotland . Formed in 1872 , they were a prominent team in the early history of Scottish football , and were one of the teams that featured in the first ever Scottish Cup fixture . They won the competition twice , in 1885 and 1888 , and were also runners-up three times . Their 6-1 win against Cambuslang in 1888 is the joint record win in a Scottish Cup final . The club were one of the founder members of the Scottish Football League in 1890 , but were expelled soon after for breaching the regulations against professionalism . They returned to the League in 1891 , but struggled financially and resigned in 1897 . They continued to play in minor senior leagues before folding in 1922 . Renton were one of the first clubs to lay claim to the ( unofficial ) title Champions of the World when in 1888 , as Scottish Cup holders , they challenged and beat the FA Cup holders West Bromwich Albion .",
    "/wiki/1895\u201396_in_Scottish_football": "The 1895-96 season of Scottish football was the 23rd season of competitive football in Scotland and the sixth season of the Scottish Football League . This season also saw the introduction of the Scottish Qualifying Cup .",
    "/wiki/Abercorn_F.C.": "Abercorn Football Club was a football club based in Paisley , Scotland . The club were members of the Scottish Football League from 1890 until 1915 and folded in 1920 . Abercorn were founder members of the Scottish Football League , but eventually could not compete with local rivals St Mirren . During their time in the SFL the club played at Underwood Park , Old Ralston Park and New Ralston Park . Their colours were blue and white stripes .",
    "/wiki/Leith_Athletic_F.C.": "Leith Athletic Football Club is a football club based in the Leith area of Edinburgh , Scotland . They compete in the East of Scotland Football League , Conference A . First team matches are played at Peffermill 3G . The present club considers itself to be a continuation of the original Leith Athletic F.C. , which was founded in 1887 . They played in the Scottish Football League in four different spells between 1897 and 1953 , but went out of business in 1955 . The name was revived at local youth level in 1996 . In 2008 , Leith Athletic returned to senior football when they amalgamated with Edinburgh Athletic and took the latter 's place in the East of Scotland League .",
    "/wiki/Kilmarnock_F.C.": "Kilmarnock Football Club , commonly known as Killie , is a Scottish professional football team based in the town of Kilmarnock , East Ayrshire . The team is currently managed by Alex Dyer . The club has won several honours since its formation in 1869 , most recently the 2011-12 Scottish League Cup after a 1-0 win over Celtic at Hampden Park . Kilmarnock Football Club is currently the oldest football club in the Scottish Premiership , and are also the oldest professional club in Scotland . Home matches are played at Rugby Park , a 17,889 capacity all seater stadium situated in the town itself . Kilmarnock took part in the first ever official match in the Scottish Cup against the now defunct Renton in 1873 . Kilmarnock have a long standing football rivalry with fellow Ayrshire side Ayr United , with both teams playing frequently in the Ayrshire derby in which both sides first met in September 1910 . Kilmarnock have long been the most successful side in the Ayrshire derby , winning 189 times in 256 meetings . The club have qualified for European competitions on nine occasions , their best performance coming in the 1966-67 Fairs Cup when they progressed to the semi-finals , eventually being eliminated by Leeds United . The club is also one of only a few Scottish clubs to have played in all three European competitions ( European Cup , Cup Winners ' Cup and the UEFA Cup ) .",
    "/wiki/1896\u201397_in_Scottish_football": "The 1896-97 season of Scottish football was the 24th season of competitive football in Scotland and the seventh season of the Scottish Football League .",
    "/wiki/Partick_Thistle_F.C.": "Partick Thistle Football Club ( nicknamed the Jags ) are a professional football club from Glasgow , Scotland . Despite their name , the club are based at Firhill Stadium in the Maryhill area of the city , and have not played in Partick since 1908 . The club have been members of the Scottish Professional Football League ( SPFL ) since its formation in 2013 . Thistle currently compete in the Scottish Championship , the second tier of the SPFL structure , following relegation via play-offs from the Scottish Premiership in the 2017-18 season . Since 1936 , Thistle have played in their distinctive red-and-yellow jerseys of varying designs , with hoops , stripes and predominantly yellow tops with red trims having been used , although in 2009 a centenary kit was launched in the original navy-blue style to commemorate 100 years at Firhill . Since 1908 the club have won the Scottish Second Division once and the Scottish First Division ( second tier , now the Scottish Championship ) six times , most recently in 2013 . Thistle have won the Scottish Cup and the Scottish League Cup in 1921 and 1971 respectively . The club are currently managed by Ian McCall in his second spell in charge . Under Alan Archibald 's management , the club achieved promotion to the newly formed Scottish Premiership in 2013 , and remained there for five consecutive seasons . During this spell Thistle secured major investment and in 2017 finished in the top six of Scottish football for the first time in over three decades . Key players such as club legend Kris Doolan broke numerous records and became one of the clubs top goal scorers . Despite relegation in the 2017-18 Scottish Premiership season , Archibald remained as Thistle 's manager .",
    "/wiki/Airdrieonians_F.C._(1878)": "Airdrieonians Football Club , more commonly known as Airdrie , were a Scottish professional football team from the town of Airdrie , in the Monklands area of Lanarkshire . The club became defunct at the end of the Scottish Football League 2001-02 season , despite the team finishing as runners-up in the SFL First Division to Partick Thistle and therefore only narrowly missing out on promotion to the Scottish Premier League . During their 124-year existence the Diamonds , as they were nicknamed , won the old Scottish Division Two three times , the Spring Cup once and the Scottish Challenge Cup on three occasions . The club also competed in four separate Scottish Cup finals ; winning the competition in 1924 . Airdrieonians were the first club in the Scottish League to fold since 1967 , when Third Lanark went bankrupt .",
    "/wiki/1897\u201398_in_Scottish_football": "The season of 1897-98 in Scottish football was the 25th season of competitive football in Scotland and the eighth season of the Scottish Football League .",
    "/wiki/Greenock_Morton_F.C.": "Greenock Morton Football Club is a Scottish professional football club , which plays in the Scottish Championship . The club was founded as Morton Football Club in 1874 , making it one of the oldest senior Scottish clubs . Morton was renamed Greenock Morton in 1994 to celebrate the links with its home town of Greenock . Morton won the Scottish Cup in 1922 , and achieved its highest league finish in 1916-17 , as runners-up to champions Celtic . Morton holds the record for the most promotions to and relegations from the top flight ( 10 promotions and 10 relegations ) , but has not competed in the top flight of the Scottish football league system since 1988 . In 2014-15 , Morton won its tenth league title in all divisions by winning the Scottish League One championship on the final day .",
    "/wiki/1898\u201399_in_Scottish_football": "1898-99 in Scottish football was the 26th season of competitive football in Scotland and the ninth season of the Scottish Football League .",
    "/wiki/1899\u20131900_in_Scottish_football": "The season of 1899-1900 in Scottish football was the 27th season of competitive football in Scotland and the tenth season of the Scottish Football League .",
    "/wiki/1900\u201301_in_Scottish_football": "The 1900-01 season was the 28th season of competitive football in Scotland and the 11th season of the Scottish Football League .",
    "/wiki/St_Bernard's_F.C.": "St Bernard 's Football Club were a football club based in Edinburgh , Scotland . The club was established in 1878 and joined the Scottish Football League . They played at several different grounds before making the Royal Gymnasium Ground their long-term home . However , after having to sell it in 1943 , the club was dissolved .",
    "/wiki/1901\u201302_in_Scottish_football": "The 1901-02 season the 29th season of competitive football in Scotland and the 12th season of the Scottish Football League .",
    "/wiki/1902\u201303_in_Scottish_football": "The 1902-03 season was the 30th season of competitive football in Scotland and the 13th season of the Scottish Football League .",
    "/wiki/Ayr_F.C.": "Ayr Football Club was a Scottish Football League club from Ayr , Scotland . They were formed in 1879 by a merger of the Ayr Thistle and Ayr Academicals football clubs . Their initial home ground was Springvale Park , which they left in 1884 to play home fixtures at Beresford Park , which they in turn left in 1888 to move to Somerset Park . Ayr won their first ever game at Somerset Park 3-0 against Aston Villa . Ayr had spent 13 seasons in the Scottish Football League Division Two , with a best finish of third place which they managed on three occasions . They never won promotion above this level . Ayr F.C . merged with fellow league members Ayr Parkhouse in 1910 to form Ayr United . This is the first and only example in Scottish football of a merger between two league clubs from the same town . The merger came about because it was felt that a merged club would have better prospects of playing in Division One . Ayr United achieved that status three years after the merger .",
    "/wiki/1903\u201304_in_Scottish_football": "The 1903-04 season was the 31st season of competitive football in Scotland and the 14th season of the Scottish Football League .",
    "/wiki/Hamilton_Academical_F.C.": "Hamilton Academical Football Club , often known as Hamilton Accies , or The Accies , are a Scottish football club from Hamilton in South Lanarkshire who currently compete in the Scottish Premiership , having been promoted from the 2013-14 Scottish Championship . They were established in 1874 from the school football team at Hamilton Academy and remain the only professional club in British football to have originated from a school team . Hamilton have won the Scottish Challenge Cup twice and have finished runners-up in the Scottish Cup twice . The club currently play their home games at New Douglas Park . Brian Rice is the club 's manager , and was appointed in January 2019 .",
    "/wiki/1904\u201305_in_Scottish_football": "The 1904-05 season was the 32nd season of competitive football in Scotland and the 15th season of the Scottish Football League .",
    "/wiki/Falkirk_F.C.": "Falkirk Football Club is a Scottish professional association football club based in the town of Falkirk . The club was founded in 1876 and competes in the Scottish League One , the third tier of Scottish football , as a member of the Scottish Professional Football League . The club was elected to the Second Division of the Scottish Football League in 1902-03 , was promoted to the First Division after two seasons and achieved its highest league position in the early 1900s when it was runner-up to Celtic in 1907-08 and 1909-10 . The football club was registered as a Limited Liability Company in April 1905 - Falkirk Football & Athletic Club Ltd. Falkirk won the Scottish Cup for the first time in 1913 . After 1945 , Falkirk were promoted and demoted between the Premier and First Divisions seven times until 1995-96 , and during the 1970s spent three seasons in the Second Division . In 2005 , Falkirk were promoted to the Scottish Premier League ( SPL ) . Falkirk won the Scottish Cup again in 1957 and were runners-up in the competition in 1997 , 2009 and 2015 . As a result of its performance in the 2009 Scottish Cup , the club qualified for the inaugural season of the UEFA Europa League in 2009-10 . Falkirk have won the second tier of Scottish football a record seven times , an honour shared with St Johnstone . They have also won the Scottish Challenge Cup more than any other club , winning it for the fourth time in 2012 . In their early years , Falkirk played at three venues : Hope Street , Randyford Park and Blinkbonny Park . Between 1885 and 2003 , the club was based at Brockville Park , built on the former Hope Street ground .",
    "/wiki/1905\u201306_in_Scottish_football": "The 1905-06 season was the 33rd season of competitive football in Scotland and the 16th season of the Scottish Football League .",
    "/wiki/Albion_Rovers_F.C.": "Albion Rovers Football Club is a semi-professional football team from Coatbridge , North Lanarkshire , Scotland . They are members of the Scottish Professional Football League ( SPFL ) and , as of the 2019-20 season , play in League Two , the fourth tier of the Scottish football league system . Founded in 1882 as the result of an amalgamation of two teams , Albion and Rovers , the club joined the Scottish Football League initially in 1903 before returning in 1919 and , although they have spent most of their time in the lower divisions , have maintained their league membership since . Their sole major honours during that time have been wins in the lower two divisions of the senior league system . The club 's stadium , Cliftonhill , opened on 25 December 1919 .",
    "/wiki/1906\u201307_in_Scottish_football": "The 1906-07 season was the 34th season of competitive football in Scotland and the 17th season of the Scottish Football League .",
    "/wiki/Vale_of_Leven_F.C.": "Vale of Leven Football Club are an association club based in the town of Alexandria , Scotland , in the Vale of Leven area of West Dunbartonshire . Nicknamed the Vale and formed in 1939 , they play at Millburn Park . They play in the Scottish Junior Football Association , West Region , and wear blue and white strips .",
    "/wiki/Arthurlie_F.C.": "Arthurlie Football Club are a football team from Barrhead , East Renfrewshire in Scotland . Based at Dunterlie Park , they play in the SJFA West Region Championship . The club played in the Scottish Football League in two spells , 1901 to 1915 and 1923 to 1929 . They have won the Scottish Junior Cup twice , in 1937 and 1998 .",
    "/wiki/1907\u201308_in_Scottish_football": "The 1907-08 season was the 35th season of competitive football in Scotland and the 18th season of the Scottish Football League . This season also saw the first playing of the Scottish Consolation Cup .",
    "/wiki/Raith_Rovers_F.C.": "Raith Rovers Football Club is a Scottish professional football club based in the town of Kirkcaldy , Fife . The club was founded in 1883 and currently competes in Scottish League One as a member of the Scottish Professional Football League , having been relegated from the Scottish Championship following defeat in the Championship play-off semi-finals in 2017 . The club 's highest ever league position came in 1922 , when it finished third behind champions Celtic and runners-up Rangers in Division One . The club has won two national trophies , the Scottish League Cup in 1994 by defeating Celtic after a penalty shoot-out and on 6 April 2014 , Rovers won the 2013-14 Scottish Challenge Cup after beating Rangers 1-0 with a late goal from John Baird in extra time . The club were also runners-up in the 1949 League Cup Final as well as being losing finalists in the 1913 Scottish Cup Final . Below the top flight of Scottish football the club has won the second tier five times , finishing runners-up on the same number of occasions , the last coming in 2010-11 behind rivals Dunfermline Athletic . As a result of winning the League Cup in 1994 , Raith Rovers qualified for the UEFA Cup the following season . The club managed to reach the second round , only to be defeated 4-1 on aggregate to eventual champions Bayern Munich . Raith 's home ground is Stark 's Park , an 8,867 all-seater stadium in the south of Kirkcaldy . The club has been based at the ground since 1891 .",
    "/wiki/Dumbarton_F.C.": "Dumbarton Football Club is a semi-professional football club in Dumbarton , Scotland . Founded on 23 December 1872 , they are one of the oldest football clubs in Scotland . The club plays home games at the Dumbarton Football Stadium next to Dumbarton Castle . The club were one of the most successful of the nineteenth century , winning the Scottish Football League in the first two seasons of the competition ( the first jointly with Rangers ) . Since then , the club have spent the majority of their history outside the top flight , with their last appearance at the top level coming in 1984-85 and the side currently playing in League One . The club were the first team ( and one of only two ) to win at least one league title in each of the top four tiers in the Scottish football league system . Jim Duffy is currently the club 's manager having been appointed in October 2018 .",
    "/wiki/1908\u201309_in_Scottish_football": "The 1908-09 season was the 36th season of competitive football in Scotland and the 19th season of the Scottish Football League .",
    "/wiki/1909\u201310_in_Scottish_football": "The 1909-10 season was the 37th season of competitive football in Scotland and the 20th season of the Scottish Football League .",
    "/wiki/1910\u201311_in_Scottish_football": "The 1910-11 season was the 38th season of competitive football in Scotland and the 21st season of the Scottish Football League .",
    "/wiki/Ayr_United_F.C.": "Ayr United Football Club are a football club in Ayr , Scotland , that plays in the Scottish Championship , the second tier of the Scottish Professional Football League . Formed in 1910 by the merger of Ayr Parkhouse and Ayr F.C. , their nickname is The Honest Men , from a line in the Robert Burns poem Tam o ' Shanter . They play at Somerset Park . The club are currently managed by Mark Kerr , who was appointed on 22 October 2019 . The club have spent 34 seasons in Scotland 's top division , the last being 1977-78 , and have been the champions of the second tier of Scottish football on six occasions , and of the third tier on three occasions . The club 's most successful manager , Ally MacLeod , went on to manage the Scottish national football team . In 2018 , Ayr United secured promotion to the Scottish Championship as champions of League One .",
    "/wiki/1911\u201312_in_Scottish_football": "The 1911-12 season was the 39th season of competitive football in Scotland and the 22nd season of the Scottish Football League .",
    "/wiki/1912\u201313_in_Scottish_football": "The 1912-13 season was the 40th season of competitive football in Scotland and the 23rd season of the Scottish Football League .",
    "/wiki/Dunfermline_Athletic_F.C.": "Dunfermline Athletic Football Club is a Scottish football club based in Dunfermline , Fife . Founded in 1885 , the club currently play in the Scottish Championship . Dunfermline play at East End Park , are nicknamed The Pars and are currently managed by former striker Stevie Crawford . The Pars ' most successful period was in the 1960s , when the side won the Scottish Cup twice , in 1961 and 1968 under the management of Jock Stein and George Farm respectively . The club regularly played European football in this period , reaching the semi-finals of the 1968-69 European Cup Winners ' Cup under Farm . The club have played at East End Park since their formation in 1885 , however , the pitch they initially played at - also known as East End Park - was slightly west of the present stadium . After a period of relative success in the 2000s marked by appearances in three major finals ( the 2004 Scottish Cup Final , the 2006 Scottish League Cup Final and the 2007 Scottish Cup Final ) , all of which were lost against Celtic . Dunfermline were relegated to the First Division in 2007 . The club then encountered financial problems and , in April 2013 , applied for and was granted full administration at the Court of Session in Edinburgh , and in October 2013 , the fan group Pars United assumed control of the club .",
    "/wiki/East_Stirlingshire_F.C.": "East Stirlingshire Football Club is a Scottish association football club based in the town of Falkirk . The club was founded in 1881 and competes in the Lowland Football League , in the fifth tier of the Scottish football league system . The club 's origins can be traced to 1880 when a local cricket club formed a football team under the name Britannia , based in the village of Bainsford . The club was elected to the Scottish Football League in 1900-01 and has competed in the league system for most of its existence . East Stirlingshire has won the second tier of Scottish football once and finished runners-up once , earning promotion to the top-flight on both occasions . The club 's highest league ranking came during the two solitary seasons it competed in the top flight in 1932-33 and 1963-64 . In 2016 , East Stirlingshire became the first club ever to be relegated out of the national league system . East Stirlingshire first entered in the Scottish Cup in 1882 , its best result reaching the quarter-finals on three occasions , the last in 1981 . The club 's best result in a national cup competition was in the 2000-01 season when it reached the semi-finals of the Scottish Challenge Cup , losing to Livingston for a place in the final . In 2008 , the club left Firs Park and moved to Ochilview Park to ground-share with local rivals Stenhousemuir . From the start of the 2018-19 season the club will ground-share with their Neighbour Club Falkirk at the Falkirk Stadium ."
  },
  "Florida_Film_Critics_Circle_Award_for_Best_Foreign_Language_Film_2": {
    "/wiki/I_Am_Love_(film)": "I Am Love ( Italian : Io sono l'amore ) is a 2009 Italian romantic drama film directed by Luca Guadagnino , set in Milan around the year 2000 . The film follows an haute bourgeois family through changing times and fortunes , and its disruption by the forces of passion . [ vague ] It is the first installment in Guadagnino 's self-described Desire trilogy , preceding A Bigger Splash ( 2015 ) and Call Me by Your Name ( 2017 ) . The cast is led by Tilda Swinton as Emma Recchi . Producers Swinton and Guadagnino developed the film together over an 11-year period . The film 's soundtrack uses pre-existing compositions by John Adams . The film premiered in September 2009 at the Venice Film Festival , followed by showings at various film festivals around the world . It first went on general release in Italy in March 2010 , followed by the UK and Ireland in April 2010 . In the United States it had only a limited release in June 2010 , before being released on DVD in October 2010 . The film received a nomination for an Academy Award for Best Costume Design at the 83rd Academy Awards .",
    "/wiki/Luca_Guadagnino": "Luca Guadagnino ( Italian : [ \u02c8lu\u02d0ka \u0261wada\u02c8\u0272i\u02d0no ] ; born 10 August 1971 ) is an Italian film director , producer , and screenwriter . He has collaborated a number of times with actress Tilda Swinton , including on the films The Protagonists ( 1999 ) , I Am Love ( 2010 ) , A Bigger Splash ( 2015 ) and Suspiria ( 2018 ) . For directing and producing Call Me by Your Name ( 2017 ) , Guadagnino received widespread critical acclaim and several accolades , including nominations for an Academy Award for Best Picture , Nastro d'Argento for Best Director , and BAFTA Award for Best Direction .",
    "/wiki/The_Skin_I_Live_In": "The Skin I Live In ( Spanish : La piel que habito ) is a 2011 Spanish psychological thriller drama film written and directed by Pedro Almod\u00f3var , starring Antonio Banderas , Elena Anaya , Marisa Paredes , Jan Cornet , and Roberto \u00c1lamo . The Skin I Live In is based on Thierry Jonquet 's novel Mygale , first published in French and then in English under the title Tarantula . Almod\u00f3var has described the film as a horror story without screams or frights . The film was the first collaboration in 21 years between Almod\u00f3var and Banderas since Tie Me Up ! Tie Me Down ! ( 1990 ) . It premiered in May 2011 in competition at the 64th Cannes Film Festival , and won Best Film Not in the English Language at the 65th BAFTA Awards . It was also nominated for the Golden Globe Award for Best Foreign Language Film and 16 Goya Awards .",
    "/wiki/Pedro_Almod\u00f3var": "Pedro Almod\u00f3var Caballero ( Spanish pronunciation : [ \u02c8pe\u00f0\u027eo almo\u02c8\u00f0o\u03b2a\u027e ka\u03b2a\u02c8\u029de\u027eo ] ; born 25 September 1949 ) is a Spanish filmmaker , director , screenwriter , producer , and former actor . He came to prominence as a director and screenwriter during La Movida Madrile\u00f1a , a cultural renaissance that followed after the end of Francoist Spain . His first few films characterised the sense of sexual and political freedom of the period . In 1986 , he established his own film production company , El Deseo , with his younger brother Agust\u00edn Almod\u00f3var , responsible for producing all of his films since Law of Desire ( 1987 ) . Almod\u00f3var achieved international recognition for his black comedy-drama film Women on the Verge of a Nervous Breakdown ( 1988 ) , which was nominated for the Academy Award for Best Foreign Language Film , and went on to more success with the dark romantic comedy film Tie Me Up ! Tie Me Down ! ( 1990 ) , the melodrama High Heels ( 1991 ) and the romantic drama thriller Live Flesh ( 1997 ) . His subsequent two films won an Academy Award each : All About My Mother ( 1999 ) received the award for Best Foreign Language Film while Talk to Her ( 2002 ) earned him the award for Best Original Screenplay . Almod\u00f3var followed this with the drama Volver ( 2006 ) , the romantic thriller Broken Embraces ( 2009 ) , the psychological thriller The Skin I Live In ( 2011 ) and the dramas Julieta ( 2016 ) and Pain and Glory ( 2019 ) , all of which were in competition for the Palme d'Or at the Cannes Film Festival . His films are marked by his employment of certain actors and creative personnel , complex narratives , melodrama , pop culture , popular songs , irreverent humour , strong colours , and glossy d\u00e9cor . Desire , passion , family , and identity are among Almod\u00f3var 's most prevalent themes . Acclaimed as one of the most internationally successful Spanish filmmakers , Almod\u00f3var and his films have gained worldwide interest and developed a cult following .",
    "/wiki/The_Intouchables": "The Intouchables ( French : Intouchables , pronounced [ \u025b\u0303tu\u0283abl ] ) , also known as Untouchable ( UK ) , is a 2011 French buddy comedy-drama film directed by Olivier Nakache & \u00c9ric Toledano . It stars Fran\u00e7ois Cluzet and Omar Sy . Nine weeks after its release in France on 2 November 2011 , it became the second biggest box office hit in France , just behind the 2008 film Welcome to the Sticks . The film was voted the cultural event of 2011 in France with 52% of votes in a poll by Fnac . It also became the most viewed French film in the world with 51.5 million tickets up to 2014 and the success of Lucy . The film has received several award nominations . In France , the film won the C\u00e9sar Award for Best Actor for Omar Sy , and garnered seven further nominations for the C\u00e9sar Awards , including the C\u00e9sar Award for Best Film .",
    "/wiki/Olivier_Nakache_&_\u00c9ric_Toledano": "Olivier Nakache ( born 15 April 1973 ) and \u00c9ric Toledano ( born 3 July 1971 ) are French filmmakers , best known for directing the films Those Happy Days and The Intouchables .",
    "/wiki/Blue_Is_the_Warmest_Colour": "Blue Is the Warmest Colour ( French : La Vie d'Ad\u00e8le - Chapitres 1 & 2 ; French pronunciation : \u200b [ la vi d\u203fad\u025bl \u0283a.pit\u0281 \u0153\u0303\u203fne d\u00f8 ] ) is a 2013 French romance film co-written , co-produced , and directed by Abdellatif Kechiche , and starring L\u00e9a Seydoux and Ad\u00e8le Exarchopoulos . The film follows Ad\u00e8le ( Exarchopoulos ) , a French teenager who discovers desire and freedom as an aspiring female painter Emma ( Seydoux ) enters her life . The film charts their relationship from Ad\u00e8le 's high school years to her early adult life and career as a school teacher . The premise of Blue Is the Warmest Colour is based on the 2010 graphic novel of the same name by Julie Maroh . Production began in March 2012 and lasted six months . Approximately 800 hours of footage was shot , including extensive B-roll footage , with Kechiche ultimately trimming the final cut of the film down to 179 minutes . The film generated controversy upon its premiere at the 2013 Cannes Film Festival and before its release . Much of the controversy was about claims of poor working conditions on set by the crew and the lead actresses , and also the film 's raw depiction of sexuality . At the 2013 Cannes Film Festival , the film unanimously won the Palme d'Or from the official jury and the FIPRESCI Prize . It is the first film to have the Palme d'Or awarded to both the director and the lead actresses , with Seydoux and Exarchopoulos joining Jane Campion ( The Piano ) as the only women to have won the award . The film had its North American premiere at the 2013 Telluride Film Festival . The film received critical acclaim and was nominated for the Golden Globe Award for Best Foreign Language Film and the BAFTA Award for Best Film Not in the English Language .",
    "/wiki/Abdellatif_Kechiche": "Abdellatif Kechiche ( French : [ abd\u025blatif ke\u0283i\u0283 ] ; Tunisian Arabic : \u0639\u0628\u062f \u0627\u0644\u0644\u0637\u064a\u0641 \u0643\u0634\u064a\u0634 , born 7 December 1960 ) is a Tunisian-French actor , film director and screenwriter . He made his directorial debut in 2000 with La Faute \u00e0 Voltaire , which he also wrote . His film Blue Is the Warmest Colour won the Palme d'Or at the 2013 Cannes Film Festival .",
    "/wiki/The_Raid_2": "The Raid 2 ( ; ) is a 2014 Indonesian action film written , directed and edited by the Welsh filmmaker Gareth Evans . It is the sequel to the 2011 film The Raid and stars Iko Uwais , Arifin Putra , Oka Antara , Tio Pakusadewo , Alex Abbad , Julie Estelle , Ryuhei Matsuda , Kenichi End\u014d , and Kazuki Kitamura . The film was released in the United States and Canada by Sony Pictures Classics on 28 March 2014 . In the story , special forces officer Rama is sent undercover to expose the corrupt police officials colluding with the crime families of Jakarta 's criminal underworld . Like Evans ' previous films Merantau and The Raid , the fight scenes showcase the Indonesian fighting style of Pencak Silat .",
    "/wiki/Indonesia": "Indonesia ( /\u02cc\u026and\u0259\u02c8ni\u02d0\u0292\u0259/ ( listen ) IN-d\u0259-NEE-zh\u0259 ) , officially the Republic of Indonesia ( Indonesian : Republik Indonesia [ re\u02c8publik \u026ando\u02c8nesia ] ( listen ) ) , [ a ] is a country in Southeast Asia , between the Indian and Pacific oceans . It is the world 's largest island country , with more than seventeen thousand islands , and at 1,904,569 square kilometres ( 735,358 square miles ) , the 14th largest by land area and 7th in the combined sea and land area . With over 267 million people , it is the world 's 4th most populous country as well as the most populous Muslim-majority country . Java , the world 's most populous island , is home to more than half of the country 's population . The country 's capital , Jakarta , is the second-most populous urban area in the world . The sovereign state is a presidential , constitutional republic with an elected legislature . It has 34 provinces , of which five have special status . The country shares land borders with Papua New Guinea , East Timor , and the eastern part of Malaysia . Other neighbouring countries include Singapore , Vietnam , the Philippines , Australia , Palau , and India 's Andaman and Nicobar Islands . Despite its large population and densely populated regions , Indonesia has vast areas of wilderness that support a high level of biodiversity . The country has abundant natural resources like oil and natural gas , coal , tin , copper , gold , and nickel , while agriculture mainly produces rice , palm oil , tea , coffee , cacao , medicinal plants , spices , and rubber . China , the United States , Japan , Singapore , and India are Indonesia 's major trading partners .",
    "/wiki/Gareth_Evans_(director)": "Gareth Huw Evans ( born 1980 ) is a Welsh film director , screenwriter , editor , and action choreographer . He is best known for bringing the Indonesian martial art pencak silat into world cinema through his films Merantau , The Raid , and The Raid 2 .",
    "/wiki/The_Assassin_(2015_film)": "The Assassin ( ; or : The Assassin Ni\u00e8 Y\u01d0nni\u00e1ng ) is a 2015 wuxia film directed by Taiwanese director Hou Hsiao-hsien . A Taiwan/Mainland China/Hong Kong co-production , it was an official selection in the main competition section at the 2015 Cannes Film Festival . At Cannes , Hou won the award for Best Director . It was released in Mainland and Hong Kong , China on 27 August , and a day later in Taiwan on 28 August 2015 . It was selected as the Taiwanese entry for the Best Foreign Language Film at the 88th Academy Awards but it was not nominated .",
    "/wiki/Taiwan": "Taiwan ( Chinese : \u81fa\u7063 ; pinyin : T\u00e1iw\u0101n ) , [ II ] officially the Republic of China ( ROC ) , [ I ] is a state in East Asia . Neighbouring states include the People 's Republic of China ( PRC ) to the north-west , Japan to the north-east , and the Philippines to the south . The island of Taiwan has an area of 35,808 square kilometres ( 13,826 sq mi ) , with mountain ranges dominating the eastern two-thirds and plains in the western third , where its highly urbanised population is concentrated . Taipei is the capital and largest metropolitan area . Other major cities include Kaohsiung , Taichung , Tainan and Taoyuan . With 23.7 million inhabitants , Taiwan is among the most densely populated states , and is the most populous state and largest economy that is not a member of the United Nations ( UN ) . Taiwanese indigenous peoples settled the island of Taiwan around 6,000 years ago . In the 17th century , Dutch rule opened the island to mass Han immigration . After the brief Kingdom of Tungning in parts of the southern and western areas of the island , the island was annexed in 1683 by the Qing dynasty of China , and ceded to the Empire of Japan in 1895 . Following the surrender of Japan in 1945 , the Republic of China , which had overthrown and succeeded the Qing in 1911 , took control of Taiwan on behalf of the World War II Allies . The resumption of the Chinese Civil War led to the loss of the mainland to the Communist Party of China and the flight of the ROC government to Taiwan in 1949 . Although the ROC government continued to claim to be the legitimate representative of China , since 1950 its effective jurisdiction has been limited to Taiwan and numerous smaller islands .",
    "/wiki/Hou_Hsiao-hsien": "Hou Hsiao-hsien ( Chinese : \u4faf\u5b5d\u8ce2 ; born 8 April 1947 ) is a Taiwanese film director , screenwriter , producer and actor . He is a leading figure in world cinema and in Taiwan 's New Wave cinema movement . He won the Golden Lion at the Venice Film Festival in 1989 for his film A City of Sadness ( 1989 ) , and the Best Director award at the Cannes Film Festival in 2015 for The Assassin ( 2015 ) . Other highly regarded works of his include The Puppetmaster ( 1993 ) and Flowers of Shanghai ( 1998 ) . Hou was voted Director of the Decade for the 1990s in a poll of American and international critics by The Village Voice and Film Comment . In a 1998 New York Film Festival worldwide critics ' poll , Hou was named one of the three directors most crucial to the future of cinema . A City of Sadness ranked 117th in the British Film Institute 's 2012 Sight & Sound critics ' poll of the greatest films ever made .",
    "/wiki/Elle_(film)": "Elle ( French for she or her ) is a 2016 thriller film directed by Paul Verhoeven and written by David Birke , based on the novel Oh . by Philippe Djian . Djian 's novel was released in 2012 and received the Prix Interalli\u00e9 ( National Literary Award ) . The film stars Isabelle Huppert as a businesswoman who is raped in her home by a masked assailant and decides not to report it due to her past experience with police . The film is Verhoeven 's first feature since 2006 's Black Book , and his first in the French language . It premiered in competition for the Palme d'Or at the 2016 Cannes Film Festival where it received critical acclaim . Elle won the Golden Globe Award for Best Foreign Language Film and Critics ' Choice Movie Award for Best Foreign Language Film ; it was also selected as the French entry for the Academy Award for Best Foreign Language Film , but was not nominated . At the 42nd C\u00e9sar Awards in France , the film received eleven nominations , and won Best Film . Huppert 's performance was widely acclaimed , considered to be one of the finest of her career . She was nominated for the Academy Award for Best Actress , and won several Best Actress awards , including the Golden Globe Award , C\u00e9sar Award , National Society of Film Critics Award , New York Film Critics Circle Award , Los Angeles Film Critics Association Award , Gotham Independent Film Award , and the Independent Spirit Award .",
    "/wiki/Paul_Verhoeven": "Paul Verhoeven ( Dutch : [ \u02c8p\u028cu\u032fl v\u0259r\u02c8\u0266uv\u0259 ( n ) ] ; born 18 July 1938 ) is a Dutch director , screenwriter and film producer . Active in both the Netherlands and Hollywood , Verhoeven 's blending of graphic violence and sexual content with social satire are trademarks of both his drama and science fiction films . He directed the films Turkish Delight ( 1973 ) , Soldier of Orange ( 1977 ) , Flesh and Blood ( 1985 ) , RoboCop ( 1987 ) , Total Recall ( 1990 ) , Basic Instinct ( 1992 ) , Showgirls ( 1995 ) , Starship Troopers ( 1997 ) , Black Book ( 2006 ) and Elle ( 2016 ) . Turkish Delight received the award for Best Dutch Film of the Century at the Netherlands Film Festival . His films altogether received a total of nine Academy Award nominations , mainly for editing and effects . Verhoeven won the Saturn Award for Best Director for RoboCop . His Dutch war film Black Book ( 2006 ) was nominated for a BAFTA Award for Best Film Not in the English Language and was voted by the Dutch public , in 2008 , as the best Dutch film ever made . In contrast , he won the Golden Raspberry Awards for Worst Picture and Worst Director for Showgirls ; he is one of the few people to have accepted their Golden Raspberry awards in person , and was the first person to go to the ceremony to receive it . In 2016 he directed the Golden Globe Award for Best Foreign Language Film winning movie Elle . The Seattle Times praised Verhoeven by saying , director Paul Verhoeven often appears to be a one-man Dutch movie industry , while The San Diego Union-Tribune called Verhoeven a busy bee whose movies pollinate the festival circuit .",
    "/wiki/BPM_(Beats_per_Minute)": "BPM ( Beats per Minute ) , also known as 120 BPM ( Beats per Minute ) , [ a ] ( French : 120 battements par minute ) is a 2017 French drama film directed by Robin Campillo and starring Nahuel P\u00e9rez Biscayart , Arnaud Valois and Ad\u00e8le Haenel . The film is about homosexuality and the AIDS epidemic , set in France in the 1990s . Campillo and co-screenwriter Philippe Mangeot drew on their personal experiences with ACT UP in developing the story . It had its world premiere at the 2017 Cannes Film Festival , followed by screenings at other festivals . At Cannes it won critical acclaim and four awards , including the Grand Prix . It went on to win six C\u00e9sar Awards , including Best Film , and other honours .",
    "/wiki/Robin_Campillo": "Robin Campillo ( born 16 August 1962 ) is a Moroccan-born French screenwriter , editor and film director . He is known for his work on films such as The Class ( 2008 ) , Heading South ( 2005 ) , the French zombie film They Came Back ( 2004 ) , Eastern Boys ( 2013 ) , and Time Out ( 2001 ) , the latter of which was placed at ninety-nine on Slant Magazine 's best films of the 2000s , number nine of The Guardian 's Best Films of the noughties , and number eleven at The A.V . Club 's top fifty films of the 2000s . In 2017 , he released 120 BPM ( Beats per Minute ) which received mass acclaim and went on to garner many awards , including the Grand Prix and 2017 C\u00e9sar Award for Best Film .",
    "/wiki/Shoplifters": "Kore-eda wrote the screenplay contemplating what makes a family , and inspired by reports on poverty and shoplifting in Japan . Principal photography began in mid-December 2017 . The film premiered on 13 May 2018 at the Cannes Film Festival , where it went on to win the Palme d'Or . The film was released in Japan on 8 June 2018 and was a critical and commercial success . Shoplifters won three Mainichi Film Awards , including Best Film , and the Asia Pacific Screen Award for Best Feature Film , and was nominated for the Academy Award for Best Foreign Language Film and the Golden Globe Award for Best Foreign Language Film .",
    "/wiki/Portrait_of_a_Lady_on_Fire": "Portrait of a Lady on Fire ( ) is a 2019 French historical drama film written and directed by C\u00e9line Sciamma , starring No\u00e9mie Merlant and Ad\u00e8le Haenel . Set in France in the late 18th century , the film tells the story of a forbidden affair between an aristocrat and a painter commissioned to paint her portrait . Portrait of a Lady on Fire was selected to compete for the Palme d'Or at the 2019 Cannes Film Festival . The film won the Queer Palm at Cannes , becoming the first film directed by a woman to win the award . Sciamma also won the award for Best Screenplay at Cannes . The film was theatrically released in France on 18 September 2019 . It was nominated for Independent Spirit Awards , Critics ' Choice Awards and Golden Globe Awards for Best Foreign Language Film and was chosen by the National Board of Review as Top Five Foreign Language Films of 2019 .",
    "/wiki/C\u00e9line_Sciamma": "C\u00e9line Sciamma ( French : [ selin sjama ] ; born 12 November 1978 ) is a French screenwriter and film director . Sciamma 's work is strikingly minimalist . While highly formalist and idiosyncratic ( notably in her lack of dialogue and very stylized mise-en-scene ) , Sciamma 's filmmaking , beginning with Water Lilies , relates closely to the characteristics of first-time filmmaking in France , notably in its emphasis on coming-of-age films focused on adolescents or pre-adolescents . A common theme in Sciamma 's films is the fluidity of gender and sexual identity among girls during this formative period ."
  },
  "Yugoslav_order_of_battle_prior_to_the_invasion_of_Yugoslavia_10": {
    "/wiki/Zagreb": "Zagreb ( /\u02c8z\u0251\u02d0\u0261r\u025bb , \u02c8z\u00e6\u0261r\u025bb , z\u0251\u02d0\u02c8\u0261r\u025bb/ ; Croatian pronunciation : [ z\u01ce\u02d0\u0261reb ] ( listen ) ) is the capital and the largest city of Croatia . It is located in the northwest of the country , along the Sava river , at the southern slopes of the Medvednica mountain . Zagreb lies at an elevation of approximately 122 m ( 400 ft ) above sea level . The estimated population of the city in 2018 was 820,678 . The population of the Zagreb urban agglomeration is 1,086,528 , approximately a quarter of the total population of Croatia . Zagreb is a city with a rich history dating from the Roman times to the present day . The oldest settlement located in the vicinity of the city was the Roman Andautonia , in today 's \u0160\u010ditarjevo . The name Zagreb is recorded in 1134 , in reference to the foundation of the settlement at Kaptol in 1094 . Zagreb became a free royal town in 1242 . In 1851 Zagreb had its first mayor , Janko Kamauf . Zagreb has special status as a Croatian administrative division and is a consolidated city-county ( but separated from Zagreb County ) , and is administratively subdivided into 17 city districts . Most of them are at a low elevation along the river Sava valley , whereas northern and northeastern city districts , such as Podsljeme and Sesvete districts are situated in the foothills of the Medvednica mountain , making the city 's geographical image rather diverse .",
    "/wiki/Lakta\u0161i": "Lakta\u0161i ( Serbian Cyrillic : \u041b\u0430\u043a\u0442\u0430\u0448\u0438 ) is a town and municipality located in Republika Srpska , an entity of Bosnia and Herzegovina . As of 2013 , the municipality has a population of 34,966 inhabitants , while the town has a population of 5,879 inhabitants .",
    "/wiki/Ikarus_IK-2": "The Ikarus IK-2 was a 1930s high-wing , single-seat , monoplane fighter aircraft of Yugoslav design built for the Royal Yugoslav Army Air Force . The IK-2 was designed by French-trained engineers Kosta Siv\u010dev and Ljubomir Ili\u0107 , who saw the desirability of developing a home-grown aircraft industry . A gull-wing design , it was armed with a hub-firing autocannon and fuselage-mounted synchronised machine guns . Just 12 production models were built , as the aircraft was obsolescent at the time it was brought into service in 1935 , and only eight were serviceable at the time of the German-led Axis invasion of Yugoslavia in April 1941 . After the defeat of Yugoslavia , the remaining four aircraft were taken onto the strength of the air force of the Axis puppet state , the Independent State of Croatia , but none survived the war .",
    "/wiki/Rovine,_Gradi\u0161ka": "Rovine is a village in the municipality of Gradi\u0161ka , Republika Srpska , Bosnia and Herzegovina ."
  },
  "American_Athletic_Conference_Men's_Basketball_Rookie_of_the_Year_2": {
    "/wiki/Memphis_Tigers_men's_basketball": "The Memphis Tigers men 's basketball team represents the University of Memphis in NCAA Division I men 's college basketball . The Tigers have competed in the American Athletic Conference since 2013 . As of 2011 , the Tigers had the 29th highest winning percentage in NCAA history . Lacking an on campus arena they play home games at the Memphis Grizzlies arena the FedExForum . ESPN Stats and Information Department ranked Memphis as the 19th most successful basketball program from 1962 to 2012 in their annual 50 in 50 list .",
    "/wiki/UConn_Huskies_men's_basketball": "The UConn Huskies men 's basketball program is the intercollegiate men 's basketball team of the University of Connecticut , in Storrs , Connecticut . They currently play in the American Athletic Conference ( The American ) and are coached by Dan Hurley . The Huskies have won 4 NCAA Tournament Championships ( 1999 , 2004 , 2011 and 2014 ) , which puts the program at sixth-most all-time . The Huskies are tied for the most Big East Tournament Championships with Georgetown at seven each . The Huskies also have the most Big East regular season titles with ten and one American Athletic Conference Tournament Championship . Numerous players have gone on to achieve professional success after their time at UConn , including Cliff Robinson , Ray Allen , Richard Hamilton , Kemba Walker , Ben Gordon , Emeka Okafor , Caron Butler , Jeremy Lamb , Andre Drummond , Shabazz Napier , and Rudy Gay . The Huskies have participated in 5 NCAA Final Fours ( tied for 13th all time ) and appeared in the NCAA tournament 33 times . The team has been a number one seed in the NCAA Tournament 5 times , most recently in 2009 .",
    "/wiki/East_Carolina_Pirates_men's_basketball": "The East Carolina Pirates men 's basketball team represents East Carolina University in NCAA Division I college basketball and competes in the American Athletic Conference . The Pirates are coached by Joe Dooley .",
    "/wiki/South_Florida_Bulls_men's_basketball": "The South Florida Bulls men 's basketball team represents the University of South Florida in NCAA Division I basketball competition , where they are currently a member of the American Athletic Conference . The Bulls play their home games at the Yuengling Center in Tampa , Florida .",
    "/wiki/Cincinnati_Bearcats_men's_basketball": "The Cincinnati Bearcats men 's basketball program represents the University of Cincinnati in Cincinnati , Ohio . The school 's team competes in NCAA Division I as part of the American Athletic Conference . The Bearcats are coached by John Brannen , who has been UC 's head coach since 2019 . With over 1800 all-time wins , the Bearcats are one of the 15 winningest basketball programs of all-time . The school 's merits include 2 National Titles , 6 Final Fours , and 33 NCAA Division I Men 's Basketball Tournament appearances . As of 2019 , Cincinnati has appeared in 9 consecutive NCAA Tournaments , and 23 of the last 28 , with an all-time tournament record of 46-32 . There have also been 42 All-American honors issued to Bearcats as well , while 34 have gone on to play in the NBA ( 4 were active as of the 2018-19 NBA season ) . Cincinnati has been playing its home games since 1989 at Fifth Third Arena , which received an $ 87 million renovation for the 2018 season . The Bearcats played their 2017-18 season at BB & T Arena on the campus of Northern Kentucky University in Highland Heights , Kentucky while their home arena was renovated . Cincinnati joined the original Big East Conference in 2005 , which was rebranded as the American Athletic Conference ( AAC ) in 2013 .",
    "/wiki/Houston_Cougars_men's_basketball": "The Houston Cougars men 's basketball team represents the University of Houston in Houston , Texas , in the NCAA Division I men 's basketball competition . The university is a member of the American Athletic Conference . The team last played in the NCAA Division I Men 's Basketball Tournament in 2019 and is tied for 15th in number of Final Four appearances .",
    "/wiki/Louisville_Cardinals_men's_basketball": "The Louisville Cardinals men 's basketball team is the men 's college basketball program representing the University of Louisville ( U of L ) in the Atlantic Coast Conference ( ACC ) of NCAA Division I . The Cardinals have officially won two NCAA championships in 1980 and 1986 ( with the 2013 title being vacated ) ; and have officially been to 8 Final Fours ( with the 2012 and 2013 appearances being vacated ) in 38 official NCAA tournament appearances while compiling 61 tournament wins . Due to an FBI criminal investigation into illegal benefits and actions by college basketball coaches , financial advisers , and others , on September 27 , 2017 , head coach Rick Pitino and athletic director Tom Jurich were placed on administrative leave and were later fired . Two days later , assistant David Padgett , a former star player under Pitino at Louisville , was named as acting head coach . On February 20 , 2018 , the NCAA vacated the 2013 NCAA title . On March 27 , 2018 , it was announced that the University of Louisville signed Chris Mack to a seven-year contract as head coach .",
    "/wiki/Rutgers_Scarlet_Knights_men's_basketball": "The Rutgers Scarlet Knights men 's basketball team represents Rutgers University in NCAA Division I college basketball competition . Rutgers competes in the Big Ten Conference .",
    "/wiki/SMU_Mustangs_men's_basketball": "The SMU Mustangs men 's basketball team represents Southern Methodist University ( SMU ) in Dallas , Texas and currently competes in the American Athletic Conference of NCAA Division I college basketball . The Mustangs are currently coached by Tim Jankovich . In 100 years of basketball , SMU 's record is 1319-1190 . SMU has reached one Final Four , has made 12 NCAA Tournament Appearances , won 16 Conference Championships , had 11 All-Americans , and 23 NBA Draft selections . SMU finished the 2016-17 season with a 30-5 record , and won their second conference title in three years . They set the school record for single season wins , and returned to the NCAA Tournament following a postseason ban in the 2015-16 season .",
    "/wiki/Temple_Owls_men's_basketball": "The Temple Owls men 's basketball team represents Temple University in the sport of basketball . The Owls compete in National Collegiate Athletic Association ( NCAA ) Division I as a member of the American Athletic Conference ( The American ) . They play their home games in the Liacouras Center on the university 's main campus in Philadelphia , Pennsylvania , and are currently led by head coach Aaron Mckie . Temple is the fifth-most winningest NCAA Division I men 's college basketball program of all time , with 1903 wins at the end of the 2017-18 season . On March 7 , 2012 , the Temple Owls announced that they would be rejoining the Big East Conference for all sports in 2013 after 31 years in the Atlantic 10 Conference , with the Owls football team membership beginning in the 2012 season . However , before Temple became an all-sports member of the Big East , the conference split along football lines . The league 's non-FBS football schools formed a new Big East in 2013 , while Temple and the remaining football members remained in the old conference , but renamed it the American Athletic Conference .",
    "/wiki/Tulane_Green_Wave_men's_basketball": "The Tulane Green Wave men 's basketball team represents Tulane University in NCAA Division I college basketball . The team competes in the American Athletic Conference . They play home games on campus in Devlin Fieldhouse , the 9th-oldest active basketball venue in the nation . The team 's last appearance in the NCAA Division I Men 's Basketball Tournament was in 1995 . Tulane is the only school from the original Metro Conference that remained in the conference through its 1975 founding , the 1991 breakup that saw several schools form the Great Midwest Conference , the 1995 reunification that created today 's Conference USA , and the 2004 realignment of conferences . It rejoined many of its previous conference mates when it became a member of the American Athletic Conference in 2014 .",
    "/wiki/Tulsa_Golden_Hurricane_men's_basketball": "The Tulsa Golden Hurricane men 's basketball team represents the University of Tulsa in Tulsa , in the U.S. state of Oklahoma . The team participates in the American Athletic Conference . The Golden Hurricane hired Frank Haith from Missouri on April 17 , 2014 to replace Danny Manning , who had resigned to take the Wake Forest job after the 2013-14 season . The team has long been successful , especially since the hiring of Nolan Richardson in 1980 . Many big-name coaches previously worked at Tulsa , like University of Kansas coach Bill Self and Minnesota coach Tubby Smith . The Hurricane have been to the NCAA Tournament 14 times in their history . In addition , they have won two National Invitation Tournaments , in 1981 and 2001 , and one CBI tournament . In 2005 , Street & Smith 's named the University of Tulsa as the 59th best college basketball program of all time .",
    "/wiki/UCF_Knights_men's_basketball": "The UCF Knights men 's basketball team represents The University of Central Florida located in Orlando , Florida , United States . UCF competes in Division I of the National Collegiate Athletic Association ( NCAA ) , and the American Athletic Conference ( The American ) . The Knights play their home games in the Addition Financial Arena located on the university 's main campus . They are coached by Johnny Dawkins who was hired in 2016 . The Knights have appeared in the NCAA Division II Tournament six times ( 1976 , 1977 , 1978 , 1980 , 1981 , 1982 ) , including the Final Four in 1978 . UCF has reached the NCAA Division I Tournament five times ( 1994 , 1996 , 2004 , 2005 , and 2019 ) . UCF has won twelve conference championships , seven regular season championships , and five tournament championships ."
  }
}