{
  "List_of_specialized_glands_within_the_human_integumentary_system_0": {
    "/wiki/Apocrine_sweat_gland": "An apocrine sweat gland ( ; from Greek apo- away and krinein to separate ) is composed of a coiled secretory portion located at the junction of the dermis and subcutaneous fat , from which a straight portion inserts and secretes into the infundibular portion of the hair follicle . In humans , apocrine sweat glands are found only in certain locations of the body : the axillae ( armpits ) , areola and nipples of the breast , ear canal , eyelids , wings of the nostril , perianal region , and some parts of the external genitalia . Modified apocrine glands include the ciliary glands in the eyelids ; the ceruminous glands , which produce ear wax ; and the mammary glands , which produce milk . The rest of the body is covered by eccrine sweat glands . Most non-primate mammals , however , have apocrine sweat glands over the greater part of their body . Domestic animals such as dogs and cats have apocrine glands at each hair follicle but eccrine glands only in foot pads and snout . Their apocrine glands , like those in humans , produce an odorless , oily , opaque secretion that gains its characteristic odor upon bacterial decomposition . Eccrine glands on their paws increase friction and prevent them from slipping when fleeing from danger .",
    "/wiki/Human_skin": "The human skin is the outer covering of the body and is the largest organ of the integumentary system . The skin has up to seven layers of ectodermal tissue and guards the underlying muscles , bones , ligaments and internal organs . Human skin is similar to most of the other mammals skin , and it is very similar to pig skin . Though nearly all human skin is covered with hair follicles , it can appear hairless . There are two general types of skin , hairy and glabrous skin ( hairless ) . The adjective cutaneous literally means of the skin ( from Latin cutis , skin ) . Because it interfaces with the environment , skin plays an important immunity role in protecting the body against pathogens and excessive water loss . Its other functions are insulation , temperature regulation , sensation , synthesis of vitamin D , and the protection of vitamin B folates . Severely damaged skin will try to heal by forming scar tissue . This is often discolored and depigmented . In humans , skin pigmentation varies among populations , and skin type can range from dry to non-dry and from oily to non-oily . Such skin variety provides a rich and diverse habitat for bacteria that number roughly 1000 species from 19 phyla , present on the human skin .",
    "/wiki/Anterior_lingual_glands": "Anterior lingual glands ( also called apical glands ) are deeply placed seromucous glands that are located near the tip of the tongue on each side of the frenulum linguae . They are found on the under surface of the apex of the tongue , and are covered by a bundle of muscular fibers derived from the Styloglossus and Longitudinalis inferior . They are between 12 and 25 mm . in length , and approximately 8 mm . wide , and each opens by three or four ducts on the under surface of the tongue 's apex . The anterior lingual glands are sometimes referred by eponymous names such as : These glands are present in the large apes but not in the small apes like gibbons and represent an evolutionary divergence .",
    "/wiki/Tongue": "The tongue is a muscular organ in the mouth of most vertebrates that manipulates food for mastication and is used in the act of swallowing . It has importance in the digestive system and is the primary organ of taste in the gustatory system . The tongue 's upper surface ( dorsum ) is covered by taste buds housed in numerous lingual papillae . It is sensitive and kept moist by saliva and is richly supplied with nerves and blood vessels . The tongue also serves as a natural means of cleaning the teeth . A major function of the tongue is the enabling of speech in humans and vocalization in other animals . The human tongue is divided into two parts , an oral part at the front and a pharyngeal part at the back . The left and right sides are also separated along most of its length by a vertical section of fibrous tissue ( the lingual septum ) that results in a groove , the median sulcus , on the tongue 's surface . There are two groups of muscles of the tongue . The four intrinsic muscles alter the shape of the tongue and are not attached to bone . The four paired extrinsic muscles change the position of the tongue and are anchored to bone .",
    "/wiki/Brunner's_glands": "Brunner 's glands ( or duodenal glands ) are compound tubular submucosal glands found in that portion of the duodenum which is above the hepatopancreatic sphincter ( a.k.a . sphincter of Oddi ) . The main function of these glands is to produce a mucus-rich alkaline secretion i.e . mucous ( containing bicarbonate ) in order to : They also secrete epidermal growth factor , which inhibits parietal and chief cells of the stomach from secreting acid and their digestive enzymes . This is another form of protection for the duodenum . They are the distinguishing feature of the duodenum , and are named for the Swiss physician who first described them , Johann Conrad Brunner .",
    "/wiki/Duodenum": "The duodenum is the first section of the small intestine in most higher vertebrates , including mammals , reptiles , and birds . In fish , the divisions of the small intestine are not as clear , and the terms anterior intestine or proximal intestine may be used instead of duodenum . In mammals the duodenum may be the principal site for iron absorption . The duodenum precedes the jejunum and ileum and is the shortest part of the small intestine . In humans , the duodenum is a hollow jointed tube about 25-38 cm ( 10-15 inches ) long connecting the stomach to the jejunum . It begins with the duodenal bulb and ends at the suspensory muscle of duodenum . It can be divided into four parts .",
    "/wiki/Lung": "The lungs are the primary organs of the respiratory system in humans and many other animals including a few fish and some snails . In mammals and most other vertebrates , two lungs are located near the backbone on either side of the heart . Their function in the respiratory system is to extract oxygen from the atmosphere and transfer it into the bloodstream , and to release carbon dioxide from the bloodstream into the atmosphere , in a process of gas exchange . Respiration is driven by different muscular systems in different species . Mammals , reptiles and birds use their different muscles to support and foster breathing . In early tetrapods , air was driven into the lungs by the pharyngeal muscles via buccal pumping , a mechanism still seen in amphibians . In humans , the main muscle of respiration that drives breathing is the diaphragm . The lungs also provide airflow that makes vocal sounds including human speech possible . Humans have two lungs , a right lung and a left lung . They are situated within the thoracic cavity of the chest . The right lung is bigger than the left , which shares space in the chest with the heart . The lungs together weigh approximately , and the right is heavier .",
    "/wiki/Bulbourethral_gland": "The bulbourethral gland or Cowper 's gland ( named for English anatomist William Cowper ) is one of two small exocrine glands in the reproductive system of many male mammals ( of all domesticated animals , they are absent only in dogs ) . They are homologous to Bartholin 's glands in females . The bulbouretheral glands are responsible for producing a pre-ejaculate fluid called Cowper 's Fluid ( colloquially , pre-cum ) , which is secreted during sexual arousal , neutralizing the acidity of the urethra in preparation for the passage of sperm cells .",
    "/wiki/Human_penis": "The human penis is an external male intromittent organ that additionally serves as the urinal duct . The main parts are the root ( radix ) ; the body ( corpus ) ; and the epithelium of the penis including the shaft skin and the foreskin ( prepuce ) covering the glans penis . The body of the penis is made up of three columns of tissue : two corpora cavernosa on the dorsal side and corpus spongiosum between them on the ventral side . The human male urethra passes through the prostate gland , where it is joined by the ejaculatory duct , and then through the penis . The urethra traverses the corpus spongiosum , and its opening , the meatus ( ) , lies on the tip of the glans penis . It is a passage both for urination and ejaculation of semen ( see male reproductive system . ) Most of the penis develops from the same embryonic tissue as does the clitoris in females . The skin around the penis and the urethra come from the same embryonic tissue from which develops the labia minora in females . An erection is the stiffening and rising of the penis , which occurs during sexual arousal . Erections can also occur in non-sexual situations ; spontaneous non-sexual erections frequently occur during adolescence and during sleep . In its flaccid ( soft ) state , the shaft of the penis has the feel of a dense sponge encased in very smooth eyelid-type skin . The glans of the penis , in uncircumcised males , is covered by the foreskin .",
    "/wiki/Pre-ejaculate": "Pre-ejaculate ( also known as pre-ejaculatory fluid , pre-seminal fluid or Cowper 's fluid , and colloquially as pre-cum ) is a clear , colorless , viscous fluid that is emitted from the urethra of the penis during sexual arousal . It is similar in composition to semen but has distinct chemical differences . The presence of sperm in the fluid is variable from low to absent . Pre-ejaculate functions as a lubricant and an acid neutralizer .",
    "/wiki/Ceruminous_gland": "Ceruminous glands are specialized sudoriferous glands ( sweat glands ) located subcutaneously in the external auditory canal , in the outer 1/3 . Ceruminous glands are simple , coiled , tubular glands made up of an inner secretory layer of cells and an outer myoepithelial layer of cells . They are classed as apocrine glands . The glands drain into larger ducts , which then drain into the guard hairs that reside in the external auditory canal . Here they produce cerumen , or earwax , by mixing their secretion with sebum and dead epidermal cells . Cerumen keeps the eardrum pliable , lubricates and cleans the external auditory canal , waterproofs the canal , kills bacteria , and serves as a barrier to trap foreign particles ( dust , fungal spores , etc . ) by coating the guard hairs of the ear , making them sticky . These glands are capable of developing both benign and malignant tumors . The benign tumors include ceruminous adenoma , ceruminous pleomorphic adenoma , and ceruminous syringocystadenoma papilliferum . The malignant tumors include ceruminous adenocarcinoma , adenoid cystic carcinoma , and mucoepidermoid carcinoma .",
    "/wiki/Ear": "The ear is the organ of hearing and , in mammals , balance . In mammals , the ear is usually described as having three parts - the outer ear , the middle ear and the inner ear . The outer ear consists of the pinna and the ear canal . Since the outer ear is the only visible portion of the ear in most animals , the word ear often refers to the external part alone . The middle ear includes the tympanic cavity and the three ossicles . The inner ear sits in the bony labyrinth , and contains structures which are key to several senses : the semicircular canals , which enable balance and eye tracking when moving ; the utricle and saccule , which enable balance when stationary ; and the cochlea , which enables hearing . The ears of vertebrates are placed somewhat symmetrically on either side of the head , an arrangement that aids sound localisation . The ear develops from the first pharyngeal pouch and six small swellings that develop in the early embryo called otic placodes , which are derived from ectoderm . The ear may be affected by disease , including infection and traumatic damage . Diseases of the ear may lead to hearing loss , tinnitus and balance disorders such as vertigo , although many of these conditions may also be affected by damage to the brain or neural pathways leading from the ear . The ear has been adorned by earrings and other jewelry in numerous cultures for thousands of years , and has been subjected to surgical and cosmetic alterations .",
    "/wiki/Earwax": "Earwax , also known by the medical term cerumen , is a brown , orange , red or yellowish waxy substance secreted in the ear canal of humans and other mammals . It protects the skin of the human ear canal , assists in cleaning and lubrication , also provides protection against bacteria , fungi , insects , and water . Earwax consists of dead skin cells , hair , and the secretions of cerumen by the ceruminous and sebaceous glands of the outer ear canal . Major components of earwax are long chain fatty acids , both saturated and unsaturated , alcohols , squalene , and cholesterol . Excess or compacted cerumen is the buildup of ear wax causing a blockage in the ear canal and it can press against the eardrum or block the outside ear canal or hearing aids , potentially causing hearing loss .",
    "/wiki/Ciaccio's_glands": "Ciaccio 's glands or Wolfring 's glands are small tubular accessory lacrimal glands ( glandulae lacrimales accessoriae ) found in the lacrimal caruncle of the eyelid . They are located in the upper border of the tarsus , approximately in the middle between the extremities of the tarsal glands . Sometimes they are situated slightly above the tarsus . There are usually 2 to 5 of these glands in the upper eyelid , and their function is to produce tears which are secreted onto the surface of the conjunctiva . They are named after Italian anatomist Giuseppe Vincenzo Ciaccio ( 1824-1901 ) , who described these glands in 1874 . They are sometimes called Wolfring 's glands after Polish ophthalmologist Emilj von Wolfring ( 1832-1906 ) , who described them during the same time period as did Ciaccio . Another type of accessory lacrimal gland are Krause 's glands , which are smaller , more numerous than Ciaccio 's glands and are found along the superior and inferior fornices of the conjunctival sac .",
    "/wiki/Lacrimal_gland": "In human physiology , the lacrimal glands are paired , almond-shaped exocrine glands , one for each eye , that secrete the aqueous layer of the tear film . They are situated in the upper lateral region of each orbit , in the lacrimal fossa of the orbit formed by the frontal bone . Inflammation of the lacrimal glands is called dacryoadenitis . The lacrimal gland produces tears which then flow into canals that connect to the lacrimal sac . From that sac , the tears drain through the lacrimal duct into the nose . Anatomists divide the gland into two sections , a palpebral lobe , or portion , and an orbital lobe or portion . The smaller palpebral lobe lies close to the eye , along the inner surface of the eyelid ; if the upper eyelid is everted , the palpebral portion can be seen . The orbital lobe of the gland , contains fine interlobular ducts that connect the orbital lobe and the palpebral lobe . They unite to form three to five main secretory ducts , joining five to seven ducts in the palpebral portion before the secreted fluid may enter on the surface of the eye . Tears secreted collect in the fornix conjunctiva of the upper lid , and pass over the eye surface to the lacrimal puncta , small holes found at the inner corner of the eyelids . These pass the tears through the lacrimal canaliculi on to the lacrimal sac , in turn to the nasolacrimal duct , which dumps them out into the nose . Lacrimal glands are also present in other mammals , such as horses .",
    "/wiki/Human_eye": "The human eye is an organ that reacts to light and allows vision . Rod and cone cells in the retina allow conscious light perception and vision including color differentiation and the perception of depth . The human eye can differentiate between about 10 million colors and is possibly capable of detecting a single photon . The eye is part of the sensory nervous system . Similar to the eyes of other mammals , the human eye 's non-image-forming photosensitive ganglion cells in the retina receive light signals which affect adjustment of the size of the pupil , regulation and suppression of the hormone melatonin and entrainment of the body clock .",
    "/wiki/Esophagus": "The esophagus ( American English ) or oesophagus ( British English ; see spelling differences ) ( ) , commonly known as the food pipe or gullet , is an organ in vertebrates through which food passes , aided by peristaltic contractions , from the pharynx to the stomach . The esophagus is a fibromuscular tube , about 25 centimeters long in adults , which travels behind the trachea and heart , passes through the diaphragm and empties into the uppermost region of the stomach . During swallowing , the epiglottis tilts backwards to prevent food from going down the larynx and lungs . The word oesophagus is the Greek word \u03bf\u1f30\u03c3\u03bf\u03c6\u03ac\u03b3\u03bf\u03c2 , meaning gullet . The wall of the esophagus from the lumen outwards consists of mucosa , submucosa ( connective tissue ) , layers of muscle fibers between layers of fibrous tissue , and an outer layer of connective tissue . The mucosa is a stratified squamous epithelium of around three layers of squamous cells , which contrasts to the single layer of columnar cells of the stomach . The transition between these two types of epithelium is visible as a zig-zag line . Most of the muscle is smooth muscle although striated muscle predominates in its upper third . It has two muscular rings or sphincters in its wall , one at the top and one at the bottom . The lower sphincter helps to prevent reflux of acidic stomach content . The esophagus has a rich blood supply and venous drainage . Its smooth muscle is innervated by involuntary nerves ( sympathetic nerves via the sympathetic trunk and parasympathetic nerves via the vagus nerve ) and in addition voluntary nerves ( lower motor neurons ) which are carried in the vagus nerve to innervate its striated muscle .",
    "/wiki/Stomach": "The stomach is a muscular , hollow organ in the gastrointestinal tract of humans and many other animals , including several invertebrates . The stomach has a dilated structure and functions as a vital digestive organ . In the digestive system the stomach is involved in the second phase of digestion , following chewing . It performs a chemical breakdown due to enzymes and hydrochloric acid . In humans and many other animals , the stomach is located between the oesophagus and the small intestine . It secretes digestive enzymes and gastric acid to aid in food digestion . The pyloric sphincter controls the passage of partially digested food ( chyme ) from the stomach into the duodenum where peristalsis takes over to move this through the rest of the intestines .",
    "/wiki/Mucous_membrane": "A mucous membrane or mucosa is a membrane that lines various cavities in the body and covers the surface of internal organs . It consists of one or more layers of epithelial cells overlying a layer of loose connective tissue . It is mostly of endodermal origin and is continuous with the skin at various body openings such as the eyes , ears , inside the nose , inside the mouth , lip , vagina , the urethral opening and the anus . Some mucous membranes secrete mucus , a thick protective fluid . The function of the membrane is to stop pathogens and dirt from entering the body and to prevent bodily tissues from becoming dehydrated .",
    "/wiki/Von_Ebner's_gland": "Von Ebner 's glands , also called Ebner 's glands or gustatory glands , are exocrine glands found in the mouth . More specifically , they are serous salivary glands which reside adjacent to the moats surrounding the circumvallate and foliate papillae just anterior to the posterior third of the tongue , anterior to the terminal sulcus . These glands are named after Victor von Ebner , an Austrian histologist . Von Ebner 's glands secrete lingual lipase , beginning the process of lipid hydrolysis in the mouth . These glands empty their serous secretion into the base of the moats around the foliate and circumvallate papillae . This secretion presumably flushes material from the moat to enable the taste buds to respond rapidly to changing stimuli . Von Ebner 's glands are innervated by cranial nerve IX , the glossopharyngeal nerve .",
    "/wiki/Eccrine_sweat_gland": "Eccrine glands ( ; from ekkrinein secrete ; sometimes called merocrine glands ) are the major sweat glands of the human body , found in virtually all skin , with the highest density in palm and soles , then on the head , but much less on the trunk and the extremities . In other mammals , they are relatively sparse , being found mainly on hairless areas such as foot pads . They reach their peak of development in humans , where they may number 200-400/cm\u00b2 of skin surface . They produce a clear , odorless substance , sweat , consisting primarily of water . Eccrine glands are composed of an intraepidermal spiral duct , the acrosyringium ; a dermal duct , consisting of a straight and coiled portion ; and a secretory tubule , coiled deep in the dermis or hypodermis . The eccrine gland opens out through the sweat pore . The coiled portion is formed by two concentric layer of columnar or cuboidal epithelial cells . The epithelial cells are interposed by the myoepithelial cells . Myoepithelial cells support the secretory epithelial cells . The duct of eccrine gland is formed by two layers of cuboidal epithelial cells . Eccrine glands are active in thermoregulation by providing cooling from water evaporation of sweat secreted by the glands on the body surface and emotional induced sweating ( anxiety , fear , stress , and pain ) . The white sediment in otherwise colorless eccrine secretions is caused by evaporation that increases the concentration of salts .",
    "/wiki/Esophageal_gland": "The esophageal glands are glands that are part of the digestive system of various animals , including humans .",
    "/wiki/Pancreas": "The pancreas is an organ of the digestive system and endocrine system of vertebrates . In humans , it is located in the abdomen behind the stomach and functions as a gland . The pancreas is a heterocrine gland , having both an endocrine and a digestive exocrine function . As an endocrine gland , it functions mostly to regulate blood sugar levels , secreting the hormones insulin , glucagon , somatostatin , and pancreatic polypeptide . As a part of the digestive system , it functions as an exocrine gland secreting pancreatic juice into the duodenum through the pancreatic duct . This juice contains bicarbonate , which neutralizes acid entering the duodenum from the stomach ; and digestive enzymes , which break down carbohydrates , proteins , and fats in food entering the duodenum from the stomach .",
    "/wiki/Gastric_chief_cell": "A gastric chief cell ( or peptic cell , or gastric zymogenic cell ) is a type of cell in the stomach that releases pepsinogen and gastric lipase and is the cell responsible for secretion of chymosin in ruminants . The cell stains basophilic upon H & E staining due to the large proportion of rough endoplasmic reticulum in its cytoplasm . Gastric chief cells are generally located deep in the mucosal layer of the stomach lining . Chief cells release the zymogen ( enzyme precursor ) pepsinogen when stimulated by a variety of factors including cholinergic activity from the vagus nerve and acidic condition in the stomach . Gastrin and secretin may also act as secretagogues . It works in conjunction with the parietal cell , which releases gastric acid , converting the pepsinogen into pepsin .",
    "/wiki/Coccygeal_glomus": "The coccygeal glomus ( coccygeal gland or body ; Luschkas gland ) is a vestigial structure placed in front of , or immediately below , the tip of the coccyx .",
    "/wiki/Coccyx": "The coccyx ( : coccyges or coccyxes ) , commonly referred to as the tailbone , is the final segment of the vertebral column in all apes , and analogous structures in certain other mammals such as horses . In tailless primates ( e.g . humans and other great apes ) since Nacholapithecus ( a Miocene hominoid ) , the coccyx is the remnant of a vestigial tail . In animals with bony tails , it is known as tailhead or dock , in bird anatomy as tailfan . It comprises three to five separate or fused coccygeal vertebrae below the sacrum , attached to the sacrum by a fibrocartilaginous joint , the sacrococcygeal symphysis , which permits limited movement between the sacrum and the coccyx .",
    "/wiki/Goblet_cell": "Goblet cells are simple columnar goblet shaped like epithelial cells that secrete gel-forming mucins , like mucin MUC5AC . The goblet cells mainly use the merocrine method of secretion , secreting vesicles into a duct , but may use apocrine methods , budding off their secretions , when under stress . The term goblet refers to the cell 's goblet-like shape . The apical portion is shaped like a cup , as it is distended by abundant mucus laden granules ; its basal portion lacks these granules and is shaped like a stem . The goblet cell is highly polarized with the nucleus and other organelles concentrated at the base of the cell and secretory granules containing mucin , at the apical surface . The apical plasma membrane projects short microvilli to give an increased surface area for secretion . Goblet cells are typically found in the respiratory , reproductive and gastrointestinal tracts and are surrounded by other columnar cells . Biased differentiation of airway basal cells in the respiratory epithelium , into goblet cells plays a key role in the excessive mucus production , known as mucus hypersecretion seen in many respiratory diseases , including chronic bronchitis , and asthma .",
    "/wiki/Gastrointestinal_tract": "The gastrointestinal tract ( digestive tract , alimentary canal , digestion tract , GI tract , GIT ) is an organ system within humans and other animals which takes in food , digests it to extract and absorb energy and nutrients , and expels the remaining waste as feces . The mouth , esophagus , stomach and intestines are part of the gastrointestinal tract . Gastrointestinal is an adjective meaning of or pertaining to the stomach and intestines . A tract is a collection of related anatomic structures or a series of connected body organs . All bilaterians have a gastrointestinal tract , also called a gut or an alimentary canal . This is a tube that transfers food to the organs of digestion . In large bilaterians , the gastrointestinal tract also has an exit , the anus , by which the animal disposes of feces ( solid wastes ) . Some small bilaterians have no anus and dispose of solid wastes by other means ( for example , through the mouth ) . The human gastrointestinal tract consists of the esophagus , stomach , and intestines , and is divided into the upper and lower gastrointestinal tracts . The GI tract includes all structures between the mouth and the anus , forming a continuous passageway that includes the main organs of digestion , namely , the stomach , small intestine , and large intestine . However , the complete human digestive system is made up of the gastrointestinal tract plus the accessory organs of digestion ( the tongue , salivary glands , pancreas , liver and gallbladder ) . The tract may also be divided into foregut , midgut , and hindgut , reflecting the embryological origin of each segment .",
    "/wiki/Respiratory_tract": "In humans , the respiratory tract is the part of the anatomy of the respiratory system involved with the process of respiration . The respiratory tract is lined with respiratory mucosa or respiratory epithelium . Air is breathed in through the nose or the mouth . In the nasal cavity , a layer of nasal mucosa acts as a filter and traps pollutants and other harmful substances found in the air . Next , air moves into the pharynx , a passage that contains the intersection between the oesophagus and the larynx . The opening of the larynx has a special flap of cartilage , the epiglottis , that opens to allow air to pass through but closes to prevent food from moving into the airway . From the larynx , air moves into the trachea and down to the intersection known as the carina that branches to form the right and left primary ( main ) bronchi . Each of these bronchi branches into a secondary ( lobar ) bronchus that branches into tertiary ( segmental ) bronchi , that branch into smaller airways called bronchioles that eventually connect with tiny specialized structures called alveoli that function in gas exchange . The lungs which are located in the thoracic cavity , are protected from physical damage by the rib cage . At the base of the lungs is a sheet of skeletal muscle called the diaphragm . The diaphragm separates the lungs from the stomach and intestines . The diaphragm is also the main muscle of respiration involved in breathing , and is controlled by the sympathetic nervous system .",
    "/wiki/Crypts_of_Henle": "Crypts of Henle are microscopic pockets found in scattered sections of the conjunctiva around the eyeball . They are responsible for secreting mucin , a proteinous substance that makes up the inner layer of tears . It coats the cornea to provide a hydrophilic layer that allows for even distribution of the tear film . The layer of mucin allows tears to glide evenly across the eyes surface . The crypts of Henle are named after German anatomist Friedrich Gustav Jakob Henle ( 1809-1885 ) . Another anatomical structure called the glands of Manz perform a similar function . They are located in the eyeball 's conjunctiva , arranged in a ring around the cornea , near the scleral junction . They also are responsible for secreting mucin into tears .",
    "/wiki/Eyelid": "An eyelid is a thin fold of skin that covers and protects an eye . The levator palpebrae superioris muscle retracts the eyelid , exposing the cornea to the outside , giving vision . This can be either voluntarily or involuntarily . The human eyelid features a row of eyelashes along the eyelid margin , which serve to heighten the protection of the eye from dust and foreign debris , as well as from perspiration . Palpebral ( and blepharal ) means relating to the eyelids . Its key function is to regularly spread the tears and other secretions on the eye surface to keep it moist , since the cornea must be continuously moist . They keep the eyes from drying out when asleep . Moreover , the blink reflex protects the eye from foreign bodies . The appearance of the human upper eyelid often varies between different populations . The prevalence of an epicanthic fold covering the inner corner of the eye may reach up to 90% in East Asian and Southeast Asian populations and is found in varying degrees in others . Separately , but also similarly varying between populations , the crease of the remainder of the eyelid may form either a single eyelid , a double eyelid , or an intermediate form . Eyelids can be found in other animals , some of which may have a third eyelid , or nictitating membrane .",
    "/wiki/Conjunctiva": "The conjunctiva is a tissue that lines the inside of the eyelids and covers the sclera ( the white of the eye ) . It is composed of unkeratinized , stratified squamous epithelium with goblet cells , and stratified columnar epithelium . The conjunctiva is highly vascularised , with many microvessels easily accessible for imaging studies .",
    "/wiki/Krause's_glands": "Krause 's glands are small , mucous accessory lacrimal glands that are found underneath the eyelid where the upper and lower conjunctivae meet . Their ducts unite into a rather long sinus which open into the fornix conjunctiva . There are approximately forty Krause glands in the region of the upper eyelid , and around 6 to 8 in the region of the lower lid . The function of these glands are to produce tears which are secreted onto the surface of the conjuctiva . There are rare instances of tumors associated with Krause 's glands . They usually occur as retention cysts in cicatricial conditions of the conjunctiva . Krause 's glands are named after German anatomist Karl Friedrich Theodor Krause ( 1797-1868 ) .",
    "/wiki/Intestinal_gland": "In histology , an intestinal gland ( also crypt of Lieberk\u00fchn and intestinal crypt ) is a gland found in between villi in the intestinal epithelium lining of the small intestine and large intestine ( or colon ) . The glands and intestinal villi are covered by epithelium , which contains multiple types of cells : enterocytes ( absorbing water and electrolytes ) , goblet cells ( secreting mucus ) , enteroendocrine cells ( secreting hormones ) , cup cells , tuft cells , and at the base of the gland , Paneth cells ( secreting anti-microbial peptides ) and stem cells .",
    "/wiki/Urethral_gland": "The urethral or periurethral glands ( also Littre glands after Alexis Littr\u00e9 ) are glands that branch off the wall of the urethra of male mammals . The glands secrete mucus and are most numerous in the section of the urethra that runs through the penis . Urethral glands produce a colloid secretion containing glycosaminoglycans ; this secretion protects the epithelium against urine . Untreated urethritis can lead to infection of the urethral glands , which can in turn result in impeding urethral strictures .",
    "/wiki/Spongy_urethra": "The spongy urethra ( cavernous portion of urethra , penile urethra ) is the longest part of the male urethra , and is contained in the corpus spongiosum of the penis . It is about 15 cm long , and extends from the termination of the membranous portion to the external urethral orifice . Commencing below the inferior fascia of the urogenital diaphragm it passes forward and upward to the front of the pubic symphysis ; and then , in the flaccid condition of the penis , it bends downward and forward . It is narrow , and of uniform size in the body of the penis , measuring about 6 mm in diameter ; it is dilated behind , within the bulb , and again anteriorly within the glans penis , where it forms the fossa navicularis urethrae . The spongy urethra runs along the length of the penis on its ventral ( underneath ) surface . It is about 15-16 cm in length , and travels through the corpus spongiosum . The ducts from the urethral gland ( gland of Littre ) enter here . The openings of the bulbourethral glands are also found here . Some textbooks will subdivide the spongy urethra into two parts , the bulbous and pendulous urethra . The urethral lumen runs effectively parallel to the penis , except at the narrowest point , the external urethral meatus , where it is vertical . This produces a spiral stream of urine and has the effect of cleaning the external urethral meatus . The lack of an equivalent mechanism in the female urethra partly explains why urinary tract infections occur so much more frequently in females .",
    "/wiki/Periaortic_lymph_nodes": "The periaortic lymph nodes ( also known as lumbar ) are a group of lymph nodes that lie in front of the lumbar vertebrae near the aorta . These lymph nodes receive drainage from the gastrointestinal tract and the abdominal organs . The periaortic lymph nodes are different from the paraaortic lymph nodes . The periaortic group is the general group , that is subdivided into : preaortic , paraaortic , and retroaortic groups . The paraaortic group is synonymous with the lateral aortic group ."
  },
  "List_of_Australian_states_and_territories_by_gross_state_product_3": {
    "/wiki/New_South_Wales": "New South Wales ( abbreviated as NSW ) is a state on the east coast of Australia . It borders Queensland to the north , Victoria to the south , and South Australia to the west . Its coast borders the Coral and Tasman Seas to the east . The Australian Capital Territory is an enclave within the state . New South Wales ' state capital is Sydney , which is also Australia 's most populous city . In March 2019 [ update ] , the population of New South Wales was over 8 million , making it Australia 's most populous state . Just under two-thirds of the state 's population , 5.1 million , live in the Greater Sydney area . Inhabitants of New South Wales are referred to as New South Welshmen . The Colony of New South Wales was founded as a British penal colony in 1788 . It originally comprised more than half of the Australian mainland with its western boundary set at 129th meridian east in 1825 . The colony then also included the island territories of New Zealand , Van Diemen 's Land , Lord Howe Island , and Norfolk Island . During the 19th century , most of the colony 's area was detached to form separate British colonies that eventually became New Zealand and the various states and territories of Australia .",
    "/wiki/Victoria_(Australia)": "Victoria ( abbreviated as Vic ) is a state in south-eastern Australia . Victoria is Australia 's smallest mainland state and its second-most populous state ( after New South Wales ) , making it the most densely populated state . Most of its population lives concentrated in the area surrounding Port Phillip Bay , which includes the metropolitan area of its state capital and largest city , Melbourne , Australia 's second-largest city . Victoria is bordered by Bass Strait and Tasmania to the south , [ note 1 ] New South Wales to the north , the Tasman Sea ( a marginal sea of the South Pacific Ocean ) to the east , and South Australia to the west . The area that is now known as Victoria is the home of many Aboriginal people groups , including the Boon wurrung , the Bratauolung , the Djadjawurrung , the Gunai/Kurnai , the Gunditjmara , the Taungurong , the Wathaurong , the Wurundjeri , and the Yorta Yorta . There were more than 30 Aboriginal languages spoken in the area prior to the European settlement of Australia . The Kulin nation is an alliance of five Aboriginal nations which makes up much of the central part of the state . With Great Britain having claimed the half of the Australian continent that is east of the 135th meridian east in 1788 , Victoria formed part of the wider colony of New South Wales . The first European settlement in the area occurred in 1803 at Sullivan Bay , and much of what is now Victoria was included in 1836 in the Port Phillip District , an administrative division of New South Wales . Named in honour of Queen Victoria , who signed the division 's separation from New South Wales , the colony was officially established in 1851 and achieved self government in 1855 . The Victorian gold rush in the 1850s and 1860s significantly increased both the population and wealth of the colony , and by the time of the Federation of Australia in 1901 , Melbourne had become the largest city and leading financial centre in Australasia . Melbourne served as federal capital of Australia until the construction of Canberra in 1927 , with the Federal Parliament meeting in Melbourne 's Parliament House and all principal offices of the federal government being based in Melbourne .",
    "/wiki/Queensland": "Queensland ( locally /\u02c8kwi\u02d0nzl\u00e6nd/ KWEENZ-land , [ note 1 ] abbreviated as Qld ) is the second-largest and third-most populous state in the Commonwealth of Australia . Situated in the north-east of the country , it is bordered by the Northern Territory , South Australia and New South Wales to the west , south-west and south respectively . To the east , Queensland is bordered by the Coral Sea and Pacific Ocean . To its north is the Torres Strait , with Papua New Guinea located less than 200 km across it from the mainland . The state is the world 's sixth-largest sub-national entity , with an area of 1,852,642 square kilometres ( 715,309 sq mi ) . As of 15 May 2018 , Queensland had a population of 5,000,000 , concentrated along the coast and particularly in the state 's South East . The capital and largest city in the state is Brisbane , Australia 's third-largest city . Often referred to as the Sunshine State , Queensland is home to 10 of Australia 's 30 largest cities and is the nation 's third-largest economy . Tourism in the state , fuelled largely by its warm climate , is a major industry . Queensland was first inhabited by Aboriginal Australians and Torres Strait Islanders . The first European to land in Queensland ( and Australia ) was Dutch navigator Willem Janszoon in 1606 , who explored the west coast of the Cape York Peninsula near present-day Weipa . In 1770 , Lieutenant James Cook claimed the east coast of Australia for the Kingdom of Great Britain .",
    "/wiki/Western_Australia": "Western Australia [ a ] ( abbreviated as WA ) is a state occupying the entire western third of Australia . It is bounded by the Indian Ocean to the north and west , and the Southern Ocean to the south , [ b ] the Northern Territory to the north-east , and South Australia to the south-east . Western Australia is Australia 's largest state , with a total land area of 2,529,875 square kilometres ( 976,790 sq mi ) , and the second-largest country subdivision in the world , surpassed only by Russia 's Sakha Republic . The state has about 2.6 million inhabitants - around 11 percent of the national total - of whom the vast majority ( 92 per cent ) live in the south-west corner , 79 per cent of the population living in the Perth area , leaving the remainder of the state sparsely populated . The first European visitor to Western Australia was the Dutch explorer Dirk Hartog , who visited the Western Australian coast in 1616 . The first European settlement of Western Australia occurred following the landing by Major Edmund Lockyer on 26 December 1826 of an expedition on behalf of the New South Wales colonial government . He established a convict-supported military garrison at King George III Sound , at present-day Albany , and on 21 January 1827 formally took possession of the western third of the continent for the British Crown . This was followed by the establishment of the Swan River Colony in 1829 , including the site of the present-day capital , Perth . York was the first inland settlement in Western Australia . Situated 97 kilometres ( 60 miles ) east of Perth , it was settled on 16 September 1831 . Western Australia achieved responsible government in 1890 and federated with the other British colonies in Australia in 1901 . Today , its economy mainly relies on mining , oil and gas , services and construction .",
    "/wiki/South_Australia": "South Australia ( abbreviated as SA ) is a state in the southern central part of Australia . It covers some of the most arid parts of the country . With a total land area of 983,482 square kilometres ( 379,725 sq mi ) , it is the fourth-largest of Australia 's states and territories by area , and fifth largest by population . It has a total of 1.7 million people , and its population is the second most highly centralised in Australia , after Western Australia , with more than 77 percent of South Australians living in the capital , Adelaide , or its environs . Other population centres in the state are relatively small ; Mount Gambier , the second largest centre , has a population of 28,684 . South Australia shares borders with all of the other mainland states , and with the Northern Territory ; it is bordered to the west by Western Australia , to the north by the Northern Territory , to the north-east by Queensland , to the east by New South Wales , to the south-east by Victoria , and to the south by the Great Australian Bight . The state comprises less than 8 percent of the Australian population and ranks fifth in population among the six states and two territories . The majority of its people reside in greater Metropolitan Adelaide . Most of the remainder are settled in fertile areas along the south-eastern coast and River Murray . The state 's colonial origins are unique in Australia as a freely settled , planned British province , rather than as a convict settlement . Colonial government commenced on 28 December 1836 , when the members of the council were sworn in near the Old Gum Tree . [ citation needed ] As with the rest of the continent , the region has a long history of human occupation by numerous tribes and languages .",
    "/wiki/Australian_Capital_Territory": "The Australian Capital Territory , formerly known as the Federal Capital Territory until 1938 and commonly referred to as the ACT , is a federal territory of Australia containing the Australian capital city of Canberra and some surrounding townships . It is located in the south-east of the country and is an enclave within the state of New South Wales . Founded after Federation as the seat of government for the new nation , all important institutions of the Australian federal government are centred in the territory . On 1 January 1901 , federation of the colonies of Australia was achieved . Section 125 of the new Australian Constitution provided that land , situated in New South Wales and at least 100 miles ( 160 km ) from Sydney , would be ceded to the new federal government . Following discussion and exploration of various areas within New South Wales , the Seat of Government Act 1908 was passed in 1908 which specified a capital in the Yass-Canberra region . The territory was transferred to the Commonwealth by New South Wales in 1911 , two years prior to the capital city being founded and formally named as Canberra in 1913 . While the overwhelming majority of the population reside in the city of Canberra in the ACT 's north-east , the territory also includes some surrounding townships such as Williamsdale , Naas , Uriarra , Tharwa and Hall . The ACT also includes the Namadgi National Park which comprises the majority of land area of the territory . Despite a common misconception , the Jervis Bay Territory is not part of the ACT although the laws of the Australian Capital Territory apply as if Jervis Bay did form part of the ACT . The territory has a relatively dry , continental climate experiencing warm to hot summers and cool to cold winters . The Australian Capital Territory is home to many important institutions of the federal government , national monuments and museums .",
    "/wiki/Tasmania": "Tasmania ( /t\u00e6z\u02c8me\u026ani\u0259/ ; abbreviated as TAS , nicknamed Tassie ) is an island state of Australia . It is located 240 km ( 150 mi ) to the south of the Australian mainland , separated by Bass Strait . The state encompasses the main island of Tasmania , the 26th-largest island in the world , and the surrounding 334 islands . The state has a population of around 533,308 as of March 2019 [ update ] . Just over forty percent of the population resides in the Greater Hobart precinct , which forms the metropolitan area of the state capital and largest city , Hobart . Tasmania 's area is 68,401 km2 ( 26,410 sq mi ) , of which the main island covers 64,519 km2 ( 24,911 sq mi ) . It is promoted as a natural state , and protected areas of Tasmania cover about 42% of its land area , which includes national parks and World Heritage Sites . Tasmania was the founding place of the first environmental political party in the world . The island is believed to have been occupied by indigenous peoples for 30,000 years before British colonisation . It is thought Aboriginal Tasmanians were separated from the mainland Aboriginal groups about 10,000 years ago when the sea rose to form Bass Strait . The Aboriginal population is estimated to have been between 3,000 and 7,000 at the time of colonisation , but was almost wiped out within 30 years by a combination of violent guerrilla conflict with settlers known as the Black War , intertribal conflict , and from the late 1820s , the spread of infectious diseases to which they had no immunity . The conflict , which peaked between 1825 and 1831 , and led to more than three years of martial law , cost the lives of almost 1,100 Aboriginals and settlers .",
    "/wiki/Northern_Territory": "The Northern Territory ( NT ; formally the Northern Territory of Australia ) is an Australian territory in the central and central northern regions of Australia . It shares borders with Western Australia to the west ( 129th meridian east ) , South Australia to the south ( 26th parallel south ) , and Queensland to the east ( 138th meridian east ) . To the north , the territory looks out to the Timor Sea , the Arafura Sea and the Gulf of Carpentaria , including Western New Guinea and other Indonesian islands . The NT covers 1,349,129 square kilometres ( 520,902 sq mi ) , making it the third-largest Australian federal division , and the 11th-largest country subdivision in the world . It is sparsely populated , with a population of only 245,800 , fewer than half as many people as Tasmania . The archaeological history of the Northern Territory begins over 40,000 years ago when Indigenous Australians settled the region . Makassan traders began trading with the indigenous people of the Northern Territory for trepang from at least the 18th century onwards . The coast of the territory was first seen by Europeans in the 17th century . The British were the first Europeans to attempt to settle the coastal regions . After three failed attempts to establish a settlement ( 1824-28 , 1838-49 , and 1864-66 ) , success was achieved in 1869 with the establishment of a settlement at Port Darwin . Today the economy is based on tourism , especially Kakadu National Park in the Top End and the Ulu\u1e5fu-Kata Tju\u1e6fa National Park ( Ayers Rock ) in central Australia , and mining . The capital and largest city is Darwin .",
    "/wiki/Australia": "Australia , officially the Commonwealth of Australia , is a sovereign country comprising the mainland of the Australian continent , the island of Tasmania , and numerous smaller islands . It is the largest country in Oceania and the world 's sixth-largest country by total area . The population of 26 million is highly urbanised and heavily concentrated on the eastern seaboard . Australia 's capital is Canberra , and its largest city is Sydney . The country 's other major metropolitan areas are Melbourne , Brisbane , Perth , and Adelaide . Indigenous Australians inhabited the continent for about 65,000 years prior to the first arrival of Dutch explorers in the early 17th century , who named it New Holland . In 1770 , Australia 's eastern half was claimed by Great Britain and initially settled through penal transportation to the colony of New South Wales from 26 January 1788 , a date which became Australia 's national day . The population grew steadily in subsequent decades , and by the time of an 1850s gold rush , most of the continent had been explored and an additional five self-governing crown colonies established . On 1 January 1901 , the six colonies federated , forming the Commonwealth of Australia . Australia has since maintained a stable liberal democratic political system that functions as a federal parliamentary constitutional monarchy , comprising six states and ten territories . Australia is the oldest , flattest , and driest inhabited continent , with the least fertile soils . It has a landmass of 7,617,930 square kilometres ( 2,941,300 sq mi ) .",
    "/wiki/Aggregate_demand": "In macroeconomics , aggregate demand ( AD ) or domestic final demand ( DFD ) is the total demand for final goods and services in an economy at a given time . It is often called effective demand , though at other times this term is distinguished . This is the demand for the gross domestic product of a country . It specifies the amount of goods and services that will be purchased at all possible price levels . The aggregate demand curve is plotted with real output on the horizontal axis and the price level on the vertical axis . While it is theorized to be downward sloping , the Sonnenschein-Mantel-Debreu results show that the slope of the curve can not be mathematically derived from assumptions about individual rational behavior . Instead , the downward sloping aggregate demand curve is derived with the help of three macroeconomic assumptions about the functioning of markets : Pigou 's wealth effect , Keynes ' interest rate effect and the Mundell-Fleming exchange-rate effect . The Pigou effect states that a higher price level implies lower real wealth and therefore lower consumption spending , giving a lower quantity of goods demanded in the aggregate . The Keynes effect states that a higher price level implies a lower real money supply and therefore higher interest rates resulting from financial market equilibrium , in turn resulting in lower investment spending on new physical capital and hence a lower quantity of goods being demanded in the aggregate . The Mundell-Fleming exchange-rate effect is an extension of the IS-LM model . Whereas the traditional IS-LM Model deals with a closed economy , Mundell-Fleming describes a small open economy . The Mundell-Fleming model portrays the short-run relationship between an economy 's nominal exchange rate , interest rate , and output ( in contrast to the closed-economy IS-LM model , which focuses only on the relationship between the interest rate and output ) ."
  },
  "Template:2004_Summer_Olympics_Argentina_men's_volleyball_team_roster_0": {
    "/wiki/Marcos_Milinkovic": "Marcos Antonio Milinkovic ( born December 22 , 1971 in Villa Ballester , Buenos Aires ) is an Argentine volleyball player . Milinkovi\u0107 is 203 cm and weighs 100 kg . Milinkovic started playing the sport at age 17 , a relatively late age . Milinkovic is of Croat descent . Milinkovic speaks Spanish , Portuguese and Italian .",
    "/wiki/Jorge_Elgueta": "Jorge Elgueta ( born ) is a former Argentine male volleyball player . He was part of the Argentina men 's national volleyball team . He competed with the national team at the 2004 Summer Olympics in Athens , Greece . He played with Espi P\u00f2rtol in 2004 .",
    "/wiki/CV_P\u00f2rtol": "Club Voleibol P\u00f2rtol is a professional volleyball team based in Palma de Mallorca , Spain . It plays in the 1\u00aa Balear de Voleibol after its renounce to play in Superliga just before 2011-12 season .",
    "/wiki/Gustavo_Porporatto": "Gustavo Federico Porporatto Is a former Argentine male volleyball player . He was part of the Argentina men 's national volleyball team . He competed with the national team at the 2004 Summer Olympics in Athens ( Greece ) , the Men 's World Championship 2002 in Argentine , the Men 's World Championship 2006 in Jap\u00e1n and the Men 's world Championship 2014 in Poland .",
    "/wiki/Diego_Gutierrez_(volleyball)": "Diego Guti\u00e9rrez ( born ) is a former Argentine male volleyball player . He was part of the Argentina men 's national volleyball team . He competed with the national team at the 2004 Summer Olympics in Athens , Greece . He played with Evivo D\u00fcren in 2004 .",
    "/wiki/SWD_Powervolleys_D\u00fcren": "SWD Powervolleys D\u00fcren is a German professional volleyball club which plays in the Bundesliga . They play their home matches at the Arena Kreis in D\u00fcren . The team participated in the Men 's CEV Champions League 2006-07",
    "/wiki/Hernan_Ferraro": "Hern\u00e1n Ferraro ( born ) is an Argentine male former volleyball player . He was part of the Argentina men 's national volleyball team . He competed with the national team at the 2004 Summer Olympics in Athens , Greece . He played with Rojas Scholem in 2004 . Now he is the principal coach of Ciudad Voley in Argentina and part of national team as assistant .",
    "/wiki/Alejandro_Spaji\u0107": "Alejandro Ra\u00fal Spaji\u0107 Torres ( born May 7 , 1976 ) is an Argentine volleyball player . Spaji\u0107 is clearly a volleyball player both for Argentina and his club . His background is somewhat similar to another world-class volleyball player namely Marcos Milinkovic . Alejandro Spaji\u0107 's parents are immigrants of Croat origin . With the professional club Lokomotiv Belgorod , he won the bronze medal at the 2004-05 CEV Champions League and was awarded Best Spiker .",
    "/wiki/Club_Ciudad_de_Bol\u00edvar": "Club Ciudad de Bol\u00edvar or Bol\u00edvar Voley ( also named Personal Bol\u00edvar for sponsorship reasons ) is an Argentine volleyball club based in San Carlos de Bol\u00edvar , Buenos Aires Province . The club , founded in 2002 at the initiative of local TV host Marcelo Tinelli , won the championship the same season it debuted , beating Rojas Scholem at the finals . Bol\u00edvar is also the most winning team of Argentina , with 7 championships won .",
    "/wiki/Jer\u00f3nimo_Bidegain": "Jer\u00f3nimo An\u00edbal Bidegain ( born January 16 , 1977 in Buenos Aires ) is an Argentine volleyball player . He is 200 cm and weighs 93 kg . He played with the national team in 2000 Summer Olympics and 2004 Summer Olympics .",
    "/wiki/Pablo_Peralta": "Pablo Peralta ( born ) is an Argentine male volleyball player . His position is Middle Blocker . He was part of the Argentina men 's national volleyball team . He competed with the national team at the 2004 Summer Olympics in Athens , Greece . He played with Tenerife in 2004 .",
    "/wiki/CV_Tenerife": "Club Voleibol Tenerife aka tubillete.com Tenerife Marichal was a Spanish volleyball club who played their home matches at the Pabell\u00f3n Insular Santiago Mart\u00edn hall in Tenerife . The team participates in the Women 's CEV Champions League 2007-08 . They won that competition in 2003-2004 , the only Spanish team ever to do so .",
    "/wiki/Santiago_Darraidou": "Santiago Pedro Darraidou ( born November 24 , 1980 in Buenos Aires ) is an Argentine volleyball player . Darraidou is 194 cm and weighs 96 kg . He speaks Spanish , English and Italian .",
    "/wiki/A.C._Orestias": "A.C. Orestias ( full name Athletic Club of Orestias/ ) is a Greek volleyball club based in Orestias . It was founded in 1970 and it has important presence in the Greek volleyball championship . Orestias was tree times the finalist of the championship and one time the finalist of the Greek cup . Nevertheless the most important moment was the presence of the club in the final of the CEV Challenge Cup , in 1995 .",
    "/wiki/Leonardo_Patti": "Leonardo Patti ( born ( 1978-07-06 ) 6 July 1978 ) is a former Argentine male volleyball player . He was part of the Argentina men 's national volleyball team . He competed with the national team at the 2004 Summer Olympics in Athens , Greece . He played with Club Ciudad de Bol\u00edvar in 2004 .",
    "/wiki/Pablo_Meana": "Pablo Meana ( born June 10 , 1975 in Necochea ) is a male volleyball player from Argentina , who played as a libero . He ended up in sixth place with the Men 's National Team at the 2002 FIVB Men 's World Championship , where he was named Best Receiver of the tournament . Meana is a two-time Olympian ( 2000 and 2004 ) for his native country .",
    "/wiki/VC_Belogorie": "VC Belogorie Belgorod ( Russian : \u0412\u041a \u0411\u0435\u043b\u043e\u0433\u043e\u0440\u044c\u0435 ) is a Russian professional volleyball club based in Belgorod which is participating in the Russian Volleyball Super League . VC Belogorie won the Russian Champion and the Russian Cup eight times each . The club is a three-times CEV Champions League champion . Belogorie is ranked 7th ( as of October 2016 ) in the Men 's European clubs ranking .",
    "/wiki/Gast\u00f3n_Giani": "Gast\u00f3n Giani ( born 26 April 1979 ) is a former Argentine male volleyball player . He was part of the Argentina men 's national volleyball team . He competed with the national team at the 2004 Summer Olympics in Athens , Greece . He played with Tenerife in 2004 ."
  },
  "List_of_overseas_trips_made_by_Willem-Alexander_of_the_Netherlands_0": {
    "/wiki/Russia": "Russia ( Russian : \u0420\u043e\u0441\u0441\u0438\u0301\u044f , tr . Rossiya , IPA : [ r\u0250\u02c8s\u02b2ij\u0259 ] ) , or the Russian Federation , [ e ] is a European country located in Eastern Europe with a vast expanse of territory that stretches across Northern Asia . At 17,125,200 square kilometres ( 6,612,100 sq mi ) , it is by far the largest country in the world by area , covering more than one-eighth of the Earth 's inhabited land area , spanning eleven time zones , and bordering 16 sovereign nations . The territory of Russia extends from the Baltic Sea in the west to the Pacific Ocean in the east , and from the Arctic Ocean in the north to the Black Sea and the Caucasus in the south . With 146.7 million inhabitants living in the country 's 85 federal subjects as of 2020 , Russia is the most populous nation in Europe and the ninth-most populous nation in the world . Russia 's capital and largest city is Moscow ; other major urban areas include Saint Petersburg , Novosibirsk , Yekaterinburg , Nizhny Novgorod , Kazan and Chelyabinsk . The East Slavs emerged as a recognizable group in Europe between the 3rd and 8th centuries AD . Founded and ruled by a Varangian warrior elite and their descendants , the medieval state of Rus arose in the 9th century . In 988 it adopted Orthodox Christianity from the Byzantine Empire , beginning the synthesis of Byzantine and Slavic cultures that defined Russian culture for the next millennium . Rus ultimately disintegrated into a number of smaller states , until it was finally reunified by the Grand Duchy of Moscow in the 15th century . By the 18th century , the nation had greatly expanded through conquest , annexation , and exploration to become the Russian Empire , which was the third largest empire in history , stretching from Poland on the west to Alaska on the east . Following the Russian Revolution , the Russian Soviet Federative Socialist Republic ( Russian SFSR ) became the largest and leading constituent of the Union of Soviet Socialist Republics ( USSR/Soviet Union ) , the world 's first constitutionally socialist state .",
    "/wiki/Poland": "Poland ( Polish : Polska [ \u02c8p\u0254lska ] ( listen ) ) , officially the Republic of Poland ( Polish : Rzeczpospolita Polska [ c ] [ \u0290\u025bt\u0361\u0282p\u0254\u02c8sp\u0254lita \u02c8p\u0254lska ] ( listen ) ) , is a country located in Central Europe . It is divided into 16 administrative subdivisions , covering an area of 312,696 square kilometres ( 120,733 sq mi ) , and has a largely temperate seasonal climate . With a population of nearly 38.5 million people , Poland is the fifth most populous member state of the European Union . Poland 's capital and largest metropolis is Warsaw . Other major cities include Krak\u00f3w , \u0141\u00f3d\u017a , Wroc\u0142aw , Pozna\u0144 , Gda\u0144sk , and Szczecin . Poland is bordered by the Baltic Sea , Lithuania , and Russia 's Kaliningrad Oblast to the north , Belarus and Ukraine to the east , Slovakia and the Czech Republic to the south , and Germany to the west . The history of human activity on Polish soil spans almost 500,000 years . Throughout the Iron Age the area became extensively diverse , with various cultures and tribes settling on the vast Central European Plain . However , it was the Western Polans who dominated the region and gave Poland its name . The establishment of Polish statehood can be traced to AD 966 , when Mieszko I , ruler of the realm coextensive with the territory of present-day Poland , converted to Christianity . The Kingdom of Poland was founded in 1025 , and in 1569 it cemented its longstanding political association with the Grand Duchy of Lithuania by signing the Union of Lublin . This union formed the Polish-Lithuanian Commonwealth , one of the largest ( over 1,000,000 square kilometres - 400,000 square miles ) and most populous countries of 16th and 17th century Europe , with a uniquely liberal political system which adopted Europe 's first written national constitution , the Constitution of 3 May 1791 .",
    "/wiki/Japan": "Japan ( Japanese : \u65e5\u672c , Nippon [ \u0272ippo\ua71c\u0274 ] ( listen ) or Nihon [ \u0272iho\ua71c\u0274 ] ( listen ) ) is an island country located in East Asia . It is bordered by the Sea of Japan to the west and the Pacific Ocean to the east , and spans more than 3,000 kilometers ( 1,900 mi ) along the coast of the continent from the Sea of Okhotsk in the north to the East China Sea and Philippine Sea in the south . Part of the Pacific Ring of Fire , Japan encompasses a stratovolcanic archipelago of about 6,852 islands , with five main islands ( Hokkaido , Honshu , Kyushu , Shikoku , and Okinawa ) comprising 97% of the country 's total area of 377,975 square kilometers ( 145,937 sq mi ) . Japan is officially divided into 47 prefectures and traditionally into eight regions . Approximately two-thirds of the country 's terrain is mountainous and heavily forested , and less than one-eighth of land is suitable for agriculture . Consequently , Japan is among the most densely populated and urbanized countries in the world , with over 90% of its population living in urban areas . The largest of these is the metropolitan area centered on the capital city of Tokyo , which is the most populous in the world and home to more than 38 million people . Japan itself is the world 's eleventh most populous country with a population of 126.2 million , of which 97.8% are ethnically Japanese . The kanji ( or Chinese characters ) that make up the name of Japan in the Japanese language mean sun origin ; in the Western world , the country is often known by the sobriquet Land of the Rising Sun . Periods of influence from other regions , primarily China , followed by periods of isolation , particularly from Western Europe , have characterized the history of Japan . While archaeological evidence indicates that Japan was inhabited as early as the Upper Paleolithic period , the first written mention of the archipelago appears in Chinese texts from the first century AD . Between the fourth and ninth centuries , the kingdoms of Japan became gradually unified under an Emperor and imperial court based in Heian-ky\u014d ( modern Kyoto ) .",
    "/wiki/South_Korea": "South Korea ( Korean : \ud55c\uad6d/\u97d3\u570b ; RR : Hanguk or literally \ub0a8\ud55c/\u5357\u97d3 ; RR : Namhan ) , officially the Republic of Korea ( Korean : \ub300\ud55c\ubbfc\uad6d/\u5927\u97d3\u6c11\u570b ; RR : Daehan Minguk ) is a country in East Asia , constituting the southern part of the Korean Peninsula and sharing a land border with North Korea . The name Korea is derived from Goguryeo , which was one of the great powers in East Asia during its time , ruling most of the Korean Peninsula , Manchuria , parts of the Russian Far East and Inner Mongolia under Gwanggaeto the Great . Its capital , Seoul , is a major global city and half of South Korea 's over 51 million people live in the Seoul Capital Area , the fourth largest metropolitan economy in the world . The Korean Peninsula was inhabited as early as the Lower Paleolithic period . Its first kingdom was noted in Chinese records in the early 7th century BC . Following the unification of the Three Kingdoms of Korea into Silla and Balhae in the late 7th century , Korea was ruled by the Goryeo dynasty ( 918-1392 ) and the Joseon dynasty ( 1392-1897 ) . The succeeding Korean Empire was annexed into the Empire of Japan in 1910 . After World War II , Korea was divided into Soviet and U.S.-administered zones , with the latter becoming the Republic of Korea in August 1948 . In 1950 , a North Korean invasion began the Korean War and after its end in 1953 , the country 's economy began to soar , recording the fastest rise in average GDP per capita in the world between 1980 and 1990 . Authoritarian rule ended in 1987 and the country is now the most advanced democracy with the highest level of press freedom in Asia . South Korea is a member of the OECD 's Development Assistance Committee , the G20 and the Paris Club . South Korea is a highly developed country and the world 's 12th-largest economy by nominal GDP .",
    "/wiki/Denmark": "Denmark ( Danish : Danmark , pronounced [ \u02c8t\u00e6nmak ] ( listen ) ) , officially the Kingdom of Denmark , [ N 10 ] [ N 2 ] is a Nordic country in Northwest Europe . Denmark proper , which is the southernmost of the Scandinavian countries , consists of a peninsula , Jutland , and an archipelago of 443 named islands , [ N 2 ] with the largest being Zealand , Funen and the North Jutlandic Island . The islands are characterised by flat , arable land and sandy coasts , low elevation and a temperate climate . The southernmost of the Scandinavian nations , Denmark lies southwest of Sweden and south of Norway , [ N 11 ] and is bordered to the south by Germany . The Kingdom of Denmark also includes two autonomous territories in the North Atlantic Ocean : the Faroe Islands and Greenland . Denmark has a total area of 42,924 km2 ( 16,573 sq mi ) , land area of 42,394 km2 ( 16,368 sq mi ) , and the total area including Greenland and the Faroe Islands is 2,210,579 km2 ( 853,509 sq mi ) , and a population of 5.8 million in Denmark proper ( Danish egentlige Danmark ) ( as of 2020 [ update ] ) . The unified kingdom of Denmark emerged in the 8th century as a proficient seafaring nation in the struggle for control of the Baltic Sea . Denmark , Sweden , and Norway were ruled together under one sovereign ruler in the Kalmar Union , established in 1397 and ending with Swedish secession in 1523 . The areas of Denmark and Norway remained under the same monarch until 1814 , Denmark-Norway . Beginning in the 17th century , there were several devastating wars with the Swedish Empire , ending with large cessions of territory to Sweden . After the Napoleonic Wars , Norway was ceded to Sweden , while Denmark kept the Faroe Islands , Greenland , and Iceland . In the 19th century there was a surge of nationalist movements , which were defeated in the First Schleswig War .",
    "/wiki/Canada": "Canada is a country in the northern part of North America . Its ten provinces and three territories extend from the Atlantic to the Pacific and northward into the Arctic Ocean , covering 9.98 million square kilometres ( 3.85 million square miles ) , making it the world 's second-largest country by total area . Its southern border with the United States , stretching some 8,891 kilometres ( 5,525 mi ) , is the world 's longest bi-national land border . Canada 's capital is Ottawa , and its three largest metropolitan areas are Toronto , Montreal , and Vancouver . As a whole , Canada is sparsely populated , with most of its land area dominated by forest and tundra . Its population is highly urbanized , with over 80 percent of its inhabitants concentrated in large and medium-sized cities , and 70 percent residing within 100 kilometres ( 62 mi ) of the southern border . Canada 's climate varies widely across its vast area , ranging from Arctic climate in the north to hot summers in the southern regions , with four distinct seasons . Various indigenous peoples inhabited what is now Canada for thousands of years before European colonization . Beginning in the 16th century , British and French expeditions explored and later settled along the Atlantic coast . As a consequence of various armed conflicts , France ceded nearly all of its colonies in North America in 1763 . In 1867 , with the union of three British North American colonies through Confederation , Canada was formed as a federal dominion of four provinces . This began an accretion of provinces and territories and a process of increasing autonomy from the United Kingdom .",
    "/wiki/China": "China ( Chinese : \u4e2d\u56fd ; pinyin : Zh\u014dnggu\u00f3 ) , officially the People 's Republic of China ( PRC ) , is a country in East Asia and is the world 's most populous country , with a population of around 1.428 billion in 2017 . Covering approximately 9,600,000 square kilometers ( 3,700,000 sq mi ) , it is the third largest country by area . [ j ] Governed by the Communist Party of China , the state exercises jurisdiction over 22 provinces , [ k ] five autonomous regions , four direct-controlled municipalities ( Beijing , Tianjin , Shanghai , and Chongqing ) , and the special administrative regions of Hong Kong and Macau . China emerged as one of the world 's first civilizations , in the fertile basin of the Yellow River in the North China Plain . For millennia , China 's political system was based on hereditary monarchies , or dynasties , beginning with the semi-mythical Xia dynasty in 21st century BCE . Since then , China has expanded , fractured , and re-unified numerous times . In the 3rd century BCE , the Qin reunited core China and established the first Chinese empire . The succeeding Han dynasty , which ruled from 206 BCE until 220 CE , saw some of the most advanced technology at that time , including papermaking and the compass , along with agricultural and medical improvements . The invention of gunpowder and movable type in the Tang dynasty ( 618-907 ) and Northern Song ( 960-1127 ) completed the Four Great Inventions . Tang culture spread widely in Asia , as the new Silk Route brought traders to as far as Mesopotamia and the Horn of Africa . Dynastic rule ended in 1912 with the Xinhai Revolution , when the Republic of China ( ROC ) replaced the Qing dynasty . China , as a whole , was ravaged by feudal warlordism and Japan during World War II .",
    "/wiki/France": "France ( French : [ f\u0281\u0251\u0303s ] ( listen ) ) , officially the French Republic ( French : R\u00e9publique fran\u00e7aise , pronounced [ \u0281epyblik f\u0281\u0251\u0303s\u025b\u02d0z ] ( listen ) ) , is a country whose territory consists of metropolitan France in Western Europe and several overseas regions and territories . [ XIII ] The metropolitan area of France extends from the Mediterranean Sea to the English Channel and the North Sea , and from the Rhine to the Atlantic Ocean . It is bordered by Belgium , Luxembourg and Germany to the northeast , Switzerland and Italy to the east , and Andorra and Spain to the south . The overseas territories include French Guiana in South America and several islands in the Atlantic , Pacific and Indian oceans . The country 's 18 integral regions ( five of which are situated overseas ) span a combined area of 643,801 square kilometres ( 248,573 sq mi ) and a total population of 67.02 million ( as of July 2019 [ update ] ) . France is a unitary semi-presidential republic with its capital in Paris , the country 's largest city and main cultural and commercial centre . Other major urban areas include Lyon , Marseille , Toulouse , Bordeaux , Lille and Nice . France , including its overseas territories , has the most number of time zones of any country , with a total of 12 . During the Iron Age , what is now metropolitan France was inhabited by the Gauls , a Celtic people . Rome annexed the area in 51 BC , holding it until the arrival of Germanic Franks in 476 , who formed the Kingdom of Francia . The Treaty of Verdun of 843 partitioned Francia into East Francia , Middle Francia and West Francia . West Francia , which became the Kingdom of France in 987 , emerged as a major European power in the Late Middle Ages , following its victory in the Hundred Years ' War ( 1337-1453 ) .",
    "/wiki/Australia": "Australia , officially the Commonwealth of Australia , is a sovereign country comprising the mainland of the Australian continent , the island of Tasmania , and numerous smaller islands . It is the largest country in Oceania and the world 's sixth-largest country by total area . The population of 26 million is highly urbanised and heavily concentrated on the eastern seaboard . Australia 's capital is Canberra , and its largest city is Sydney . The country 's other major metropolitan areas are Melbourne , Brisbane , Perth , and Adelaide . Indigenous Australians inhabited the continent for about 65,000 years prior to the first arrival of Dutch explorers in the early 17th century , who named it New Holland . In 1770 , Australia 's eastern half was claimed by Great Britain and initially settled through penal transportation to the colony of New South Wales from 26 January 1788 , a date which became Australia 's national day . The population grew steadily in subsequent decades , and by the time of an 1850s gold rush , most of the continent had been explored and an additional five self-governing crown colonies established . On 1 January 1901 , the six colonies federated , forming the Commonwealth of Australia . Australia has since maintained a stable liberal democratic political system that functions as a federal parliamentary constitutional monarchy , comprising six states and ten territories . Australia is the oldest , flattest , and driest inhabited continent , with the least fertile soils . It has a landmass of 7,617,930 square kilometres ( 2,941,300 sq mi ) .",
    "/wiki/New_Zealand": "New Zealand ( M\u0101ori : Aotearoa [ a\u0254\u02c8t\u025ba\u027e\u0254a ] ) is a sovereign island country in the southwestern Pacific Ocean . The country has two main landmasses - the North Island ( Te Ika-a-M\u0101ui ) , and the South Island ( Te Waipounamu ) - and around 600 smaller islands . It has a total land area of 268,000 square kilometres ( 103,500 sq mi ) . New Zealand is about 2,000 kilometres ( 1,200 mi ) east of Australia across the Tasman Sea and 1,000 kilometres ( 600 mi ) south of the Pacific island areas of New Caledonia , Fiji , and Tonga . Because of its remoteness , it was one of the last lands to be settled by humans . During its long period of isolation , New Zealand developed a distinct biodiversity of animal , fungal , and plant life . The country 's varied topography and its sharp mountain peaks , such as the Southern Alps , owe much to the tectonic uplift of land and volcanic eruptions . New Zealand 's capital city is Wellington , and its most populous city is Auckland . Sometime between 1250 and 1300 , Polynesians settled in the islands and developed a distinctive M\u0101ori culture . In 1642 , Dutch explorer Abel Tasman became the first European to sight New Zealand . In 1840 , representatives of the United Kingdom and M\u0101ori chiefs signed the Treaty of Waitangi , which declared British sovereignty over the islands . In 1841 , New Zealand became a colony within the British Empire and in 1907 it became a dominion ; it gained full statutory independence in 1947 and the British monarch remained the head of state .",
    "/wiki/Italy": "Italy ( Italian : Italia [ i\u02c8ta\u02d0lja ] ( listen ) ) , officially the Italian Republic ( Italian : Repubblica Italiana [ re\u02c8pubblika ita\u02c8lja\u02d0na ] ) , is a European country consisting of a peninsula delimited by the Alps and surrounded by several islands . Italy is located in south-central Europe , and it is also considered a part of Western Europe . The country covers a total area of 301,340 km2 ( 116,350 sq mi ) and shares land borders with France , Switzerland , Austria , Slovenia , and the enclaved microstates of Vatican City and San Marino . Italy has a territorial exclave in Switzerland ( Campione ) and a maritime exclave in the Tunisian Sea ( Lampedusa ) . With around 60 million inhabitants , Italy is the third-most populous member state of the European Union . The capital and largest city is Rome ; other major cities are Milan , Naples , Turin , Palermo , Genoa , Bologna , Florence and Venice . Due to its central geographic location in Southern Europe and the Mediterranean , Italy has historically been home to myriad peoples and cultures . In addition to the various ancient peoples dispersed throughout what is now modern-day Italy , the most predominant being the Indo-European Italic peoples who gave the peninsula its name , beginning from the classical era , Phoenicians and Carthaginians founded colonies mostly in insular Italy , Greeks established settlements in the so-called Magna Graecia of Southern Italy , while Etruscans and Celts inhabited central and northern Italy respectively . An Italic tribe known as the Latins formed the Roman Kingdom in the 8th century BC , which eventually became a republic with a government of the Senate and the People . The Roman Republic initially conquered and assimilated its neighbours on the Italian peninsula , eventually expanding and conquering parts of Europe , North Africa and Asia . By the first century BC , the Roman Empire emerged as the dominant power in the Mediterranean Basin and became a leading cultural , political and religious centre , inaugurating the Pax Romana , a period of more than 200 years during which Italy 's law , technology , economy , art , and literature developed . Italy remained the homeland of the Romans and the metropole of the empire , whose legacy can also be observed in the global distribution of culture , governments , Christianity and the Latin script .",
    "/wiki/Portugal": "Portugal ( Portuguese : [ pu\u027etu\u02c8\u0263al ] ) , officially the Portuguese Republic ( Portuguese : Rep\u00fablica Portuguesa [ \u0281\u025b\u02c8pu\u03b2lik\u0250 pu\u027etu\u02c8\u0263ez\u0250 ] ) , [ note 5 ] is a country located mostly on the Iberian Peninsula , in southwestern Europe . It is the westernmost sovereign state of mainland Europe , being bordered to the west and south by the Atlantic Ocean and to the north and east by Spain . Its territory also includes the Atlantic archipelagos of the Azores and Madeira , both autonomous regions with their own regional governments . Portugal is the oldest nation state on the Iberian Peninsula and one of the oldest in Europe and the world , its territory having been continuously settled , invaded and fought over since prehistoric times . The pre-Celtic people , Iberians , Celts , Carthaginians and Romans were followed by the invasions of the Visigoths and Suebi Germanic peoples . After the Muslim conquests of the Iberian Peninsula , most of the territory was part of Al-Andalus until their expulsion . Portugal as a country was established during the early Christian Reconquista . Founded in 868 , the County of Portugal gained prominence after the Battle of S\u00e3o Mamede in 1128 . The Kingdom of Portugal was later proclaimed following the Battle of Ourique in 1139 , and independence from Le\u00f3n was recognised by the Treaty of Zamora in 1143 . On 12 December 2017 , the Portuguese Navy commemorated the 700th anniversary of its official creation by King Denis of Portugal . Tracing its origins back to the 12th century , it is the oldest continuously serving navy in the world . In the 15th and 16th centuries , Portugal established the first global empire , becoming one of the world 's major economic , political and military powers .",
    "/wiki/Luxembourg": "Luxembourg ( /\u02c8l\u028cks\u0259mb\u025c\u02d0r\u0261/ ( listen ) LUK-s\u0259m-burg ; Luxembourgish : L\u00ebtzebuerg [ \u02c8l\u0259ts\u0259bu\u0259\u032f\u0255 ] ( listen ) ; French : Luxembourg ; German : Luxemburg ) , officially the Grand Duchy of Luxembourg , [ c ] is a landlocked country in western Europe . It is bordered by Belgium to the west and north , Germany to the east , and France to the south . Its capital , Luxembourg City , is one of the four official capitals of the European Union ( together with Brussels , Frankfurt , and Strasbourg ) and the seat of the European Court of Justice , the highest judicial authority in the EU . Its culture , people , and languages are highly intertwined with its neighbours , making it essentially a mixture of French and German cultures , as evident by the nation 's three official languages : French , German , and the national language of Luxembourgish . The repeated invasions by Germany , especially in World War II , resulted in the country 's strong will for mediation between France and Germany and , among other things , led to the foundation of the European Union . With an area of 2,586 square kilometres ( 998 sq mi ) , it is one of the smallest sovereign states in Europe . In 2019 , Luxembourg had a population of 613,894 , which makes it one of the least-populous countries in Europe , but by far the one with the highest population growth rate . Foreigners account for nearly half of Luxembourg 's population . As a representative democracy with a constitutional monarch , it is headed by Grand Duke Henri and is the world 's only remaining sovereign grand duchy . Luxembourg is a developed country , with an advanced economy and one of the world 's highest GDP ( PPP ) per capita . The City of Luxembourg with its old quarters and fortifications was declared a UNESCO World Heritage Site in 1994 due to the exceptional preservation of the vast fortifications and the old city . The history of Luxembourg is considered to begin in 963 , when count Siegfried acquired a rocky promontory and its Roman-era fortifications known as Lucilinburhuc , little castle , and the surrounding area from the Imperial Abbey of St. Maximin in nearby Trier .",
    "/wiki/Latvia": "Latvia ( /\u02c8l\u0251\u02d0tvi\u0259/ or /\u02c8l\u00e6tvi\u0259/ ( listen ) ; Latvian : Latvija [ \u02c8latvija ] , Livonian : Le\u021bm\u014d ) , officially known as the Republic of Latvia ( Latvian : Latvijas Republika , Livonian : Le\u021bm\u014d Vab\u0101m\u014d ) , is a country in the Baltic region of Northern Europe . Since its independence , Latvia has been referred to as one of the Baltic states . It is bordered by Estonia to the north , Lithuania to the south , Russia to the east , Belarus to the southeast , and shares a maritime border with Sweden to the west . Latvia has 1,957,200 inhabitants and a territory of 64,589 km2 ( 24,938 sq mi ) . The country has a temperate seasonal climate . The Baltic Sea moderates climate , although it has four distinct seasons and snowy winters . After centuries of Swedish , Polish and Russian rule , a rule mainly executed by the Baltic German aristocracy , the Republic of Latvia was established on 18 November 1918 when it broke away from the Russian Empire and declared independence in the aftermath of World War I . However , by the 1930s the country became increasingly autocratic after the coup in 1934 establishing an authoritarian regime under K\u0101rlis Ulmanis . The country 's de facto independence was interrupted at the outset of World War II , beginning with Latvia 's forcible incorporation into the Soviet Union , followed by the invasion and occupation by Nazi Germany in 1941 , and the re-occupation by the Soviets in 1944 ( Courland Pocket in 1945 ) to form the Latvian SSR for the next 45 years . The peaceful Singing Revolution , starting in 1987 , called for Baltic emancipation from Soviet rule and condemning the Communist regime 's illegal takeover . It ended with the Declaration on the Restoration of Independence of the Republic of Latvia on 4 May 1990 and restoring de facto independence on 21 August 1991 . Latvia is a democratic sovereign state , parliamentary republic and a very highly developed country according to the United Nations Human Development Index .",
    "/wiki/Estonia": "Estonia ( Estonian : Eesti [ \u02c8e\u02d0s\u02b2ti ] ( listen ) ) , officially the Republic of Estonia ( Estonian : Eesti Vabariik ) , is a country on the eastern coast of the Baltic Sea in Northern Europe . It is bordered to the north by the Gulf of Finland with Finland on the other side , to the west by the Baltic Sea with Sweden on the other side , to the south by Latvia ( 343 km ) , and to the east by Lake Peipus and Russia ( 338.6 km ) . The territory of Estonia consists of the mainland and of 2,222 islands in the Baltic Sea , covering a total area of 45,227 km2 ( 17,462 sq mi ) , water 2,839 km2 ( 1,096 sq mi ) , land area 42,388 km2 ( 16,366 sq mi ) , and is influenced by a humid continental climate . The official language of the country , Estonian , is the second-most-spoken Finnic language . The territory of Estonia has been inhabited since at least 9,000 BC . Ancient Estonians became some of the last European pagans to adopt Christianity - following the Livonian Crusade in the 13th century . After centuries of successive rule by Germans , Danes , Swedes , Poles and Russians , a distinct Estonian national identity began to emerge in the 19th and early 20th centuries . This culminated in independence from Russia in 1920 after a brief War of Independence at the end of World War I . Initially democratic prior to the Great Depression , Estonia experienced authoritarian rule from 1934 during the Era of Silence . During World War II ( 1939-1945 ) , Estonia was repeatedly contested and occupied by the Soviet Union and Germany , ultimately being incorporated into the former . After the loss of its de facto independence , Estonia 's de jure state continuity was preserved by diplomatic representatives and the government-in-exile . In 1987 the peaceful Singing Revolution began against Soviet rule , resulting in the restoration of de facto independence on 20 August 1991 .",
    "/wiki/Lithuania": "The first known record of the name of Lithuania ( Lithuanian : Lietuva ) is in a 9 March 1009 story of Saint Bruno in the Quedlinburg Chronicle . The Chronicle recorded a Latinized form of the name Lietuva : Litua ( pronounced [ litua ] ) . Due to the lack of reliable evidence , the true meaning of the name is unknown . Nowadays , scholars still debate the meaning of the word and there are a few plausible versions . Since Lietuva has a suffix ( -uva ) , the original word should have no suffix . [ citation needed ] A likely candidate is Liet\u0101 . Because many Baltic ethnonyms originated from hydronyms , linguists have searched for its origin among local hydronyms . Usually , such names evolved through the following process : hydronym \u2192 toponym \u2192 ethnonym . Lietava , a small river not far from Kernav\u0117 , the core area of the early Lithuanian state and a possible first capital of the eventual Grand Duchy of Lithuania , is usually credited as the source of the name . However , the river is very small and some find it improbable that such a small and local object could have lent its name to an entire nation . On the other hand , such naming is not unprecedented in world history . Art\u016bras Dubonis proposed another hypothesis , that Lietuva relates to the word lei\u010diai ( plural of leitis ) .",
    "/wiki/United_Kingdom": "The United Kingdom of Great Britain and Northern Ireland , commonly known as the United Kingdom ( UK or U.K. ) or Britain , [ note 11 ] is a sovereign country located off the north\u00adwestern coast of the European mainland . Existing under its current name since 1921 , the United Kingdom includes the island of Great Britain , the north\u00adeastern part of the island of Ireland , and many smaller islands . Northern Ireland shares a land border with the Republic of Ireland . Otherwise , the United Kingdom is surrounded by the Atlantic Ocean , with the North Sea to the east , the English Channel to the south and the Celtic Sea to the southwest , giving it the 12th-longest coastline in the world . The Irish Sea separates Great Britain and Ireland . The total area of the United Kingdom is 94,000 square miles ( 240,000 km2 ) . The United Kingdom is a unitary parliamentary democracy and constitutional monarchy . [ note 12 ] The current monarch is Queen Elizabeth II , who has reigned since 1952 , making her the world 's longest-serving current head of state . The United Kingdom 's capital and largest city is London , a global city and financial centre with an urban area population of 10.3 million . Other major cities include Birmingham , Manchester , Glasgow , Leeds and Liverpool . The United Kingdom consists of four constituent countries : England , Scotland , Wales , and Northern Ireland . Their capitals are London , Edinburgh , Cardiff , and Belfast , respectively .",
    "/wiki/Republic_of_Ireland": "Ireland ( Irish : \u00c9ire [ \u02c8e\u02d0\u027e\u02b2\u0259 ] ( listen ) ) , also known as the Republic of Ireland ( Poblacht na h\u00c9ireann ) , is a country in north-western Europe occupying 26 of 32 counties of the island of Ireland . The capital and largest city is Dublin , which is located on the eastern side of the island . Around a third of the country 's population of 4.9 million people resides in the greater Dublin area . The sovereign state shares its only land border with Northern Ireland , a part of the United Kingdom . It is otherwise surrounded by the Atlantic Ocean , with the Celtic Sea to the south , St George 's Channel to the south-east , and the Irish Sea to the east . It is a unitary , parliamentary republic . The legislature , the Oireachtas , consists of a lower house , D\u00e1il \u00c9ireann , an upper house , Seanad \u00c9ireann , and an elected President ( Uachtar\u00e1n ) who serves as the largely ceremonial head of state , but with some important powers and duties . The head of government is the Taoiseach ( Prime Minister , literally 'Chief ' , a title not used in English ) , who is elected by the D\u00e1il and appointed by the President ; the Taoiseach in turn appoints other government ministers . The state was created as the Irish Free State in 1922 as a result of the Anglo-Irish Treaty . It had the status of Dominion until 1937 when a new constitution was adopted , in which the state was named Ireland and effectively became a republic , with an elected non-executive president as head of state . It was officially declared a republic in 1949 , following the Republic of Ireland Act 1948 . Ireland became a member of the United Nations in December 1955 .",
    "/wiki/India": "India ( Hindi : Bh\u0101rat ) , officially the Republic of India ( Hindi : Bh\u0101rat Ga\u1e47ar\u0101jya ) , is a country in South Asia . It is the seventh-largest country by area , the second-most populous country , and the most populous democracy in the world . Bounded by the Indian Ocean on the south , the Arabian Sea on the southwest , and the Bay of Bengal on the southeast , it shares land borders with Pakistan to the west ; [ e ] China , Nepal , and Bhutan to the north ; and Bangladesh and Myanmar to the east . In the Indian Ocean , India is in the vicinity of Sri Lanka and the Maldives ; its Andaman and Nicobar Islands share a maritime border with Thailand and Indonesia . Modern humans arrived on the Indian subcontinent from Africa no later than 55,000 years ago . Their long occupation , initially in varying forms of isolation as hunter-gatherers , has made the region highly diverse , second only to Africa in human genetic diversity . Settled life emerged on the subcontinent in the western margins of the Indus river basin 9,000 years ago , evolving gradually into the Indus Valley Civilisation of the third millennium BCE . By 1200 BCE , an archaic form of Sanskrit , an Indo-European language , had diffused into India from the northwest , unfolding as the language of the Rigveda , and recording the dawning of Hinduism in India . The Dravidian languages of India were supplanted in the northern regions . By 400 BCE , stratification and exclusion by caste had emerged within Hinduism , and Buddhism and Jainism had arisen , proclaiming social orders unlinked to heredity . Early political consolidations gave rise to the loose-knit Maurya and Gupta Empires based in the Ganges Basin . Their collective era was suffused with wide-ranging creativity , but also marked by the declining status of women , and the incorporation of untouchability into an organised system of belief .",
    "/wiki/Indonesia": "Indonesia ( /\u02cc\u026and\u0259\u02c8ni\u02d0\u0292\u0259/ ( listen ) IN-d\u0259-NEE-zh\u0259 ) , officially the Republic of Indonesia ( Indonesian : Republik Indonesia [ re\u02c8publik \u026ando\u02c8nesia ] ( listen ) ) , [ a ] is a country in Southeast Asia , between the Indian and Pacific oceans . It is the world 's largest island country , with more than seventeen thousand islands , and at 1,904,569 square kilometres ( 735,358 square miles ) , the 14th largest by land area and 7th in the combined sea and land area . With over 267 million people , it is the world 's 4th most populous country as well as the most populous Muslim-majority country . Java , the world 's most populous island , is home to more than half of the country 's population . The country 's capital , Jakarta , is the second-most populous urban area in the world . The sovereign state is a presidential , constitutional republic with an elected legislature . It has 34 provinces , of which five have special status . The country shares land borders with Papua New Guinea , East Timor , and the eastern part of Malaysia . Other neighbouring countries include Singapore , Vietnam , the Philippines , Australia , Palau , and India 's Andaman and Nicobar Islands . Despite its large population and densely populated regions , Indonesia has vast areas of wilderness that support a high level of biodiversity . The country has abundant natural resources like oil and natural gas , coal , tin , copper , gold , and nickel , while agriculture mainly produces rice , palm oil , tea , coffee , cacao , medicinal plants , spices , and rubber . China , the United States , Japan , Singapore , and India are Indonesia 's major trading partners ."
  }
}