{
  "National_Register_of_Historic_Places_listings_in_Idaho_County,_Idaho_0": {
    "/wiki/Ah_Toy_Garden": "Ah Toy Garden is a garden located within Payette National Forest . The garden was established by the Chinese American community in order to grow fruits and vegetables to maintain a traditional Chinese diet while Chinese immigrant laborers worked in the mines . There are three other Chinese-American gardens in the Warren Mining District . The garden was listed in the National Register of Historic Places on June 27 , 1990 .",
    "/wiki/Salmon_River_(Idaho)": "The Salmon River is located in Idaho in the northwestern United States . The Salmon is also known as The River of No Return . It flows for 425 miles ( 685 km ) through central Idaho , draining a rugged , thinly populated watershed of 14,000 square miles ( 36,000 km2 ) and dropping more than 7,000 feet ( 2,100 m ) between its headwaters , near Galena Summit above the Sawtooth Valley in the Sawtooth National Recreation Area , and its confluence with the Snake River . Measured at White Bird , its average discharge is 11,060 cubic feet per second ( 82,700 US gal/s ; 313 m3/s ) . It is one of the largest rivers in the continental United States without a single dam on its mainstem . Cities located along the Salmon River include Stanley , Clayton , Challis , Salmon , Riggins , and White Bird . Redfish Lake and Little Redfish Lake near Stanley , which flow into the river via Redfish Lake Creek , are the terminus of the longest Pacific sockeye salmon migration in North America . The lower half of the river provides the time zone boundary for the state , with northern Idaho on Pacific time and the rest of the state on Mountain time .",
    "/wiki/Payette_National_Forest": "The Payette National Forest is a U.S. National Forest located in central western Idaho , in parts of Valley , Idaho , Adams , and Washington counties . The land area consists of approximately 2.3 million acres ( 9,300 km2 ) of federally managed lands . It is bordered by Hells Canyon National Recreation Area and the Hells Canyon to the west , Salmon-Challis National Forest to the east , Boise National Forest to the south , and the Nez Perce National Forest to the north . The Payette National Forest is a part of the Intermountain Region ( Region 4 ) . It is under the jurisdiction of a forest supervisor in McCall and is divided into five ranger districts : McCall , Krassel , New Meadows , Council , and Weiser . The Payette also provides the largest component of the Frank Church-River of No Return Wilderness , the second-largest designated wilderness area outside Alaska . Approximately 790,000 acres ( 3,200 km2 ) of it is within the wilderness , comprising one-third of its total acreage . ( Five other National Forests also contribute to the River of No Return Wilderness , in addition to a small plot of land from the Bureau of Land Management . ) It also provides the third-largest component of the Hells Canyon Wilderness . The Forest Reserve Act of 1891 helped the creation of the Weiser Reserve in 1905 and the Idaho Reserve in 1908 . A merger of these two reserves ( later called forests ) on April 1 , 1944 created the official Payette National Forest . It is named for Fran\u00e7ois Payette ( 1793-18xx ) , a French-Canadian fur trapper and later the manager of Fort Boise for the Hudson 's Bay Company from 1835-1844 .",
    "/wiki/Warren,_Idaho": "Warren is an unincorporated community in the remote north central region of the U.S. state of Idaho , near the Frank Church River of No Return Wilderness .",
    "/wiki/Aitken_Barn": "The Aitken Barn on the Little Salmon River prominently visible from the U.S. Highway 95 near Riggins in Idaho County , Idaho was built in 1914 . It was listed on the National Register of Historic Places in 1982 . It was built by Jim and Stewart Aitken . It is a balloon-frame basilica plan building , with one-story lean-tos on both sides of a two-story central section . The central section has a hip roof to the rear . There is a clerestory wall of the hayloft with three square small windows . The lean-to sections have stalls for horses and for dairy cows .",
    "/wiki/U.S._Route_95": "U.S. Route 95 ( US 95 ) is a north-south U.S. highway in the western United States . Unlike many other US highways , it has not seen deletion or replacement on most of its length by an encroaching Interstate highway corridor , due to its mostly rural course . Because of this , it still travels from border to border and is a primary north-south highway in both Nevada and Idaho . This is one of the few US Routes or Interstate highways to cross from Mexico to Canada . As of 2010 , the highway 's southern terminus is in San Luis , Arizona , on the Mexico-US border , where Calle 1 , a short spur leads to Mexican Federal Highway 2 in San Luis R\u00edo Colorado , Sonora . Its northern terminus is in Boundary County , Idaho , at the Canada-US border in Eastport , Idaho , where it continues north as British Columbia Highway 95 .",
    "/wiki/Riggins,_Idaho": "Riggins is a city in Idaho County , Idaho , United States . It is nestled deep in a canyon at the confluence of the Salmon River and the Little Salmon River in west central Idaho , approximately 150 highway miles ( 240 km ) north of Boise , and 120 highway miles ( 190 km ) south-southeast of Lewiston . The elevation of Riggins is 1,821 feet ( 555 m ) above sea level , and the population was 419 at the 2010 census . U.S. Route 95 , the only highway for the state connecting the Panhandle to the south , runs through Riggins as Main Street . Along this route , Riggins is the northwesternmost town in the Mountain time zone ; the Pacific time begins just north of the city , across the Salmon River .",
    "/wiki/Arctic_Point_Fire_Lookout": "The Arctic Point Fire Lookout is a 72-foot ( 22 m ) tall fire tower located near Big Creek , Idaho . It was listed on the U.S. National Register of Historic Places ( NRHP ) in 1994 . Its NRHP listing included two contributing buildings , a log cabin residence and a standard type outhouse , as well as one contributing structure , the fire tower itself . The tower was built in 1936 . It is an Aermotor Company tower topped with a 7x7 foot ( 2.1x2.1 m ) galvanized steel cab and is the last tower of its type still standing in a wilderness area . The cabin was added as a residence for the lookouts in 1939 . It remained in use for its intended purpose until 1997 , when it was decommissioned .",
    "/wiki/Frank_Church-River_of_No_Return_Wilderness": "The Frank Church - River of No Return Wilderness Area is a protected wilderness area in Idaho . It was created in 1980 by the United States Congress and renamed in 1984 as the Frank Church-River of No Return Wilderness Area in honor of U.S . Senator Frank Church . At 2.367 million acres ( 9,580 km2 ) , it is the largest contiguous federally managed wilderness in the United States outside of Alaska , which is second in area only to the contiguous area of the state-managed Adirondack Park in upstate New York , which contains some 46% of its state-managed area of 9,375 square miles ( 24,281 km2 ) as wilderness parkland . The Death Valley Wilderness is the largest single designated area but consists of numerous disconnected units . The wilderness protects several mountain ranges , extensive wildlife , and a popular whitewater rafting river : the Salmon River .",
    "/wiki/Big_Creek,_Idaho": "( for the airport in Valley County , Idaho , see Big Creek Airport ( Idaho ) ) Big Creek is an unincorporated community in Shoshone County , Idaho , United States , outside Kellogg and South of the Shoshone Country Club , where National Forest Develop Road 264 becomes Big Creek Road . It is home to two large mines : the Crescent and Sunshine mines . The Sunshine mine is one of the largest producers of silver ; in its history it produced more silver than the famous Comstock Lode in Nevada . The community is associated to the ZIP code of Kellogg ( 83837 ) .",
    "/wiki/James_V._and_Sophia_Baker_House": "The James V. and Sophia Baker House is a historic home located at 204 Broadway St. in Cottonwood , Idaho . The American Craftsman style house was constructed in 1916 . The house 's design features tapered columns on its front porch , exposed rafters and open eaves , and fake braces which appear to support the roof 's gables . James V. Baker , the home 's original owner , was a farmer and wagon driver who migrated to the Northwest from Illinois ; he lived in Cottonwood for several years in the early 1900s , briefly left , and commissioned the home after his return in 1915 . The house was added to the National Register of Historic Places on January 6 , 2004 .",
    "/wiki/Cottonwood,_Idaho": "Cottonwood is a city in Idaho County , Idaho , United States . Located on the Camas Prairie , the population was 900 at the 2010 census , down from 944 in 2000 . It is just west of U.S. Route 95 , between Grangeville and Lewiston .",
    "/wiki/Polly_Bemis_House": "Polly Bemis House was the home of pioneers to Idaho County , Idaho , USA , Charles Bemis and his wife Polly Bemis , who lived alongside the Salmon River in the late 19th and early 20th century . Polly was a Chinese American former teenage slave whose story became a biographical novel and was fictionalized in the 1991 film A Thousand Pieces of Gold .",
    "/wiki/Big_Cedar_School": "The Big Cedar School in Idaho County , Idaho near Kooskia , Idaho was listed on the National Register of Historic Places in 2016 .",
    "/wiki/Kooskia,_Idaho": "Kooskia ( /\u02c8ku\u02d0ski\u02d0/ KOO-skee ) is a city in Idaho County , Idaho , United States . It is at the confluence of the South and Middle forks of the Clearwater River , combining to become the main river . The population was 607 at the 2010 census , down from 675 in 2000 .",
    "/wiki/Blue_Fox_Theatre": "The Blue Fox Theatre is a historic cinema located at 116 W. Main St. in Grangeville , Idaho . The Mission Revival theater was built in 1929 and opened on May 2 , 1930 . The theater took its name from J.H . Dickson 's entry into a naming contest ; Dickson received $ 10 and three movie tickets as a reward . In addition to showing films , the theater also hosted live productions during its initial years of operation . The theater 's neon-lit marquee was added in 1940 . After a fire damaged much of the building 's interior in 1942 , the theater closed while its interior was completely reconstructed ; it reopened in 1945 . The theater continues to show films and is still owned by the Wagner family , which has owned the building since the 1930s . The theater was added to the National Register of Historic Places on November 30 , 1999 .",
    "/wiki/Grangeville,_Idaho": "Grangeville is the largest city in and the county seat of Idaho County , Idaho , United States , in the north central part of the state . Its population was 3,141 at the 2010 census , down from 3,228 in 2000 .",
    "/wiki/Burgdorf,_Idaho": "Burgdorf is an unincorporated community in the western United States , located in Idaho County , Idaho , approximately thirty miles ( 50 km ) north-northeast of McCall , at an elevation of 6,115 feet ( 1,864 m ) above sea level . Originally a sacred site for Native Americans , its hot springs were discovered by unknown Chinese miners , and settled by young German immigrant Fred C. Burgdorf in the late 1860s . Burgdorf had mined in nearby Warren to the east and turned the area at the hot springs into a resort by 1870 . Following a new mining rush in 1898 at Thunder Gulch , the resort was refurbished and expanded in 1902 by Burgdorf and his new young wife , a singer from Denver named Janette Foronsard . Originally known as Resort , it became Burgdorf at this time , but the former name continued in usage for several years . Following Janette 's death in 1923 , Burgdorf sold his interest and moved to Weiser . Much of the community has now been deserted , although reconstruction has been attempted . [ citation needed ] The community possessed a post office as late as 1945 , although it has since been closed . In 1972 , the community was added as a historic district to the National Register of Historic Places . A new county road section through the hot springs property was constructed in the early 1980s . Basketball coach George Karl was once part owner of Burgdorf .",
    "/wiki/Butts_Point_Creek_Fire_Lookout": "The Butts Point Creek Fire Lookout , in Idaho County , Idaho , was listed on the National Register of Historic Places in 2018 . It is located at Butts Creek Point , about 40 miles ( 64 km ) northeast of Salmon , in the Frank Church River of No Return Wilderness . According to the Challis newspaper , it is located at 7,836 feet elevation on a prominent knob surrounded by a forest of mixed lodgepole pine and fir with an understory of native grasses rooted in decomposed granite soils , forest Public Affairs Officer Amy Baumer said . The lookout has four glass walls that provide a 360-degree view of some of the most remote landscapes in the lower 48 . People can see the Clearwater Mountains , the Bitterroot Mountains , the Bighorn Crags and the Salmon River Mountains from the lookout . The tower was built from a kit taken to the site by a 10 mule string , and has a 14 by 14 feet ( 4.3 m \u00d7 4.3 m ) cab . It was in service from 1933 to 1982 .",
    "/wiki/Salmon,_Idaho": "Salmon is a city in Lemhi County , Idaho , United States . The population was 3,112 at the 2010 census . The city is the county seat of Lemhi County . Located in the Lemhi River valley , Salmon is home to the Sacajawea Interpretive Culture and Education Center , which focuses on Lemhi Shoshone culture , as well as the interaction between Sacagawea and other Shoshone and Lewis and Clark .",
    "/wiki/Campbell's_Ferry": "Campbell 's Ferry was a ferry crossing on the Salmon River , located at Mile 148 of the river in the Frank Church-River of No Return Wilderness . The ferry was part of the Three Blaze Trail , which connected Grangeville to Dixie , Idaho , to the Monumental Creek Trail at Thunder Mountain . William Campbell ( and William Allen Stonebreaker were awarded the contract to construct the Three Blaze Trail ) established the trail and ferry in 1898 , as well the Campbell 's Ferry Ranch on the south bank of the river ; Campbell was also the ferry 's first operator . Campbell disappeared and was presumed dead in the winter of 1902-03 , and the ranch and ferry passed through a succession of owners until Joe and Emma Zaunmiller acquired the property . Emma died in 1938 in a horseback riding accident , and Joe eventually married ranch hand Lydia Frances Coyle . Frances successfully promoted the construction of a bridge to replace the ferry crossing , which was completed in 1956 ; the couple ceremonially let the ferryboat float away downriver . Campbell 's Ferry was added to the National Register of Historic Places on February 8 , 2007 .",
    "/wiki/Carey_Dome_Fire_Lookout": "The Carey Dome Fire Lookout is a fire lookout tower complex located in Nez Perce National Forest , 9 miles north of United States Forest Service Burgdorf Guard Station , near Burgdorf in Idaho County , Idaho . It was listed on the National Register of Historic Places in 1994 . The listing included two contributing structures ( a fire lookout tower and a weather station ) , one contributing building ( a log cabin residence ) , and a non-contributing structure ( a flagpole ) . The tower is an Aermotor Company steel tower assembled in 1934 , which has a 7 by 7 feet ( 2.1 m \u00d7 2.1 m ) steel cab at the top . It is 85 feet ( 26 m ) tall from ground level to top of the cab . The log cabin was built in 1943 . The weather station was installed in the 1950s or before .",
    "/wiki/Nez_Perce_National_Forest": "The Nez Perce National Forest is a 2,224,091-acre ( 9,000.58 km2 ) United States National Forest located in west-central Idaho . The forest is bounded on the east by the state of Montana , on the north by the Clearwater National Forest , on the west by a portion of the Wallowa-Whitman National Forest and on the south by the Payette National Forest . The mountains in this forest provide wildlife habitat for timber wolf , raccoon , moose , black bear , coyote , cougar , elk , two species of fox , bald eagle , pika , beaver , flammulated owl , pine marten , white-tailed and mule deer , muskrat , river otter , peregrine falcon , mink , marmot , fisher , and mountain goat . In 2012 , Nez Perce National Forest and Clearwater National Forest were administratively combined as Nez Perce-Clearwater National Forests , with headquarters in Kamiah , Idaho . There are local ranger district offices in Elk City , Grangeville , Kooskia , and White Bird . Nez Perce was established on July 1 , 1908 by the U.S. Forest Service with 1,946,340 acres ( 7,876.6 km2 ) from parts of Bitterroot National Forest and Weiser National Forest . On October 29 , 1934 part of Selway National Forest was added .",
    "/wiki/United_States_Forest_Service": "The United States Forest Service ( USFS ) is an agency of the U.S. Department of Agriculture that administers the nation 's 154 national forests and 20 national grasslands . The Forest Service manages 193 million acres ( 780,000 km2 ) of land . Major divisions of the agency include the Chief 's Office , National Forest System , State and Private Forestry , Business Operations , and Research and Development . The agency manages about 25% of federal lands and is the only major national land management agency not part of the U.S. Department of the Interior , which manages the National Park Service , U.S . Fish and Wildlife Service , the Bureau of Land Management",
    "/wiki/Celadon_Slope_Garden": "The Celadon Slope Garden , also known as Hays Station , in Payette National Forest in Idaho County , Idaho in the vicinity of Warren , Idaho , was listed on the National Register of Historic Places in 1990 . The listed site included five contributing structures and two contributing sites on 15 acres ( 6.1 ha ) . It consists of the remains of more than 30 terraces , an irrigation ditch , a root cellar , three rock cairns , and scattered artifacts of Chinese origin .",
    "/wiki/Chamberlain_Ranger_Station_Historic_District": "The Chamberlain Ranger Station Historic District , also known as the Chamberlain Guard Station , is located in the Frank Church-River of No Return Wilderness within Payette National Forest in Idaho County , Idaho . It was listed on the National Register of Historic Places in 2004 . The listing was for a 100 acres ( 40 ha ) area which included four contributing buildings and two contributing sites . The station 's residence was built during 1937 to 1938 . It is a one-and-a-half-story 28 by 33 feet ( 8.5 m \u00d7 10.1 m ) log building on a concrete and rock masonry foundation , based on a USFS Standard Plan model R-4 # 53-c. Its walls are peeled lodgepole pine logs from trees cut on the site . Its corners are saddle-notched . Other structures include one built during the first decade of the 20th century , moved to the site in 1954 , and another built c.1921 .",
    "/wiki/Chi-Sandra_Garden": "Chi-Sandra Garden , also known as 10IH1779 , is a garden located within Payette National Forest . The garden was established by the Chinese American community to feed migrant laborers who worked in the mines . There are three other Chinese-American gardens in the Warren Mining District . The garden was listed in the National Register of Historic Places on June 27 , 1990 .",
    "/wiki/Chinese_Cemetery_(Idaho)": "Chinese Cemetery , also known as Chinese Cemetery , Warren Mining District , is a cemetery located near Warren , Idaho . It is the only ethnic Chinese cemetery in Idaho that is listed on the National Register of Historic Places and was listed on March 29 , 1994 . The cemetery was created to hold the remains of Chinese migrant laborers who came to Idaho to work as miners , though many of the bodies have since been exhumed and returned to China .",
    "/wiki/Chinese_Mining_Camp_Archeological_Site": "The Chinese Mining Camp Archaeological Site near Warren , Idaho is an archaeological site which was listed on the National Register of Historic Places in 1994 . It is located about one mile northwest of the town of Warren , up a trail from the north end of Warren 's airstrip . It occupies a cultural island which consists of approximately 2,500 square meters or 0.62 acres . The site was investigated by an archaeological study in 1989-1992 .",
    "/wiki/Cold_Meadows_Guard_Station": "The Cold Meadows Guard Station is a ranger station located northeast of McCall , Idaho in the Frank Church-River of No Return Wilderness and the Payette National Forest . It was listed on the National Register of Historic Places in 1994 . The listing included five contributing buildings and one contributing structure : a dwelling , a bunkhouse , a storehouse , a woodshed , an outhouse , and a Fly Shed . The Fly Shed , a 21 by 30 feet ( 6.4 m \u00d7 9.1 m ) structure built of logs and canvas , was built in 1918 ; the rest of the complex was complete by 1935 . The NRHP nomination asserts that the guard/ranger station complex is among the most remote in the lower 48 states .",
    "/wiki/McCall,_Idaho": "McCall is a resort town on the western edge of Valley County , Idaho , United States . Named after its founder , Tom McCall , it is situated on the southern shore of Payette Lake , near the center of the Payette National Forest . The population was 2,991 as of the 2010 census , up from 2,084 in 2000 . Originally a logging community whose last sawmill closed in 1977 , McCall is now an all-season tourist destination for outdoor recreation . The resort town is known for its Winter Carnival , extended winters , and one of the highest average snowfalls in the state .",
    "/wiki/Deep_Creek_Ranger_Station": "The Deep Creek Ranger Station in Bitterroot National Forest in Idaho County , Idaho was listed on the National Register of Historic Places . It is in the vicinity of Darby , Montana . It has also been known as Magruder Ranger Station . It includes a complex of Rustic-style administrative buildings dating from the 1920s through 1940s .",
    "/wiki/Bitterroot_National_Forest": "Bitterroot National Forest comprises 1.587 million acres ( 6,423 km\u00b2 ) in west-central Montana and eastern Idaho , of the United States . It is located primarily in Ravalli County , Montana ( 70.26% of the forest ) , but also has acreage in Idaho County , Idaho ( 29.24% ) , and Missoula County , Montana ( 0.49% ) . Founded in 1898 , the forest is located in the Bitterroot and Sapphire Mountains with elevations ranging from 2,200 feet ( 650 m ) along the Salmon River in Idaho to 10,157 foot ( 3,100 m ) Trapper Peak . Roughly half the forest ( 743,000 acres , 3,000 km\u00b2 ) make up part or all of three distinct Wilderness areas . These areas include the Anaconda-Pintler , Selway-Bitterroot and Frank Church River of No Return Wildernesses . The distinction is that in wilderness areas , no roads , logging , mining or other construction is permitted and all access must be done either on foot or horseback ; even bicycles are not permitted . Hunting , however is allowed forest-wide including wilderness areas .",
    "/wiki/Jurden_Henry_Elfers_Barn_and_Field": "The Jurden Henry Elfers Barn and Field is a historic site located on the south bank of John Day Creek , .33 miles ( 0.53 km ) east of U.S. Route 95 and north of Lucile , Idaho . The barn and field were the site of a raid by members of the Nez Perce tribe in 1877 . White settlers had forced the Nez Perce to live on a reservation at Lapwai , and a group of young men from the tribe sought revenge against the settlers . The men raided several sites along the Salmon River , including the Elfers ' ranch . During their raid on the ranch , the Nez Perce killed Jurden Henry Elfers , his nephew Henry Harry Burn Beckrodge , and hired worker Robert Bland , who were working at the barn and field at the time . The men also stole several horses and a rifle from the property . The raid was one of the main causes of the Nez Perce War , as soldiers at Fort Lapwai responded to the raids by attacking Chief Joseph 's camp . The barn and field are one of the few surviving sites connected to the events leading to the start of the war . The site was added to the National Register of Historic Places on June 7 , 2007 .",
    "/wiki/Lucile,_Idaho": "Lucile is an unincorporated community in Idaho County , Idaho , United States . Lucile is located on the east bank of the Salmon River and U.S. Route 95 8 miles ( 13 km ) north of Riggins . Lucile has a post office with ZIP code 83542 .",
    "/wiki/Elk_City_Wagon_Road-Vicory_Gulch-Smith_Grade_Segment": "The Elk City Wagon Road-Vicory Gulch-Smith Grade Segment in the Nez Perce National Forest in Idaho County , Idaho , was listed on the National Register of Historic Places in 2001 . It is located in the vicinity of Elk City . The Elk City Wagon Road was a 53-mile-long ( 85 km ) road built during 1894 to 1895 from Harpster southeast to the mining town of Elk City . It was built mainly along the route of a pack trail , the Southern Nez Perce Trail , which had been established by 1861 , but the wagon trail differed in that it included switchbacks up steep sections and included corduroy road through swamps .",
    "/wiki/Elk_City,_Idaho": "Elk City is a census-designated place in Idaho County , Idaho , United States . As of the 2010 census , its population was 202 ."
  }
}