{
  "National_Register_of_Historic_Places_listings_in_Mercer_County,_Ohio_0": {
    "/wiki/Nativity_of_the_Blessed_Virgin_Mary_Catholic_Church": "The Nativity of the Blessed Virgin Mary Catholic Church is a historic Catholic church in Cassella , an unincorporated community in Mercer County , Ohio , United States . One of several Catholic churches in Marion Township , it has been designated a historic site because of its well-preserved nineteenth-century architecture .",
    "/wiki/Ohio_State_Route_119": "State Route 119 ( SR 119 ) is an east-west highway serving rural sections of west-central Ohio . It begins just west of Fort Recovery at the eastern terminus of Indiana State Road 26 . It travels through Mercer , Auglaize , and Shelby counties to end at SR 65 in Jackson Township , Shelby County . The route is 42-mile-long ( 68 km ) and serves the medium-size villages of Fort Recovery , St. Henry , Minster , and Anna .",
    "/wiki/Marion_Township,_Mercer_County,_Ohio": "Marion Township is one of the fourteen townships of Mercer County , Ohio , United States . The 2000 census found 2,969 people in the township , 2,605 of whom lived in the unincorporated portions of the township .",
    "/wiki/Celina,_Ohio": "Celina ( /s\u0259\u02c8la\u026an\u0259/ s\u0259-LY-n\u0259 ) is a city in and the county seat of Mercer County , Ohio , United States about 58 miles northwest of Dayton . The population was 10,400 at the 2010 census . Celina is situated on the northwestern shores of Grand Lake St. Marys .",
    "/wiki/Precious_Blood_Catholic_Church_(Chickasaw,_Ohio)": "Precious Blood Catholic Church is a Roman Catholic parish in Chickasaw , Ohio , United States . Erected in 1903 and still an active parish , the church historically owned two buildings constructed in its early years that have been designated as historic sites .",
    "/wiki/Chickasaw,_Ohio": "Chickasaw is a village in Mercer County , Ohio , United States . The population was 290 at the 2010 census .",
    "/wiki/Coldwater,_Ohio": "Coldwater is a village in Mercer County , Ohio , United States . The population was 4,427 at the 2010 census .",
    "/wiki/Fort_Recovery": "Fort Recovery was a United States Army fort ordered built by General Mad Anthony Wayne during what is now termed the Northwest Indian War . Constructed from late 1793 and completed in March 1794 , the fort was built along the Wabash River , within two miles of what became the Ohio state border with Indiana . A detachment of Wayne 's Legion of the United States held off an attack from combined Indian forces on June 30 , 1794 . The fort was used as a reference in drawing treaty lines for the 1795 Treaty of Greenville , and for later settlement . The fort was abandoned in 1796 . The present-day village of Fort Recovery , Ohio developed around the fort and along the river . It includes sites and monuments to commemorate the fort and battles in the area .",
    "/wiki/Ohio_State_Route_49": "State Route 49 ( SR 49 ) is a state highway in the western part of the U.S. state of Ohio . It begins in Drexel , an area within the city of Trotwood , at US 35 and runs northwesterly to Greenville , and then runs roughly along near the western edge of the state near the Indiana state line to the Michigan state line where it meets with Michigan 's M-49 .",
    "/wiki/Fort_Recovery,_Ohio": "Fort Recovery is a village in Mercer County , Ohio , United States . The population was 1,430 at the 2010 census . The village is near the location of Fort Recovery , first established in 1793 under orders from General Anthony Wayne . The town is located near the headwaters of the Wabash River .",
    "/wiki/Matthias_Gast_House": "The Matthias Gast House is a historic building in Maria Stein , Ohio , United States . Built in the middle of the nineteenth century , it was the home of one of Mercer County 's most prominent early citizens , and it has been designated a historic site because of its importance in local history .",
    "/wiki/Grand_Lake_St._Marys_Lighthouse": "The Grand Lake St. Marys Lighthouse , also known as the Northwoods Lighthouse , is a historic lighthouse on Grand Lake St. Marys , a reservoir in the far western part of the U.S. state of Ohio . Located east of the city of Celina in Mercer County , the lighthouse was built in 1923 , using a plan modeled after the Eddystone Lighthouse off the coast of Cornwall in the United Kingdom . A predominately concrete structure , the lighthouse rests on a stone foundation . Measuring 50 feet ( 15 m ) from foundation to pinnacle , it is covered with a dome of bronze and glass that surrounds the beacon ; the dome is crowned with a decorative weathervane . Although the lighthouse was built partially for ornamental purposes , it has also served as an active lighthouse . In its earliest years , it operated in a standard lighthouse role between April and November under a license from the U.S. Coast Guard . Grand Lake St. Marys was built to provide water for the Miami and Erie Canal ; although the canal had ceased operations by 1923 , there was still sufficient lake traffic to warrant the use of a lighthouse on this peninsula , which protrudes into the northern shore of the lake . Today , it is one of three lighthouses on Grand Lake St. Marys : the Celina Rotary Club erected an operating lighthouse in 1986 , at the lake 's northwestern corner , and a third lighthouse was completed on the lake 's southern shore in 2003 . Unlike the other two lighthouses , the Northwoods Lighthouse is completely inaccessible by land , as surrounding property owners have completely blocked public access . In 1982 , the Grand Lake St. Marys Lighthouse was listed on the National Register of Historic Places because of its historically significant architecture . Key to its inclusion was its unusual location - western Ohio is a flat , landlocked region far from major bodies of water . It is the only historic lighthouse in the region , and until the construction of the Rotary Club lighthouse in 1986 , there were no other lighthouses in the region at all .",
    "/wiki/Jefferson_Township,_Mercer_County,_Ohio": "Jefferson Township is one of the fourteen townships of Mercer County , Ohio , United States . The 2000 census found 13,231 people in the township , 2,928 of whom lived in the unincorporated portions of the township .",
    "/wiki/Gruenwald_Convent": "The Gruenwald Convent is a historic former Roman Catholic convent in the far western part of the U.S. state of Ohio . Located approximately 0.5 miles ( 0.80 km ) south of the small community of Cassella in Mercer County , the convent was built in 1854 . It is one of six convents that were built by the Missionaries of the Precious Blood in this portion of Ohio and in adjacent portions of far eastern Indiana , and one of only two that remain without significant alterations . :2",
    "/wiki/Immaculate_Conception_Catholic_Church_(Celina,_Ohio)": "Immaculate Conception Catholic Church is a parish of the Roman Catholic Church in Celina , Ohio , United States . Founded later than many other Catholic parishes in the heavily Catholic region of western Ohio , it owns a complex of buildings constructed in the early 20th century that have been designated historic sites because of their architecture . Leading among them is its massive church , built in the Romanesque Revival style just 43 years after the first Catholic moved into the city : it has been called northwestern Ohio 's grandest church building .",
    "/wiki/St._John_the_Baptist_Catholic_Church_(Maria_Stein,_Ohio)": "St. John the Baptist Catholic Church is a historic Roman Catholic church in Marion Township , Mercer County , Ohio , United States . Located in the unincorporated community of Maria Stein , it is the home of an active congregation and has been recognized as a historic site because of its well-preserved late nineteenth-century Romanesque Revival architecture .",
    "/wiki/Shrine_of_the_Holy_Relics": "The Shrine of the Holy Relics in Maria Stein , Ohio is the second largest collection of relics in the United States . It is a part of the historic Maria Stein Convent .",
    "/wiki/Mendon,_Ohio": "Mendon is a village in Mercer County , Ohio , United States . The population was 662 at the 2010 census .",
    "/wiki/Butler_Township,_Mercer_County,_Ohio": "Butler Township is one of the fourteen townships of Mercer County , Ohio , United States . The 2000 census found 6,459 people in the township , 1,977 of whom lived in the unincorporated portions of the township .",
    "/wiki/St._Aloysius_Catholic_Church_(Carthagena,_Ohio)": "St. Aloysius Catholic Church is a historic Roman Catholic church in Carthagena , an unincorporated community in Marion Township , Mercer County , Ohio , United States . Built in the late nineteenth century , it remains the home of an active parish , and it has been designated a historic site because of its well-preserved architecture .",
    "/wiki/U.S._Route_127": "U.S. Route 127 ( US 127 ) is a 758-mile-long ( 1,220 km ) north-south U.S. Highway in the eastern half of the United States . The southern terminus of the route is at US 27 in Chattanooga , Tennessee . The northern terminus is at Interstate 75 ( I-75 ) near Grayling , Michigan . Since 1987 , it has been the core of the annual World 's Longest Yard Sale , also known as the Highway 127 Corridor Sale ( 127 Yard Sale ) , which now stretches 690 miles ( 1,110 km ) from Addison , Michigan , to Gadsden , Alabama . The sale , held every August , was started to demonstrate that the older U.S. Highway System has something to offer that the Interstate Highway System does not . In Michigan , US 127 tripled in length in 2002 at the expense of its parent , US 27 .",
    "/wiki/Ohio_State_Route_274": "State Route 274 ( SR 274 ) is a two-lane east-west state highway located in the western portion of the U.S. state of Ohio . The western terminus of State Route 274 is at a T-intersection with U.S. Route 127 approximately 4 miles ( 6.4 km ) west of Chickasaw . Its eastern terminus is at another T-intersection , this time with State Route 273 about 3.5 miles ( 5.6 km ) northeast of Rushsylvania .",
    "/wiki/St._Anthony's_Catholic_Church_(Padua,_Ohio)": "St. Anthony 's Catholic Church is a historic Roman Catholic church in Padua , [ a ] an unincorporated community in Washington Township , Mercer County , Ohio , United States . :44 Built in the late nineteenth century , it remains the home of a functioning congregation , and it has been recognized as a historically significant building because of its architecture .",
    "/wiki/Washington_Township,_Mercer_County,_Ohio": "Washington Township is one of the fourteen townships of Mercer County , Ohio , United States . The 2000 census found 1,218 people in the township .",
    "/wiki/Burkettsville,_Ohio": "Burkettsville /\u02c8b\u025c\u02d0rk\u025btsv\u026al/ is a village in Darke and Mercer counties in the U.S. state of Ohio . The population was 244 at the 2010 census . The current mayor is Joe Stammen .",
    "/wiki/St._Charles_Seminary": "St. Charles Seminary is a former American Catholic seminary , founded by the Missionaries of the Precious Blood in 1861 in Carthagena , Ohio . The seminary closed in 1969 and is now a retirement center for clergy and lay people . The seminary , chapel , and five other buildings were added to the National Register of Historic Places in 1979 ."
  },
  "Swimming_at_the_2014_European_Aquatics_Championships_\u2013_Women's_4_\u00d7_100_metre_medley_relay_0": {
    "/wiki/Denmark": "Denmark ( Danish : Danmark , pronounced [ \u02c8t\u00e6nmak ] ( listen ) ) , officially the Kingdom of Denmark , [ N 10 ] [ N 2 ] is a Nordic country in Northwest Europe . Denmark proper , which is the southernmost of the Scandinavian countries , consists of a peninsula , Jutland , and an archipelago of 443 named islands , [ N 2 ] with the largest being Zealand , Funen and the North Jutlandic Island . The islands are characterised by flat , arable land and sandy coasts , low elevation and a temperate climate . The southernmost of the Scandinavian nations , Denmark lies southwest of Sweden and south of Norway , [ N 11 ] and is bordered to the south by Germany . The Kingdom of Denmark also includes two autonomous territories in the North Atlantic Ocean : the Faroe Islands and Greenland . Denmark has a total area of 42,924 km2 ( 16,573 sq mi ) , land area of 42,394 km2 ( 16,368 sq mi ) , and the total area including Greenland and the Faroe Islands is 2,210,579 km2 ( 853,509 sq mi ) , and a population of 5.8 million in Denmark proper ( Danish egentlige Danmark ) ( as of 2020 [ update ] ) . The unified kingdom of Denmark emerged in the 8th century as a proficient seafaring nation in the struggle for control of the Baltic Sea . Denmark , Sweden , and Norway were ruled together under one sovereign ruler in the Kalmar Union , established in 1397 and ending with Swedish secession in 1523 . The areas of Denmark and Norway remained under the same monarch until 1814 , Denmark-Norway . Beginning in the 17th century , there were several devastating wars with the Swedish Empire , ending with large cessions of territory to Sweden . After the Napoleonic Wars , Norway was ceded to Sweden , while Denmark kept the Faroe Islands , Greenland , and Iceland . In the 19th century there was a surge of nationalist movements , which were defeated in the First Schleswig War .",
    "/wiki/Mie_Nielsen": "Mie \u00d8stergaard Nielsen ( born 25 September 1996 ) is a Danish competitive swimmer who holds the Danish record in several backstroke events .",
    "/wiki/Rikke_M\u00f8ller_Pedersen": "Rikke M\u00f8ller Pedersen ( born 9 January 1989 ) is a Danish competitive swimmer specialising in breaststroke and the current long course world record holder in the 200 m breaststroke ( 2:19.11 set in 2013 ) .",
    "/wiki/Jeanette_Ottesen": "Jeanette Ottesen ( born 30 December 1987 ) is a Danish competitive swimmer who participated at the 2004 , 2008 , 2012 and 2016 Summer Olympics . In total she has won 50 international medals . She currently holds the Danish record in the following : Long course ( 50 m pool ) : 50 m butterfly , 100 m butterfly , 100 m freestyle Short course ( 25 m pool ) : 100 m butterfly , 50 m freestyle , 100 m freestyle , 100 m individual medley She swims in the swimming club Kvik Kastrup and mainly concentrates on the short distances in freestyle and butterfly . Ottesen 's won her first international title at the 2008 European Short Course Swimming Championships in Rijeka , Croatia in the 100 m butterfly . She has won two individual long course world titles ; in 100 m freestyle in 2011 ( shared with Aleksandra Gerasimenya from Belarus , and in the 50 m butterfly in 2013 . In June 2015 , two months before the 2015 World Aquatics Championships in Kazan , Russia , Ottesen and her boyfriend Marco Loughran were attacked in a road rage incident in Copenhagen , during which she broke her finger . She recovered in time and won two silver medals at the world championships . At the 2016 Summer Olympics in Rio de Janeiro , she won a bronze medal as a part of the 4 \u00d7 100 m medley relay alongside Rikke M\u00f8ller Pedersen , Mie \u00d8. Nielsen and Pernille Blume . Here they also broke the European record with a time of 3:55.01 .",
    "/wiki/Pernille_Blume": "Pernille Blume ( born 14 May 1994 ) is a Danish swimmer who competed at the 2012 Summer Olympics and was the 2016 Summer Olympic champion in women 's 50 m freestyle .",
    "/wiki/Netherlands": "The Netherlands ( Dutch : Nederland , [ \u02c8ne\u02d0d\u0259rl\u0251nt ] ( listen ) ) , informally Holland , is a country in Northwestern Europe with some overseas territories in the Caribbean . In Europe , it consists of 12 provinces that border Germany to the east , Belgium to the south , and the North Sea to the northwest , with maritime borders in the North Sea with those countries and the United Kingdom . Together with the Caribbean Netherlands - Bonaire , Sint Eustatius and Saba - it forms a constituent country of the Kingdom of the Netherlands . The official language is Dutch and a secondary official language in the province of Friesland is West Frisian . In the north and east of the country , Low Saxon is also spoken , and in the southeast , Limburgish . In the Caribbean Netherlands English and Papiamento are recognised languages . The five largest cities in the Netherlands are Amsterdam , Rotterdam , The Hague , Utrecht and Eindhoven . Amsterdam is the country 's most populous city and nominal capital , while The Hague holds the seat of the States General , Cabinet and Supreme Court . The Port of Rotterdam is the busiest seaport in Europe , and the busiest in any country outside Asia . Amsterdam Airport Schiphol is the busiest airport in the Netherlands , and the third busiest in Europe . The country is a founding member of the EU , Eurozone , G10 , NATO , OECD and WTO , as well as a part of the Schengen Area and the trilateral Benelux Union . It hosts several intergovernmental organisations and international courts , many of which are centered in The Hague , which is consequently dubbed 'the world 's legal capital ' .",
    "/wiki/Moniek_Nijhuis": "Moniek Nijhuis ( born 20 March 1988 ) is a Dutch swimmer who specializes in breaststroke . After she had been a professional swimmer , under the guidance of Martin Truijens , for several years she took a break from professional swimming after she missed out on the Dutch team for the 2008 Summer Olympics . She wanted to concentrate more on her studies and train less . She still swims at De Dolfijn swimming club in Amsterdam .",
    "/wiki/Inge_Dekker": "Inge Dekker ( born 18 August 1985 ) is a Dutch former competitive swimmer who specialised in butterfly and freestyle events . She won the bronze medal with the Dutch women 's 4\u00d7100-metre freestyle relay team at the 2004 Summer Olympics in Athens , alongside teammates Inge de Bruijn , Marleen Veldhuis and Chantal Groot . At the 2008 Summer Olympics in Beijing , Dekker became Olympic champion in the 4\u00d7100-metre freestyle together with Ranomi Kromowidjojo , Femke Heemskerk and Marleen Veldhuis , setting a then Olympic record . At the 2012 Summer Olympics , she was part of the Dutch 4 x 100 metre freestyle team that won the silver medal , with Veldhuis , Heemskerk and Kromowidjojo , behind the Australian team who set a new Olympic record .",
    "/wiki/Femke_Heemskerk": "Frederike Johanna Maria Femke Heemskerk ( Dutch pronunciation : [ \u02c8f\u025bmk\u0259 \u02c8\u0266e\u02d0msk\u025brk ] ; born 21 September 1987 ) is a Dutch competitive swimmer who mainly specializes in freestyle , but also has a strong backstroke and medley . As part of the Dutch team , she holds the short course world records in the 4 \u00d7 50 m freestyle relay , 4 \u00d7 100 m freestyle relay , and 4\u00d7200 m freestyle relay , all set in Doha in 2014 . Individually she is owner of six national records , four in long course , 100 m and 200 m freestyle , 100 m backstroke , and 200 m individual medley , and two in short course , 200 m freestyle and 200 m individual medley .",
    "/wiki/Sweden": "Sweden ( Swedish : Sverige [ \u02c8sv\u00e6\u030crj\u025b ] ( listen ) ) , officially the Kingdom of Sweden ( Swedish : Konungariket Sverige [ \u02c8k\u00f4\u02d0n\u0275\u014ba\u02ccri\u02d0k\u025bt \u02c8sv\u00e6\u030crj\u025b ] ( listen ) ) , is a Scandinavian country in Northern Europe . It borders Norway to the west and north and Finland to the east , and is connected to Denmark in the southwest by a bridge-tunnel across the \u00d6resund Strait . At 450,295 square kilometres ( 173,860 sq mi ) , Sweden is the largest country in Northern Europe , the third-largest country in the European Union and the fifth largest country in Europe by area . The capital city is Stockholm . Sweden has a total population of 10.3 million of which 2.5 million have a foreign background . Persons who have foreign backgrounds are defined as persons who are foreign born , or born in Sweden with foreign born parents . It has a low population density of 22 inhabitants per square kilometre ( 57/sq mi ) and the highest urban concentration is in the central and southern half of the country . Sweden is part of the geographical area of Fennoscandia . The climate is in general mild for its northerly latitude due to significant maritime influence . In spite of the high latitude , Sweden often has warm continental summers , being located in between the North Atlantic , the Baltic Sea and the vast Eurasian Russian landmass . The general climate and environment varies significantly from the south and north due to the vast latitudal difference and much of Sweden has reliably cold and snowy winters . Southern Sweden is predominantly agricultural , while the north is heavily forested and includes a portion of the Scandinavian Mountains .",
    "/wiki/Ida_Lindborg": "Ida Lindborg ( born 13 June 1994 ) is a Swedish swimmer . She competed at the 2016 Summer Olympics in Rio de Janeiro .",
    "/wiki/Jennie_Johansson": "Jennie Caroline Eleonore Johansson ( born 15 June 1988 ) is a Swedish competitive swimmer . She competed for Sweden at the 2012 Summer Olympics . She won gold in the 50-metre breaststroke at the 2015 World Aquatics Championships in Kazan , Russia . Jennie Johansson competed in 2016 Summer Olympics in Rio de Janeiro where she participated in the 100 m breaststroke and 4 \u00d7 100 m medley relay events , but she did not reach the finals . In November 2016 it was revealed that Jennie Johansson and fellow Swedish swimmer Michelle Coleman had been barred from participating in international events representing Sweden , due to disciplinary reasons . They were still entitled to use national team training facilities . Johansson publicly announced her retirement from the sport on 6 March 2018 via social media .",
    "/wiki/Louise_Hansson": "Louise Maria Hansson ( born 24 November 1996 ) is a Swedish competitive swimmer , a member of Helsingborgs SS .",
    "/wiki/Michelle_Coleman": "Michelle Coleman ( born 31 October 1993 ) is a Swedish competitive swimmer specialized in the sprint freestyle and backstroke events . She is the current Swedish national record holder in the 50 meter backstroke ( short course ) , the 100 meter backstroke ( short course ) , and the 200 meter backstroke ( long course and short course ) . She finished 7th in the 200 meter freestyle at the 2016 Olympic Games in Rio and led off the Swedish silver medal winning 4 \u00d7 100 m medley relay team at the 2015 World Championships in Kazan .",
    "/wiki/United_Kingdom": "The United Kingdom of Great Britain and Northern Ireland , commonly known as the United Kingdom ( UK or U.K. ) or Britain , [ note 11 ] is a sovereign country located off the north\u00adwestern coast of the European mainland . Existing under its current name since 1921 , the United Kingdom includes the island of Great Britain , the north\u00adeastern part of the island of Ireland , and many smaller islands . Northern Ireland shares a land border with the Republic of Ireland . Otherwise , the United Kingdom is surrounded by the Atlantic Ocean , with the North Sea to the east , the English Channel to the south and the Celtic Sea to the southwest , giving it the 12th-longest coastline in the world . The Irish Sea separates Great Britain and Ireland . The total area of the United Kingdom is 94,000 square miles ( 240,000 km2 ) . The United Kingdom is a unitary parliamentary democracy and constitutional monarchy . [ note 12 ] The current monarch is Queen Elizabeth II , who has reigned since 1952 , making her the world 's longest-serving current head of state . The United Kingdom 's capital and largest city is London , a global city and financial centre with an urban area population of 10.3 million . Other major cities include Birmingham , Manchester , Glasgow , Leeds and Liverpool . The United Kingdom consists of four constituent countries : England , Scotland , Wales , and Northern Ireland . Their capitals are London , Edinburgh , Cardiff , and Belfast , respectively .",
    "/wiki/Lizzie_Simmonds": "Elizabeth Clare Simmonds ( born 22 January 1991 ) is an English competitive swimmer who has represented Great Britain in the Olympics , FINA World Aquatics Championships , and European championships , and England in the Commonwealth Games . She specialises in backstroke events , and is a former European champion in the 200-metre backstroke . Simmonds represented Great Britain at the 2008 Summer Olympics in both the 100-metre and 200-metre backstroke swimming events . She also competed at the 2012 Summer Olympics in the 200-metre backstroke swimming event , coming in fourth place . Simmonds went to secondary school in Lincoln and trained with the Vulcans Swimming Club , later attending Loughborough University . Her early career largely coincided with that of her friend , teammate and former World champion and record holder Gemma Spofforth , with whom she shared the gold and silver medals at both the 100 and 200 metre backstroke at the 2010 European Aquatics Championships .",
    "/wiki/Sophie_Taylor": "Sophie Taylor ( born 2 February 1996 ) is a former international swimmer who swam breaststroke . She won a gold medal for England in the women 's 100 metres breaststroke at the Commonwealth Games .",
    "/wiki/Jemma_Lowe": "Jemma Louise Lowe ( born 31 March 1990 ) is a British international butterfly swimmer and British record holder . She has competed for Wales in the Commonwealth Games , and was a member of Great Britain 's 2008 and 2012 Olympic teams .",
    "/wiki/Rebecca_Turner": "Rebecca Turner is a British swimmer . At the 2012 Summer Olympics she finished 17th overall in the heats in the Women 's 200 metre freestyle and failed to reach the semifinals .",
    "/wiki/Italy": "Italy ( Italian : Italia [ i\u02c8ta\u02d0lja ] ( listen ) ) , officially the Italian Republic ( Italian : Repubblica Italiana [ re\u02c8pubblika ita\u02c8lja\u02d0na ] ) , is a European country consisting of a peninsula delimited by the Alps and surrounded by several islands . Italy is located in south-central Europe , and it is also considered a part of Western Europe . The country covers a total area of 301,340 km2 ( 116,350 sq mi ) and shares land borders with France , Switzerland , Austria , Slovenia , and the enclaved microstates of Vatican City and San Marino . Italy has a territorial exclave in Switzerland ( Campione ) and a maritime exclave in the Tunisian Sea ( Lampedusa ) . With around 60 million inhabitants , Italy is the third-most populous member state of the European Union . The capital and largest city is Rome ; other major cities are Milan , Naples , Turin , Palermo , Genoa , Bologna , Florence and Venice . Due to its central geographic location in Southern Europe and the Mediterranean , Italy has historically been home to myriad peoples and cultures . In addition to the various ancient peoples dispersed throughout what is now modern-day Italy , the most predominant being the Indo-European Italic peoples who gave the peninsula its name , beginning from the classical era , Phoenicians and Carthaginians founded colonies mostly in insular Italy , Greeks established settlements in the so-called Magna Graecia of Southern Italy , while Etruscans and Celts inhabited central and northern Italy respectively . An Italic tribe known as the Latins formed the Roman Kingdom in the 8th century BC , which eventually became a republic with a government of the Senate and the People . The Roman Republic initially conquered and assimilated its neighbours on the Italian peninsula , eventually expanding and conquering parts of Europe , North Africa and Asia . By the first century BC , the Roman Empire emerged as the dominant power in the Mediterranean Basin and became a leading cultural , political and religious centre , inaugurating the Pax Romana , a period of more than 200 years during which Italy 's law , technology , economy , art , and literature developed . Italy remained the homeland of the Romans and the metropole of the empire , whose legacy can also be observed in the global distribution of culture , governments , Christianity and the Latin script .",
    "/wiki/Arianna_Barbieri": "Arianna Barbieri ( born 23 February 1989 ) is a female Italian swimmer .",
    "/wiki/Elena_Di_Liddo": "Elena Di Liddo ( born 8 September 1993 ) is an Italian female swimmer , that won two silver individual medals at the 2017 Summer Universiade . and two with the relay team , in two different editions of the European Short Course Swimming Championships .",
    "/wiki/Erika_Ferraioli": "Erika Ferraioli ( born 23 March 1986 ) is an Italian swimmer . At the 2008 Summer Olympics , she was part of the Italian 4 \u00d7 100 m freestyle relay team . She competed in the women 's 50m freestyle at the 2012 Summer Olympics in London , finishing with a time of 25.69 seconds in 32nd place in the heats , as well as being part of the 4 \u00d7 100 m freestyle team .",
    "/wiki/Ukraine": "Ukraine ( Ukrainian : \u0423\u043a\u0440\u0430\u0457\u043d\u0430 , romanized : Ukrayina , pronounced [ \u028akr\u0250\u02c8jin\u0250 ] ( listen ) ) is a country in Eastern Europe . It is bordered by Russia to the north-east ; Belarus to the north ; Poland , Slovakia and Hungary to the west ; and Romania , Moldova , and the Black Sea to the south . Ukraine is currently in a territorial dispute with Russia over the Crimean Peninsula , which Russia annexed in 2014 . Including Crimea , Ukraine has an area of 603,628 km2 ( 233,062 sq mi ) , making it both the largest country entirely within Europe and the 46th largest country in the world . Excluding Crimea , Ukraine has a population of about 42 million , making it the 32nd most populous country in the world . Its capital and largest city is Kiev . Ukrainian is the official language and its alphabet is Cyrillic . The dominant religion in the country is Eastern Orthodoxy . The territory of modern Ukraine has been inhabited since 32,000 BC . During the Middle Ages , the area was a key centre of East Slavic culture , with the powerful state of Kievan Rus ' forming the basis of Ukrainian identity . Following its fragmentation in the 13th century , the territory was contested , ruled and divided by a variety of powers , including the Polish-Lithuanian Commonwealth , Austria-Hungary , the Ottoman Empire and Russia . A Cossack republic emerged and prospered during the 17th and 18th centuries , but its territory was eventually split between Poland and the Russian Empire .",
    "/wiki/Daryna_Zevina": "Daryna Zevina ( Ukrainian : \u0414\u0430\u0440\u0438\u043d\u0430 \u0417\u0435\u0432\u0456\u043d\u0430 ; born 1 September 1994 ) is a Ukrainian swimmer .",
    "/wiki/Mariya_Liver": "Maria Liver ( ; born 11 November 1990 ) is a Ukrainian swimmer . She competed for Ukraine at the 2012 Summer Olympics . Liver is the current Ukrainian record holder in 50m breaststroke .",
    "/wiki/Darya_Stepanyuk": "Darya Stepanyuk ( , also Daria Stepaniuk , born 22 May 1990 in Kharkiv , Ukraine ) is a Ukrainian swimmer . After finishing college , Stepanyuk entered KNAPK as part of the cycle sport faculty . Stepanyuk has broken several Ukrainian swimming records , and took part in the 2008 Olympic Games . Today she trains and works at Akvarena swimming pool in Kharkiv , and participates in various Ukrainian , European and world competitions . During the 2009 Summer Universiade , Stepanyuk won gold medal in 100 m freestyle . The same year , she also participated at the Ukrainian Cup at which she won a gold medal in 100 m freestyle which was her second win at UC . She competed in the 50 m freestyle and 4 x 200 m freestyle at the 2012 Summer Olympics . As a representative of Dynamo Kharkiv , Darya Stepanyuk won silver medal in 50 m freestyle in 2015 . She again competed at the Olympics in 2016 , competing in the 50 m freestyle and the 100 m butterfly events .",
    "/wiki/Spain": "Spain ( Spanish : Espa\u00f1a [ es\u02c8pa\u0272a ] ( listen ) ) , officially the Kingdom of Spain ( Spanish : Reino de Espa\u00f1a ) , [ a ] [ b ] is a country in Southwestern Europe with some pockets of Spanish territory across the Strait of Gibraltar and the Atlantic Ocean . Its continental European territory is situated on the Iberian Peninsula . Its territory also includes two archipelagoes : the Canary Islands off the coast of Africa , and the Balearic Islands in the Mediterranean Sea . The African enclaves of Ceuta , Melilla , and Pe\u00f1\u00f3n de V\u00e9lez de la Gomera make Spain the only European country to have a physical border with an African country ( Morocco ) . [ h ] Several small islands in the Alboran Sea are also part of Spanish territory . The country 's mainland is bordered to the south and east by the Mediterranean Sea except for a small land boundary with Gibraltar ; to the north and northeast by France , Andorra , and the Bay of Biscay ; and to the west and northwest by Portugal and the Atlantic Ocean . With an area of 505,990 km2 ( 195,360 sq mi ) , Spain is the largest country in Southern Europe , the second largest country in Western Europe and the European Union , and the fourth largest country in the European continent . By population ( about 47 million ) , Spain is the sixth largest in Europe and the fifth in the European Union . Spain 's capital and largest city is Madrid ; other major urban areas include Barcelona , Valencia , Seville , Zaragoza , M\u00e1laga and Bilbao . Modern humans first arrived in the Iberian Peninsula around 35,000 years ago . Iberian cultures along with ancient Phoenician , Greek , Celtic and Carthaginian settlements developed on the peninsula until it came under Roman rule around 200 BCE , after which the region was named Hispania , based on the earlier Phoenician name Sp ( a ) n or Spania . At the end of the Western Roman Empire the Germanic tribal confederations migrated from Central Europe , invaded the Iberian peninsula and established relatively independent realms in its western provinces , including the Suebi , Alans and Vandals .",
    "/wiki/Duane_Da_Rocha": "Duane Da Rocha Marc\u00e9 ( born 7 January 1988 ) is a Brazilian-born Spanish swimmer . She has received medals for the Mediterranean Games , World Championships and European Championships . She won the 200 metres backstroke gold medal in the 2014 European Swimming Championships in Berlin ( Germany ) . She was born in Bras\u00edlia , Distrito Federal , to a Brazilian mother ( Soraia da Rocha ) and a Spanish father ( Jos\u00e9 Mar\u00eda Marc\u00e9 ) .",
    "/wiki/Jessica_Vall": "Jessica Vall Montero ( born 22 November 1988 ) is a Spanish competitive swimmer and breaststroke specialist . She has a degree in Biomedicine from the Universitat Pompeu Fabra and has worked at Barcelona 's Biomedical Research Center . She swims for Club Nataci\u00f3 Sant Andreu , where she has trained for over five years with her coach Jordi Jou , ex-elite swimmer also for C.N . Sant Andreu . Besides elite training , she is also working towards her master 's degree in Bioethics from the Universidad Cat\u00f3lica de Murcia ( UCAM ) .",
    "/wiki/Judit_Ignacio": "Judit Ignacio Sorribes ( born 18 March 1994 ) is a Spanish swimmer who competes in the women 's 100-metre butterfly . At the 2012 Summer Olympics , she finished tied for 26th overall in the heats in the women 's 100-metre butterfly and failed to reach the final .",
    "/wiki/F\u00e1tima_Gallardo": "F\u00e1tima Gallardo Carapeto ( born 24 May 1997 ) is a Spanish swimmer . She competed in the women 's 4 \u00d7 100 metre freestyle relay event at the 2016 Summer Olympics .",
    "/wiki/Russia": "Russia ( Russian : \u0420\u043e\u0441\u0441\u0438\u0301\u044f , tr . Rossiya , IPA : [ r\u0250\u02c8s\u02b2ij\u0259 ] ) , or the Russian Federation , [ e ] is a European country located in Eastern Europe with a vast expanse of territory that stretches across Northern Asia . At 17,125,200 square kilometres ( 6,612,100 sq mi ) , it is by far the largest country in the world by area , covering more than one-eighth of the Earth 's inhabited land area , spanning eleven time zones , and bordering 16 sovereign nations . The territory of Russia extends from the Baltic Sea in the west to the Pacific Ocean in the east , and from the Arctic Ocean in the north to the Black Sea and the Caucasus in the south . With 146.7 million inhabitants living in the country 's 85 federal subjects as of 2020 , Russia is the most populous nation in Europe and the ninth-most populous nation in the world . Russia 's capital and largest city is Moscow ; other major urban areas include Saint Petersburg , Novosibirsk , Yekaterinburg , Nizhny Novgorod , Kazan and Chelyabinsk . The East Slavs emerged as a recognizable group in Europe between the 3rd and 8th centuries AD . Founded and ruled by a Varangian warrior elite and their descendants , the medieval state of Rus arose in the 9th century . In 988 it adopted Orthodox Christianity from the Byzantine Empire , beginning the synthesis of Byzantine and Slavic cultures that defined Russian culture for the next millennium . Rus ultimately disintegrated into a number of smaller states , until it was finally reunified by the Grand Duchy of Moscow in the 15th century . By the 18th century , the nation had greatly expanded through conquest , annexation , and exploration to become the Russian Empire , which was the third largest empire in history , stretching from Poland on the west to Alaska on the east . Following the Russian Revolution , the Russian Soviet Federative Socialist Republic ( Russian SFSR ) became the largest and leading constituent of the Union of Soviet Socialist Republics ( USSR/Soviet Union ) , the world 's first constitutionally socialist state .",
    "/wiki/Daria_Ustinova": "Daria Konstantinovna Ustinova ( ; born 29 August 1998 ) is a Russian backstroke swimmer . She is a former Junior World record holder in women 's 200 m backstroke .",
    "/wiki/Maria_Astashkina": "Maria Astashkina ( ) , ( born 5 April 1999 in Penza , Russia ) is a Russian swimmer . She won 4 gold medals in ( 200 m , 100 m , 50m breaststroke and 4 \u00d7 100 m medley ) at the 2015 European Games .",
    "/wiki/Svetlana_Chimrova": "Svetlana Mikhailovna Chimrova ( Russian : \u0421\u0432\u0435\u0442\u043b\u0430\u043d\u0430 \u041c\u0438\u0445\u0430\u0439\u043b\u043e\u0432\u043d\u0430 \u0427\u0438\u043c\u0440\u043e\u0432\u0430 ; born 15 April 1996 ) is a Russian swimmer . She competed in the women 's 100 metre butterfly event at the 2016 Summer Olympics .",
    "/wiki/Margarita_Nesterova": "Margarita Nesterova ( born 20 September 1989 , Dushanbe ) is a Russian swimmer . At the 2012 Summer Olympics , she competed for the national team in the Women 's 4 x 100 metre freestyle relay , finishing in 10th place in the heats , failing to reach the final .",
    "/wiki/Germany": "Germany ( German : Deutschland , German pronunciation : [ \u02c8d\u0254\u028ft\u0283lant ] ) , constitutionally the Federal Republic of Germany ( German : Bundesrepublik Deutschland , listen ( help\u00b7info ) ) , [ f ] is a country in Central and Western Europe . It borders Denmark to the north , Poland and the Czech Republic to the east , Austria and Switzerland to the south , France to the southwest , and Luxembourg , Belgium , and the Netherlands to the west . Germany includes 16 constituent states , covers an area of 357,386 square kilometres ( 137,988 sq mi ) , and has a largely temperate seasonal climate . With 83 million inhabitants , it is the second most populous state of Europe after Russia , the most populous state lying entirely in Europe , as well as the most populous member state of the European Union . Germany is a very decentralised country . Its capital and largest metropolis is Berlin , while Frankfurt serves as its financial capital and has the country 's busiest airport . Various Germanic tribes have inhabited the northern parts of modern Germany since classical antiquity . A region named Germania was documented before AD 100 . Beginning in the 10th century , German territories formed a central part of the Holy Roman Empire . During the 16th century , northern German regions became the centre of the Protestant Reformation . After the collapse of the Holy Roman Empire , the German Confederation was formed in 1815 . The German revolutions of 1848-49 resulted in the Frankfurt Parliament establishing major democratic rights .",
    "/wiki/Lisa_Graf": "Lisa Graf ( born 13 November 1992 ) is a German competitive swimmer who specializes in backstroke . At the 2016 Summer Olympics in Rio de Janeiro she competes in the 200 meter backstroke . She qualified in tied 4th place for the semifinals where she was eliminated with a 13th place . At the 2014 European Aquatics Championships in Berlin , she finished 4th in the 200 meter backstroke . At the 2012 European Championships , she won a gold medley relay medal for swimming in the heats .",
    "/wiki/Vanessa_Grimberg": "Vanessa Grimberg ( born 28 January 1993 ) is a German swimmer . At the 2016 Summer Olympics in Rio de Janeiro , she competed as a member of Germany 's women 's 4 x 100 metre medley relay team . The team finished 12th in the heats and did not qualify for the final .",
    "/wiki/Alexandra_Wenk": "Alexandra Wenk ( born 7 February 1995 ) is a German swimmer who competes in the Women 's 100 metre butterfly . At the 2012 Summer Olympics , she finished 21st overall in the heats in the Women 's 100 metre butterfly and failed to reach the final . At the 2016 Summer Olympics in Rio de Janeiro , she finished in 21st place in the women 's 100 m butterfly and did not qualify for the semifinals . She competed in the women 's 200 m medley where she finished 11th in the semifinals and did not qualify for the final . She was also a member of the women 's 4 x 100 m medley relay team which finished 12th in the heats and did not qualify for the final . Her Romanian-born mother Gabriela was an Olympic swimmer for Romania and European Championships silver medalist .",
    "/wiki/Annika_Bruhn": "Annika Bruhn ( born 5 October 1992 ) is a German swimmer . She competed at the 2012 Summer Olympics . At the 2016 Summer Olympics in Rio de Janeiro , she competed in the women 's 200 metre freestyle , finishing 20th in the heats and failing to qualify for the semifinals . She was a member of the women 's 4 x 200 metre freestyle relay team which finished 12th in the heats and did not qualify for the final . She was also a member of the women 's 4 \u00d7 100 m medley relay team which finished 12th in the heats and did not qualify for the final .",
    "/wiki/France": "France ( French : [ f\u0281\u0251\u0303s ] ( listen ) ) , officially the French Republic ( French : R\u00e9publique fran\u00e7aise , pronounced [ \u0281epyblik f\u0281\u0251\u0303s\u025b\u02d0z ] ( listen ) ) , is a country whose territory consists of metropolitan France in Western Europe and several overseas regions and territories . [ XIII ] The metropolitan area of France extends from the Mediterranean Sea to the English Channel and the North Sea , and from the Rhine to the Atlantic Ocean . It is bordered by Belgium , Luxembourg and Germany to the northeast , Switzerland and Italy to the east , and Andorra and Spain to the south . The overseas territories include French Guiana in South America and several islands in the Atlantic , Pacific and Indian oceans . The country 's 18 integral regions ( five of which are situated overseas ) span a combined area of 643,801 square kilometres ( 248,573 sq mi ) and a total population of 67.02 million ( as of July 2019 [ update ] ) . France is a unitary semi-presidential republic with its capital in Paris , the country 's largest city and main cultural and commercial centre . Other major urban areas include Lyon , Marseille , Toulouse , Bordeaux , Lille and Nice . France , including its overseas territories , has the most number of time zones of any country , with a total of 12 . During the Iron Age , what is now metropolitan France was inhabited by the Gauls , a Celtic people . Rome annexed the area in 51 BC , holding it until the arrival of Germanic Franks in 476 , who formed the Kingdom of Francia . The Treaty of Verdun of 843 partitioned Francia into East Francia , Middle Francia and West Francia . West Francia , which became the Kingdom of France in 987 , emerged as a major European power in the Late Middle Ages , following its victory in the Hundred Years ' War ( 1337-1453 ) .",
    "/wiki/Mathilde_Cini": "Mathilde Cini ( born 18 November 1994 ) is a French swimmer . She competed at the 2015 World Aquatics Championships and at the 2016 Summer Olympics in Rio de Janeiro .",
    "/wiki/Marie_Wattel": "Marie Wattel ( born 2 June 1997 ) is a French swimmer . She competed in the women 's 100 metre butterfly event at the 2016 Summer Olympics .",
    "/wiki/Charlotte_Bonnet": "Charlotte Bonnet ( born 14 February 1995 ) is a French swimmer , who won a bronze medal at the 2012 Summer Olympics . Bonnet was born in Enghien-les-Bains , Paris . Her 4 \u00d7 200 m freestyle team won the bronze medal in a time of 7:47.49 ( Camille Muffat 1:55.51 ; Bonnet 1:57.78 ; Oph\u00e9lie-Cyrielle \u00c9tienne 1:58.05 ; Coralie Balmy 1:56.15 ) . On 1 January 2013 , Bonnet was made a Knight ( Chevalier ) of the French National Order of Merit .",
    "/wiki/Czech_Republic": "The Czech Republic ( /\u02c8t\u0283\u025bk -/ ( listen ) ; Czech : \u010cesk\u00e1 republika [ \u02c8t\u0283\u025bska\u02d0 \u02c8r\u025bpubl\u026aka ] ( listen ) ) , also known by its short-form name , Czechia ( /\u02c8t\u0283\u025bki\u0259/ ( listen ) ; Czech : \u010cesko [ \u02c8t\u0283\u025bsko ] ( listen ) ) , is a country in Central Europe bordered by Poland to the northeast , Slovakia to the southeast , Austria to the south , and Germany to the west . The Czech Republic is a landlocked country with a hilly landscape that covers an area of 78,866 square kilometers ( 30,450 sq mi ) with a mostly temperate continental climate and oceanic climate . It is a unitary parliamentary republic , with 10.7 million inhabitants . Its capital and largest city is Prague , with 1.3 million residents ; other major cities are Brno , Ostrava , Olomouc and Pilsen . The Czech Republic includes the historical territories of Bohemia , Moravia , and Czech Silesia . The Czech state was formed in the late ninth century as the Duchy of Bohemia under the Great Moravian Empire . In 1002 , the duchy was formally recognized as an Imperial State of the Holy Roman Empire along with the Kingdom of Germany , the Kingdom of Burgundy , the Kingdom of Italy ; and became the Kingdom of Bohemia in 1198 , reaching its greatest territorial extent in the 14th century . Prague was the imperial seat in periods between the 14th and 17th century . The Protestant Bohemian Reformation of the 15th century led to the Hussite Wars , the first of many conflicts with the Catholic Church . Following the Battle of Moh\u00e1cs in 1526 , the whole Crown of Bohemia was gradually integrated into the Habsburg Monarchy . The Protestant Bohemian Revolt ( 1618-20 ) against the Catholic Habsburgs led to the Thirty Years ' War . After the Battle of the White Mountain , the Habsburgs consolidated their rule , eradicated Protestantism , reimposed Catholicism , and adopted a policy of gradual Germanization .",
    "/wiki/Simona_Kubov\u00e1": "Simona Kubov\u00e1 , n\u00e9e Baumrtov\u00e1 ( Czech pronunciation : [ \u02c8s\u026amona \u02c8kubova\u02d0 \u02c8baumr\u0329tova\u02d0 ] , born 24 August 1991 ) is a Czech swimmer most successfully competing in backstroke events . Kubov\u00e1 is the first Czech female to swim 100 metre backstroke in long course swimming pool under one minute .",
    "/wiki/Martina_Morav\u010d\u00edkov\u00e1": "Martina Morav\u010d\u00edkov\u00e1 ( ; born August 13 , 1988 , Rimavsk\u00e1 Sobota ) is a Czech swimmer . At the 2012 Summer Olympics , she competed in the Women 's 200 metre breaststroke , finishing in 26th place overall in the heats , failing to qualify for the semifinals . At the 2016 Olympic Games , she competed in the women 's 100 m and 200 m breaststroke . She narrowly missed qualifying for the semifinals in the 200 m .",
    "/wiki/Barbora_Z\u00e1vadov\u00e1": "Barbora Z\u00e1vadov\u00e1 ( ; born 23 January 1993 ) is a Czech swimmer from Ostrava . At the 2011 FINA World Championships , she swam to new Czech Records in the 200 and 400 Individual Medleys ( 2:14.03 and 4:36.96 ) .",
    "/wiki/Anna_Kol\u00e1\u0159ov\u00e1": "Anna Kol\u00e1\u0159ov\u00e1 ( born 17 April 1997 ) is a Czech swimmer . She competed in the women 's 200 metre freestyle event at the 2017 World Aquatics Championships .",
    "/wiki/Belgium": "Belgium , [ A ] officially the Kingdom of Belgium , is a country in Western Europe . It is bordered by the Netherlands to the north , Germany to the east , Luxembourg to the southeast , France to the southwest , and the North Sea to the northwest . It covers an area of 30,689 km2 ( 11,849 sq mi ) and has a population of more than 11.5 million , making it the 22nd most densely populated country in the world and the 6th most densely populated country in Europe , with a density of 376 per square kilometre ( 970/sq mi ) . The capital and largest city is Brussels ; other major cities are Antwerp , Ghent , Charleroi and Li\u00e8ge . The sovereign state is a federal constitutional monarchy with a parliamentary system . Its institutional organization is complex and is structured on both regional and linguistic grounds . It is divided into three highly autonomous regions : the Flemish Region in the north , Wallonia in the south , and the Brussels-Capital Region . Brussels is the smallest and most densely populated region , as well as the richest region in terms of GDP per capita . Belgium is home to two main linguistic groups or communities : the Dutch-speaking Flemish Community , which constitutes about 60 percent of the population , and the French-speaking Community , which comprises about 40 percent of all Belgians . A small German-speaking Community , numbering around one percent , exists in the East Cantons . The Brussels-Capital Region is officially bilingual ( French and Dutch ) , although French is the dominant language . Belgium 's linguistic diversity and related political conflicts are reflected in its political history and complex system of governance , made up of six different governments .",
    "/wiki/Fanny_Lecluyse": "Fanny Lecluyse ( born 11 March 1992 ) is a Belgian swimmer . At the 2012 Summer Olympics , she competed in the women 's 200 metre breaststroke , finishing in 19th place overall in the heats , failing to qualify for the semifinals . Belgium 's Olympic Committee said that Lecluyse was sent home before the end of the games after an incident of inappropriate behavior .",
    "/wiki/Kimberly_Buys": "Kimberly Buys ( born 23 April 1989 ) is a Belgian swimmer who competes in the Women 's 100 metre butterfly . At the 2012 Summer Olympics she finished joint 19th overall in the heats in the women 's 100 metre butterfly , and 29th in the women 's 100 m backstroke . At the 2016 Olympics , she finished in 14th in the 100 m butterfly .",
    "/wiki/Jolien_Sysmans": "Jolien Sysmans ( born 1 September 1992 ) is a Belgian swimmer . She was born in Geel . She competed in the women 's 50m freestyle at the 2012 Summer Olympics in London , finishing with a time of 25.60 seconds in 31st place in the heats .",
    "/wiki/Finland": "Finland ( Finnish : Suomi [ \u02c8suo\u032fmi ] ( listen ) ; Swedish : Finland [ \u02c8f\u026a\u030cnland ] ( listen ) , Finland Swedish : [ \u02c8finl\u0251nd ] ) , officially the Republic of Finland ( Finnish : Suomen tasavalta , Swedish : Republiken Finland ( listen to all ) ) , [ note 1 ] is a Nordic country in Northern Europe bordering the Baltic Sea , Gulf of Bothnia , and Gulf of Finland , between Sweden to the west , Russia to the east , Estonia to the south , and north-eastern Norway to the north . The capital and largest city is Helsinki . Other major cities are Espoo , Tampere , Vantaa , Oulu , Turku , Jyv\u00e4skyl\u00e4 , Lahti and Kuopio . Finland 's population is 5.52 million as of July 2019 , the majority of whom live in the central and south of the country and speak Finnish , a Finnic language from the Uralic language family , unrelated to the Scandinavian languages . Finland is the eighth-largest country in Europe and the most sparsely populated country in the European Union . It is a parliamentary republic of 310 municipalities , and includes an autonomous region , the \u00c5land Islands . Over 1.4 million people live in the Greater Helsinki metropolitan area , which produces one third of the country 's GDP . Swedish is the second official language of Finland , which is mainly spoken in certain coastal areas and on \u00c5land . A large majority of Finns are members of the Evangelical Lutheran Church . Finland was inhabited when the last ice age ended , approximately 9000 BC . Comb Ceramic culture introduced pottery 5200 BC and Corded Ware culture coincided with the start of agriculture between 3000 and 2500 BC . The Bronze Age and Iron Age were characterised by extensive contacts with other cultures in the Fennoscandian and Baltic regions .",
    "/wiki/Mimosa_Jallow": "Mimosa Jallow ( born 17 June 1994 ) is a Finnish swimmer . She competed in the women 's 100 metre backstroke event at the 2016 Summer Olympics . Jallow was born to a Gambian father and a Finnish mother in Jyv\u00e4skyl\u00e4 .",
    "/wiki/Jenna_Laukkanen": "Jenna Laukkanen ( born 2 March 1995 ) is a Finnish swimmer with a specialty in the breaststroke . Laukkanen competed in the 2011 European Junior Swimming Championships , winning a bronze medal in the 50m breaststroke and a silver medal in the 100m breaststroke . She competed for Team Finland at the 2012 Summer Olympics . Her final ranking in the 100m breaststroke was 34th and 32nd in the 200m breaststroke . In the 2015 European Short Course Swimming Championships , Laukkanen won gold medals in the 50m and 100m breaststroke . At the 2016 European Aquatics Championships , she won bronze medals in the 50m breaststroke and the 4\u00d7100m medley . She competed for Team Finland at the 2016 Summer Olympics in Rio de Janeiro , Brazil .",
    "/wiki/Hanna-Maria_Sepp\u00e4l\u00e4": "Hanna-Maria Sepp\u00e4l\u00e4 ( born 13 December 1984 ) is a Finnish freestyle swimmer , who won the world title in the 100 m freestyle at the 2003 World Aquatics Championships in Barcelona , Spain . Hanna-Maria started swimming at age 5 and made the Finnish national junior team by age 10 . In 1999 she won the bronze medal in the European Junior Championships in the 50 m freestyle event . To date she has broken 100 Finnish national records . Hanna-Maria 's manager is Finnish Sports Management Agency , SportElite .",
    "/wiki/Serbia": "Serbia ( Serbian : \u0421\u0440\u0431\u0438\u0458\u0430 , romanized : Srbija , pronounced [ s\u0159\u0329bija ] ) , [ note 1 ] officially the Republic of Serbia ( Serbian : \u0420\u0435\u043f\u0443\u0431\u043b\u0438\u043a\u0430 \u0421\u0440\u0431\u0438\u0458\u0430 , romanized : Republika Srbija , pronounced [ rep\u01d4blika s\u0159\u0329bija ] ) , is a land-locked country situated at the crossroads of Central and Southeast Europe in the southern Pannonian Plain and the central Balkans . It borders Hungary to the north , Romania to the northeast , Bulgaria to the southeast , North Macedonia to the south , Croatia and Bosnia and Herzegovina to the west , and Montenegro to the southwest . The country claims a border with Albania through the disputed territory of Kosovo . [ a ] Serbia 's population numbers approximately seven million . Its capital , Belgrade , ranks among the largest citi\u0435s in southeastern Europe . Inhabited since the Paleolithic Age , the territory of modern-day Serbia faced Slavic migrations to Southeastern Europe in the 6th century , establishing several regional states in the early Middle Ages at times recognised as tributaries to the Byzantine , Frankish and Hungarian kingdoms . The Serbian Kingdom obtained recognition by the Holy See and Constantinople in 1217 , reaching its territorial apex in 1346 as the relatively short-lived Serbian Empire . By the mid-16th century , the Ottomans annexed the entirety of modern-day Serbia ; their rule was at times interrupted by the Habsburg Empire , which began expanding towards Central Serbia from the end of the 17th century while maintaining a foothold in Vojvodina . In the early 19th century , the Serbian Revolution established the nation-state as the region 's first constitutional monarchy , which subsequently expanded its territory . Following disastrous casualties in World War I , and the subsequent unification of the former Habsburg crownland of Vojvodina ( and other lands ) with Serbia , the country co-founded Yugoslavia with other South Slavic peoples , which would exist in various political formations until the Yugoslav Wars of the 1990s . During the breakup of Yugoslavia , Serbia formed a union with Montenegro , which was peacefully dissolved in 2006 and restoring Serbia 's independence as a sovereign state for the first time since the late 1910s . In 2008 , the parliament of the province of Kosovo unilaterally declared independence , with mixed responses from the international community .",
    "/wiki/Katarina_Simonovi\u0107": "Katarina Sa\u0161a Simonovi\u0107 ( ; born 25 October 1994 ) is a Serbian swimmer . She competed in the women 's 400 metre freestyle event at the 2016 Summer Olympics .",
    "/wiki/Miroslava_Najdanovski": "Miroslava Najdanovski ( Serbian Cyrillic : \u041c\u0438\u0440\u043e\u0441\u043b\u0430\u0432\u0430 \u041d\u0430\u0458\u0434\u0430\u043d\u043e\u0432\u0441\u043a\u0438 ) ( born January 10 , 1988 in Zrenjanin , SR Serbia , SFR Yugoslavia ) is a 3-time Serbian Olympic swimmer . Najdanovski represented Serbia and Montenegro at the 2004 Summer Olympics . At only 16 years of age , she was the youngest member of the Serbo-Montenegrin delegation and also one of the youngest athletes to compete at the 2004 Summer Olympics in Athens , Greece . She participated in one event , the Women 's 50 metre freestyle , in which she took 43rd place overall among 75 competitors with a time of 27.18 . She represented Serbia at the 2008 Summer Olympics in Beijing , China . Najdanovski qualified at the 2007 World Aquatics Championships in Melbourne , Australia . She took 36th place in the Women 's 100 m freestyle with a time of 57.11 . Later the same year , she competed at a national cup in Belgrade and qualified for the Women 's 50 m freestyle as well , thanks to a time of 26.03 . She therefore competed in both events . She competed in the women 's 50m freestyle at the 2012 Summer Olympics in London , finishing with a time of 26.46 seconds , achieving 42nd place in the heats ."
  },
  "List_of_candidates_of_the_Republic_of_China_legislative_election,_2008_6": {
    "/wiki/Taiwan_Solidarity_Union": "The Taiwan Solidarity Union ( TSU ; ) is a political party in Taiwan which advocates Taiwan independence , Taiwanese localization movement and social liberalism . It was officially founded on 12 August 2001 and is considered part of the Pan-Green Coalition . Unlike the Democratic Progressive Party , its larger companion party in the Pan-Green Coalition , the TSU actively campaigns for the creation of a de jure Republic of Taiwan . The future of the party is in doubt after the 2016 elections as the party failed to secure enough votes to be eligible for state funding .",
    "/wiki/Hakka_Party": "The Hakka Party ( ) is a minor party in Taiwan , aiming to represent the Hakka people . Their party leader is Tsai Chua Niu . The Hakka Party developed out of a reaction to the effects of Taiwanization , which Hakkas felt promoted the culture of the Hoklo people at the expense of Hakka and aboriginal culture . In politics , some Hakka activists perceived the Democratic Progressive Party ( DPP ) as a Hoklo-only party , given that the language of the DPP rallies , meetings , and protests is Taiwanese Hokkien . On the other hand , the Kuomintang was perceived to represent mainlander interests , thus they have supported the Hakka Party",
    "/wiki/Green_Party_Taiwan": "Green Party Taiwan ( ) is a political party in Taiwan established on 25 January 1996 . Although the party is sympathetic to Taiwan nationalism and shares a number of centre-left positions with the Pan-Green Coalition , the party emphasizes campaigning primarily on social and environmental issues . The party is not a member of , and should not be confused with , the Pan-Green Coalition . Green Party Taiwan is a member of the Asia Pacific Greens Federation and participates in the Global Greens . Much of the 400-strong membership are affiliated with the non-governmental organisation sector of Taiwanese society , as well as from academia and the youth community .",
    "/wiki/Kuomintang": "The Kuomintang ( KMT ) , [ I ] also often alternatively translated as the Chinese Nationalist Party ( CNP ) , [ a ] is a political party in the Republic of China based in Taipei . Formed in 1919 , the KMT was formerly the sole ruling party of the Republic of China from 1928 to 2000 and is currently an opposition political party in the Legislative Yuan . The predecessor of the Kuomintang , the Revolutionary Alliance ( Tongmenghui ) , was one of the major advocates of the overthrow of the Qing dynasty and the subsequent revolt in 1911 and proclamation of the Republic of China . The KMT was founded by Song Jiaoren and Sun Yat-sen shortly after the Xinhai Revolution of 1911 . Sun was the provisional President , but he later ceded the presidency to Yuan Shikai . Later led by Chiang Kai-shek , the KMT formed the National Revolutionary Army and succeeded in its Northern Expedition to unify much of mainland China in 1928 , ending the chaos of the Warlord Era . It was the ruling party in mainland China until 1949 , when it lost the Chinese Civil War to the rival Communist Party of China . The KMT fled to Taiwan where it continued to govern as an authoritarian one-party state . This government retained China 's United Nations seat ( with considerable Western support ) until 1971 . Taiwan ceased to be a single-party state in 1986 and political reforms beginning in the 1990s loosened the KMT 's grip on power . Nevertheless , the KMT remains one of Taiwan 's main political parties , with Ma Ying-jeou , elected in 2008 and re-elected in 2012 , being the seventh KMT member to hold the office of the presidency . In the 2016 general and presidential election , the KMT was defeated in both elections and the Democratic Progressive Party ( DPP ) gained control of both the Legislative Yuan and the presidency , Tsai Ing-wen being elected President .",
    "/wiki/New_Party_(Taiwan)": "The New Party ( NP ) , formerly the Chinese New Party ( CNP ) , is a Chinese nationalist political party in Taiwan , affiliated with the pan-blue coalition , and supportive of the unification of Taiwan with Mainland China .",
    "/wiki/Democratic_Progressive_Party": "The Democratic Progressive Party ( DPP ) [ I ] is a Taiwanese nationalist and liberal political party in Taiwan . Controlling both the Taiwan Presidency and the unicameral Legislative Yuan , it is the majority ruling party and the dominant party in the Pan-Green Coalition . Founded in 1986 , the DPP is one of two major parties in Taiwan , along with the historically dominant Kuomintang . It has traditionally been associated with strong advocacy of human rights , anti-communism , and a distinct Taiwanese identity . The incumbent President and former leader of the DPP , Tsai Ing-wen , is the second member of the DPP to hold the office . The DPP is a long-term member of Liberal International and a founding member of the Council of Asian Liberals and Democrats . It represented Taiwan in the Unrepresented Nations and Peoples Organisation . The DPP and its affiliated parties are widely classified as socially liberal because of their strong support for human rights , including support for gender equality , but they also advocate economic liberalism and a Taiwanese national identity . In addition , the DPP is more willing to increase military expenditures , with foreign policy on closer ties with the United States and Japan .",
    "/wiki/Third_Society_Party": "The Third Society Party ( TSP ; ) is a Taiwanese political party headed by Jou Yi-Cheng ( ) , a former DPP member . The main purpose of the party is to address the voices of the middle people , people who are undecided about the constant political deadlock between the KMT and the DPP ."
  }
}