{
  "List_of_Conference_USA_Men's_Basketball_Tournament_Finals_broadcasters_4": {
    "/wiki/Westwood_One_(1976\u20132011)": "Westwood One is an American radio network that was based in New York City . At one time , it was managed by CBS Radio , and was later purchased by the private equity firm , The Gores Group . Due to purchases , mergers and other forms of consolidation in the 1980s and 1990s , at one time or another , it had ownership stakes in or syndication rights to some of the most famous brands in network radio , including CBS , NBC , Mutual , CNN , Fox and Unistar . The company was one of the largest producers and distributors of radio programming in the United States . It broadcast entertainment , news , weather , sports , talk , and traffic programming to about 7,700 radio stations across the United States . The company was the top provider of local traffic reports in the US through its subsidiaries , Metro Networks , Shadow Broadcast Services , SmartRoute Systems , and Sigalert.com . Westwood One also offers weather services ; originally using Accuweather , Westwood switched to The Weather Channel in 2009 . Oaktree Capital Management , through its Triton Media Group division , merged with Westwood One in October 2011 . Triton then folded Westwood One into its Dial Global subsidiary . The Westwood One name was initially retained for most sports programming . However , starting with the 2011-12 NFL playoffs , Westwood One 's sports programming was branded as Westwood One on the Dial Global Radio Network . After the NFL Playoffs concluded , the Westwood One name was removed altogether in favor of the Dial Global Sports Network , and the sports website was relocated to www.dialglobalsports.com .",
    "/wiki/Dave_Ryan_(sportscaster)": "He called other non-marquee sporting events on ESPN and its sister networks , such as lacrosse and the semifinals of the Little League World Series . In addition , he occasionally serves as a college football sideline reporter and a college basketball announcer , and served as a play-by-play man for NHL on ESPN and ESPN2 for a number of years . His signature phrases on bowling telecasts were 60 feet to success ! and He 's got all ten down . Some bowling fans criticized him for calling pins by a number , such as number seven instead of saying the seven pin . Ryan was replaced by Rob Stone for PBA telecasts in 2007 , but he has continued to call other bowling events on occasion , such as women 's tournaments and college tournaments . Dave Ryan 's name is on a fairly short list of national bowling play-by-play announcers , with Chris Schenkel being the most well known after he spent 36 years calling PBA events for ABC . Denny Schreiner ( ESPN ) , Jay Randolph ( NBC/ESPN2 ) , Mike Durbin ( ESPN ) , Dick Stockton ( HBO ) and Rob Stone ( ESPN ) have also served as play-by-play announcers for bowling telecasts . Ryan joined the NFL on CBS commentary team in 2009 as a play by play man , substituting for Gus Johnson in week 16 . On February 2 , 2012 Ryan agreed to call Major League Lacrosse games on the CBS Sports Network with Evan Washburn . Ryan also returned to PBA bowling broadcasts in June-July , 2013 , when CBS Sports Network covered five events in the PBA Tour 's Summer Swing .",
    "/wiki/Pete_Gillen": "Peter Joseph Gillen ( born June 20 , 1947 ) is an American former college basketball head coach of the Division I Xavier Musketeers , Providence Friars and Virginia Cavaliers and is a member of the New York City Basketball Hall of Fame . Gillen is currently a college basketball analyst with the CBS Sports Network .",
    "/wiki/Kevin_Kugler": "Kevin Kugler is an American sportscaster who primarily works in radio broadcasting . Kugler is currently employed by Westwood One as its lead college basketball voice as well as one of its Sunday NFL voices , and by the Big Ten Network as a play-by-play man for college football and college basketball . Kugler is based out of Omaha , Nebraska , where he hosted a daily sports talk show on KOZN until 2012 when he left to focus on his other duties . He won the Nebraska Sportscaster of the Year award nine times ."
  },
  "National_Register_of_Historic_Places_listings_in_Miami_County,_Kansas_0": {
    "/wiki/Marais_des_Cygnes_River": "The Marais des Cygnes River ( , , ) is a principal tributary of the Osage River , about long , in eastern Kansas and western Missouri in the United States . Via the Osage and Missouri rivers , it is part of the watershed of the Mississippi River . The name means Marsh of the Swans in French ( presumably in reference to the trumpeter swan which was historically common in the Midwest ) . The river is notorious for flash flooding . It is referred to in the song The River by Chely Wright . La Cygne , Kansas in Linn County and Osawatomie , Kansas in Miami County are gravely affected by its flooding .",
    "/wiki/Osawatomie,_Kansas": "Osawatomie is a city in Miami County , Kansas , United States , southwest of Kansas City . As of the 2010 census , the city population was 4,447 . It derives its name from two streams nearby , the Osage and Potawatomie . It is part of the Kansas City metropolitan area .",
    "/wiki/John_Brown_Museum": "The John Brown Museum , also known as the John Brown Museum State Historic Site and John Brown Cabin , is located in Osawatomie , Kansas . The site is operated by the Kansas Historical Society , and includes the log cabin of Reverend Samuel Adair and his wife , Florella , who was the half-sister of the abolitionist John Brown . Brown lived in the cabin during the twenty months he spent in Kansas and conducted many of his abolitionist activities from there . The museum 's displays tell the story of John Brown , the Adairs and local abolitionists , and include the original cabin , Adair family furnishings and belongings , and Civil War artifacts .",
    "/wiki/Paola,_Kansas": "Paola is a city in and the county seat of Miami County , Kansas , United States . As of the 2010 census , the city population was 5,602 . It is part of the Kansas City metropolitan area .",
    "/wiki/Jackson_Hotel_(Paola,_Kansas)": "The Jackson Hotel is a historic hotel building located at 139 W. Peoria St. in Paola , Kansas . The hotel was built in 1921 on a site which had contained a hotel since 1863 ; the Jackson Hotel was the third hotel built at the site . Architect George P. Washburn designed the hotel in the Commercial style . The hotel features a full-length porch on the ground floor and a front entry with a transom and sidelights , a common element of group residences of the era intended to make the building resemble a home . From 1937 to 1969 , Paola business directories listed the Jackson Hotel as one of only two in the city , along with the Commercial Hotel ; it became the only hotel in 1969 when the Commercial Hotel was demolished . By 1992 , the hotel building had been vacated ; it remained empty until a 2006 redevelopment effort . The hotel was added to the National Register of Historic Places on July 9 , 2008 .",
    "/wiki/U.S._Route_69": "U.S. Route 69 ( US 69 ) is a major north-south United States highway . When it was first created , it was only 150 miles ( 241 km ) long , but it has since been expanded into a Minnesota to Texas cross-country route . The highway 's southern terminus ( as well as those of US 287 and US 96 ) is in Port Arthur , Texas at an intersection with State Highway 87 . Its northern terminus is in Albert Lea , Minnesota at Minnesota State Highway 13 .",
    "/wiki/Louisburg,_Kansas": "Louisburg is a city in Miami County , Kansas , United States and is part of the Kansas City metropolitan area . As of the 2010 census , the city population was 4,315 .",
    "/wiki/Miami_County_Courthouse_(Kansas)": "The Miami County Courthouse , located east of the junction of Miami and Silver Streets in Paola , is the seat of government of Miami County , Kansas . The courthouse was built from 1898 to 1899 and has housed the county 's government ever since . Architect George P. Washburn designed the courthouse ; its design is Victorian with Romanesque Revival details . The building features a tower at each corner ; the southwest tower was once a clock tower but no longer has a clock . The east and west entrances to the courthouse feature porches with brick columns . The upper windows of the building are arched with stone ; the stone continues around the building in a band , a feature described as one of the strongest elements of the [ building 's ] design . The courthouse 's roof incorporates a variety of designs ; the main part of the roof and the towers are hipped , while gable ends are located between the towers . The courthouse was added to the National Register of Historic Places on March 1 , 1973 .",
    "/wiki/New_Lancaster,_Kansas": "New Lancaster is an unincorporated community in Miami County , Kansas , United States . It is part of the Kansas City metropolitan area ."
  }
}