{
  "List_of_United_States_politicians_who_have_acknowledged_cannabis_use_0": {
    "/wiki/Benjamin_Franklin": "Benjamin Franklin FRS FRSA FRSE ( January 17 , 1706 [ O.S . January 6 , 1705 ] - April 17 , 1790 ) was an American polymath and one of the Founding Fathers of the United States . Franklin was a leading writer , printer , political philosopher , politician , Freemason , postmaster , scientist , inventor , humorist , civic activist , statesman , and diplomat . As a scientist , he was a major figure in the American Enlightenment and the history of physics for his discoveries and theories regarding electricity . As an inventor , he is known for the lightning rod , bifocals , and the Franklin stove , among other inventions . He founded many civic organizations , including the Library Company , Philadelphia 's first fire department and the University of Pennsylvania . Franklin earned the title of The First American for his early and indefatigable campaigning for colonial unity , initially as an author and spokesman in London for several colonies . As the first United States Ambassador to France , he exemplified the emerging American nation . Franklin was foundational in defining the American ethos as a marriage of the practical values of thrift , hard work , education , community spirit , self-governing institutions , and opposition to authoritarianism both political and religious , with the scientific and tolerant values of the Enlightenment . In the words of historian Henry Steele Commager , In a Franklin could be merged the virtues of Puritanism without its defects , the illumination of the Enlightenment without its heat . To Walter Isaacson , this makes Franklin the most accomplished American of his age and the most influential in inventing the type of society America would become . Franklin became a successful newspaper editor and printer in Philadelphia , the leading city in the colonies , publishing the Pennsylvania Gazette at the age of 23 .",
    "/wiki/List_of_governors_of_Pennsylvania": "The Governor of the Commonwealth of Pennsylvania is the head of the executive branch of Pennsylvania 's state government and serves as the commander-in-chief of the state 's military forces . The governor has a duty to enforce state laws , and the power to approve or veto bills passed by the Pennsylvania Legislature and to convene the legislature . The governor may grant pardons except in cases of impeachment , but only when recommended by the Board of Pardons . There have been seven presidents and 46 governors of Pennsylvania , with two governors serving non-consecutive terms , totaling 55 terms in both offices . The longest term was that of the first governor , Thomas Mifflin , who served three full terms as governor in addition to two years as president . The shortest term belonged to John Bell , who served only 19 days as acting governor after his predecessor , Edward Martin resigned . The current governor is Democrat Tom Wolf , whose term began on January 20 , 2015 .",
    "/wiki/Independent_politician": "An independent or nonpartisan politician is a politician not affiliated with any political party . There are numerous reasons why someone may stand for office as an independent .",
    "/wiki/Thomas_Jefferson": "Thomas Jefferson ( April 13 , 1743 [ a ] - July 4 , 1826 ) was an American statesman , diplomat , lawyer , architect , philosopher , and Founding Father who served as the third president of the United States from 1801 to 1809 . He previously served as the second vice president of the United States from 1797 to 1801 . The principal author of the Declaration of Independence , Jefferson was a proponent of democracy , republicanism , and individual rights , motivating American colonists to break from the Kingdom of Great Britain and form a new nation ; he produced formative documents and decisions at both the state and national level . During the American Revolution , he represented Virginia in the Continental Congress that adopted the Declaration , drafted the law for religious freedom as a Virginia legislator , and served as the second Governor of Virginia from 1779 to 1781 , during the American Revolutionary War . He became the United States Minister to France in May 1785 , and subsequently , the nation 's first secretary of state under President George Washington from 1790 to 1793 . Jefferson and James Madison organized the Democratic-Republican Party to oppose the Federalist Party during the formation of the First Party System . With Madison , he anonymously wrote the provocative Kentucky and Virginia Resolutions in 1798 and 1799 , which sought to strengthen states ' rights by nullifying the federal Alien and Sedition Acts . As president , Jefferson pursued the nation 's shipping and trade interests against Barbary pirates and aggressive British trade policies . He also organized the Louisiana Purchase , almost doubling the country 's territory . As a result of peace negotiations with France , his administration reduced military forces . He was reelected in 1804 . Jefferson 's second term was beset with difficulties at home , including the trial of former vice president Aaron Burr .",
    "/wiki/President_of_the_United_States": "The president of the United States ( POTUS ) [ B ] is the head of state and head of government of the United States of America . The president directs the executive branch of the federal government and is the commander-in-chief of the United States Armed Forces . In contemporary times , the president is looked upon as one of the world 's most powerful political figures as the leader of the only remaining global superpower . The role includes responsibility for the world 's most expensive military , which has the second largest nuclear arsenal . The president also leads the nation with the largest economy by nominal GDP . The president possesses significant domestic and international hard and soft power . Article II of the Constitution establishes the executive branch of the federal government . It vests the executive power of the United States in the president . The power includes the execution and enforcement of federal law , alongside the responsibility of appointing federal executive , diplomatic , regulatory and judicial officers , and concluding treaties with foreign powers with the advice and consent of the Senate . The president is further empowered to grant federal pardons and reprieves , and to convene and adjourn either or both houses of Congress under extraordinary circumstances . The president directs the foreign and domestic policies of the United States , and takes an active role in promoting his policy priorities to members of Congress . In addition , as part of the system of checks and balances , Article I , Section 7 of the Constitution gives the president the power to sign or veto federal legislation .",
    "/wiki/Democratic-Republican_Party": "The Democratic-Republican Party , better known at the time as the Republican Party and various other names , [ a ] was an American political party founded by Thomas Jefferson and James Madison in the early 1790s that championed republicanism , political equality , and expansionism . The party became increasingly dominant after the 1800 elections as the opposing Federalist Party collapsed . The Democratic-Republicans later splintered during the 1824 presidential election . One faction of the Democratic-Republicans eventually coalesced into the modern Democratic Party , while the other faction ultimately formed the core of the Whig Party . The Democratic-Republican Party originated as a faction in Congress that opposed the centralizing policies of Alexander Hamilton , who served as Secretary of the Treasury under President George Washington . The Democratic-Republicans and the opposing Federalist Party each became more cohesive during Washington 's second term , partly as a result of the debate over the Jay Treaty . Though he was defeated by Federalist John Adams in the 1796 presidential election , Jefferson and his Democratic-Republican allies came into power following the 1800 elections . As president , Jefferson presided over a reduction in the national debt and government spending , and completed the Louisiana Purchase with France . Madison succeeded Jefferson as president in 1809 and led the country during the largely-inconclusive War of 1812 with Britain . After the war , Madison and his congressional allies established the Second Bank of the United States and implemented protective tariffs , marking a move away from the party 's earlier emphasis on states ' rights and a strict construction of the United States Constitution . The Federalists collapsed after 1815 , beginning a period known as the Era of Good Feelings . Lacking an effective opposition , the Democratic-Republicans split into groups after the 1824 presidential election ; one faction supported President John Quincy Adams , while the other faction backed General Andrew Jackson .",
    "/wiki/James_Madison": "James Madison Jr. ( March 16 , 1751 [ b ] - June 28 , 1836 ) was an American statesman , lawyer , diplomat , philosopher and Founding Father who served as the fourth president of the United States from 1809 to 1817 . He is hailed as the Father of the Constitution for his pivotal role in drafting and promoting the Constitution of the United States and the United States Bill of Rights . He co-wrote The Federalist Papers , co-founded the Democratic-Republican Party , and served as the fifth United States secretary of State from 1801 to 1809 . Born into a prominent Virginia planter family , Madison served as a member of the Virginia House of Delegates and the Continental Congress during and after the American Revolutionary War . He became dissatisfied with the weak national government established by the Articles of Confederation and helped organize the Constitutional Convention , which produced a new constitution to supplant the Articles of Confederation . Madison 's Virginia Plan served as the basis for the Constitutional Convention 's deliberations , and he was one of the most influential individuals at the convention . Madison became one of the leaders in the movement to ratify the Constitution , and he joined with Alexander Hamilton and John Jay in writing The Federalist Papers , a series of pro-ratification essays that was one of the most influential works of political science in American history . After the ratification of the Constitution , Madison emerged as an important leader in the United States House of Representatives and served as a close adviser to President George Washington . He was the main force behind the ratification of the United States Bill of Rights , which enshrines guarantees of personal freedoms and rights within the Constitution . During the early 1790s , Madison came to oppose the economic program and accompanying centralization of power favored by Secretary of the Treasury Alexander Hamilton . Along with Thomas Jefferson , Madison organized the Democratic-Republican Party , which was , alongside Hamilton 's Federalist Party , one of the nation 's first major political parties . After Jefferson won the 1800 presidential election , Madison served as secretary of State from 1801 to 1809 .",
    "/wiki/George_Washington": "George Washington ( February 22 , 1732 [ b ] - December 14 , 1799 ) was an American political leader , military general , statesman , and Founding Father who served as the first president of the United States from 1789 to 1797 . Previously , he led Patriot forces to victory in the nation 's War for Independence . He presided at the Constitutional Convention of 1787 , which established the U.S. Constitution and a federal government . Washington has been called the Father of His Country for his manifold leadership in the formative days of the new nation . Washington received his initial military training and command with the Virginia Regiment during the French and Indian War . He was later elected to the Virginia House of Burgesses and was named a delegate to the Continental Congress , where he was appointed Commanding General of the Continental Army . He commanded American forces , allied with France , in the defeat and surrender of the British during the Siege of Yorktown . He resigned his commission after the Treaty of Paris in 1783 . Washington played a key role in adopting and ratifying the Constitution and was then elected president ( twice ) by the Electoral College . He implemented a strong , well-financed national government while remaining impartial in a fierce rivalry between cabinet members Thomas Jefferson and Alexander Hamilton . During the French Revolution , he proclaimed a policy of neutrality while sanctioning the Jay Treaty . He set enduring precedents for the office of president , including the title President of the United States , and his Farewell Address is widely regarded as a pre-eminent statement on republicanism .",
    "/wiki/Henry_Clay": "Henry Clay Sr. ( April 12 , 1777 - June 29 , 1852 ) was an American attorney and statesman who represented Kentucky in both the United States Senate and United States House of Representatives , served as seventh speaker of the U.S. House of Representatives , and served as the ninth U.S. secretary of state . He received electoral votes for president in the 1824 , 1832 , and 1844 presidential elections and helped found both the National Republican Party and the Whig Party . For his role in defusing sectional crises , he earned the appellation of the Great Compromiser . Clay was born in Hanover County , Virginia in 1777 and launched a legal career in Lexington , Kentucky , in 1797 . As a member of the Democratic-Republican Party , Clay won election to the Kentucky state legislature in 1803 and to the U.S. House of Representatives in 1810 . He was chosen as speaker of the House in early 1811 and , along with President James Madison , led the United States into the War of 1812 against Britain . In 1814 , he helped negotiate the Treaty of Ghent , which brought an end to the War of 1812 . After the war , Clay returned to his position as speaker of the House and developed the American System , which called for federal infrastructure investments , support for the national bank , and protective tariff rates . In 1820 , he helped bring an end to a sectional crisis over slavery by leading the passage of the Missouri Compromise . Clay finished with the fourth-most electoral votes in the multi-candidate 1824 presidential election , and he helped John Quincy Adams win the contingent election held to select the president . President Adams appointed Clay to the prestigious position of secretary of state ; critics alleged that the two had agreed to a corrupt bargain . Despite receiving support from Clay and other National Republicans , Adams was defeated by Democrat Andrew Jackson in the 1828 presidential election .",
    "/wiki/United_States_Secretary_of_State": "The secretary of state is a senior official of the federal government of the United States of America and the head of the United States Department of State . The secretary of state 's duties are principally concerned with foreign policy , and he or she is considered to be the U.S. government 's minister of foreign affairs . The secretary of state is nominated by the president of the United States and , following a confirmation hearing before the Senate Committee on Foreign Relations , is confirmed by the United States Senate . The secretary of state , along with the secretary of the treasury , secretary of defense , and attorney general , are generally regarded as the four most important Cabinet members because of the importance of their respective departments . Secretary of State is a Level I position in the Executive Schedule and thus earns the salary prescribed for that level ( currently US $ 210,700 ) . The current secretary of state is Mike Pompeo , who has served as Secretary of State in the administration of President Donald Trump since early 2018 .",
    "/wiki/United_States_Senate": "The United States Senate is the upper chamber of the United States Congress , which , along with the United States House of Representatives - the lower chamber - constitutes the legislature of the United States . The Senate chamber is located in the north wing of the Capitol Building , in Washington , D.C . The composition and powers of the Senate are established by Article One of the United States Constitution . The Senate is composed of senators , each of whom represents a single state in its entirety . Each state , regardless of its population size , is equally represented by two senators who serve staggered terms of six years . There being at present 50 states in the Union , there are currently 100 senators . From 1789 to 1913 , senators were appointed by legislatures of the states they represented ; they are now elected by popular vote , following the ratification of the Seventeenth Amendment in 1913 . As the upper chamber of Congress , the Senate has several powers of advice and consent which are unique to it . These include the approval of treaties , and the confirmation of Cabinet secretaries , Supreme Court justices , federal judges , flag officers , regulatory officials , ambassadors , other federal executive officials and other federal uniformed officers . In addition to these , in cases wherein no candidate receives a majority of electors for vice president , the duty falls to the Senate to elect one of the top two recipients of electors for that office . Furthermore , the Senate has the responsibility of conducting the trials of those impeached by the House . The Senate is widely considered both a more deliberative and more prestigious body than the House of Representatives due to its longer terms , smaller size , and statewide constituencies , which historically led to a more collegial and less partisan atmosphere .",
    "/wiki/Kentucky": "Kentucky ( UK : /k\u025bn\u02c8t\u028cki/ ken-TUK-ee , US : /k\u0259n-/ ( listen ) k\u0259n- ) , officially the Commonwealth of Kentucky , is a state located in the Southern United States . Although styled as the State of Kentucky in the law creating it , ( because in Kentucky 's first constitution , the term state was used ) , Kentucky is one of four U.S. states constituted as a commonwealth ( the others being Virginia , Pennsylvania , and Massachusetts ) . Originally a part of Virginia , in 1792 Kentucky split from it and became the 15th state to join the Union . Kentucky is the 37th most extensive and the 26th most populous of the 50 United States . Kentucky is known as the Bluegrass State , a nickname based on the bluegrass , a species of grass found in many of its pastures . One of the major regions in Kentucky is the Bluegrass Region in central Kentucky , which houses its two largest cities , Louisville and Lexington . It is a land with diverse environments and abundant resources , including the world 's longest cave system , Mammoth Cave National Park , one of the greatest lengths of navigable waterways and streams in the contiguous United States , and the two largest man-made lakes east of the Mississippi River . Kentucky is also known for horse racing , bourbon , moonshine , coal , My Old Kentucky Home historic state park , automobile manufacturing , tobacco , bluegrass music , college basketball , Kentucky Fried Chicken , and the Kentucky colonel .",
    "/wiki/Speaker_of_the_United_States_House_of_Representatives": "The speaker of the United States House of Representatives is the presiding officer of the United States House of Representatives . The office was established in 1789 by Article I , Section 2 of the U.S. Constitution . The speaker is the political and parliamentary leader of the House of Representatives , and is simultaneously the House 's presiding officer , de facto leader of the body 's majority party , and the institution 's administrative head . Speakers also perform various other administrative and procedural functions . Given these several roles and responsibilities , the speaker usually does not personally preside over debates . That duty is instead delegated to members of the House from the majority party . Neither does the speaker regularly participate in floor debates . The Constitution does not require the speaker to be an incumbent member of the House of Representatives , although every speaker thus far has been . The speaker is second in the United States presidential line of succession , after the vice president and ahead of the president pro tempore of the Senate . The current House speaker , Democrat Nancy Pelosi of California , was elected to the office on January 3 , 2019 . Pelosi previously served as speaker from January 4 , 2007 , to January 3 , 2011 . She has the distinction of being the first woman to serve as speaker , and is also the first former speaker to be returned to office since Sam Rayburn in 1955 .",
    "/wiki/National_Republican_Party": "The National Republican Party , also known as the Anti-Jacksonian Party , was a political party in the United States that evolved from a faction of the Democratic-Republican Party that supported John Quincy Adams in the 1824 presidential election . Known initially as Adams-Clay Republicans in the wake of the 1824 campaign , Adams 's political allies in Congress and at the state-level were referred to as Adams 's Men during his presidency ( 1825-1829 ) . When Andrew Jackson became president , following his victory over Adams in the 1828 election , this group became the opposition , and organized themselves as Anti-Jackson . The use of the term National Republican dates from 1830 . Henry Clay served as the party 's nominee in the 1832 election , but he was defeated by Jackson . The party supported Clay 's American System of nationally financed internal improvements and a protective tariff . After the 1832 election , opponents of Jackson coalesced into the Whig Party . National Republicans , Anti-Masons and others joined the new party .",
    "/wiki/Whig_Party_(United_States)": "The Whig Party was a political party active in the middle of the 19th century in the United States of America . Alongside the Democratic Party , it was one of the two major parties in the United States during the late 1830s , the 1840s , and the early 1850s , part of the Second Party System . Four U.S. presidents were affiliated with the Whig party for at least part of their respective terms . Other influential party leaders include Henry Clay , Daniel Webster , William Seward , John J. Crittenden , and Truman Smith . The Whigs emerged in the 1830s in opposition to President Andrew Jackson , pulling together former members of the National Republican Party , the Anti-Masonic Party , and disaffected Democrats . The Whigs had some links to the defunct Federalist Party , but the Whig Party was not a direct successor to that party and many Whig leaders , including Clay , had aligned with the rival Democratic-Republican Party . In the 1836 presidential election , four different Whig candidates received electoral votes , but the party failed to defeat Jackson 's chosen successor , Martin Van Buren . Whig nominee William Henry Harrison unseated Van Buren in the 1840 presidential election , but died just one month into his term . Harrison 's successor , John Tyler , was expelled from the party in 1841 after clashing with Clay and other Whig Party leaders over economic policies such as the re-establishment of a national bank . Clay won his party 's nomination in the 1844 presidential election but was defeated by Democrat James K. Polk , who subsequently presided over the Mexican-American War . Whig nominee Zachary Taylor won the 1848 presidential election , but Taylor died in 1850 and was succeeded by Millard Fillmore . Fillmore , Clay , Daniel Webster , and Democrat Stephen A. Douglas led the passage of the Compromise of 1850 , which helped to defuse sectional tensions in the aftermath of the Mexican-American War ."
  },
  "Template:2018_Commonwealth_Games_England_men's_rugby_sevens_team_roster_0": {
    "/wiki/Rugby_union_positions": "In the game of rugby union , there are 15 players on each team , comprising eight forwards ( wearing jerseys numbered 1-8 ) and seven backs ( numbered 9-15 ) . In addition , there may be up to eight replacement players on the bench , numbered 16-23 . Players are not restricted to a single position , although they generally specialise in just one or two that suit their skills and body types . Players that play multiple positions are called utility players . Forwards compete for the ball in scrums and line-outs and are generally bigger and stronger than the backs . Props push in the scrums , while the hooker tries to secure the ball for their team by hooking it back with their heel . The hooker is also the one who is responsible for throwing the ball in at line-outs , where it is mostly competed for by the locks , who are generally the tallest players on the team . The flankers and number eight are expected to be the first players to arrive at a breakdown and play an important role in securing possession of the ball for their team . The backs play behind the forwards and are usually more lightly built and faster . Successful backs are skilful at passing and kicking . Full-backs need to be good defenders and kickers , and have the ability to catch a kicked ball . The wingers are usually among the fastest players in a team and score many of the tries .",
    "/wiki/Richard_de_Carpentier": "Richard de Carpentier ( born 30 April 1990 ) is a backrow forward playing for the Worcester Warriors club in his second professional contract . His first professional contract was at Leicester Tigers He is a sports coaching graduate of UWIC . He is also an England Sevens player , having made his debut in the Edinburgh leg of the 2011 World Series and former England Students captain . De Carpentier is a product of Kirkham Grammar School in Lancashire , having played throughout the age groups with fellow Tiger and former schoolmate Kieran Brookes",
    "/wiki/Mike_Ellery": "Mike Ellery ( born 8 September 1991 in Penrith , England ) is an English professional rugby union player . He plays at wing for Saracens . He also plays for the England national rugby sevens team .",
    "/wiki/Phil_Burgess": "Phillip Burgess ( born 1 July 1988 ) is a British rugby sevens player . He competed at the 2016 Summer Olympics in Rio de Janeiro , where he won a silver medal in the men 's tournament with the British team .",
    "/wiki/Dan_Norton": "Dan Norton ( born 22 March 1988 ) is a rugby union player for the England rugby sevens national team . He is the leading all-time try scorer in rugby sevens history with over 350 tries , beating the previous record of 244 held by Kenya 's Collins Injera at the 2017 Hong Kong Sevens tournament . A product of Hartpury College . He played most his career as a winger . Norton was part of the Gloucester academy and dual registered with Moseley for both the 2007/08 and 2008/09 seasons . Moving on to Bristol Bears ( Previously Bristol Rugby ) from the 2009/10 and 2010/11 seasons . He competed at the Rio 2016 Summer Olympics where he scored a try in the final , but was unable to prevent a 43-7 drubbing by Fiji . He helped the England rugby sevens team secure bronze at the 2018 Commonwealth Games in the Gold Coast with a 21-14 win over South Africa and the same side that won silver at the Rugby World Cup Sevens in San Francisco 2018 .",
    "/wiki/James_Rodwell": "James Rodwell ( born 23 August 1984 ) is an English professional rugby sevens player who was part of the national squad from 2008 to 2019 . He ended his career with records as the Worlds most capped sevens player , having played in the most consecutive tournaments ( 69 ) [ citation needed ] and most tournaments ( 93 ) in the World Rugby Sevens Series . James is now Assistant coach for the Mens and Womens England Sevens teams .",
    "/wiki/Tom_Mitchell_(rugby_union,_born_1989)": "Tom Mitchell ( born 22 July 1989 ) is an English rugby union player . He attended leading Worth School in West Sussex and represents England in rugby sevens and won a silver medal representing Great Britain in the 2016 Summer Olympics ; he is also the captain for both teams . He debuted for England at the 2012 Wellington Sevens . Mitchell was the leading scorer in the 2013-14 World Series , with 358 points , helping England to a fourth-place finish in the Series that year . He was one of four nominees for the 2014 World Rugby Sevens Player of the Year award , but the award was captured by Fiji 's Samisoni Viriviri , the leading try scorer on the Series that year . In 2015 he fractured his leg and dislocated his ankle during the 2014-15 Sevens World Series . He was injured during the 2014 Commonwealth Games in a match against Australia . Earlier in his career , while doing a course in Historical Studies at Kellogg College , Oxford , Mitchell played for Oxford University , scoring a try in their victory over Cambridge in the 2011 Varsity Match .",
    "/wiki/Dan_Bibby": "Dan Bibby ( born 6 February 1991 ) is an English rugby sevens player from Aspull , Wigan , Greater Manchester . He currently plays internationally as a fly half for the England national rugby sevens team and the Great Britain national rugby sevens team .",
    "/wiki/Ruaridh_McConnochie": "Ruaridh McConnochie ( born 23 October 1991 ) is a men 's rugby union player . He was a member of the silver medal winning team in Rugby sevens at the 2016 Summer Olympics He had initially been a reserved player. , and a full England International , making his debut against Italy at St James 's Park in September 2019 . McConnochie played rugby at the University of Gloucestershire , as well as playing for Nuneaton RFC between 2012 and 2014 before joining Hartpury College . During his days at Hartpury , McConnochie made his debut for England Sevens debut in 2015 Dubai 7 's , adding to his GB Student 7 's appearance where he won the World University Sevens Championship . He was a silver Olympic medallist with Great Britain at the Rio 2016 Summer Olympics and World Cup finalist with England . A regular try-scorer in the HSBC World Rugby Sevens Series , a year later , Ruaridh played an integral role in Englands gold medal triumph in Cape Town in December 2016 . He also touched down in the 14-12 quarter-final win over New Zealand in Vancouver in March 2017 on the way to Englands gold medal success . On 31 January 2018 , McConnochie signed a professional contract with top English club Bath in the Aviva Premiership from the 2018-19 season . In June 2019 he was one of four uncapped players named in England 's preliminary World Cup training squad . Eddie Jones named McConnochie in the starting line-up to play Wales in England 's first warm-up game but had to withdraw from the line-up with a hip injury , however , he was still named in Jones ' 31-man squad . McConnochie was also named in the second warm-up against Wales before again pulling out through injury . McConnochie was eligible to play for Scotland through his Scottish father , but elected instead to play for his country of birth , England .",
    "/wiki/Henry_H._Glover": "Henry Heath Harry Glover ( c. 1810 - 2 March 1858 ) was an English artist who emigrated to South Australia in 1849 . He is noted for producing what may have been the first lithographs in the young colony . His elder son Henry Heath Glover , Jnr had a career as artist and lithographer in Melbourne , Sydney , and Christchurch , New Zealand ."
  },
  "National_Register_of_Historic_Places_listings_in_Bosque_County,_Texas_0": {
    "/wiki/Clifton,_Texas": "Clifton is the largest city in Bosque County , located in central Texas in the United States . The city 's population was 3,442 at the 2010 census .",
    "/wiki/Meridian,_Texas": "Meridian is a city and the county seat of Bosque County in central Texas , United States . The population was 1,493 at the 2010 census .",
    "/wiki/Texas_Historical_Commission": "The Texas Historical Commission is an agency dedicated to historic preservation within the state of Texas . It administers the National Register of Historic Places for sites in Texas . The commission also identifies Recorded Texas Historic Landmarks ( RTHL ) and recognizes them with Official Texas Historical Marker ( OTHM ) medallions and descriptive plaques . The commission identifies State Archeological Landmarks and Historic Texas Cemeteries . A quarterly publication , The Medallion , is published by the agency and includes news and advice about preservation projects , Texas historic sites , and heritage tourism opportunities . The agency also maintains the online Texas Historic Sites Atlas featuring more than 300,000 site records , including data on Official Texas Historical Markers and National Register of Historic Places properties in Texas . The commission has main offices in the Capitol Complex in downtown Austin ; the complex includes the Carrington-Covert House , Luther Hall , Gethsemane Lutheran Church , Elrose Building , and the Christianson-Leberman Building .",
    "/wiki/Recorded_Texas_Historic_Landmark": "Recorded Texas Historic Landmark ( RTHL ) is a designation awarded by the Texas Historical Commission for historically and architecturally significant properties in the U.S. state of Texas . RTHL is a legal designation and the highest honor the state can bestow on a historic structure . Purchase and display of a historical marker is a required component of the RTHL designation process . Because it is a legal designation , owners of RTHL-designated structures must give 60 days ' notice before any alterations are made to the exterior of the structure . Changes that are unsympathetic may result in removal of the designation and historical marker . There are over 3,600 RTHL structures throughout the state .",
    "/wiki/Mosheim,_Texas": "Mosheim is an unincorporated community in Bosque County in Central Texas . It has a population of around 50 people ."
  },
  "List_of_Australian_Football_League_players_with_200_games_for_one_club_0": {
    "/wiki/Andrew_McLeod": "Andrew Luke McLeod ( born 4 August 1976 ) is a former professional Australian rules footballer who played for the Adelaide Football Club in the Australian Football League ( AFL ) . He is the games record holder for Adelaide , having played 340 games . McLeod is considered one of the greatest footballers of all time and is often considered by many as the greatest player of the Adelaide Football Club . Mcleod won two premierships for the Adelaide Football Club in 1997 and 1998 . He was also awarded the Norm Smith Medal for best on ground in the 1997 and 1998 AFL grand finals .",
    "/wiki/Tyson_Edwards": "Tyson Edwards ( born 6 August 1976 ) is a former Australian rules footballer with the Adelaide Football Club in the Australian Football League ( AFL ) . Raised in the small Mallee town of Wynarka , around 120 km from Adelaide , he is widely regarded as one of the most consistent and durable players in the game . Between the ages of 11 and 15 , Edwards ' mother Jan would drive him the 250 km round trip to Adelaide at least twice a week so that he could train with West Adelaide 's junior teams . He is married to Mandy with three sons : Jackson , Luke , and Brodie . Recruited from West Adelaide in the SANFL , Edwards made his AFL debut in 1995 and has since established himself as one of the AFL 's most consistent and underrated midfielders . This is to such an extent that he has not won any of the AFL 's major awards , or even a club best and fairest award ; his greatest honour to date has been featuring in Adelaide 's 1997 and 1998 premiership sides . In 2008 , he placed 4th in the Crows Club Champion voting with 137 again highlighting his consistency within the playing group . Edwards played his 300th game for the Adelaide Crows against Essendon in Round 11 , 2009 . The Crows won the match 21.4 ( 130 ) - 18.6 ( 114 ) , and Edwards celebrated by gathering an equal-career-best 41 possessions . Four games later , he and dual-premiership teammate Andrew McLeod played their 290th match together , setting a new VFL/AFL record in the process ; they extended this record to 307 games , which , as of the end of Season 2018 , remains the league record . On 27 May 2010 , Edwards announced his retirement from the AFL , effective immediately , after being dropped from the Adelaide side . Coach Neil Craig later agreed to allow Edwards a farewell game , his 321st , the next week against Fremantle in Adelaide .",
    "/wiki/Mark_Ricciuto": "Mark Anthony Ricciuto ( /r\u026a\u02c8\u0283u\u02d0to\u028a/ ri-SHOO-toh ; born 8 June 1975 ) is a former Australian rules footballer who played for the Adelaide Football Club in the Australian Football League ( AFL ) . From Waikerie , South Australia , Ricciuto started as a junior with the local Waikerie Magpies Football Club . He joined the West Adelaide Football Club in the South Australian National Football League ( SANFL ) , making his debut at the age of 16 , before being recruited by Adelaide as a zone selection prior to the 1993 season . Playing as a midfielder , he established himself in Adelaide 's side , receiving a nomination for the AFL Rising Star in 1993 , his debut season , and being named in the All-Australian team the following season , the first of eight selections overall . Having played in Adelaide 's premiership side in 1998 , also winning the Malcolm Blight Medal as the club 's best and fairest , Ricciuto replaced Mark Bickley as the club 's captain prior to the 2001 season . Consistently considered one of the best midfielders in the competition during the early 2000s ( decade ) , Ricciuto shared the 2003 Brownlow Medal with Nathan Buckley and Adam Goodes , and was selected in the All-Australian team for four consecutive seasons between 2002 and 2005 , captaining the side in both 2004 and 2005 . Having played more of a forward role in his last two seasons , Ricciuto retired at the end of the 2007 season , having played a total of 312 games for Adelaide , kicking 292 goals . Also representing South Australia in interstate football and Australia in the International Rules Series , Ricciuto was inducted into the Australian Football Hall of Fame in 2011 , and the South Australian Football Hall of Fame in 2012 .",
    "/wiki/Ben_Hart": "Benjamin Hart ( born 9 July 1974 ) is a former professional Australian rules footballer who played for the Adelaide Football Club in the Australian Football League . He was an assistant coach with the Collingwood Football Club from 2012 to 2016 .",
    "/wiki/Nigel_Smart": "Nigel James Smart ( born 21 May 1969 ) is a former professional Australian rules footballer who played for the Adelaide Football Club in the Australian Football League ( AFL ) . Smart played most of his career in defence and became a crowd favourite , easily identifiable with his bald head and goatee .",
    "/wiki/Simon_Goodwin": "Simon Goodwin ( born 26 December 1976 in Adelaide , South Australia ) is the senior coach of the Melbourne Football Club . He is a retired professional Australian rules footballer , a former dual premiership player for the Adelaide Crows , a multi-times All-Australian player and a former captain of the Adelaide Crows . Goodwin played a total of 275 senior games in his AFL career , all for the Adelaide Crows .",
    "/wiki/Mark_Bickley": "Mark Alan Bickley ( born 4 August 1969 ) is a former professional Australian rules footballer who played for the Adelaide Football Club in the Australian Football League ( AFL ) . Bickley was a player for the Crows from 1991 until 2003 , captaining the team to both the 1997 and 1998 AFL premierships . He was a media commentator , most notably with Channel 9 in Adelaide as their sports presenter . In 2011 he had a brief coaching career as caretaker coach of the Crows after the retirement of Neil Craig .",
    "/wiki/Scott_Thompson_(footballer,_born_1983)": "Scott Thompson ( born 14 March 1983 ) is a former Australian rules footballer who played for the Melbourne Football Club and Adelaide Football Club in the Australian Football League ( AFL ) . He was drafted by Melbourne with pick 16 in the 2000 national draft from Port Adelaide in the SANFL , and was traded to Adelaide after the 2004 season . He is currently an assistant coach at the Port Adelaide Football Club .",
    "/wiki/Richard_Douglas_(footballer)": "Richard Joseph Edwin Douglas ( born 6 February 1987 ) is a former professional Australian rules football player who played for the Adelaide Football Club in the Australian Football League ( AFL ) . He was drafted by Adelaide with pick 16 in the 2005 national draft .",
    "/wiki/Michael_Doughty_(Australian_footballer)": "Michael Doughty ( born 5 August 1979 ) is an Australian rules footballer who played for the Adelaide Football Club in the Australian Football League ( AFL ) between 2000 and 2012 . He is now playing for Reynella Football Club in the Southern Football League , where he played junior football . Originally from South Adelaide Football Club in the South Australian National Football League ( SANFL ) , Doughty was drafted by Adelaide with their first choice ( fourth overall ) at the 1999 Rookie Draft and elevated to Adelaide 's senior list in 2000 when he made his senior AFL debut . Known as a solid utility player , Doughty has most often used as a midfielder , tagger or a small defender . Doughty played his 150th game in round 8 , 2009 and his 200th game in Round 15 , 2011 . Adelaide defeated Sydney by seven points to end a record-equalling six-match losing streak in this match . He retired at the end of the 2012 season , having played in 24 of Adelaide 's 25 matches , only missing one game when his wife Sara gave birth to his son , Max . He joined sports management company Elite Sports Properties as a player manager after retiring as a player .",
    "/wiki/Ben_Rutten": "Benjamin Truck Rutten ( born 28 May 1983 ) is a former Australian rules footballer who played for the Adelaide Football Club in the Australian Football League ( AFL ) . He was known for his size , strength and ability to contain some of the game 's best forwards .",
    "/wiki/Graham_Johncock": "Graham Johncock ( born 21 October 1982 ) is a former professional Australian rules footballer who played for the Adelaide Football Club in the Australian Football League ( AFL ) . Johncock is an Indigenous Australian from Port Lincoln in South Australia where he currently resides with his partner and three children . Johncock is currently a player at the Mallee Park Football Club .",
    "/wiki/Nathan_Bassett": "Nathan Bassy Bassett ( born 7 December 1976 in Adelaide , South Australia ) is a former Australian rules footballer for the Adelaide Football Club in the Australian Football League ( AFL ) . He is currently an assistant coach with the Port Adelaide Football Club .",
    "/wiki/Nathan_van_Berlo": "Nathan van Berlo ( born 6 June 1986 ) is a former professional Australian rules football player who played for the Adelaide Football Club in the Australian Football League ( AFL ) . He was drafted by the club with pick 24 in the 2004 National Draft . He was the captain of the Adelaide Football Club from 2011 until 2014 . His younger brother , Jay van Berlo , played 32 matches in four years for . Van Berlo has Dutch heritage , and his parents were born in New Zealand .",
    "/wiki/Brent_Reilly": "Brent Reilly ( born 12 November 1983 ) is a former professional Australian rules footballer who played for the Adelaide Football Club in the Australian Football League ( AFL ) . He was recruited by the club with draft pick # 12 in the 2001 National Draft . He retired on 13 May 2015 after suffering a fractured skull in a training mishap earlier in the year . He played 203 games for the Crows .",
    "/wiki/David_Mackay_(footballer)": "David Mackay ( born 25 July 1988 ) is a professional Australian rules football player who plays for the Adelaide Football Club in the Australian Football League ( AFL ) . He was drafted by the club at pick 48 in the 2006 National Draft ."
  },
  "List_of_Gaylactic_Spectrum_Award_winners_and_nominees_for_best_novel_0": {
    "/wiki/1999_in_literature": "This article presents lists of the literary events and publications in 1999 .",
    "/wiki/Anne_Harris_(author)": "Anne Harris is an American science fiction author from Michigan .",
    "/wiki/Tor_Books": "Tor Books is the primary imprint of Tom Doherty Associates , a publishing company based in New York City . It primarily publishes science fiction and fantasy titles , and publishes the online science fiction magazine Tor.com .",
    "/wiki/Stephen_Leigh": "Stephen W. Leigh ( born February 27 , 1951 ) is an American science fiction and fantasy writer , artist , and musician . He also works as a lecturer at Northern Kentucky University , teaching creative writing . He has published speculative fiction as Stephen Leigh , as S. L. Farrell , and once as Matthew Farrell . Steve Leigh was born in Cincinnati , Ohio , and lives there .",
    "/wiki/Avon_(publisher)": "Avon Publications is one of the top most publishers of romance fiction . At Avon 's initial stages , it was an American paperback book and comic book publisher . The shift in content occurred in the early 1970s with multiple Avon romance titles reaching and maintaining spots in bestseller lists , demonstrating the market and potential profits in romance publication . As of 2010 , Avon is an imprint of HarperCollins .",
    "/wiki/HarperCollins": "HarperCollins Publishers L.L.C . is one of the world 's largest publishing companies and is one of the Big Five English-language publishing companies , alongside Penguin Random House , Simon & Schuster , Hachette , and Macmillan . The company is headquartered in New York City and is a subsidiary of News Corp . The name is a combination of several publishing firm names : Harper & Row , an American publishing company acquired in 1987 ( whose own name was the result of an earlier merger of Harper & Brothers ( founded 1817 ) and Row , Peterson & Company ) , together with UK publishing company William Collins , Sons ( founded 1819 ) , acquired in 1990 . The worldwide CEO of HarperCollins is Brian Murray . HarperCollins has publishing groups in the United States , Canada , the United Kingdom , Australia , New Zealand , India , and China . The company publishes many different imprints , both former independent publishing houses and new imprints .",
    "/wiki/Carolyn_Ives_Gilman": "Carolyn Ives Gilman ( born 1954 ) is a historian and author of science fiction and fantasy . She has been nominated for the Nebula Award three times , and the Hugo Award twice . Her short fiction has been published in a number of magazines and publications , including Fantasy and Science Fiction , Interzone , Realms of Fantasy and Full Spectrum , along with a number of year 's best anthologies . She is also the author of science fiction novels such as Halfway Human , which is noted for its groundbreaking exploration of gender .",
    "/wiki/Nancy_Kress": "Nancy Anne Kress ( born January 20 , 1948 ) is an American science fiction writer . She began writing in 1976 but has achieved her greatest notice since the publication of her Hugo and Nebula-winning 1991 novella Beggars in Spain , which she later expanded into a novel with the same title . She has also won the Nebula Award for Best Novella in 2013 for After the Fall , Before the Fall , During the Fall , and in 2015 for Yesterday 's Kin . In addition to her novels , Kress has written numerous short stories and is a regular columnist for Writer 's Digest . She is a regular at Clarion writing workshops . During the Winter of 2008/09 , Nancy Kress was the Picador Guest Professor for Literature at the University of Leipzig 's Institute for American Studies in Leipzig , Germany .",
    "/wiki/Fiona_Patton": "Fiona Patton ( born 1962 ) is a Canadian fantasy author . Born in Calgary , Alberta , Patton moved to the United States in 1966 . In 1975 , she returned to Canada with her family , settling in Toronto . In 1992 , she moved with wife Tanya Huff to rural Ontario . She currently works as a counsellor for the developmentally handicapped .",
    "/wiki/DAW_Books": "DAW Books is an American science fiction and fantasy publisher , founded by Donald A. Wollheim following his departure from Ace Books in 1971 . The company claims to be the first publishing company ever devoted exclusively to science fiction and fantasy . The first DAW Book published was the 1972 short story collection Spell of the Witch World , by Andre Norton . In its early years under the leadership of Wollheim and his wife Elsie , DAW gained a reputation of publishing popular , though not always critically acclaimed , works of science fiction and fantasy . Nevertheless , in the 1970s the company published numerous books by award-winning authors such as Marion Zimmer Bradley , Fritz Leiber , Edward Llewellyn , Jerry Pournelle , Roger Zelazny , and many others . In 1982 , C. J. Cherryh 's Downbelow Station was the first DAW book to win the Hugo Award for best novel . Until June 1984 , all DAW books were characterized by yellow spines , and a prominent yellow cover box containing the company 's logo as well as a chronological publication number . When the design was changed , the chronological number was retained , but moved to the copyright page and renamed the DAW Collectors ' Book Number . Although it has a distribution relationship with Penguin Group and is headquartered in Penguin USA 's offices , DAW is editorially independent and closely held by its current publishers , Betsy Wollheim ( Donald 's daughter ) and Sheila E. Gilbert . The company 's offices are in New York City .",
    "/wiki/2000_in_literature": "This article presents lists of the literary events and publications in 2000 .",
    "/wiki/Keith_Hartman": "Keith Hartman ( born 1966 ) is an American writer of speculative fiction and a self-described struggling film-maker . He has also written non-fiction books on gay and lesbian issues . He has been nominated a number of times for the Gaylactic Spectrum Awards and Lambda Literary Award for LGBT literature .",
    "/wiki/Meisha_Merlin_Publishing": "Meisha Merlin Publishing was an independent publishing company founded in 1996 by former New York book editor Stephen Pagel and Kevin and Brian Murphy . The Decatur , Georgia-based company specialized in publishing fantasy and science fiction trade hardcover and trade paperback books . Certain titles were also published in deluxe , signed and numbered slipcased and signed and lettered limited editions . During their nine years of operation , Meisha Merlin built a large stable of fantasy and science fiction authors that included Kevin J. Anderson , Janny Wurts , Jack McDevitt , the late Robert Lynn Asprin , Robin Wayne Bailey , Storm Constantine , S. P. Somtow , Lee Killough , Phyllis Eisenstein , Allen Steele , Andre Norton , George R. R. Martin , Robert A. Heinlein , and many others . Their books were sold online and through national chain bookstores and independent booksellers throughout the United States , including Internet giant Amazon.com . In April 2007 Meisha Merlin announced on their website that they would cease operations the following month ; no further business details were disclosed .",
    "/wiki/Peg_Kerr": "Peg Kerr ( born 28 April of undisclosed year ) is an American fantasy author .",
    "/wiki/Hachette_Book_Group": "Hachette Book Group ( HBG ) is a publishing company owned by Hachette Livre , the largest publishing company in France , and the third largest trade and educational publisher in the world . Hachette Livre is a wholly owned subsidiary of Lagard\u00e8re Group . HBG was formed when Hachette Livre purchased the Time Warner Book Group from Time Warner on March 31 , 2006 . Its headquarters are located at 1290 Avenue of the Americas , Midtown Manhattan , New York City . Hachette is considered one of the big-six publishing companies , along with Holtzbrinck/Macmillan , Penguin Random House , HarperCollins , Scholastic , and Simon & Schuster . In one year , HBG publishes approximately 1400+ adult books ( including 50-100 digital-only titles ) , 300 books for young readers , and 450 audio book titles ( including both physical and downloadable-only titles ) . In 2016 , the company had 214 books on the New York Times bestseller list , 44 of which reached # 1 .",
    "/wiki/Severna_Park_(writer)": "Severna Park ( born 1958 ) , real name Suzanne Feldman , is an American science fiction author and winner of the Nebula Award for Best Short Story ( The Cure For Everything , 2001 ) . Her first novel , Speaking Dreams from 1992 , was a Lambda Literary Award nominee . She was long-listed for James Tiptree Jr. Award in 1994 ( Amazons ) and short-listed in 1998 ( Hand of Prophecy ) and 2000 ( The Annunciate ) . She now writes mainstream fiction . Employed as a teacher , she lives with her partner of twenty-five years in Maryland .",
    "/wiki/Tanya_Huff": "Tanya Sue Huff ( born 1957 ) is a Canadian fantasy author . Her stories have been published since the late 1980s , including five fantasy series and one science fiction series . One of these , her Blood Books series , featuring detective Vicki Nelson , was adapted for television under the title Blood Ties .",
    "/wiki/Lynn_Flewelling": "Lynn Flewelling ( born Lynn Elizabeth Beaulieu on October 20 , 1958 ) is an American fantasy fiction author .",
    "/wiki/Traitor's_Moon": "Traitor 's Moon is a fantasy novel by American writer Lynn Flewelling , the third book in Nightrunner series . It is preceded by Luck in the Shadows and Stalking Darkness and followed by Shadows Return and The White Road .",
    "/wiki/Bantam_Spectra": "Bantam Spectra is the science fiction division of American publishing company Bantam Books , which is owned by Random House . According to their website , Spectra publishes science fiction , fantasy , horror , and speculative novels from recognizable authors . Spectra authors have collectively won 31 such awards in the fields of science fiction and fantasy , and been nominated on 132 occasions . These authors include :",
    "/wiki/2001_in_literature": "This article presents lists of the literary events and publications in 2001 .",
    "/wiki/David_Gerrold": "David Gerrold ( born January 24 , 1944 ) is an American science fiction screenwriter and novelist . He wrote the script for the original Star Trek episode The Trouble with Tribbles , created the Sleestak race on the TV series Land of the Lost , and wrote the novelette The Martian Child , which won both Hugo and Nebula Awards , and was adapted into a 2007 film starring John Cusack .",
    "/wiki/The_Dingilliad": "The Dingilliad is a series of science fiction novels by the author David Gerrold . The trilogy is published under the title The Far Side of the Sky . It is also known as The Starsiders Trilogy , although The Dingilliad is the name given by the author . The latter refers to Dingillian , the surname of the family of main characters , and is a pun on the Iliad . The books are often compared to Robert A. Heinlein 's juvenile novels . The books in the series include : Jumping Off the Planet ( 2000 ) , Bouncing Off the Moon ( 2001 ) and Leaping to the Stars ( 2002 ) . A future fourth book has been mooted by the author .",
    "/wiki/Michael_Chabon": "Michael Chabon ( /\u02c8\u0283e\u026ab\u0252n/ SHAY-bon ; born May 24 , 1963 ) is an American novelist , screenwriter , columnist and short story writer . Chabon 's first novel , The Mysteries of Pittsburgh ( 1988 ) , was published when he was 25 . He followed it with Wonder Boys ( 1995 ) , and two short-story collections . In 2000 , Chabon published The Amazing Adventures of Kavalier & Clay , a novel that John Leonard , in a 2007 review of a later novel , called Chabon 's magnum opus . It received the Pulitzer Prize for Fiction in 2001 . His novel The Yiddish Policemen 's Union , an alternate history mystery novel , was published in 2007 and won the Hugo , Sidewise , Nebula and Ignotus awards ; his serialized novel Gentlemen of the Road appeared in book form in the fall of that same year . In 2012 Chabon published Telegraph Avenue , billed as a twenty-first century Middlemarch , concerning the tangled lives of two families in the Bay Area of San Francisco in the year 2004 . Chabon followed Telegraph Avenue in November 2016 with his latest novel , Moonglow , a fictionalized memoir of his maternal grandfather , based upon his deathbed confessions under the influence of powerful painkillers in Chabon 's mother 's California home in 1989 . Chabon 's work is characterized by complex language , the frequent use of metaphor along with recurring themes , including nostalgia , divorce , abandonment , fatherhood , and most notably issues of Jewish identity . He often includes gay , bisexual , and Jewish characters in his work . Since the late 1990s , Chabon has written in an increasingly diverse series of styles for varied outlets ; he is a notable defender of the merits of genre fiction and plot-driven fiction , and , along with novels , he has published screenplays , children 's books , comics , and newspaper serials .",
    "/wiki/The_Amazing_Adventures_of_Kavalier_&_Clay": "The Amazing Adventures of Kavalier & Clay is a 2000 novel by Jewish American author Michael Chabon that won the Pulitzer Prize for Fiction in 2001 . The novel follows the lives of two Jewish cousins , Czech artist Joe Kavalier and Brooklyn-born writer Sammy Clay , before , during , and after World War II . In the novel , Kavalier and Clay become major figures in the comics industry from its nascency into its Golden Age . Kavalier & Clay was published to nearly unanimous praise and became a New York Times Best Seller , receiving nominations for the 2000 National Book Critics Circle Award and PEN/Faulkner Award for Fiction . In 2006 , Bret Easton Ellis declared the novel one of the three great books of my generation , and in 2007 , The New York Review of Books called the novel Chabon 's magnum opus . The novel 's publication was followed by several companion projects , including two short stories published by Chabon that consist of material apparently written for the novel but not included : The Return of the Amazing Cavalieri in McSweeney 's Quarterly Concern ( 2001 ) , and Breakfast in the Wreck in The Virginia Quarterly Review ( 2004 ) . In 2004 , a coda to the novel was published separately under the title A Postscript , in Zap ! Pow ! Bam ! The Superhero : The Golden Age of Comic Books , 1938-1950 . From 2004 to 2006 , Dark Horse Comics published two series of Escapist comic books based on the superhero stories described in the novel , some of which were written by Chabon . Dark Horse Comics also published a sequel to the novel , The Escapists , written by Brian K. Vaughan .",
    "/wiki/Random_House": "Random House is an American book publisher and the largest general-interest paperback publisher in the world . It is part of Penguin Random House , which is owned by German media conglomerate Bertelsmann .",
    "/wiki/Ricardo_Pinto_(novelist)": "Ricardo Pinto ( born 1961 in Lisbon , Portugal ) is a computer game programmer and fantasy novelist .",
    "/wiki/The_Chosen_(Pinto_novel)": "The Chosen is a 1999 fantasy novel by Ricardo Pinto . It is the first book in The Stone Dance of the Chameleon trilogy , which concerns the harrowing experiences of the young and inexperienced heir to a ruling dynasty who is suddenly taken from his protected childhood and thrust into a cruel society where he must fight for his family honour , his position and his life . A 2000 Locus poll ranked The Chosen 14th in the Best First Novel category .",
    "/wiki/Melissa_Scott": "Melissa Scott ( born 1960 , Little Rock , Arkansas ) is an American science fiction and fantasy author noted for her science fiction novels featuring LGBT characters and elaborate settings .",
    "/wiki/Jim_Grimsley": "Jim Grimsley ( born September 21 , 1955 ) is an American novelist and playwright .",
    "/wiki/Greg_Egan": "Greg Egan ( born 20 August 1961 ) is an Australian science fiction writer and amateur mathematician , best known for his works of hard science fiction . Egan has won multiple awards including the John W. Campbell Memorial Award , the Hugo Award , and the Locus Award .",
    "/wiki/Teranesia": "Teranesia is a 1999 science fiction novel by Greg Egan . The novel won the 2000 Ditmar Award for Best Novel but Egan declined to accept the award .",
    "/wiki/2002_in_literature": "This article presents lists of the literary events and publications in 2002 .",
    "/wiki/Hugh_Nissenson": "Hugh Nissenson ( March 10 , 1933 in New York City - December 13 , 2013 in Manhattan ) was an American author . Nissenson drew heavily on his Jewish background in his writing , exploring themes of mysticism , Israel , and the Holocaust .",
    "/wiki/Workman_Publishing_Company": "Workman Publishing Company is an independent publisher of trade books and calendars , known primarily for non-fiction books along with calendars . Located in New York City , New York , US , the company includes several imprints with offices located throughout the United States . Peter Workman founded the company in 1968 when he published the book Yoga 28-Day Exercise Plan . As of July 2007 , two-thirds of the books published by the company remained in print ."
  }
}