{
  "List_of_largest_United_States-based_law_firms_by_profits_per_partner_0": {
    "/wiki/Wachtell,_Lipton,_Rosen_&_Katz": "Wachtell , Lipton , Rosen & Katz is a law firm which operates out of a single office in New York City . The firm is known for business law , regularly handling the largest and most complex transactions .",
    "/wiki/Kirkland_&_Ellis": "Kirkland & Ellis LLP , sometimes referred to as Kirkland , is an international law firm founded in 1909 in Chicago , Illinois , United States . Kirkland is the largest law firm in the United States , with US $ 3.76 billion in revenue , and an estimated profit per equity partner of US $ 5.03 million . Kirkland has represented many prominent and controversial clients , such as British Petroleum ( in relation to the 2010 Deepwater oil spill ) , Kraft foods ( in relation to its merger with Heinz ) , billionaire and child-sex trafficker Jeffrey Epstein , and a group of major investors in the international fishmeal industry , in relation to their claims against China Fishery . Prominent attorneys of the firm have included Supreme Court Justice Brett Kavanaugh ; former White House Counsel Neil Eggleston ; former appellate court Judge Robert Bork ; Clinton-era Special Counsel Ken Starr ; and various Trump administration officials , including National Security Adviser John R. Bolton , Attorney General William Barr , former Secretary of Labor Alexander Acosta , and Secretary of Health and Human Services Alex Azar . Kirkland is the largest law firm in the United States by revenue ( US $ 3.76 billion in 2018 ) , and the seventh largest in terms of number of attorneys ( 2,307 in 2019 ) .",
    "/wiki/Paul,_Weiss,_Rifkind,_Wharton_&_Garrison": "Paul , Weiss , Rifkind , Wharton & Garrison LLP ( known as Paul , Weiss ) is an international law firm headquartered on Sixth Avenue in New York City . In addition to its headquarters in New York , the firm maintains offices in Washington , D.C. , Wilmington , Delaware , Toronto , London , Tokyo , Beijing , and Hong Kong .",
    "/wiki/Cravath,_Swaine_&_Moore": "Cravath , Swaine & Moore LLP ( known as Cravath ) is an American law firm with its headquarters in New York City , and an additional office in London .",
    "/wiki/Quinn_Emanuel_Urquhart_&_Sullivan": "Quinn Emanuel Urquhart & Sullivan , LLP is a global white shoe law firm headquartered in Los Angeles , California . The firm employs 800 attorneys throughout 22 offices around the world .",
    "/wiki/Sullivan_&_Cromwell": "Sullivan & Cromwell LLP is an international law firm headquartered in New York City .",
    "/wiki/Davis_Polk_&_Wardwell": "Davis Polk & Wardwell LLP , commonly known as Davis Polk , is an international law firm headquartered in New York City with 982 attorneys worldwide , with offices in Washington , D.C. , Northern California , London , Paris , Madrid , Hong Kong , Beijing , Tokyo and S\u00e3o Paulo .",
    "/wiki/Simpson_Thacher_&_Bartlett": "Simpson Thacher & Bartlett LLP is an international law firm headquartered in New York City , employing over 900 attorneys in eleven offices worldwide . The firm specializes in a variety of areas in both litigation and corporate practices , with a focus on mergers and acquisitions .",
    "/wiki/Cahill_Gordon_&_Reindel": "Cahill Gordon & Reindel LLP ( founded 1919 ) is a prominent New York-based international law firm with offices in New York , Washington , D.C. and London . According to The American Lawyer , Cahill 's gross revenue was $ 348.5 million in 2013 .",
    "/wiki/Weil,_Gotshal_&_Manges": "Weil , Gotshal & Manges LLP , headquartered in New York City , is an American international law firm with over 1,000 attorneys . With a gross annual revenue in excess of $ 1.1 billion , it is amongst the world 's most profitable law firms according to The American Lawyer 's AmLaw 100 survey .",
    "/wiki/Milbank_LLP": "Milbank LLP ( commonly known as Milbank ) is an international law firm headquartered in New York City . It also has offices in Washington , D.C. , Los Angeles , London , Frankfurt , Munich , Tokyo , Hong Kong , S\u00e3o Paulo , Seoul , Singapore and Beijing .",
    "/wiki/Skadden": "Skadden , Arps , Slate , Meagher & Flom LLP and Affiliates , commonly known as Skadden or sometimes Skadden Arps , is an international law firm based in New York City .",
    "/wiki/Latham_&_Watkins": "Latham & Watkins LLP is an international law firm founded in 1934 , and currently employs approximately 2,600 attorneys in the United States , Europe , the Middle East and Asia .",
    "/wiki/Gibson,_Dunn_&_Crutcher": "Gibson , Dunn & Crutcher LLP is a global law firm , founded in Los Angeles in 1890 . The firm includes approximately 1,200 attorneys and 1,000 staff located in 20 offices around the world , including North and South America , Europe , Asia , and the Middle East .",
    "/wiki/Boies_Schiller_Flexner_LLP": "Boies Schiller Flexner LLP is a national law firm based in New York City . The firm was founded by David Boies and Jonathan D. Schiller in 1997 , and in 1999 , the founders were joined by Donald L. Flexner , former partner with Crowell & Moring , forming Boies , Schiller & Flexner . The firm has become known for its involvement in high-profile litigation , having represented the Department of Justice in the antitrust action United States v. Microsoft , as well as Vice President Gore in the Supreme Court case Bush v. Gore . More recently , Boies successfully challenged the constitutionality of California 's Proposition 8 in Perry v. Brown , and represented the National Football League in the antitrust litigation initiated by the players ' union . The firm has drawn controversy for its aggressive tactics during representation of Harvey Weinstein amidst sexual abuse allegations and the now-defunct blood testing startup Theranos .",
    "/wiki/Cleary_Gottlieb_Steen_&_Hamilton": "Cleary Gottlieb Steen & Hamilton LLP , ( known as Cleary Gottlieb ) , is an international white shoe law firm headquartered at One Liberty Plaza in New York City . The firm currently has offices in Washington , D.C. , Hong Kong , Beijing , London , Rome , Milan , Brussels , Moscow , Frankfurt , Cologne , Paris , Buenos Aires , S\u00e3o Paulo , Abu Dhabi , and Seoul . It employs over 1,200 lawyers worldwide . It was the first U.S. firm qualified to practice law in Japan , and has represented governments throughout Latin America .",
    "/wiki/Willkie_Farr_&_Gallagher": "Willkie Farr & Gallagher LLP , commonly known as Willkie , is an international law firm founded in 1888 . It has over 700 lawyers , in 11 offices in six countries ( including offices in New York , Washington , D.C. , Houston , Palo Alto , San Francisco , Paris , London , Rome , Milan , Frankfurt , and Brussels ) . The firm specializes in corporate practice . Supreme Court Justices Felix Frankfurter and Charles Evans Hughes began their careers at the firm , as did former Supreme Court nominee Robert Bork , and former New York Governor Mario Cuomo served as of counsel at Willkie Farr after leaving office . The law firm 's profits per equity partner were $ 2.97 million in 2018 , 17th-highest in the nation .",
    "/wiki/Fried,_Frank,_Harris,_Shriver_&_Jacobson": "Fried , Frank , Harris , Shriver & Jacobson LLP , ( known as Fried Frank ) , is an international white shoe law firm with offices in New York City , Washington , DC , London , and Frankfurt . The firm was founded in New York City and currently employs more than 500 attorneys worldwide .",
    "/wiki/Debevoise_&_Plimpton": "Debevoise & Plimpton LLP ( often shortened to Debevoise ) is one of the leading global law firms based in New York City . It is also one of the most prestigious US White-shoe law firms . Founded in 1931 by Harvard Law School alumnus Eli Whitney Debevoise and Oxford-trained William Stevenson , Debevoise specializes in strategic and private equity , M & A , insurance and financial services transactions , private funds , complex litigation , investigations and international arbitration . It is regarded as one of the most prestigious , selective , and successful international law firms in the world .",
    "/wiki/Paul_Hastings": "Paul Hastings LLP , formerly known as Paul , Hastings , Janofsky & Walker LLP , is an international law firm with 22 offices worldwide . Paul Hastings serves a diverse client base that includes many of the top financial institutions and Fortune 500 companies . Originally known as a California based firm focusing on labor and employment , the firm now has wide-ranging work in many practice areas and sectors throughout the globe . It is one of the largest law firms in the United States , with over $ 1.22 billion of revenue in 2018 ."
  },
  "List_of_Australian_Football_League_players_with_200_games_for_one_club_2": {
    "/wiki/Craig_Bradley": "Craig Edwin Bradley ( born 23 October 1963 ) is a former professional Australian rules footballer and first-class cricketer . He is the games record holder at Carlton in the AFL/VFL , and in elite Australian rules football ( the AFL/VFL , SANFL and WAFL ) .",
    "/wiki/Bruce_Doull": "Bruce Doull ( born 11 September 1950 in Geelong , Victoria ) is a former Australian rules football player who played for the Carlton Football Club . Wearing guernsey number 11 and nicknamed the Flying Doormat due to the matted appearance of the constantly disarranged long portions of his extreme combover hairstyle . He was recruited from Jacana at the age of 19 as a half-back flanker . Doull was a safe mark , a dependable kick , and a footballer who rarely made a mistake . Doull , shy and extremely reserved , did not give interviews ; instead , he always preferred to stay in the background . He won Carlton 's Best & Fairest in 1974 , 1977 , 1980 , and 1984 ; played in four Carlton premiership sides : 1972 , 1979 , 1981 , and 1982 ; won the Norm Smith Medal in 1981 ; and also played in the losing Grand Finals of 1973 and 1986 . Doull was also a regular State of Origin representative . In 2009 , The Australian nominated Doull as one of the 25 greatest footballers never to win a Brownlow Medal . He is often remembered as being harassed by Carlton scarf-wearing streaker Helen D'Amico in the 1982 Grand Final between Carlton and Richmond . This incident was the focus of an installment of the Toyota Memorable Moments advertisement ( with D'Amico appearing at the end ) , and is captured in Jamie Cooper 's painting the Game That Made Australia , commissioned by the AFL in 2008 to celebrate the 150th anniversary of the sport , Both Doull and D'Amico posed for a photo together 25 years later , making it clear they had long since settled their disagreements . Doull 's trademark was his greying beard and the navy blue and white headband with which kept his thinning long hair in place . Never reported by the umpires for foul play , he was noted for his determination to play the ball rather than the man , which was rare in an era of occasionally brutal clashes .",
    "/wiki/John_Nicholls_(footballer)": "John Nicholls ( born 13 August 1939 ) is a former Australian rules footballer who represented Carlton in the Victorian Football League ( VFL ) . Nicholls is widely regarded as one of Australian football 's greatest players . He was the first Carlton footballer to play 300 games for the Blues , and was declared the club 's greatest player . He represented Victoria a record 31 times in interstate football , and was named as one of the inaugural Legends when the Australian Football Hall of Fame was established in 1996 . Nicholls played most of his football as a ruckman , and although at 189 centimetres he was not especially tall , he compensated his lack of height with his intelligence and imposing physical presence , which earned him the nickname 'Big Nick ' . His rivalry with fellow Australian football legend Graham Farmer raised the standard of ruck play during the 1960s .",
    "/wiki/Kade_Simpson": "Kade Simpson ( born 5 May 1984 ) is an Australian rules footballer , currently playing with the Carlton Football Club in the Australian Football League . Simmo was drafted in the fourth round of the 2002 AFL Draft . He was Carlton 's first pick in that year 's draft , after the club was stripped of its higher selections as punishment for salary cap infringements . Carlton were so fortunate to have picked Simpson in the first place anyway , given his skills were immediately apparent , but he did not have enough weight to play regular seniors in his first two seasons ; even now , his weight is a relatively light 79 kg . He played primarily for Carlton 's , the Northern Bullants , in his first two years , and on his few selections in the Carlton senior team , received so little ground time that he did not have a disposal in his first three games . Simpson first broke into the senior team as a regular in the latter half of 2005 . Still eligible for the AFL Rising Star in his third season on the list , Simpson was nominated in Round 18 . He played nine of the last 10 games of the season , missing one game through injury , and his pace and skill began to attract attention . Simpson took a big step up in the 2006 season , being elevated to the leadership group and running 4th in the best and fairest . He played every game , mainly as a running link-man from half-back . He finished in the top 5 in the AFL for running bounces , which was typical of his rebound play , averaged 19 disposals with a maximum of 30 , and eleven goals . This style of running play prompted Kevin Sheedy to select Simpson for the Australian International Rules team for the 2006 tour of Ireland , and Mick Malthouse to do likewise for in 2008 , a series in which he won the Jim Stynes Medal .",
    "/wiki/Stephen_Silvagni": "Stephen Silvagni ( born 31 May 1967 ) is a former Australian rules footballer who represented in the Australian Football League ( AFL ) . As the second member of three generations of Silvagni 's represent the Blues , he is regarded as one of the greatest ever full-backs to play the game and was named as full-back in the AFL Team of the Century and is an inductee in the Australian Football Hall of Fame . Prior to 1985 he captained the undefeated Marcellin College 1st XVIII that won both the 1984 Associated Grammar Schools premiership , and the coveted Herald Shield Cup then played under lights at Waverley Park . He is widely known by his nickname , SOS ( pronounced Soss ) , standing for Son of Serge , referring to his father , Sergio Silvagni , another great Carlton player . After retiring from football , Silvagni has worked as an assistant coach and list manager at several AFL clubs . He is currently the list manager at Carlton Football Club .",
    "/wiki/Justin_Madden": "Justin Mark Madden AM ( born 31 May 1961 ) is an Australian politician and former Australian rules footballer . He rose to prominence as a highly successful player with the Carlton Football Club , after an early stint with Essendon . He entered politics after retiring in 1997 from AFL . He has held seven Ministerial portfolios since the Victorian Labor Party took government at the 1999 election . Madden was Minister for Youth Affairs and Minister Assisting the Minister for Planning from 1999-2002 , Minister for Sport and Recreation from October 1999 to December 2006 , Minister for Commonwealth Games from February 2002 to December 2006 , Minister for Planning from 2006 - December 2010 and Minister for the Respect Agenda from January 2010 to December of the same year . Madden retired from politics in 2014 .",
    "/wiki/Anthony_Koutoufides": "Anthony Koutoufides ( born 18 January 1973 ) is a former Australian rules footballer with the Carlton Football Club . One of the most powerful and athletic players of all-time , he played in almost every position and was often called the prototype of the modern footballer . Of Greek and Italian descent , Koutoufides has been an Australian celebrity making numerous television appearances both during and after his football career . He was most recently a gladiator in the Australian television series Gladiators in character as Kouta , a Gladiator touched by the gods and won the Australian Dancing with the Stars in 2006 .",
    "/wiki/Marc_Murphy": "Marc Murphy ( born 19 July 1987 ) is an Australian rules footballer playing for the Carlton Football Club in the Australian Football League ( AFL ) . He was recruited with the first overall selection in the 2005 AFL draft and served as the captain of Carlton from the 2013 season to 2018 . He is the son of John Murphy .",
    "/wiki/Geoff_Southby": "Geoff Southby ( born 27 October 1950 ) is a former Australian rules footballer in the ( then ) Victorian Football League ( VFL ) . An attacking full-back who ran hard from defence and stopped the best full-forwards , Southby was a key contributor to Carlton Football Club 's success in the 1970s . In 2000 Southby was inducted into the Australian Football Hall of Fame . Southby was also inducted into the Carlton Football Club Hall of Fame , and was elevated to Legend status in 2013 .",
    "/wiki/David_McKay_(footballer)": "David McKay ( born 5 November 1949 ) is a former Australian rules footballer who played for the Carlton Blues during the 1970s . In 1970 , in just his second season of VFL football McKay won a premiership with Carlton and was voted as best on ground in the Grand Final . Originally from Newlyn , he was also part of winning grand finals in 1972,79 and 1981 . The latter was his final game of VFL football and he retired with 263 games and 277 goals for the club .",
    "/wiki/Alex_Jesaulenko": "Alex Jesaulenko MBE ( /\u02ccd\u0292\u025bz\u0259\u02c8l\u025b\u014bko\u028a/ JEZ-\u0259-LENK-oh ; Ukrainian : \u041e\u043b\u0435\u043a\u0441\u0430\u043d\u0434\u0440 \u0412\u0430\u0441\u0438\u043b\u044c\u043e\u0432\u0438\u0447 \u0404\u0441\u0430\u0443\u043b\u0435\u043d\u043a\u043e , romanized : Oleksandr Vasilyovych Yesaulenko , IPA : [ olek\u02c8s\u0251ndr w\u0250\u02c8s\u02b2il\u02b2ow\u026at\u0361\u0283 jes\u0250u\u02c8l\u025bnko ] ; born 2 August 1945 in Salzburg , Austria ) is a former Australian rules footballer and coach who represented Carlton and St Kilda in the Victorian Football League ( VFL ) from the 1960s to the 1980s . He is regarded as one of the game 's greatest-ever players and is an official Legend of the Australian Football Hall of Fame . He immortalised his reputation in the game by taking the most iconic mark in football history in the 1970 VFL Grand Final . In 2009 The Australian nominated Jesaulenko as one of the 25 greatest footballers never to win a Brownlow Medal .",
    "/wiki/Brett_Ratten": "Brett Ratten ( born 11 July 1971 ) is an Australian rules football coach and former player . From 2019 he has been the senior coach of the St Kilda Football Club in the Australian Football League ( AFL ) . He was previously the senior coach of the Carlton Football Club , the club he also played for .",
    "/wiki/Stephen_Kernahan": "Stephen Scott Kernahan ( born 1 September 1963 in Adelaide , South Australia ) is a former Australian rules football player and administrator best known for his playing careers with the Carlton Football Club of the Australian Football League and the Glenelg Football Club of the SANFL from 1981 until 1997 . He also played 16 State of Origin games for South Australia and gained selection as an All-Australian five times ( 1983 , 1986 , 1988 , 1992 and 1994 ) . He later served for six years as president of the Carlton Football Club . Nicknamed Sticks , Kernahan was the captain of Carlton 's Team of the Century and holds the club goal kicking record of 738 and the AFL record for the most games as club captain .",
    "/wiki/Peter_Jones_(Australian_rules_footballer)": "Peter Kevin Percy Jones ( born 20 October 1946 in Tasmania ) is a former Australian rules footballer who played 249 games for Carlton in the Victorian Football League ( VFL ) . He played as a forward and ruckman .",
    "/wiki/Peter_Dean_(footballer)": "Peter Dean ( born 9 March 1965 ) is a former Australian rules footballer who played for Carlton from 1984 to 1998 as a defender . From South Bendigo , Dean won two premierships with Carlton , in 1987 and 1995 . After retiring , Dean was also a runner for the Blues . In 2015 Carlton named its father-son academy the Peter Dean Father-Son Academy .",
    "/wiki/Andrew_McKay": "Andrew Ian McKay ( born 14 July 1970 ) is a former Australian rules footballer who played for Carlton Football Club in the Australian Football League ( AFL ) and Glenelg Football Club in the South Australian National Football League ( SANFL ) . McKay grew up in south eastern South Australia , and played junior football for Lucindale in the Kowree-Naracoorte Football League . Recruited by South Australian National Football League ( SANFL ) club Glenelg , McKay moved to Adelaide in 1991 and played 40 games for Glenelg as a half-back flanker , finishing second in the Magarey Medal in 1992 behind Port Adelaide 's Nathan Buckley . McKay was recruited by Carlton Football Club with its first round selection in the 1992 AFL Draft ( No . 13 overall ) , although he was later fined $ 10,000 when it emerged that he had contacted four of the AFL 's struggling clubs ( , , and ) and warned them that he would stay in South Australia if one of those clubs drafted him - which contravened the AFL 's draft tampering rules . He nevertheless remained eligible to play for Carlton , and he made his debut in Round 1 , 1993 , immediately displaying the outstanding defensive skills that he had displayed at Glenelg . In his first AFL season , McKay was named on the half-back flank in the All-Australian team . He also represented South Australia at State of Origin that season , a feat he repeated in 1994 and 1995 . In 1995 , McKay was a member of Carlton 's premiership team , the only premiership in his senior career . While still playing in 1996 , McKay began a degree in veterinary science , studying at the University of Queensland . To balance his study with his football career , McKay trained with the University of Queensland Australian Football Club whilst commuting to Melbourne on most weekends to play matches with Carlton . McKay played 15 of Carlton 's 24 matches that season .",
    "/wiki/Mark_Maclure": "Mark Maclure ( born 14 July 1955 ) is a former Australian rules footballer in the Victorian Football League ( VFL ) . Originally from New South Wales club East Sydney , Maclure was recruited by Carlton and made his senior VFL debut in Round 13 , 1974 . He retired from the game in 1986 after playing 243 games for the club . Maclure was captain of Carlton for the 1986 season . He currently works as a football commentator for ABC Radio and appears once a week on AFL 360 , Fox Footy 's Monday to Thursday television program .",
    "/wiki/Sergio_Silvagni": "Sergio Serge Silvagni ( born 28 June 1938 ) is a former Australian rules footballer who represented in the Victorian Football League ( VFL ) . Recognizable on the field with his bandy legs , stocky build and playing in a long-sleeved jersey with socks down , Silvagni played most of his career as a ruck-rover , forming one of the game 's most celebrated on-ball divisions with ruckman John Nicholls and rover Adrian Gallagher",
    "/wiki/Rod_McGregor": "Rod McGregor ( 19 October 1882 - 2 August 1962 ) was an Australian rules footballer for the Carlton Football Club in the ( then ) Victorian Football League and , later , a broadcaster .",
    "/wiki/Rod_Ashman": "Rodney Ashman ( born 3 December 1954 ) is a former Australian rules footballer who represented in the Victorian Football League ( VFL ) . Playing primarily in the forward pocket , Ashman was a member of Carlton 's famous Mosquito Fleet which was pivotal to the club 's success in the late 1970s and early 1980s . He played in back-to-back premierships in 1981 and 1982 . Ashman 's courageous style of play saw him suffer frequent concussion . After getting concussed several times in the space of a month , Ashman wore a helmet for the rest of his career . Although he did n't like it , he realized its value in a match against where he got kicked in the head , but was protected by the helmet . When he suffered a stroke in May 2010 , Ashman wondered whether it was the result of one of those concussions he sustained during his playing days . Ashman was inducted into Carlton 's Hall of Fame in 1993 and was later named in the forward pocket in Carlton 's Team of the Century ."
  }
}