{
  "List_of_Philippine_Basketball_Association_career_games_played_leaders_0": {
    "/wiki/Basketball_positions": "The five basketball positions normally employed by organized basketball teams are the point guard ( PG ) , the shooting guard ( SG ) , the small forward ( SF ) , the power forward ( PF ) , and the center ( C ) . The point guard is the de facto leader of the team on the court . This position requires substantial ball handling skills and the ability to facilitate the team during a play . The shooting guard , as the name implies , is often the best shooter . As well as being capable of shooting accurately from longer distances , this position tends to also be the best defender on the team . The small forward often has an aggressive approach to the basket when handling the ball . The small forward is also known to make cuts to the basket in efforts to get open for shots . The power forward and the center are usually called the frontcourt , often acting as their team 's primary rebounders or shot blockers , or receiving passes to take inside shots . The center is typically the larger of the two .",
    "/wiki/Abet_Guidaben": "Alberto Abet Guidaben ( born September 14 , 1952 ) is a Filipino retired professional basketball player in the PBA . He was part of the fabled Crispa Redmanizers ballclub that won two Grand Slams , in 1976 and 1983 . He was a two-time Most Valuable Player awardee , in 1983 and 1987 , joining a select few who are multiple winners of the award such as Bogs Adornado , Ramon Fernandez , Alvin Patrimonio , Benjie Paras , Danny Ildefonso , Willie Miller , James Yap , and June Mar Fajardo .",
    "/wiki/Center_(basketball)": "The center ( C ) , also known as the five position , or the big man , is one of the five positions in a basketball game . The center is normally the tallest player on the team , and often has a great deal of strength and body mass as well . In the NBA , the center is usually 6 feet 10 inches ( 2.08 m ) or taller and usually weighs 240 pounds ( 110 kg ) or more . They traditionally have played close to the basket in the low post . Centers are valued for their ability to protect their own goal while scoring with high efficiency . In the 1950s and 1960s , George Mikan and Bill Russell were centerpieces of championship dynasties and defined early prototypical centers . With the addition of a three-point field goal for the 1979-80 season , however , NBA basketball gradually became more perimeter-oriented and saw the importance of the center position diminished . A center with the ability to shoot outside from three-point range is known as stretch five .",
    "/wiki/Power_forward_(basketball)": "The power forward ( PF ) , also known as the four , is one of the five positions in a regulation basketball game . Power forwards play a role similar to that of center . They typically play offensively with their backs towards the basket and position themselves defensively under the basket in a zone defense or against the opposing power forward in man-to-man defense . The power forward position entails a variety of responsibilities , one of which is rebounding . Many power forwards are noted for their mid-range jump-shot , and several players have become very accurate from 12 to 18 feet ( 3.7 to 5.5 m ) . Earlier , these skills were more typically exhibited in the European style of play . Some power forwards , known as stretch fours , have since extended their shooting range to three-point field goals . In the NBA , power forwards usually range from 6\u2032 6\u2033 ( 1.98 m ) to 6\u2032 10\u2033 ( 2.08 m ) without shoes while in the WNBA , power forwards are usually between 6\u2032 0\u2033 ( 1.83 m ) and 6\u2032 3\u2033 ( 1.91 m ) . Despite the averages , a variety of players fit tweener roles which finds them in the small forward or center position depending on matchups and coaching decisions . [ citation needed ] Some power forwards often play the center position and have the skills , but lack the height that is usually associated with that position . Power forwards that are inducted in the Naismith Memorial Basketball Hall of Fame include Karl Malone , Denise Curry , Dolph Schayes , Kevin McHale , Charles Barkley , Elvin Hayes , Bob Pettit , Dennis Rodman , and Katrina McClain Johnson .",
    "/wiki/1975_PBA_season": "The 1975 PBA season was the inaugural season of the Philippine Basketball Association .",
    "/wiki/1996_PBA_season": "The 1996 PBA season was the 22nd season of the Philippine Basketball Association ( PBA ) .",
    "/wiki/Crispa_Redmanizers": "The Crispa Redmanizers were a multi-titled Filipino basketball team that played in the Philippine Basketball Association ( PBA ) from 1975 to 1984 . It was one of the nine founding teams of the PBA , winning a total of thirteen PBA championships , including two grand slams . Founded in 1956 by businessman Valeriano Danny Floro , the team was owned by P. Floro and Sons , Inc. ( defunct ) .",
    "/wiki/Manila_Beer_Brewmasters": "The Manila Beer Brewmasters were a professional basketball team in the Philippine Basketball Association ( PBA ) from 1984-1986 . It was formed after Basic Holdings , Inc. , a company controlled by Lucio Tan , acquired the PBA franchise of Delta Motor Corporation , owner of league pioneer Toyota . The team was named after the brands of Asia Brewery , Inc. , another Tan company - Beer Hausen ( 1984 ) and Manila Beer ( 1985-1986 ) . Beer Hausen intended to make Ramon Fernandez its franchise player with Jaworski relegated in the background . It acquired seven players from the Toyota team . Robert Jaworski refused to be a part of the new team , describing the sale as a 'farce , ' and that players should not be sold por kilo ( lock , stock and barrel ) . Jaworski , Francis Arnaiz , Arnie Tuadles , Chito Loyzaga and Abe King refused to join Beer Hausen . Then-PBA president Carlos Honeyboy Palanca III offered to take in Jaworski and Arnaiz to his team , Gilbey 's Gin ; Tuadles and Loyzaga joined Great Taste and King joined Gold Eagle Beer . This marked the beginning of the Jaworski-Fernandez rivalry and directly contributed at being the cornerstone in making the Gins arguably the most popular team in Philippine basketball history with Jaworski at the forefront . In the team 's inaugural season , Ramon Fernandez achieved more than 20 triple-double performances , won his second MVP and led his team to a runner-up finish in the 1984 PBA Second All-Filipino Conference , losing to Great Taste via three-game sweep . The following year , the ballclub was renamed Manila Beer and they bolstered their lineup through the acquisition of Crispa players Atoy Co , Yoyoy Villamin and Matthew Gaston . On October 1 , 1985 , three weeks into the Third Conference , Fernandez was traded to Tanduay for Abet Guidaben .",
    "/wiki/San_Miguel_Beermen": "The San Miguel Beermen are a professional basketball team in the Philippine Basketball Association ( PBA ) . It is one of three PBA clubs owned by the San Miguel Corporation group of companies along with the Magnolia Hotshots and Barangay Ginebra San Miguel . It is the most successful franchise in the history of the PBA and the only remaining original franchise in the league . The Beermen currently lead the league with the most titles ( 27 ) and the most all-time victories ( more than 1,200 wins ) . In addition , it has won the Grand Slam in 1989 and the Perpetual Jun Bernardino Trophy after winning three straight PBA Philippine Cups from 2015 to 2017 . It is also the only team to have won at least one PBA title in each of the five numerical decades of the league 's existence and was the first professional basketball team in the world ever to come back from a 0-3 deficit to win a best-of-seven playoff series which they did during the 2015-16 Philippine Cup Finals .",
    "/wiki/Tanduay_Rhum_Masters": "The Tanduay Rhum Makers ( 1975-1987 ) and Tanduay Rhum Masters ( 1999-2001 ) were two basketball franchises associated with the same liquor brand that played in the Philippine Basketball Association ( PBA ) . The original franchise , owned by Elizalde & Co. , Inc. , was a founding member of the PBA . From 1975-1980 , the team played under the name Tanduay Distillery ; Tanduay ESQ and Tanduay Esquires ; then as , YCO-Tanduay in 1981-1983 . The final name used by the original franchise was the Tanduay Rhum Makers ( 1983-1987 ) . The original franchise won a total of three PBA championships . In 1988 , the franchise was acquired by Pure Foods Corporation and played as Purefoods . The second franchise played under the name Tanduay Rhum Masters and was owned by Tanduay Distillers , Inc. ( the present owners of the Tanduay liquor business ) . It first played in the Philippine Basketball League ( 1997-1999 ) and joined the PBA ( 1999-2001 ) . The PBA records of the original Tanduay PBA franchise ( 1975-1987 ) were maintained for the second incarnation .",
    "/wiki/Magnolia_Hotshots": "The Magnolia Hotshots Pambansang Manok , or simply known as the Magnolia Hotshots , are a professional basketball team in the Philippine Basketball Association . The team is owned by San Miguel Food and Beverage , Inc. , a subsidiary of San Miguel Corporation ( SMC ) . The team is one of three PBA ball clubs currently owned by the SMC group of companies , along with Barangay Ginebra San Miguel and the San Miguel Beermen . The franchise plays under numerous brand names of the company but is best known by its original name , Purefoods . It remains as one of the most popular teams in the PBA , winning fourteen PBA titles and is the fourth team in PBA history to win a Grand Slam . The players most identified with the franchise are Alvin Patrimonio , James Yap , and Marc Pingris , among others . Patrimonio , a Mapua University standout , led the franchise to six championships and was named Most Valuable Player four times . Patrimonio retired in 2004 and currently serves as its team manager . Yap led Purefoods to seven titles including a notable grand slam in 2013-14 , which is the only grand slam in the history of the franchise and received multiple MVP awards as well . While Pingris was named to the PBA 's 40 greatest players playing alongside Yap as the team 's enforcer and rebounder . He was a vocal leader of the famous 2013 Gilas Pilipinas team that defeated South Korea and bagged a medal .",
    "/wiki/Alaska_Aces_(PBA)": "The Alaska Aces is a professional basketball team in the Philippine Basketball Association since 1986 under the ownership of the Alaska Milk Corporation and the owner of 14 PBA championships with the 2013 PBA Commissioner 's Cup as their latest . They are one of the most popular teams in the league and the Philippines . The Aces won nine PBA championships in the 1990s , including a rare grand slam ( winning three championships in one season ) during the 1996 season , joining the Crispa Redmanizers ( 1976 , 1983 ) , San Miguel Beermen ( 1989 ) , and the San Mig Super Coffee Mixers ( 2013-14 ) as one of only four franchises to achieve the feat .",
    "/wiki/TNT_KaTropa": "The TNT KaTropa ( formerly known as the Talk ' N Text Tropang Texters ) is a professional basketball team currently owned by Smart Communications , a subsidiary of the Philippine Long Distance Telephone Company ( PLDT ) , playing in the Philippine Basketball Association ( PBA ) since 1990 . The franchise began in 1990 when Pepsi-Cola Products Philippines , Inc. ( PCPPI ) acquired a PBA franchise . Under PCPPI , the franchise played under the names Pepsi and 7 Up . In 1996 , the franchise came under the control of Pilipino Telephone Corporation ( Piltel ) and played under the name Mobiline . In 2001 , the franchise was renamed Talk ' N Text after the operations of Piltel was absorbed by Smart Communications . The team is currently one of three PBA teams under the control of businessman Manuel V. Pangilinan - the others are the Meralco Bolts and NLEX Road Warriors . To date , the franchise has won seven official PBA titles ( and one special PBA tournament championship ) , it also remains as one of the league 's powerhouses and it is one of the oldest teams in PBA .",
    "/wiki/Shell_Turbo_Chargers": "The Shell Turbo Chargers were a Philippine Basketball Association team from 1985 to 2005 . It won four PBA championships , two from 1998-1999 . Shell sold its franchise to PBL team Welcoat Paints in February 2006 . Aside from being known as the Turbo Chargers , Shell was also known as Shell Azodrin Bugbusters , Shell Azocord Super Bugbusters , Shell Oilers , Shell Rimula X , Formula Shell Zoom Masters , Shell Helix Oilers and Shell Velocity .",
    "/wiki/Ramon_Fernandez": "Ram\u00f3n S. Fern\u00e1ndez ( born October 3 , 1953 ) is a Filipino former basketball player and current commissioner of the Philippine Sports Commission . Fernandez won four PBA Most Valuable Player awards and a record 19 PBA conference cups . Fernandez stood at 6 ' 4 barefoot during his prime but due to mild gigantism grew to 6 ' 5 during his final seasons . He scored 18,996 points to finish as the PBA 's all-time scoring leader . He is also the PBA 's all-time leader in rebounds , blocked shots , free throws made , playing minutes and second all-time in assists , games played and steals . He played for five teams in his entire PBA career starting with the Toyota Tamaraws , Manila Beer , Tanduay , Purefoods , and with San Miguel . Fernandez played in many overseas tournaments as a member of the Philippine basketball team . He is often regarded by older analysts as the greatest player to have ever played in the Philippine Basketball Association .",
    "/wiki/1994_PBA_season": "The 1994 PBA season was the 20th season of the Philippine Basketball Association ( PBA ) .",
    "/wiki/Toyota_Super_Corollas": "The Toyota Tamaraws were a multi-titled basketball team in the Philippine Basketball Association ( PBA ) from 1975 to 1983 . Founded in 1973 by businessman and sportsman Dante Silverio , the team - formally named Toyota Athletic Club - was owned by Delta Motor Corporation ( defunct ) and played under various names - Komatsu Komets , Toyota Comets , Toyota Silver Tamaraws , Toyota Tamaraws , Toyota Super Diesels , Toyota Super Corollas and Toyota Silver Coronas . In the PBA , it won nine championships , the sixth most in PBA history behind the San Miguel Beermen ( 24 ) , the Alaska Aces ( 14 ) , fierce rival Crispa Redmanizers , the Purefoods franchise ( 13 ) and Barangay Ginebra San Miguel ( 11 )",
    "/wiki/Robert_Jaworski": "Robert Vincent Salazar Jaworski ( Tagalog pronunciation : [ d\u0292a\u02c8w\u0254\u027eski ] ; born March 8 , 1946 ) is a Filipino former professional basketball player , head coach and politician who served as a Senator of the Philippines from 1998 to 2004 . He played 23 seasons in the Philippine Basketball Association . He is widely regarded as one of the best and most popular PBA players of all-time . He was named part of the PBA 's 40 Greatest Players and was inducted into the PBA Hall of Fame in 2005 .",
    "/wiki/Point_guard": "The point guard ( PG ) , also called the one or point , is one of the five positions in a regulation basketball game . A point guard has perhaps the most specialized role of any position . Point guards are expected to run the team 's offense by controlling the ball and making sure that it gets to the right player at the right time . Above all , the point guard must understand and accept their coach 's game plan ; in this way , the position can be compared to a quarterback in American football , a catcher in baseball or a playmaker in soccer ( association football ) . They must also be able to adapt to what the defense is allowing and must control the pace of the game . A point guard , like other player positions in basketball , specializes in certain skills . Their primary job is to facilitate scoring opportunities for their team , or sometimes for themselves . Lee Rose has described a point guard as a coach on the floor , who can handle and distribute the ball to teammates . This involves setting up plays on the court , getting the ball to the teammate in the best position to score , and controlling the tempo of the game . A point guard should know when and how to instigate a fast break and when and how to initiate the more deliberate sets . Point guards are expected to be vocal floor leaders . A point guard needs always to have in mind the times on the shot clock and the game clock , the score , the numbers of remaining timeouts for both teams , etc .",
    "/wiki/1998_PBA_season": "The 1998 PBA season was the 24th season of the Philippine Basketball Association ( PBA ) .",
    "/wiki/Barangay_Ginebra_San_Miguel": "The Barangay Ginebra San Miguel is a professional basketball team in the Philippine Basketball Association ( PBA ) . It is the most popular PBA team and has twelve PBA titles . The team is owned by Ginebra San Miguel , Inc. ( formerly , La Tonde\u00f1a Distillers , Inc. ) , a subsidiary of the San Miguel Corporation ( SMC ) . The team is one of three PBA ball clubs currently owned by the SMC group of companies , along with the Magnolia Hotshots and the San Miguel Beermen . La Tonde\u00f1a , Inc. ( renamed , La Tonde\u00f1a Distillers , Inc. , after SMC acquired majority control in 1987 ) joined the PBA in 1979 as an expansion team . After some rough times during their first few seasons , their fortunes changed when veterans Robert Jaworski and Francis Arnaiz arrived in 1984 , following the disbandment of the famed Toyota Tamaraws . With new players like Jaworski being veterans of the game from ages 30-35 , Jaworski would also be given the role as head coach of the young Ginebra team . As player-coach , Jaworski steered the franchise to four PBA titles between 1986 and 1997 . After the retirement of Coach Jaworski at the age of 52 , Jong Uichico , Siot Tanquingcen and Tim Cone would be coaching the players led by the legendary Fast and The Furious , MVPs Jayjay Helterbrand and Mark Caguioa . The most memorable players in Ginebra history would carry Ginebra to six championships .",
    "/wiki/Olsen_Racela": "Rodericko Cesar Escueta Racela , also known as Olsen Racela , ( born November 1 , 1970 ) is the head coach of the FEU Tamaraws men 's basketball team . He is also currently an assistant coach of the Barangay Ginebra San Miguel of the Philippine Basketball Association ( PBA ) . He is a retired PBA player and is considered to be one of the best point guards who ever played in the league . He was also a notable member of the Philippine national basketball team on many occasions .",
    "/wiki/1993_PBA_season": "The 1993 PBA season was the 19th season of the Philippine Basketball Association ( PBA ) .",
    "/wiki/2010\u201311_PBA_season": "The 2010-11 PBA Season was the 36th season of the Philippine Basketball Association . It started on October 3 , 2010 and ended on August 21 , 2011 . The season marked the return of the original three-conference format , starting with the Philippine Cup , or the traditional All-Filipino Conference . The import-laden Commissioner 's Cup returned as the second tournament , while the Governors ' Cup also returned , serving as the third conference which also served as an import-laden tournament . The first activity of the season is the 2010 PBA Draft held on August 29 at the Market ! Market ! in Taguig City .",
    "/wiki/Philip_Cezar": "Philip Cezar ( born December 1 , 1951 ) is a retired Filipino professional basketball player in the Philippine Basketball Association . He was part of the fabled Crispa Redmanizers ballclub that won two Grand Slams in 1976 and 1983 . He won the Most Valuable Player award in 1980 . He was also a many-time Philippine national team player in the 1970s . He was also known by the monikers Tapal King and The Scholar .",
    "/wiki/1990_PBA_season": "The 1990 PBA season was the 16th season of the Philippine Basketball Association ( PBA ) .",
    "/wiki/Great_Taste_Coffee_Makers": "The Great Taste Coffee Makers were a basketball team that played in the Philippine Basketball Association ( PBA ) from 1975 to 1992 . It was one of the founding members of the PBA , the Asia 's first and oldest professional league . The franchise was owned by CFC Corporation ( now merged with Universal Robina Corporation ) and named after its brand of instant coffee , Great Taste Coffee . The franchise also played under other CFC brands such as N-Rich , Presto and Tivoli . The franchise won six PBA championships , mostly under coach Baby Dalupan . In 1993 , CFC sold its PBA franchise to Sta . Lucia Realty & Development , Inc. , which absorbed several Presto players .",
    "/wiki/Elpidio_Villamin": "Elpidio Yoyoy Villamin ( born November 7 , 1958 in Labo , Camarines Norte , Philippines ) , is a retired Filipino professional basketball player in the Philippine Basketball Association . Standing 6 ' 3 on a muscular frame , Yoyoy got his nickname because of Filipino singer-comedian Yoyoy Villame , as their surnames sounds exactly the same . In the PBA , however , Villamin earned the moniker Bicolano Superman because of his strength and ability to dominate on both ends of the court . He played for Solid Mills and later , Asia Pacific Finance Corporation ( APCOR ) in the MICAA , where he distinguished himself as a valuable utility man for being a very good defensive guard , a driving forward and a high-leaping center .",
    "/wiki/1981_PBA_season": "The 1981 PBA season was the seventh season of the Philippine Basketball Association ( PBA ) .",
    "/wiki/Pop_Cola_Panthers": "The Pop Cola Panthers were a professional basketball team that played in the Philippine Basketball Association from 1990-2001 . The franchise was owned by RFM Corporation . In 2001 , when RFM Corporation sold its entire stake in Cosmos Bottling Corporation to Coca-Cola Bottlers Philippines , Inc. ( CCBPI ) , the PBA franchise was included in the transaction . Upon ownership by CCBPI , the PBA franchise renamed the Coca-Cola Tigers beginning the 2002 PBA season and was considered as an expansion team . The franchise also played under the names Pop Cola/Diet Sarsi Sizzlers , Swift Mighty Meaties , Sunkist Orange Juicers/Bottlers and Pop Cola 800 .",
    "/wiki/Jerry_Codi\u00f1era": "Jerry Herman Codi\u00f1era ( born November 14 , 1966 ) is a Filipino coach and retired professional basketball player of the Philippine Basketball Association . He is nicknamed the Defense Minister for his prowess at the defensive end . Currently , he serves as the head coach of Arellano Chiefs in the NCAA and Imus Bandera of Maharlika Pilipinas Basketball League .",
    "/wiki/1988_PBA_season": "The 1988 PBA season was the 14th season of the Philippine Basketball Association ( PBA ) .",
    "/wiki/2004\u201305_PBA_season": "The 2004-05 PBA season was the 30th season of the Philippine Basketball Association . Instead of the usual calendar year of February-December , the league changed its schedule to the current October-July format , while limiting the number of conferences from three to two . As part of the new league format , the season was preceded with a transition conference known as the 2004 PBA Fiesta Conference .",
    "/wiki/Barako_Bull_Energy": "The Barako Bull Energy were a Philippine Basketball Association team that began in 2002 as the FedEx Express . From its first season until 2005 , the team was dubbed as the FedEx Express before changing to Air21 Express . From the 2009 PBA Fiesta Conference until the 2009-10 PBA Philippine Cup , it became known as the Burger King Titans . However , when manager Mikee Romero decided to pull out of the team , they were reorganized and renamed the Burger King Whoppers before returning to their original name starting the 2010 PBA Fiesta Conference . However , Air21 changed its name to Barako Bull Energy after the Lina Group bought the original Barako Bull franchise and 49 percent stake of Energy Food and Drinks Inc. , the owner of the Barako Bull franchise and the exclusive distributor of Red Bull Energy Drink products in the Philippines . They added the word 'cola ' to their team name in order to promote their new softdrink product . Barako Bull is owned by Energy Food and Drinks Inc. , a subsidiary of the Linaheim Corporate Services , owners of the defunct Laguna Lakers of the Metropolitan Basketball Association . The franchise bought the former Tanduay team after the 2001 season .",
    "/wiki/Alvin_Patrimonio": "Alvin Vergara Patrimonio ( born November 17 , 1966 ) is a Filipino retired professional basketball player from the Philippine Basketball Association and is the current team manager for the Purefoods Star Hotshots . Patrimonio holds several PBA records including most consecutive games played ( 596 ) ; third most points scored in history ( 15,091 ) ; fourth most rebounds grabbed in history ( more than 6,000 ) and second-most PBA Most Valuable Player awards ( 4 , tied with Ramon Fernandez ) . He is also the second player after Bogs Adornado to win back-to-back MVP awards in 1993 and 1994 , and also the second player to win three Best Player of the Conference award after Vergel Meneses . He also shares the distinction of having played the most Asian Games ( 4 ) with 1990 PBA MVP Allan Caidic . He played his entire career with the Purefoods franchise and won five championships , mostly in the All-Filipino Conference championships with three . He also was a part of the 1998 Philippine Centennial Team .",
    "/wiki/Small_forward": "The small forward ( SF ) , also known as the three , is one of the five positions in a regulation basketball game . Small forwards are typically shorter , quicker , and leaner than power forwards and centers , but typically taller , larger and stronger than either of the guard positions . The small forward is considered to be perhaps the most versatile of the five main basketball positions . In the NBA , small forwards usually range from 6 ' 4 ( 1.93 m ) to 6 ' 8 ( 2.03 m ) without shoes while in the WNBA , small forwards are usually between 5 ' 10 ( 1.78 m ) to 6 ' 1 ( 1.85 m ) . Small forwards are responsible for scoring points , defending and often as secondary or tertiary rebounders behind the power forward and center , although a few have considerable passing responsibilities . Many small forwards in professional basketball are prolific scorers . The styles with which small forwards amass their points vary widely . Some players at the position are very accurate shooters , others prefer to initiate physical contact with opposing players , and still others are primarily slashers who also possess jump shots . In some cases , small forwards position on the baseline or as off-the-ball specialists . Small forwards who are defensive specialists are very versatile as they can often guard multiple positions using their size , speed , and strength . Small forwards that are inducted in the Naismith Memorial Basketball Hall of Fame include Julius Erving , Cheryl Miller , Larry Bird , Sheryl Swoopes , James Worthy , Elgin Baylor , Scottie Pippen , Dominique Wilkins and Rick Barry .",
    "/wiki/Nelson_Asaytono": "Nelson Asaytono ( born January 25 , 1967 ) is a Filipino retired professional basketball player who played for Purefoods , Swift/Sunkist/Pop Cola , San Miguel Beer , and Red Bull in the PBA during his 17-year career .",
    "/wiki/1989_PBA_season": "The 1989 PBA season was the 15th season of the Philippine Basketball Association ( PBA ) .",
    "/wiki/2005\u201306_PBA_season": "The 2005-06 PBA Season was the 31st season of the Philippine Basketball Association . It began on October 2 , 2005 and ended on July 21 , 2006 . The season had two conferences played , the import-laiden 2005-06 San Mig Coffee Fiesta Conference and the season-ending 2006 Gran Matador Brandy Philippine Cup .",
    "/wiki/Barako_Bull_Energy_Boosters": "The Barako Bull Energy Boosters were a professional basketball team of the Philippine Basketball Association owned by the Photokina Marketing Corporation . They entered the league in 2000 after a successful stint in the semi-professional Philippine Basketball League during the late 1990s where the team won a championship in 1996 . It was originally known as Red Bull Barako before the team announced its name change . Barako Bull has won two Commissioner 's Cups , in 2001 and in 2002 and the 2006 Fiesta Conference . Willie Miller became the first Barako to win the league MVP title in 2002 . The franchise took a leave of absence after the 2010-11 PBA Philippine Cup . The players were distributed to other teams via dispersal draft as their slot will be taken over by guest team Smart Gilas for the Commissioner 's Cup . In March 2011 , Barako Bull announced that it will not be returning to the league . Eventually , the franchise was sold to the Lina Group of Companies in July 2011 upon approval of the PBA Board of Governors .",
    "/wiki/Freddie_Hubalde": "Alfredo Hubalde ( born September 14 , 1953 ) , also known as Freddie Hubalde , is a retired Filipino professional basketball player in the PBA .",
    "/wiki/Shooting_guard": "The shooting guard ( SG ) , also known as the two or off guard , is one of the five traditional positions in a regulation basketball game . A shooting guard 's main objective is to score points for their team and steal the ball on defense . Some teams ask their shooting guards to bring up the ball as well ; these players are known colloquially as combo guards . A player who can switch between playing shooting guard and small forward is known as a swingman . In the NBA , shooting guards usually range from 6 ' 2 ( 1.88 m ) to 6 ' 7 ( 2.01 m ) , and from 5 ' 8 ( 1.73 m ) to 5 ' 11 ( 1.80 m ) in the WNBA .",
    "/wiki/Jojo_Lastimosa": "Isabelo Lastimosa , Jr. ( born March 10 , 1964 ) , better known as Jojo Lastimosa and by his nickname JolasMr . Clutch , The 4th Quarter Man , and PBA Jordan for his deadly perimeter shooting , He is a Filipino former professional basketball player from Cagayan de Oro City who played in the Philippine Basketball Association for the Purefoods Hotdogs , the Alaska Aces and the Pop Cola Panthers from 1988-2002 . He was also a former member of the Philippines ' national basketball team during the 1980s and 1990s . He also played for the University of San Jose - Recoletos in Cebu City . He had a stint also in Ateneo de Manila . He is the current head coach of the Bataan Risers of the Maharlika Pilipinas Basketball League ( MPBL ) .",
    "/wiki/2002_PBA_season": "The 2002 PBA season was the 28th season of the Philippine Basketball Association ( PBA ) .",
    "/wiki/Bernie_Fabiosa": "Bernie Fabiosa ( born July 23 , 1954 ) is a retired Filipino professional basketball player and actor . He spent most of his playing days with the Crispa Redmanizers in the PBA . During his heyday , he is tops in career steals , earning for himself the monicker The Sultan of Swipe .",
    "/wiki/1991_PBA_season": "The 1991 PBA season was the 17th season of the Philippine Basketball Association ( PBA ) .",
    "/wiki/Abe_King": "Abraham Columbus King , Jr. is a Filipino former basketball player who was part of the champion Philippine Basketball Association ( PBA ) ballclub Toyota Tamaraws . He was the starting power center of 1976 MICAA Champion Crown Motors before his mother team , the Toyota Tamaraws called upon his services at the start of the 1977 PBA season . Prior to that , he was dubbed King Bedan in 1976 and was responsible in powering the San Beda Red Lions to runner-up finish in that year .",
    "/wiki/1977_PBA_season": "The 1977 PBA season was the third season of the Philippine Basketball Association ( PBA ) .",
    "/wiki/Terry_Salda\u00f1a": "Antero Terry Salda\u00f1a ( born November 17 , 1958 in Manila ) is a retired Filipino professional basketball player in the Philippine Basketball Association .",
    "/wiki/1982_PBA_season": "The 1982 PBA season was the eighth season of the Philippine Basketball Association ( PBA ) .",
    "/wiki/Atoy_Co": "Fortunato Gan Co Jr. ( born October 15 , 1951 ) , better known as Atoy Co , is a Filipino actor and basketball coach . He is a former politician and a retired professional basketball player who played 13 seasons in the Philippine Basketball Association , mostly with Crispa Redmanizers . Nicknamed The Fortune Cookie ( a pun on his name and ethnicity ) during his playing days , he was notable for his trademark turnaround fadeaway jump shot .",
    "/wiki/Biboy_Ravanes": "Melchor Biboy Ravanes is a former Filipino professional basketball player and former head coach of the San Miguel Beermen in the Philippine Basketball Association . Prior to this , he was SMB 's longtime assistant coach .",
    "/wiki/1979_PBA_season": "The 1979 PBA season was the fifth season of the Philippine Basketball Association ( PBA ) .",
    "/wiki/Johnny_Abarrientos": "Johnny Abarrientos ( born July 17 , 1970 ) is a Filipino retired professional basketball player in the Philippine Basketball Association . He was also a many-time member of the Philippine National team , and was the 1996 PBA Most Valuable Player , becoming the shortest player to win the league 's highest individual award . He is known by many as The Flying A when he started playing for the Alaska Milkmen in 1993 . He is currently an assistant coach for the Magnolia Hotshots and the Head Coach for the FEU Tamaraws .",
    "/wiki/2009\u201310_PBA_season": "The 2009-10 PBA Season was the 35th season of the Philippine Basketball Association ( PBA ) . The season formally opened on October 11 , 2009 and ended on August 18 , 2010 . The league started the season with the Philippine Cup , or the traditional All-Filipino Conference , while finishing the season with the import-laiden Fiesta Conference . The 2009 PBA Draft was held on August 2 , 2009 at the Market ! Market ! , and Japeth Aguilar was selected first overall by the Air21 Express . The Puerto Princesa City Government hosted the 2010 PBA All-Star Weekend at the Puerto Princesa Coliseum in Palawan on April 25 , 2010 .",
    "/wiki/Powerade_Tigers": "The Powerade Tigers were a professional basketball team that played in the Philippine Basketball Association from 2002 to 2012 . The franchise was owned by Coca-Cola Bottlers Philippines , Inc. ( CCBPI ) when the company acquired Cosmos Bottling Corporation from RFM Corporation . From 2002 to 2010 , the team played as the Coca-Cola Tigers . The franchise won two PBA championships ( 2002 and 2003 ) .",
    "/wiki/Dondon_Hontiveros": "Donaldo Dondon Caba\u00f1es Hontiveros ( born June 1 , 1977 ) is a Filipino politician and former professional basketball player currently serving as a council member for the 2nd district of Cebu City .",
    "/wiki/2000_PBA_season": "The 2000 PBA season was the 26th season of the Philippine Basketball Association ( PBA ) .",
    "/wiki/2016\u201317_PBA_season": "The 2016-17 PBA season is the 42nd season of the Philippine Basketball Association . The league continues to use the three-conference format , starting with the Philippine Cup . The Commissioner 's Cup and the Governors ' Cup are the second and third conferences in the upcoming season . The first event of the season was the 2016 PBA draft , held on October 30 .",
    "/wiki/Manny_Victorino": "Manuel Manny Victorino ( born December 30 , 1958 ) is a Filipino retired professional basketball player in the Philippine Basketball Association .",
    "/wiki/Poch_Juinio": "Edward Poch Juinio ( born May 25 , 1973 ) is a Filipino retired former professional basketball player of the Philippine Basketball Association . He played most of his seasons with Alaska Milkmen and won numerous championships .",
    "/wiki/2007\u201308_PBA_season": "The 2007-08 PBA Season was the 33rd season of the Philippine Basketball Association . The season was formally opened on October 14 , 2007 at the Araneta Coliseum . The league started the season with the Philippine Cup , or the traditional All-Filipino Conference , while capping off the season with the import-laiden Fiesta Conference . Renauld Sonny Barrios was appointed as commissioner while serving as an officer in charge of the league until a replacement for former commissioner Noli Eala will be found . The first activity of the season was the 2007 PBA Draft last August 19 at the Market Market in Taguig City ."
  },
  "1981_South_Africa_rugby_union_tour_of_New_Zealand_and_the_United_States_0": {
    "/wiki/Gisborne,_New_Zealand": "Gisborne ( M\u0101ori : T\u016branga-nui-a-Kiwa Great standing place of Kiwa ) is a city in northeastern New Zealand and the largest settlement in the Gisborne District ( or Gisborne Region ) . It has a population of 37,200 ( June 2018 ) . The district council has its headquarters in Whataupoko , in the central city . The settlement was originally known as Turanga and renamed Gisborne in 1870 in honour of New Zealand Colonial Secretary William Gisborne .",
    "/wiki/Poverty_Bay_Rugby_Football_Union": "The Poverty Bay Rugby Football Union is the governing body for rugby union within the Gisborne district , in the area surrounding Poverty Bay on the east coast of the North Island of New Zealand . The men 's representative team play from Rugby Park , Gisborne , and currently compete in the Heartland Championship .",
    "/wiki/Hamilton,_New_Zealand": "Hamilton ( M\u0101ori : Kirikiriroa ) is a city in the North Island of New Zealand . It is the seat and most populous city of the Waikato region , with a territorial population of 165,900 , the country 's fourth most-populous city . Encompassing a land area of about 110 km2 ( 42 sq mi ) on the banks of the Waikato River , Hamilton is part of the wider Hamilton Urban Area , which also encompasses the nearby towns of Ngaruawahia , Te Awamutu and Cambridge . The area now covered by the city was originally the site of several M\u0101ori villages , including Kirikiriroa , from which the city takes its M\u0101ori name . By the time English settlers arrived , most of these villages , which sat beside the Waikato River , were abandoned as a result of the Invasion of Waikato and land-confiscation ( Raupatu ) by the Crown . The new British settlement was renamed Hamilton after Captain John Fane Charles Hamilton , the commander of HMS Esk , who was killed in the Battle of Gate P\u0101 , Tauranga . Initially an agricultural service centre , Hamilton now has a diverse economy and is the third fastest growing urban area in New Zealand , behind Pukekohe and Auckland . Hamilton Gardens is the region 's most popular tourist attraction . Education and research and development play an important part in Hamilton 's economy , as the city is home to approximately 40,000 tertiary students and 1,000 PhD-qualified scientists .",
    "/wiki/Waikato_Rugby_Union": "The Waikato Rugby Union ( WRU ) is the official governing body of rugby union in the Waikato area in the North Island of New Zealand . Headquartered in Hamilton , WRU was founded in 1921 . Its senior representative team , nicknamed the Mooloos , competes in the Mitre 10 Cup ( formerly known as the ITM Cup and Air New Zealand Cup ) , and won the inaugural Air New Zealand Cup in 2006 . The squad plays its home fixtures at the Waikato Stadium in Hamilton . The union 's colours are red , yellow and black .",
    "/wiki/New_Plymouth": "New Plymouth ( M\u0101ori : Ng\u0101motu ) is the major city of the Taranaki Region on the west coast of the North Island of New Zealand . It is named after the English city of Plymouth from where the first English settlers to New Zealand migrated . The New Plymouth District , which includes New Plymouth City and several smaller towns , is the 10th largest district ( out of 67 ) in New Zealand , and has a population of 74,184 - about two-thirds of the total population of the Taranaki Region and 1.7% of New Zealand 's population . This includes New Plymouth City ( 58,300 ) , Waitara ( 6,483 ) , Inglewood ( 3,380 ) , Oakura ( 1,359 ) , Okato ( 561 ) and Urenui ( 429 ) . The city itself is a service centre for the region 's principal economic activities including intensive pastoral activities ( mainly dairy farming ) as well as oil , natural gas and petrochemical exploration and production . It is also the region 's financial centre as the home of the TSB Bank ( formerly the Taranaki Savings Bank ) , the largest of the remaining non-government New Zealand-owned banks . Notable features are the botanic gardens ( i.e . Pukekura Park ) , the critically acclaimed Len Lye Centre and Art Gallery , the 11 km ( 6.8 mi ) Coastal Walkway alongside the Tasman Sea , the Len Lye-designed 45-metre-tall ( 148 ft ) artwork known as the Wind Wand , Paritutu Rock , and views of Mount Taranaki/Egmont . As described under awards , New Plymouth won multiple awards in 2008 . The city was in 2010 chosen as one of two walking & cycling Model Communities by the government . Based on New Plymouth 's already positive attitude towards cyclists and pedestrians , the city received $ 3.71m to invest into infrastructure and community programs to boost walking and cycling . It is also noted for being a coastal city with a mountain within 30 minutes drive , where residents and visitors to New Plymouth can snowboard , ski , water ski and surf all in the same day .",
    "/wiki/Taranaki_Rugby_Football_Union": "The Taranaki Rugby Football Union is a governing body of rugby union in the New Zealand province of Taranaki . The main stadium is Yarrow Stadium which is located in New Plymouth . The union also represents the Taranaki Bulls , a professional rugby union team competing in the Mitre 10 Cup competition and contest for the Ranfurly Shield . Before 2006 the Bulls competed in the National Provincial Championship . On 25 October 2014 Taranaki won their first ITM Cup , defeating Tasman 36-32 in New Plymouth . This was the first time a team from outside the main population centres had won the premier New Zealand domestic rugby competition since Manawatu in 1980 . Taranaki has won the NPC second division more than any other Union in New Zealand , a record that the club will keep now the NPC is defunct . Taranaki also plays for the Ryan Wheeler memorial trophy , a trophy played for annually with the Waikato Rugby Union . In 2013 , Taranaki changed the Super Rugby allegiance to the Chiefs , after severing ties with the Hurricanes , which it had been part of since 1996 .",
    "/wiki/Palmerston_North": "Palmerston North ( /\u02c8p\u0251\u02d0m\u0259rst\u0259n/ ; M\u0101ori : Te Papa-i-Oea ) is a city in the North Island of New Zealand and the seat of the Manawat\u016b-Whanganui region . Located in the eastern Manawatu Plains , the city is near the north bank of the Manawatu River , 35 km ( 22 mi ) from the river 's mouth , and 12 km ( 7 mi ) from the end of the Manawatu Gorge , about 140 km ( 87 mi ) north of the capital , Wellington . Palmerston North is the country 's seventh-largest city and eighth-largest urban area , with an urban population of 86,600 ( June 2018 ) . The official limits of the city take in rural areas to the south , north-east , north-west and west of the main urban area , extending to the Tararua Ranges ; including the town of Ashhurst at the mouth of the Manawatu Gorge , the villages of Bunnythorpe and Longburn in the north and west respectively . The city covers a land area of 395 square kilometres ( 98,000 acres ) . The city 's location was once little more than a clearing in a forest and occupied by small communities of M\u0101ori , who called it Papa-i-Oea , believed to mean How beautiful it is . In the mid-19th century , it was settled by Europeans - originally by Scandinavians and , later , British colonists . On foundation , the British settlement was bestowed the name Palmerston , in honour of Viscount Palmerston , a former British Prime Minister . The suffix North was added in 1871 to distinguish the settlement from Palmerston in the South Island . Today , the name is often informally shortened to Palmy . Early Palmerston North relied on public works and sawmilling . The west coast railway was built in 1886 , linking the town to Wellington , and Palmerston North benefited from a booming pastoral farming industry .",
    "/wiki/Manawatu_Rugby_Union": "The Manawatu Rugby Football Union ( MRU ) is the governing body of the sport of rugby union in the Manawatu-Wanganui region of New Zealand . Founded in 1886 , Manawatu is one of New Zealand 's oldest rugby unions . In 1892 , the MRU , amongst other unions , was instrumental in the founding of the New Zealand Rugby Union ( NZRU ) . In 1997-98 Manawatu entered into an amalgamation with Hawke 's Bay , as the Central Vikings , and wore orange and blue . The union is based in the city of Palmerston North though its catchment area includes players and clubs from nearby towns in the province , including Ashhurst , Feilding , Rongotea , Linton , Bulls , Pahiatua , Woodville and Dannevirke . It has over 5,000 players , making it the tenth largest union in New Zealand in terms of player numbers . In 2011 , the union celebrated its 125th jubilee . Manawatu have traditionally played in a distinctive green and white tramline jersey , which is thought to have been established in 1909 . In 1996 , a jersey including red was worn , and colours worn have varied since the union was formed . The union 's home ground is Central Energy Trust Arena . It was host to two matches during the 2011 Rugby World Cup .",
    "/wiki/Whanganui": "Whanganui ( /\u02c8hw\u0252\u014b\u0259nu\u02d0i/ ; M\u0101ori : [ \u0278a\u014banui ] ) , also spelled Wanganui , is a city on the west coast of the North Island of New Zealand . The Whanganui River , New Zealand 's longest navigable waterway , runs from Mount Tongariro to the sea . Whanganui is part of the Manawat\u016b-Whanganui region . Whanganui is the ancestral home of Te \u0100ti Haunui-a-P\u0101p\u0101rangi and other Whanganui M\u0101ori tribes . The New Zealand Company began to settle the area in 1840 , establishing its second settlement after Wellington . In the early years most European settlers came via Wellington . Whanganui greatly expanded in the 1870s , and freezing works , woollen mills , phosphate works and wool stores were established in the town . Today , much of Whanganui 's economy relates directly to the fertile and prosperous farming hinterland . Like several New Zealand urban areas , it was officially designated a city until an administrative reorganisation in 1989 , and is now run by a District Council . Although the city was called Wanganui from 1854 , in February 2009 , the New Zealand Geographic Board recommended the spelling be changed to Whanganui . In December 2009 , the government decided that while either spelling was acceptable , Crown agencies would use the Whanganui spelling . On 17 November 2015 , Land Information New Zealand ( LINZ ) announced that Wanganui District would be renamed to Whanganui District .",
    "/wiki/Wanganui_Rugby_Football_Union": "The Wanganui Rugby Football Union ( WRFU ) is the governing body for rugby union in the Whanganui region of New Zealand . The Wanganui Rugby Football Union was formed in 1888 . The Wanganui team play from Cooks Gardens , Whanganui , and have enjoyed much success on the playing field throughout their history . The side are one of the leading provinces in New Zealand purely for the number of Divisional Championships won . Since the introduction of the National Provincial Championship in 1976 , Wanganui have won the 3rd most Provincial Championship titles , with 10 Championships to their name . They sit behind only Auckland ( with 16 Championships ) and Canterbury ( with 13 championships ) . Both the Taranaki and South Canterbury Rugby Unions sit just behind Wanganui with 8 Provincial Championships each . Further to this , the Wanganui team have played in Heartland Championship Grand Finals in 11 of the last 12 seasons of the Heartland Championship competition ( 10 in the top tier Meads Cup , and 1 in the second tier Lochore Cup ) . The Wanganui team were promoted to the top tier of New Zealand Rugby ( the Air New Zealand Cup Division One competition ) , for the 2010 season . Subsequently , the NZRU later announced another alteration to the NPC format for 2010 and 2011 , which meant the Air New Zealand Cup remained a 14-team competition .",
    "/wiki/Invercargill": "Invercargill ( /\u02cc\u026anv\u0259r\u02c8k\u0251\u02d0r\u0261\u026al/ , M\u0101ori : Waih\u014dpai ) is the southernmost and westernmost city in New Zealand , and one of the southernmost cities in the world . It is the commercial centre of the Southland region . The city lies in the heart of the wide expanse of the Southland Plains on the Oreti or New River some 18 km north of Bluff , which is the southernmost town in the South Island . It sits amid rich farmland that is bordered by large areas of conservation land and marine reserves , including Fiordland National Park covering the south-west corner of the South Island and the Catlins coastal region . Many streets in the city , especially in the centre and main shopping district , are named after rivers in Great Britain , mainly Scotland . These include the main streets Dee and Tay , as well as those named after the Tweed , Forth , Tyne , Esk , Don , Ness , Yarrow , Spey and Eye rivers . The 2013 census showed the population was 51,696 , up 2.7% on the 2006 census number .",
    "/wiki/Rugby_Southland": "Rugby Southland is the provincial rugby union who govern the Southland Region of New Zealand . Their headquarters are at Rugby Park Stadium in Invercargill , which is also the home ground of the union 's professional team , the Southland Stags who compete in the Mitre 10 Cup Championship Division and challenge for the Ranfurly Shield . Despite their proud history , no Southland team has ever won the top division of the New Zealand National Provincial Championship since organised competition began in 1976 . However , they have won the NPC second division title five times and held the Ranfurly Shield seven times , most recently in 2011 where they defended the shield twice before losing it to Taranaki . Southland also plays for the Donald Stuart Memorial Shield against rivals Otago in what is the longest tenured provincial rivalry in New Zealand first-class rugby , with 229 matches .",
    "/wiki/Dunedin": "Dunedin ( /d\u028c\u02c8ni\u02d0d\u026an/ ( listen ) duh-NEE-din ; M\u0101ori : \u014ctepoti ) is the second-largest city in the South Island of New Zealand ( after Christchurch ) , and the principal city of the Otago region . Its name comes from D\u00f9n \u00c8ideann , the Scottish Gaelic name for Edinburgh , the capital of Scotland . The urban area of Dunedin lies on the central-eastern coast of Otago , surrounding the head of Otago Harbour , and the harbour and hills around Dunedin are the remnants of an extinct volcano . The city suburbs extend out into the surrounding valleys and hills , onto the isthmus of the Otago Peninsula , and along the shores of the Otago Harbour and the Pacific Ocean . Dunedin was the largest New Zealand city by territorial land area until superseded by Auckland with the formation of the Auckland Council in November 2010 . Archaeological evidence points to lengthy occupation of the area by M\u0101ori prior to the arrival of Europeans . The province and region of Otago takes its name from the Ngai Tahu village of Otakou at the mouth of the harbour , which became a whaling station in the 1830s . In 1848 a Scottish settlement was established by the Lay Association of the Free Church of Scotland . Between 1855 and 1900 many thousands of Scots emigrated to the incorporated city . Dunedin became wealthy during the Central Otago Gold Rush , beginning in the 1860s . In the mid-1860s , and between 1878 and 1881 , it was New Zealand 's largest urban area . The city population at 5 March 2013 was 120,246 .",
    "/wiki/Otago_Rugby_Football_Union": "The Otago Rugby Football Union is the official governing body of rugby union for the Otago region of New Zealand . The union is based in the city of Dunedin , and its home ground is Forsyth Barr Stadium . The top representative team competes in the ITM Cup , New Zealand 's top provincial competition . The union was to have been liquidated in March 2012 . However a deal involving the Dunedin City Council allowed it to keep operating . Otago are the current holders of the Ranfurly Shield after winning it from Waikato in a 23-19 victory in Hamilton on 13 October 2018 .",
    "/wiki/Christchurch": "Christchurch ( /\u02c8kra\u026ast\u0283\u025c\u02d0rt\u0283/ ; M\u0101ori : \u014ctautahi ) is the largest city in the South Island of New Zealand and the seat of the Canterbury Region . The Christchurch urban area lies on the South Island 's east coast , just north of Banks Peninsula . The urban area is home to 377,200 residents , and the territorial authority has 385,500 people , which makes it the second-most populous city in New Zealand after Auckland and before Wellington . The Avon River flows through the centre of the city , with an urban park located along its banks . Archaeological evidence has indicated that people first settled in the Christchurch area in about 1250 . Christchurch became a city by Royal Charter on 31 July 1856 , making it officially the oldest established city in New Zealand . The Canterbury Association , which settled the Canterbury Plains , named the city after Christ Church , Oxford . The new settlement was laid out in a grid pattern centred on Cathedral Square ; during the 19th century there were few barriers to the rapid growth of the urban area , except for the Pacific to the east and the Port Hills to the south . Agriculture is the historic mainstay of Christchurch 's economy . The early presence of the University of Canterbury and the heritage of the city 's academic institutions in association with local businesses has fostered a number of technology-based industries . Christchurch is one of five 'gateway cities ' for Antarctic exploration , hosting Antarctic support bases for several nations . The city suffered a series of earthquakes between September 2010 and January 2012 , with the most destructive of them occurring at 12.51 p.m. on Tuesday , 22 February 2011 , in which 185 people were killed and thousands of buildings across the city collapsed or suffered severe damage .",
    "/wiki/New_Zealand_national_rugby_union_team": "The New Zealand national rugby union team , commonly known as the All Blacks , represents New Zealand in men 's international rugby union , which is considered to be the country 's national sport . The team won the Rugby World Cup in 2011 and 2015 , as well as the inaugural tournament in 1987 . New Zealand has a 77 per cent winning record in test match rugby , and is the only international men 's side to have secured more wins than losses against every opponent . Since their international debut in 1903 , they have played test matches against 19 nations , of which 12 have never won a game against the All Blacks . The team has also played against three multinational all-star teams , losing only eight of 45 matches . Since the introduction of the World Rugby Rankings in 2003 , New Zealand has held the number one ranking longer than all other teams combined . They jointly hold the record for the most consecutive test match wins for a tier one ranked nation , along with England . The All Blacks compete with Argentina , Australia and South Africa in The Rugby Championship , and have won the trophy sixteen times in the competition 's 23-year history . The team has completed a Grand Slam tour , against the four nations of the United Kingdom , four times ( 1978 , 2005 , 2008 and 2010 ) . New Zealand has been named the World Rugby Team of the Year ten times since the award was created in 2001 , and an All Black has won the World Rugby Player of the Year award ten times over the same period . Fifteen former All Blacks have been inducted into the International Rugby Hall of Fame . The team 's first match was in 1884 in New South Wales , and their first international test match was in 1903 against Australia in Sydney .",
    "/wiki/Timaru": "Timaru ( English : /\u02c8t\u026am\u0259\u02ccru\u02d0/ ; M\u0101ori : Te Tihi-o-Maru ) is a port city in the southern Canterbury region of New Zealand , located 157 kilometres ( 98 mi ) southwest of Christchurch and about 196 kilometres ( 122 mi ) northeast of Dunedin on the eastern Pacific coast of the South Island . The Timaru urban area is home to 29,100 people , and is the largest urban area in South Canterbury , and the second largest in the Canterbury Region overall , after Christchurch . The city is the seat of the Timaru District , which includes the surrounding rural area and the towns of Geraldine , Pleasant Point and Temuka , which combined has a total population of 47,700 . Caroline Bay beach is a popular recreational area located close to Timaru 's city centre , just to the north of the substantial port facilities . Beyond Caroline Bay , the industrial suburb of Washdyke is at a major junction with State Highway 8 , the main route into the Mackenzie Country . This provides a road link to Pleasant Point , Fairlie , Twizel , Lake Tekapo , Aoraki / Mount Cook and Queenstown . Timaru has been built on rolling hills created from the lava flows of the extinct Mt Horrible volcano , which last erupted thousands of years ago . The result is that most of the main streets are undulating , a clear contrast with the flat landscape of the Canterbury Plains to the north . This volcanic rock is used for the construction of local bluestone buildings .",
    "/wiki/South_Canterbury_Rugby_Football_Union": "The South Canterbury Rugby Football Union ( SCRFU ) is a rugby province based in the central South Island city of Timaru , New Zealand . The South Canterbury team play from Alpine Energy Stadium located in Timaru .",
    "/wiki/Nelson,_New_Zealand": "Nelson ( M\u0101ori : Whakat\u016b ) is a city on the eastern shores of Tasman Bay . Nelson is the oldest city in the South Island and the second-oldest settled city in New Zealand - it was established in 1841 and was proclaimed a city by royal charter in 1858 . Nelson City is bordered to the west and south-west by Tasman District Council and to the north-east , east and south-east by Marlborough District Council . The city does not include Richmond , the area 's second-largest settlement . Nelson City has a population of around 50,000 , making it New Zealand 's 12th most populous city . When combined with the town of Richmond , which has roughly 15,000 residents , the whole conurbation is ranked as New Zealand 's 9th largest urban area by population . Nelson is well known for its thriving local arts and crafts scene ; each year , the city hosts events popular with locals and tourists alike , such as the Nelson Arts Festival . The annual Wearable Art Awards began near Nelson and a local museum , World of Wearable Art now showcases winning designs alongside a collection of classic cars .",
    "/wiki/Tasman_Rugby_Union": "The Tasman Rugby Union is the governing body for rugby union in Tasman Bay , a bay at the north end of the South Island in New Zealand . Headquartered in Nelson , TRU is New Zealand 's newest provincial union , founded in 2006 with the amalgamation of the existing Marlborough and Nelson Bays sub unions . The union 's premier team is the Tasman Mako which compete in New Zealand 's provincial rugby competition , the Mitre 10 Cup .",
    "/wiki/Napier,_New_Zealand": "Napier ( /\u02c8ne\u026api\u0259r/ NAY-pee-\u0259r ; M\u0101ori : Ahuriri ) is a New Zealand city with a seaport , located in Hawke 's Bay on the eastern coast of the North Island . The population of Napier is about 62,800 as of June 2019 . About 18 kilometres ( 11 mi ) south of Napier is the inland city of Hastings . These two neighbouring cities are often called The Bay Cities or The Twin Cities of New Zealand . The total population of the Napier-Hastings Urban Area is 134,500 people , which makes it the sixth-largest urban area in New Zealand , closely followed by Dunedin ( 122,000 ) , and trailing Tauranga ( 141,600 ) . Napier is about 320 kilometres ( 200 mi ) northeast of the capital city of Wellington . Napier ( 63,900 ) has a smaller population than its neighbouring city of Hastings ( 70,600 ) but is seen as the main centre due to it being closer in distance to both the seaport and the main airport that service Hawke 's Bay , and Hastings ' population figure includes 13,000 people living in Havelock North , which is often considered a town in its own right . The City of Napier has a land area of 106 square kilometres ( 41 sq mi ) and a population density of 540.0 per square kilometre . Napier is the nexus of the largest wool centre in the Southern Hemisphere , and it has the primary export seaport for northeastern New Zealand - which is the largest producer of apples , pears , and stone fruit in New Zealand . The Hawke 's Bay wine region is now the second largest in New Zealand after Marlborough , and grapes grown around Hastings and Napier are sent through the Port of Napier for export . Large amounts of sheep 's wool , frozen meat , wood pulp , and timber also pass through Napier annually for export . Smaller amounts of these materials are shipped via road and railway to the large metropolitan areas of New Zealand itself , such as Auckland , Wellington and Hamilton .",
    "/wiki/M\u0101ori_All_Blacks": "The M\u0101ori All Blacks , previously called the New Zealand M\u0101ori , are a rugby union team from New Zealand . A representative team of the New Zealand Rugby Union , a prerequisite for playing in the team is that the player has M\u0101ori whakapapa ( genealogy ) . In the past this rule was not strictly applied ; non-M\u0101ori players who looked M\u0101ori were often selected in the team . These included a few Pacific island players and a couple of African descent . Today all players have their ancestry verified before selection in the team . The team 's first match was in 1888 against Hawke 's Bay . This was followed by a tour of Europe in 1888 and 1889 where the team played their first games against national teams , beating Ireland in Dublin before losing to Wales and England . Their early uniforms consisted of a black jersey with a silver fern and white knickerbockers . The New Zealand M\u0101ori perform a haka - a M\u0101ori challenge or posture dance - before each match . The haka was later adopted by the New Zealand national team , the All Blacks , as were their black shirts . In 2001 , the M\u0101ori first performed the Timatanga haka , which describes the evolution of life and the creation of New Zealand from the four winds . Since being given official status in 1910 , the New Zealand Maori have selected some of rugby union 's great players , including fullback George Nepia who played 46 games for New Zealand from 1924-30 , halfback Sid Going who played 86 matches for his country and former New Zealand captain Tane Norton , who represented New Zealand in 61 games , including 27 tests , and later became president of the New Zealand Rugby Union .",
    "/wiki/Wellington": "Wellington ( M\u0101ori : Te Whanganui-a-Tara [ t\u025b \u02c8fa\u014ban\u0289i a ta\u027ea ] ) is the capital and second-most populous urban area of New Zealand , with 418,500 residents . It is located at the south-western tip of the North Island , between Cook Strait and the Remutaka Range . Wellington is the major population centre of the southern North Island , and is the administrative centre of the Wellington Region , which also includes the Kapiti Coast and the Wairarapa . It is the world 's southernmost capital of a sovereign state . Wellington features a temperate maritime climate , and is the world 's windiest city by average wind speed . The Wellington metropolitan area comprises four local authorities : Wellington City , on the peninsula between Cook Strait and Wellington Harbour , contains the central business district and about half the population ; Porirua on Porirua Harbour to the north is notable for its large M\u0101ori and Pacific Island communities ; Lower Hutt and Upper Hutt are largely suburban areas to the northeast , together known as the Hutt Valley . As the nation 's capital since 1865 , the New Zealand Government and Parliament , Supreme Court and most of the public service are based in the city . Architectural sights include The Old Government Buildings - one of the largest wooden buildings in the world - as well as the iconic Beehive , the executive wing of the New Zealand Parliament . Wellington is also home to several of the largest and oldest cultural institutions in the nation , such the National Archives , the National Library , the Museum of New Zealand Te Papa Tongarewa , and numerous theatres . It plays host to many artistic and cultural organisations , including the New Zealand Symphony Orchestra and Royal New Zealand Ballet . One of the world 's most liveable cities , the 2016 Mercer Quality of Living Survey ranked Wellington 12th in the world , and was first in the world for both liveability and non-pollution by Deutsche Bank , from 2017-18 . Wellington 's economy is primarily service-based , with an emphasis on finance , business services , and government .",
    "/wiki/Rotorua": "Rotorua [ \u02cc\u027e\u0254t\u0254\u02c8\u027e\u0289a ] ( M\u0101ori : Te Rotorua-nui-a-Kahumatamomoe The second great lake of Kahumatamomoe ) is a city on the southern shores of Lake Rotorua from which the city takes its name , located in the Bay of Plenty Region of New Zealand 's North Island . It is the seat of the Rotorua District , a territorial authority encompassing Rotorua and several other nearby towns . The majority of the Rotorua District is in the Bay of Plenty Region , but a sizeable southern section and a small western section are in the Waikato Region . Rotorua is in the heart of the North Island , 60 kilometres ( 37 miles ) south of Tauranga , 80 km ( 50 mi ) north of Taupo , 105 km ( 65 mi ) east of Hamilton , and 230 km ( 140 mi ) southeast of the nation 's most populous city , Auckland . Rotorua has an estimated permanent population of 59,500 , making it the country 's 10th largest urban area , and the Bay of Plenty 's second largest urban area behind Tauranga . The Rotorua District has a total estimated population of 74,000 , of which 3,600 live in the Waikato section . Rotorua is a major destination for both domestic and international tourists ; the tourism industry is by far the largest industry in the district . It is known for its geothermal activity , and features geysers - notably the Pohutu Geyser at Whakarewarewa - and hot mud pools . This thermal activity is sourced to the Rotorua caldera , in which the town lies . Rotorua is home to the Toi Ohomai Institute of Technology . The Lakes of Rotorua are a collection of many lakes surrounding Rotorua .",
    "/wiki/Bay_of_Plenty_Steamers": "The Bay of Plenty Steamers are the top representative team under the Bay of Plenty Rugby Union in New Zealand . They have competed in the ITM Cup since 2006 . They have a total of 21 All Blacks , the latest being Nathan Harris in 2014 . They are coached by Clayton McMillan .",
    "/wiki/Auckland": "Auckland ( /\u02c8\u0254\u02d0kl\u0259nd/ AWK-l\u0259nd ) ( M\u0101ori : T\u0101maki Makaurau ) is a city in the North Island of New Zealand . The most populous urban area in the country , Auckland has an urban population of around 1,570,100 ( June 2018 ) . It is located in the Auckland Region - the area governed by Auckland Council - which includes outlying rural areas and the islands of the Hauraki Gulf , resulting in a total population of 1,618,400 . Auckland is a diverse , multicultural and cosmopolitan city , home to the largest Polynesian population in the world . The M\u0101ori-language name for Auckland is T\u0101maki Makaurau , meaning T\u0101maki desired by many , in reference to the desirability of its natural resources and geography . Auckland lies between the Hauraki Gulf of the Pacific Ocean to the east , the low Hunua Ranges to the south-east , the Manukau Harbour to the south-west , and the Waitakere Ranges and smaller ranges to the west and north-west . The surrounding hills are covered in rainforest and the landscape is dotted with dozens of dormant volcanic cones . The central part of the urban area occupies a narrow isthmus between the Manukau Harbour on the Tasman Sea and the Waitemat\u0101 Harbour on the Pacific Ocean . Auckland is one of the few cities in the world to have a harbour on each of two separate major bodies of water . The isthmus on which Auckland resides was first settled around 1350 and was valued for its rich and fertile land . The M\u0101ori population in the area is estimated to have peaked at 20,000 before the arrival of Europeans . After a British colony was established in 1840 , William Hobson , then Lieutenant-Governor of New Zealand , chose the area as his new capital .",
    "/wiki/Auckland_rugby_union_team": "Auckland are the top representative rugby union team of the Auckland Rugby Football Union in New Zealand . They currently compete in the Mitre 10 Cup Premiership . Auckland has been the most successful team in NPC and its successors , winning the title a record 16 times . Auckland have also produced a record number of All Blacks , 181 , the most recent being Akira Ioane in 2017 . Auckland are currently coached by Alama Ieremia .",
    "/wiki/Whang\u0101rei": "Whangarei ( /\u02ccf\u0252\u014b\u0259\u02c8re\u026a/ , or /\u02ccw\u0252\u014b\u0259\u02c8re\u026a/ ; M\u0101ori : [ fa\u014ba\u02c8\u027e\u025bi ] ) is the northernmost city in New Zealand and the regional capital of Northland Region . It is part of the Whangarei District , a local body created in 1989 from the former Whangarei City , Whangarei County and Hikurangi Town councils , to administer both the city proper and its hinterland . The city population was estimated to be 58,700 in June 2018 , an increase from 47,000 in 2001 .",
    "/wiki/Northland_Rugby_Union": "The Northland Rugby Union is the governing body of rugby union in the Northland region of New Zealand , including the northernmost part of the Auckland local government region . It was named the North Auckland Rugby Union from its founding in 1920 until 1994 ."
  },
  "United_States_Senate_Committee_on_Agriculture,_Nutrition_and_Forestry_2": {
    "/wiki/United_States_Senate_Agriculture_Subcommittee_on_Commodities,_Risk_Management_and_Trade": "The U.S. Senate Agriculture Subcommittee on Commodities , Markets and Trade is one of five subcommittees of the U.S. Senate Committee on Agriculture , Nutrition and Forestry . This subcommittee has jurisdiction over legislation on agricultural commodities , including cotton , dairy products , feed grains , wheat , tobacco , peanuts , sugar , wool , rice , oilseeds and soybeans and price and income support programs .",
    "/wiki/John_Boozman": "John Nichols Boozman ( /\u02c8bo\u028azm\u0259n/ ; born December 10 , 1950 ) is the senior United States senator for Arkansas , and a member of the Republican Party . He served as the United States Representative for Arkansas 's 3rd congressional district from 2001 to 2011 . A fifth-generation Arkansas , John was born in Shreveport , Louisiana where his father was stationed with the U.S. Air Force , but the family eventually returned to Fort Smith , Arkansas where he was raised . He is the brother of the late state Senator Fay Boozman . He attended the University of Arkansas , where he played football for the Arkansas Razorbacks , and graduated from the Southern College of Optometry . He co-founded a private optometry clinic in 1977 and worked as a volunteer optometrist for low-income families . He won a special election in 2001 to the U.S. House of Representatives , where he served as assistant majority whip and sat on the Republican Policy Committee . He was an advocate for drug policy issues and chaired the Veteran Affairs Economic Opportunity Subcommittee , where he led the passage of bills expanding services for unemployed veterans . Boozman was elected to the United States Senate in 2010 , defeating Democratic incumbent Blanche Lincoln by a 21-point margin and becoming the first Republican to be elected to the seat since Reconstruction . He took office in January 2011 and is the ranking Republican on the Senate Agriculture , Nutrition , and Forestry Subcommittee on Commodities , Risk Management and Trade and the Senate Appropriations Committee Subcommittee on Military Construction and Veterans Affairs and Related Agencies . He is also a senior member of the United States Senate Committee on Veterans ' Affairs . Boozman became the senior Senator from Arkansas in 2015 when Mark Pryor left the Senate after his defeat .",
    "/wiki/Sherrod_Brown": "Sherrod Campbell Brown ( , born November 9 , 1952 ) is an American politician serving as the senior United States Senator from Ohio , a seat to which he was first elected in 2006 . A member of the Democratic Party , he was the U.S. Representative for Ohio 's 13th congressional district from 1993 to 2007 and the 47th Secretary of State of Ohio from 1983 to 1991 . He started his political career in 1975 as an Ohio State Representative . Brown defeated two-term Republican incumbent Mike DeWine in the 2006 U.S. Senate election and was reelected in 2012 , defeating state Treasurer Josh Mandel , and in 2018 , defeating U.S. Representative Jim Renacci . In the Senate , he was chair of the Agriculture Subcommittee on Hunger , Nutrition and Family Farms and the Banking Subcommittee on Economic Policy , and is also a member of the Committee on Finance , the Committee on Veterans ' Affairs , and Select Committee on Ethics . At the start of the 114th Congress in January 2015 , Brown became the Ranking Democratic Member on the Committee on Banking , Housing , and Urban Affairs . He was later appointed co-chair of the newly formed Joint Multiemployer Pension Solvency Committee in March 2018 . As of 2019 he is the only Democratic statewide elected official in Ohio . After winning his third term in 2018 , Brown was considered a potential candidate for the Democratic presidential nomination in 2020 , and began exploring a run in January 2019 . On March 7 , 2019 , he announced that he would not run for president .",
    "/wiki/United_States_Senate_Agriculture_Subcommittee_on_Conservation,_Forestry_and_Natural_Resources": "The U.S. Senate Agriculture Subcommittee on Conservation , Forestry and Natural Resources is one of five subcommittees of the U.S. Senate Committee on Agriculture , Nutrition and Forestry . This subcommittee has jurisdiction over rural development legislation and rural electrification legislation , oversight of rural electrification , agricultural credit , the Farm Credit System , the Farm Credit Administration , and the Farmers Home Administration and its successor agencies . It also has jurisdiction over crop insurance , forestry in general and forest reserves that were acquired from state , local , or private sources , soil conservation , stream channelization , and watershed and flood control programs involving structures of less than storage capacity . The subcommittee was renamed for the 112th Congress ( 2011 ) . It was formerly named the Subcommittee on Rural Revitalization , Conservation , Forestry and Credit Jurisdiction .",
    "/wiki/Mike_Braun": "Michael K. Braun ( born March 24 , 1954 ) is an American businessman and politician serving as the junior United States senator from Indiana . Previously , he represented the 63rd district in the Indiana House of Representatives from 2014 to 2017 . A member of the Republican Party , Braun was elected to the United States Senate in 2018 , defeating Democratic incumbent Joe Donnelly .",
    "/wiki/Michael_Bennet": "Michael Farrand Bennet ( born November 28 , 1964 ) is an American businessman , lawyer , and politician who has served as the senior United States Senator from Colorado since 2009 . A member of the Democratic Party , he was appointed to the seat when Senator Ken Salazar became Secretary of the Interior . Bennet previously worked as a managing director for the Anschutz Investment Company , chief of staff to Denver Mayor John Hickenlooper , and Superintendent of Denver Public Schools . Bennet is the son of Douglas J. Bennet , a former State Department official and president of Wesleyan University . Early in his career , Bennet worked for Ohio Governor Richard Celeste . He went on to receive his Juris Doctor degree from Yale Law School , after which he worked as a law clerk and later as Counsel to the U.S. Deputy Attorney General in the Bill Clinton Administration . Bennet became superintendent of the Denver public school system in July 2005 . In late 2008 he was speculated to be a candidate for Obama 's United States Secretary of Education . He was appointed by Governor Bill Ritter to fill the U.S. Senate seat vacated by Ken Salazar when Salazar became Secretary of the Interior in January 2009 . Bennet was elected in the 2010 Senate election , defeating Republican Ken Buck . He chaired the Democratic Senatorial Campaign Committee ( DSCC ) for the 2014 cycle and was reelected to the Senate in 2016 . On May 2 , 2019 , Bennet announced his candidacy for the Democratic nomination for President of the United States .",
    "/wiki/United_States_Senate_Agriculture_Subcommittee_on_Livestock,_Marketing_and_Agriculture_Security": "The U.S. Senate Agriculture Subcommittee on Livestock , Marketing and Agriculture Security is one of five subcommittees of the U.S. Senate Committee on Agriculture , Nutrition and Forestry . This subcommittee has jurisdiction over legislation on foreign agricultural trade , foreign market development , and agriculture product promotion and domestic marketing programs . It oversees international commodity agreements and export controls on agricultural commodities , foreign assistance programs and Food for Peace , marketing orders , inspection and certification of meat , flowers , fruit , vegetables and livestock .",
    "/wiki/Cindy_Hyde-Smith": "Cindy Hyde-Smith ( born May 10 , 1959 ) is an American politician serving as the junior United States Senator from Mississippi , in office since 2018 . A member of the Republican Party , she was previously the Mississippi Commissioner of Agriculture and Commerce and a member of the Mississippi State Senate . Born in Brookhaven , Mississippi , Hyde-Smith is a graduate of Copiah-Lincoln Community College and the University of Southern Mississippi . In 1999 she was elected to the Mississippi State Senate as a Democrat . She represented the 39th district from 2000 to 2012 . In 2010 Hyde-Smith switched parties and became a Republican , citing her conservative beliefs . Hyde-Smith was elected Mississippi Agriculture Commissioner in 2011 , the first woman elected to that office . On March 21 , 2018 , Governor Phil Bryant announced his intention to appoint Hyde-Smith to the United States Senate seat being vacated due to the resignation of Thad Cochran . Hyde-Smith was sworn into office on April 9 , 2018 . She is the first woman to represent Mississippi in Congress . Hyde-Smith was a candidate in the 2018 U.S. Senate special election for the remainder of Cochran 's term , which expires in 2021 . She finished first in the top-two general election on November 6 , 2018 , but did not receive more than 50% of the vote , thus advancing to a November 27 special runoff election versus Mike Espy .",
    "/wiki/Kirsten_Gillibrand": "Kirsten Elizabeth Gillibrand ( n\u00e9e Rutnik ; /\u02c8k\u026a\u0259rst\u0259n \u02c8d\u0292\u026al\u026abr\u00e6nd/ ( listen ) KEER-st\u0259n JIL-i-brand ; born December 9 , 1966 ) is an American lawyer and politician and a member of the Democratic Party . She has served as the junior United States Senator from New York since 2009 , and was a member of the U.S. House of Representatives from 2007 to 2009 . Born and raised in upstate New York , Gillibrand graduated from Dartmouth College and from the UCLA School of Law . After holding positions in government and private practice and working on Hillary Clinton 's 2000 U.S. Senate campaign , Gillibrand was elected to the United States House of Representatives in 2006 . She represented New York 's 20th congressional district , a conservative district in upstate New York , and was re-elected in 2008 . During her House tenure , Gillibrand was a Blue Dog Democrat noted for voting against the Emergency Economic Stabilization Act of 2008 ( commonly known as the bank bailout ) and for supporting Medicare-for-all . Following Senator Clinton 's appointment as Secretary of State in 2009 , Governor David Paterson selected Gillibrand to fill the Senate seat that had been vacated by Clinton . Gillibrand won a special election in 2010 to keep the seat , and was re-elected to full terms in 2012 and 2018 . During her Senate tenure , Gillibrand has shifted to the left . She has been outspoken on sexual assault in the military and sexual harassment , having criticized President Bill Clinton and Senator Al Franken , both fellow Democrats , for sexual misconduct . She supports paid family leave , a federal jobs guarantee , and the abolition and replacement of the U.S. Immigration and Customs Enforcement . Gillibrand was a candidate for the Democratic nomination for President of the United States in 2020 , following an official campaign announcement on March 17 , 2019 .",
    "/wiki/United_States_Senate_Agriculture_Subcommittee_on_Nutrition,_Agricultural_Research_and_Specialty_Crops": "The U.S. Senate Agriculture Subcommittee on Nutrition , Agricultural Research and Specialty Crops is one of five subcommittees of the U.S. Senate Committee on Agriculture , Nutrition and Forestry .",
    "/wiki/Deb_Fischer": "Debra Lynelle Strobel Fischer ( born March 1 , 1951 ) is an American politician serving as the senior United States Senator from Nebraska since 2013 . Prior to that , she served two terms in the Nebraska Legislature , representing a rural district in the Sandhills . She is a member of the Republican Party .",
    "/wiki/Bob_Casey_Jr.": "Robert Patrick Casey Jr. ( born April 13 , 1960 ) is an American attorney and politician serving as the senior United States Senator from Pennsylvania , a seat to which he was first elected in 2006 . He previously served as Pennsylvania Auditor General from 1997 to 2005 and as Pennsylvania Treasurer from 2005 to 2007 . Born in Scranton , Pennsylvania , Casey is the son of Bob Casey , a former Governor of Pennsylvania . After graduating from Scranton Preparatory School in 1978 , he attended the College of the Holy Cross . He received his J.D . degree from The Catholic University of America Columbus School of Law . Casey practiced law in Scranton , Pennsylvania , before beginning his political career as Pennsylvania 's Auditor General , a post to which he was elected in 1996 and re-elected in 2000 . In 2002 , Casey attempted to follow in his father 's footsteps by running for Governor of Pennsylvania , but was defeated in the Democratic primary by eventual general election victor Ed Rendell . After being term-limited out of his position as Auditor General , Casey was elected Treasurer in the 2004 election . Casey defeated two-term Republican incumbent Rick Santorum in the 2006 United States Senate election in Pennsylvania . He was reelected in 2012 , becoming the first Democrat to win re-election to the U.S. Senate from Pennsylvania since Joseph S. Clark Jr. in 1962 . In 2018 , Casey defeated Republican U.S. Representative Lou Barletta to win a third term , becoming Pennsylvania 's first ever Democrat to win a third consecutive term in the Senate .",
    "/wiki/United_States_Senate_Agriculture_Subcommittee_on_Rural_Development_and_Energy": "The U.S. Senate Agriculture Subcommittee on Rural Development and Energy is one of five subcommittees of the U.S. Senate Committee on Agriculture , Nutrition and Forestry .",
    "/wiki/Joni_Ernst": "Joni Kay Ernst ( n\u00e9e Culver , July 1 , 1970 ) is an American politician and former military officer serving as the junior United States Senator for Iowa since 2015 . A Republican , she served in the Iowa Senate from 2011 to 2014 . She served in the Iowa Army National Guard from 1993 to 2015 , retiring as a lieutenant colonel . Ernst is the first woman to represent Iowa in Congress and the first female combat veteran elected to the United States Senate from any state . She was elected vice chair of the United States Senate Republican Conference in November 2018 .",
    "/wiki/Tina_Smith": "Christine Elizabeth Tina Flint Smith ( born March 4 , 1958 ) is an American politician and former businesswoman serving as the junior United States senator from Minnesota since 2018 . She is a member of the Minnesota Democratic-Farmer-Labor Party ( DFL ) , an affiliate of the Democratic Party . Smith served as the 48th lieutenant governor of Minnesota from 2015 to 2018 before being appointed to fill the United States Senate seat vacated by Al Franken . She won the 2018 special election to fill the remainder of Franken 's term , defeating Republican Karin Housley , a Minnesota state senator ."
  }
}