{
  "Template:2016_Summer_Olympics_Argentina_women's_field_hockey_team_roster_0": {
    "/wiki/Bel\u00e9n_Succi": "Mar\u00eda Bel\u00e9n Succi ( born 16 October 1985 ) is an Argentine field hockey goalkeeper who won the gold medal at the 2007 Pan American Games and 2019 Pan American Games , silver medal in 2015 Pan American Games and 2011 Pan American Games , the bronze medal at the 2008 Summer Olympics in Beijing with the Argentina national field hockey team . Bel\u00e9n also won the 2010 World Cup in Rosario , Argentina , six Champions Trophy , the World League 2014-15 and three Pan American Cups .",
    "/wiki/Club_Atl\u00e9tico_San_Isidro": "The Club Atl\u00e9tico de San Isidro ( mostly known for its acronym CASI ) is an Argentine sports club based in the city of San Isidro in Greater Buenos Aires . Originally established as a football club , San Isidro has gained recognition for its rugby union team , holding a record of 33 Torneo de la URBA championships . The senior squad currently competes at Top 12 , the top division of the Uni\u00f3n de Rugby de Buenos Aires league system . San Isidro has also a notable past in football , with 28 consecutive seasons playing in Primera Divisi\u00f3n , the top division of Argentine football league system until the club disaffiliated from the Association when the sport became professional in Argentina . Until then , San Isidro had achieved some international titles such as three Copa de Competencia Jockey Club , one Copa de Honor Municipalidad de Buenos Aires and one international Tie Cup . Nowadays , football is practised at the institution with youth and senior amateur competitions for men and women . The field hockey section has women 's and men 's team competing at Metropolitano championships organised by the Buenos Aires Hockey Association . Apart from rugby , hockey and football , other disciplines hosted by San Isidro are artistic gymnastics , basque pelota , bowls , gaelic football , golf , squash , swimming , taekwondo and tennis .",
    "/wiki/Victoria_Zuloaga": "Mar\u00eda Victoria Zuloaga Arcodia ( born 14 February 1988 ) is an Argentine field hockey player . At the 2011 Champions Trophy and 2011 Pan American Games , she competed for the Argentina national field hockey team winning the silver medal in both tournaments . After not being considered by different coaches , she made her return to the national team in late 2015 and won the 2014-2015 World League .",
    "/wiki/Martina_Cavallero": "Martina Cavallero ( born 7 May 1990 ) is an Argentine field hockey player . At the 2012 Summer Olympics , she competed for the Argentina national team where the team achieved the silver medal . Martina also won three Champions Trophy , the World League 2014-15 , the bronze medal at the 2014 World Cup and two Pan American Cups . She was also part of the 2016 Olympic team .",
    "/wiki/Hurling_Club": "Hurling Club , usually just Hurling , is an Argentine sports club , located in Hurlingham , Buenos Aires . As its name implies , the club was established in 1922 as a hurling team . Other disciplines hosted by Hurling are field hockey , gaelic football , rugby union and tennis . The rugby team currently plays in Primera Divisi\u00f3n B , the second division of the URBA league system , while the hockey team competes at tournaments organised by the Buenos Aires Hockey Association . Hurling is also notable for being the first Argentine club where gaelic football was practised , with regular invitational matches held against Irish teams and other gaelic football teams from Buenos Aires . The national side won the World Cup held in Abu Dhabi in 2015 , with a team formed exclusively by rugby union footballers .",
    "/wiki/Carla_Rebecchi": "Carla Rebecchi ( born 7 September 1984 ) is an Argentine field hockey player who won the bronze medal at the 2008 Summer Olympics in Beijing and the silver medal at the 2012 Summer Olympics in London with the Argentina national field hockey team . In 2010 , she won the World Cup in Rosario , Argentina . Carla also won six Champions Trophy , the 2014-2015 World League , two medals at the Pan American Games and two Pan American Cups . After Luciana Aymar retired and Macarena Rodriguez was left out of the national team after the 2015 Pan American Games , she was selected to be the captain . In February 2017 she announced her retirement after 290 matches and 153 goals , and returned after becoming a mother in 3 September 2018 .",
    "/wiki/Captain_(sports)": "In team sport , captain is a title given to a member of the team . The title is frequently honorary , but in some cases the captain may have significant responsibility for strategy and teamwork while the game is in progress on the field . In either case , it is a position that indicates honor and respect from one 's teammates - recognition as a leader by one 's peers . In association football and cricket , a captain is also known as a skipper . Various sports have differing roles and responsibilities for team captains . Depending on the sport , team captains may be given the responsibility of interacting with game officials regarding application and interpretation of the rules . In many team sports , the captains represent their respective teams when the match official does the coin toss at the beginning of the game . The team captain , in some sports , is selected by the team coach , who may consider factors ranging from playing ability to leadership to serving as a good moral example to the team . Coaches may also choose to change team captains from time to time , or to have a rotation of team captains . Some of the greatest captains in history are the ones with the most subtle of traits that are required for success . From Sam Walker in his book The Captain Class he states that a captain is the most important factor for a team 's success .",
    "/wiki/Club_Ciudad_de_Buenos_Aires": "Club Ciudad de Buenos Aires , familiarly nicknamed as Muni , is an Argentine sports and social club located in the N\u00fa\u00f1ez district of the city of Buenos Aires . The institution was founded on October 6 , 1920 . The nickname Muni is a diminutive of the word Municipalidad , which was the way the Government of Buenos Aires seat was called until the 1994 reform of the Argentine Constitution . Since then , the Executive is called Jefe de Gobierno ( Chief of Government ) instead of Intendente ( Mayor ) and the former Municipalidad denomination became obsolete .",
    "/wiki/Delfina_Merino": "Delfina Merino ( born 15 October 1989 ) is an Argentine field hockey player . At the 2012 Summer Olympics , she competed for the Argentina national field hockey team and the team achieved the silver medal . Delfina also won the 2010 World Cup in Rosario , Argentina , five Champions Trophy , the World League 2014-15 and three Pan American Cups . She was part of the 2016 Olympic squad . In February 2018 , she was elected as the best player in the world by the International Hockey Federation .",
    "/wiki/Club_Atl\u00e9tico_Banco_de_la_Provincia_de_Buenos_Aires": "Club Atl\u00e9tico Banco de la Provincia de Buenos Aires , simply known as Banco Provincia is a sports club based in Vicente L\u00f3pez Partido in Greater Buenos Aires . The club , mostly known for its men 's and women 's field hockey teams , hosts a wide variety of sports such as basketball , football , gymnastics , golf , swimming , tennis , martial arts amongst other sports and social activities . The men 's team has won 8 Metropolitano titles , being the last one in 2015 , when both teams , men 's and women 's , won their respective championships .",
    "/wiki/Agustina_Habif": "Agustina Paula Habif ( born 8 March 1992 ) is an Argentine field hockey player . At the 2014 Champions Trophy she won her first gold medal with the Argentina national team in an international tournament . Agustina also won the 2014-2015 World League and the 2016 Champions Trophy .",
    "/wiki/Gimnasia_y_Esgrima_de_Buenos_Aires": "Club de Gimnasia y Esgrima ( also known for its acronym GEBA ) is an Argentine multi-sports club placed in the city of Buenos Aires . The institution is one of the oldest in the country , having been established in 1880 . Gimnasia y Esgrima is also one of largest clubs of Argentina , with around 30 different disciplines hosted in the three buildings that the institution owns in Buenos Aires .",
    "/wiki/Mar\u00eda_Jos\u00e9_Granatto": "Mar\u00eda Jos\u00e9 Granatto ( born 21 April 1995 ) is an Argentine field hockey player who plays as a forward for Dutch club HC Oranje-Rood and the Argentina national team . She was part of the Argentine team at the 2016 Summer Olympics in Rio de Janeiro and won a gold medal at the 2019 Pan American Games . On club level she plays for Club Santa B\u00e1rbara in Argentina . At the 2016 and 2017 Hockey Stars Awards she won the FIH Rising Star of the Year .",
    "/wiki/Florencia_Habif": "Florencia Martina Habif ( born 22 August 1993 ) is an Argentine field hockey player . Being part of Argentina 's Junior National Team Las Leoncitas ( The Baby Lionesses ) since 2009 and of the National Team Las Leonas ( The Lionesses ) since 2010 , she competed in several tournaments , including the 2012 Summer Olympics in London , where the team achieved the silver medal , being the team 's youngest player . Florencia is also a player in the club Gimnasia y Esgrima de Buenos Aires ( GEBA ) since she was 4 years old . Habif is part of the so-called New Generation of Argentina 's Women 's Field Hockey .",
    "/wiki/Roc\u00edo_S\u00e1nchez_Moccia": "Roc\u00edo S\u00e1nchez Moccia ( born 2 August 1988 ) is an Argentine field hockey player . At the 2012 Summer Olympics , she competed for the Argentina national team and won the silver medal . Roc\u00edo has also won three Champions Trophy , the World League 2014-15 , the bronze medal at the 2014 World Cup in The Hague , Netherlands and three Pan American Cups .",
    "/wiki/Liceo_Naval_(rugby)": "Centro de Gradudados del Liceo Naval Militar , or simply Liceo Naval , is an Argentine sports club formed by graduates from Liceo Naval Almirante Brown ( Almirante Brown Naval High School ) , one of the two educative institutions of the Argentine Navy . The field is located in N\u00fa\u00f1ez , Buenos Aires , close to the Ciudad Universitaria . Liceo Naval 's senior rugby union team competes in Primera Divisi\u00f3n B , the third division of the Uni\u00f3n de Rugby de Buenos Aires league system. , while the women 's field hockey team plays the Torneo Metropolitano , the main competition of Buenos Aires . Other sports practised at Liceo Naval are football , rowing and tennis .",
    "/wiki/Agustina_Albertario": "Agustina Albertario ( born 1 January 1993 ) is an Argentine field hockey player . At the 2013 Pan American Cup she won her first gold medal with the Argentina national field hockey team in an international tournament . Agustina also won the World League 2014-15 and the bronze medal at the 2014 World Cup .",
    "/wiki/Lomas_Athletic_Club": "Lomas Athletic Club is an Argentine sports club from the Lomas de Zamora district of Greater Buenos Aires . One of Argentina 's oldest clubs still in existence , Lomas is one of the four institutions that founded the River Plate Rugby Championship ( current Argentine Rugby Union ) in 1899 , The rugby union team currently plays in Primera A , the second division of the URBA league system . Lomas Athletic is also considered the first great football team of Argentina , having won six consecutive titles between 1893 and 1898 , although the team disaffiliated from the Association in 1909 and the sport is no longer practised at the club . Lomas Athletic has also had a prevailing role in field hockey , with the female section being the most winning team in Argentina with 17 Metropolitano championships won , a record shared with Quilmes . Nevertheless , in 2014 the first team was relegated to the second division after playing Italiano . Lomas field hockey teams compete at tournaments organised by the Buenos Aires Hockey Association ( AHBA ) . Apart from rugby and hockey , other activities practised at the club are bowls , contract bridge , cricket , golf , swimming and tennis .",
    "/wiki/Lucina_von_der_Heyde": "Lucina Juliana von der Heyde ( born 24 January 1997 ) is an Argentine field hockey player and who plays as midfielder for the Argentina national team . She was part of the Argentine team at the 2016 Summer Olympics in Rio de Janeiro . At the 2018 Hockey Stars Awards , she was named the FIH Rising Star of the Year .",
    "/wiki/Club_Atl\u00e9tico_River_Plate": "Club Atl\u00e9tico River Plate , commonly known as River Plate , is an Argentine professional sports club based in the N\u00fa\u00f1ez neighborhood of Buenos Aires , founded on 25 May 1901 , and named after the English name for the city 's estuary , R\u00edo de la Plata . Although many sports are practiced at the club , River Plate is best known for its professional football team , which has won Argentina 's Primera Divisi\u00f3n championship a record of 36 times , its latest title the 2014 Final . Domestic achievements also include 12 national cups , with the 2018-19 Copa Argentina as the most recent . Those achievements place River Plate as the most winning team of domestic competitions with 48 titles won in the top division . In Second Division , the club has won two titles , in 1908 and 2011-12 . At international level , River Plate has won 18 titles , with 12 organised by CONMEBOL and other international bodies . River Plate 's achievements include four Copa Libertadores , one Intercontinental Cup , one Supercopa Sudamericana , one Copa Sudamericana , three Recopa Sudamericana , one Copa Interamericana and one Suruga Bank Championship . Furthermore , the club has also won six tournaments organized by AFA and AUF together : five Copa Dr. Ricardo Aldao , and one Tie Cup . In addition , River Plate 's reserve team won the U-20 Copa Libertadores in 2012 . River Plate is the first and only team to simultaneously hold CONMEBOL 's four current major international competitions , after winning the 2014 Copa Sudamericana , 2015 Recopa Sudamericana , the 2015 Copa Libertadores , and the 2015 Suruga Bank Championship . In a survey published by the Argentine Football Association in 2016 , 6 out of 11 players of the all-time Argentina national squad had played for River Plate . Previously , in 2000 , River Plate had been honored by FIFA as the 9th best club of the century in the world and the best Argentine football club in that ranking .",
    "/wiki/Pilar_Campoy": "Pilar Campoy ( born 6 October 1990 ) is an Argentine field hockey player and part of the Argentina national team . She was part of the Argentine team at the 2014-15 Women 's FIH Hockey World League where she won a gold medal , and at the 2016 Summer Olympics in Rio de Janeiro . On club level she plays for Club N\u00e1utico Hacoaj in Argentina .",
    "/wiki/Club_N\u00e1utico_Hacoaj": "Club N\u00e1utico Hacoaj is an Argentine sports club headquartered in the Tigre district of Greater Buenos Aires . Although the institution was founded as a rowing club , Hacoaj hosts a wide range of activities , including basketball , field hockey , football , golf , softball , tennis , and volleyball , among others . The club has been consolidated as one of the most important institutions of the Jewish community in Argentina , along with Club Macabi .",
    "/wiki/Gabriela_Aguirre": "Gabriela Aguirre ( born 1986 ) is an Argentine field hockey midfielder and part of the Argentina national team . She was part of the Argentine team at the 2016 Summer Olympics in Rio de Janeiro . On club level she plays for Banco Provincia in Argentina .",
    "/wiki/Noel_Barrionuevo": "Mar\u00eda Noel Barrionuevo ( born 16 May 1984 ) is an Argentine field hockey player who won the bronze medal at the 2008 Summer Olympics in Beijing and the silver medal at the 2012 Summer Olympics in London with the Argentina national field hockey team . Noel also won the 2010 World Cup in Rosario , Argentina , six Champions Trophy , the World League 2014-15 , the gold medal at the 2007 Pan American Games and three Pan American Cups .",
    "/wiki/Julia_Gomes_Fantasia": "Julia Mail\u00e9n Gomes Fantasia ( born 30 April 1992 ) is an Argentine field hockey player .",
    "/wiki/Florencia_Mutio": "Mar\u00eda Florencia Mutio ( born 20 November 1984 ) is an Argentine field hockey player . At the 2012 Summer Olympics , she competed for the Argentina field hockey team where the team achieved the silver medal . Florencia also won one Champions Trophy , the bronze medal at the 2014 World Cup and two Pan American Cups .",
    "/wiki/Club_San_Fernando": "Club San Fernando is an Argentine multi-sports club based in San Fernando , Buenos Aires . One of the largest clubs of the North side of Greater Buenos Aires , the club hosts a wide range of sports and activities , such as basketball , basque pelota , bowls , canoe racing , chess , field hockey , football , gymnastics , judo , rowing rugby union , swimming , tennis , volleyball and yachting . The 6,000-capacity Estadio Nacional de Hockey is their home venue . The club has a large tradition in sports , having played in the Argentine Football Association tournaments from 1923 to 1931 when the football became professional in Argentina and the club disaffiliated . Football is currently practised as an amateur activity at San Fernando . Nowadays the club has competition teams of women 's field hockey , which plays in the regionalized Torneo Metropolitano , having won 13 titles to date . The other sport taking part in senior leagues is rugby union , which currently plays in Primera Divisi\u00f3n B , the second division of the URBA league system ."
  },
  "National_Register_of_Historic_Places_listings_in_Dallas_County,_Alabama_0": {
    "/wiki/Adams_Grove_Presbyterian_Church": "Adams Grove Presbyterian Church is a historic Greek Revival-style church building in rural Dallas County , Alabama , near the community of Sardis . Built in 1853 , it features a distyle-in-antis type portico with box columns . No longer actively used by a church congregation , the building is now privately owned . It was placed on the National Register of Historic Places on June 5 , 1986 .",
    "/wiki/Sardis,_Alabama": "Sardis , also known as Berlin , is an unincorporated community in Dallas County , Alabama .",
    "/wiki/Antique_Store_(Plantersville,_Alabama)": "The Antique Store is a historic commercial building in Plantersville , Dallas County , Alabama . It is the oldest surviving commercial building in the community . The one-story , wood-frame structure was built in 1870 . The main facade is three bays wide , with a pedimented one-story porch spanning the entire width . A side ell , added after the initial construction , projects from the south side of the main block . It was added to the National Register of Historic Places on January 29 , 1987 as a part of the Plantersville Multiple Resource Area .",
    "/wiki/Alabama_State_Route_22": "State Route 22 ( SR 22 ) is a 168.5-mile ( 271.2 km ) state highway that extends from Safford in Dallas County to the Georgia state line near Roanoke in Randolph County . The route travels across most of the state from west to east .",
    "/wiki/Plantersville,_Alabama": "Plantersville is an unincorporated community in Dallas County , Alabama , United States . It lies near the county 's border with Autauga and Chilton counties . Plantersville was named for the local cotton planters and plantations . The town is home to Dallas County High School and J. E. Terry Elementary School .",
    "/wiki/Brown_Chapel_A.M.E._Church_(Selma,_Alabama)": "Brown Chapel A.M.E. Church is a church at 410 Martin Luther King Jr. Boulevard in Selma , Alabama , United States . This church was a starting point for the Selma to Montgomery marches in 1965 and , as the meeting place and offices of the Southern Christian Leadership Conference ( SCLC ) during the Selma Movement , played a major role in the events that led to the adoption of the Voting Rights Act of 1965 . The nation 's reaction to Selma 's Bloody Sunday march is widely credited with making the passage of the Voting Rights Act politically viable in the United States Congress . It was added to the Alabama Register of Landmarks and Heritage on June 16 , 1976 and later declared a National Historic Landmark on February 4 , 1982 .",
    "/wiki/Selma,_Alabama": "Selma is a city in and the county seat of Dallas County , in the Black Belt region of south central Alabama and extending to the west . Located on the banks of the Alabama River , the city has a population of 20,756 as of the 2010 census . About 80% of the population is African-American . Selma was a trading center and market town during the antebellum years of King Cotton in the South . It was also an important armaments-manufacturing and iron shipbuilding center for the Confederacy during the Civil War , surrounded by miles of earthen fortifications . The Confederate forces were defeated during the Battle of Selma . The city is best known for the 1960s Selma voting-rights movement and the Selma-to-Montgomery marches , beginning with Bloody Sunday in March 1965 and ending with 25,000 people entering Montgomery at the end of the last march to press for voting rights . This activism generated national attention for social justice and that summer , the Voting Rights Act of 1965 was passed by Congress to authorize federal oversight and enforcement of constitutional rights of all citizens .",
    "/wiki/Cahaba,_Alabama": "Cahaba , also spelled Cahawba , was the first permanent state capital of Alabama from 1820 to 1825 , and the county seat of Dallas County , Alabama until 1866 . Located at the confluence of the Alabama and Cahaba rivers , it suffered regular seasonal flooding . This was one reason that the state legislature moved the capital to a better location in 1826 . After the town suffered another major flood in 1865 , the state legislature moved the county seat northeast to Selma , which was better situated . The former settlement became defunct . It is now a ghost town and is preserved as a state historic site , the Old Cahawba Archeological Park . The state and associated citizens ' groups are working to develop it as a full interpretive park St. Luke 's Episcopal Church was returned to Old Cahawba , and a fundraising campaign is underway for its restoration .",
    "/wiki/Cahaba_River": "The Cahaba River is the longest substantially free-flowing river in Alabama and is among the most scenic and biologically diverse rivers in the United States . It is a major tributary of the Alabama River and part of the larger Mobile River basin . With headwaters near Birmingham , the Cahaba flows southwest , then at Heiberger turns southeast and joins the Alabama River at the ghost town and former Alabama capital of Cahaba in Dallas County . Entirely within central Alabama , the Cahaba River is 194 miles ( 312 km ) long and drains an area of 1,870 square miles ( 4,800 km2 ) .",
    "/wiki/Alabama_River": "The Alabama River , in the U.S. state of Alabama , is formed by the Tallapoosa and Coosa rivers , which unite about 6 miles ( 10 km ) north of Montgomery , near the suburb of Wetumpka . The river flows west to Selma , then southwest until , about 45 miles ( 72 km ) from Mobile , it unites with the Tombigbee , forming the Mobile and Tensaw rivers , which discharge into Mobile Bay .",
    "/wiki/Carlowville_Historic_District": "The Carlowville Historic District is a historic district in the community of Carlowville , Alabama . The historic district covers 780 acres ( 320 ha ) and is centered on Alabama State Route 89 and Dallas County roads 4 , 47 and 417 . It was placed on the National Register of Historic Places on January 18 , 1978 .",
    "/wiki/Alabama_State_Route_89": "State Route 89 ( SR 89 ) is a 11.815-mile-long ( 19.014 km ) state highway in the south-central part of the U.S. state of Alabama . The southern terminus of the highway is at an intersection with SR 21 near Snow Hill , an unincorporated community in Wilcox County approximately 14 miles ( 23 km ) east of Camden . The northern terminus of the highway is at an intersection with SR 41 approximately 22 miles ( 35 km ) south of Selma in southern Dallas County .",
    "/wiki/Carlowville,_Alabama": "Carlowville is an unincorporated community in Dallas County , Alabama . A portion of Carlowville was designated as the Carlowville Historic District on the National Register of Historic Places on January 18 , 1978 , the Carlowville Historic District .",
    "/wiki/Christian_Church_and_Parsonage": "Christian Church and Parsonage is a historic church and parsonage in Plantersville , Alabama . Both the church and the parsonage were built in 1898 . The pair were added to the National Register of Historic Places in 1987 .",
    "/wiki/Joseph_T._Smitherman_Historic_Building": "The Joseph T. Smitherman Historic Building , also known by a variety of other names throughout its history , is a historic Greek Revival building in Selma , Alabama . Completed in 1847 , it has served many functions in the more than 160 years of its existence . The building was added to the National Register of Historic Places on June 20 , 1975 , due to its architectural and historical significance . It currently houses the Vaughan-Smitherman Museum , a museum depicting Selma 's history .",
    "/wiki/Doctor's_Office_(Plantersville,_Alabama)": "The Doctor 's Office was a historic professional office building in Plantersville , Dallas County , Alabama . The one-story , wood-frame structure was built in a vernacular interpretation of Greek Revival architecture c. 1850 . The narrow main facade was three bays wide , with a pedimented one-story porch spanning the entire width . An entrance was situated in the middle bay , with a window to either side . The interior contained a single room . It was added to the National Register of Historic Places on January 29 , 1987 as a part of the Plantersville Multiple Resource Area .",
    "/wiki/Driskell\u2013Martin_House": "The Driskell-Martin House is a historic house in Plantersville , Dallas County , Alabama . It is the oldest surviving high style residence in the community . The two-story wood-frame house was built for Thomas Sanford Driskell , a planter and a merchant from Virginia , in 1850 . The builders were Nelson Mitchell and Massena Godwin . The house was used as a Union headquarters during the American Civil War . Their forces occupied it during Wilson 's Raid through Alabama in April 1865 . The house remained in the Driskell family until purchased by Dr. Thomas Munroe Martin in 1915 . The Greek Revival-style structure is five bays wide , with a two-story pedimented portico spanning the three center bays . It was added to National Register of Historic Places on January 29 , 1987 as a part of the Plantersville Multiple Resource Area .",
    "/wiki/First_Baptist_Church_(Selma,_Alabama)": "First Baptist Church is a historic church at 709 Martin Luther King , Jr. Street in Selma , Alabama . A historically African American Baptist church , it was built in the Gothic Revival style in 1894 and known for its association with the Civil Rights Movement . It was added to the National Register of Historic Places in 1979 . From the National Register of Historic Places Inventory - Nomination Form : .",
    "/wiki/J._Bruce_Hain_House": "The Hain-Harrelson House is a historic house in Sardis , Alabama . The Classical Revival style structure was completed in 1913 for J. Bruce Hain on his working plantation . The house contains roughly 8,000 square feet ( 740 m2 ) spread over two floors . The interior is divided on a central hall plan . The front exterior is adorned with a monumental two-story Corinthian portico with a full-width second floor balcony . The house sat vacant for more than two decades until it was purchased by Cecil Gayle and Kenneth Parker of Atlanta in 1998 . They stabilized and restored the home to its original condition . It was added to the National Register of Historic Places on November 30 , 2001 . The home was purchased in December 2015 by Ray and Angie Harrelson of Selma , AL .",
    "/wiki/Alabama_State_Route_41": "State Route 41 ( SR 41 ) is a 127.484-mile-long ( 205.166 km ) state highway in the southwestern part of the U.S. state of Alabama . The southern terminus of the highway is at the Florida state line near Dixonville in Escambia County , where the roadway continues as Florida State Road 87 ( SR 87 ) . The northern terminus of the highway is at its intersection with SR 14 at Selma .",
    "/wiki/Icehouse_Historic_District": "The Icehouse Historic District is a 116-acre ( 47 ha ) historic district in Selma , Dallas County , Alabama . It is bounded by J.L . Chestnut , Jr. Boulevard ( formerly Jeff Davis Avenue ) on the north , the banks of Valley Creek on the west , Dallas Avenue on the south , and Union and Lapsley streets on the east . The district includes examples of the Tudor Revival , American Craftsman , Colonial Revival , and other early 20th century residential styles . It contains 213 contributing buildings and 141 noncontributing structures . The district is a neighborhood of small wood-frame and brick residences housing a mixture of low and middle-income families along tree-lined streets . It was added to the National Register of Historic Places on June 28 , 1990 .",
    "/wiki/Sullivan_and_Richie_Jean_Jackson_House": "The Sullivan and Richie Jean Jackson House , at 1416 Lapsley Ave. in Selma , Alabama , was listed on the National Register of Historic Places in 2014 . It is a one-story wood frame bungalow which was built in 1906 and was remodeled around 1960 . It has wide-board siding and a metal pyramid roof , and is built upon a brick and concrete foundation .",
    "/wiki/Marshall's_Grove": "Marshall 's Grove is a historic plantation house near Selma , Dallas County , Alabama . The two-story wood-frame house was built in the Federal-style in 1840 . It is five bays wide , with a two-tiered , pedimented portico spanning the central bay . It was built for Dr. Hugh Marshall , a native of Charleston , South Carolina who migrated to Alabama during the 1830s . Located on the northern route into Selma , it was commandeered by Union General James H. Wilson during the Battle of Selma . Marshall 's wife and daughters were allowed to remain in house during the occupation . The house was restored by Marshall 's great-granddaughter , Seleta Llewellyn , during the mid-to-late 20th century . It was added to National Register of Historic Places on February 4 , 1982 .",
    "/wiki/John_Tyler_Morgan_House": "The John Tyler Morgan House is a historic Greek Revival-style house in Selma , Alabama , United States . It was built by Thomas R. Wetmore in 1859 and sold to John Tyler Morgan in 1865 . Morgan was an attorney and former Confederate general . Beginning in 1876 , he was elected as a Democratic U.S. senator from Alabama for six terms . He used this house as his primary residence for many of those years . The building housed John T. Morgan Academy from its incorporation in June 1965 until a new campus was completed in 1967 . The house was added to the National Register of Historic Places on September 27 , 1972 , due to its historical significance . It currently houses the Alabama Historical Commission 's Old Cahawba Administrative Offices .",
    "/wiki/Old_Town_Historic_District_(Selma,_Alabama)": "The Old Town Historic District is a 323-acre ( 131 ha ) historic district in Selma , Dallas County , Alabama . It is bounded by U.S. Route 80 , Broad and Franklin streets , and Dallas and Selma avenues . The boundaries were increased on December 15 , 2003 . The district includes examples of the Federal , Greek Revival , Italianate , Gothic Revival , Victorian , Shotgun , Queen Anne , Romanesque Revival , Renaissance Revival , and Classical Revival . It contains 629 properties , with 513 contributing and 116 noncontributing to the district . It was added to the National Register of Historic Places on May 3 , 1978 .",
    "/wiki/U.S._Route_80": "U.S. Route 80 or U.S. Highway 80 ( US 80 ) is a major east-west United States Numbered Highway in the Southern United States , much of which was once part of the early auto trail known as the Dixie Overland Highway . As the 0 in the route number indicates , it was originally a cross-country route , from the Pacific Ocean to the Atlantic Ocean . Its original western terminus was at Historic US 101 in San Diego , California . However , the entire segment west of Dallas , Texas , has been decommissioned in favor of various Interstate Highways and state highways . Currently , the highway 's western terminus is at an interchange with Interstate 30 ( I-30 ) on the Dallas-Mesquite , Texas city line . The highway 's eastern terminus is in Tybee Island , Georgia near the interchange of I-516 and US 17 in Savannah , at the intersection of State Route 26 , Butler Avenue , Inlet Avenue , and Tybrisa Street , near the Atlantic Ocean . Between Jonesville , Texas and Kewanee , Mississippi , US 80 runs parallel to or concurrently with Interstate 20 . US 80 also currently runs through Dallas , Texas ; Shreveport , Louisiana ; Jackson , Mississippi ; Montgomery , Alabama ; Columbus , Georgia ; Macon , Georgia ; and Savannah , Georgia .",
    "/wiki/Edmund_Pettus_Bridge": "The Edmund Pettus Bridge carries U.S. Route 80 Business ( US 80 Bus . ) across the Alabama River in Selma , Alabama . Built in 1940 , it is named after Edmund Winston Pettus , a former Confederate brigadier general and U.S. senator . The bridge is a steel through arch bridge with a central span of 250 feet ( 76 m ) . Nine large concrete arches support the bridge and roadway on the east side . The Edmund Pettus Bridge was the site of the conflict of Bloody Sunday on March 7 , 1965 , when armed police attacked and brutally beat Civil Rights Movement demonstrators with horses , billy clubs , and tear gas as they were attempting to march to the state capital , Montgomery . The marchers crossed the bridge again on March 21 and successfully walked to the Capitol building . The bridge was declared a National Historic Landmark on February 27 , 2013 .",
    "/wiki/U.S._Route_80_in_Alabama": "U.S. Route 80 ( US 80 ) also known as the Dixie Overland Highway , is a major U.S. Highway in the American state of Alabama . The Alabama Department of Transportation internally designated the majority of US 80 throughout the state as State Route 8 ( SR 8 ) , save for parts of the route throughout Selma and near the Mississippi border . Serving as the main east to west highway through Alabama 's Black Belt region , US 80 is well known for its role in the events surrounding the Selma to Montgomery marches in 1965 , being the route taken by the demonstrators between the two cities as well as being the site of Bloody Sunday . The highway was also once a major transcontinental highway once reaching from Savannah , Georgia to San Diego , California but has since been truncated to Dallas , Texas due to largely being replaced by the Interstate Highway System .",
    "/wiki/Wesley_Plattenburg_House": "The 'Wesley Plattenburg House is a historic house in Selma , Alabama . Featuring a unique combination of the Greek Revival and Italianate styles , it was completed in 1842 for Wesley Plattenburg . Plattenburg was born on April 13 , 1803 in Anne Arundel County , Maryland . He had relocated to Selma and had assumed the occupation of tailor by 1829 . He became a successful merchant and served on the city council of Selma for many years . The house was once at the center of a 2,200-acre ( 890 ha ) plantation that Plattenburg inherited from a close friend , Mr. Wood , upon his death . Plattenburg took up the vocation of planter after receiving the property . The house is one of the few structures remaining in the city that is identifiable on a map of the Battle of Selma . The city eventually grew to completely encompass the site . The house was added to the Alabama Register of Landmarks and Heritage on March 22 , 1991 and to the National Register of Historic Places on February 3 , 1993 . It was listed on Alabama 's Places in Peril in 2005 .",
    "/wiki/Pleasant_Hill_Presbyterian_Church": "The Pleasant Hill Presbyterian Church , originally known as Mount Carmel Presbyterian Church , is a historic Greek Revival church in Pleasant Hill , Alabama . The current structure was built between 1851 and 1852 . It features a distyle-in-antis type portico with simple box columns , a bell tower topped by a small domed cupola , and a second-floor balcony around three sides of the interior . It was placed on the Alabama Register of Landmarks and Heritage on the November 2 , 1990 and on the National Register of Historic Places on April 22 , 1999 .",
    "/wiki/Pleasant_Hill,_Dallas_County,_Alabama": "Pleasant Hill is an unincorporated community in Dallas County , Alabama .",
    "/wiki/Riverdale_(Selma,_Alabama)": "Riverdale is a historic plantation house near Selma , Dallas County , Alabama . Architectural historians consider it to be most elegant and refined house of its period in Dallas County . The two-story wood-frame house was built in the Federal-style in 1829 . It is five bays wide , with a two-tiered , pedimented portico spanning the central bay . It was built by Virgil H. Gardner , a native of Jones County , Georgia , for his bride , Margaret Loise Aylett of Virginia . Their daughter , Mary Gardner , was married in the house in 1854 to Henry Quitman , son of former Mississippi governor John A. Quitman . Following the deaths of Virgil and Margaret Gardner during the 1880s , the plantation was purchased by W. P. Watts . Houston Alexander sold the house and roughly 1,500 acres ( 610 ha ) of the property in 1961 to the Hammermill Paper Company . The company offered to donate the house to the local historical society on the condition that it be moved . The former plantation site is now the location of International Paper 's Riverdale Mill , built in 1965 . The house was added to National Register of Historic Places on September 10 , 1979 . It was disassembled and moved during the 1980s to a site off Alabama State Route 22 ."
  }
}