{
  "Institute_for_the_Intellectual_Development_of_Children_and_Young_Adults_1": {
    "/wiki/Bahram_Beyzai": "Bahr\u0101m Beyz\u0101ie ( also spelt Beizai , Beyza ' i , , born 26 December 1938 ) is a critically and popularly acclaimed filmmaker , playwright , theatre director , screenwriter , film editor , and ost\u0101d ( master ) of Persian letters , arts and Iranian studies . Bahram Beyzaie is the son of the poet Ne'matallah Beyzai ( best known by his literary pseudonym Zok\u0101 ' i ) . The celebrated poet Adib Beyzai , known as one of the most profound poets of 20th-century Iran , is Bahram 's paternal uncle . Bahram Beyzaie 's paternal grandfather , Mirz\u0101 Mohammad-Rez\u0101 \u0100r\u0101ni ( Ebn Ruh ) , and paternal great-grandfather , the mulla Mohammad-Faqih \u0100r\u0101ni ( Ruh'ol-Amin ) , were also notable poets . In spite of his somewhat belated start in cinema , Beyzai is often considered a pioneer of a generation of filmmakers whose works are sometimes described as the Iranian New Wave . His Bashu , the Little Stranger ( 1986 ) was voted Best Iranian Film of all time in November 1999 by a Persian movie magazine Picture World poll of 150 Iranian critics and professionals . Still , even before the outset of his cinematic career in 1970 , he was a leading playwright ( as well as theater historian ) , so much so that he is often considered the greatest playwright of the Persian language , and holds a reputation as the Shakespeare of Persia . Since 2010 , Beyzai has lived and taught at Stanford University , United States .",
    "/wiki/Abbas_Kiarostami": "Abbas Kiarostami ( Persian : \u0639\u0628\u0627\u0633 \u06a9\u06cc\u0627\u0631\u0633\u062a\u0645\u06cc [ \u0294\u00e6b\u02ccb\u0252\u02d0s kij\u0252\u02d0\u027eost\u00e6\u02c8mi ] ( listen ) ; 22 June 1940 - 4 July 2016 ) was an Iranian film director , screenwriter , poet , photographer , and film producer . An active film-maker from 1970 , Kiarostami had been involved in the production of over forty films , including shorts and documentaries . Kiarostami attained critical acclaim for directing the Koker trilogy ( 1987-1994 ) , Close-Up ( 1990 ) , The Wind Will Carry Us ( 1999 ) , and Taste of Cherry ( 1997 ) , which was awarded the Palme d'Or at the Cannes Film Festival that year . In later works , Certified Copy ( 2010 ) and Like Someone in Love ( 2012 ) , he filmed for the first time outside Iran : in Italy and Japan , respectively . His films Where Is the Friends Home ? , Close-Up , and The Wind Will Carry Us were ranked among the 100 best foreign films in a 2018 critics ' poll by BBC Culture . Close-Up was also ranked one of the 50 greatest movies of all time in the famous decennial Sight & Sound poll conducted in 2012 . Kiarostami had worked extensively as a screenwriter , film editor , art director and producer and had designed credit titles and publicity material . He was also a poet , photographer , painter , illustrator , and graphic designer . He was part of a generation of filmmakers in the Iranian New Wave , a Persian cinema movement that started in the late 1960s and includes pioneering directors such as Bahram Beyzai , Nasser Taghvai , Ali Hatami , Masoud Kimiai , Dariush Mehrjui , Sohrab Shahid-Saless and Parviz Kimiavi . These filmmakers share many common techniques including the use of poetic dialogue and allegorical storytelling dealing with political and philosophical issues . Kiarostami had a reputation for using child protagonists , for documentary-style narrative films , for stories that take place in rural villages , and for conversations that unfold inside cars , using stationary mounted cameras . He is also known for his use of Persian poetry in the dialogue , titles , and themes of his films .",
    "/wiki/Sohrab_Shahid-Saless": "Sohrab Shaheed Salles or Sohrab Shahid-Saless ( ; June 28 , 1944 in Tehran , Iran - July 2 , 1998 in Chicago , Illinois ) was an Iranian film director and screenwriter and one of the most celebrated figures in Iranian cinema in the 20th century . After 1976 he worked in the cinema of Germany and was an important component of the film diaspora working in the German industry .",
    "/wiki/Amir_Naderi": "Amir Naderi ( ( ) , born 15 August 1946 , in Abadan ) is an Iranian film director , screenwriter , and photographer . He is best known for The Runner and Vegas : Based on a True Story ."
  },
  "Template:World_Championships_in_Athletics_medalists_in_women's_100_metres_0": {
    "/wiki/1983_World_Championships_in_Athletics": "The inaugural 1983 World Championships in Athletics were run under the auspices of the International Association of Athletics Federations and were held at the Olympic Stadium in Helsinki , Finland between 7 and 14 August 1983 .",
    "/wiki/1983_World_Championships_in_Athletics_\u2013_Women's_100_metres": "These are the official results of the Women 's 100 metres event at the 1983 IAAF World Championships in Helsinki , Finland . There were a total number of 49 participating athletes , with seven qualifying heats and the final held on Monday 1983-08-08 . Evelyn Ashford set the World record just over a month before this meet ( at altitude ) . In the semi-finals , she dusted one of the East German favorites Marita Koch eased up by almost a tenth of a second out in lane 8 . As the number 1 qualifier , she still was placed in lane 2 , with number 2 qualifier , winner of the other semi-final Marlies Oelsner-G\u00f6hr across the track in lane 8 . Koch was given lane 4 again . At the start , Koch and Ashford were out fast , about even 40 metres into the race . Suddenly Ashford jumped , leaning back and hopping to stay off her leg as her hamstring exploded before collapsing to the track . G\u00f6hr gained steadily on her teammate Koch , passing her with more closing speed 20 meters out . Sensing a further challenge from Diane Williams next to her , Koch leaned at the finish to hold on to second .",
    "/wiki/Marlies_G\u00f6hr": "Marlies G\u00f6hr ( n\u00e9e Oelsner , born 21 March 1958 in Gera , Bezirk Gera ) is a former East German track and field athlete , the winner of the 100 metres at the inaugural World Championships in 1983 . She ranked in the top 10 of the 100 m world rankings for twelve straight years , ranking first in six of those years . During this time she won many medals as a sprinter at major international championships and set several world records .",
    "/wiki/Marita_Koch": "Marita Koch ( later Meier-Koch , born 18 February 1957 ) is a German former sprint track and field athlete . During her career she collected sixteen world records in outdoor sprints as well as fourteen world records in indoor events . Her record of 47.60 in the 400 metres , set on 6 October 1985 , still stands .",
    "/wiki/Diane_Williams_(athlete)": "Diane Williams is a retired World class sprinter who ran 100 m and 4x100 m relays . She was born 14 December 1960 in Chicago , Illinois , U.S.A",
    "/wiki/1987_World_Championships_in_Athletics": "The 2nd World Championships in Athletics under the auspices of the International Association of Athletics Federations were held in the Stadio Olimpico in Rome , Italy between August 28 and September 6 , 1987 .",
    "/wiki/1987_World_Championships_in_Athletics_\u2013_Women's_100_metres": "These are the official results of the Women 's 100 metres event at the 1987 IAAF World Championships in Rome , Italy . There were a total number of 51 participating athletes , with seven qualifying heats and the final held on Sunday 1987-08-30 .",
    "/wiki/Silke_M\u00f6ller": "Silke M\u00f6ller ( Gladisch , born 20 June 1964 ) is a German athlete , who in the 1980s competed for East Germany as one of the best female sprinters in the world . She was a member of the East German quartet that broke the world record in the 4 \u00d7 100 m relay at the World cup in Canberra on 6 October 1985 . She and teammates Sabine Rieger , Marlies G\u00f6hr , and Ingrid Auerswald ran a time of 41.37 seconds , which stood as the world record until 2012 . She is the 1987 World champion at both 100 metres and 200 metres .",
    "/wiki/Heike_Drechsler": "Heike Gabriela Drechsler ( German pronunciation : [ \u02c8ha\u026ak\u0259 \u0261ab\u0281i\u02c8e\u02d0la\u02d0 \u02c8d\u0281\u025bksl\u0250 ] ; n\u00e9e Daute ; born 16 December 1964 ) is a German former track and field athlete who represented East Germany and later Germany . One of the most successful long jumpers of all-time , she is a former world record holder and ranks third on the all-time list with her legal best of 7.48 metres in 1988 . Her marginally wind-assisted jump of 7.63 metres ( +2.1 ) in 1992 at altitude in Sestriere , is still the furthest a woman has ever long jumped . She is the only woman who has won two Olympic gold medals in the long jump , winning in 1992 and 2000 . Drechsler also won Olympic medals in the 100 metres and 200 metres in 1988 , a silver medal in the 100 metres at the 1987 World Championships , and is a former world record holder in the 200 metres with 21.71 secs in 1986 .",
    "/wiki/Merlene_Ottey": "Merlene Joyce Ottey OD ( born 10 May 1960 ) is a Jamaican former track and field sprinter . She began her career representing Jamaica , before representing Slovenia from 2002 to 2012 . She is ranked fourth on the all-time list over 60 metres ( indoor ) , seventh on the all-time list over 100 metres and fourth on the all-time list over 200 metres . She is the current world indoor record holder for 200 metres with 21.87 seconds , set in 1993 . Ottey had the longest career as a top level international sprinter appearing at the Pan Am games in 1979 as a 19 year old fresh from U20 and Junior competitions , and concluding her career at age 52 when she anchored the Slovene 4 \u00d7 100 m relay team at the 2012 European Championships . A nine-time Olympic medalist , she holds the record for the most Olympic appearances ( seven ) of any track and field athlete . Although gold medal success at the Olympics eluded Ottey , she was able to bring home three silvers and six bronze medals . She won 14 World Championship medals , and still holds the record ( as of 2017 ) for most medals in individual events with 10 . Her career achievements and longevity led to her being called the Queen of the Track . Her proclivity for earning bronze medals in major championships earned her the title of Bronze Queen in track circles . Ottey was formerly married to the American high jumper and 400 m hurdler Nat Page and was known as Merlene Ottey-Page during the mid-eighties .",
    "/wiki/1991_World_Championships_in_Athletics": "The 3rd World Championships in Athletics , under the auspices of the International Association of Athletics Federations , were held in the Olympic Stadium in Tokyo , Japan between August 23 and September 1 and athletes from 167 countries participated in the event . The event is best-remembered for the men 's long jump competition , when Carl Lewis made the best six-jump series in history , only to be beaten by Mike Powell , whose 8.95 m ( 29 ft 4.36 in ) jump broke Bob Beamon 's long-standing world record from the 1968 Summer Olympics .",
    "/wiki/1991_World_Championships_in_Athletics_\u2013_Women's_100_metres": "These are the official results of the Women 's 100 metres event at the 1991 IAAF World Championships in Tokyo , Japan . There were a total number of 59 participating athletes , with eight qualifying heats and the final held on August 27 , 1991 .",
    "/wiki/Katrin_Krabbe": "Katrin Krabbe ( later Zimmermann , born 22 November 1969 ) is a German former track and field athlete . She represented East Germany ( GDR ) at the 1988 Seoul Olympics , and went on to win the 100 metres and 200 metres titles at the 1991 World Championships in Tokyo , representing a unified Germany . Her best times are 10.89 secs for 100m ( 1988 ) and 21.95 secs for 200m ( 1990 ) .",
    "/wiki/Gwen_Torrence": "Gwendolyn Lenna Torrence ( born June 12 , 1965 ) is a retired American sprinter and Olympic gold medalist . She was born in Decatur , Georgia . She attended Columbia High School and the University of Georgia . She was offered a scholarship because of her athletic abilities , but she said she was n't interested because she initially wanted to become a beautician . From the persuasion from her coaches and family , she chose to enroll to the University of Georgia . In the early 1990s , Gwen Torrence was one of the best sprinters in the world , winning five Olympic medals , and three gold . Torrence won medals at the Summer Olympics , Outdoor & Indoor World Championships , Pan American Games , Goodwill Games , and World University Games . In 1988 , Torrence achieved a tie with Evelyn Ashford in the 55 m race at the U.S. national indoor championships . She also had many battles both on the track and in the press with Florence Griffith Joyner . In the 200 m at the 1995 World Championships , she was disqualified for stepping out of her lane after finishing first . This left her idol , Merlene Ottey , to be promoted to first place . In 2000 she was inducted into the Georgia Sports Hall of Fame .",
    "/wiki/1993_World_Championships_in_Athletics": "The 4th World Championships in Athletics , under the auspices of the International Association of Athletics Federations , were held in the Gottlieb Daimler Stadium , Stuttgart , Germany between 13 and 22 August with the participation of 187 nations . Having originally being held every four years in 1983 , 1987 and 1991 these championships began a two-year cycle between events . The 1993 World Championships was the final time the women 's 3000 m would be contested . At subsequent Championships the race was replaced by the longer 5000 m .",
    "/wiki/1993_World_Championships_in_Athletics_\u2013_Women's_100_metres": "These are the official results of the Women 's 100 metres event at the 1993 IAAF World Championships in Stuttgart , Germany . There were a total number of 55 participating athletes , with seven qualifying heats and the final held on Monday 1993-08-16 .",
    "/wiki/Gail_Devers": "Yolanda Gail Devers ( /\u02c8di\u02d0v\u0259rz/ DEE-v\u0259rz ; born November 19 , 1966 ) is an American retired track and field athlete . A two-time Olympic champion in the 100 meters for the USA , her 1996 win made her only the second woman ( after Wyomia Tyus ) to successfully defend an Olympic 100m title . She won a third Olympic gold medal in the 4 \u00d7 100 m relay in 1996 . She is also the 1993 World champion in the 100m and a three-time World champion in the 100m hurdles . In 2011 , she was inducted into the National Track and Field Hall of Fame .",
    "/wiki/1995_World_Championships_in_Athletics": "The 5th World Championships in Athletics , under the auspices of the International Association of Athletics Federations , were held at the Ullevi Stadium , Gothenburg , Sweden on 5-13 August 1995 . This edition featured 1804 athletes from 191 nations . This competition saw the women run the 5000 m event at the World Championships for the first time . The race replaced the 3000 m event which had been run at all previous World Championships .",
    "/wiki/1995_World_Championships_in_Athletics_\u2013_Women's_100_metres": "These are the official results of the Women 's 100 metres event at the 1995 IAAF World Championships in Gothenburg , Sweden . There were a total number of 58 participating athletes , with two semi-finals , four quarter-finals and eight qualifying heats and the final held on Monday 7 August 1995 .",
    "/wiki/Irina_Privalova": "Irina Anatolyevna Privalova ( ; Sergeyeva on 22 November 1968 ) is a Russian athlete who has won a gold medal at the Olympics . She first competed in the sprint events , winning two Olympic medals in the 100 m and anchoring the 4x100 team , plus fourth place in the 200 m in 1992 whilst representing the Unified Team . With three European individual championships and three individual world medals , Irina Privalova had been a formidable competitor during most of the 1990s but had not yet won an outdoor world championship gold medal . In 2000 , she gambled successfully and switched to the 400 m hurdles discipline winning the Olympic title in Sydney 2000 in 53.02 s and a bronze in the 4 x 400 m relay team for Russia . Irina Privalova is currently the world indoor record holder in the 50 m ( 5.96 s ) , 60 m ( 6.92 s ) sprints . She has also been the world indoor champion at the 60 m ( 7.02 s in 1991 ) , 200 m ( 22.15 s in 1993 ) , and 400 m ( 50.23 s in 1995 ) events . Privalova achieved her best time ( 10.77 s ) in the 100 m for nine years in 1994 .",
    "/wiki/1997_World_Championships_in_Athletics": "The 6th World Championships in Athletics , under the auspices of the International Association of Athletics Federations , were held at the Olympic Stadium , Athens , Greece between August 1 and August 10 , 1997 . In this event participated 1882 athletes from 198 participant nations . Athens used the successful organization of the World Championships the next month during the IOC Session in Lausanne during its campaign to host the 2004 Summer Olympics as proof positive of Athens ' and Greece 's ability and readiness to organize large-scale , international sporting events .",
    "/wiki/1997_World_Championships_in_Athletics_\u2013_Women's_100_metres": "These are the results of the women 's 100 metres event at the 1997 World Championships in Athletics in Athens , Greece .",
    "/wiki/Marion_Jones": "Marion Lois Jones ( born October 12 , 1975 ) , also known as Marion Jones-Thompson , is an American former world champion track and field athlete and a former professional basketball player for Tulsa Shock in the WNBA . She won three gold medals and two bronze medals at the 2000 Summer Olympics in Sydney , Australia , but was later stripped of her medals after admitting to steroid use . Jones did retain her 3 titles as world champion from 1997-1999 . At the time of her admission and subsequent guilty plea , Jones was one of the most famous athletes to be linked to the BALCO scandal . The case against BALCO covered more than 20 top level athletes , including Jones 's ex-husband , shot putter C.J . Hunter , and 100 m sprinter Tim Montgomery , the father of Jones ' first child .",
    "/wiki/Zhanna_Pintusevich-Block": "Zhanna Pintusevich-Block ( ; Tarnopolskaya ; born 6 July 1972 ) is a Ukrainian former world champion sprinter who competed in the Olympic Games .",
    "/wiki/Savatheda_Fynes": "Savatheda Fynes ( born October 17 , 1974 ) is a track and field sprint athlete , competing internationally for Bahamas . She is an Olympic gold medalist in the 4 x 100 meter relay race . Some sources spell her first name Sevatheda .",
    "/wiki/1999_World_Championships_in_Athletics": "The 7th World Championships in Athletics , under the auspices of the International Association of Athletics Federations , were held at the Estadio Ol\u00edmpico , Seville , Spain , between the August 20 and August 29 . One of the main highlights of the games was the world record set in the 400 metres by Michael Johnson of the United States in a time of 43.18 seconds .",
    "/wiki/1999_World_Championships_in_Athletics_\u2013_Women's_100_metres": "These are the official results of the Women 's 100 metres event at the 1999 IAAF World Championships in Seville , Spain . There were a total number of 51 participating athletes , with seven qualifying heats , four quarter-finals , two semi-finals and the final held on Sunday 22 August 1999 at 21:00h .",
    "/wiki/Inger_Miller": "Inger Miller ( born June 12 , 1972 in Los Angeles , California ) is a track and field sprint athlete , competing internationally for United States . She is the daughter of Lennox Miller , an Olympic champion runner from Jamaica . She attended John Muir High School in Pasadena , California and later the University of Southern California . Miller was a Tournament of Roses Princess in the 1990 court . During her professional career she was a member of HSI . She originally won the bronze medal in the 60 meters at the 1999 IAAF World Indoor Championships , but she tested positive for excessive caffeine after the race . Her results from the tournament were nullified and she received a public warning . She was 1999 World 200 m champion ; 1999 World Champs 100 m silver medalist ; 1996 Olympic 4 \u00d7 100 m relay gold medalist ; 4 \u00d7 100 m relay gold medalist at 1997 World Champs ; 2003 World Outdoor 4 \u00d7 100 m silver medalist . Together with Jill Hawkins , Miller started Miller-Hawkins Productions , a full-service event coordinating company . The company currently operates out of offices in Altadena . As of 2019 Miller was working as a flight attendant .",
    "/wiki/Ekaterini_Thanou": "Ekaterini Thanou ( Greek : \u0391\u03b9\u03ba\u03b1\u03c4\u03b5\u03c1\u03af\u03bd\u03b7 \u0398\u03ac\u03bd\u03bf\u03c5 , [ ekate\u02c8rini \u02c8\u03b8anu ] ; born 1 February 1975 ) , also known as Katerina Thanou , is a Greek former sprinter . She won numerous medals in the 100 metres , including an Olympic silver medal at the 2000 Summer Olympics in Sydney , Australia , while she was the 2002 European champion in Munich , Germany . She had also been crowned world and European champion in the 60 metres at the indoor championships . In 2007 , Marion Jones , who won in the 100 metres at the 2000 Olympics leaving Thanou in the second place , admitted that she had used steroids and her gold medal was withdrawn by the International Olympic Committee , but was not reallocated to Thanou due to the fact that she was also involved in doping . [ a ]",
    "/wiki/2001_World_Championships_in_Athletics": "The 8th World Championships in Athletics , under the auspices of the International Association of Athletics Federations , were held at Commonwealth Stadium in Edmonton , Alberta , Canada between 3 August and 12 August and was the first time the event had visited North America . The music for the Opening and Closing Ceremonies was composed by Canadian composers Jan Randall as well as Cassius Khan and the events were televised live to an estimated [ by whom ? ] viewing audience of 4 billion people in over 200 countries . [ citation needed ] The ceremonies also featured a 1000 voice choir , and the Edmonton Symphony Orchestra .",
    "/wiki/2001_World_Championships_in_Athletics_\u2013_Women's_100_metres": "These are the official results of the Women 's 100 metres event at the 2001 IAAF World Championships in Edmonton , Canada .",
    "/wiki/Chandra_Sturrup": "Chandra Sturrup ( born September 12 , 1971 ) is a Bahamian track and field sprint athlete .",
    "/wiki/2003_World_Championships_in_Athletics": "The 9th World Championships in Athletics , under the auspices of the International Association of Athletics Federations , were held from 23 August to 31 August 2003 in the Stade de France in Saint-Denis , Seine-Saint-Denis , France .",
    "/wiki/2003_World_Championships_in_Athletics_\u2013_Women's_100_metres": "These are the official results of the Women 's 100 metres event at the 2003 IAAF World Championships in Paris , France . There were a total number of 59 participating athletes , with eight qualifying heats , four quarter-finals , two semi-finals and the final held on Sunday 24 August 2003 at 19:45h .",
    "/wiki/Torri_Edwards": "Torri Edwards ( born January 31 , 1977 ) is an American sprinter . She competes in 100 and 200 meters , winning an Olympic medal in 4\u00d7100-meter relay in 2000 . In 2003 , she won six medals in major international competitions , including one World Championship gold . Edwards competed in the 100 m at the 2008 Olympic Games .",
    "/wiki/2005_World_Championships_in_Athletics": "The 10th World Championships in Athletics , under the auspices of the International Association of Athletics Federations ( IAAF ) , were held in the Olympic Stadium , Helsinki , Finland ( 6 August 2005 - 14 August 2005 ) , the site of the first IAAF World Championships in 1983 . One theme of the 2005 championships was paralympic events , some of which were included as exhibition events . Much of the event was played in extremely heavy rainfall .",
    "/wiki/2005_World_Championships_in_Athletics_\u2013_Women's_100_metres": "These are the official results of the Women 's 100 metres event at the 2005 IAAF World Championships in Helsinki , Finland . The final was held on August 8 .",
    "/wiki/Lauryn_Williams": "Lauryn Williams ( born September 11 , 1983 ) is an American sprinter and bobsledder . She was the gold medalist in the 100 meter dash at the 2005 World Championships in Athletics and won silver medals at the 2004 Summer Olympics , 2007 World Championships , and 2006 IAAF World Indoor Championships . She won a silver medal in the two-woman bobsleigh at the 2014 Winter Olympics . A World Junior Champion in 2002 , she went on to win the 100 m at the 2003 Pan American Games and claimed the NCAA title over the distance for the University of Miami the following year . She has also featured as part of the American 4\u00d7100 meter relay team , winning gold medals at the 2005 and 2007 World Championships and at the 2012 Summer Olympics . Williams is one of five athletes to have won a medal in both the Summer and Winter Olympic games , as well as the first American woman to do so .",
    "/wiki/Veronica_Campbell-Brown": "Veronica Campbell Brown C.D ( born 15 May 1982 ) is a Jamaican track and field sprinter , who specializes in the 100 and 200 meters . An eight-time Olympic medalist , she is the second woman in history to win two consecutive Olympic 200 m events , after B\u00e4rbel W\u00f6ckel of Germany at the 1976 and 1980 Olympics . Campbell Brown is one of only nine athletes to win world championships at the youth , junior , and senior level of an athletic event . She holds personal bests of 10.76 seconds for the 100 m and 21.74 seconds for the 200 m. She was the 100 m gold medallist at the 2007 World Championships in Athletics and the 200 m gold medallist at the 2011 World Championships in Athletics . She has also won seven silver medals and one bronze medal in her career at the World Championships in Athletics . Over 60 metres , she is a two-time champion at the IAAF World Indoor Championships .",
    "/wiki/Christine_Arron": "Christine Arron ( born 13 September 1973 ) is a former track and field sprinter , who competed internationally for France in the 60 metres , 100 metres , 200 metres and the 4x100 metres relay . As of 2017 , she is the world 's sixth-fastest female 100 metres sprinter of all time with 10.73 secs , which is still the European record . She set the record when winning at the 1998 European Championships , where she also won a gold medal in the 4 \u00d7 100 m relay . Also in the relay , she is a 2003 World Championship gold medallist and a 2004 Olympic bronze medallist .",
    "/wiki/2007_World_Championships_in_Athletics": "The 11th World Championships in Athletics , ( Japanese : [ 2007\u5e74\u4e16\u754c\u9678\u4e0a\u7af6\u6280\u9078\u624b\u6a29\u5927\u4f1a } ] ) under the auspices of the International Association of Athletics Federations ( IAAF ) , were held at Nagai Stadium in Osaka , Japan from 24 August to 2 September 2007 . 200 of the IAAF 's 212 member federations entered a total of 1,978 athletes , the greatest number of competitors at any World Championships to date . Sarah Brightman , the world 's best-selling soprano , performed her single Running at the opening ceremony .",
    "/wiki/2007_World_Championships_in_Athletics_\u2013_Women's_100_metres": "These are the official results of the Women 's 100 metres event at the 2007 IAAF World Championships in Osaka , Japan . There were a total number of 74 participating athletes , with eight qualifying heats and the final held on Monday August 27 .",
    "/wiki/Carmelita_Jeter": "Carmelita Jeter ( born November 24 , 1979 ) is a retired American sprinter , who specialized in the 100 meters . She was the 2011 IAAF World Champion in the 100 m and a three-time Olympic medallist . She won the 100 m bronze at the 2007 World Championships in Athletics and a gold at the World Athletics Final . She won a second World Championship bronze . Her victory in the Shanghai Golden Grand Prix in 10.64 seconds made her the second-fastest woman ever in the 100 m , behind Florence Griffith Joyner 's long-standing world record . Currently she holds three of the top ten times ever run .",
    "/wiki/2009_World_Championships_in_Athletics": "The 12th IAAF World Championships in Athletics ( German : [ Leichtathletik-Weltmeisterschaften 2009 ] ) were held in Berlin , Germany from 15-23 August 2009 . The majority of events took place in the Olympiastadion , while the marathon and racewalking events started and finished at the Brandenburg Gate .",
    "/wiki/2009_World_Championships_in_Athletics_\u2013_Women's_100_metres": "The women 's 100 metres at the 2009 World Championships in Athletics was held at the Olympic Stadium on August 16 and August 17 . The Jamaican team had three strong contenders for the 100 m title in reigning champion Veronica Campbell-Brown , Olympic champion Shelly-Ann Fraser , and Kerron Stewart ( who ran 10.75 seconds in July ; the fastest in nine years ) . The American squad featured Muna Lee , Lauryn Williams , and an in-form Carmelita Jeter . Other medal contenders are Bahamians Debbie Ferguson-McKenzie and Chandra Sturrup , and Kelly-Ann Baptiste , who have all run under eleven seconds prior to the tournament . Jeter was the fastest qualifier in the heats , and finished 0.02 seconds outside her personal best to win her quarter-final . Stewart was the fastest in the quarterfinals with 10.92 seconds , and Campbell-Brown won her race as the third athlete to run under eleven seconds that day . On the second day of competition , Shelly-Ann Fraser ran the fastest ever semi-final in 10.79 seconds , with Stewart just behind in 10.84 seconds . Jeter ran a personal best of 10.83 seconds to reach the final , in which half the competitors were Jamaican . In the final , a quick start saw Fraser lead from the outset of the race and Stewart 's late challenge was not enough to beat her compatriot . Stewart 's personal-best-equalling 10.75 seconds earned her the silver medal , and Jeter took the bronze with a 10.90 second run , somewhat short of the time she produced in the semi-finals . The 2007 gold and silver medallists ran season 's bests but missed out on the medals , with Campbell-Brown in fourth ( 10.95 ) and Williams in fifth ( 11.01 ) . Fraser 's win in 10.73 seconds was a Jamaican record and made her the joint third fastest 100 m athlete ever with Christine Arron .",
    "/wiki/Shelly-Ann_Fraser-Pryce": "Shelly-Ann Fraser-Pryce , OD ( n\u00e9e Fraser , born 27 December 1986 ) is a Jamaican track and field sprinter . Born and raised in Kingston , Jamaica , Fraser-Pryce ascended to prominence in 2008 when at 21 years old , the relatively unknown athlete became the first Caribbean woman to win 100 m gold at the Olympics . In 2012 , she became the third woman in history to successfully defend an Olympic 100 m title . Fraser-Pryce took a break from athletics in 2017 to have her first child . At the 2019 World Championships , at the age of 32 , she became the oldest woman and second mother ever to win 100 m gold at a global championship . Fraser-Pryce is the only sprinter to be crowned world champion over 100 m four times ( 2009 , 2013 , 2015 and 2019 ) . Since 2008 , she has won four of the five World Championship 100 m titles she has contested , as well as two of the last three Olympic 100 m titles . She is the second female sprinter to hold world and Olympic 100 m titles simultaneously - and the first woman to hold dual titles on two separate occasions . In 2013 she became the first female sprinter to win gold medals in the 100 m , 200 m and 4 \u00d7 100 m in a single World Championship , and also became the first woman to hold world titles at 60 m , 100 m , 200 m and 4 \u00d7 100 m relay simultaneously . With over a decade of dominance in the sport , Fraser-Pryce has won more global 100 m titles than any other female sprinter in history . Nicknamed the Pocket Rocket for her petite frame ( she stands 5 feet tall ) and explosive block starts , her personal best of 10.70 seconds is the joint fourth fastest of all time . Due to her achievements and consistency , many publications and sports analysts , including former Olympian Michael Johnson , refer to Fraser-Pryce as the greatest female sprinter of all time .",
    "/wiki/Kerron_Stewart": "Kerron Stewart ( born 16 April 1984 ) is a Jamaican sprinter who specializes in the 100 metres and 200 metres . She is the 2008 Jamaican national champion in the 100 m clocking 10.80s . She defeated World Champion Veronica Campbell-Brown in the process and now is the 2008 Summer Olympics silver medalist after she tied with Sherone Simpson in a time of 10.98s . She also earned a bronze medal in the 200 metres at the 2008 Summer Olympics with a time of 22.00s . She was born in Kingston . Stewart holds the fastest non-winning time for the women 's 100 metres . In the 2009 World Athletics Championships from Berlin , she ran 10.75 seconds only to finish second to campatriot , Shelly-Ann Fraser who ran a 10.73 race . Stewart also anchored the Jamaican 4x100 m relay team to victory in a time of 42.06 .",
    "/wiki/2011_World_Championships_in_Athletics": "The 13th IAAF World Championships in Athletics ( Korean : [ \uc81c13\ud68c \uc138\uacc4\uc721\uc0c1\uc120\uc218\uad8c\ub300\ud68c ] ) was an international athletics competition that was held in Daegu , South Korea . It started on 27 August 2011 and finished on 4 September 2011 . The United States topped the medal standings in the competition with 28 ( 12 gold , 9 silver , and 7 bronze ) . During the competition , 41 national records , 4 area records , 3 championship records , and 1 world record was set .",
    "/wiki/2011_World_Championships_in_Athletics_\u2013_Women's_100_metres": "The Women 's 100 metres at the 2011 World Championships in Athletics was held at the Daegu Stadium on August 27 , 28 and 29 . Prior to the championships , American Carmelita Jeter held the fastest time of the year ( 10.70 seconds ) and the 2009 bronze medalist entered the competition as the second fastest woman of all-time . Veronica Campbell-Brown , the 2007 champion , was the next fastest athlete ( 10.76 ) and the only woman to have beaten Jeter that year . The reigning world and Olympic champion , Shelly-Ann Fraser-Pryce was also in contention , although her preparations were affected by injury . Marshevet Myers , Kerron Stewart , and Kelly-Ann Baptiste were ranked in the top five for the 100 m before the race . In the final , Jeter got out of the blocks with Fraser-Pryce , who is known for her fast starts . The two were even through the first half of the race until Jeter pulled away for a clear win . Fast closing Campbell-Brown and Baptiste edged past Fraser-Pryce at the finish .",
    "/wiki/Kelly-Ann_Baptiste": "Kelly-Ann Kaylene Baptiste ( born 14 October 1986 ) is a Tobagonian track and field sprint athlete .",
    "/wiki/2013_World_Championships_in_Athletics": "The 14th IAAF World Championships in Athletics ( Moscow 2013 ) ( Russian : [ \u0427\u0435\u043c\u043f\u0438\u043e\u043d\u0430\u0442 \u043c\u0438\u0440\u0430 \u043f\u043e \u043b\u0451\u0433\u043a\u043e\u0439 \u0430\u0442\u043b\u0435\u0442\u0438\u043a\u0435 2013 ] ) was an international athletics competition held in Moscow , Russia , from 10-18 August 2013 . Initially , Russia won the most gold medals to top the table for the first time since 2001 . It was also the first time ever the host nation took the top of the medal table . However , after disqualification of Russian sprinter Antonina Krivoshapka for doping and following redistribution of medals in the Women 's 4 \u00d7 400 metres relay ( as well as after series of other disqualifications of Russian athletes for doping offences ) , United States topped the medal table with eight golds . In the overall medal count , the United States won 26 medals in total , followed by Kenya with 12 . With 1,784 athletes from 203 countries it was the biggest single sports event of the year . The number of spectators for the evening sessions was 268,548 surpassing Daegu 2011 . Jamaica 's Usain Bolt and Shelly-Ann Fraser-Pryce both won three gold medals in the men 's and women 's 100 metres , 200 metres and 4\u00d7100 metres relay respectively to become the most successful athletes at the event . This achievement also earned Bolt the title of being the most successful athlete in the history of the World Championships with eight gold and two silver medals . Prior to the competition , four sprinters were banned on doping charges .",
    "/wiki/2013_World_Championships_in_Athletics_\u2013_Women's_100_metres": "The women 's 100 metres at the 2013 World Championships in Athletics was held at the Luzhniki Stadium on 11-12 August . In the first round , English Gardner ran away from her third heat with a 10.94 . It only took 11.41 to make the semifinal round . The semis were decidedly faster , the first semi was slowest in 11.08 , the other two under 11 , with the fastest time qualifier Alexandria Anderson at 11.01 . In the final , there was no doubt who would win as Shelly-Ann Fraser-Pryce shot out of the block leaving nothing but a pink streak ( hair and shoes ) for her competitors to see from behind . Her .22 victory was just short of the gap Flojo had 25 years earlier . The battle for second was close as Murielle Ahour\u00e9 edged defending champion Carmelita Jeter . Jeter 's 10.94 was the same as Gardner 's time in the heats . But Gardner only had 10.97 left for the final to miss a medal . Slow reacting Kerron Stewart gave up .06 at the start line but lost the silver medal by only .04 .",
    "/wiki/Murielle_Ahour\u00e9": "Murielle Ahour\u00e9 ( born 23 August 1987 ) is an Ivorian sprinter who specializes in the 100 and 200 metres . She was a double silver medalist at the 2013 world championships in Moscow . She came second in both the 100 and 200 meters at this event . She also won a silver medal at 60 metres event at 2012 IAAF World Indoor Championships in Istanbul , Turkey . She was the 2009 NCAA Indoor Champion at 200 metres while running for the University of Miami . Ahour\u00e9 's personal best at 100 m is 10.78 ( Montverde , USA , 2016 ) and in 200 m 22.24 ( Monaco , 2013 ) . She holds African records in 100 metres outdoor and in 200 metres indoor . At the 2012 Summer Olympics she placed sixth in the 200 m and seventh in the 100 m. She ran under seven seconds for the 60 metres in February 2013 , becoming the eighth fastest woman ever with her time of 6.99 seconds .",
    "/wiki/2015_World_Championships_in_Athletics": "The fifteenth edition of the IAAF World Championships ( ) was held 22-30 August 2015 in Beijing , China . Forty-three nations won medals , 144 of which were awarded . Kenya topped the medal table for the first time , with 7 gold , 6 silver and 3 bronze medals . The United States won 18 medals , six gold , six silver and six bronze , which was the highest tally . Host nation China , finished 11th on the medals table , while Russia finished ninth . 205 IAAF member countries and territories participated , two more than in 2013 , with new IAAF member , Kosovo , making its debut . South Sudan was also set to participate for the first time , but its sole athlete did not show up in Beijing . Eritrea won their first world title at these championships , with Ghirmay Ghebreslassie winning the men 's marathon . The event was the largest sporting event to take place at the Beijing National Stadium ( Bird 's Nest ) since the 2008 Summer Olympics .",
    "/wiki/2015_World_Championships_in_Athletics_\u2013_Women's_100_metres": "The women 's 100 metres at the 2015 World Championships in Athletics was held at the Beijing National Stadium on 23 and 24 August . Shelly-Ann Fraser-Pryce entered the competition as the defending champion and the world leading athlete that season with a time of 10.74 seconds .",
    "/wiki/Dafne_Schippers": "Dafne Schippers ( ; born 15 June 1992 ) is a Dutch track and field athlete . She competes primarily in the sprints , having previously participated in the heptathlon . She is the 2015 and 2017 World Champion and won silver at the 2016 Summer Olympics in the 200 metres . Schippers holds the European record in the 200 m with a time of 21.63 s and is the third-fastest woman of all time at this distance . She is co-record holder in the 4 \u00d7 100 m relay .",
    "/wiki/Tori_Bowie": "Frentorish Tori Bowie ( born August 27 , 1990 ) is an American track and field athlete , who primarily competes in the 100 m and the 200 m. She has a personal record of for the long jump , set in 2014 . She is the 2017 100m world champion , a 2016 Olympian and a three-time Olympic medalist . Bowie competed collegiately for the University of Southern Mississippi and was a two-time NCAA long jump champion , winning indoors and outdoors in 2011 . She holds the school records for the long jump and was also NCAA runner-up outdoors in 2012 . She came runner-up in the long jump at the 2014 USA Indoor Track and Field Championships and represented her country at the 2014 IAAF World Indoor Championships . After winning Diamond League races in Eugene , Rome , New York , and Monaco in 2014 , Bowie shifted her focus to the sprints beginning in 2015 . She holds personal bests of 10.78 seconds for the 100-meter dash , 21.77 seconds for the 200-meter dash , and 7.14 seconds for the 60-meter dash , as well as having a triple jump best of .",
    "/wiki/2017_World_Championships_in_Athletics": "The 2017 IAAF World Championships , the sixteenth edition of the IAAF World Championships , were held from 4 to 13 August at London Stadium in London , UK . London was officially awarded the championships on 11 November 2011 .",
    "/wiki/2017_World_Championships_in_Athletics_\u2013_Women's_100_metres": "The women 's 100 metres at the 2017 World Championships in Athletics was held at the London Olympic Stadium on .",
    "/wiki/Marie-Jos\u00e9e_Ta_Lou": "Gonezie Marie Jos\u00e9e Dominique Ta Lou ( born 18 November 1988 ) is an Ivorian athlete who specialises in sprinting events . She finished fourth in the 100 metres and 200 metres finals at the 2016 Olympic Games , missing out on a medal in the 100m by seven-thousandths of a second ( 0.007 ) . She then won silver medals in the 100 metres and 200 metres at the 2017 World Championships , the latter in the national record time of 22.08 secs . Her 100 metres best is 10.85 secs ( 2018 , 2019 ) . She also won a silver medal in the 60 metres at the 2018 World Indoor Championships .",
    "/wiki/2019_World_Athletics_Championships": "The 2019 IAAF World Athletics Championships ( ) was the seventeenth edition of the biennial , global athletics competition organised by the International Association of Athletics Federations ( IAAF ) . It was held between 27 September and 6 October 2019 in Doha , Qatar , at the renovated multi-purpose Khalifa International Stadium , but reduced to 21,000 available seats . 1,772 athletes from 206 teams competed in 49 athletics events over the ten-day competition , comprising 24 events each for men and women , plus a mixed relay . There were 43 track and field events , 4 racewalking events , and 2 marathon road running events . The racewalking and marathon events were held in Doha Corniche . It was the first edition of the competition under its modified name , having previously been known as the IAAF World Championships . It was the first time the competition was in the Middle East and also the first time it ended in October . Due to the hot climate , there were no morning sessions and events were held in the late afternoon onward . Long-distance road events were scheduled to start around midnight local time . For the first time , sponsors of national teams were permitted to appear on the kit that the athletes compete in . Athletes competing in Doha criticised the lack of spectators , the flat atmosphere , the heat , and the timing of events , and they questioned why Doha was awarded the championships . The performances at the championships were the best ever , with the average performance ( per IAAF Scoring tables ) surpassing that of the 2017 World Athletics Championships .",
    "/wiki/2019_World_Athletics_Championships_\u2013_Women's_100_metres": "The women 's 100 metres at the 2019 World Athletics Championships was held at the Khalifa International Stadium in Doha , Qatar , on 28 to 29 September 2019 .",
    "/wiki/Dina_Asher-Smith": "Dina Asher-Smith ( /\u02c8di\u02d0n\u00e6 \u02c8\u00e6\u0283\u025c sm\u026a\u03b8/ ) ( born 4 December 1995 ) is an English sprinter . She is the fastest British woman in recorded history . She is the 2019 World Champion at 200 metres , the 2016 and 2018 European champion at 200 metres and the 2018 European champion at 100 metres . She also won 2016 Olympic bronze and gold medals at the 2018 Commonwealth Games and 2018 European Championships in the 4 \u00d7 100 metres relay . She holds the British records in the 100 and 200 metres , with 10.83 secs ( 2019 ) and 21.88 secs ( 2019 ) . Asher-Smith won the 2013 European Junior 200m title and the 2014 World Junior 100m title , and became the first British woman to legally run under 11 seconds for the 100 metres , in July 2015 . She then broke Kathy Cook 's 31-year-old British 200 metres record when finishing fifth at the 2015 World Championships . She also finished fifth in the 200 metres final at the 2016 Rio Olympics and fourth in the 200 metres final at the 2017 World Championships . Having won relay medals at the 2013 and 2017 World Championships , Asher-Smith broke her own British records when winning silver in the 100m metres and gold in the 200 metres at the 2019 World Championships , and added another silver medal in the 4 \u00d7 100 metres relay ."
  }
}