{
  "List_of_tallest_buildings_and_structures_in_the_United_Kingdom_by_usage_2": {
    "/wiki/Victoria_Tower": "The Victoria Tower is a square tower at the south-west end of the Palace of Westminster in London , adjacent to Black Rod 's Garden on the west and Old Palace Yard on the east . At 98.5 metres ( 323 ft ) , it is slightly taller than the Elizabeth Tower ( formerly known as the Clock Tower and popularly known as 'Big Ben ' ) at the north end of the Palace ( 96.3 metres ( 316 ft ) ) . At the time of its construction it was tallest square tower in the world . It was designed by Charles Barry in the Perpendicular Gothic style and was completed in 1860 . It houses the Parliamentary Archives in archive conditions meeting the BS 5454 standard , on 12 floors . All 14 floors of the building were originally linked via a single wrought-iron Victorian staircase of 553 steps , of which five floors survive . The main entrance at the base of the tower is the Sovereign 's Entrance , through which the Monarch passes at the State Opening of Parliament . On top of the Victoria Tower is an iron flagstaff from which flies the Union Flag or , when the Sovereign is present in the Palace , the Royal Standard . The flag used to be flown only on days when either House of Parliament sat , but since January 2010 it has been flown every day .",
    "/wiki/City_of_Westminster": "The City of Westminster is an Inner London borough that also holds city status . It occupies much of the central area of Greater London including most of the West End . Historically in Middlesex , it is to the west of the ancient City of London , directly to the east of the Royal Borough of Kensington and Chelsea , and its southern boundary is the River Thames . The London borough was created with the 1965 establishment of Greater London . Upon its creation , it inherited the city status previously held by the smaller Metropolitan Borough of Westminster from 1900 , which was first awarded to Westminster in 1540 . Aside from numerous large parks and open spaces , the population density of the district is high . Many sites commonly associated with London are in the borough , including St James 's Palace , Buckingham Palace , the Palace of Westminster ( Houses of Parliament ) and 10 Downing Street . The borough is divided into a number of localities including the ancient political district of Westminster ; the shopping areas around Oxford Street , Regent Street , Piccadilly and Bond Street ; and the night-time entertainment district of Soho . Much of the borough is residential , and in 2008 it was estimated to have a population of 236,000 . The local government body is Westminster City Council . A study in 2017 by Trust for London and The New Policy Institute found that Westminster has the third-highest pay inequality of the 32 London boroughs . It also has the second-least affordable private rent for low earners in London , behind only Kensington and Chelsea .",
    "/wiki/London": "London is the capital and largest city of England and of the United Kingdom . Standing on the River Thames in the south-east of England , at the head of its 50-mile ( 80 km ) estuary leading to the North Sea , London has been a major settlement for two millennia . Londinium was founded by the Romans . The City of London , London 's ancient core \u2212 an area of just 1.12 square miles ( 2.9 km2 ) and colloquially known as the Square Mile \u2212 retains boundaries that closely follow its medieval limits . [ note 1 ] The City of Westminster is also an Inner London borough holding city status . Greater London is governed by the Mayor of London and the London Assembly . [ note 2 ] London is considered to be one of the world 's most important global cities and has been termed the world 's most powerful , most desirable , most influential , most visited , most expensive , innovative , sustainable , most investment friendly , and most popular for work city . London exerts a considerable impact upon the arts , commerce , education , entertainment , fashion , finance , healthcare , media , professional services , research and development , tourism and transportation . London ranks 26th out of 300 major cities for economic performance . It is one of the largest financial centres and has either the fifth or the sixth largest metropolitan area GDP . [ note 3 ] It is the most-visited city as measured by international arrivals and has the busiest city airport system as measured by passenger traffic . It is the leading investment destination , hosting more international retailers and ultra high-net-worth individuals than any other city .",
    "/wiki/Manchester_Town_Hall": "Manchester Town Hall is a Victorian , Neo-gothic municipal building in Manchester , England . It is the ceremonial headquarters of Manchester City Council and houses a number of local government departments . The building faces Albert Square to the north and St Peter 's Square to the south , with Manchester Cenotaph facing its southern entrance . Designed by architect Alfred Waterhouse , the town hall was completed in 1877 . The building contains offices and grand ceremonial rooms such as the Great Hall which is decorated with Ford Madox Brown 's imposing Manchester Murals illustrating the history of the city . The entrance and Sculpture Hall contain busts and statues of influential figures including Dalton , Joule and Barbirolli . The exterior is dominated by the clock tower which rises to 280 feet ( 85 m ) and houses Great Abel , the clock bell . In 1938 , a detached Town Hall Extension was completed and is connected by two covered bridges over Lloyd Street . The town hall was designated as a Grade I listed building on 25 February 1952 .",
    "/wiki/Manchester": "Manchester ( /\u02c8m\u00e6nt\u0283\u025bst\u0259r/ ) is a major city and metropolitan borough in Greater Manchester , England , with a population of 547,627 as of 2018 ( 5th most populous English district ) . It lies within the United Kingdom 's second-most populous urban area , with a population of 2.9 million , and second-most populous metropolitan area , with a population of 3.3 million . It is fringed by the Cheshire Plain to the south , the Pennines to the north and east , and an arc of towns with which it forms a continuous conurbation . The local authority for the city is Manchester City Council . The recorded history of Manchester began with the civilian settlement associated with the Roman fort of Mamucium or Mancunium , which was established in about AD 79 on a sandstone bluff near the confluence of the rivers Medlock and Irwell . It is historically a part of Lancashire , although areas of Cheshire south of the River Mersey were incorporated in the 20th century . The first to be included , Wythenshawe , was added to the city in 1931 . Throughout the Middle Ages Manchester remained a manorial township , but began to expand at an astonishing rate around the turn of the 19th century . Manchester 's unplanned urbanisation was brought on by a boom in textile manufacture during the Industrial Revolution , and resulted in it becoming the world 's first industrialised city . Manchester achieved city status in 1853 . The Manchester Ship Canal opened in 1894 , creating the Port of Manchester and directly linking the city to the Irish Sea , 36 miles ( 58 km ) to the west . Its fortune declined after the Second World War , owing to deindustrialisation , but the IRA bombing in 1996 led to extensive investment and regeneration .",
    "/wiki/Greater_Manchester": "Greater Manchester is a metropolitan county and combined authority area in North West England , with a population of 2.8 million ; the third largest in England after Greater London and the West Midlands . It encompasses one of the largest metropolitan areas in the United Kingdom and comprises ten metropolitan boroughs : Bolton , Bury , Oldham , Rochdale , Stockport , Tameside , Trafford , Wigan , and the cities of Manchester and Salford . Greater Manchester was created on 1 April 1974 as a result of the Local Government Act 1972 , and designated a functional city region on 1 April 2011 . Greater Manchester spans 493 square miles ( 1,277 km2 ) , which roughly covers the territory of the Greater Manchester Built-up Area , the second most populous urban area in the UK . It is landlocked and borders Cheshire ( to the south-west and south ) , Derbyshire ( to the south-east ) , West Yorkshire ( to the north-east ) , Lancashire ( to the north ) and Merseyside ( to the west ) . There is a mix of high-density urban areas , suburbs , semi-rural and rural locations in Greater Manchester , but land use is mostly urban - the product of concentric urbanisation and industrialisation which occurred mostly during the 19th century when the region flourished as the global centre of the cotton industry . It has a focused central business district , formed by Manchester city centre and the adjoining parts of Salford and Trafford , but Greater Manchester is also a polycentric county with ten metropolitan districts , each of which has at least one major town centre and outlying suburbs . Greater Manchester is governed by the Greater Manchester Combined Authority ( GMCA ) , which consists of political leaders from each of the ten metropolitan borough councils , plus a directly elected mayor , with responsibility for economic development , regeneration and transport . Andy Burnham is the inaugural Mayor of Greater Manchester , elected in 2017 . For the 12 years following 1974 the county had a two-tier system of local government ; district councils shared power with the Greater Manchester County Council . The county council was abolished in 1986 , and so its districts ( the metropolitan boroughs ) effectively became unitary authority areas . However , the metropolitan county continued to exist in law and as a geographic frame of reference , and as a ceremonial county , with a Lord Lieutenant and a High Sheriff .",
    "/wiki/Manchester_Civil_Justice_Centre": "Manchester Civil Justice Centre is a governmental building in Manchester , England . Completed in 2007 , it houses Manchester 's county court and the Manchester District Registry of the High Court , the city 's family proceedings court , the district probate registry , and the regional and area offices of the Court Service . The Civil Justice Centre was the first major court complex built in Britain since George Edmund Street 's Royal Courts of Justice in London completed in 1882 . Its distinctive architecture has been nicknamed the filing cabinet because of its cantilever floors at the end of the building . The design takes inspiration from Expressionist architecture , as well as the artistic Futurist movement of the 1920s which promotes dynamic lines and a sense of fluid movement . Commissioned by the former Department for Constitutional Affairs ( now the Ministry of Justice ) , the building was funded as a Public-private partnership and is the centrepiece of the Spinningfields development . The building opened to widespread acclaim for its expressionist dynamism , environmental credentials and high-quality design . It was nominated for RIBA 's Stirling Prize in 2007 and named one of the Best British buildings of the 21st century by Blueprint magazine in 2011 .",
    "/wiki/Royal_Courts_of_Justice": "The Royal Courts of Justice , commonly called the Law Courts , is a court building in London which houses the High Court and Court of Appeal of England and Wales . The High Court also sits on circuit and in other major cities . Designed by George Edmund Street , who died before it was completed , it is a large grey stone edifice in the Victorian Gothic style built in the 1870s and opened by Queen Victoria in 1882 . It is one of the largest courts in Europe . It is located on Strand within the City of Westminster , near the border with the City of London ( Temple Bar ) . It is surrounded by the four Inns of Court , St Clement Danes church , The Australian High Commission , King 's College London and the London School of Economics . The nearest London Underground stations are Chancery Lane and Temple . The courts within the building are generally open to the public with some access restrictions depending upon the nature of the cases being heard . Those in court who do not have legal representation may receive some assistance within the building . A Citizens Advice Bureau is based in the Main Hall which provides free , confidential and impartial advice by appointment to litigants-in-person . There is also an office of the Personal Support Unit where litigants-in-person can receive emotional support and practical information about court proceedings . The Central Criminal Court , widely known as the Old Bailey after its street , is about 1\u20442 mile ( 0.8 km ) to the east - a Crown Court centre with no direct connection with the Royal Courts of Justice .",
    "/wiki/Glasgow_City_Chambers": "The City Chambers or Municipal Buildings in Glasgow , Scotland , has functioned as the headquarters of Glasgow City Council since 1996 , and of preceding forms of municipal government in the city since 1889 , located on the eastern side of the city 's George Square . An eminent example of Victorian civic architecture , the building was constructed between 1882 and 1888 to a competition winning design by Scottish architect William Young . a native of Paisley . Inaugurated in August 1888 by Queen Victoria , the first council meeting was held within the chambers in October 1889 . The building originally had an area of . In 1923 , an extension to the east side of the building in John Street was opened and in 1984 Exchange House in George Street was completed , increasing the size of the City Chambers complex to some .",
    "/wiki/Glasgow": "Glasgow ( /\u02c8\u0261l\u00e6z\u0261o\u028a/ , also UK : /\u02c8\u0261l\u0251\u02d0z\u0261o\u028a , \u02c8\u0261l\u0251\u02d0s\u0261o\u028a/ , US : /\u02c8\u0261l\u00e6s\u0261o\u028a , \u02c8\u0261l\u00e6sko\u028a/ ; Scots : Glesga [ \u02c8\u0261lez\u0261\u0259 ] ; Scottish Gaelic : Glaschu [ \u02c8kl\u032a\u02e0as\u032a\u0259xu ] ) is the most populous city in Scotland , and the third most populous city in the United Kingdom , as of the 2017 estimated city population of 621,020 . Historically part of Lanarkshire , the city now forms the Glasgow City council area , one of the 32 council areas of Scotland ; the local authority is Glasgow City Council . Glasgow is situated on the River Clyde in the country 's West Central Lowlands . It is the fifth most visited city in the UK . Inhabitants of the city are referred to as Glaswegians or , informally , as Weegies . Glasgow is also known for the Glasgow patter , a distinct dialect of the Scots language that is noted for being difficult to understand by those from outside the city . Glasgow grew from a small rural settlement on the River Clyde to become the largest seaport in Scotland , and tenth largest by tonnage in Britain . Expanding from the medieval bishopric and royal burgh , and the later establishment of the University of Glasgow in the fifteenth century , it became a major centre of the Scottish Enlightenment in the eighteenth century . From the eighteenth century onwards , the city also grew as one of Great Britain 's main hubs of transatlantic trade with North America and the West Indies . With the onset of the Industrial Revolution , the population and economy of Glasgow and the surrounding region expanded rapidly to become one of the world 's pre-eminent centres of chemicals , textiles and engineering ; most notably in the shipbuilding and marine engineering industry , which produced many innovative and famous vessels . Glasgow was the Second City of the British Empire for much of the Victorian era and Edwardian period , although many cities argue the title was theirs . In the late 19th and early 20th centuries , Glasgow 's population grew rapidly , reaching a peak of 1,127,825 people in 1938 .",
    "/wiki/Scotland": "Scotland ( Scots : Scotland , Scottish Gaelic : Alba [ \u02c8al\u032a\u02e0ap\u0259 ] ( listen ) ) is a country that is part of the United Kingdom . It covers the northern third of the island of Great Britain , with a border with England to the southeast , and is surrounded by the Atlantic Ocean to the north and west , the North Sea to the northeast , the Irish Sea to the south , and more than 790 islands , including the Northern Isles and the Hebrides . The Kingdom of Scotland emerged as an independent sovereign state in the European Early Middle Ages and continued to exist until 1707 . By inheritance in 1603 , James VI , King of Scots , became king of England and Ireland , thus forming a personal union of the three kingdoms . Scotland subsequently entered into a political union with England on 1 May 1707 to create the new Kingdom of Great Britain . The union also created a new Parliament of Great Britain , which succeeded both the Parliament of Scotland and the Parliament of England . In 1801 , Great Britain entered into a political union with Ireland to create the United Kingdom of Great Britain and Ireland ( in 1922 , the Irish Free State seceded from the United Kingdom , leading to the latter being renamed the United Kingdom of Great Britain and Northern Ireland in 1927 ) . Within Scotland , the monarchy of the United Kingdom has continued to use a variety of styles , titles and other royal symbols of statehood specific to the pre-union Kingdom of Scotland . The legal system within Scotland has also remained separate from those of England and Wales and Northern Ireland ; Scotland constitutes a distinct jurisdiction in both public and private law . The continued existence of legal , educational , religious and other institutions distinct from those in the remainder of the UK have all contributed to the continuation of Scottish culture and national identity since the 1707 union with England . In 1997 , a Scottish Parliament was re-established , in the form of a devolved unicameral legislature comprising 129 members , having authority over many areas of domestic policy . The head of the Scottish Government is the first minister of Scotland , who is supported by the deputy first minister of Scotland .",
    "/wiki/Cardiff": "Cardiff ( Welsh : Caerdydd [ kair\u02c8di\u02d0\u00f0 , ka\u02d0\u0268r\u02c8d\u0268\u02d0\u00f0 ] ( listen ) ) is the capital of Wales and its largest city . The eleventh-largest city in the United Kingdom , it is Wales ' chief commercial centre , the base for most national cultural institutions and Welsh media , and the seat of the National Assembly for Wales . At the 2011 census , the unitary authority area population was estimated to be 346,090 , and the wider urban area 479,000 . Cardiff is a significant tourist centre and the most popular visitor destination in Wales with 21.3 million visitors in 2017 . In 2011 , Cardiff was ranked sixth in the world in National Geographic 's alternative tourist destinations . Cardiff is the county town of the historic county of Glamorgan , and in 1974 , South Glamorgan . Cardiff is part of the Eurocities network of the largest European cities . A small town until the early 19th century , its prominence as a major port for the transport of coal following the arrival of industry in the region contributed to its rise as a major city . In 1905 , Cardiff was made a city and proclaimed the capital of Wales in 1955 . At the 2011 Census the population was 346,090 . The Cardiff Built-up Area covers a slightly larger area outside the county boundary and includes the towns of Dinas Powys and Penarth . Since the 1980s , Cardiff has seen significant development .",
    "/wiki/Wales": "Wales ( Welsh : Cymru [ \u02c8k\u0259mri ] ( listen ) ) is a country that is part of the United Kingdom . It is bordered by England to the east , the Irish Sea to the north and west , and the Bristol Channel to the south . It had a population in 2011 of 3,063,456 and has a total area of 20,779 km2 ( 8,023 sq mi ) . Wales has over 1,680 miles ( 2,700 km ) of coastline and is largely mountainous with its higher peaks in the north and central areas , including Snowdon ( Yr Wyddfa ) , its highest summit . The country lies within the north temperate zone and has a changeable , maritime climate . Welsh national identity emerged among the Britons after the Roman withdrawal from Britain in the 5th century , and Wales is regarded as one of the modern Celtic nations . Llywelyn ap Gruffudd 's death in 1282 marked the completion of Edward I of England 's conquest of Wales , though Owain Glynd\u0175r briefly restored independence to Wales in the early 15th century . The whole of Wales was annexed by England and incorporated within the English legal system under the Laws in Wales Acts 1535 and 1542 . Distinctive Welsh politics developed in the 19th century . Welsh Liberalism , exemplified in the early 20th century by Lloyd George , was displaced by the growth of socialism and the Labour Party . Welsh national feeling grew over the century ; Plaid Cymru was formed in 1925 and the Welsh Language Society in 1962 . Established under the Government of Wales Act 1998 , the National Assembly for Wales holds responsibility for a range of devolved policy matters .",
    "/wiki/Leeds_Town_Hall": "Leeds Town Hall was built between 1853 and 1858 on The Headrow ( formerly Park Lane ) , Leeds , West Yorkshire , England , to a design by architect Cuthbert Brodrick . It was planned to include law courts , a council chamber , municipal offices , a public hall , and a suite of ceremonial entertaining rooms . With the building of the Civic Hall in 1933 some of these functions moved away , and after the construction of the Leeds Crown Court in the 1993 , it now functions mainly as a concert , conference and wedding venue , its offices still used by some council departments . Imagined as a municipal palace to demonstrate the power and success of Victorian Leeds , and opened by Queen Victoria in a lavish ceremony in 1858 , the Town Hall is one of the largest town halls in the United Kingdom and it is the thirteenth tallest building in Leeds . It is a Grade I listed building . With a height of it was the tallest building in Leeds from 1858 until 1966 , when it lost the title to the Park Plaza Hotel , which stands taller at . The Town Hall held the title longer than any other building , 108 years . The distinctive clock tower , which serves as a symbol of Leeds , was not part of the initial design but was added by Brodrick in 1856 as the civic leaders sought to make an even grander statement .",
    "/wiki/Leeds": "Leeds is the largest city in the county of West Yorkshire in Northern England , approximately 170 miles north of central London . Leeds has one of the most diverse economies of all the UK 's main employment centres and has seen the fastest rate of private-sector jobs growth of any UK city . It also has the highest ratio of private to public sector jobs of all the UK 's Core Cities , with 77% of its workforce working in the private sector . Leeds has the third-largest jobs total by local authority area , with 480,000 in employment and self-employment at the beginning of 2015 . Leeds is ranked as a High Sufficiency level city by the Globalization and World Cities Research Network . Leeds is the cultural , financial and commercial heart of the West Yorkshire Urban Area . Leeds is served by five universities , and has the fourth largest student population in the country and the country 's fourth largest urban economy . Leeds was a small manorial borough in the 13th century , and in the 17th and 18th centuries it became a major centre for the production and trading of wool , and in the Industrial Revolution a major mill town ; wool was still the dominant industry , but flax , engineering , iron foundries , printing , and other industries were also important . From being a market town in the valley of the River Aire in the 16th century , Leeds expanded and absorbed the surrounding villages to become a populous urban centre by the mid-20th century . It now lies within the West Yorkshire Urban Area , the United Kingdom 's fourth-most populous urban area , with a population of 2.6 million . Today , Leeds has become the largest legal and financial centre outside London with the financial and insurance services industry worth \u00a313 billion to the city 's economy . The finance and business service sector account for 38% of total output with more than 30 national and international banks located in the city , including an office of the Bank of England .",
    "/wiki/West_Yorkshire": "West Yorkshire is a metropolitan county in England . It is an inland and , in relative terms , upland county having eastward-draining valleys while taking in the moors of the Pennines . West Yorkshire came into existence as a metropolitan county in 1974 after the passage of the Local Government Act 1972 and has a population of 2.2 million . West Yorkshire consists of five metropolitan boroughs ( City of Bradford , Calderdale , Kirklees , City of Leeds and City of Wakefield ) and is bordered by the counties of Derbyshire to the south , Greater Manchester to the south-west , Lancashire to the north-west , North Yorkshire to the north and east , and South Yorkshire to the south and south-east . Remnants of strong coal , wool and iron ore industries remain in the county , having attracted people over the centuries , and this can be seen in the buildings and architecture . Major railways and two major motorways traverse the county , which also contains Leeds Bradford International Airport . West Yorkshire County Council was abolished in 1986 , so its five districts became effectively unitary authorities . However , the metropolitan county , which covers an area of 2,029 square kilometres ( 783 sq mi ) , continues to exist in law , and as a geographic frame of reference . Since 1 April 2014 West Yorkshire has been a combined authority area , with the local authorities pooling together some functions over transport and regeneration as the West Yorkshire Combined Authority . West Yorkshire includes the West Yorkshire Urban Area , which is the biggest and most built-up urban area within the historic county boundaries of Yorkshire .",
    "/wiki/High_Commission_of_New_Zealand,_London": "The High Commission of New Zealand ( M\u0101ori : Te K\u0101inga M\u0101ngai K\u0101wanatanga o Aotearoa i R\u0101nana ) in London is the diplomatic mission of New Zealand in the United Kingdom . It is housed in a skyscraper known as New Zealand House on Haymarket , London , off Pall Mall . As well as containing the offices of the High Commissioner , the building also hosts the New Zealand consulate in London and the military attach\u00e9 .",
    "/wiki/Old_Bailey": "The Central Criminal Court of England and Wales ( commonly called the Old Bailey , after the street on which it stands ) is a court in London and one of a number of buildings housing the Crown Court . Part of the present building stands on the site of the medieval Newgate gaol , on a road named Old Bailey that follows the line of the City of London 's fortified wall ( or bailey ) , which runs from Ludgate Hill to the junction of Newgate Street and Holborn Viaduct . The Old Bailey has been housed in several structures near this location since the sixteenth century , and its present building dates from 1902 , designed by Edward William Mountford . The Crown Court sitting at the Central Criminal Court deals with major criminal cases from within Greater London and in exceptional cases , from other parts of England and Wales . Trials at the Old Bailey , as at other courts , are open to the public ; however , they are subject to stringent security procedures ."
  },
  "List_of_ministerial_by-elections_to_the_Parliament_of_the_United_Kingdom_4": {
    "/wiki/Queen's_County_(UK_Parliament_constituency)": "Queen 's County was a UK Parliament constituency in Ireland , returning two Members of Parliament 1801-1885 and one in 1918-1922 .",
    "/wiki/Henry_Parnell,_1st_Baron_Congleton": "Henry Brooke Parnell , 1st Baron Congleton PC ( 3 July 1776 - 8 June 1842 ) , known as Sir Henry Parnell , Bt , from 1812 to 1841 , was an Irish writer and Whig politician . He was a member of the Whig administrations headed by Lord Grey and Lord Melbourne of the 1830s and also published works on financial and penal questions as well as on civil engineering . He was the great-uncle of Irish nationalist leader Charles Stewart Parnell .",
    "/wiki/Secretary_at_War": "The Secretary at War was a political position in the English and later British government , with some responsibility over the administration and organization of the Army , but not over military policy . The Secretary at War ran the War Office . After 1794 it was occasionally a cabinet-level position , although it was considered of subordinate rank to the Secretaries of State . The position was combined with that of Secretary of State for War in 1854 and abolished in 1863. Notable holders of the position include Robert Walpole , the Hon . Henry Pelham , Henry Fox , Lord Palmerston and Lord Macaulay .",
    "/wiki/Nairnshire_(UK_Parliament_constituency)": "Nairnshire was a county constituency of the House of Commons of Great Britain from 1708 until 1800 , and of the House of Commons of the United Kingdom from 1801 to 1832 .",
    "/wiki/Groom_of_the_Chamber": "Groom of the Chamber was a position in the Household of the monarch in early modern England . Other Ancien R\u00e9gime royal establishments in Europe had comparable officers , often with similar titles . In France , the Duchy of Burgundy , and in England while French was still the language of the court , the title was varlet or valet de chambre . In German , Danish and Russian the term was Kammerjunker and in Swedish the similar Kammarjunkare . In England after the Restoration , appointments in the King 's Household included Groom of the Great Chamber , Groom of the Privy Chamber and Groom of the Bedchamber . The first two positions were appointed by Lord Chamberlain 's warrant ; the third , of greater importance , was a Crown appointment .",
    "/wiki/County_Kilkenny_(UK_Parliament_constituency)": "County Kilkenny parliamentary constituency was a former UK Parliament County constituency in County Kilkenny in Ireland . The County constituency returned two Members of Parliament ( MP ) in the House of Commons of the United Kingdom of Great Britain and Ireland , from 1801 until 1885 . County Kilkenny constituency was an original constituency represented in Parliament when the Acts of Union 1800 by Great Britain and Ireland took effect on 1 January 1801 , and remained in existence until its abolition in 1885 when it was replaced by North Kilkenny and South Kilkenny . County Kilkenny constituency was made up of the traditional county except for the borough constituency of Kilkenny City for Kilkenny .",
    "/wiki/John_Ponsonby,_4th_Earl_of_Bessborough": "John William Ponsonby , 4th Earl of Bessborough , PC ( 31 August 1781 - 16 May 1847 ) , known as Viscount Duncannon from 1793 to 1844 , was a British Whig politician . He was notably Home Secretary in 1834 and served as Lord Lieutenant of Ireland between 1846 and 1847 , the first years of the Great Famine .",
    "/wiki/Commissioners_of_Woods_and_Forests": "The Commissioners of Woods , Forests and Land Revenues were established in the United Kingdom in 1810 by merging the former offices of Surveyor General of Woods , Forests , Parks , and Chases and Surveyor General of the Land Revenues of the Crown into a three-man commission . The name of the commission was changed in 1832 to the Commissioners of Woods , Forests , Land Revenues , Works and Buildings . The Crown Lands Act 1851 replaced the Commissioners with two separate commissions , the Commissioners of Works and Public Buildings and the Commissioners of Woods , Forests and Land Revenues dividing between them the public and the commercial functions of the Crown lands . The hereditary land revenues of the Crown in Scotland , formerly under the management of the Barons of the Exchequer , were transferred to the Commissioners of Woods , Forests , Land Revenues , Works and Buildings and their successors under the Crown Lands ( Scotland ) Acts of 1832 , 1833 and 1835 .",
    "/wiki/Bletchingley_(UK_Parliament_constituency)": "Bletchingley was a parliamentary borough in Surrey . It returned two Members of Parliament ( MPs ) to the House of Commons of England from 1295 to 1707 , to the House of Commons of Great Britain from 1707 to 1800 , and to the House of Commons of the United Kingdom until 1832 , when the constituency was abolished by the Great Reform Act . Elections were held using the bloc vote system .",
    "/wiki/Charles_Tennyson_d'Eyncourt": "Charles Tennyson d'Eyncourt ( 20 July 1784 - 21 July 1861 ) , born Charles Tennyson , was a British politician , landowner and Member of Parliament ( MP ) for Stamford from 1831 to 1832 and for Lambeth from 1832 to 1852 . He is also known for his social pretensions and his graceless behaviour towards his nephew , the poet Alfred Lord Tennyson . He was educated at St John 's College , Cambridge . He was the younger son of George Tennyson , who bought the family seat of Beacons , in the village of Tealby , Lincolnshire , along with 2,000 acres ( 8 km\u00b2 ) of land , and came in time to own a large part of the village . George , as is well known , disinherited his elder son George Clayton Tennyson , the poet 's father , at the age of 12 , putting him into a career in the Church , for which he felt no calling ; and bestowed all his fortune on Charles . As a result , there was bad blood between the penurious Tennysons of Somersby , where George Clayton Tennyson had the living until he succumbed to drink and depression , and the opulent Tennysons of Beacons , who fancied themselves not only the wealthy but the socially superior side of the family . Old George 's wife Elizabeth Clayton was supposed to have descended from the Lords of Lovel and d'Eyncourt , and also from King Edward III . A ruined castle was part of the property , and Charles wished to establish a noble lineage for himself with a title and a castle . When his father died he changed his family 's name to Tennyson d'Eyncourt . Beacons was renamed Bayons , to make it sound like a Norman castle , and it was extensively enlarged and rebuilt in the style of a Gothic castellated manor-house . In public life Charles Tennyson d'Eyncourt was for many years MP for Lambeth , and was made a Privy Counsellor in 1832 . Also in the 1830s , along with Augustus , Duke of Sussex and Admiral Sir Sidney Smith , he was one of the prime movers in a plan to have the Order of Knights Templar revived as a British order of chivalry .",
    "/wiki/Clerk_of_the_Ordnance": "The Clerk of the Ordnance was a subordinate of the Master-General of the Ordnance and a member of the Board of Ordnance from its constitution in 1597 . He was responsible for the correspondence and for the financial bookkeeping of the Board . The office was abolished in 1857 .",
    "/wiki/Inverness-shire_(UK_Parliament_constituency)": "Inverness-shire was a county constituency of the House of Commons of the Parliament of Great Britain from 1708 to 1801 and of the Parliament of the United Kingdom from 1801 until 1918 . There was also a burgh constituency called Inverness Burghs , 1708 to 1918 , and a county constituency called Inverness , 1918 to 1983 .",
    "/wiki/Charles_Grant,_1st_Baron_Glenelg": "Charles Grant , 1st Baron Glenelg PC FRS ( 26 October 1778 - 23 April 1866 ) was a Scottish politician and colonial administrator .",
    "/wiki/President_of_the_Board_of_Control": "The President of the Board of Control was a British government official in the late 18th and early 19th century responsible for overseeing the British East India Company and generally serving as the chief official in London responsible for Indian affairs . The position was frequently a cabinet level one . The position was abolished in 1858 with the abolition of the East India Company . It was succeeded by the new position of Secretary of State for India .",
    "/wiki/Preston_(UK_Parliament_constituency)": "Preston is a constituency [ n 1 ] represented in the House of Commons of the UK Parliament since 2000 by Sir Mark Hendrick , a member of the Labour Party and Co-operative Party . [ n 2 ]",
    "/wiki/Edward_Smith-Stanley,_14th_Earl_of_Derby": "Edward George Geoffrey Smith-Stanley , 14th Earl of Derby , KG , GCMG , PC , PC ( Ire ) ( 29 March 1799 - 23 October 1869 ) was a British statesman , three-time Prime Minister of the United Kingdom and , to date , the longest-serving leader of the Conservative Party . He was known before 1834 as Edward Stanley , and from 1834 to 1851 as Lord Stanley . He is one of only four British prime ministers to have three or more separate periods in office . However , his ministries each lasted less than two years and totalled three years and 280 days . Historian Frances Walsh has written that it was Derby :",
    "/wiki/Henry_Hunt_(politician)": "Henry Orator Hunt ( 6 November 1773 - 15 February 1835 ) was a British radical speaker and agitator remembered as a pioneer of working-class radicalism and an important influence on the later Chartist movement . He advocated parliamentary reform and the repeal of the Corn Laws .",
    "/wiki/Chief_Secretary_for_Ireland": "The Chief Secretary for Ireland was a key political office in the British administration in Ireland . Nominally subordinate to the Lord Lieutenant , and officially the Chief Secretary to the Lord Lieutenant , from the early 19th century until the end of British rule he was effectively the government minister with responsibility for governing Ireland , roughly equivalent to the role of a Secretary of State , such as the similar role of Secretary of State for Scotland . Usually it was the Chief Secretary , rather than the Lord Lieutenant , who sat in the British Cabinet . The Chief Secretary was ex officio President of the Local Government Board for Ireland from its creation in 1872 . British rule over much of Ireland came to an end as the result of the Irish War of Independence , which culminated in the establishment of the Irish Free State . In consequence the office of Chief Secretary was abolished , as well as that of Lord Lieutenant . Executive responsibility within the Irish Free State and Northern Ireland was effectively transferred to the President of the Executive Council ( i.e . the prime minister ) and the Prime Minister of Northern Ireland respectively .",
    "/wiki/Montgomeryshire_(UK_Parliament_constituency)": "Montgomeryshire ( ) is a constituency represented in the House of Commons of the Parliament of the United Kingdom . Created in 1542 , it elects one Member of Parliament ( MP ) , traditionally known as the knight of the shire , by the first-past-the-post system of election . The Montgomeryshire Welsh Assembly constituency was created with the same boundaries in 1999 .",
    "/wiki/Charles_Williams-Wynn_(1775\u20131850)": "Charles Watkin Williams-Wynn PC ( 9 October 1775 - 2 September 1850 ) was a British politician of the early- to mid-19th century . He held office in both Tory and Whig administrations and was Father of the House of Commons between 1847 and 1850 .",
    "/wiki/City_of_Chester_(UK_Parliament_constituency)": "The City of Chester is a constituency created in 1545 ( turned into a county division in 1885 and reformed in narrowed geographical guise in 1918 ) and represented in the House of Commons of the UK Parliament since 2015 by Chris Matheson of the Labour Party .",
    "/wiki/Robert_Grosvenor,_1st_Baron_Ebury": "Robert Grosvenor , 1st Baron Ebury PC ( 24 April 1801 - 18 November 1893 ) , styled Lord Robert Grosvenor from 1831 to 1857 , was a British courtier and Whig politician . He served as Comptroller of the Household between 1830 and 1834 and as Treasurer of the Household between 1846 and 1847 . In 1857 he was ennobled as Baron Ebury .",
    "/wiki/Comptroller_of_the_Household": "The Comptroller of the Household is an ancient position in the British royal household , nominally the second-ranking member of the Lord Steward 's department after the Treasurer of the Household . The Comptroller was an ex officio member of the Board of Green Cloth , until that body was abolished in the reform of the local government licensing in 2004 . In recent times , a senior government whip has invariably occupied the office . On state occasions the Comptroller ( in common with certain other senior officers of the Household ) carries a white staff of office , as often seen in portraits .",
    "/wiki/Calne_(UK_Parliament_constituency)": "Calne was a parliamentary borough in Wiltshire , which elected two Members of Parliament ( MPs ) to the House of Commons from 1295 until 1832 , and then one member from 1832 until 1885 , when the borough was abolished .",
    "/wiki/Sir_James_Macdonald,_2nd_Baronet": "Sir James Macdonald , 2nd Baronet , GCMG ( 14 February 1784 - 29 June 1832 ) was a British politician . He sat in the House of Commons between 1805 and 1832 . Macdonald was born 14 February 1784 , the eldest and only surviving son of Sir Archibald Macdonald , a Baron of the Exchequer , by Lady Louisa , the eldest daughter of Granville Leveson-Gower , 1st Marquess of Stafford . With the support of his uncle , George Leveson-Gower , 2nd Marquess of Sutherland ( later first duke ) , Macdonald was first elected to parliament at the by-election for the Tain Burghs in 1805 . He then successfully contested the seats of Newcastle-under-Lyme at the general election of 1806 , Sutherland at the general election of 1812 , the Calne by-election of 1816 ( and subsequent elections ) and Hampshire at the general election of 1831 . Macdonald 's father created a baronet on his retirement in 1813 and on his death in 1826 , James inherited the title . Sir James was persuaded to accept the office of Lord High Commissioner of the Ionian Islands , in the hope that the climate of the Mediterranean would improve his poor health . He was appointed to the office on 2 June 1832 and immediately gave up his Hampshire seat in the Commons . He was gazetted a Knight Grand Cross of the Order of St Michael and St George on 22 June , the same day of the subsequent Hampshire by-election . He dined at his father-in-law 's at Berkeley Square on 27 June but fell ill the next day and died of cholera on the 29th at Spring Gardens , without having set sail for Corfu or being invested as a knight .",
    "/wiki/India_Board": "The Right Honourable Board of Commissioners for the Affairs of India ( commonly known as the India Board or the Board of Control ) was an arm of the Government of the United Kingdom responsible for managing the Government 's interest in British India and the East India Company between 1784 and 1858 . By virtue of the East India Company Act 1784 , Privy Counsellors , not exceeding six in number , were appointed by commission issued under the Great Seal of Great Britain to be Commissioners for the Affairs of India . The Commissioners were to include a Secretary of State and the Chancellor of the Exchequer . At least three of the Commissioners were to form the Board , which exercised powers under the Act . The Board was supported by the Secretary to the Board of Control . It was abolished by the Government of India Act 1858 .",
    "/wiki/Cumberland_(UK_Parliament_constituency)": "Cumberland is a former United Kingdom Parliamentary constituency . It was a constituency of the House of Commons of the Parliament of England then of the Parliament of Great Britain from 1707 to 1800 and of the Parliament of the United Kingdom from 1801 to 1832 . It was represented by two Knights of the Shire . It was divided between the constituencies of Cumberland East and Cumberland West in 1832 .",
    "/wiki/Sir_James_Graham,_2nd_Baronet": "Sir James Robert George Graham , 2nd Baronet , ( 1 June 1792 - 25 October 1861 ) was a British statesman . He was descended from a family long famous in the history of the English border . He was the eldest son of Sir James Graham , 1st Baronet , by Lady Catherine , eldest daughter of the 7th Earl of Galloway . In 1819 , he married Fanny Callander , youngest daughter of Sir James Campbell of Craigforth and Ardkinglas Castle . Sir James was created Doctor of Laws at the University of Cambridge in 1835 , was Lord Rector of the University of Glasgow , 1840 . He was First Lord of the Admiralty from 1830 to 1834 when he resigned on account of the government pressing for a reform of the Irish Church . He became Secretary of the Home Department from September 1841 to July 1846 and again First Lord of the Admiralty from December 1852 until February 1855 . He was a member of the Council of the Duchy of Lancaster , and Deputy Lieutenant for county of Hertfordshire . He represented Kingston upon Hull from 1818 to 1820 ; for St Ives in 1820 ; for Carlisle from 1826 until 1829 ; for East Cumberland from 1830 until 1837 ; for Pembrokeshire District from 1838 until 1841 ; for Dorchester from 1841 until 1847 ; for Ripon from 1847 until July 1852 ; and was again returned for Carlisle from 1852 until his death in 1861 . Graham Land in Antarctica is named after him .",
    "/wiki/First_Lord_of_the_Admiralty": "The First Lord of the Admiralty , or formally the Office of the First Lord of the Admiralty , was the political head of the Royal Navy who was the government 's senior adviser on all naval affairs and responsible for the direction and control of Admiralty as well as general administration of the Naval Service of the United Kingdom , that encompassed the Royal Navy , the Royal Marines and other services . It was one of the earliest known permanent government posts . Apart from being the political head of the Royal Navy the post holder simultaneously held the title of the President of the Board of Commissioners for Exercising the Office of Lord High Admiral ( known as the Board of Admiralty ) . The office of First Lord of the Admiralty existed from 1628 until it was abolished when the Admiralty , Air Ministry , Ministry of Defence and War Office were all merged to form the new Ministry of Defence in 1964 .",
    "/wiki/Northamptonshire_(UK_Parliament_constituency)": "The county constituency of Northamptonshire , in the East Midlands of England was a constituency of the House of Commons of the Parliament of England , then of the Parliament of Great Britain from 1707 to 1800 and of the Parliament of the United Kingdom from 1801 to 1832 and was represented in Parliament by two MPs , traditionally known as Knights of the Shire . After 1832 the county was split into two new constituencies , North Northamptonshire and South Northamptonshire .",
    "/wiki/John_Spencer,_3rd_Earl_Spencer": "John Charles Spencer , 3rd Earl Spencer , ( 30 May 1782 - 1 October 1845 ) , styled Viscount Althorp from 1783 to 1834 , was a British statesman . He was notably Chancellor of the Exchequer under Lord Grey and Lord Melbourne from 1830 to 1834 . Due to his reputation for integrity he was nicknamed Honest Jack .",
    "/wiki/Chancellor_of_the_Exchequer": "The Chancellor and Under-Treasurer of Her Majesty 's Exchequer , commonly known as the Chancellor of the Exchequer , [ a ] or simply the Chancellor , is a senior official within the Government of the United Kingdom and head of Her Majesty 's Treasury . The office is a British Cabinet-level position . The chancellor is responsible for all economic and financial matters , equivalent to the role of finance minister in other nations . The position is considered one of the four Great Offices of State , and in recent times has come to be the most powerful office in British politics after the prime minister . The Chancellor of the Exchequer is now always Second Lord of the Treasury as one of the Lords Commissioners for executing the office of Lord High Treasurer . In the 18th and early 19th centuries , it was common for the prime minister also to serve as Chancellor of the Exchequer if he sat in the Commons ; the last chancellor who was simultaneously prime minister and Chancellor of the Exchequer was Stanley Baldwin in 1923 . Formerly , in cases when the chancellorship was vacant , the Lord Chief Justice of the King 's Bench would act as Chancellor pro tempore . The last Lord Chief Justice to serve in this way was Lord Denman in 1834 . The chancellor is the third-oldest major state office in English and British history ; it originally carried responsibility for the Exchequer , the medieval English institution for the collection and auditing of royal revenues . The earliest surviving records which are the results of the exchequer 's audit , date from 1129-30 under King Henry I and show continuity from previous years . The chancellor controlled monetary policy as well as fiscal policy until 1997 , when the Bank of England was granted independent control of its interest rates . The chancellor also has oversight of public spending across Government departments .",
    "/wiki/Tralee_(UK_Parliament_constituency)": "Tralee was a constituency in Ireland of the Parliament of the United Kingdom Parliament , returning one Member of Parliament ( MP ) . It was an original constituency represented in Parliament when the Union of Great Britain and Ireland took effect on 1 January 1801 . The borough constituency continued to be represented until it was disfranchised in 1885 .",
    "/wiki/Robert_Vernon,_1st_Baron_Lyveden": "Robert Vernon , 1st Baron Lyveden , GCB , PC ( 23 February 1800 - 10 November 1873 ) , known as Robert Vernon Smith until 1859 , was a British Liberal Party politician .",
    "/wiki/Lords_Commissioners_of_the_Treasury": "In the United Kingdom there are at least six Lords Commissioners of Her Majesty 's Treasury , serving as a commission for the ancient office of Lord High Treasurer . The board consists of the First Lord of the Treasury , the Second Lord of the Treasury , and four or more junior lords to whom this title is usually applied . Strictly they are commissioners for exercising the office of Lord High Treasurer ( similar to the status of the Lords Commissioners of the Admiralty exercising the office of Lord High Admiral until 1964 , when the Queen resumed the office ) . This office has continually been in commission since the resignation in 1714 of Charles , Duke of Shrewsbury , who was appointed to the office by Queen Anne on her deathbed . Until the 19th century , this commission made most of the economic decisions of Great Britain ( England , before the Act of Union 1707 ) . However , starting during the 19th century , these positions became sinecure positions , with the First Lord serving almost invariably as Prime Minister , the Second Lord invariably as Chancellor of the Exchequer , and the junior lords serving as whips in Parliament . As an office in commission , technically all Lords Commissioners of the Treasury are of equal rank , with their ordinal numbers connoting seniority rather than authority over their fellow Lords Commissioners . However , from at least the reign of Queen Anne , de facto power has rested with the top-numbered Lords .",
    "/wiki/Youghal_(UK_Parliament_constituency)": "Youghal was a United Kingdom Parliament constituency , in Ireland , returning one MP . It was an original constituency represented in Parliament when the Union of Great Britain and Ireland took effect on 1 January 1801 .",
    "/wiki/George_Ponsonby_(Junior_Lord_of_the_Treasury)": "George Ponsonby ( 1773 - 5 June 1863 ) , styled The Honourable from 1806 , was an Irish politician , who served as a Junior Lord of the Treasury in the governments under Earl Grey and Lord Melbourne from 1832 to 1834 . He was the fourth son of William Brabazon Ponsonby and Louisa daughter of Richard Molesworth , 3rd Viscount Molesworth . Ponsonby represented Lismore in the Irish House of Commons between 1796 and 1798 . He was then elected as a Member of Parliament at a by-election for Kilkenny County in 1806 on his father , previously the sitting member , being elevated to the peerage as 1st Baron Ponsonby of Imokilly , but a general election quickly followed when he was replaced in this seat by his younger brother Hon . Frederick Ponsonby . He subsequently served as for Cork County from 1806 to 1812 ; for Youghal in County Cork from 1826 to 1832 ; and was evidently also a member of the following Parliament . He lived at Woodbeding in Sussex . He married twice , having two sons ( both of whom predeceased him ) and a daughter .",
    "/wiki/Aylesbury_(UK_Parliament_constituency)": "Aylesbury is a constituency created in 1553 - created as a single-member seat in 1885 - represented in the House of Commons of the United Kingdom since 2019 by Rob Butler of the Conservative Party .",
    "/wiki/George_Nugent-Grenville,_2nd_Baron_Nugent": "George Nugent-Grenville , 2nd Baron Nugent of Carlanstown , GCMG ( 31 December 1788 - 26 November 1850 ) , was an Irish politician .",
    "/wiki/Knaresborough_(UK_Parliament_constituency)": "Knaresborough was a parliamentary constituency which returned two Members of Parliament ( MPs ) to the House of Commons of the Parliament of the United Kingdom until 1868 , and then one MP until its abolition in 1885 .",
    "/wiki/James_Mackintosh": "Sir James Mackintosh FRS FRSE ( 24 October 1765 - 30 May 1832 ) was a Scottish jurist , Whig politician and historian . His studies and sympathies embraced many interests . He was trained as a doctor and barrister , and worked also as a journalist , judge , administrator , professor , philosopher and politician .",
    "/wiki/Helston_(UK_Parliament_constituency)": "Helston , sometimes known as Helleston , was a parliamentary borough centred on the small town of Helston in Cornwall . Using the bloc vote system of election , it returned two Members of Parliament ( MPs ) to the House of Commons of England until 1707 , then to House of Commons of Great Britain until 1800 , and to House of Commons of the United Kingdom until the 1832 general election . The Reform Act 1832 reduced its representation to one member , elected by the first-past-the-post system . Under the Redistribution of Seats Act 1885 , it was abolished with effect from the 1885 general election .",
    "/wiki/Samuel_Pechell": "Rear-Admiral Sir Samuel John Brooke Pechell , 3rd Baronet CB , KCH , FRS ( 1 September 1785 - 3 November 1849 ) was a prominent British Royal Navy officer of the early nineteenth century . Although he served in several celebrated naval actions of the French Revolutionary and Napoleonic Wars his most important achievements were made while serving as a Lord of the Admiralty , pioneering the science and instruction of rapid and accurate gunnery in the Royal Navy through training facilities and manuals . In addition to his work at the Admiralty , Pechell served in the House of Commons for two constituencies and was on good terms with King William IV , who supported his efforts to improve standards of gunnery and returned him to the Admiralty in 1839 after a five-year absence caused by his support for the Whig government . In 1826 he inherited the Pechell Baronetcy from his father , but died childless and the title passed to his brother George .",
    "/wiki/Controller_of_the_Navy_(Royal_Navy)": "The post of Controller of the Navy ( abbreviated as CofN ) was originally created in 1859 when the Surveyor of the Navy 's title changed to Controller of the Navy . In 1869 the controller 's office was abolished and his duties were assumed by that of the Third Naval Lord whose title then changed to Third Naval Lord and Controller of the Navy . In 1904 his title was changed again to Third Sea Lord and Controller of the Navy . In 1965 the office of the Third Sea Lord was abolished . The post holder is responsible for procurement and mat\u00e9riel in the British Royal Navy . Originally he was a member of the Board of Admiralty and later a member of the Admiralty Board .",
    "/wiki/Norwich_(UK_Parliament_constituency)": "Norwich was a borough constituency which was represented in the House of Commons of England from 1298 to 1707 , in the House of Commons of Great Britain from 1707 to 1800 , and in the House of Commons of the United Kingdom from 1801 until it was abolished for the 1950 general election . Consisting of the city of Norwich in Norfolk , it returned two members of parliament ( MPs ) , elected by the bloc vote system . It was replaced in 1950 by two new single-member constituencies , Norwich North and Norwich South .",
    "/wiki/Robert_Grant_(MP)": "Sir Robert Grant GCH ( 1779 - 9 July 1838 ) was a British lawyer and politician .",
    "/wiki/Judge_Advocate_General_of_the_Armed_Forces": "In the United Kingdom , the Judge Advocate General and Judge Martial of all the Forces is a judge responsible for the court-martial process within the Royal Navy , British Army and Royal Air Force . As such the post has existed since 2008 ; prior to this date the Judge Advocate General 's authority related to the Army and the RAF while the Judge Advocate of the Fleet was his equivalent with regard to the Royal Navy .",
    "/wiki/Cambridge_University_(UK_Parliament_constituency)": "Cambridge University was a university constituency electing two members to the British House of Commons , from 1603 to 1950 .",
    "/wiki/Henry_John_Temple,_3rd_Viscount_Palmerston": "Henry John Temple , 3rd Viscount Palmerston , KG , GCB , PC , FRS ( 20 October 1784 - 18 October 1865 ) was a British statesman who served twice as Prime Minister in the mid-19th century . Palmerston dominated British foreign policy during the period 1830 to 1865 , when Britain was at the height of its imperial power . He held office almost continuously from 1807 until his death in 1865 . He began his parliamentary career as a Tory , defected to the Whigs in 1830 , and became the first Prime Minister of the newly formed Liberal Party in 1859 . Palmerston succeeded to his father 's Irish peerage in 1802 . He became a Tory MP in 1807 ( his Irish peerage did not bar him from a seat in the House of Commons , because it did not entitle him to a seat in the House of Lords ) . From 1809 to 1828 he served as Secretary at War , in which post he was responsible for the organisation of the finances of the army . He first attained Cabinet rank in 1827 , when George Canning became Prime Minister , but , like other Canningites , he resigned from office one year later . He served as Foreign Secretary 1830-34 , 1835-41 , and 1846-51 . In this office , Palmerston responded effectively to a series of conflicts in Europe . His belligerent actions as Foreign Secretary , some of which were highly controversial , have been considered to be prototypes of the practice of liberal interventionism . Palmerston became Home Secretary in Aberdeen 's coalition government , in 1852 , subsequent to the Peelite advocacy of the appointment of Lord John Russell to the office of Foreign Secretary .",
    "/wiki/Secretary_of_State_for_Foreign_and_Commonwealth_Affairs": "Her Majesty 's Principal Secretary of State for Foreign and Commonwealth Affairs , normally referred to as the Foreign Secretary , is a senior , high-ranking official within the Government of the United Kingdom and head of the Foreign and Commonwealth Office . The Foreign Secretary is a member of the Cabinet , and the post is considered one of the Great Offices of State . It is considered a position similar to that of Foreign Minister in other countries . The Foreign Secretary reports directly to the Prime Minister of the United Kingdom . The Foreign Secretary 's remit includes : relations with foreign countries , matters pertaining to the Commonwealth of Nations and the Overseas Territories in addition to the promotion of British interests abroad . The Foreign Secretary also has ministerial oversight for the Secret Intelligence Service ( MI6 ) and the Government Communications Headquarters ( GCHQ ) . The Foreign Secretary works out of the Foreign Office in Whitehall , and the post 's official residences are 1 Carlton Gardens in London and Chevening in Kent . Margaret Beckett , appointed in 2006 by Tony Blair , is the only woman to have held the post . The current Secretary of State for Foreign and Commonwealth Affairs is Dominic Raab , since his appointment by Prime Minister Boris Johnson , in July 2019 .",
    "/wiki/Portsmouth_(UK_Parliament_constituency)": "Portsmouth was a borough constituency based upon the borough of Portsmouth in Hampshire . It returned two members of parliament ( MPs ) to the House of Commons of the Parliament of the United Kingdom , elected by the bloc vote system .",
    "/wiki/Francis_Baring,_1st_Baron_Northbrook": "Francis Thornhill Baring , 1st Baron Northbrook , ( 20 April 1796 - 6 September 1866 ) , known as Sir Francis Baring , 3rd Baronet , from 1848 to 1866 , was a British Whig politician who served in the governments of Lord Melbourne and Lord John Russell .",
    "/wiki/Okehampton_(UK_Parliament_constituency)": "Okehampton was a parliamentary borough in Devon , which elected two Members of Parliament ( MPs ) to the House of Commons in 1301 and 1313 , then continuously from 1640 to 1832 , when the borough was abolished by the Great Reform Act .",
    "/wiki/George_Agar-Ellis,_1st_Baron_Dover": "George James Welbore Agar-Ellis , 1st Baron Dover PC FRS FSA ( 14 January 179710 July 1833 ) was a British politician and man of letters . He was briefly First Commissioner of Woods and Forests under Lord Grey between 1830 and 1831 ."
  }
}