{
  "List_of_United_Kingdom_Military_installations_used_during_Operation_Telic_0": {
    "/wiki/Baghdad_International_Airport": "Baghdad International Airport ( IATA : BGW , ICAO : ORBI ) , previously Saddam International Airport ( IATA : SDA , ICAO : ORBS ) ( Arabic : \u0645\u0637\u0627\u0631 \u0628\u063a\u062f\u0627\u062f \u0627\u0644\u062f\u0648\u0644\u064a , romanized : Ma\u1e6d\u0101r Ba\u0121d\u0101d ad-Dawaliyy ) , is Iraq 's largest international airport , located in a suburb about 16 km ( 9.9 mi ) west of downtown Baghdad in the Baghdad Governorate . It is the home base for Iraq 's national airline , Iraqi Airways .",
    "/wiki/Baghdad_Governorate": "Baghdad Governorate ( Mu\u1e25\u0101fa\u1e93\u00e4t Ba\u0121d\u0101d ) , also known as the Baghdad Province , is the capital governorate of Iraq . It includes the capital Baghdad as well as the surrounding metropolitan area . The governorate is the smallest of the 18 provinces of Iraq but the most populous .",
    "/wiki/Royal_Air_Force": "The Royal Air Force ( RAF ) is the United Kingdom 's aerial warfare force . It was formed towards the end of the First World War on 1 April 1918 . Following victory over the Central Powers in 1918 the RAF emerged as , at the time , the largest air force in the world . Since its formation , the RAF has taken a significant role in British military history . In particular , it played a large part in the Second World War where it fought its most famous campaign , the Battle of Britain . The RAF 's mission is to support the objectives of the British Ministry of Defence ( MoD ) , which are to provide the capabilities needed to ensure the security and defence of the United Kingdom and overseas territories , including against terrorism ; to support the Government 's foreign policy objectives particularly in promoting international peace and security . The RAF describes its mission statement as . [ to provide ] an agile , adaptable and capable Air Force that , person for person , is second to none , and that makes a decisive air power contribution in support of the UK Defence Mission . The mission statement is supported by the RAF 's definition of air power , which guides its strategy . Air power is defined as the ability to project power from the air and space to influence the behaviour of people or the course of events . Today the Royal Air Force maintains an operational fleet of various types of aircraft , described by the RAF as being leading-edge in terms of technology . This largely consists of fixed-wing aircraft , including : fighter and strike aircraft , airborne early warning and control aircraft , ISTAR and SIGINT aircraft , aerial refueling aircraft and strategic and tactical transport aircraft .",
    "/wiki/A\u00e9rospatiale_SA_330_Puma": "The A\u00e9rospatiale SA 330 Puma is a four-bladed , twin-engined medium transport/utility helicopter . The Puma was originally built by Sud Aviation of France , and continued to be made by A\u00e9rospatiale . It was also license-built in Romania as the IAR 330 ; two advanced , unlicensed derivatives , the Denel Rooivalk and Atlas Oryx , were made in South Africa . The Puma was a commercial success and was quickly developed into more advanced models such as the AS332 Super Puma and AS532 Cougar , manufactured by Eurocopter since the early 1990s . These descendants of the Puma remain in production in the 21st century . The Puma has seen combat in a range of theatres by a number of different operators ; significant operations include the Gulf War , the South African Border War , the Portuguese Colonial War , the Yugoslav Wars , the Lebanese Civil War , the Iraq War , and the Falklands War . The type also saw popular use in the civilian field and has been operated by a number of civil operators .",
    "/wiki/Basra_International_Airport": "Basrah International Airport ( ) is the second largest international airport in Iraq , and is located in the southern city of Basra .",
    "/wiki/Basra_Governorate": "Basra Governorate ( ) ( or Basra Province ) is a governorate in southern Iraq , bordering Kuwait to the south and Iran to the east . The capital is the city of Basra , located in the Basrah district . Other districts of Basra include Al-Qurna , Al-Zubair , Al-Midaina , Shatt Al-Arab , Abu Al-Khaseeb and Al-Faw located on the Persian Gulf .",
    "/wiki/Royal_Engineers": "The Corps of Royal Engineers , usually just called the Royal Engineers ( RE ) , and commonly known as the Sappers , is a corps of the British Army . It provides military engineering and other technical support to the British Armed Forces and is headed by the Chief Royal Engineer . The Regimental Headquarters and the Royal School of Military Engineering are in Chatham in Kent , England . The corps is divided into several regiments , barracked at various places in the United Kingdom and around the world .",
    "/wiki/Honourable_Artillery_Company": "The Honourable Artillery Company ( HAC ) was incorporated by royal charter in 1537 by King Henry VIII and is considered the second-oldest military corps in the world . Today , it is a registered charity whose purpose is to attend to the better defence of the realm . This purpose is primarily achieved by the support of the HAC Regiment and a detachment of City of London Special Constabulary . The word artillery in Honourable Artillery Company does not have the current meaning that is generally associated with it , but dates from a time when in the English language that word meant any projectile , including for example arrows shot from a bow . The equivalent form of words in modern English would be either Honourable Infantry Company or Honourable Military Company . In the 17th century , its members played a significant part in the formation of both the Royal Marines and the Grenadier Guards . More recently , regiments , battalions and batteries of the Company fought with distinction in both World Wars and its current Regiment , which forms part of the Army Reserve , is the oldest surviving regiment in the British Army , and the second most senior in the Army Reserve . Members of the Regiment and Specials are drawn , for the most part , from young men and women working in and around the City and Greater London . Those leaving the active units may become Veteran Members and remain within the fraternity of the Company .",
    "/wiki/12th_Regiment_Royal_Artillery": "12 Regiment Royal Artillery is a regiment of the Royal Artillery in the British Army . It currently serves in the air defence role , and is equipped with the Starstreak missile .",
    "/wiki/Royal_Logistic_Corps": "The Royal Logistic Corps ( RLC ) provides logistic support functions to the British Army . It is the largest Corps in the Army . The RLC flag is dark blue with the Corps Badge emblazoned on the centre . It has a Corps of Drums and a Marching Band .",
    "/wiki/Royal_Auxiliary_Air_Force": "The Royal Auxiliary Air Force ( RAuxAF ) , formerly the Auxiliary Air Force ( AAF ) , together with the Air Force Reserve , is a component of Her Majesty 's Reserve Air Forces ( Reserve Forces Act 1996 , Part 1 , Para 1 , ( 2 ) , ( c ) ) . It provides a primary reinforcement capability for the regular service , and consists of paid volunteers who give up some of their weekends , evenings and holidays to train at one of a number of squadrons around the United Kingdom . Its current mission is to provide trained personnel in support of the regular RAF . Queen Elizabeth II is Air Commodore-in-Chief of the RAuxAF .",
    "/wiki/Joint_Intelligence_Training_Group": "The Joint Intelligence Training Group ( JITG ) is the location of the headquarters of both the Defence College of Intelligence and the British Army Intelligence Corps . It is located at Chicksands , Bedfordshire , approximately north of London . The site was formerly known as the Defence Intelligence and Security Centre ( DISC ) since its move from Ashford in 1997 . The site was renamed as JITG on 1 January 2015 .",
    "/wiki/Camp_Doha": "Camp Doha was the main U.S. Army base in Kuwait , and played a pivotal role in the U.S. military presence in the Middle East since the 1991 Gulf War and in the 2003 invasion of Iraq . The complex is located on a small peninsula on Kuwait Bay , west of Kuwait City . It was initially a large industrial warehouse complex and was taken in hand by the U.S. Army for conversion to its current role in 1998 during Operation Desert Thunder .",
    "/wiki/Military_camp": "A military camp or bivouac is a semi-permanent facility for the lodging of an army . Camps are erected when a military force travels away from a major installation or fort during training or operations , and often have the form of large campsites . In the Roman era the military camp had highly stylized parameters and served an entire legion . Archaeological investigations have revealed many details of these Roman camps at sites such as Vindolanda ( England ) and Raedykes ( Scotland ) .",
    "/wiki/Maysan_Governorate": "Maysan Governorate ( ) is a governorate in southeastern Iraq , bordering Iran . Its administrative centre is the city of Amarah . Prior to 1976 it was known as Amara Province .",
    "/wiki/Contingency_Operating_Site_Garry_Owen": "Contingency Operating Site Garry Owen is a former United States Army base in the Maysan Governorate of Iraq . It was previously used by the Iraqi Air Force as Amarah Air Base , it was captured by Task Force Tarawa , United States Marine Corps on 8 March 2003 , during the 2003 invasion of Iraq .",
    "/wiki/Camp_Bucca": "Camp Bucca ( ) was a detention facility maintained by the United States military in the vicinity of Umm Qasr , Iraq . After being taken over by the U.S. military ( 800th Military Police Brigade ) in April 2003 , it was renamed after Ronald Bucca , a NYC Fire Marshal who died in the 11 September 2001 attacks . The site where Camp Bucca was built had earlier housed the tallest structure in Iraq , a 492-meter-high TV mast . After the Abu Ghraib prisoner abuse scandal , many detainees from Abu Ghraib were transferred to Bucca , where US authorities hoped to showcase a model detention facility . Housing a significant portion of the leadership of Al Qaeda in Iraq , Bucca became a training ground for Islamic extremism , and contributed to the emergence of the Islamic State of Iraq and the Levant . Camp Bucca interned later ISIS leader Abu Bakr al-Baghdadi , who enjoyed good relations with camp authorities while there . On 17 September 2009 , the US military announced that the base would be closed . In December 2010 , the U.S. military handed the base to the government of Iraq , who , on the same day , gave Kufan Group of Iraq a license to invest in the new Basra Gateway , to provide a hub for Iraq 's port .",
    "/wiki/Adjutant_General's_Corps": "The Adjutant General 's Corps is a corps in the British Army responsible for many of its general administrative services . As of 2002 , the AGC had a staff of 7,000 people .",
    "/wiki/Battle_of_the_CIMIC_House": "CIMIC-House was the British Army-led Multi-National Division ( South-East ) 's centre of Civil-Military Co-operation activities in the Iraqi town of Al Amarah . It was situated in the former residence of the Ba'ath Party governor of Maysan province . Determined to take the strongpoint , militia of the Shia Mahdi Army launched sustained attacks on the British positions at CIMIC House and the neighbouring Pink Palace , the seat of local government , beginning on 5 August 2004 . Al Amarah was garrisoned by fewer than 90 Soldiers from Y Company of the 1st Battalion , The Princess of Wales 's Royal Regiment ( including TA elements from 52nd Lowland Regiment ) and 60 from the Royal Welch Fusiliers . Both units were part of the 1st Mechanised Brigade on TELIC IV . The forces in Amarah were isolated some from the main Battle Group in Abu Naji , and dependent on convoys for resupply . During the siege , they faced an estimated 500 militia who launched a total of 86 assaults on the compound over the next 23 days , ranging from section strength up to a series of company-level assaults with 100-plus fighters . Incoming fire from the Mahdi Army included 595 mortar rounds from 230 different bombardments , direct hits with 57 rocket-propelled grenades and six 107 mm rockets plus 86 ground assaults on CIMIC ( Civil-Military Co-operation ) House itself . Y Company , 1 PWRR , based at CIMIC House , became the most attacked company in the entire Iraqi theatre of operations . In defending the compound , the British fired 33,000 rounds , and many Challenger 2 , Warrior , and High Explosive 81mm Mortar shells and managed to persuade the US Air Force to drop a precision laser guided 500 lb bomb onto enemy mortar positions in open ground right in the middle of a built up-city , defending their positions in trying to repulse the Mahdi Army in what has been described by Y Company 's Sergeant Dan Mill 's book Sniper One as the longest continuous action fought by the British Army since the Korean War 50 years ago . It was also the lengthiest defensive stand since World War II . Fighting reached a peak between the 5 and 25 August when the intensity was such that armoured convoys were unable to reach the base to resupply the British , although none of the waves of infantry attacks by the Mahdi Army got within 30 metres of the British lines .",
    "/wiki/16_Air_Assault_Brigade": "16 Air Assault Brigade ( 16 Air Asslt Bde ) is a formation of the British Army based in Colchester in the county of Essex . It is the Army 's rapid response airborne formation and is the only brigade in the British Army focused on delivering air assault operations . All personnel in the brigade wear the maroon beret , and those qualified as military parachutists wear the appropriate Parachutist Badge .",
    "/wiki/Argyll_and_Sutherland_Highlanders": "The Argyll and Sutherland Highlanders ( Princess Louise 's ) was a line infantry regiment of the British Army that existed from 1881 until amalgamation into the Royal Regiment of Scotland on 28 March 2006 . The regiment was created under the Childers Reforms in 1881 , as the Princess Louise 's ( Sutherland and Argyll Highlanders ) , by the amalgamation of the 91st ( Argyllshire Highlanders ) Regiment of Foot and 93rd ( Sutherland Highlanders ) Regiment of Foot , amended the following year to reverse the order of the Argyll and Sutherland sub-titles . The Argyll and Sutherland Highlanders was expanded to fifteen battalions during the First World War ( 1914-1918 ) and nine during the Second World War ( 1939-1945 ) . The 1st Battalion served in the 1st Commonwealth Division in the Korean War and gained a high public profile for its role in Aden during 1967 . As part of the restructuring of the British Army 's infantry in 2006 , the Argyll and Sutherland Highlanders were amalgamated with the Royal Scots , the King 's Own Scottish Borderers , the Royal Highland Fusiliers ( Princess Margaret 's Own Glasgow and Ayrshire Regiment ) , the Black Watch ( Royal Highland Regiment ) and the Highlanders ( Seaforth , Gordons and Camerons ) into the seven battalion strong Royal Regiment of Scotland . Following a further round of defence cuts announced in July 2012 the 5th Battalion was reduced to a single public duties company called Balaklava Company , 5th Battalion , Royal Regiment of Scotland , ( Argyll and Sutherland Highlanders ) .",
    "/wiki/Staffordshire_Regiment": "The Staffordshire Regiment ( Prince of Wales ' ) ( or simply Staffords for short ) was an infantry regiment of the British Army , part of the Prince of Wales ' Division . The regiment was formed in 1959 by the amalgamation of the South Staffordshire Regiment and the North Staffordshire Regiment ( Prince of Wales ' ) , and in 2007 was amalgamated with the Cheshire Regiment and the Worcestershire and Sherwood Foresters Regiment to become the 3rd Battalion , Mercian Regiment . In 2014 , the 3rd Battalion , Mercian Regiment was merged with the 1st and 2nd battalions , to create the 1st and 2nd battalions , Mercian Regiment ( Cheshires , Worcesters and Sherwood Foresters , and Staffords ) . The mascot of the Staffordshire Regiment was a Staffordshire Bull Terrier . Each successive mascot holding the name Watchman . The current serving mascot is known as Colour Sergeant Watchman V and he carries out his duties as part of the Staffordshire Regimental Association .",
    "/wiki/List_of_United_Kingdom_Military_installations_used_during_Operation_Telic": "The British Armed Forces had several temporary military bases in Iraq and Kuwait between 2003 and 2009 , most were controlled by Multi-National Division ( South-East ) . Depending on their size or utility , the facilities are called : Camp , Forward Operating Base ( FOB ) , Combat Outpost ( COP ) , Patrol Base ( PB ) , Outpost , Logistics Base ( Log Base ) , Fire Base ( FB ) .",
    "/wiki/Royal_Army_Medical_Corps": "The Royal Army Medical Corps ( RAMC ) is a specialist corps in the British Army which provides medical services to all Army personnel and their families , in war and in peace . The RAMC , the Royal Army Veterinary Corps , the Royal Army Dental Corps and Queen Alexandra 's Royal Army Nursing Corps form the Army Medical Services .",
    "/wiki/Amarah": "Amarah ( Al-'Am\u0101ra ) , also spelled Amara , is a Lur city in south-eastern Iraq , located on a low ridge next to the Tigris River waterway south of Baghdad about 50 km from the border with Iran . It lies at the northern tip of the marshlands between the Tigris and Euphrates . Predominantly Shia Muslim , it had a population of about 340,000 as of 2002 and about 420,000 as of 2005 . It is the administrative capital of the Maysan province . A major trading center for the surrounding agricultural area , it is known for woven goods and silverware . the staple economic goods produced in northern Amarah are winter cereals like wheat and barley , and animals like sheep , camels and horses .",
    "/wiki/Muthanna_Governorate": "Muthanna Governorate ( Al Muthann\u0101 ) or Al Muthanna Province , is a province in Iraq , named after the 7th-century Arab general al-Muthanna ibn Haritha . It is in the south of the country , bordering Saudi Arabia And Kuwait . Its capital is the city of Samawah . Before 1976 it was part of the Diwaniya Province , which included present-day Najaf Governorate and Al-Q\u0101disiyyah Governorate . Samawah is very close to the ancient Sumerian-Babylonian city of Uruk ( Aramaic : Erech ) , which is possibly the source of the name Iraq . After the decline of Babylon following the Seleucid founding of Seleucia , Uruk became the largest city in southern Babylonia , and its name ( Erech ) came to replace Babili ( Babylonia ) , as the city long outlived the former capital , surviving into the 7th century AD .",
    "/wiki/105th_Regiment_Royal_Artillery": "105th ( Scottish and Ulster ) Regiment , Royal Artillery is part of the Army Reserve and has sub-units throughout Scotland and Northern Ireland . It is currently equipped with the L118 Light Gun .",
    "/wiki/19th_Regiment_Royal_Artillery": "19th Regiment Royal Artillery - The Scottish Gunners ( until 2012 The Highland Gunners ) - is a Scottish regiment of the Royal Artillery in the British Army . It currently supports 12 Mechanised Brigade in the armoured field artillery role . The regiment has Fire Support Teams mounted in Warrior Mechanised Artillery Observation Vehicles equipped with MSTAR . The regiment 's three gun batteries are equipped with 24 AS-90 self-propelled guns",
    "/wiki/Royal_Regiment_of_Fusiliers": "The Royal Regiment of Fusiliers is an infantry regiment of the British Army , part of the Queen 's Division . Currently , the regiment has two battalions : the 1st battalion , part of the Regular Army , is an armoured infantry battalion based in Tidworth , Wiltshire , and the 5th battalion , part of the Army Reserve , is based across the northeast of England . There are also a number of independent Reservist Fusilier sub-units based across England . Whilst the Fusiliers traditionally recruited in specific counties , today , as an English regiment , the Fusiliers recruit nationally . The Royal Regiment of Fusiliers was largely unaffected by the infantry reforms that were announced in December 2004 , but under the Army 2020 reduction in the size of the Army , its second battalion was merged into the first in 2014 .",
    "/wiki/Safwan": "Safwan ( ) is a town in southeast Iraq on the border with Kuwait . It was the site of an Iraqi Air Force base .",
    "/wiki/Shaibah_Air_Base": "Shaibah Air Base is a former Iraqi Air Force airfield in the Basrah Governorate of Iraq .",
    "/wiki/Basra": "Basra ( Arabic : \u0627\u0644\u0628\u0635\u0631\u0629 al-Ba\u1e63rah ) is an Iraqi city located on the Shatt al-Arab . It had an estimated population of 2.5 million in 2012 . Basra is also Iraq 's main port , although it does not have deep water access , which is handled at the port of Umm Qasr . The city is one of the ports from which the fictional Sinbad the Sailor journeyed . It played an important role in early Islamic history and was built in 636 . Basra is consistently one of the hottest cities in Iraq , with summer temperatures regularly exceeding 50 \u00b0C ( 122 \u00b0F ) . In April 2017 , the Iraqi Parliament recognized Basra as Iraq 's economic capital .",
    "/wiki/Umm_Qasr": "Umm Qasr ( , also transliterated as Um-qasir , Um-qasser ) , is a port city in southern Iraq . It stands on the canalised Khawr az-Zubayr , part of the Khawr Abd Allah estuary which leads to the Persian Gulf . It is separated from the border of Kuwait by a small inlet . A bridge across the waterway linked the port with Kuwait prior to the 1991 Persian Gulf War ."
  }
}