{
  "List_of_alumni_and_faculty_of_the_Royal_Melbourne_Institute_of_Technology_1": {
    "/wiki/Tate_Adams": "Tate Adams AM ( 22 January 1922 - 8 April 2018 ) was an Australian artist , based in Townsville , who was named a Member of the Order of Australia in 2009 for service to publishing and to the arts , particularly through contributions to the development of printmaking in Australia . In 2010 he was made the Inaugural Honorary Fellow of the Print Council of Australia .",
    "/wiki/Order_of_Australia": "The Order of Australia is an order of chivalry established on 14 February 1975 by Elizabeth II , Queen of Australia , to recognise Australian citizens and other persons for achievement or meritorious service . Before the establishment of the order , Australian citizens received British honours . The Queen of Australia is sovereign head of the order , while the Governor-General of Australia is the principal companion/dame/knight ( as relevant at the time ) and chancellor of the order . The governor-general 's official secretary , currently Paul Singer , is secretary of the order .",
    "/wiki/Peter_Bennetts": "Peter Bruce Bennetts ( born 25 March 1967 ) is an Australian visual artist specialising in architectural photography .",
    "/wiki/Murray_Griffin": "Vaughan Murray Griffin ( 1903-1992 ) was an Australian print maker and painter .",
    "/wiki/Grahame_King": "Grahame King ( 23 February 1915 - 11 October 2008 ) was a master Australian printmaker , who has been called the patron saint of contemporary Australian printmaking . He was responsible for the revival of print making in Australia in the 1960s . He helped set up the Print Council of Australia , of which he was the first Honorary Secretary and was later President . He taught printmaking at The Royal Melbourne Institute of Technology ( RMIT ) from 1966 to 1988 . In 1991 , he was awarded an Order of Australia for his services to education . As well as teaching , King produced his own art work , concentrating on lithographs and monotypes . He was also a skilled photographer and used his photography both in his teaching and in his practice .",
    "/wiki/Charles_Page_(photographer)": "Charles Page ( born 1 September 1946 in Melbourne ) is a Brisbane-based documentary photographer , and lecturer at the Queensland College of Art . He studied at Griffith University where he got a PhD .",
    "/wiki/Graham_Pizzey": "Graham Martin Pizzey AM ( 4 July 1930 - 12 November 2001 ) was a noted Australian author , photographer and ornithologist . He was born and grew up in Melbourne and was educated at Geelong Grammar School . After leaving school he worked in his family 's leather business , while studying part-time and publishing articles and photographs on natural history . In 1960 he resigned from the family business to become a full-time freelance writer and photographer . Pizzey joined the Royal Australasian Ornithologists Union ( RAOU ) in 1948 and served on its Council 1969-1975 and its Records Appraisal Committee 1976-1979 . He may be best known as the author of one of the most popular field guides for Australian birds . In 1986 he was awarded the Australian Natural History Medallion . In 2000 he was awarded an honorary doctorate in applied science from RMIT University for contributions to natural history . He was a Member of the Order of Australia . In 2005 he was posthumously awarded the John Hobbs Medal . Pizzey wrote numerous articles on natural history for newspapers and magazines . Some of his books are :",
    "/wiki/Udo_Sellbach": "Udo Sellbach OAM ( 1927-2006 ) was a German-Australian visual artist and educator whose work focused primarily around his printmaking practice .",
    "/wiki/Heather_Shimmen": "Heather Shimmen ( born 8 November 1957 ) is a contemporary Australian visual artist whose paintings , prints and collages often use sinister historical imagery from 16th to 19th century .",
    "/wiki/Christopher_Stewart_(artist)": "Christopher Stewart ( born 1966 in London ) is a visual artist and educator and is Programme Director of Photography at London College of Communication , University of the Arts London .",
    "/wiki/University_of_Technology,_Sydney": "The University of Technology Sydney ( UTS ) is a public research university located in Sydney , Australia . Although its origins are said to trace back to the 1870s , the university was founded in its current form in 1988 . As of 2018 , UTS enrolls 45,930 students , including 33,070 undergraduate and 12,860 postgraduate students through its 9 faculties and schools . The university is regarded as one of the world 's leading young universities ( under 50 years old ) , ranked 1st in Australia and 10th in the world by the 2019 QS World University Rankings . UTS is a member of the Australian Technology Network , the Association of Southeast Asian Institutions of Higher Learning and the Association of Commonwealth Universities .",
    "/wiki/Harrison_Tsui": "Harrison Tsui ( born 1995 ) is a Hong Kong fashion photographer . He is best known for his backstage photography and street style photography work at Ready-to-wear Fashion Weeks ."
  },
  "National_Register_of_Historic_Places_listings_in_St._Clair_County,_Illinois_0": {
    "/wiki/Belleville_Historic_District": "The Belleville Historic District is a historic district in Belleville , Illinois . The primarily residential district consists of an irregularly shaped area on the east side of Belleville . 70 buildings are included in the district , all of which are contributing buildings to its historic character . The homes in the district represent Belleville 's residential development from 1830 to 1900 . Many of the houses were designed in a vernacular cottage style popular among the city 's German immigrants ; while common in Belleville and other Metro-East cities , the style is little seen elsewhere in the state . Formal architectural styles such as Greek Revival and Italianate are also prevalent in the district . The district was added to the National Register of Historic Places on November 7 , 1976 .",
    "/wiki/Belleville,_Illinois": "Belleville ( French : Belle ville , meaning Beautiful city ) is a city in St. Clair County , Illinois , coterminous with the now defunct Belleville Township . The population was 44,478 according to the Census Bureau 's 2010 data , making it the largest city in southern Illinois . It is the eighth-most populated city in the state outside the Chicago metropolitan area , and the most-populated city in the state south of Springfield . It is the county seat of St. Clair County , and the seat of the Roman Catholic Diocese of Belleville and the National Shrine of Our Lady of the Snows . Belleville is the most-populated city in the Metro-East region of the St. Louis Metropolitan Area and in Southern Illinois . Due to its proximity to Scott Air Force Base , the population receives a boost from military and federal civilian personnel , defense contractors , and military retirees . [ citation needed ]",
    "/wiki/Berger-Kiel_House": "The Berger-Kiel House is a log house located at 931 N. 6th St. in Mascoutah , Illinois . The house was built circa 1863-64 for German immigrant Jacob Berger and his family . The log house was built in a traditional manner using dovetail notching and has a hall and parlor layout . A wooden frame addition was placed on the house circa 1868-72 . Log houses such as this one were popular among low-income families as an inexpensive house type in wooded rural areas . The Berger-Kiel House is one of the few log houses remaining in the Mascoutah area . While it was originally located at 8910 Illinois Route 4 , it was moved to its current site during the construction of MidAmerica St. Louis Airport . The house was added to the National Register of Historic Places on August 12 , 1999 .",
    "/wiki/Mascoutah,_Illinois": "Mascoutah is a small city in St. Clair County , Illinois , United States , named for the Mascoutens , a tribe of the Illinois Indians . The population was 7,483 at the 2010 census . The population was 8,029 at the 2018 census .",
    "/wiki/Blair_Historic_District": "The Blair Historic District is a historic district located in downtown Belleville , Illinois . The district encompasses a mainly commercial area on the west side of the downtown area ; it includes 78 buildings , 57 of which are contributing buildings . The entire district is located within the original plat of the city , which was established following a land donation from George Blair in 1813 . The oldest buildings in the district date to circa 1850 ; development continued from then on into the early twentieth century . Most buildings in the district are two-part brick commercial blocks designed in popular contemporary styles such as the Italianate , Second Empire , Classical Revival , and Romanesque Revival . The Reichert Business Block , a three-story structure at 200 West Main Street , has a particularly significant Second Empire design ; the building features a mansard roof with dormers and a decorative cornice and has been described as the district 's most elaborate building . Two Classical Revival buildings , the 1911 United States Post Office Building and the 1924 Turner Hall , also have a commanding presence in the district ; the post office was designed by Supervising Architect James Knox Taylor . The district was added to the National Register of Historic Places on September 17 , 2014 .",
    "/wiki/Broadview_Hotel_(East_St._Louis,_Illinois)": "The Broadview Hotel is a historic hotel building located at 415 E. Broadway in East St. Louis , Illinois . The Classical Revival hotel was constructed in 1927 . From its opening until the 1950s , the hotel was one of the finest in East St. Louis . It was added to the National Register of Historic Places in 2013 .",
    "/wiki/East_St._Louis,_Illinois": "East St. Louis is a city in St. Clair County , Illinois , United States within Greater St. Louis . It is located directly across the Mississippi River from Downtown St. Louis and the Gateway Arch National Park . East St. Louis is in what is defined as the Metro-East region of Southern Illinois . Once a bustling industrial center , like many cities in the Rust Belt , East St. Louis has been severely affected by loss of jobs due to industrial restructuring during the second half of the 20th century . In 1950 , East St. Louis was the fourth-largest city in Illinois when its population peaked at 82,366 . As of the 2010 census , the city had a population of 27,006 , less than one-third of the 1950 census . A recent addition to the city 's waterfront is the Gateway Geyser . Located on the grounds of Malcolm W. Martin Memorial Park , the fountain is the second-tallest in the world . Designed to complement the Gateway Arch across the river in St. Louis , it shoots water to a height of 630 feet ( 190 m ) , the same height as the Arch .",
    "/wiki/Cahokia": "The Cahokia Mounds State Historic Site ( 11 MS 2 ) is the site of a pre-Columbian Native American city ( which existed circa 1050-1350 CE ) directly across the Mississippi River from modern St. Louis , Missouri . This historic park lies in western Illinois between East St. Louis and Collinsville . The park covers , or about , and contains about 80 mounds , but the ancient city was much larger . At its apex around 1100 CE , Cahokia covered about and included about 120 manmade earthen mounds in a wide range of sizes , shapes , and functions . In population , it may have briefly exceeded contemporaneous London . Cahokia was the largest and most influential urban settlement of the Mississippian culture , which developed advanced societies across much of what is now the central and southeastern United States , beginning more than 1,000 years before European contact . Today , Cahokia Mounds is considered the largest and most complex archaeological site north of the great pre-Columbian cities in Mexico . Cahokia Mounds is a National Historic Landmark and a designated site for state protection . It is also one of the 24 UNESCO World Heritage Sites within the United States . The largest prehistoric earthen construction in the Americas north of Mexico , the site is open to the public and administered by the Illinois Historic Preservation Division and supported by the Cahokia Mounds Museum Society . In celebration of the 2018 Illinois Bicentennial , the Cahokia Mounds were selected as one of the Illinois 200 Great Places by the American Institute of Architects Illinois component ( AIA Illinois ) and was recognized by USA Today Travel magazine , as one of AIA Illinois 's selections for Illinois 25 Must See Places .",
    "/wiki/Collinsville,_Illinois": "Collinsville is a city located mainly in Madison County , and partially in St. Clair County , both in Illinois . As of the 2010 census , the city had a population of 25,579 , an increase from 24,707 in 2000 . Collinsville is approximately 12 miles from St. Louis , Missouri and is considered part of that city 's Metro-East area . It is the site of the Brooks Catsup Bottle Water Tower , the world 's largest ketchup bottle , and is the world 's horseradish capital . Cahokia Mounds State Historic Site , a National Historic Landmark and UNESCO World Heritage Site , extends beyond the boundaries of the city toward the west . This prehistoric urban complex is estimated to have had a population of thousands at its peak , long before European exploration in the area . Monks Mound , the largest man-made earthwork in North America , is part of this complex .",
    "/wiki/Church_of_the_Holy_Family_(Cahokia,_Illinois)": "The Church of the Holy Family ( French : Eglise de la Sainte-Famille ) is a Roman Catholic church located at 116 Church Street in the St. Clair County , Illinois city of Cahokia . Built beginning in 1786 , it is a remarkably unaltered example of the French colonial construction style known as poteaux-sur-solle ( post-on-sill ) , and one of the few such buildings surviving in North America . It was declared a National Historic Landmark and added to the National Register of Historic Places in 1970 . The occupying congregation is the oldest continuously active Catholic Parish in the United States , having been founded in 1699 by Canadian missionaries , and the oldest church west of the Allegheny Mountains . At the invitation of Bishop Edward Braxton , the Institute of Christ the King Sovereign Priest continues to offer Mass in this historic church in the 1962 form . Visitors are also welcome for guided tours in the summer . In celebration of the 2018 Illinois Bicentennial , Holy Family Church was selected as one of the Illinois 200 Great Places by the American Institute of Architects Illinois component ( AIA Illinois ) .",
    "/wiki/Cahokia,_Illinois": "Cahokia is a village in St. Clair County , Illinois , United States . It is located east of the Mississippi River in the Greater St. Louis metropolitan area . As of the 2010 census , 15,241 people lived in the village , a decline from 16,391 in 2000 . The name refers to one of the clans of the historic Illini confederacy , who met early French explorers to the region . Early European settlers named the nearby ( and long-abandoned ) Cahokia Mounds in present-day Madison County after the Illini clan . But the UNESCO World Heritage Site and State Historic Park was developed by the prehistoric Mississippian culture , active here from 900AD to 1500AD . They created an extensive urban complex , the largest of the farflung Mississippian culture territory through the Mississippi and Ohio river valleys . French Canadian colonists founded Cahokia village in 1696 as a Catholic mission . The historic Church of the Holy Family is the oldest continually active Catholic parish in the United States , as well as the oldest church west of the Allegheny Mountains . Other significant colonial and Federal-period buildings listed on the National Register of Historic Places include the Cahokia Courthouse ( c 1740 , in the French Colonial style ) ; and the Jarrot Mansion ( c 1810 ) .",
    "/wiki/St._Louis_Downtown_Airport": "St. Louis Downtown Airport is a public-use airport located in Greater St. Louis , one mile ( 2 km ) east of the central business district of Cahokia , in St. Clair County , Illinois , United States . It is owned by the Bi-State Development Agency . The airport is located less than 3 miles from the Gateway Arch riverfront in St. Louis and is used by many business aircraft visiting the St. Louis region . Airport services include two full-service 24-hour fixed-base operators , an instrument landing system , an FAA air traffic control tower , and its own dedicated Index B aircraft rescue and firefighting ( ARFF ) service . It is utilized mainly by Saint Louis University 's Parks College of Engineering , Aviation and Technology for training purposes , as well as the St. Louis Cardinals for charter flights to away games . The St. Louis metropolitan area is also served by St. Louis Lambert International Airport in St. Louis County , Missouri ; MidAmerica St. Louis Airport in Belleville , Illinois ; St. Louis Regional Airport in Alton , Illinois ; and Spirit of St. Louis Airport in Chesterfield , Missouri .",
    "/wiki/George_Draser_Jr._Houses": "The George Draser Jr . Houses are a pair of neighboring houses located at 48 and 52 W. Main St. in Mascoutah , Illinois . The houses are both Queen Anne structures designed and built by local architect George Draser Jr . The house at 48 W. Main St. is a one-story cottage known locally as the Doll House due to its size . The house 's design features gables with patterned shingles and decorative spindlework at the porch frieze and the peak of the gables . The house at 52 W. Main St. is a full-size house which Draser built for himself and his family . The house features a tower topped by a finial at its northeast corner , a large gable on its rear facade , and a hipped roof with cross gables and a small dormer . The entrance to the house is located within a porch supported by Ionic columns ; a pediment tops the porch above the doorway . The houses were added to the National Register of Historic Places on May 11 , 2000 .",
    "/wiki/Downtown_East_St._Louis_Historic_District": "The Downtown East St. Louis Historic District is a historic commercial district in downtown East St. Louis , Illinois . The district includes 35 buildings , 25 of which are contributing buildings , along Collinsville Avenue , Missouri Avenue , and St. Louis Avenue ; all but one of the buildings was historically used for commercial purposes . While development in the area dates back to the late 19th century , the first of the extant buildings in the district were built around 1900 after a tornado devastated the area in 1896 . By 1910 , the area had become a prosperous commercial district with stores , offices , and entertainment venues ; surviving buildings from this period include the Murphy Building and the Cahokia Building . Another large building boom took place in the 1920s , adding buildings such as the Spivey Building , the city 's only skyscraper ; the Union Trust Bank Company Building , the largest bank in the city ; the Grossman Building ; and the Majestic Theatre . The new buildings both coincided with a population and economic expansion in the city and allowed it to forge an architectural identity distinct from neighboring St. Louis . Beginning in the 1960s , East St. Louis and its downtown entered a period of dramatic decline . Several major businesses left the city for other suburbs , urban decay and blight struck the city , resulting in the abandonment or demolition of several major commercial buildings . In addition , the rise of the automobile and the construction of new expressways took foot traffic away from the downtown area , furthering the decline of its businesses . The city 's population is now one-third of its peak in 1950 , and many of the district 's buildings are abandoned and at risk of demolition or major decay . The district was added to the National Register of Historic Places on September 17 , 2014 .",
    "/wiki/Eads_Bridge": "Eads Bridge is a combined road and railway bridge over the Mississippi River connecting the cities of St. Louis , Missouri and East St. Louis , Illinois . It is located on the St. Louis riverfront between Laclede 's Landing , to the north , and the grounds of the Gateway Arch , to the south . The bridge is named for its designer and builder , James Buchanan Eads . Opened in 1874 , Eads Bridge was the first bridge erected across the Mississippi south of the Missouri River . Earlier bridges were located north of the Missouri , where the Mississippi is smaller . None of the earlier bridges survive ; Eads Bridge is the oldest bridge on the river . At 520 feet between the piers , the center arch of Eads Bridge was the longest rigid span ever built at the time of its construction ( only a few suspension bridges had longer spans ) . It remained the longest rigid span until the completion of the 525 foot ( 160 meter ) arch of Gustave Eiffel 's Maria Pia Bridge , in Porto , Portugal , in 1877 . Extending more than 100 ft below water level , the foundations for Eads Bridge were the deepest underwater constructions of their time . They were installed using pneumatic caissons , a pioneering application of caisson technology in the United States and , at the time , by far the largest caissons ever built . The Eads Bridge caissons were the model for subsequent projects including the Brooklyn Bridge which was constructed just a few years later . During construction , the partially-completed arches were suspended from above , on cables rigged to temporary wooden towers which were erected on top of the piers .",
    "/wiki/Emerald_Mound_and_Village_Site": "The Emerald Mound and Village Site ( Emerald Site ) is a pre-Columbian archaeological site located northwest of the junction of Emerald Mound Grange and Midgley Neiss Roads in St. Clair County , Illinois . The site includes five mounds , two of which have been destroyed by modern activity , and the remains of a village . Middle Mississippian peoples inhabited the village , which was a satellite village of Cahokia . The largest of the mounds is a two-tiered structure that stands high ; its square base is across , while its upper tier is across . At the time of its discovery , the mound was the second-largest known in Illinois after Monks Mound at Cahokia . The site was added to the National Register of Historic Places on October 26 , 1971 .",
    "/wiki/Lebanon,_Illinois": "Lebanon is a city in St. Clair County , Illinois , United States . The population was 4,418 at the 2010 census . Like many other places in Little Egypt or Southern Illinois , Lebanon was named after the Eastern Mediterranean country of the same name . It is a part of the Metro-East region of the Greater St. Louis metropolitan area . Lebanon is home to McKendree University , the oldest college in Illinois .",
    "/wiki/Hotel_Belleville": "Hotel Belleville is a historic hotel building at 16 S. Illinois Street in Belleville , Illinois . The hotel was built in 1930-31 to replace the city 's previous hotel , the Belleville House ; like its predecessor , the hotel marketed itself as the most luxurious and modern hotel in Belleville . Architects Manske & Bartling designed the building in the Art Deco style ; their design included first-floor window bays with terra cotta blocks , brick pilasters above the entrance , ornamental brickwork on the upper floors , and a parapet . The hotel 's amenities included a restaurant and cocktail lounge , banquet and event space , office space for community organizations , and storefronts for local businesses . In the decades after it opened , the building served both as a center of Belleville 's social life and a home for regional conventions . The hotel operated until 1961 , when it was converted to an assisted living facility for the elderly . The building was added to the National Register of Historic Places on June 20 , 2018 .",
    "/wiki/Nicholas_Jarrot_Mansion": "The Nicholas Jarrot Mansion is a historic house at 124 East First Street in Cahokia , Illinois and is operated as an inactive historic site by the Illinois Historic Preservation Agency ( IHPA ) . It is a State Historic Site , is listed on the National Register of Historic Places , and became a National Historic Landmark in 2001 . Built in 1807-1810 for the son of French colonists , it is an extremely rare example of Federal architecture in the upper Mississippi River valley .",
    "/wiki/Knobeloch\u2013Seibert_Farm": "The Knobeloch-Seibert Farm is a historic farm located on the east side of Schneider Road east of Belleville , Illinois . The farm was established circa 1832 by John W. Knobeloch and his family ; after passing through several generations of the Knobeloch family , it was inherited by Henry Seibert . Both the Knobeloch and Seibert families immigrated to the area from Germany as part of a wave of German immigration to Illinois ' American Bottom region in the early 1800s . The first building on the farm was a farmhouse built in 1832 , which no longer stands ; the oldest surviving building on the farm is the 1844 barn . The second farmhouse , constructed in 1861 , features a segmented arched brick cellar , a characteristic feature of German vernacular architecture . The farm was added to the National Register of Historic Places on May 9 , 1983 .",
    "/wiki/Illinois_Route_158": "Illinois Route 158 is an east-west state road in southwestern Illinois . Its western terminus is at Illinois Route 3 in Columbia and its eastern terminus is at U.S. Route 50 , in O'Fallon . This is a distance of .",
    "/wiki/Illinois_Route_177": "Illinois Route 177 is an east-west state road in southern Illinois . It runs from Illinois Route 13 in Belleville to U.S. Route 51 in Irvington . This is a distance of .",
    "/wiki/Gustave_Koerner_House": "The Gustave Koerner House is a historic house located at 200 Abend Street in Belleville , Illinois . The Greek Revival house was built in 1848-49 and rebuilt in 1854-55 . Gustave Koerner , a German immigrant and prominent Illinois politician , lived in the house from its construction to his death in 1896 . Koerner served as Lieutenant Governor of Illinois , sat on the Illinois Supreme Court , and was a member of the Illinois House of Representatives . He was also a political ally of Abraham Lincoln during his senatorial and presidential campaigns and convinced many German-American voters to support Lincoln . During the Civil War , Koerner served as United States Minister to Spain and thereafter mounted a failed campaign for Governor of Illinois . The house was added to the National Register of Historic Places on September 17 , 2004 .",
    "/wiki/Lebanon_Historic_District_(Lebanon,_Illinois)": "The Lebanon Historic District is a historic district composed of the areas of Lebanon , Illinois , developed prior to 1900 . The district includes five distinct areas of Lebanon : the city 's main commercial district , the neighborhood around McKendree University , two residential districts , and an archaeological site at the city limits . Development in Lebanon began in the 1820s , and McKendree University was founded in 1828 . The oldest building from this period , the Mermaid House Hotel , is a Federal structure dating to 1830 . The city received an influx of German immigrants from the 1830s onward , which affected the city 's development . In the 1850s and 1860s , a railroad opened in the city and several local industries developed ; however , the city retained the character of a small college town and never developed into an industrial or trade center . The historic district was added to the National Register of Historic Places on October 4 , 1978 .",
    "/wiki/Lunsford-Pulcher_Archeological_Site": "The Lunsford-Pulcher Archeological Site is a prehistoric archaeological site in rural Monroe and St. Clair counties in Illinois . The site was the location of a Middle Mississippian village which was probably a satellite community of Cahokia . Several pyramidal burial mounds are included in the site . Archaeological excavations at the site have also discovered the remains of houses and garden beds , making the site one of the few Mississippian villages at which garden beds have been found . The site has been known to European settlers since early settlement of the area in the late 18th century ; despite being used for farmland , the site remains in good condition . The site was added to the National Register of Historic Places on July 23 , 1973 .",
    "/wiki/Columbia,_Illinois": "Columbia is a city mainly in Monroe County with a small portion in St. Clair County in the U.S. state of Illinois , about south of St. Louis , Missouri . The population was 9,707 at the 2010 census .",
    "/wiki/Majestic_Theatre_(East_St._Louis,_Illinois)": "The Majestic Theatre is a historic movie theater located at 240-246 Collinsville Ave. in East St. Louis , Illinois . Built in 1928 , the theater replaced a 1907 theater which had burned down . The Spanish Gothic theater was designed by the Boller Brothers , who were nationally prominent theater architects . Multicolored tiles decorate the building 's front facade , forming patterned mosaics . The front facade also features piers with decorative peaks and tall arched windows . The theater attracted numerous celebrities to its grand opening , and it represented several firsts among East St. Louis cinemas ; it was the first in the city with a modern air conditioning system and the first in Southern Illinois to show talkies . The theater closed in the 1960s . The theater was added to the National Register of Historic Places on May 9 , 1985 .",
    "/wiki/Marissa_Academy": "The Marissa Academy is a historic school building located at 610 S. Main St. in Marissa , Illinois . The building was built in 1891 for the Marissa Academy , a college preparatory academy which had graduated its first class two years prior . The private school was the first college preparatory school in the area . Graduating students at the academy could enroll at Monmouth College without taking a qualifying examination under a special arrangement . In 1900 , the academy closed after a public high school opened in Marissa . The building has since been used as a meeting hall for community groups and as additional space for Marissa 's elementary school . It is now the headquarters of the Marissa Historical and Genealogical Society . The building was added to the National Register of Historic Places on October 28 , 1994 . There was a devastating fire on January 15 , 2015 which destroyed most of the building and damaged much of the historical artifacts inside . The historical and genealogical society have set up shop in the old dollar store in Marissa . As yet they do n't have all salvaged items ( books , files ) back from Smoke Services , but all of the newspaper microfilm and a new reader printer on which to view it are at the new facility .",
    "/wiki/Marissa,_Illinois": "Marissa is a village in St. Clair County , Illinois , United States . The population was 1,979 at the 2010 census .",
    "/wiki/Pierre_Martin_House": "The Pierre Martin House ( or Martin-Boismenue House ) is a single-family French Colonial House and historic site in East Carondelet , Illinois about 1.5 miles ( 2.4 km ) East of the Mississippi River . The house , built circa 1790 , is owned by the Illinois Historic Preservation Agency . and located at the intersection of First Street and Old Route 3 in North Dupo .",
    "/wiki/North_Dupo,_Illinois": "North Dupo is an unincorporated community in Sugarloaf Township , St. Clair County , Illinois , United States . North Dupo is located along Illinois Route 3 south of Cahokia and north of Dupo , bordering both villages . The Pierre Martin House , which is listed on the National Register of Historic Places , is located in North Dupo ."
  },
  "National_Register_of_Historic_Places_listings_in_Redwood_County,_Minnesota_0": {
    "/wiki/Lamberton,_Minnesota": "Lamberton is a town in Redwood County , Minnesota , United States . The population was 824 at the 2010 census .",
    "/wiki/Queen_Anne_style_architecture_in_the_United_States": "In the United States , Queen Anne-style architecture was popular from roughly 1880 to 1910 . Queen Anne was one of a number of popular architectural styles to emerge during the Victorian era . Within the Victorian era timeline , Queen Anne style followed the Eastlake style and preceded the Richardsonian Romanesque and Shingle styles . The style bears almost no relationship to the Queen Anne style architecture , a toned-down version of English Baroque mostly used for gentry houses , produced in the actual reign of Queen Anne from 1702 to 1714 . It describes a wide range of picturesque buildings with free Renaissance ( non-Gothic Revival ) details rather than of a specific formulaic style in its own right . Queen Anne , as an alternative both to the French-derived Second Empire and the less domestic Beaux-Arts architecture , is broadly applied to architecture , furniture and decorative arts of the period 1880 to 1910 ; some Queen Anne architectural elements , such as the wraparound front porch , continued to be found into the 1920s .",
    "/wiki/Redwood_Falls,_Minnesota": "Redwood Falls is a city in Redwood County , located along the Redwood River near its confluence with the Minnesota River , in the U.S. state of Minnesota . The population was 5,254 at the 2010 census . It is the county seat .",
    "/wiki/Richardsonian_Romanesque": "Richardsonian Romanesque is a style of Romanesque Revival architecture named after architect Henry Hobson Richardson ( 1838-1886 ) . The revival style incorporates 11th and 12th century southern French , Spanish and Italian Romanesque characteristics . Richardson first used elements of the style in his Richardson Olmsted Complex in Buffalo , New York , designed in 1870 . Multiple architects followed in this style in the late 1800s ; Richardsonian Romanesque later influenced modern styles of architecture as well .",
    "/wiki/Morton,_Minnesota": "Morton is a city in Renville County , Minnesota , United States . This city is ninety-five miles southwest of Minneapolis . It is the administrative headquarters of the Lower Sioux Indian Reservation . The population was 411 at the 2010 census .",
    "/wiki/Lower_Sioux_Indian_Reservation": "The Lower Sioux Indian Reservation , ( Dakota : Cansa'yapi ; Lakota : \u010cha\u014b\u0161\u00e1yapi ) also known as the Mdewakanton Tribal Reservation , is an Indian reservation located along the southern bank of the Minnesota River in Paxton and Sherman townships in Redwood County , Minnesota . Its administrative headquarters is two miles south of Morton . The reservation is located southeast of Redwood Falls , the county seat . The area was established as part of a reservation for the Mdewakanton and Wahpekute bands of the Lower Sioux under the Treaty of Traverse des Sioux in 1851 with the federal government . It originally extended about 70 miles ( 110 km ) along the Minnesota River and was 20 miles ( 30 km ) wide . It was greatly reduced following the Dakota War of 1862 and various other actions . As of the 2000 census , this lower reservation had a population of 335 , and a land area of 2.705 sq mi ( 7.006 km\u00b2 ) .",
    "/wiki/Cultural_assimilation_of_Native_Americans": "The cultural assimilation of Native Americans was an assimilation effort by the United States to transform Native American culture to European-American culture between the years of 1790 and 1920 . George Washington and Henry Knox were first to propose , in an American context , the cultural transformation of Native Americans . They formulated a policy to encourage the civilizing process . With increased waves of immigration from Europe , there was growing public support for education to encourage a standard set of cultural values and practices to be held in common by the majority of citizens . Education was viewed as the primary method in the acculturation process for minorities . Americanization policies were based on the idea that when indigenous people learned United States ( American ) customs and values , they would be able to merge tribal traditions with American culture and peacefully join the majority of the society . After the end of the Indian Wars , in the late 19th and early 20th centuries , the government outlawed the practice of traditional religious ceremonies . It established Native American boarding schools which children were required to attend . In these schools they were forced to speak English , study standard subjects , attend church , and leave tribal traditions behind . The Dawes Act of 1887 , which allotted tribal lands in severalty to individuals , was seen as a way to create individual homesteads for Native Americans . Land allotments were made in exchange for Native Americans becoming US citizens and giving up some forms of tribal self-government and institutions . It resulted in the transfer of an estimated total of 93 million acres ( 380,000 km2 ) from Native American control .",
    "/wiki/Lucan,_Minnesota": "Lucan is a city in Redwood County , Minnesota , United States . The population was 191 at the 2010 census .",
    "/wiki/Italianate_architecture": "The Italianate style of architecture was a distinct 19th-century phase in the history of Classical architecture . In the Italianate style , the models and architectural vocabulary of 16th-century Italian Renaissance architecture , which had served as inspiration for both Palladianism and Neoclassicism , were synthesised with picturesque aesthetics . The style of architecture that was thus created , though also characterised as Neo-Renaissance , was essentially of its own time . The backward look transforms its object , Siegfried Giedion wrote of historicist architectural styles ; every spectator at every period - at every moment , indeed - inevitably transforms the past according to his own nature . The Italianate style was first developed in Britain in about 1802 by John Nash , with the construction of Cronkhill in Shropshire . This small country house is generally accepted to be the first Italianate villa in England , from which is derived the Italianate architecture of the late Regency and early Victorian eras . The Italianate style was further developed and popularised by the architect Sir Charles Barry in the 1830s . Barry 's Italianate style ( occasionally termed Barryesque ) drew heavily for its motifs on the buildings of the Italian Renaissance , though sometimes at odds with Nash 's semi-rustic Italianate villas . The style was not confined to England and was employed in varying forms , long after its decline in popularity in Britain , throughout Northern Europe and the British Empire . From the late 1840s to 1890 it achieved huge popularity in the United States , where it was promoted by the architect Alexander Jackson Davis .",
    "/wiki/Lumber_yard": "A lumber yard is a location where lumber and wood-related products used in construction and/or home improvement projects are processed or stored . Some lumber yards offer retail sales to consumers , and some of these may also provide services such as the use of planers , saws and other large machines . Generally , timber yards are locations where raw logs and other wood or forest products are processed and stored . The terms lumber yard and timber yard are sometimes used interchangeably , and timber yards may include additional aspects that lumber yards encompass , and vice versa .",
    "/wiki/City_Blacksmith_Shop": "The City Blacksmith Shop or Hanzlik Blacksmith Shop in Lamberton in the U.S. state of Minnesota is located at Douglas Street and 2nd Avenue . The building was built by George Nigg Senior and Paul Schaffran in 1897 . They smithed until they sold the shop to Anton Hanzlik in 1920 . Many of the trade tools are still in the building , however some have been modernized with electricity .",
    "/wiki/Blacksmith": "A blacksmith is a metalsmith who creates objects from wrought iron or steel by forging the metal , using tools to hammer , bend , and cut ( cf . tinsmith ) . Blacksmiths produce objects such as gates , grilles , railings , light fixtures , furniture , sculpture , tools , agricultural implements , decorative and religious items , cooking utensils and weapons . The place where a blacksmith works is called variously a smithy , a forge or a blacksmith 's shop . While there are many people who work with metal such as farriers , wheelwrights , and armorers , the blacksmith had a general knowledge of how to make and repair many things , from the most complex of weapons and armor to simple things like nails or lengths of chain .",
    "/wiki/Clements,_Minnesota": "Clements is a city in Redwood County , Minnesota , United States . The population was 153 at the 2010 census .",
    "/wiki/Milroy_State_Bank_Building": "The Milroy State Bank Building is located in the small town of Milroy , Minnesota at the intersection of Superior Street and Euclid Avenue ( Minnesota State Highway 68 ) . The building was a former community bank built in 1902 by a group of businessmen from Springfield , Minnesota . It is nearly identical to the Clements State Bank Building in Clements , Minnesota representing the commercial investment of outsiders in a string of towns platted on a new railroad line , the Chicago and North Western Railway . The bank closed in 1930 , and was used for several purposes including a doctors office , and a bank exchange . It was the post office of Milroy from 1951 until 1989 when a new post office was built . In 1980 , the building was put on the National Register of Historic Places along with several other buildings in Redwood County , Minnesota . Throughout the years the building stood abandoned , sitting unheated and the roof had also collapsed . In 2009 a local , Sunny Ruthchild bought the building and put on a new roof , redid the floors inside , put in high-efficiency windows and a geothermal heat pump . The upper part of the building is currently being used as a housing tenement and the lower part currently sits empty . However , there has been plans to turn it into a bakery or Caf\u00e9 .",
    "/wiki/Springfield,_Minnesota": "Springfield is a city in Brown County , Minnesota , United States . The population was 2,152 at the 2010 census . U.S. Highway 14 serves as a main route in the community . This location is in the middle of some of Minnesota 's most productive farmland . It has the state 's only brick plant , operated by Acme-Ochs Brick",
    "/wiki/Minnesota_State_Highway_67": "Minnesota State Highway 67 ( MN 67 ) is a 83.026-mile-long ( 133.617 km ) highway in southwest Minnesota , which runs from its intersection with U.S. Highway 75 in Oshkosh Township near Canby and continues east and southeast to its eastern terminus at its intersection with State Highway 68 in Morgan .",
    "/wiki/Charles_Duncan_Gilfillan": "Charles Duncan Gilfillan ( July 4 , 1831 - December 19 , 1902 ) was an American politician and businessman .",
    "/wiki/Saint_Paul,_Minnesota": "Saint Paul ( abbreviated St. Paul ) is the capital and second-most populous city of the U.S. state of Minnesota . As of 2018 , the city 's estimated population was 307,695 . Saint Paul is the county seat of Ramsey County , the smallest and most densely populated county in Minnesota . The city lies mostly on the east bank of the Mississippi River in the area surrounding its point of confluence with the Minnesota River , and adjoins Minneapolis , the state 's largest city . Known as the Twin Cities , the two form the core of Minneapolis-Saint Paul , the 16th-largest metropolitan area in the United States , with about 3.6 million residents . Founded near historic Native American settlements as a trading and transportation center , the city rose to prominence when it was named the capital of the Minnesota Territory in 1849 . The Dakota name for Saint Paul is Imnizaska . Regionally , the city is known for the Xcel Energy Center , home of the Minnesota Wild , and for the Science Museum of Minnesota . As a business hub of the Upper Midwest , it is the headquarters of companies such as Ecolab . Saint Paul , along with its twin city , Minneapolis , is known for its high literacy rate . The settlement originally began at present-day Lambert 's Landing , but was known as Pig 's Eye after Pierre Pig 's Eye Parrant established a popular tavern there . When Lucien Galtier , the first Catholic pastor of the region , established the Log Chapel of Saint Paul ( shortly thereafter to become the first location of the Cathedral of Saint Paul ) , he made it known that the settlement was now to be called by that name , as Saint Paul as applied to a town or city was well appropriated , this monosyllable is short , sounds good , it is understood by all Christian denominations .",
    "/wiki/Alienation_(property_law)": "In property law , alienation is the voluntary act of an owner of some property disposing of the property , while alienability , or being alienable , is the capacity for a piece of property or a property right to be sold or otherwise transferred from one party to another . Most property is alienable , but some may be subject to restraints on alienation . In England under the feudal system , land was generally transferred by subinfeudation and alienation required licence from the overlord . Some objects are incapable of being regarded as property and are inalienable , such as people and body parts . [ citation needed ] Aboriginal title is one example of inalienability ( save to the Crown ) in common law jurisdictions . A similar concept is non-transferability , such as tickets . Rights commonly described as a licence or permit are generally only personal and are not assignable . However , they are alienable in the sense that they can generally be surrendered . English common law traditionally protected freehold landowners from unsecured creditors . In 1732 , the Parliament of Great Britain passed legislation entitled The Act for the More Easy Recovery of Debts in His Majestys Plantations and Colonies in America , which required all real property in British America to be treated as chattel for debt collection purposes . The legislation was reenacted by many statehouses after the American Revolution , leading to the more commodified and transferable development of American property law .",
    "/wiki/Belview,_Minnesota": "Belview is a city in Redwood County , Minnesota , United States . The population was 384 at the 2010 census .",
    "/wiki/John_St._George_Honner": "John St. George J.S.G . Honner ( May 21 , 1831 - June 21 , 1888 ) was an American farmer , businessman , and politician . Born in New York , Honner moved with his parents to Canada and then Michigan . In 1856 , Honner moved to Iosco Township , Waseca County , Minnesota Territory . While in Iosco Township , Honner served on the Waseca County Board of Commissioners . In 1862 , Honner moved to Redwood County , Minnesota . Honner was a farmer and owned North Redwood Granite Works . He also served on the Redwood County Board of Commissioners and was the county register of deeds . He was also assessor of the Honner Township which was named for him . In 1866 and 1871 , Honner served in the Minnesota House of Representatives and then in the Minnesota State Senate in 1873 and 1874 . Honner also served as Redwood County treasurer . He died at his home in North Redwood , Minnesota .",
    "/wiki/Lower_Sioux_Agency": "The Lower Sioux Agency , or Redwood Agency , was the federal administrative center for the Lower Sioux Indian Reservation in what became Redwood County , Minnesota , United States . It was the site of the Battle of Lower Sioux Agency on August 18 , 1862 , the first organized battle of the Dakota War of 1862 . Today it is a historic site managed by the Lower Sioux Community in partnership with the Minnesota Historical Society . The site contains an interpretive center , self-guided trails , and a restored 1861 stone warehouse which is listed on the National Register of Historic Places .",
    "/wiki/Dakota_War_of_1862": "The Dakota War of 1862 , also known as the Sioux Uprising , the Dakota Uprising , the Sioux Outbreak of 1862 , the Dakota Conflict , the U.S.-Dakota War of 1862 or Little Crow 's War , was an armed conflict between the United States and several bands of Dakota ( also known as the eastern 'Sioux ' ) . It began on August 17 , 1862 , along the Minnesota River in southwest Minnesota , four years after its admission as a state . Throughout the late 1850s in the lead-up to the war , treaty violations by the United States and late or unfair annuity payments by Indian agents caused increasing hunger and hardship among the Dakota . During the war , the Dakota made extensive attacks on hundreds of settlers and immigrants , which resulted in settler deaths , and caused many to flee the area . Intense desire for immediate revenge ended with soldiers capturing hundreds of Dakota men and interning their families . A military tribunal quickly tried the men , sentencing 303 to death for their crimes . President Lincoln would later commute the sentence of 264 of them . The mass hanging of 38 Dakota men was conducted on December 26 , 1862 , in Mankato , Minnesota ; it was the largest mass execution in United States history . Traders with the Dakota previously had demanded that the government give the annuity payments directly to them ( introducing the possibility of unfair dealing between the agents and the traders to the exclusion of the Dakota ) . In mid-1862 , the Dakota demanded the annuities directly from their agent , Thomas J. Galbraith . The traders refused to provide any more supplies on credit under those conditions , and negotiations reached an impasse . On August 17 , 1862 , one young Dakota with a hunting party of three others killed five settlers while on a hunting expedition .",
    "/wiki/Milroy,_Minnesota": "Milroy is a city in Redwood County , Minnesota , United States . The population was 252 at the 2010 census . It is named after Robert H. Milroy a Union Army general in the American Civil War .",
    "/wiki/Works_Progress_Administration": "The Works Progress Administration ( WPA ; renamed in 1939 as the Work Projects Administration ) was an American New Deal agency , employing millions of job-seekers ( mostly unskilled men ) to carry out public works projects , including the construction of public buildings and roads . It was established on May 6 , 1935 , by Executive Order 7034 . In one project , Federal Project Number One , the WPA employed musicians , artists , writers , actors and directors in large arts , drama , media , and literacy projects . The five projects dedicated to these were : the Federal Writers Project ( FWP ) , the Historical Records Survey ( HRS ) , the Federal Theatre Project ( FTP ) , the Federal Music Project ( FMP ) , and the Federal Art Project ( FAP ) . In the Historical Records Survey , for instance , many former slaves in the South were interviewed ; these documents are of great importance for American history . Theater and music groups toured throughout the United States , and gave more than 225,000 performances . Archaeological investigations under the WPA were influential in the rediscovery of pre-Columbian Native American cultures , and the development of professional archaeology in the US . The WPA 's initial appropriation in 1935 was for $ 4.9 billion ( about 6.7 percent of the 1935 GDP ) . Headed by Harry Hopkins , the WPA provided jobs and income to the unemployed during the Great Depression in the United States , while developing infrastructure to support the current and future society . Above all , the WPA hired workers and craftsmen who were mainly employed in building streets . Thus , under the leadership of the WPA , more than 1 million km of streets and over 10,000 bridges were built , in addition to many airports and much housing . The largest single project of the WPA was the Tennessee Valley Authority , which provided the impoverished Tennessee Valley with dams and waterworks to create an infrastructure for electrical power .",
    "/wiki/Carnegie_library": "A Carnegie library is a library built with money donated by Scottish-American businessman and philanthropist Andrew Carnegie . A total of 2,509 Carnegie libraries were built between 1883 and 1929 , including some belonging to public and university library systems . 1,689 were built in the United States , 660 in the United Kingdom and Ireland , 125 in Canada , and others in Australia , South Africa , New Zealand , Serbia , Belgium , France , the Caribbean , Mauritius , Malaysia , and Fiji . At first , Carnegie libraries were almost exclusively in places where he had a personal connection - namely his birthplace in Scotland and the Pittsburgh , Pennsylvania area , his adopted home-town . Yet , beginning in the middle of 1899 , Carnegie substantially increased funding to libraries outside these areas . In later years few towns that requested a grant and agreed to his terms were refused . By the time the last grant was made in 1919 , there were 3,500 libraries in the United States , nearly half of them built with construction grants paid by Carnegie .",
    "/wiki/Minnesota_State_Highway_19": "Minnesota State Highway 19 ( MN 19 ) is a 207.877-mile-long ( 334.546 km ) highway in southwest and southeast Minnesota , which runs from South Dakota Highway 30 at the South Dakota state line near Ivanhoe and continues east to its eastern terminus at its intersection with U.S. Highway 61 in Red Wing . The route essentially crosses the state of Minnesota , ending at Red Wing , about five miles ( 8 km ) west of the bridge to Wisconsin .",
    "/wiki/U.S._Route_71": "U.S. Route 71 or U.S. Highway 71 ( US 71 ) is a major north-south United States highway that extends for over 1500 miles ( 2500 km ) in the central United States . This original 1926 route has remained largely unchanged by encroaching Interstate highways . Currently , the highway 's northern terminus is in International Falls , Minnesota at the Canada-US border , at the southern end of the Fort Frances-International Falls International Bridge to Fort Frances , Ontario . U.S. Route 53 also ends here . On the other side of the bridge , Trans-Canada Highway ( Highway 11 ) is an east-west route while Highway 71 is a north-south route . US 71 's southern terminus is between Port Barre and Krotz Springs , Louisiana at an intersection with U.S. Route 190 . For the entirety south of Kansas City , Missouri , US 71 runs parallel and concurrent with the existing and future Interstate 49 . North of Kansas City , US 71 runs halfway between Interstate 29 and Interstate 35 , which they split in the city at an interchange with Interstate 70 .",
    "/wiki/Minnesota_Department_of_Transportation": "The Minnesota Department of Transportation ( MnDOT , pronounced min-dot ) oversees transportation by all modes including land , water , air rail , walking and bicycling in the U.S. state of Minnesota . The cabinet-level agency is responsible for maintaining the state 's trunk highway system ( including state highways , U.S. highways , and interstate highways ) , funding municipal airports and maintaining radio navigation aids , and other activities . Carol Molnau , who served as Minnesota 's lieutenant governor under Tim Pawlenty , led the department as Commissioner of Transportation from the start of the Pawlenty administration in 2003 until her February 2008 removal in the aftermath of the I-35W Mississippi River bridge collapse . Thomas K. Tom Sorel succeeded her as commissioner and was reappointed when Mark Dayton became governor . Sorel has resigned from his position effective December 1 , 2012 , and his deputy commissioner , Bernard J. Bernie Arseneau , was appointed to act as interim commissioner . On December 15 , 2012 , Governor Mark Dayton announced that Charlie Zelle , CEO of Jefferson Lines , would be MnDOT 's next commissioner , effective January 15 , 2013 .",
    "/wiki/Revere_Fire_Hall": "The Revere Fire Hall , on 2nd St. in Revere , Minnesota , was built around 1900 . It was listed on the National Register of Historic Places in 1980 . It is a small building with a false front . It has a square bell tower with a flagpole . It is located on a side street but near the center of Revere , about half a block from the new fire station built in 1974 . It is representative of common , specialized municipal buildings .",
    "/wiki/Revere,_Minnesota": "Revere is a city in Redwood County , Minnesota , United States . The population was 95 at the 2010 census .",
    "/wiki/St._Cornelia's_Episcopal_Church": "St. Cornelia 's Episcopal Church is a historic church on the Lower Sioux Indian Reservation near Morton , Minnesota , United States . It was built 1889-91 for a Dakota congregation returning after years of exile from Minnesota following the Dakota War of 1862 . It is also an example of the Episcopal missionary work among Native Americans and fine Gothic Revival church construction under Bishop Henry Benjamin Whipple ( 1822-1901 ) . St. Cornelia 's was added to the National Register of Historic Places in 1979 . It was listed for having state-level significance in architecture , exploration/settlement , and religion .",
    "/wiki/Dakota_people": "The Dakota ( pronounced [ da\u02c8k\u02e3ota ] , Dakota language : Dak\u021f\u00f3ta/Dakh\u00f3ta ) are a Native American tribe and First Nations band government in North America . They compose two of the three main subcultures of the Sioux /\u02c8su\u02d0/ people , and are typically divided into the Eastern Dakota and the Western Dakota . The Eastern Dakota are the Santee ( Is\u00e1\u014byathi or Is\u00e1\u014b-athi ; knife + encampment , \u2033dwells at the place of knife flint\u2033 ) , who reside in the eastern Dakotas , central Minnesota and northern Iowa . They have federally recognized tribes established in several places . The Western Dakota are the Yankton , and the Yanktonai ( Ih\u00e1\u014bkt\u021fu\u014bwa\u014b and Ih\u00e1\u014bkt\u021fu\u014bwa\u014bna ; Village-at-the-end and Little village-at-the-end ) , who reside in the Upper Missouri River area . The Yankton-Yanktonai are collectively also referred to by the endonym Wi\u010dh\u00edyena ( \u2033Those Who Speak Like Men\u2033 ) . They also have distinct federally recognized tribes . In the past the Western Dakota have been erroneously classified as Nakota , a branch of the Sioux who moved further west . The latter are now located in Montana and across the border in Canada , where they are known as Stoney .",
    "/wiki/Gothic_Revival_architecture": "Gothic Revival ( also referred to as Victorian Gothic , neo-Gothic , or Gothick ) is an architectural movement popular in the Western world that began in the late 1740s in England . Its momentum grew in the early 19th century , when increasingly serious and learned admirers of neo-Gothic styles sought to revive medieval Gothic architecture , in contrast to the neoclassical styles prevalent at the time . Gothic Revival draws features from the original Gothic style , including decorative patterns , finials , lancet windows , hood moulds and label stops . The Gothic Revival movement emerged in 18th-century England , gaining ground in the 19th . Its roots were intertwined with deeply philosophical movements associated with Catholicism and a re-awakening of high church or Anglo-Catholic belief concerned by the growth of religious nonconformism . Ultimately , the Anglo-Catholicism tradition of religious belief and style became known for its intrinsic appeal in the third quarter of the 19th century . Gothic Revival architecture varied considerably in its faithfulness to both the ornamental style and principles of construction of its medieval original , sometimes amounting to little more than pointed window frames and a few touches of Gothic decoration on a building otherwise on a wholly 19th-century plan and using contemporary materials and construction methods . In parallel to the ascendancy of neo-Gothic styles in 19th-century England , interest spread to the rest of Europe , Australia , Sierra Leone , South Africa and to the Americas ; the 19th and early 20th centuries saw the construction of very large numbers of Gothic Revival and Carpenter Gothic structures worldwide . The influence of Revivalism had nevertheless peaked by the 1870s . New architectural movements , sometimes related as in the Arts and Crafts movement , and sometimes in outright opposition , such as Modernism , gained ground , and by the 1930s the architecture of the Victorian era was generally condemned or ignored . The later 20th century saw a revival of interest , manifested in the United Kingdom by the establishment of the Victorian Society in 1958 .",
    "/wiki/Henry_Benjamin_Whipple": "Henry Benjamin Whipple ( February 15 , 1822 - September 16 , 1901 ) was the first Episcopal bishop of Minnesota , a humanitarian and an advocate for Native Americans ."
  }
}