{
  "Videophone_Inspection_Program_(VIP)_and_Outlying_Area_Reporting_Station_(OARS)_0": {
    "/wiki/Conneaut,_Ohio": "Conneaut ( ) is a city in Ashtabula County , Ohio , United States , along Lake Erie at the mouth of Conneaut Creek 66 miles northeast of Cleveland . The population was 12,841 at the 2010 Census . Conneaut is located at the far northeastern corner of the state .",
    "/wiki/Ashtabula,_Ohio": "Ashtabula is a city in Ashtabula County , Ohio , United States , and the center of the Ashtabula Micropolitan Statistical Area ( as defined by the United States Census Bureau in 2003 ) . It is located at the mouth of the Ashtabula River on Lake Erie , one of the Great Lakes , across from the province of Ontario , Canada and northeast of Cleveland . The name Ashtabula is derived from ashtepih\u0259le , which means 'always enough fish to be shared around ' in the Lenape language . The city became an important destination on the Underground Railroad in the middle 19th century , as refugee slaves could take ships to Canada and freedom . Even in the free state of Ohio , they were at risk of being captured by slavecatchers . Beginning in the late 19th century , the city became a major coal port on Lake Erie at the mouth of the Ashtabula River northeast of Cleveland . Coal and iron were shipped here , the latter from the Mesabi Range in Minnesota . The city attracted immigrants from Finland , Sweden and Italy in the industrial period . Ashtabula hosts an annual Blessing of the Fleet Celebration , usually in late May or early June . As part of the celebration , a religious procession and prayer service is held at Ashtabula Harbor . The city was the site of the FinnFestUSA in 2007 , a celebration of Finnish Americans . As of the 2010 census , the city had a total population of 19,124 , a decrease of 1,838 ( 8.8% ) .",
    "/wiki/Geneva,_Ohio": "Geneva is a city in Ashtabula County , Ohio , United States . The area which would become Geneva was originally settled in 1805 , and was incorporated as a city in 1958 . It is named after Geneva , New York . The population was 6,215 at the 2010 census .",
    "/wiki/Fairport_Harbor,_Ohio": "Fairport Harbor is a village in Lake County , Ohio , United States , along Lake Erie at the mouth of the Grand River . The population was 3,109 at the 2010 census . Fairport Harbor is home to two lighthouses : the Fairport Harbor West Breakwater Light in Painesville Township , operated by the United States Coast Guard and the Grand River ( Fairport Harbor ) Light operated by the Fairport Harbor Historical Society . It is also the home of the Finnish Heritage Museum .",
    "/wiki/Mentor,_Ohio": "Mentor ( /\u02c8m\u025bnt\u0259r/ MEN-t\u0259r ) is a city in Lake County , Ohio , United States . Mentor was first settled in 1797 . The population was 47,159 at the 2010 census . In July 2010 , CNNMoney.com ranked Mentor 37th in a list of the Top 100 Best Places to Live in America . In 1876 James A. Garfield purchased a home in Mentor , from which he conducted the first successful front porch campaign for the presidency . Garfield coined the term Mentorite when referring to a native of Mentor . [ citation needed ] That house is now maintained as the James A. Garfield National Historic Site . The city is home to Headlands Beach State Park , the longest public swimming beach in Ohio . The city is a major center of retail stores , ranking sixth-largest in Ohio as of 2012 [ update ] , and restaurants , ranking seventh-largest in the state as of 2012 [ update ] . Mentor Avenue ( US 20 ) is the major retail center , which includes the Great Lakes Mall , with additional shopping and strip malls found along most major roads . Convenient Food Mart is based in Mentor . Major products include medical related , polymers , plastics , electric boards and other peripherals that generally serve the computer and automation industries .",
    "/wiki/Eastlake,_Ohio": "Eastlake is a city in Lake County , Ohio , United States . The population was 18,577 at the 2010 census . Dennis Morley is the current mayor of Eastlake . The city was named for the fact it is northeast of Cleveland , Ohio , following along the shore of Lake Erie . Eastlake is the site where Akron-based FirstEnergy 's Eastlake Generating Station shut down at 1:31pm EDT on August 14 , 2003 , leading to the 2003 North America blackout a few hours later .",
    "/wiki/Cleveland": "Cleveland ( /\u02c8kli\u02d0vl\u0259nd/ KLEEV-l\u0259nd ) is a city in the U.S. state of Ohio , and the county seat of Cuyahoga County . The city proper has a population of 385,525 , making it the 52nd-largest city in the United States and the second-largest city in Ohio . Greater Cleveland is ranked as the 33rd-largest metropolitan area in the U.S. , with 2,057,009 people in 2018 . A Gamma + city , Cleveland anchors the Cleveland-Akron-Canton Combined Statistical Area , which had a population of 3,515,646 in 2010 and is ranked 15th in the United States . The city is located on the southern shore of Lake Erie , across the U.S. maritime border with Canada and approximately 60 miles ( 100 kilometers ) west of the Ohio-Pennsylvania state border . It was founded in 1796 near the mouth of the Cuyahoga River by General Moses Cleaveland . It became a manufacturing center due to its location on both the river and the lake shore , as well as being connected to numerous canals and railroad lines . Cleveland 's economy relies on diversified sectors such as manufacturing , financial services , healthcare , biomedicals , and higher education . The city 's major cultural institutions include the Cleveland Museum of Art , the Cleveland Orchestra , Playhouse Square , and the Rock and Roll Hall of Fame . Known as The Forest City among many other nicknames , Cleveland serves as the center of the Cleveland Metroparks nature reserve system .",
    "/wiki/Lorain,_Ohio": "Lorain /l\u0259\u02c8re\u026an/ is a city in Lorain County , Ohio , United States . The municipality is located in northeastern Ohio on Lake Erie , at the mouth of the Black River , approximately 30 miles west of Cleveland . As of the 2010 census , the city had a total population of 64,097 , making it Ohio 's tenth largest city , the third largest in Greater Cleveland , and the largest in Lorain County by population . The city is notable for its deindustrialized economy , formerly being home to the American Ship Building Company Lorain Yard , Ford Motor Company Lorain Assembly Plant , and United States Steel Corporation 's sprawling steel mill on the city 's south side . The city faces many similar issues to other Rust Belt cities , including population decline and urban decay . Poverty in the city is above the national average at 26.2% , lower than Cleveland 's 36% but higher than neighboring Elyria 's 22.2%",
    "/wiki/Sandusky,_Ohio": "Sandusky /s\u00e6n\u02c8d\u028cski\u02d0/ is a city in the U.S. state of Ohio and the county seat of Erie County . Situated in northern Ohio on the shores of Lake Erie , Sandusky is midway between Toledo to the west and Cleveland to the east . According to 2010 census , the city had a population of 25,793 , and the Sandusky , Ohio Micropolitan Statistical Area had 77,079 residents . In 2011 , Sandusky was ranked No . 1 by Forbes as the Best Place to Live Cheaply in the United States . The city has a median family income of $ 64,000 . Sandusky is home to the Cedar Fair Entertainment Company and its flagship amusement park , Cedar Point . Cedar Point has one of the largest collections of roller coasters in the world and is widely regarded as one of the best amusement parks . Cedar Point includes 17 roller coasters . The National Arbor Day Foundation has designated Sandusky as a Tree City USA .",
    "/wiki/Put-in-Bay,_Ohio": "Put-in-Bay is a village located on South Bass Island in Put-in-Bay Township , Ottawa County , Ohio , United States east of Toledo . The population was 138 at the 2010 census . The village is a popular summer resort and recreational destination . Ferry and airline services connect the community with Catawba Island , Kelleys Island , Port Clinton , and Sandusky , Ohio . The bay played a significant role in the War of 1812 as the location of the squadron of U.S. naval commander Oliver Hazard Perry , who sailed from the port on September 10 , 1813 , to engage a British squadron just north of the island in the Battle of Lake Erie .",
    "/wiki/Port_Clinton,_Ohio": "Port Clinton is a city in and the county seat of Ottawa County , located at the mouth of the Portage River on Lake Erie , about 44 miles east of Toledo . The population was 6,056 at the 2010 census . The city has been nicknamed the Walleye Capital of the World , due to the productive fishing waters for the species lying offshore in Lake Erie 's Western Basin . The annual Walleye Drop on New Year 's Eve in downtown Port Clinton reflects this nickname .",
    "/wiki/Toledo,_Ohio": "Toledo ( /t\u0259\u02c8li\u02d0do\u028a/ ) is a city in and the county seat of Lucas County , Ohio , United States . Toledo is in northwest Ohio , at the western end of Lake Erie bordering the state of Michigan . The city was founded in 1833 on the west bank of the Maumee River , and originally incorporated as part of Monroe County , Michigan Territory . It was re-founded in 1837 , after conclusion of the Toledo War , when it was incorporated in Ohio . After the 1845 completion of the Miami and Erie Canal , Toledo grew quickly ; it also benefited from its position on the railway line between New York City and Chicago . The first of many glass manufacturers arrived in the 1880s , eventually earning Toledo its nickname : The Glass City . It has since become a city with an art community , auto assembly businesses , education , healthcare , and local sports teams . The population of Toledo as of the 2010 Census [ update ] was 287,128 making it the 71st-largest city in the United States . It is the fourth-most-populous city in the U.S. state of Ohio , after Columbus , Cleveland , and Cincinnati . The Toledo metropolitan area had a 2010 population of 608,145 , and was the sixth-largest metropolitan area in the state of Ohio , behind Cleveland , Columbus , Cincinnati , Dayton , and Akron .",
    "/wiki/Waddington_(village),_New_York": "Waddington is a village located in the Town of Waddington in St. Lawrence County , New York . The population was 972 at the 2010 census . The village is named after Joshua Waddington . The Village of Waddington is at the northern edge of the town and is north of Canton .",
    "/wiki/Ogdensburg,_New_York": "Ogdensburg is a city in St. Lawrence County , New York , United States . The population was 11,128 at the 2010 census . In the late 18th century , European-American settlers named the community after American land owner and developer Samuel Ogden . The City of Ogdensburg is at the northern border of New York at the mouth of the Oswegatchie River on the south bank of the St. Lawrence River . The only formally designated city in the county , it is located between Massena , New York to the east and Brockville , Ontario to the west . The Port of Ogdensburg is the only U.S. port on the St. Lawrence Seaway . Ogdensburg International Airport is located south of the city . The Ogdensburg-Prescott International Bridge , northeast of the city , links the United States and Canada , with a direct highway from Prescott to Ottawa , the capital of Canada .",
    "/wiki/Morristown_(town),_New_York": "Morristown is a town in St. Lawrence County , New York , United States . The population was 1,974 at the 2010 census . The town is named after Gouverneur Morris , a signer of the United States Declaration of Independence and landowner in New York . The Town of Morristown is on the northwestern part of the county and contains a village also named Morristown . The village and town are northwest of Gouverneur .",
    "/wiki/Clayton,_New_York": "Clayton is a town in Jefferson County , New York , United States . The population was 5,153 at the 2010 census . The town is named after John M. Clayton , a federal political leader from Delaware . The town contains a village also named Clayton . Both are northwest of Watertown . The village of Clayton , nearby Cape Vincent , and Alexandria Bay are popular tourist destinations on the New York mainland side of the Thousand Islands region .",
    "/wiki/Sackets_Harbor,_New_York": "Sackets Harbor ( earlier spelled Sacketts Harbor ) is a village in Jefferson County , New York , United States , on Lake Ontario . The population was 1,450 at the 2010 census . The village was named after land developer and owner Augustus Sackett , who founded it in the early 1800s . Sackets Harbor is in the western part of the town of Hounsfield and is west of Watertown . The heart of the village , with a Main Street and well-preserved 19th century buildings , has been recognized as the Sackets Harbor Village Historic District and listed on the National Register of Historic Places in 1983 . To support the War of 1812 , the US Navy built a major shipyard and its headquarters for the Great Lakes at the village . Within a short period , more than 3,000 men worked at the shipyard . The Army constructed earthworks , forts , barracks and supporting infrastructure to defend the village and navy shipyard , and its troops also camped in the village . The thousands of military personnel made it seem like a city . By the fall of 1814 , this was the third-largest population center in the entire state , after Albany and New York City . With its strategic protected harbor on Lake Ontario and military installations , the village had national importance through the 19th century . Soon after the war , the Army strengthened its defenses on the northern frontier by constructing Madison Barracks .",
    "/wiki/Oswego,_New_York": "Oswego ( ) is a city in Oswego County , New York , United States . The population was 18,142 at the 2010 census . Oswego is located on Lake Ontario in north-central New York and promotes itself as The Port City of Central New York . It is the county seat of Oswego County . The city of Oswego is bordered by the towns of Oswego , Minetto , and Scriba to the west , south , and east , respectively , and by Lake Ontario to the north . Oswego Speedway is a nationally known automobile racing facility . The State University of New York at Oswego is located just outside the city on the lake . Oswego is the namesake for communities in Montana , Oregon , Illinois , and Kansas .",
    "/wiki/Olcott,_New_York": "Olcott is a hamlet ( and census-designated place ) located in the Town of Newfane in Niagara County , New York , United States 14126 . As of the 2010 census , this community population was 1,241 . Most locals refer to it as Olcott Beach . It is part of the Buffalo-Niagara Falls Metropolitan Statistical Area . Olcott is a lakeside community which is home to the deepest harbor on Lake Ontario west of Rochester , NY . The community is at the junction of East/West Lake Road ( NYS Route 18 ) and Lockport-Olcott Road ( NYS Route 78 ) . Krull Park in the northeast part of the village , is the largest county-operated park in Niagara County . Olcott-Newfane Airport ( D80 ) is located south of the village , but is closed indefinitely except for ultralight aircraft . Olcott was known for its Coney Island-like beach attractions and attracted tourists visiting nearby Niagara Falls , New York . Many of these attractions have closed , however , after the decline of the City of Niagara Falls and a prolonged economic downturn which has hard-hit all of Niagara County . Slowly , efforts are being made to bring back this economic prosperity that the region once saw , and so far has been a success in Olcott . Heritage tourism has become quite popular in Niagara County , and new festivals include the Olcott Pirate Festival as well as a famous car show that takes place during the summer .",
    "/wiki/Wilson,_NY": "Wilson is a town in Niagara County , New York , United States . The population was 5,993 at the 2010 census . The town was named after an early settler , Reuben Wilson , who built and dwelt in a log cabin on the shore of Lake Ontario at the site of what would become the Village of Wilson . The Town of Wilson is on the northern border of the county and contains a village , also called Wilson .",
    "/wiki/Youngstown,_New_York": "Youngstown is a village in Niagara County , New York , USA . The population was 1,935 at the 2010 census . It is part of the Buffalo-Niagara Falls Metropolitan Statistical Area . Youngstown is on the western edge of the town of Porter and is at the international border with Canada . It is north of the city of Niagara Falls .",
    "/wiki/Rochester,_New_York": "Rochester ( /\u02c8r\u0252t\u0283\u025bst\u0259r , -\u026as-/ ) is a city on the southern shore of Lake Ontario in western New York and the seat of Monroe County . With a population of 208,046 , Rochester is the third most populous city in New York state , after New York City and Buffalo . The metropolitan area has a population of just over one million people . It is about 73 miles ( 117 km ) east of Buffalo and 87 miles ( 140 km ) west of Syracuse . Rochester was one of the United States ' first boom towns , initially due to the fertile Genesee River Valley , which gave rise to numerous flour mills , and then as a manufacturing hub . Several of the region 's universities ( notably the University of Rochester and Rochester Institute of Technology ) have renowned research programs . [ citation needed ] The area is the birthplace of Kodak , Paychex , Western Union , French 's , Bausch & Lomb , Gleason , Rag\u00fa and Xerox , which conduct extensive research and manufacturing of industrial and consumer products . Until 2010 , the Rochester metropolitan area was the second-largest regional economy in New York State , after the New York City metropolitan area . Rochester 's GMP has since ranked just below Buffalo 's , while exceeding it in per-capita income . In 2007 , the 25th edition of the Places Rated Almanac rated Rochester the most livable city among 379 U.S. metropolitan areas . In 2010 Forbes rated Rochester the third-best place to raise a family in the United States . In 2012 Kiplinger rated Rochester the fifth-best city in the United States for families , citing low cost of living , top public schools , and a low unemployment rate .",
    "/wiki/Buffalo,_New_York": "Buffalo is the second largest city in the U.S. state of New York and the largest city in Western New York . As of 2018 [ update ] , the population was 256,304 . The city is the county seat of Erie County and a major gateway for commerce and travel across the Canada-United States border , forming part of the bi-national Buffalo Niagara Region . As of the April 1 , 2010 , the metropolitan statistical area ( MSA ) had a population of 1,135,509 ; the combined statistical area ( CSA ) , which adds Cattaraugus County , had a population of 1,215,826 inhabitants . The Buffalo area was inhabited before the 17th century by the Native American Iroquois tribe and later by French colonizers . The city grew significantly in the 19th and 20th centuries as a result of immigration , the construction of the Erie Canal and rail transportation , and its close proximity to Lake Erie . This growth provided an abundance of fresh water and an ample trade route to the Midwestern United States while grooming its economy for the grain , steel and automobile industries that dominated the city 's economy in the 20th century . Since the city 's economy relied heavily on manufacturing , deindustrialization in the latter half of the 20th century led to a steady decline in population . While some manufacturing activity remains , Buffalo 's economy has transitioned to service industries with a greater emphasis on healthcare , research and higher education , which emerged following the Great Recession . Buffalo is on the eastern shore of Lake Erie , at the head of the Niagara River , 16 miles ( 26 km ) south of Niagara Falls . Its early embrace of electric power led to the nickname The City of Light . The city is also famous for its urban planning and layout by Joseph Ellicott , an extensive system of parks designed by Frederick Law Olmsted , as well as significant architectural works .",
    "/wiki/North_Tonawanda,_New_York": "North Tonawanda is a city in Niagara County , New York , United States . The population was 31,568 at the 2010 census . It is part of the Buffalo-Niagara Falls Metropolitan Statistical Area . The city is named after Tonawanda Creek , its south border . Tonawanda in the Seneca tongue means Swift Running Water . Tonawanda Creek , which flows into the Niagara River , once had large stretches of rapids ( see Rapids , New York ) until it was tamed with the construction of the Erie Canal . The city also calls itself The Lumber City , due to its past primary industry and once was the largest port on the Great Lakes during the height of the Erie Canal . Along Goundry Street are mansions built for the lumber barons , including 208 Goundry Street , called Kent Place , designed by Stanford White . Many of the local residents refer to it as The Jewel of Niagara County due to its geographical setting between the Niagara River and Erie Canal . It is also home to the 2009 Class AA NYS Football Champion Lumberjacks . Street signs on the borders of town welcome visitors to The Home Of The Carousel .",
    "/wiki/Angle_Inlet,_Minnesota": "Angle Inlet is a census-designated place ( CDP ) and unincorporated community in Angle Township , Lake of the Woods County , Minnesota , United States . Its population was 60 as of the 2010 census . The community is part of the Northwest Angle , the only place in the contiguous United States north of the 49th parallel ; it is the northernmost census-designated place in the contiguous United States . The French built Fort Saint Charles nearby in 1732 . Angle Inlet has the last one-room school in the state and a post office with a sign stating that it is the Most Northerly P.O . in Contiguous U.S. To travel to Angle Inlet from other parts of Minnesota by road requires driving through Manitoba , Canada .",
    "/wiki/Newport_(city),_Vermont": "Newport is a city and the county seat of Orleans County , Vermont , United States . As of the 2010 Census , the city population was 4,589 . The city contains the second-largest population of any municipality in the county ( only neighboring Derby is larger ) , and has the smallest geographic area . It is the second-smallest city by population in Vermont . Newport is also the name of a Town in Orleans County .",
    "/wiki/Erie,_Pennsylvania": "Erie ( /\u02c8\u026a\u0259ri/ ; EER-ee ) is a city on the south shore of Lake Erie and the county seat of Erie County , Pennsylvania , United States . Named for the lake and the Native American Erie people who lived in the area until the mid-17th century , Erie is the fourth-largest city in Pennsylvania , as well as the largest city in Northwestern Pennsylvania , with a population of 101,786 at the 2010 census . The estimated population in 2018 had decreased to 96,471 . The Erie metropolitan area , equivalent to all of Erie County , consists of 276,207 residents . The Erie-Meadville , PA Combined Statistical Area has a population of 369,331 , as of the 2010 Census . Erie is halfway between the cities of Buffalo , New York , and Cleveland , Ohio , and due north of Pittsburgh , Pennsylvania . Erie 's manufacturing sector remains prominent in the local economy , though healthcare , higher education , technology , service industries , and tourism are emerging as significant economic drivers . Over four million people visit Erie during summer months for recreation at Presque Isle State Park , as well as attractions such as Waldameer Park . Erie is known as the Flagship City because of its status as the home port of Oliver Hazard Perry 's flagship Niagara . Erie won the All-America City Award in 1972 , and in 2012 hosted the Perry 200 , a commemoration , celebrating 200 years of peace between Britain , America and Canada following the War of 1812 and Battle of Lake Erie ."
  }
}