{
  "Astro-Creep:_2000_\u2013_Songs_of_Love,_Destruction_and_Other_Synthetic_Delusions_of_the_Electric_Head_1": {
    "/wiki/Kerrang!": "Kerrang ! is a British weekly magazine devoted to rock and metal music , currently published by Wasted Talent ( the same company that owns electronic music publication Mixmag ) . It was first published on 6 June 1981 as a one-off supplement in the Sounds newspaper . Named after the onomatopoeic word that derives from the sound made when playing a power chord on a distorted electric guitar , Kerrang ! was initially devoted to the new wave of British heavy metal and the rise of hard rock acts . In the early 2000s it became the best-selling British music weekly .",
    "/wiki/United_Kingdom": "The United Kingdom of Great Britain and Northern Ireland , commonly known as the United Kingdom ( UK or U.K. ) or Britain , [ note 11 ] is a sovereign country located off the north\u00adwestern coast of the European mainland . Existing under its current name since 1921 , the United Kingdom includes the island of Great Britain , the north\u00adeastern part of the island of Ireland , and many smaller islands . Northern Ireland shares a land border with the Republic of Ireland . Otherwise , the United Kingdom is surrounded by the Atlantic Ocean , with the North Sea to the east , the English Channel to the south and the Celtic Sea to the southwest , giving it the 12th-longest coastline in the world . The Irish Sea separates Great Britain and Ireland . The total area of the United Kingdom is 94,000 square miles ( 240,000 km2 ) . The United Kingdom is a unitary parliamentary democracy and constitutional monarchy . [ note 12 ] The current monarch is Queen Elizabeth II , who has reigned since 1952 , making her the world 's longest-serving current head of state . The United Kingdom 's capital and largest city is London , a global city and financial centre with an urban area population of 10.3 million . Other major cities include Birmingham , Manchester , Glasgow , Leeds and Liverpool . The United Kingdom consists of four constituent countries : England , Scotland , Wales , and Northern Ireland . Their capitals are London , Edinburgh , Cardiff , and Belfast , respectively .",
    "/wiki/France": "France ( French : [ f\u0281\u0251\u0303s ] ( listen ) ) , officially the French Republic ( French : R\u00e9publique fran\u00e7aise , pronounced [ \u0281epyblik f\u0281\u0251\u0303s\u025b\u02d0z ] ( listen ) ) , is a country whose territory consists of metropolitan France in Western Europe and several overseas regions and territories . [ XIII ] The metropolitan area of France extends from the Mediterranean Sea to the English Channel and the North Sea , and from the Rhine to the Atlantic Ocean . It is bordered by Belgium , Luxembourg and Germany to the northeast , Switzerland and Italy to the east , and Andorra and Spain to the south . The overseas territories include French Guiana in South America and several islands in the Atlantic , Pacific and Indian oceans . The country 's 18 integral regions ( five of which are situated overseas ) span a combined area of 643,801 square kilometres ( 248,573 sq mi ) and a total population of 67.02 million ( as of July 2019 [ update ] ) . France is a unitary semi-presidential republic with its capital in Paris , the country 's largest city and main cultural and commercial centre . Other major urban areas include Lyon , Marseille , Toulouse , Bordeaux , Lille and Nice . France , including its overseas territories , has the most number of time zones of any country , with a total of 12 . During the Iron Age , what is now metropolitan France was inhabited by the Gauls , a Celtic people . Rome annexed the area in 51 BC , holding it until the arrival of Germanic Franks in 476 , who formed the Kingdom of Francia . The Treaty of Verdun of 843 partitioned Francia into East Francia , Middle Francia and West Francia . West Francia , which became the Kingdom of France in 987 , emerged as a major European power in the Late Middle Ages , following its victory in the Hundred Years ' War ( 1337-1453 ) .",
    "/wiki/Netherlands": "The Netherlands ( Dutch : Nederland , [ \u02c8ne\u02d0d\u0259rl\u0251nt ] ( listen ) ) , informally Holland , is a country in Northwestern Europe with some overseas territories in the Caribbean . In Europe , it consists of 12 provinces that border Germany to the east , Belgium to the south , and the North Sea to the northwest , with maritime borders in the North Sea with those countries and the United Kingdom . Together with the Caribbean Netherlands - Bonaire , Sint Eustatius and Saba - it forms a constituent country of the Kingdom of the Netherlands . The official language is Dutch and a secondary official language in the province of Friesland is West Frisian . In the north and east of the country , Low Saxon is also spoken , and in the southeast , Limburgish . In the Caribbean Netherlands English and Papiamento are recognised languages . The five largest cities in the Netherlands are Amsterdam , Rotterdam , The Hague , Utrecht and Eindhoven . Amsterdam is the country 's most populous city and nominal capital , while The Hague holds the seat of the States General , Cabinet and Supreme Court . The Port of Rotterdam is the busiest seaport in Europe , and the busiest in any country outside Asia . Amsterdam Airport Schiphol is the busiest airport in the Netherlands , and the third busiest in Europe . The country is a founding member of the EU , Eurozone , G10 , NATO , OECD and WTO , as well as a part of the Schengen Area and the trilateral Benelux Union . It hosts several intergovernmental organisations and international courts , many of which are centered in The Hague , which is consequently dubbed 'the world 's legal capital ' .",
    "/wiki/United_States": "The United States of America ( USA ) , commonly known as the United States ( U.S. or US ) or America , is a country consisting of 50 states , a federal district , five major self-governing territories , and various possessions . [ g ] At 3.8 million square miles ( 9.8 million km2 ) , it is the world 's third or fourth-largest country by total area [ b ] and is slightly smaller than the entire continent of Europe . Most of the country is located in central North America between Canada and Mexico . With an estimated population of over 328 million , the U.S. is the third most populous country in the world . The capital is Washington , D.C. , and the most populous city is New York City . Paleo-Indians migrated from Siberia to the North American mainland at least 12,000 years ago . European colonization began in the 16th century . The United States emerged from the thirteen British colonies established along the East Coast . Numerous disputes between Great Britain and the colonies led to the American Revolutionary War lasting between 1775 and 1783 , leading to independence . The United States embarked on a vigorous expansion across North America throughout the 19th century - gradually acquiring new territories , displacing Native Americans , and admitting new states - until by 1848 it spanned the continent . During the second half of the 19th century , the American Civil War led to the abolition of slavery in the United States . The Spanish-American War and World War I confirmed the country 's status as a global military power .",
    "/wiki/Germany": "Germany ( German : Deutschland , German pronunciation : [ \u02c8d\u0254\u028ft\u0283lant ] ) , constitutionally the Federal Republic of Germany ( German : Bundesrepublik Deutschland , listen ( help\u00b7info ) ) , [ f ] is a country in Central and Western Europe . It borders Denmark to the north , Poland and the Czech Republic to the east , Austria and Switzerland to the south , France to the southwest , and Luxembourg , Belgium , and the Netherlands to the west . Germany includes 16 constituent states , covers an area of 357,386 square kilometres ( 137,988 sq mi ) , and has a largely temperate seasonal climate . With 83 million inhabitants , it is the second most populous state of Europe after Russia , the most populous state lying entirely in Europe , as well as the most populous member state of the European Union . Germany is a very decentralised country . Its capital and largest metropolis is Berlin , while Frankfurt serves as its financial capital and has the country 's busiest airport . Various Germanic tribes have inhabited the northern parts of modern Germany since classical antiquity . A region named Germania was documented before AD 100 . Beginning in the 10th century , German territories formed a central part of the Holy Roman Empire . During the 16th century , northern German regions became the centre of the Protestant Reformation . After the collapse of the Holy Roman Empire , the German Confederation was formed in 1815 . The German revolutions of 1848-49 resulted in the Frankfurt Parliament establishing major democratic rights ."
  },
  "List_of_bridges_on_the_National_Register_of_Historic_Places_in_Mississippi_0": {
    "/wiki/Vaiden,_Mississippi": "Vaiden is a town in Carroll County , Mississippi , United States and its first county seat . The population was 734 at the 2010 census . It is part of the Greenwood , Mississippi micropolitan area .",
    "/wiki/Carroll_County,_Mississippi": "Carroll County is a county located in the U.S. state of Mississippi . As of the 2010 census , the population was 10,597 . Its county seats are Carollton and Vaiden . The county is named for Charles Carroll of Carrollton , the last surviving signatory of the U.S . Declaration of Independence . Carroll County is part of the Greenwood , Micropolitan Statistical Area . Bordered by the Yazoo River on the west and the Big Black River to the east , it is considered within the Mississippi Delta region . Most of its land is in the hill country . The Porter Wagoner song The Carroll County Accident was set here . The county is referred to in the third verse of Bobbie Gentry 's 1967 hit song , Ode to Billie Joe .",
    "/wiki/Lawrence_County,_Mississippi": "Lawrence County is a county located in the U.S. state of Mississippi . As of the 2010 census , the population was 12,929 . Its county seat is Monticello . The county is named for the naval hero James Lawrence .",
    "/wiki/Carpenter,_Mississippi": "Carpenter is a small unincorporated community in Copiah County , Mississippi , United States . A former railroad town located seven miles from Utica in the extreme northwestern corner of the county , Carpenter was named for Joseph Neibert Carpenter , president of the Natchez , Jackson and Columbia Railroad .",
    "/wiki/Copiah_County,_Mississippi": "Copiah County is a county located in the U.S. state of Mississippi . As of the 2010 census , the population was 29,449 . The county seat is Hazlehurst . With an eastern border formed by the Pearl River , Copiah County is part of the Jackson , MS Metropolitan Statistical Area .",
    "/wiki/Big_Black_River_Railroad_Bridge": "Big Black River Railroad Bridge is a concrete open-spandrel arch bridge over the Big Black River built in 1917 near Bovina , Mississippi . It spans the river between Warren County and Hinds County ; the nearest settlements are Bovina ( in Warren ) and Edwards , Mississippi ( in HInds ) . It was listed on the National Register of Historic Places in 1988 . According to its listing in the Mississippi Historic Bridge Survey in 1988 , it is significant as the largest and most impressive concrete open-spandrel bridge in Mississippi ( out of just two in the state ) . Open-spandrel concrete arch bridges were built in the early 1900s in areas where concrete was not too expensive relative to alternatives and where the span would be sufficiently high so that the arch could span the requisite distance . ( Truss bridges can be built lower . )",
    "/wiki/Bovina,_Mississippi": "Bovina is an unincorporated community located about east of Vicksburg in Warren County , Mississippi , on Interstate 20 . It is part of the Vicksburg Micropolitan Statistical Area .",
    "/wiki/Edwards,_Mississippi": "Edwards is a town in Hinds County , Mississippi , United States . The population was 1,034 at the 2010 census , down from 1,347 at the 2000 census . It is part of the Jackson Metropolitan Statistical Area .",
    "/wiki/Hinds_County,_Mississippi": "Hinds County is a county located in the U.S. state of Mississippi . As of the 2010 census , the population was 245,285 , making it the most populous county in Mississippi . Its county seats are Raymond and Jackson , the state capital . The county is named for General Thomas Hinds , a hero of the Battle of New Orleans during the War of 1812 . Hinds County is a central part of the Jackson , MS Metropolitan Statistical Area . It is a professional , educational , business and industrial hub in the state . It is bordered on the northwest by the Big Black River and on the east by the Pearl River . It is one county width away from the Yazoo River and the southern border of the Mississippi Delta . In the 19th century , the rural areas of the county were devoted to cotton plantations worked by enslaved African Americans and depended on agriculture well into the 20th century . From 1877 to 1950 , this county had 22 lynchings , the highest number in the state . Mississippi has the highest total number of lynchings of any state .",
    "/wiki/Warren_County,_Mississippi": "Warren County is a county located in the U.S. state of Mississippi . As of the 2010 census , the population was 48,773 . Its county seat is Vicksburg . Created by legislative act of 22 December 1809 , Warren County is named for American Revolutionary War officer Joseph Warren . Part of the Mississippi Delta and the historic cotton culture , Warren County is included in the Vicksburg , MS Micropolitan Statistical Area , which is also included in the Jackson-Vicksburg-Brookhaven , MS Combined Statistical Area .",
    "/wiki/Byram_Bridge": "The Byram Bridge , spanning the Pearl River between Hinds County , Mississippi and Rankin County , Mississippi , is a historic bridge which was listed on the National Register of Historic Places in 1979 . The bridge was built in 1905 as a collaboration between merchants in Byram , Mississippi and Rankin County . In 1987 , the bridge was deemed unsafe for travel and was closed to traffic . The bridge was converted to a pedestrian footbridge in 2015 . It is located at Old Byram and Florence Rd . near Frenchs Store , Mississippi . It is a swinging suspension bridge type of suspension bridge , with two towers , nearly in total length . The central span is about .",
    "/wiki/Rankin_County,_Mississippi": "Rankin County is a county located in the U.S. state of Mississippi . The western border of the county is formed by the Pearl River . As of the 2010 census , the population was 141,617 , making it the fourth-most populous county in Mississippi . The county seat is Brandon . The county is named in honor of Christopher Rankin , a Mississippi Congressman who served from 1819 to 1826 . Rankin County is part of the Jackson Metropolitan Statistical Area .",
    "/wiki/Chunky,_Mississippi": "Chunky is a town in Newton County , Mississippi , United States . The population was 344 at the 2000 census .",
    "/wiki/Newton_County,_Mississippi": "Newton County is a county located in the U.S. state of Mississippi . As of the 2010 census , the population was 21,720 . Its county seat is Decatur .",
    "/wiki/Columbus,_Mississippi": "Columbus is a city in and the county seat of Lowndes County , on the eastern border of Mississippi , United States , located primarily east , but also north and northeast of the Tombigbee River , which is also referred to as the Tennessee-Tombigbee Waterway . It is approximately 146 miles ( 235 km ) northeast of Jackson , 92 miles ( 148 km ) north of Meridian , 63 miles ( 101 km ) south of Tupelo , 60 miles ( 97 km ) northwest of Tuscaloosa , Alabama , and 120 miles ( 193 km ) west of Birmingham , Alabama . The population was 25,944 at the 2000 census and 23,640 in 2010 . The population in 2018 was estimated to be 23,853 . Columbus is the principal city of the Columbus Micropolitan Statistical Area , which is part of the larger Columbus-West Point Combined Statistical Area . Columbus is also part of the area of Mississippi called The Golden Triangle , consisting of Columbus , West Point and Starkville , in the counties of Lowndes , Clay and Oktibbeha .",
    "/wiki/Lowndes_County,_Mississippi": "Lowndes County is a county located on the eastern border of the U.S. state of Mississippi . As of the 2010 census , the population was 59,779 . Its county seat is Columbus . The county is named for U.S . Congressman William Jones Lowndes . Lowndes County comprises the Columbus , MS Micropolitan Statistical Area . Since the late 20th century , it has been designated as one of three counties in the Golden Triangle region of the state .",
    "/wiki/Vicksburg,_Mississippi": "Vicksburg is a historic American city , located on a high bluff on the east bank of the Mississippi River across from Louisiana . Originally built by French colonists in 1719 , the outpost withstood an attack from the native Natchez people . It was incorporated as Vicksburg in 1825 after Methodist missionary Newitt Vick . In the American Civil War , it was a key Confederate river-port , and its surrender to Ulysses S. Grant in July 1863 marked the turning-point of the war . Vicksburg then had a troubled history of racial conflict , well into the 20th century . The city is home to three large installations of the US Army Corps of Engineers , which has often been involved in local flood control . Vicksburg is the county seat of Warren County , Mississippi , with a population of 23,856 at the 2010 census .",
    "/wiki/Coon_Box_Fork_Bridge": "The Coon Box Fork Bridge is a swinging suspension bridge located 1 mile ( 1.6 km ) southwest of Coon Box in Jefferson County , Mississippi . The bridge carries Coon Box Road across the North Fork Coles Creek . Constructed in 1919 for $ 3,498.99 , the bridge has a wooden deck and concrete towers plated in iron . The bridge was one of many of the same type constructed in Jefferson County in the early 1900s to serve farmers in Coon Box ; it is considered a highly successful technological product and is in fair condition . The bridge was added to the National Register of Historic Places on May 23 , 1979 . The bridge was destroyed in 2015 .",
    "/wiki/Coon_Box,_Mississippi": "Coon Box is an unincorporated community located in Jefferson County , Mississippi , United States . Coon Box is 5.9 miles ( 9.5 km ) north of Fayette . The Coon Box Fork Bridge , which is listed on the National Register of Historic Places , is located one mile southwest of Coon Box .",
    "/wiki/Jefferson_County,_Mississippi": "Jefferson County is a county located in the U.S. state of Mississippi ; its western border is formed by the Mississippi River . As of the 2010 census , the population was 7,726 , making it the third-least populous county in Mississippi . Its county seat is Fayette . The county is named for U.S. President Thomas Jefferson . Originally developed as cotton plantations in the antebellum era , the rural county has struggled with a declining economy and reduced population since the mechanization of agriculture and urbanization of other areas . In 2018 its estimated population of 7,106 was roughly one-third of the population peak in 1900 . Within the United States , in 2009 rural Jefferson County had the highest percentage of African-Americans of any county . It was the fourth-poorest county in the nation .",
    "/wiki/Eddiceton,_Mississippi": "Eddiceton is an unincorporated community in Franklin County , Mississippi , United States . The community is located along U.S. Route 84 northeast of Bude . The Eddiceton Bridge , which is listed on the National Register of Historic Places , is located in Eddiceton .",
    "/wiki/Franklin_County,_Mississippi": "Franklin County is a county located in the U.S. state of Mississippi . As of the 2010 census , the population was 8,118 , making it the fourth-least populous county in Mississippi . Its county seat is Meadville . The county was formed on December 21 , 1809 from portions of Adams County and named for Founding Father Benjamin Franklin . It is bisected by the Homochitto River , which runs diagonally through the county from northeast to southwest .",
    "/wiki/Enterprise,_Clarke_County,_Mississippi": "Enterprise is a town in Clarke County , Mississippi , United States . The population was 526 at the 2010 census .",
    "/wiki/Clarke_County,_Mississippi": "Clarke County is a county located in the U.S. state of Mississippi . As of the 2010 census , the population was 16,732 . Its county seat is Quitman . Clarke County is named for Joshua G. Clarke , the first Mississippi state chancellor and judge . The county is part of the Meridian , MS Micropolitan Statistical Area .",
    "/wiki/Natchez,_Mississippi": "Natchez ( /\u02c8n\u00e6t\u0283\u026az/ ) is the county seat and only city of Adams County , Mississippi , United States . Natchez has a total population of 15,792 ( as of the 2010 census ) . Located on the Mississippi River across from Vidalia in Concordia Parish , Louisiana , Natchez was a prominent city in the antebellum years , a center of cotton planters and Mississippi River trade . Natchez is some 90 miles ( 140 km ) southwest of Jackson , the capital of Mississippi , which is located near the center of the state . It is approximately 85 miles ( 137 km ) north of Baton Rouge , Louisiana , located on the lower Mississippi River . Natchez is the 25th-largest city in the state . The city was named for the Natchez tribe of Native Americans , who with their ancestors , inhabited much of the area from the 8th century AD through the French colonial period .",
    "/wiki/Adams_County,_Mississippi": "Adams County is a county located in the U.S. state of Mississippi . As of the 2010 census , the population was 32,297 . The county seat is Natchez . The county is the first to have been organized in the former Mississippi Territory . It is named for the second President of the United States , John Adams , who held that office when the county was organized in 1799 . Adams County is part of the Natchez micropolitan area which consists of Adams County , Mississippi and Concordia Parish , Louisiana .",
    "/wiki/Gatesville_Bridge": "The Gatesville Bridge spans the Pearl River between Copiah County , Mississippi and Simpson County , Mississippi . It was listed on the National Register of Historic Places in 1988 . It brings a county road across the river , east of Gatesville , Mississippi . It has a Pennsylvania truss span and a Warren pony truss span . The bridge was built by the Converse Bridge Co. in 1908 .",
    "/wiki/Pearl,_Mississippi": "Pearl is a city in Rankin County , Mississippi located on the east side of the Pearl River from the state capital of Jackson . The population was 25,092 at the 2010 census . It is part of the Jackson Metropolitan Statistical Area . Today , Pearl is a growing community ; it is the 13th largest city in the state and the largest city in Rankin County .",
    "/wiki/Simpson_County,_Mississippi": "Simpson County is a county located in the U.S. state of Mississippi . Its western border is formed by the Pearl River , an important transportation route in the 19th century . As of the 2010 census , the population was 27,503 . The county seat is Mendenhall . The county is named for judge Josiah Simpson . Simpson County is part of the Jackson , MS Metropolitan Statistical Area . Spencer Myrick , a politician who has served in both houses of the Louisiana State Legislature , and his brother , Bill , a country music figure in Odessa , Texas , were born in Simpson County . They were reared in West Carroll Parish in northeastern Louisiana .",
    "/wiki/Hazlehurst,_Mississippi": "Hazlehurst is a city in and the county seat of Copiah County , Mississippi , United States , located about 30 miles ( 48 km ) south of the state capital Jackson along Interstate 55 . The population was 4,009 at the 2010 census . It is part of the Jackson Metropolitan Statistical Area . Its economy is based on agriculture , particularly tomatoes and cabbage .",
    "/wiki/Greenwood,_Mississippi": "Greenwood is a city in and the county seat of Leflore County , Mississippi , located at the eastern edge of the Mississippi Delta , approximately 96 miles north of the state capital , Jackson , Mississippi , and 130 miles south of the riverport of Memphis , Tennessee . It was a center of cotton planter culture in the 19th century . The population was 16,087 at the 2010 census . It is the principal city of the Greenwood Micropolitan Statistical Area . Greenwood developed at the confluence of the Tallahatchie and the Yalobusha rivers , which form the Yazoo River . Throughout the 1960s , Greenwood was the site of major protests and conflicts as African Americans worked to achieve racial integration , voter registration and access during the civil rights movement .",
    "/wiki/Leflore_County,_Mississippi": "Leflore County is a county located in the U.S. state of Mississippi . As of the 2010 census , the population was 32,317 . The county seat is Greenwood . The county is named for Choctaw leader Greenwood LeFlore , who signed a treaty to cede his people 's land to the United States in exchange for land in Indian Territory . LeFlore stayed in Mississippi , settling on land reserved for him in Tallahatchie County . Leflore County is part of the Greenwood , MS Micropolitan Statistical Area . It is located in the Mississippi Delta region , with its southern border formed by the Yazoo River . Its riverfront lands were developed before the Civil War as cotton plantations . More inland areas were developed in the later 19th century . Leflore County , which is still largely rural , is noted for having the highest level of child poverty of any county in the United States . Mechanization of agriculture reduced jobs available for many workers in the 20th century , and there are few opportunities . The population has declined dramatically since its peak in 1930 as people continue to leave for opportunities elsewhere .",
    "/wiki/Charleston,_Mississippi": "Charleston is a city in north central Mississippi and one of the two county seats of Tallahatchie County , which is located on both sides of the Tallahatchie River . This city is located east of the river and its population was 2,193 at the 2010 census .",
    "/wiki/Tallahatchie_County,_Mississippi": "Tallahatchie County is a county in the U.S. state of Mississippi . At the 2010 census , the population was 15,378 . Its county seats are Charleston and Sumner . Tallahatchie County is located in the Mississippi Delta region , divided by the Tallahatchie River which runs from north to south through the county before joining what becomes the Yazoo River in LeFlore County ."
  }
}