{
  "National_Register_of_Historic_Places_listings_in_Anderson_County,_Tennessee_0": {
    "/wiki/Museum_of_Appalachia": "The Museum of Appalachia , located in Norris , Tennessee , 20 miles ( 32 km ) north of Knoxville , is a living history museum that interprets the pioneer and early 20th-century period of the Southern Appalachian region of the United States . Recently named an Affiliate of the Smithsonian Institution , the museum is a collection of more than 30 historic buildings rescued from neglect and decay and gathered onto 63 acres ( 250,000 m2 ) of picturesque pastures and fields . The museum also preserves and displays thousands of authentic relics , maintains one of the nation 's largest folk art collections , and hosts performances of traditional Appalachian music and annual demonstrations by hundreds of regional craftsmen . The museum was established in the 1960s by John Rice Irwin , an East Tennessee educator and businessman , who has followed the basic philosophy of preserving not only structures and artifacts relevant to the region 's history , but also preserving each item 's individual history - who owned it , when and how it was created or obtained , and how it was used . These oral histories and recollections are housed , along with thousands of photographs , in the museum 's archives . Starting from a single log structure , the museum has grown over four decades to include buildings such as the National Register of Historic Places-listed Arnwine Cabin , a rare Appalachian cantilever barn , and a cabin once inhabited by the parents of author Mark Twain . Relics on display include items owned by several notable or colorful Appalachian natives and thousands of tools detailing all aspects of rural life in Southern Appalachia . The museum 's grounds mimic a working pioneer Appalachian farm , with gardens growing typical crops and animals such as goats , chickens , turkeys , and peacocks roaming the grounds freely . What better way is there to know a people , Irwin asked , than to study the everyday things they made , used , mended , and cherished . . . And cared for with loving hands .",
    "/wiki/Tennessee_State_Route_61": "State Route 61 ( SR 61 ) is a west-to-east highway in the U.S. state of Tennessee that is 81.67-mile-long ( 131.44 km ) . State Route 61 begins in Roane County , and it ends in Grainger County .",
    "/wiki/Norris,_Tennessee": "Norris is a city in Anderson County , Tennessee , United States . Its population was 1,491 at the 2010 census . It is included in the Knoxville , Tennessee Metropolitan Statistical Area . Norris was built as a model planned community by the Tennessee Valley Authority ( TVA ) in 1933 to house workers building Norris Dam on the Clinch River . It is named in honor of Nebraska Senator George W. Norris , a long-term supporter of the TVA .",
    "/wiki/Oak_Ridge_gatehouses": "The three Oak Ridge gatehouses , also known as checking stations , guard houses , or guard shacks , are security checkpoints in Oak Ridge , Tennessee , built c. 1948-1949 to control access to the Atomic Energy Commission ( AEC ) production and research facilities in Oak Ridge . These are individually listed on the U.S. National Register of Historic Places as Bear Creek Road Checking Station , Bethel Valley Road Checking Station and Oak Ridge Turnpike Checking Station .",
    "/wiki/Oak_Ridge,_Tennessee": "Oak Ridge is a suburban city in Anderson and Roane counties in the eastern part of the U.S. state of Tennessee , about 25 miles ( 40 km ) west of Knoxville . Oak Ridge 's population was 29,330 at the 2010 census . It is part of the Knoxville Metropolitan Area . Oak Ridge 's nicknames include the Atomic City , the Secret City , the Ridge and the City Behind the Fence . Oak Ridge was established in 1942 as a production site for the Manhattan Project - the massive American , British , and Canadian operation that developed the atomic bomb . As it is still the site of Oak Ridge National Laboratory and Y-12 National Security Complex , scientific development still plays a crucial role in the city 's economy and culture in general .",
    "/wiki/Luther_Brannon_House": "The Luther Brannon House is a stone bungalow structure at 151 Oak Ridge Turnpike in Oak Ridge , Tennessee , United States , where it is one of the few buildings remaining from before World War II . The house was built in 1941 by Owen Hackworth and just months later was acquired by the U.S. Army for the Manhattan Project . It was one of about 180 existing structures that were spared from demolition after the area was acquired for Manhattan Project production activities . The house is believed to have been used as headquarters for local project operations and living quarters for General Leslie Groves until the Army completed construction of new administration buildings . After the war , when most other remaining pre-war structures in Oak Ridge were torn down , the house was left standing . As of 1991 , it was one of only three pre-World War II houses remaining in Oak Ridge , the others being Freels Cabin and the J . B. Jones House . It is listed on the National Register of Historic Places due to its association with General Groves and the early development of Oak Ridge . The house suffered significant damage from a fire in July 2014 .",
    "/wiki/Briceville_Community_Church": "The Briceville Community Church is a nondenominational church located in Briceville , Tennessee , United States . Built in 1887 , the church served as a center of social life and community affairs for the Coal Creek Valley during the valley 's coal mining boom period in the late-19th and early-20th centuries . In 2003 , the church was added to the National Register of Historic Places for its historical role and as an example of rural Gothic Revival architecture . Mining companies identified the coal resources of the Coal Creek Valley in the late 1860s , and by the 1880s a half-dozen mines were in operation throughout the valley . A railroad spur line was completed up the valley to Briceville in 1888 , the year after the completion of the Briceville Community Church . The church was used as a temporary jail for prisoners in the aftermath of the Coal Creek War , a labor uprising that began with the seizure of a convict stockade in Briceville in 1891 . In the following decade , the church hosted memorial services for the Fraterville Mine disaster of 1902 and the Cross Mountain Mine disaster of 1911 , and victims of both disasters are buried in the church 's cemetery . The church housed a Methodist congregation until 1995 , and today is still used for various community events .",
    "/wiki/Tennessee_State_Route_116": "State Route 116 ( SR 116 ) is a 41.97 miles ( 67.54 km ) long north-south state highway in the mountains of East Tennessee . The highway runs from its junction with SR 62 at its southern end between Wartburg and Coalfield in Morgan County , to its northern end at Caryville , Tennessee in Campbell County .",
    "/wiki/Briceville,_Tennessee": "Briceville is an unincorporated community in Anderson County , Tennessee , United States . It is included in the Knoxville , Tennessee Metropolitan Statistical Area . The community is named for railroad tycoon and one-term Democratic U.S . Senator Calvin S. Brice of Ohio , who was instrumental in bringing railroad service to the town . The Briceville zip code , 37710 , which also includes a large remote mountain area west of the community formerly served by the now-closed Devonia post office , had a population of 1,441 as of the 2000 U.S. Census . Briceville 's economy was historically based on coal mining . Briceville played an important role in three major late-19th and early-20th century incidents related to the region 's coal mining activities : the Coal Creek War in 1891 , the Fraterville Mine disaster of 1902 , and the Cross Mountain Mine disaster of 1911 .",
    "/wiki/Cross_Mountain_Mine_disaster": "The Cross Mountain Mine disaster was a coal mine explosion that occurred on December 9 , 1911 near the community of Briceville , Tennessee , in the southeastern United States . In spite of a well-organized rescue effort led by the newly created Bureau of Mines , 84 miners died as a result of the explosion . The likely cause of the explosion was the ignition of dust and gas released by a roof fall . At least 22 of the miners killed in the Cross Mountain Mine disaster were buried in a circular memorial known as the Cross Mountain Miners ' Circle , which is now listed on the National Register of Historic Places .",
    "/wiki/Daugherty_Furniture_Building": "The Daugherty Furniture Building , also known as the J.R. Daugherty Company Building , is a former store located in Clinton , Tennessee . It sold furniture , appliances , hardware , flooring , and other household items , until its closure in 1985 . The building was designed by architect Clem H. Meyers , and was constructed between the years 1938 and 1942 . In 2010 , it was listed on the National Register of Historic Places .",
    "/wiki/Clinton,_Tennessee": "Clinton is a city in Anderson County , Tennessee , United States . Its population was 9,841 at the 2010 census . It is the county seat of Anderson County . Clinton is included in the Knoxville metropolitan area .",
    "/wiki/Edwards-Fowler_House": "The Edwards-Fowler House in Rocky Top , Tennessee was built between 1835 and 1838 on land given to Nicely Ross Edwards and husband Edward C. Edwards by Nicely 's father , James Ross . Ross gave the couple 300 acres ( 120 ha ) and several slaves , who provided labor to build the house , which has been called The Hemlocks after the two massive hemlock trees that grow in front of the house . The Edwards family owned the house from 1838 until about 1900 when the Fowler family , originally from Knoxville , Tennessee , bought the house . The house has remained structurally unchanged for over 175 years , making the Edwards Fowler house the oldest and only Federal-style house in Anderson County , Tennessee . The house was constructed of locally quarried limestone and bricks made on the site . Foundations of slave cabins exist behind the house . It was placed on the National Register of Historic Places on May 29 , 1975 .",
    "/wiki/Rocky_Top,_Tennessee": "Rocky Top ( formerly Coal Creek and Lake City ) is a city in Anderson and Campbell counties in the eastern part of the U.S. state of Tennessee , northwest of Knoxville . The population was 1,781 at the 2010 census . Most of the community is in Anderson County and is included in the Knoxville Metropolitan Statistical Area . On June 26 , 2014 , the city officially changed its name from Lake City to Rocky Top , after a last-ditch effort by the copyright owners of the song Rocky Top was denied by a federal court .",
    "/wiki/Coal_Creek_War": "The Coal Creek War was an early 1890s armed labor uprising in the southeastern United States that took place primarily in Anderson County , Tennessee . This labor conflict ignited during 1891 when coal mine owners in the Coal Creek watershed began to remove and replace their company-employed , private coal miners then on the payroll with convict laborers leased out by the Tennessee state prison system . These former wage-earning Coal Creek coal miners repeatedly attacked and burned both state prison stockades and mine properties , all while releasing hundreds of the state convict laborers from their bondage to the mine companies . Many of these same Coal Creek coal miners were also wounded or killed in small-arms skirmishes during the Coal Creek War , along with dozens of Tennessee state militiamen . One historian describes the Coal Creek War as one of the most dramatic and significant episodes in all American labor history . The Coal Creek War was itself part of a greater labor struggle across Tennessee that was launched against the state government 's controversial convict-leasing system , which allowed the state prison system to lease convict labor to mining companies ( and other business enterprises ) with the effect of suppressing employee wages in the open market across the state . The outbreak of this labor conflict touched off a partisan media firestorm between the miners ' supporters and detractors and brought the issue of convict leasing to the public debate . Although the Coal Creek War essentially ended with the arrests of hundreds of former company coal miners during 1892 . The adverse exposure that this state conflict with private labor generated nationwide led to the downfall of Governor John P. Buchanan , and forced the Tennessee General Assembly to reconsider its state convict labor-leasing system . The Tennessee state government later refused to renew its convict labor-lease contracts with private businesses upon the arrival at the 1896 expiration dates , making Tennessee one of the first states within the southern United States to end this controversial practice .",
    "/wiki/Fraterville_Mine_disaster": "The Fraterville Mine disaster was a coal mine explosion that occurred on May 19 , 1902 near the community of Fraterville , in the U.S. state of Tennessee . 216 miners died as a result of the explosion , either from its initial blast or from the after-effects , making it the worst mining disaster in the state 's history . The cause of the explosion , although never fully determined , was likely ignition of methane gas which had built up after leaking from an adjacent unventilated mine . Shortly after the disaster , the bodies of 89 of the 216 miners killed in the explosion were buried in what became known as the Fraterville Miners ' Circle at Leach Cemetery in the nearby town of Coal Creek ( modern Rocky Top ) . In 2005 , this circle was placed on the U.S. National Register of Historic Places .",
    "/wiki/J._B._Jones_House": "The J . B. Jones House in Oak Ridge , Tennessee , United States , is a farmhouse that is listed on the National Register of Historic Places as one of the very small number of pre-Manhattan Project residences remaining in the city . The house is on Old Edgemoor Road near Haw Ridge Park , across the Clinch River from the TVA Bull Run Steam Plant . It is a rectangular frame bungalow structure of one-and-one-half stories , built around 1920 . It has a brick foundation , an asphalt-shingled roof , and weatherboard siding .",
    "/wiki/Green_McAdoo_School": "The Green McAdoo School in Clinton , Tennessee , was the community 's segregated elementary school for African American children until 1965 . The school was completed in 1935 , and designed by architect Frank O. Barber of Knoxville . It is now a museum and is listed on the National Register of Historic Places . The Green McAdoo School deteriorated after its closure , but was reopened as a museum and cultural center in 2006 . Federal grants and local government funding helped to pay for renovations to the building . A set of life-size bronze statues of the Clinton 12 , the 12 African American students who attended Clinton High School in the fall of 1956 when the high school was desegregated under court order , is displayed outside the school 's front entrance . In 2018 , the Green McAdoo Cultural Center became a part of the Tennessee State Museum system .",
    "/wiki/Norris_Dam_State_Park": "Norris Dam State Park is a state park in Anderson County and Campbell County , Tennessee , in the southeastern United States . The park is situated along the shores of Norris Lake , an impoundment of the Clinch River created by the completion of Norris Dam in 1936 . The park consists of 4,038 acres ( 16.34 km2 ) managed by the Tennessee Department of Environment and Conservation . The park also administers the Lenoir Museum Complex , which interprets the area 's aboriginal , pioneer , and early 20th-century history . Norris Dam was the pilot project of the Tennessee Valley Authority , a Great Depression-era entity created by the United States government in 1933 to control flooding and bring electricity and economic development to the Tennessee Valley . The construction and administration of the dam and reservoir would serve as a model for over two dozen other TVA dams built throughout the Tennessee Valley in subsequent decades . Along with Norris Dam State Park , there are several protected entities along Norris Lake 's shores , including Big Ridge State Park , Chuck Swan State Forest , Cove Creek Wildlife Management Area , and River Bluff Small Wild Area . Norris Dam State Park was named for Nebraska senator George William Norris ( 1861-1944 ) , who lobbied intensively for the creation of the Tennessee Valley Authority in the early 1930s .",
    "/wiki/U.S._Route_441": "U.S. Route 441 ( US 441 ) is a 939-mile-long ( 1,511 km ) auxiliary route of U.S. Route 41 . It extends from US 41 in Miami , Florida to US 25W in Rocky Top , Tennessee . Between its termini , US 441 travels through the states of Florida , Georgia , North Carolina , and Tennessee . The highway acts as a connector between several major urban areas , including Miami , Orlando , Ocala , Gainesville , Athens , and Knoxville . It also crosses the Great Smoky Mountains National Park , where it meets the southwestern end of the Blue Ridge Parkway , and where no trucks or other commercial traffic are allowed .",
    "/wiki/Norris_Dam": "Norris Dam is a hydroelectric and flood control structure located on the Clinch River in Anderson County and Campbell County , Tennessee , United States . Its construction in the mid-1930s was the first major project for the Tennessee Valley Authority , which had been created in 1933 to bring economic development to the region and control the rampant flooding that had long plagued the Tennessee Valley . The dam was named in honor of Nebraska Senator George Norris ( 1861-1944 ) , a longtime supporter of government-owned power in general , and supporter of TVA in particular . The project infrastructure was listed on the National Register of Historic Places in 2016 . Norris Dam is a straight concrete gravity-type dam . The dam is 1860 feet ( 570 m ) long and 265 feet ( 81 m ) high . Norris Lake , the largest reservoir on a tributary of the Tennessee River , has 33,840 acres ( 137 km\u00b2 ) of water surface and 809 miles ( 1302 km ) of shoreline . The dam has a maximum generating capacity of 132,000 kilowatts .",
    "/wiki/Oak_Ridge_Historic_District": "Oak Ridge Historic District ( also known as Clinton Engineer Works Townsite ) is a historic district in Oak Ridge , Tennessee , that is listed on the National Register of Historic Places . Roughly bounded by East Drive , Outer and West Outer Drives , Louisiana Avenue , and Tennessee Avenue , the district comprises much of Oak Ridge 's original Manhattan Project townsite , laid out by Skidmore , Owings and Merrill . Contributing properties in the historic district include United Church , The Chapel on the Hill , the Alexander Inn , and Highland View Elementary School , which houses the Children 's Museum of Oak Ridge . The district was added to the National Register in 1991 .",
    "/wiki/Oliver_Springs,_Tennessee": "Oliver Springs is a town in Anderson , Morgan , and Roane counties in the U.S. state of Tennessee . Its population was 3,231 at the 2010 census . It is included in the Harriman , Tennessee Micropolitan Statistical Area , which consists of Roane County . Oliver Springs is also the hometown of American Idol contestant Janelle Arthur and 2010 Tony Award winner Levi Kreis ."
  },
  "List_of_killings_by_law_enforcement_officers_in_the_United_States,_March_2013_0": {
    "/wiki/Oakland,_California": "Oakland is the largest city and the county seat of Alameda County , California , United States . A major West Coast port city , Oakland is the largest city in the East Bay region of the San Francisco Bay Area , the third largest city overall in the San Francisco Bay Area , the eighth most populated city in California , and the 45th largest city in the United States . With a population of 428,827 as of 2018 [ update ] , it serves as a trade center for the San Francisco Bay Area ; its Port of Oakland is the busiest port in the San Francisco Bay , the entirety of Northern California , and the fifth busiest in the United States of America . An act to incorporate the city was passed on May 4 , 1852 , and incorporation was later approved on March 25 , 1854 , which officially made Oakland a city . Oakland is a charter city . Oakland 's territory covers what was once a mosaic of California coastal terrace prairie , oak woodland , and north coastal scrub . Its land served as a rich resource when its hillside oak and redwood timber were logged to build San Francisco . Oakland 's fertile flatland soils helped it become a prolific agricultural region . In the late 1860s , Oakland was selected as the western terminal of the Transcontinental Railroad . Following the 1906 San Francisco earthquake , many San Francisco citizens moved to Oakland , enlarging the city 's population , increasing its housing stock , and improving its infrastructure . It continued to grow in the 20th century with its busy port , shipyards , and a thriving automobile manufacturing industry .",
    "/wiki/Walpole,_New_Hampshire": "Walpole is a town in Cheshire County , New Hampshire , United States . The population was 3,734 at the 2010 census . The town 's central settlement , where 605 people resided at the 2010 census , is defined as the Walpole census-designated place ( CDP ) , and is east of New Hampshire Route 12 . The town also includes the villages of North Walpole and Drewsville .",
    "/wiki/West_Lafayette,_Ohio": "West Lafayette is a village in Coshocton County , Ohio , United States . The population was 2,321 at the 2010 census .",
    "/wiki/Seattle": "Seattle ( /si\u02c8\u00e6t\u0259l/ ( listen ) see-AT-\u0259l ) is a seaport city on the West Coast of the United States . It is the seat of King County , Washington . With an estimated 744,955 residents as of 2018 [ update ] , Seattle is the largest city in both the state of Washington and the Pacific Northwest region of North America . According to U.S. Census data released in 2018 , the Seattle metropolitan area 's population stands at 3.94 million , and ranks as the 15th largest in the United States . In July 2013 , it was the fastest-growing major city in the United States and remained in the top 5 in May 2015 with an annual growth rate of 2.1% . In July 2016 , Seattle was again the fastest-growing major U.S. city , with a 3.1% annual growth rate . Seattle is the northernmost large city in the United States . The city is situated on an isthmus between Puget Sound ( an inlet of the Pacific Ocean ) and Lake Washington , about 100 miles ( 160 km ) south of the Canada-United States border . A major gateway for trade with Asia , Seattle is the fourth-largest port in North America in terms of container handling as of 2015 [ update ] . The Seattle area was inhabited by Native Americans for at least 4,000 years before the first permanent European settlers . Arthur A. Denny and his group of travelers , subsequently known as the Denny Party , arrived from Illinois via Portland , Oregon , on the schooner Exact at Alki Point on November 13 , 1851 . The settlement was moved to the eastern shore of Elliott Bay and named Seattle in 1852 , in honor of Chief Si'ahl of the local Duwamish and Suquamish tribes .",
    "/wiki/Deatsville,_Alabama": "Deatsville is a town in Elmore County , Alabama , United States . Although Deatsville initially incorporated in 1903 , it lapsed at some point after the 1910 U.S. Census and did not appear again as incorporated until 2000 . As of the 2010 census , the population was 1,154 , up from 340 in 2000 . Holtville High School is located near Deatsville .",
    "/wiki/San_Jose,_California": "San Jose [ A ] ( /\u02ccs\u00e6n ho\u028a\u02c8ze\u026a , -\u02c8se\u026a/ ; Spanish : [ sa\u014b xo\u02c8se ] ; Spanish for Saint Joseph ) , officially the City of San Jos\u00e9 , [ B ] is the economic , cultural and political center of Silicon Valley , and the largest city in Northern California ( both by population and area ) . With an estimated 2018 population of 1,030,119 , it is the third-most populous city in California ( after Los Angeles and San Diego ) and the tenth-most populous in United States . Located in the center of the Santa Clara Valley , on the southern shore of San Francisco Bay , San Jose covers an area of 179.97 square miles ( 466.1 km2 ) . San Jose is the county seat of Santa Clara County , the most affluent county in California and one of the most affluent counties in the United States . San Jose is the main component of the San Jose-Sunnyvale-Santa Clara Metropolitan Statistical Area , with an estimated population of around 2 million residents in 2018 . It is also the most populous city in both the San Francisco Bay Area and the San Jose-San Francisco-Oakland Combined Statistical Area , which contain 7.7 million and 8.7 million people respectively . San Jose is a global city , notable as a center of innovation , for its affluence , Mediterranean climate , and extremely high cost of living . San Jose 's location within the booming high tech industry , as a cultural , political , and economic center has earned the city the nickname Capital of Silicon Valley . San Jose is one of the wealthiest major cities in the United States and the world , and has the third highest GDP per capita in the world ( after Z\u00fcrich , Switzerland and Oslo , Norway ) , according to the Brookings Institution . The San Jose Metropolitan Area has the most millionaires and the most billionaires in the United States per capita . With a median home price of $ 1,085,000 , San Jose has the most expensive housing market in the country and the fifth most expensive housing market in the world , according to the 2017 Demographia International Housing Affordability Survey . Major global tech companies including Cisco Systems , eBay , Adobe Systems , PayPal , Broadcom , Samsung , Acer , Hewlett Packard Enterprise , and Western Digital maintain their headquarters in San Jose , in the center of Silicon Valley .",
    "/wiki/Houston": "Houston ( /\u02c8hju\u02d0st\u0259n/ ( listen ) HEW-st\u0259n ) is the most populous city in the U.S. state of Texas , fourth most populous city in the United States , most populous city in the Southern United States , as well as the sixth most populous in North America , with an estimated 2018 population of 2,325,502 . Located in Southeast Texas near Galveston Bay and the Gulf of Mexico , it is the seat of Harris County and the principal city of the Greater Houston metropolitan area , which is the fifth most populous metropolitan statistical area in the United States and the second most populous in Texas after the Dallas-Fort Worth metroplex , with a population of 6,997,384 in 2018 . Comprising a total area of 637.4 square miles ( 1,651 km2 ) , Houston is the eighth most expansive city in the United States ( including consolidated city-counties ) . It is the largest city in the United States by total area , whose government is not consolidated with that of a county , parish or borough . Though primarily in Harris County , small portions of the city extend into Fort Bend and Montgomery counties , bordering other principal communities of Greater Houston such as Sugar Land and The Woodlands . The city of Houston was founded by land investors on August 30 , 1836 , at the confluence of Buffalo Bayou and White Oak Bayou ( a point now known as Allen 's Landing ) and incorporated as a city on June 5 , 1837 . The city is named after former General Sam Houston , who was president of the Republic of Texas and had won Texas ' independence from Mexico at the Battle of San Jacinto 25 miles ( 40 km ) east of Allen 's Landing . After briefly serving as the capital of the Texas Republic in the late 1830s , Houston grew steadily into a regional trading center for the remainder of the 19th century . The arrival of the 20th century saw a convergence of economic factors which fueled rapid growth in Houston , including a burgeoning port and railroad industry , the decline of Galveston as Texas ' primary port following a devastating 1900 hurricane , the subsequent construction of the Houston Ship Channel , and the Texas oil boom . In the mid-20th century , Houston 's economy diversified as it became home to the Texas Medical Center - the world 's largest concentration of healthcare and research institutions - and NASA 's Johnson Space Center , where the Mission Control Center is located . Houston 's economy since the late 19th century has a broad industrial base in energy , manufacturing , aeronautics , and transportation . Leading in healthcare sectors and building oilfield equipment , Houston has the second most Fortune 500 headquarters of any U.S. municipality within its city limits ( after New York City ) .",
    "/wiki/Solon,_Ohio": "Solon ( /\u02c8so\u028al\u0259n/ SOH-l\u0259n ) is a city in Cuyahoga County , Ohio , United States , and is a suburb of Cleveland . It is part of Northeast Ohio 's combined Cleveland-Akron-Canton metropolitan area , the 15th-largest Combined Statistical Area in the country . According to the 2010 census , the city population was at 23,348 . The city has been recognized by Money in its list of Best Places to Live multiple times , placing 23rd in 2009 , 3rd in 2011 , and 10th in 2015 . The city has been rated as one of the safest in Ohio , has a highly rated public school system , and was ranked as one of the best places to raise kids by Bloomberg Businessweek . Solon has a strong economy and in 2013 and 2014 was granted a Google eCity award , recognizing it as the city with the strongest online business community in Ohio .",
    "/wiki/Martinsburg,_West_Virginia": "Martinsburg is a city in and the county seat of Berkeley County , West Virginia , United States , in the tip of the state 's Eastern Panhandle region in the lower Shenandoah Valley . Its population was 17,465 in the 2018 census estimate , making it the largest city in the Eastern Panhandle and the eighth-largest municipality in the state . Martinsburg is part of the Hagerstown-Martinsburg , MD-WV Metropolitan Statistical Area .",
    "/wiki/Willimantic,_Connecticut": "Willimantic is a census-designated place , former city and borough . It is located in the town of Windham in Windham County , Connecticut . Known as Thread City for the American Thread Company 's mills along the Willimantic River , it was a center of the textile industry in the 19th century . Originally incorporated as a city in 1893 , it entered a period of decline after the Second World War , culminating in the mill 's closure and the city 's reabsorption into the town of Windham in the 1980s . Heroin use , present since the 1960s , became a major public health problem in the early 2000s , declining somewhat by the 2010s . Though the city was a major rail hub , an Interstate Highway has never passed within ten miles , despite early plans to connect it . Willimantic was populated by a series of ethnic groups migrating to the city to find work at the mills , originally Western European and French Canadian immigrants , later Eastern Europeans and Puerto Ricans . Architecturally , it is known for its collection of Victorian-era houses and other buildings in the hill section , the Romanesque Revival town hall and two crossings of the Willimantic River : a footbridge and the Frog Bridge . It is home to Eastern Connecticut State University and the Windham Textile and History Museum . As of 2010 , Willimantic had a population of 17,737 people .",
    "/wiki/Memphis,_Tennessee": "Memphis is a city located along the Mississippi River in southwestern Shelby County , Tennessee , United States . The 2018 city population was 650,618 , making Memphis the largest city on the Mississippi River , the second most populous city in Tennessee , as well as the 26th largest city in the United States . Greater Memphis is the 42nd largest metropolitan area in the United States , with a population of 1,348,260 in 2017 . The city is the anchor of West Tennessee and the greater Mid-South region , which includes portions of neighboring Arkansas and Mississippi . Memphis is the seat of Shelby County , the most populous county in Tennessee . As one of the more historic and culturally significant cities of the southern United States , the city features a wide variety of landscapes and distinct neighborhoods . The first European explorer to visit the area of present-day Memphis was Spanish conquistador Hernando de Soto in 1541 with his expedition into the New World . The high Chickasaw Bluffs protecting the location from the waters of the Mississippi would then be contested between the Spanish , French , and the English as Memphis took shape . Modern Memphis was founded in 1819 by three prominent Americans : John Overton , James Winchester , and future president Andrew Jackson . Memphis grew into one of the largest cities of the Antebellum South as a market for agricultural goods , natural resources like lumber , and the American slave trade . After the American Civil War and the end of slavery , the city experienced even faster growth into the 20th century as it became among the largest world markets for cotton and lumber . Home to Tennessee 's largest African-American population , Memphis played a prominent role in the American civil rights movement and was the site of Dr. Martin Luther King , Jr. 's 1968 assassination .",
    "/wiki/North_Liberty,_Iowa": "North Liberty is a city in Johnson County , Iowa , United States . It is a suburb of Iowa City and part of the Iowa City Metropolitan Statistical Area . As of the 2010 census , the city population was 13,374 . From 2000 to 2010 , North Liberty was the second fastest-growing city in Iowa . A 2017 LendEDU poll named North Liberty the 9th most educated city in the United States and the most educated city in the Midwest .",
    "/wiki/Warner_Robins,_Georgia": "Warner Robins ( typically /\u02c8w\u0251\u02d0rn\u025c\u02d0r \u02c8r\u0251\u02d0b\u0259nz/ ) is a city in the U.S. state of Georgia , located in Houston and Peach counties in the central part of the state . It is currently Georgia 's tenth-largest incorporated city , with an estimated population of 75,797 in 2018 . The city is the main component of the Warner Robins Metropolitan Statistical Area , including the entirety of Houston , Peach , and Pulaski counties , which had an estimated population of 193,835 in 2018 ; it , in turn , is a component of a larger trade area , the Macon-Warner Robins-Fort Valley Combined Statistical Area , with an estimated 2018 population of 423,572 . Robins Air Force Base , a major U.S. Air Force maintenance and logistics complex founded as Warner Robins Air Depot in 1942 , is located just east of the city limits ; the base 's expansion and the suburbanization of nearby Macon have led to the city 's rapid growth in the post-World War II era .",
    "/wiki/St._Petersburg,_Florida": "St. Petersburg is a city in Pinellas County , Florida , United States . As of the 2018 census estimate , the population was 265,098 , making it the fifth-most populous city in Florida and the largest in the state that is not a county seat ( the city of Clearwater is the seat of Pinellas County ) . St. Petersburg is the fifth largest city in Florida and the second-largest city in the Tampa Bay Area , after Tampa . Together with Clearwater , these cities comprise the Tampa-St. Petersburg-Clearwater Metropolitan Statistical Area , the second-largest in Florida with a population of around 2.8 million . St. Petersburg is located on the Pinellas peninsula between Tampa Bay and the Gulf of Mexico , and is connected to mainland Florida to the north . St. Petersburg was founded in 1888 by John C. Williams , who purchased the land , and by Peter Demens , who brought the railroad industry into the area . As a part of a coin toss bet , the winner , Peter Demens , named the land after Saint Petersburg , Russia , while Williams opted to name the first hotel built which was named the Detroit Hotel , both named after their home towns respectively . St. Petersburg was incorporated as a town on February 29 , 1892 and re-incorporated as a city on June 6 , 1903 . The city is often referred to by locals as St. Pete . Neighboring St. Pete Beach formally shortened its name in 1994 after a vote by its residents . St. Petersburg is governed by a mayor and city council . With an average of some 361 days of sunshine each year , and a Guinness World Record for logging the most consecutive days of sunshine ( 768 days between 1967 and 1969 ) , it is nicknamed The Sunshine City .",
    "/wiki/Middlefield,_Ohio": "Middlefield is a village in Middlefield Township , Geauga County , Ohio , United States . The population was 2,690 at the 2010 census . Middlefield is known for being the center of the world 's fourth largest Amish settlement , and its significant manufacturing base , which includes Gold Key Processing , Inc. , Duncan Toys and KraftMaid . Because of its central location , home of the areas ' public schools and prominent business and retail presence , Middlefield village is considered the hub community for Huntsburg , Parkman , and Middlefield Townships , home to approximately 15,000 total residents .",
    "/wiki/Dallas": "Dallas ( /\u02c8d\u00e6l\u0259s/ ) is a city in the U.S. state of Texas and the largest city and seat of Dallas County , with portions extending into Collin , Denton , Kaufman and Rockwall counties . With an estimated 2018 population of 1,345,076 , it is the ninth most-populous city in the U.S. and third in Texas after Houston and San Antonio . Located in North Texas , the city of Dallas is the main core of the largest metropolitan area in the Southern United States and the largest inland metropolitan area in the U.S. that lacks any navigable link to the sea . [ a ] It is the most populous city in the Dallas-Fort Worth metroplex , the fourth-largest metropolitan area in the country at 7.5 million people . Dallas and nearby Fort Worth were initially developed due to the construction of major railroad lines through the area allowing access to cotton , cattle and later oil in North and East Texas . The construction of the Interstate Highway System reinforced Dallas 's prominence as a transportation hub , with four major interstate highways converging in the city and a fifth interstate loop around it . Dallas then developed as a strong industrial and financial center and a major inland port , due to the convergence of major railroad lines , interstate highways and the construction of Dallas/Fort Worth International Airport , one of the largest and busiest airports in the world . In addition , Dallas has DART ( Dallas Area Rapid Transit ) with different colored train lines that transport throughout the metroplex . Dominant sectors of its diverse economy include defense , financial services , information technology , telecommunications , and transportation . Dallas is home to 9 Fortune 500 companies within the city limits . The Dallas-Fort Worth metroplex hosts additional Fortune 500 companies , including American Airlines ( Fort Worth ) and ExxonMobil ( Irving ) . Over 41 colleges and universities are located within its metropolitan area , which is the most of any metropolitan area in Texas .",
    "/wiki/Brooklyn": "Brooklyn ( /\u02c8br\u028akl\u026an/ ) is a borough of New York City , coterminous with Kings County , located in the U.S. state of New York , the most populous county in the state , and the second-most densely populated county in the United States . It is New York City 's most populous borough , with an estimated 2,504,700 residents in 2010 . Named after the Dutch village of Breukelen , it shares a land border with the borough of Queens at the western end of Long Island . Brooklyn has several bridge and tunnel connections to the borough of Manhattan across the East River , and the Verrazzano-Narrows Bridge connects it with Staten Island . With a land area of 70.82 square miles ( 183.4 km2 ) and water area of 26 square miles ( 67 km2 ) , Kings County is New York state 's fourth-smallest county by land area and third-smallest by total area , though it is the second-largest among the city 's five boroughs . If each borough were ranked as a city , Brooklyn would rank as the third-most populous in the U.S. , after Los Angeles and Chicago . Brooklyn was an independent incorporated city ( and previously an authorized village and town within the provisions of the New York State Constitution ) until January 1 , 1898 , when , after a long political campaign and public relations battle during the 1890s , according to the new Municipal Charter of Greater New York , Brooklyn was consolidated with the other cities , boroughs , and counties to form the modern City of New York , surrounding the Upper New York Bay with five constituent boroughs . The borough continues , however , to maintain a distinct culture . Many Brooklyn neighborhoods are ethnic enclaves . Brooklyn 's official motto , displayed on the Borough seal and flag , is Eendraght Maeckt Maght , which translates from early modern Dutch as Unity makes strength . In the first decades of the 21st century , Brooklyn has experienced a renaissance as an avant-garde destination for hipsters , with concomitant gentrification , dramatic house price increases and a decrease in housing affordability . Since the 2010s , Brooklyn has evolved into a thriving hub of entrepreneurship , high technology startup firms , postmodern art and design .",
    "/wiki/Navarre,_Florida": "Navarre is a census-designated place and unincorporated community in Santa Rosa County in the northwest Florida Panhandle . It is a major bedroom community for mostly U.S. military personnel , federal civil servants , local population , retirees and defense contractors . Due to Navarre Beach and the four miles of beach front on the Gulf of Mexico thereof , as well as several miles of beaches within the Navarre Beach Marine Park and the Gulf Islands National Seashore , it has a small , but rapidly growing community of nature enthusiasts and tourists . Navarre has quickly grown from being a sleepy town of a little over 1,500 in the 1970s to a town with a population of 42,300 , as of a 2014 [ update ] estimate . Navarre is about 25 miles ( 40 km ) east of Pensacola and about 15 miles ( 24 km ) west of Fort Walton Beach . The community is roughly centered on the junction of U.S. Route 98 and State Road 87 . It is part of the Pensacola-Ferry Pass-Brent Metropolitan Statistical Area ( more commonly referred to as the Pensacola Metro Area ) , and is the second largest community in the metropolitan area , according to a 2014 study . Navarre is also part of the Fort Walton Beach-Navarre-Wright Urbanized Area . It is known for the natural environment , swimming , picnic spots , and the Navarre Beach Marine Park .",
    "/wiki/Boca_Raton,_Florida": "Boca Raton ( /r\u0259\u02c8to\u028an/ r\u0259-TOHN ) , often referred to as simply Boca , is the southernmost city in Palm Beach County , Florida , United States . It was first incorporated on August 2 , 1924 as Bocaratone , and then incorporated as Boca Raton in 1925 . It is one of the wealthiest communities in South Florida . The 2018 population estimated by the U.S. Census Bureau was 99,244 . However , approximately 200,000 people with a Boca Raton postal address live outside its municipal boundaries , in newer developments such as West Boca Raton . As a business center , the city experiences significant daytime population increases . Boca Raton is 43 miles ( 69 km ) north of Miami and is a principal city of the Miami metropolitan area , which had a population of 6,012,331 people as of 2015 . Boca Raton is home to the main campus of Florida Atlantic University and the corporate headquarters of Office Depot , ADT , Cancer Treatment Centers of America , and Bluegreen Corporation . It is also home to the Evert Tennis Academy , owned by former professional tennis player Chris Evert . Boca Town Center , an upscale shopping center in central Boca Raton , is the largest indoor mall in Palm Beach County . The downtown is centered around Mizner Park . Many buildings in the area have a Mediterranean Revival or Spanish Colonial Revival architectural theme , initially inspired by Addison Mizner , a resort architect who heavily influenced the city 's early development .",
    "/wiki/El_Paso,_Texas": "El Paso ( /\u025bl \u02c8p\u00e6so\u028a/ ; from Spanish , the pass ) is a city and the county seat of El Paso County , Texas , United States , in the far western part of the state . The 2018 population estimate for the city from the U.S. Census was 682,669 , making it the 22nd largest city in the United States . Its metropolitan statistical area ( MSA ) covers all of El Paso and Hudspeth counties in Texas , and has a population of 840,758 . El Paso stands on the Rio Grande across the Mexico-United States border from Ciudad Ju\u00e1rez , the most populous city in the Mexican state of Chihuahua with 1.4 million people . Las Cruces , in the neighboring U.S. state of New Mexico , has a population of 215,579 . On the U.S. side , the El Paso metropolitan area forms part of the larger El Paso-Las Cruces CSA , with a population of 1,060,397 . Bi-nationally , these three cities form a combined international metropolitan area sometimes referred to as the Paso del Norte or the Borderplex . The region of 2.5 million people constitutes the largest bilingual and binational work force in the Western Hemisphere . The city is home to three publicly traded companies , and former Western Refining , now Andeavor . as well as home to the Medical Center of the Americas , the only medical research and care provider complex in West Texas and Southern New Mexico , and the University of Texas at El Paso , the city 's primary university . The city hosts the annual Sun Bowl college football post-season game , the second oldest bowl game in the country . El Paso has a strong federal and military presence ."
  }
}