{
  "List_of_Major_League_Baseball_career_games_played_as_a_first_baseman_leaders_2": {
    "/wiki/Dan_Brouthers": "Dennis Joseph Dan Brouthers ( /\u02c8bru\u02d0\u03b8\u0259rz/ ; May 8 , 1858 - August 2 , 1932 ) was an American first baseman in Major League Baseball whose career spanned the period from 1879 to 1896 , with a brief return in 1904 . Nicknamed Big Dan for his size , he was 6 feet 2 inches ( 1.88 m ) and weighed 207 pounds ( 94 kg ) , which was large by 19th-century standards . Recognized as the first great slugger in baseball history , and among the greatest sluggers of his era , he held the record for career home runs from 1887 to 1889 , with his final total of 106 tying for the fourth most of the 19th century . His career slugging percentage of .519 remained the Major League record for a player with at least 4,000 at bats until Ty Cobb edged ahead of him in 1922 . At the time of his initial retirement , he also ranked second in career triples ( 205 ) , and third in runs batted in ( 1,296 ) and hits . A dominant hitter during the prime of his career , he led ( or was in the top of ) the league in most offensive categories , including batting average , runs scored , runs batted in ( RBI ) , on-base percentage and hits . He led the league in batting average five times , the most by a 19th-century player , and his career .342 batting average still ranks ninth all-time . Brouthers is one of only 29 players in baseball history to date who have appeared in Major League games in four decades . He was also an active players ' union member , and was elected vice president of the Brotherhood of Professional Base Ball Players . Brouthers was elected to the Baseball Hall of Fame in 1945 by the Veterans Committee .",
    "/wiki/Don_Mattingly": "Donald Arthur Mattingly ( born April 20 , 1961 ) is an American former professional baseball first baseman , coach , and current manager for the Miami Marlins of Major League Baseball ( MLB ) . Nicknamed The Hit Man and Donnie Baseball , he spent his entire 14-year career playing with the New York Yankees and later managed the Los Angeles Dodgers for five years . Mattingly graduated from Reitz Memorial High School in Evansville , Indiana , and was selected by the Yankees in the amateur draft . Debuting with the Yankees in 1982 after three seasons in minor league baseball , Mattingly emerged as the Yankees ' starting first baseman after a successful rookie season in 1983 . Mattingly was named to the American League ( AL ) All-Star team six times . He won nine Gold Glove Awards ( an American League record for a first baseman ) , three Silver Slugger Awards , the 1984 AL batting title , and was the 1985 AL Most Valuable Player . Mattingly served as captain of the Yankees from 1991 through 1995 , when he retired as a player . The Yankees later retired Mattingly 's uniform number , 23 . Mattingly is the only Yankee to have his number retired without having won a World Series with the team . Returning to the Yankees as a coach in 2004 for manager Joe Torre , he followed Torre to the Dodgers in 2008 , and succeeded him as the Dodgers ' manager in 2011 . The Dodgers and Mattingly mutually parted ways after the 2015 season , and he became manager of the Miami Marlins .",
    "/wiki/Harry_Davis_(1900s_first_baseman)": "Harry H. Davis ( July 19 , 1873 - August 11 , 1947 ) was a Major League Baseball first baseman who played for the New York Giants ( 1895-96 ) , Pittsburgh Pirates ( 1896-98 ) , Louisville Colonels ( 1898 ) , Washington Senators ( 1898-99 ) , Philadelphia Athletics ( 1901-11 , 1913-17 ) , and Cleveland Naps ( 1912 ) .",
    "/wiki/Kent_Hrbek": "Kent Alan Hrbek ( ; born May 21 , 1960 in Minneapolis , Minnesota ) , nicknamed Herbie , is a former American Major League Baseball first baseman . He played his entire 14-year baseball career for the Minnesota Twins ( 1981-1994 ) . Hrbek batted left-handed and threw right-handed . He hit the first home run in the Hubert H. Humphrey Metrodome on April 3 , 1982 , in an exhibition game against the Phillies . Fans knew Hrbek as an outstanding defensive player , perennial slugger , and charismatic hometown favorite . Former Twins pitcher Jim Kaat considered Hrbek to be the best defensive first baseman he had ever seen . Hrbek attended Kennedy High School in Bloomington , Minnesota .",
    "/wiki/Bill_Terry": "William Harold Terry ( October 30 , 1898 - January 9 , 1989 ) was a Major League Baseball first baseman and manager . He stood 6 feet 1 inch ( 1.85 m ) tall and weighed 200 pounds ( 91 kg ) . Terry was inducted into the Baseball Hall of Fame in 1954 . In 1999 , he ranked number 59 on The Sporting News list of the 100 Greatest Baseball Players , and was a nominee for the Major League Baseball All-Century Team . The Giants retired Terry 's uniform number 3 in 1984 ; it is posted on the facade of the upper deck in the left field corner of Oracle Park . Nicknamed Memphis Bill , he is most remembered for being the last National League player to hit .400 , a feat he accomplished by batting .401 in 1930 .",
    "/wiki/Lu_Blue": "Luzerne Atwell Lu Blue ( March 5 , 1897 - July 28 , 1958 ) was an American professional baseball first baseman . He played in Major League Baseball ( MLB ) for the Detroit Tigers , St. Louis Browns , Chicago White Sox , and Brooklyn Dodgers between 1921 and 1933 . A native of Washington , D.C. , Blue played professional baseball , principally as a first baseman , for 18 years from 1916 to 1933 , including 13 years in Major League Baseball for the Detroit Tigers from 1921 to 1932 , the St. Louis Browns from 1928 to 1930 , the Chicago White Sox in 1931 and 1932 , and the Brooklyn Dodgers for one game in 1933 . Blue was a switch-hitter who had a career on-base percentage of .402 and was one of the best fielding first basemen of his era . He interrupted his baseball career for military service in World War I and was later honored with burial at Arlington National Cemetery . In 2001 , baseball historian Bill James ranked Blue as the 77th best first baseman of all time .",
    "/wiki/Bill_Buckner": "William Joseph Buckner ( December 14 , 1949 - May 27 , 2019 ) was an American professional baseball first baseman and left fielder , who played in Major League Baseball ( MLB ) for five teams from 1969 through 1990 , including the Chicago Cubs , the Los Angeles Dodgers , and Boston Red Sox . Beginning his career as an outfielder with the Dodgers , he helped the team to the 1974 pennant with a .314 batting average , but a serious ankle injury the next year eventually led to his trade to the Cubs prior to the 1977 season . The Cubs moved Buckner to first base , and he won the National League ( NL ) batting title with a .324 mark in 1980 . He was named to the All-Star team in 1981 as he led the major leagues in doubles . After setting a major league record for first basemen with 159 assists in 1982 , Buckner surpassed that total with 161 in 1983 while again leading the NL in doubles , before feuds with team management over a loss of playing time resulted in his being traded to the Red Sox in the middle of the 1984 season . During the 1985 season , Buckner emerged as the Red Sox stalwart first baseman , starting all 162 games and shattering his own big league record with 184 assists . Toward the end of the 1986 season , he was hobbled by leg injuries and struggled throughout the playoffs . Buckners tenth-inning error in Game 6 of the 1986 World Series against the New York Mets remains one of the most memorable plays in baseball history ; it was long considered part of a curse on the Red Sox that kept them from winning the World Series , and led to years of fan anger and public mockery that Buckner handled graciously before being embraced by Red Sox fans again after their 2004 World Series victory . After spending his last few seasons with the California Angels , Kansas City Royals , and a second stint with the Red Sox , Buckner became the 21st player in MLB history to play in four decades , ending his career with 2,715 hits and 498 doubles , having batted over .300 seven times with three seasons of 100 runs batted in ( RBI ) . Never striking out 40 times in a season , he finished with the fifth-lowest strikeout rate among players whose careers began after 1950 . Buckner led his league in assists four times , with his 1985 mark remaining the American League ( AL ) record , and retired with the fourth-most assists by a first baseman ( 1,351 ) in major league history , despite not playing the position regularly until he was 27 years old . After retiring as a player , he became a real estate developer in Idaho , and later coached a number of Minor League Baseball ( MiLB ) teams before leaving baseball in 2014 .",
    "/wiki/Fred_Merkle": "Carl Frederick Rudolf Merkle ( December 20 , 1888 - March 2 , 1956 ) , also documented as Frederick Charles Merkle , and nicknamed Bonehead , was an American first baseman in Major League Baseball from 1907 to 1926 . Although he had a lengthy career , he is best remembered for a controversial base-running mistake he made while still a teenager .",
    "/wiki/George_McQuinn": "George Hartley McQuinn ( May 29 , 1910 - December 24 , 1978 ) was an American professional baseball player . He played as a first baseman in Major League Baseball from 1936 to 1948 , most notably as a member of the only St. Louis Browns team to win an American League pennant in 1944 and , as a member of the world champion 1947 New York Yankees . A seven-time All-Star , he threw and batted left-handed .",
    "/wiki/Lee_May": "Lee Andrew May ( March 23 , 1943 - July 29 , 2017 ) was an American Major League Baseball ( MLB ) first baseman and designated hitter who played 18-seasons for the Cincinnati Reds ( 1965-71 ) , Houston Astros ( 1972-74 ) , Baltimore Orioles ( 1975-80 ) , and Kansas City Royals ( 1981-82 ) . He batted and threw right-handed . He was the older brother of former Chicago White Sox and New York Yankees outfielder Carlos May . May , nicknamed The Big Bopper , hit 20 or more home runs and 80 or more runs batted in ( RBI ) in 11 consecutive seasons . He led the American League ( AL ) in RBI in 1976 . He also made three All-Star Game appearances , including as the starting first baseman for the National League ( NL ) team in 1972 .",
    "/wiki/Joe_Adcock": "Joseph Wilbur Adcock ( October 30 , 1927 - May 3 , 1999 ) was a major league baseball player and manager in the Major and Minor Leagues . He was best known as a first baseman and right-handed slugger with the powerful Milwaukee Braves teams of the 1950s , whose career included numerous home run feats . A sure-handed defensive player , he later retired with the third highest career fielding percentage by a first baseman ( .994 ) . His nickname Billy Joe was modeled after Vanderbilt University basketball star Billy Joe Adcock and was popularized by Vin Scully . Born in Coushatta , the seat of Red River Parish in northwestern Louisiana , Adcock attended Louisiana State University in Baton Rouge , where he played on the baseball team ; before attending college he had never played a game of baseball in his life . He was signed by the Cincinnati Reds , however Ted Kluszewski had firm hold on the team 's first base slot . Adcock played in left field from 1950 to 1952 , but was extremely unhappy , demanding a trade , which he received . His first season with the Milwaukee Braves was capped by a mammoth home run into the center field bleachers at the Polo Grounds on April 29 , 1953 , a feat which had never been done before and would only be accomplished twice more , by Hank Aaron and Lou Brock . On July 31 , 1954 , Adcock accomplished the rare feat of homering four times in a single game , against the Brooklyn Dodgers at Ebbets Field , also hitting a double off the top of the wall to set a record for most total bases in a game ( 18 ) which stood for 48 years , until broken by Shawn Green in . Another notable home run was the blast ending the epic duel between Lew Burdette and Harvey Haddix on May 26 , 1959 , in which Haddix took a perfect game into the 13th inning . Adcock did not get credit for a home run , however , because Aaron - who was on first base - saw F\u00e9lix Mantilla , the runner ahead of him , score the winning run and thought the hit had only been a double and walked back to the dugout , causing Adcock to be called out for passing him on the base paths . ( Eventually , the ruling was that instead of a 3-run home run for a 3-0 Braves victory , Adcock got a double and 1 RBI , and the Braves won 1-0 . )",
    "/wiki/Ted_Kluszewski": "Theodore Bernard Big Klu Kluszewski ( September 10 , 1924 - March 29 , 1988 ) was an American professional baseball player from 1947 through 1961 . He spent most of his 15-year Major League Baseball ( MLB ) career playing for the Cincinnati Reds as a Kluszewski was a National League ( NL ) All-Star for four seasons . He had a .298 lifetime batting average , hitting over .300 seven times . In 1954 , he was the NL Most Valuable Player ( MVP ) runner-up ( he had a .326 batting average , led the NL in home runs ( 49 ) , RBI ( 141 ) , and fielding average ( .996 ) ) . In 1959 , Kluszewski was traded late in the season to the Chicago White Sox from the Pittsburgh Pirates . He batted .297 and did not commit any errors in 31 games for Chicago which helped the Go Go White Sox of the 1950s clinch the American League pennant . In 1962 , he was inducted into the Cincinnati Reds Hall of Fame .",
    "/wiki/Boog_Powell": "John Wesley Boog Powell ( born August 17 , 1941 ) is an American former professional baseball player . He played in Major League Baseball as a first baseman and left fielder from through , most notably as a member of the Baltimore Orioles dynasty that won four American League pennants and two World Series championships between 1966 and 1971 . The four-time All-Star led the American League in 1964 with a .606 slugging percentage and won the American League Most Valuable Player Award in 1970 . He also played for the Cleveland Indians and the Los Angeles Dodgers . In 1979 , Powell was inducted into the Baltimore Orioles Hall of Fame .",
    "/wiki/John_Mayberry": "John Claiborn Mayberry ( born February 18 , 1949 ) is a former Major League Baseball player who was active from 1968 to 1982 for the Houston Astros , Kansas City Royals , Toronto Blue Jays and New York Yankees . He was a two-time All Star .",
    "/wiki/Ryan_Howard": "Ryan James Howard ( born November 19 , 1979 ) , nicknamed The Big Piece , is an American former professional baseball first baseman . Howard spent his entire Major League Baseball ( MLB ) career playing for the Philadelphia Phillies , from 2004 to 2016 . He is known for being the fastest player in baseball history to reach 1,000 RBIs , 100 home runs , and 200 home runs . Howard also holds numerous Phillies franchise records . Howard made his MLB debut in 2004 . He won the National League ( NL ) Rookie of the Year Award in 2005 and the NL Most Valuable Player ( MVP ) Award in 2006 . Howard was a three-time NL All-Star ( 2006 , 2009 , 2010 ) , and won the Silver Slugger Award , Hank Aaron Award , and the NL Championship Series MVP Award in 2009 . Known for his power , Howard is a member of the 50 home run club . He was a two-time NL home run champion ( 2006 , 2008 ) , and became the fastest player to reach both the 100 and 200 home run milestones in MLB history , passing the marks in 2007 and 2009 , respectively . He is also tied with Sammy Sosa for the most National League 140 RBI seasons at 3 and the most National League 130 RBI seasons at 4 . However , Howard is Major League Baseball 's ( ignominious ) all-time record-holder for most lifetime Golden Sombrero awards .",
    "/wiki/Bill_White_(first_baseman)": "William De Kova White ( born January 28 , 1934 ) is a former professional baseball first baseman who played for the New York and San Francisco Giants ( 1956 , 1958 ) , St. Louis Cardinals ( 1959-65 , 1969 ) and Philadelphia Phillies ( 1966-68 ) . In 1989 White was elected President of the National League to replace Bart Giamatti , who succeeded Peter Ueberroth as Commissioner . White served as NL president until he retired in 1994 . White became a full-time sportscaster after his playing career ended in 1969 , and was the play-by-play man and color analyst for New York Yankees television and radio broadcasts for 18 years .",
    "/wiki/Dolph_Camilli": "Adolph Louis Camilli ( April 23 , 1907 - October 21 , 1997 ) was an American first baseman in Major League Baseball who spent most of his career with the Philadelphia Phillies and Brooklyn Dodgers . He was named the National League 's Most Valuable Player in after leading the league in home runs and runs batted in as the Dodgers won the pennant for the first time since 1920 . He was the ninth NL player to hit 200 career home runs , and held the Dodgers franchise record for career home runs from 1942 to 1953 . His son Doug was a major leaguer catcher in the 1960s . His brother , who boxed under the name Frankie Campbell , died of cerebral hemorrhaging following a 1930 match with Max Baer .",
    "/wiki/Cecil_Cooper": "Cecil Cooper ( born December 20 , 1949 ) is a former first baseman in Major League Baseball and the former manager of the Houston Astros . From 1971 through 1987 , Cooper played for the Boston Red Sox ( 1971-76 ) and Milwaukee Brewers ( 1977-87 ) . He batted and threw left-handed , and attended Prairie View A & M University in Prairie View , Texas .",
    "/wiki/Adam_LaRoche": "David Adam LaRoche ( born November 6 , 1979 ) is an American former professional baseball first baseman who played 12 seasons in Major League Baseball ( MLB ) . He played for the Atlanta Braves , Pittsburgh Pirates , Boston Red Sox , Arizona Diamondbacks , Washington Nationals and Chicago White Sox . He is the son of pitcher Dave LaRoche and the brother of third baseman Andy LaRoche .",
    "/wiki/Bill_Skowron": "William Joseph Skowron ( December 18 , 1930 - April 27 , 2012 ) , nicknamed Moose , was an American professional baseball first baseman . He played 13 seasons in Major League Baseball ( MLB ) from 1954 to 1967 for the New York Yankees , Los Angeles Dodgers , Washington Senators , Chicago White Sox , and California Angels . He had been a community relations representative for the Chicago White Sox for several years when he died in 2012 . He is one of six players in MLB history to have won back-to back World Series championships on different teams ."
  },
  "List_of_Leaders_of_the_Opposition_of_the_United_Kingdom_by_length_of_tenure_0": {
    "/wiki/Keir_Starmer": "Sir Keir Starmer ( born 2 September 1962 ) is a British politician and barrister serving as the Member of Parliament ( MP ) for Holborn and St Pancras since 2015 . A member of the Labour Party , he is currently shadow Brexit secretary in the shadow cabinet . He was Director of Public Prosecutions and head of the Crown Prosecution Service ( CPS ) from 2008 to 2013 . After qualifying for the bar , he acted exclusively as a defence lawyer specialising in human rights issues . He was appointed Queen 's Counsel ( QC ) in 2002 and Knight Commander of the Order of the Bath ( KCB ) in the 2014 New Year Honours . He was sworn in as a Privy Councillor on 19 July 2017 .",
    "/wiki/Labour_Party_(UK)": "The Labour Party is a centre-left political party in the United Kingdom that has been described as an alliance of social democrats , democratic socialists and trade unionists . In all general elections since 1922 , Labour has either been the governing party or the Official Opposition . The Labour Party was founded in 1900 , having grown out of the trade union movement and socialist parties of the 19th century . It overtook the Liberal Party to become the main opposition to the Conservative Party in the early 1920s , forming two minority governments under Ramsay MacDonald in the 1920s and early 1930s . Labour served in the wartime coalition of 1940-1945 , after which Clement Attlee 's Labour government established the National Health Service and expanded the welfare state from 1945 to 1951 . Under Harold Wilson and James Callaghan , Labour again governed from 1964 to 1970 and 1974 to 1979 . In the 1990s , Tony Blair took Labour to the centre as part of his New Labour project , which governed the UK under Blair and then Gordon Brown from 1997 to 2010 . Labour is currently the Official Opposition in the Parliament of the United Kingdom , having won the second-largest number of seats in the 2017 and 2019 general elections . The Labour Party is currently the largest party in the Welsh Assembly , forming the main party in the current Welsh government . The party is the third-largest in the Scottish Parliament . Labour is a member of the Party of European Socialists and Progressive Alliance , and holds observer status in Socialist International . The party includes semi-autonomous Scottish and Welsh branches , and supports the Social Democratic and Labour Party in Northern Ireland , although it still organises there .",
    "/wiki/Jeremy_Corbyn": "Jeremy Bernard Corbyn ( ; born 26 May 1949 ) is a British politician serving as Leader of the Labour Party and Leader of the Opposition since 2015 . Corbyn has been the Member of Parliament ( MP ) for Islington North since 1983 . Ideologically , he identifies as a democratic socialist . Born in Chippenham and raised in both Wiltshire and Shropshire , Corbyn joined Labour as a teenager . Moving to London , he became a trade union representative . In 1974 , he was elected to Haringey Council and became Secretary of Hornsey Constituency Labour Party , until elected as the MP for Islington North in 1983 . His activism has included roles in Anti-Fascist Action , the Anti-Apartheid Movement and the Campaign for Nuclear Disarmament , and advocating for a united Ireland . As a backbench MP , he frequently voted against the Labour whip , including New Labour governments under Tony Blair and Gordon Brown . A vocal opponent of the Iraq War , he chaired the Stop the War Coalition from 2011 to 2015 . Corbyn received the Gandhi International Peace Award in 2013 and the Se\u00e1n MacBride Peace Prize in 2017 . Corbyn was elected Labour leader in 2015 . The party 's membership increased sharply , both during the leadership campaign and following his election .",
    "/wiki/2017_United_Kingdom_general_election": "The 2017 United Kingdom general election was held on Thursday 8 June 2017 , two years after the previous general election in 2015 . The governing Conservative Party remained the largest single party in the House of Commons but unexpectedly lost its small overall majority , resulting in the formation of a minority government with a confidence-and-supply arrangement with the Democratic Unionist Party ( DUP ) of Northern Ireland . The Conservative Party , which had governed as a senior coalition partner from 2010 and as a single-party majority government from 2015 , was defending a working majority of 17 seats against the Labour Party , the official opposition led by Jeremy Corbyn . Under the Fixed-term Parliaments Act 2011 an election had not been due until May 2020 , but a call by Prime Minister Theresa May for a snap election was ratified by the necessary two-thirds vote in a 522-13 vote in the House of Commons on 19 April 2017 . May said that she hoped to secure a larger majority to strengthen [ her ] hand in the forthcoming Brexit negotiations . Opinion polls had consistently shown strong leads for the Conservatives over Labour . From a 21-point lead , the Conservatives ' lead began to diminish in the final weeks of the campaign . In a surprising result , the Conservative Party made a net loss of 13 seats despite winning 42.4% of the vote ( its highest share of the vote since 1983 ) , whereas Labour made a net gain of 30 seats with 40.0% ( its highest vote share since 2001 and the first time the party had gained seats since 1997 ) . This was the closest result between the two major parties since February 1974 and their highest combined vote share since 1970 . The Scottish National Party ( SNP ) and the Liberal Democrats , the third- and fourth-largest parties , both lost vote share ; media coverage characterised the result as a return to two-party politics . The SNP , which had won 56 of the 59 Scottish seats at the previous general election in 2015 , lost 21 . The Liberal Democrats made a net gain of four seats .",
    "/wiki/Ed_Miliband": "Edward Samuel Miliband ( born 24 December 1969 ) is a British politician who has been the Member of Parliament ( MP ) for Doncaster North since 2005 , being re-elected in 2010 , 2015 , 2017 , and 2019 . He was Leader of the Labour Party and the Leader of the Opposition between 2010 and 2015 . He also served in the Cabinet from 2007-10 under Prime Minister Gordon Brown . Miliband was born in the Fitzrovia district of Central London to Polish Jewish immigrants Marion Kozak and Ralph Miliband , a Marxist intellectual and native of Brussels who fled Belgium during World War II . He graduated from Corpus Christi College , Oxford and later from the London School of Economics . Miliband became first a television journalist , then a Labour Party researcher and a visiting scholar at Harvard University , before rising to become one of Chancellor Gordon Brown 's confidants and Chairman of HM Treasury 's Council of Economic Advisers . Miliband was elected to the House of Commons in 2005 . Prime Minister Tony Blair made Miliband Parliamentary Secretary to the Cabinet Office in May 2006 . When Gordon Brown became Prime Minister in 2007 , he appointed Miliband Minister for the Cabinet Office and Chancellor of the Duchy of Lancaster . Miliband was subsequently promoted to the new post of Secretary of State for Energy and Climate Change , a position he held from 2008-10 . After the Labour Party was defeated at the 2010 general election , Brown resigned as Leader of the Labour Party ; in September 2010 , Miliband was elected to replace him . His tenure as Labour leader was characterised by a leftward shift in his party 's policies , under the One Nation Labour branding , and by opposition to the Conservative-Liberal Democrat coalition government 's cuts to the public sector .",
    "/wiki/2015_United_Kingdom_general_election": "The 2015 United Kingdom general election was held on Thursday , 7 May 2015 to elect 650 members to the House of Commons . It was the first general election at the end of a fixed-term Parliament . Local elections took place in most areas on the same day . Polls and commentators had predicted the outcome would be too close to call and would result in a second hung parliament similar to the 2010 election . Opinion polls were eventually proven to have underestimated the Conservative vote as the party unexpectedly won an outright majority , which bore resemblance to its victory at the 1992 general election . Having governed in coalition with the Liberal Democrats since 2010 , the Conservatives won 330 seats and 36.9% of the vote , this time winning a working majority of twelve seats . The British Polling Council began an inquiry into the substantial variance between opinion polls and the actual result . Forming the first Conservative majority government since 1992 , David Cameron became the first Prime Minister since 1900 to continue in office immediately after a term of at least four years with a larger popular vote share , and the only Prime Minister other than Margaret Thatcher to continue in office immediately after a term of at least four years with a greater number of seats . The Labour Party , led by Ed Miliband , saw a small increase in its share of the vote to 30.4% , but incurred a net loss of seats to return 232 MPs . This was its lowest seat tally since the 1987 general election . Senior Labour Shadow Cabinet members , notably Ed Balls , Douglas Alexander , and Scottish Labour leader Jim Murphy , were defeated . The Scottish National Party , enjoying a surge in support since the 2014 Scottish independence referendum , recorded a number of huge swings of over 30% ( including a record-breaking swing of 39.3% achieved in Glasgow North East ) from Labour , as it won 56 of the 59 Scottish seats to become the third-largest party in the Commons .",
    "/wiki/Harriet_Harman": "Harriet Ruth Harman QC ( born 30 July 1950 ) is a British solicitor and Labour politician serving as a Member of Parliament ( MP ) since 1982 , first for Peckham and then its successor constituency of Camberwell and Peckham since 1997 . Harman holds the record as the longest-ever continuously serving female MP in the House of Commons . On 13 June 2017 , she was dubbed Mother of the House by the then Prime Minister Theresa May . She has served in various Cabinet and Shadow Cabinet positions . She served as a Shadow Social Services minister ( from 1984 ) and as a Shadow Health minister ( from 1987 ) , Shadow Chief Secretary to the Treasury ( 1992-1994 ) and then , under Tony Blair , as Shadow Employment Secretary ( 1994-1995 ) , Shadow Health Secretary ( 1995-1996 ) and Shadow Social Security Secretary ( 1996-1997 ) . Following the 1997 general election victory , she was appointed Secretary of State for Social Security and the first ever Minister for Women , serving until 1998 ; when she left the Cabinet . In 2001 , she was appointed Solicitor General for England and Wales , serving until 2005 when she became Minister of State for Constitutional Affairs . Harman ran in the 2007 deputy leadership election and defeated five other candidates , ultimately defeating Secretary of State for Health , Alan Johnson , by 50.43% to 49.56% . Gordon Brown , who was elected as party leader , appointed Harman Leader of the House of Commons , Lord Privy Seal , Minister for Women and Equality and Chairman of the Labour Party , holding these positions until the 2010 general election , although she was not appointed Deputy Prime Minister . Upon defeat , Brown resigned as party leader and Harman , as Deputy Leader of the Labour Party , became Acting Leader of the Labour Party and Leader of the Opposition until Ed Miliband was elected leader . She subsequently served as Shadow Deputy Prime Minister , combining the position with that of Shadow Secretary of State for International Development ( 2010-2011 ) and then Shadow Secretary of State for Culture , Media and Sport ( 2011-2015 ) . After Labour 's defeat at the 2015 general election , Miliband resigned as Leader of the Labour Party and Harman once again became Acting Leader and Leader of the Opposition .",
    "/wiki/David_Cameron": "David William Donald Cameron ( born 9 October 1966 ) is a British politician who served as Prime Minister of the United Kingdom from 2010 to 2016 . He was the Member of Parliament ( MP ) for Witney from 2001 to 2016 and leader of the Conservative Party from 2005 to 2016 . He identifies as a one-nation conservative , and has been associated with both economically liberal and socially liberal policies . Born in London to an upper-middle-class family , Cameron was educated at Heatherdown School , Eton College , and Brasenose College , Oxford . From 1988 to 1993 he worked at the Conservative Research Department , latterly assisting the Conservative Prime Minister John Major , before leaving politics to work for Carlton Communications in 1994 . Becoming an MP in 2001 , he served in the opposition shadow cabinet under Conservative leader Michael Howard , and succeeded Howard in 2005 . Cameron sought to rebrand the Conservatives , embracing an increasingly socially liberal position . The 2010 general election led to Cameron becoming Prime Minister as the head of a coalition government with the Liberal Democrats - the youngest holder of the office since the 1810s . His premiership was marked by the ongoing effects of the late-2000s financial crisis ; these involved a large deficit in government finances that his government sought to reduce through austerity measures . His administration introduced large-scale changes to welfare , immigration policy , education , and healthcare . It privatised the Royal Mail and some other state assets , and legalised same-sex marriage in England and Wales . Internationally , his government intervened militarily in the Libyan Civil War and later authorised the bombing of the Islamic State of Iraq and the Levant ; domestically , his government oversaw the referendum on voting reform and Scottish independence referendum , both of which confirmed Cameron 's favoured outcome .",
    "/wiki/2010_United_Kingdom_general_election": "The 2010 United Kingdom general election was held on Thursday , 6 May 2010 , with 45,597,461 registered voters entitled to vote to elect members to the House of Commons . The election took place in 650 constituencies across the United Kingdom under the first-past-the-post system . None of the parties achieved the 326 seats needed for an overall majority . The Conservative Party , led by David Cameron , won the largest number of votes and seats , but still fell 20 seats short . This resulted in a hung parliament where no party was able to command a majority in the House of Commons . This was only the second general election since the Second World War to return a hung parliament , the first being the February 1974 election . Unlike in 1974 , the potential for a hung parliament had this time been widely considered and predicted , and both the country and politicians were better prepared for the constitutional process that would follow such a result . The coalition government that was subsequently formed was the first coalition in British history to eventuate directly from an election outcome . The hung parliament came about in spite of the Conservatives managing both a higher vote total and higher share of the vote than the previous Labour government had done in 2005 , when it secured a comfortable majority . Coalition talks began immediately between the Conservatives and the Liberal Democrats , and lasted for five days . There was an aborted attempt to put together a Labour/Liberal Democrat coalition ( although other smaller parties would have been required to make up the ten seats they lacked for a majority ) . To facilitate this , Gordon Brown announced on the evening of Monday 10 May that he would resign as Leader of the Labour Party .",
    "/wiki/Conservative_Party_(UK)": "The Conservative Party , officially the Conservative and Unionist Party and also known colloquially as the Tories or simply the Conservatives , is a centre-right political party in the United Kingdom . The governing party since 2010 , it holds an overall majority in the House of Commons with 365 Members of Parliament . It also has 245 members of the House of Lords , 8 members of the London Assembly , 31 members of the Scottish Parliament , 11 members of the Welsh Assembly and 7,437 local councillors . The Conservative Party was founded in 1834 from the Tory Party - the Conservatives ' colloquial name is Tories - and was one of two dominant political parties in the 19th century , along with the Liberal Party . Under Benjamin Disraeli , it played a preeminent role in politics at the height of the British Empire . In 1912 , the Liberal Unionist Party merged with the party to form the Conservative and Unionist Party . In the 1920s , the Labour Party surpassed the Liberals as the Conservatives ' main rivals . Conservative Prime Ministers , most notably Winston Churchill and Margaret Thatcher , led governments for 57 years of the 20th century . Positioned on the centre-right of British politics , the Conservative Party is ideologically conservative . Different factions have dominated the party at different times , including one nation conservatives , Thatcherites , and liberal conservatives , while its views and policies have changed throughout its history . The party has generally adopted liberal economic policies - favouring free market economics , limiting state regulation , and pursuing privatisation - although in the past has also supported protectionism . The party is British unionist , opposing both Irish reunification and Welsh and Scottish independence , and historically supported the maintenance of the British Empire .",
    "/wiki/Michael_Howard": "Michael Howard , Baron Howard of Lympne , CH , PC , QC ( born 7 July 1941 ) , is a British politician who served as Leader of the Conservative Party and Leader of the Opposition from November 2003 to December 2005 . He previously held cabinet positions in the governments of Margaret Thatcher and John Major , including Secretary of State for Employment , Secretary of State for the Environment and Home Secretary . Howard was born in Swansea . He studied at Peterhouse , Cambridge , following which he joined the Young Conservatives . In 1964 , he was called to the Bar and became a Queen 's Counsel in 1982 . He first became a Member of Parliament at the 1983 general election , representing the constituency of Folkestone and Hythe . This quickly led to him being promoted and Howard became Minister for Local Government in 1987 . Under the premiership of John Major , he served as Secretary of State for Employment ( 1990-1992 ) , Secretary of State for the Environment ( 1992-1993 ) and Home Secretary ( 1993-1997 ) . Following the Conservative Party 's landslide defeat at the 1997 general election , he unsuccessfully contested the leadership , and subsequently held the posts of Shadow Foreign Secretary ( 1997-1999 ) and Shadow Chancellor of the Exchequer ( 2001-2003 ) . In November 2003 , following the Conservative Party 's vote of no confidence in Iain Duncan Smith , Howard was elected to the leadership unopposed . At the 2005 general election , the Conservatives gained 33 new seats in Parliament , including five from the Liberal Democrats ; but this still gave them only 198 seats to Labour 's 355 . Following the election , Howard resigned as leader and was succeeded by David Cameron .",
    "/wiki/2005_United_Kingdom_general_election": "The 2005 United Kingdom general election was held on Thursday 5 May 2005 , to elect 646 members to the House of Commons . The Labour Party led by Tony Blair won its third consecutive victory , with Blair becoming the only Labour leader beside Harold Wilson to form three majority governments . However , its majority now stood at 66 seats compared to the 160-seat majority it had previously held . As of , it remains the last general election victory for the Labour Party . The Labour campaign emphasised a strong economy ; however , Blair had suffered a decline in popularity , which was exacerbated by the decision to send British troops to invade Iraq in 2003 . Despite this , Labour mostly retained its leads over the Conservatives in opinion polls on economic competence and leadership , and Conservative leaders Iain Duncan Smith ( 2001-2003 ) and Michael Howard ( 2003-2005 ) struggled to capitalise on Blair 's unpopularity , with the party consistently trailing behind Labour in the polls throughout the 2001-2005 parliament . The Conservatives campaigned on policies , such as immigration limits , improving poorly-managed hospitals and reducing high crime rates , all under the slogan Are you thinking what we 're thinking ? . The Liberal Democrats , led by Charles Kennedy , were opposed to the Iraq War , given that there had been no second UN resolution , and collected votes from disenchanted Labour voters . Tony Blair was returned as Prime Minister , with Labour having 355 MPs , but with a popular vote of 35.2% ; the lowest of any majority government in UK electoral history . In terms of votes , it was only narrowly ahead of the Conservatives , but still had a comfortable lead in terms of seats . The Conservatives returned 198 MPs , with 32 more seats than they had won at the previous general election , and won the popular vote in England , while still ending up with 91 fewer MPs in England than Labour ; this indicated the party lost many close races and won more large majorities in its heartlands . The Liberal Democrats saw their popular vote increase by 3.7% and won the most seats of any third party since 1923 , with 62 MPs .",
    "/wiki/Iain_Duncan_Smith": "Sir George Iain Duncan Smith ( born 9 April 1954 ) , often referred to by his initials IDS , is a British politician . The Secretary of State for Work and Pensions from 2010 to 2016 , he was previously the Leader of the Conservative Party and Leader of the Opposition from 2001 to 2003 . He was first elected to Parliament at the 1992 general election as the MP for Chingford - which he represented until the constituency 's abolition in 1997 - and he has since represented its successor constituency of Chingford and Woodford Green . Duncan Smith was born in Edinburgh and served in the Scots Guards from 1975 to 1981 , seeing tours in Northern Ireland and Rhodesia . He joined the Conservative Party in 1981 , and eventually succeeded William Hague as Conservative Leader in 2001 ; he won the leadership election partly owing to the support of Margaret Thatcher for his Eurosceptic beliefs . Duncan Smith was the first Catholic to serve as a Conservative Leader , and the first Conservative leader to be born in Scotland since Arthur Balfour . In 2010 , The Tablet named him one of Britain 's most influential Catholics . Many Conservative MPs came to consider him incapable of winning an election when he was Conservative Party Leader . In 2003 , Conservative MPs passed a vote of no confidence in his leadership ; he immediately resigned , and was succeeded by Michael Howard . Returning to the backbenches , he founded the centre-right Centre for Social Justice , a think tank independent of the Conservative Party , and became a published novelist . On 12 May 2010 , the new Prime Minister , David Cameron , appointed Duncan Smith to serve in the Cabinet as Secretary of State for Work and Pensions . He resigned from the Cabinet on 18 March 2016 , in opposition to Chancellor George Osborne 's proposed cuts to disability benefits .",
    "/wiki/William_Hague": "William Jefferson Hague , Baron Hague of Richmond , PC , FRSL ( born 26 March 1961 ) , is a British Conservative politician and life peer . He represented Richmond , Yorkshire , as its Member of Parliament ( MP ) from 1989 until 2015 and was the Leader of the Opposition from 1997 to 2001 . He was Secretary of State for Foreign and Commonwealth Affairs from 2010 to 2014 and was the Leader of the House of Commons from 2014 to 2015 . Hague was educated at Wath Comprehensive School , the University of Oxford and INSEAD , subsequently being returned to the House of Commons at a by-election in 1989 . Hague quickly rose through the ranks of the government of John Major and was appointed to Cabinet in 1995 as Secretary of State for Wales . Following the Conservatives ' defeat at the 1997 general election by the Labour Party , he was elected Leader of the Conservative Party at the age of 36 . He resigned as Conservative Leader after the 2001 general election following his party 's second defeat , at which the Conservatives made a net gain of just one seat . He returned to the backbenches , pursuing a career as an author , writing biographies of William Pitt the Younger and William Wilberforce . He also held several directorships , and worked as a consultant and public speaker . After David Cameron was elected Leader of the Conservative Party in 2005 , Hague was reappointed to the Shadow Cabinet as Shadow Foreign Secretary . He also assumed the role of Senior Member of the Shadow Cabinet , serving as Cameron 's deputy . After the formation of the Coalition Government in 2010 , Hague was appointed First Secretary of State and Foreign Secretary .",
    "/wiki/2001_United_Kingdom_general_election": "The 2001 United Kingdom general election was held on Thursday 7 June 2001 , four years after the previous election on 1 May 1997 , to elect 659 members to the House of Commons . Under the leadership of Tony Blair , the Labour Party was re-elected to serve a second term in government with another landslide victory , returning 413 of the 418 seats won by the party in the previous general election in 1997 , a net loss of 5 seats , though with a significantly lower turnout than before - 59.4% , compared to 71.3% at the previous election . Blair went on to become the first Labour Prime Minister to serve a consecutive full term in office . As Labour retained much of their 1997 landslide victory , the 2001 election was dubbed the quiet landslide by the media . There was little change outside Northern Ireland , with 620 out of the 641 seats electing candidates from the same party as they did in 1997 . Factors contributing to the Labour victory were a strong economy and falling unemployment , as well as the fact that the Labour government was seen as having delivered on many key election pledges that it had made in 1997 . The Conservative Party , under William Hague 's leadership , was still deeply divided on the issue of Europe and the party 's policy platform had drifted considerably to the right . Hague was also hindered by a series of embarrassing publicity stunts , and resigned as party leader three months later , becoming the first Leader of the Conservative and Unionist party in the House of Commons since Austen Chamberlain to not serve as Prime Minister . The election was essentially a repeat of the 1997 general election , with Labour losing only 6 seats overall and the Conservatives making a net gain of one seat ( gaining nine seats , but losing eight ) . The Conservatives did manage to gain a seat in Scotland , which ended the party 's status as an 'England-only ' party in the prior parliament , but once again were left unrepresented in Wales . Although they did not gain many seats , three of the few new MPs elected were future Conservative Prime Ministers David Cameron and Boris Johnson and future Conservative Chancellor of the Exchequer , George Osborne ; who would serve in the same Cabinet as Cameron from 2010-16 . The Liberal Democrats gained six seats .",
    "/wiki/John_Major": "Sir John Major KG CH ( born 29 March 1943 ) is a British politician who served as Prime Minister of the United Kingdom and Leader of the Conservative Party from 1990 to 1997 . Major was Foreign Secretary and then Chancellor of the Exchequer in the Thatcher Government from 1989 to 1990 , and was Member of Parliament ( MP ) for Huntingdon from 1979 until his retirement in 2001 . Since the death of Margaret Thatcher in 2013 , he has been both the oldest and earliest-serving of all living former prime ministers . Born in St Helier , Surrey , Major grew up in Brixton . He initially worked as an insurance clerk , and then at the London Electricity Board , before becoming an executive at Standard Chartered . He was first elected to the House of Commons at the 1979 general election as MP for Huntingdon . He served as a Parliamentary Private Secretary , Assistant Whip and as a Minister for Social Security . In 1987 , he joined the Cabinet as chief secretary to the Treasury , and was promoted to foreign secretary two years later . Just three months later in October 1989 , he was appointed chancellor of the Exchequer , where he presented the 1990 budget . Major became prime minister after Thatcher resigned in November 1990 . He presided over British participation in the Gulf War in March 1991 , and negotiated the Maastricht Treaty in December 1991 . He went on to lead the Conservatives to a record fourth consecutive electoral victory , winning the most votes in British electoral history with over 14 million votes at the 1992 general election , albeit with a reduced majority in the House of Commons .",
    "/wiki/1997_United_Kingdom_general_election": "The 1997 United Kingdom general election is a national election that was held on 1 May 1997 . The governing Conservative Party sought to protect their majority in the House of Commons against their opposition , the Labour Party , following the general election of 1992 . Incumbent Prime Minister John Major called for the election in March 1997 to allow for six weeks of campaigning , and appointed polling day to coincide with local elections that year . The political backdrop of campaigning focused on public opinion towards a change in government . Labour leader Tony Blair focused on transforming his party through a more centrist policy platform , entitled 'New Labour ' , with promises towards devolution referendums for Scotland and Wales , and greater economic handling , and Blair 's decision to nominate more female politicians for constituencies . Major sought to rebuild public trust in the Conservatives following a series of scandals , including the events of Black Wednesday in 1992 , through campaigning upon the recovering of the economy following the early 1990s recession and efforts to attack Labour 's strategy , but faced divisions within the party over the UK 's membership of the European Union . Opinion polls during campaigning showed strong support for Labour due to the popularity of Blair amongst voters , particularly with a public declaration of support from The Sun newspaper , and Labour attracting more voters from the right than from their traditional support base . The final result of the vote on 2 May 1997 revealed that Labour won a landslide majority , making a net gain of 146 seats and winning 43.2% of the vote , whereas the Conservative suffered defeat with a net loss of 178 seats , despite winning 30.7% of the vote . The Liberal Democrats , under the leadership Paddy Ashdown , restrengthened themselves following their performance in the 1992 election , making a net gain of 28 seats and winning 16.8% of the vote . The overall result of the election ended 18 years of Conservative control of the House of Commons with their worst defeat since 1906 , and left them devoid of any MPs outside of England , which led to the resignation of Major as his party 's leader in the following months . Labour 's success , not only the biggest achieved in the party 's history but also by any political party in British politics since the post-war period , led to the party 's first of three consecutive terms in power , with Blair as the newly appointed Prime Minister . The Liberal Democrats ' success in the election , in part due to tactical voting by anti-Conservative supporters , both strengthened Ashdown 's leadership and their position as a strong third party , achieving the highest number of seats by any third party since 1929 .",
    "/wiki/Tony_Blair": "Anthony Charles Lynton Blair ( born 6 May 1953 ) is a British politician who served as Prime Minister of the United Kingdom from 1997 to 2007 and Leader of the Labour Party from 1994 to 2007 . After his resignation , he was appointed Special Envoy of the Quartet on the Middle East , an office which he held until 2015 . He currently runs the Tony Blair Institute for Global Change . Born in Edinburgh , Blair 's father was a barrister and academic . After attending the private Fettes College , he studied law at St John 's College , Oxford and became a barrister . He became involved in Labour politics and was elected Member of Parliament for Sedgefield in 1983 . He supported moving the party to the centre of British politics in an attempt to help it win power ( it had been out of government since 1979 ) . He was appointed to the party 's frontbench in 1988 and became Shadow Home Secretary in 1992 . He became Leader of the Opposition on his election as Labour Party leader in 1994 , following the sudden death of his predecessor , John Smith . Under Blair , the party used the phrase New Labour to distance itself from previous Labour politics and the traditional idea of socialism . He declared support for the Third Way - politics that recognised individuals as socially interdependent , advocating social justice , cohesion , the equal worth of each citizen , and equal opportunity . Despite opposition from Labour 's hard left , he removed the party 's formal commitment to the nationalisation of the economy , weakened trade union influence in the party , and committed to the free market and the European Union .",
    "/wiki/Margaret_Beckett": "Dame Margaret Mary Beckett DBE PC MP ( n\u00e9e Jackson ; born 15 January 1943 ) is a British Labour Party politician who has been the Member of Parliament ( MP ) for Derby South since 1983 . She was the Deputy Leader of the Labour Party under John Smith from 1992 to 1994 , and briefly served as interim Leader of the Labour Party after Smith died suddenly . She later served in the Cabinet under Prime Minister Tony Blair in a number of roles , becoming Britain 's first female Foreign Secretary in 2006 . Beckett was first elected to Parliament in October 1974 for Lincoln and held junior positions in the governments of Harold Wilson and James Callaghan . She lost her seat in 1979 , but returned to the House of Commons in 1983 , this time representing Derby South . She was appointed to Neil Kinnock 's Shadow Cabinet shortly afterwards , being elected Deputy Leader of the Labour Party in 1992 , becoming the first woman to hold that role . When John Smith died in 1994 , she became the first woman to lead the Labour Party , although Tony Blair won the election to replace Smith shortly afterwards to assume the substantive leadership . After Labour returned to power in 1997 , Beckett became a member of Tony Blair 's Cabinet initially as President of the Board of Trade . She was later the Leader of the House of Commons and Secretary of State for Environment , Food and Rural Affairs , before becoming Foreign Secretary in 2006 , the first woman to hold that position , and - after Margaret Thatcher - the second woman to hold one of the Great Offices of State . Following Blair 's resignation as Prime Minister in 2007 , Beckett was not initially given a position by new Prime Minister Gordon Brown . After some time , Brown appointed her Minister of State for Housing and Planning in 2008 , before she left the government for the last time in 2009 . Beckett holds the record for the female MP with the longest service overall ( Harriet Harman has longer continuous service ) and is one of the few sitting MPs who served in the Labour governments of the 1970s .",
    "/wiki/John_Smith_(Labour_Party_leader)": "John Smith QC ( 13 September 1938 - 12 May 1994 ) was a British Labour politician who served as Leader of the Labour Party from July 1992 until his death from a heart attack in May 1994 . Smith first entered Parliament in 1970 and , after junior ministerial roles as Minister of State for Energy ( 1975-1976 ) and Minister of State for the Privy Council Office ( 1976-1977 ) , he entered the Cabinet at the end of James Callaghan 's tenure as Prime Minister , serving as Secretary of State for Trade and President of the Board of Trade ( 1978-1979 ) . During Labour 's time in Opposition to Margaret Thatcher 's Conservative government , he rose through the Shadow Cabinet , serving as Shadow Secretary of State for Trade ( 1979-1982 ) , Shadow Secretary of State for Energy ( 1982-1983 ) , Shadow Secretary of State for Employment ( 1983-1984 ) , Shadow Secretary of State for Trade and Industry ( 1984-1987 ) and Shadow Chancellor of the Exchequer ( 1987-1992 ) . After Labour leader Neil Kinnock resigned following the Party 's surprise loss in the 1992 general election to new Conservative leader John Major , Smith was elected his successor in July 1992 . He continued Kinnock 's moves to reform Labour , abolishing the trade union block vote at Labour party conferences and replacing it with one member , one vote at the 1993 party conference . However , his overall cautious approach to reform , which was dubbed one more heave , sought to avoid controversy and win the next election by capitalising on the unpopularity of the Conservative government . This frustrated many modernisers like Tony Blair and Gordon Brown and after Smith 's sudden death in May 1994 , he was succeeded as Leader by Blair , who undertook the subsequent re-branding of Labour as New Labour , winning the 1997 general election in a landslide .",
    "/wiki/Neil_Kinnock": "Neil Gordon Kinnock , Baron Kinnock PC ( born 28 March 1942 ) is a British politician . A member of the Labour Party , he served as a Member of Parliament from 1970 until 1995 , first for Bedwellty and then for Islwyn . He was the Leader of the Labour Party and Leader of the Opposition from 1983 until 1992 . Kinnock led the Labour Party to a surprise fourth consecutive defeat at the 1992 general election , despite the party being ahead in most opinion polls , which had predicted either a narrow Labour victory or a hung parliament . Afterwards , he resigned as Leader of the Labour Party . He left the House of Commons in 1995 to become a European Commissioner . He went on to become the Vice-President of the European Commission under Romano Prodi from 1999-2004 . Until the summer of 2009 , he was also Chairman of the British Council and President of Cardiff University .",
    "/wiki/1987_United_Kingdom_general_election": "The 1987 United Kingdom general election was held on Thursday , 11 June 1987 , to elect 650 members to the House of Commons of the United Kingdom . The election was the third consecutive general election victory for the Conservative Party , and second landslide under the leadership of Margaret Thatcher , who became the first Prime Minister since the Earl of Liverpool in 1820 to lead a party into three successive electoral victories . The Conservatives ran a campaign focusing on lower taxes , a strong economy and strong defence . They also emphasised that unemployment had fallen below the 3 million mark for the first time since 1981 , and inflation was standing at 4% , its lowest level for some twenty years . The tabloid media also had strong support for the Conservative Party , particularly The Sun , which ran anti-Labour articles with headlines such as Why I 'm backing Kinnock , by Stalin . The Labour Party , led by Neil Kinnock , was slowly moving towards a more centrist policy platform . The main aim of the Labour Party was simply to re-establish itself as the main progressive centre-left alternative to the Conservatives , after the rise of the Social Democratic Party ( SDP ) forced Labour onto the defensive . Indeed , the Labour Party succeeded in doing so at this general election . The Alliance between the SDP and the Liberal Party was renewed but co-leaders David Owen and David Steel could not agree whether to support either major party in the event of a hung parliament . The Conservatives were returned to government , having suffered a net loss of only 21 seats , leaving them with 376 MPs and a second landslide majority of 102 . Labour succeeded in resisting the challenge by the SDP-Liberal Alliance to become the main opposition . Moreover , Labour managed to increase its vote share in Scotland , Wales and the North of England .",
    "/wiki/Michael_Foot": "Michael Mackintosh Foot ( 23 July 1913 - 3 March 2010 ) was a British Labour Party politician who served as Labour Leader from 1980 to 1983 . Foot began his career as a journalist on Tribune and the Evening Standard . He co-wrote the classic 1940 polemic against appeasement of Adolf Hitler , Guilty Men , under a pseudonym . Foot served as a Member of Parliament ( MP ) from 1945 to 1955 and again from 1960 until he retired in 1992 . A passionate orator , and associated with the left-wing of the Labour Party for most of his career , Foot was an ardent supporter of the Campaign for Nuclear Disarmament and of British withdrawal from the European Economic Community ( EEC ) . He was appointed to the Cabinet as Secretary of State for Employment under Harold Wilson in 1974 , and he later served as Leader of the House of Commons ( 1976-1979 ) under James Callaghan . He was also Deputy Leader of the Labour Party under Callaghan from 1976 to 1980 . Elected as a compromise candidate , Foot served as the Leader of the Labour Party , and Leader of the Opposition from 1980 to 1983 . His strongly left-wing political positions and criticisms of vacillating leadership made him an unpopular leader . Not particularly telegenic , he was nicknamed Worzel Gummidge for his rumpled appearance . A centrist faction of the party broke away in 1981 to form the SDP . Foot led Labour into the 1983 general election , when the party obtained its lowest share of the vote since the 1918 general election and the fewest parliamentary seats it had had at any time since before 1945 .",
    "/wiki/1983_United_Kingdom_general_election": "The 1983 United Kingdom general election was held on Thursday 9 June 1983 . It gave the Conservative Party under the leadership of Margaret Thatcher the most decisive election victory since that of the Labour Party in 1945 . Thatcher 's first four years as Prime Minister had not been an easy time . Unemployment increased during the first three years of her premiership and the economy went through a recession . However , the British victory in the Falklands War led to a recovery of her personal popularity ; the economy had also returned to growth . By the time Thatcher called the election in May 1983 , the Conservatives were most people 's firm favourites to win the general election . The resulting win earned the Conservatives their biggest parliamentary majority of the post-war era , and their second-biggest majority as a single-party government , behind only the 1924 election ( they earned even more seats in the 1931 election , but were part of the National Government ) . The Labour Party had been led by Michael Foot since the resignation of former Prime Minister James Callaghan in 1980 . They had fared well in opinion polls and local elections during this time , but issues developed which would lead directly to their defeat . Labour adopted a platform that was considered more left-wing than usual . Several moderate Labour MPs had defected from the party to form the Social Democratic Party ( SDP ) ; they then formed the SDP-Liberal Alliance with the existing Liberal Party . The opposition vote split almost evenly between the Alliance and Labour .",
    "/wiki/James_Callaghan": "Leonard James Callaghan , Baron Callaghan of Cardiff , KG , PC ( /\u02c8k\u00e6l\u0259\u02cch\u00e6n/ ; 27 March 1912 - 26 March 2005 ) , often known as Jim Callaghan , was a British politician who served as Prime Minister of the United Kingdom from 1976 to 1979 and Leader of the Labour Party from 1976 to 1980 . To date , Callaghan remains the only person to have held all four Great Offices of State , having served as Chancellor of the Exchequer ( 1964-1967 ) , Home Secretary ( 1967-1970 ) and Foreign Secretary ( 1974-1976 ) prior to his appointment as Prime Minister . As Prime Minister , he had some successes , but is mainly remembered for the Winter of Discontent of 1978-79 . During a very cold winter , his battle with trade unions led to immense strikes that seriously inconvenienced the public , leading to his defeat in the polls by Conservative leader Margaret Thatcher . Born into a working class family , Callaghan started his career at age 17 as a tax inspector , before becoming a trade union official in the 1930s , he then served in the Royal Navy during World War II . He entered the House of Commons in 1945 , and was on the left wing of the party . Callaghan steadily moved towards the right of the party , but maintained his reputation as The Keeper of the Cloth Cap - that is , he was seen as dedicated to maintaining close ties between the Labour Party and the trade unions . Callaghan 's period as Chancellor of the Exchequer coincided with a turbulent period for the British economy , during which he had to wrestle with a balance of payments deficit and speculative attacks on the pound sterling ( its exchange rate to other currencies was almost fixed by the Bretton Woods system ) . On 18 November 1967 , the government devalued the pound sterling . Callaghan became Home Secretary . He sent the British Army to support the police in Northern Ireland , after a request from the Northern Ireland Government . After Labour was defeated at the 1970 general election , Callaghan played a key role in the Shadow Cabinet .",
    "/wiki/Margaret_Thatcher": "Margaret Hilda Thatcher , Baroness Thatcher , LG , OM , DStJ , PC , FRS , HonFRSC ( n\u00e9e Roberts ; 13 October 1925 - 8 April 2013 ) also known as the Iron Lady , was a British stateswoman who served as Prime Minister of the United Kingdom from 1979 to 1990 and leader of the Conservative Party from 1975 to 1990 . She was the longest-serving British prime minister of the 20th century and the first woman to hold that office . A Soviet journalist dubbed her The Iron Lady , a nickname that became associated with her uncompromising politics and leadership style . As Prime Minister , she implemented policies known as Thatcherism . Thatcher studied chemistry at Somerville College , Oxford , and worked briefly as a research chemist , before becoming a barrister . She was elected Member of Parliament for Finchley in 1959 . Edward Heath appointed her Secretary of State for Education and Science in his 1970-74 government . In 1975 , she defeated Heath in the Conservative Party leadership election to become Leader of the Opposition , the first woman to lead a major political party in the United Kingdom . On becoming Prime Minister after winning the 1979 general election , she introduced a series of economic policies intended to reverse high unemployment and Britain 's struggles in the wake of the Winter of Discontent and an ongoing recession . [ nb 1 ] Her political philosophy and economic policies emphasised deregulation ( particularly of the financial sector ) , flexible labour markets , the privatisation of state-owned companies , and reducing the power and influence of trade unions . Her popularity in her first years in office waned amid recession and rising unemployment , until victory in the 1982 Falklands War and the recovering economy brought a resurgence of support , resulting in her landslide re-election in 1983 . She survived an assassination attempt by the Provisional IRA in the 1984 Brighton hotel bombing and achieved a political victory against the National Union of Mineworkers in the 1984-85 miners ' strike .",
    "/wiki/Edward_Heath": "Sir Edward Richard George Ted Heath ( 9 July 1916 - 17 July 2005 ) was a British politician who served as Prime Minister of the United Kingdom from 1970 to 1974 and Leader of the Conservative Party from 1965 to 1975 . Heath served 51 years as a Member of Parliament from 1950 to 2001 . He was a strong supporter of the European Communities ( EC ) , and after winning the decisive vote in the House of Commons by 336 to 244 , he led the negotiations that culminated in Britain 's entry into the EC on 1 January 1973 . It was , says biographer John Campbell , Heath 's finest hour . Although he planned to be an innovator as Prime Minister , his government foundered on economic difficulties , including high inflation and major strikes . He became an embittered critic of Margaret Thatcher , who supplanted him as party leader . Born the child of a carpenter and a maid , Heath was educated at a grammar school and became a leader in student politics at the University of Oxford . He served as an officer in the Royal Artillery during the Second World War . He worked briefly in the Civil Service , but resigned in order to stand for Parliament , and was elected for Bexley in the 1950 general election . He was the Chief Whip from 1955 to 1959 . Having entered the Cabinet as Minister of Labour in 1959 , he was promoted to Lord Privy Seal and later became President of the Board of Trade . Heath was elected leader of the Conservative Party in 1965 ; he retained that position despite losing the 1966 general election .",
    "/wiki/Alec_Douglas-Home": "Alexander Frederick Douglas-Home , Baron Home of the Hirsel , ( ; 2 July 1903 - 9 October 1995 ) was a British Conservative politician who served as Prime Minister of the United Kingdom from October 1963 to October 1964 . He was the last Prime Minister to hold office while a member of the House of Lords , before renouncing his peerage and taking up a seat in the House of Commons for the remainder of his premiership . His reputation , however , rests more on his two spells as Britain 's foreign minister than on his brief premiership . The eldest child of Charles Douglas-Home , Lord Dunglass , he was educated at Ludgrove School , Eton College and Christ Church , Oxford . A talented cricketer , he played first-class cricket at club and county level ; he began serving in the Territorial Army from 1924 . Douglas-Home ( under the courtesy title Lord Dunglass ) entered Parliament in 1931 and served as Neville Chamberlain 's parliamentary aide , although his diagnosis in 1940 with spinal tuberculosis would immobilise him for two years . Having recovered enough to resume his political career , Douglas-Home lost his seat in the 1945 general election . He regained it in 1950 , but left the Commons the following year when , on the death of his father , he entered the Lords as the 14th Earl of Home . Under the next Conservative government , Home was appointed to increasingly senior posts , such as Leader of the House of Lords and Foreign Secretary . In the latter post ( 1960-1963 ) he supported United States resolve in the Cuban Missile Crisis and was the UK signatory of the Partial Nuclear Test Ban Treaty in August 1963 . In October 1963 , Harold Macmillan resigned as Prime Minister and Home was chosen to succeed him . By the 1960s , it was unacceptable for a Prime Minister to sit in the Lords , so Home renounced his peerage and successfully stood for election to Parliament as Sir Alec Douglas-Home .",
    "/wiki/Harold_Wilson": "James Harold Wilson , Baron Wilson of Rievaulx , KG , OBE , PC , FRS , FSS ( 11 March 1916 - 24 May 1995 ) , was a British Labour politician who served as Prime Minister of the United Kingdom from 1964 to 1970 and 1974 to 1976 . Entering Parliament in 1945 , Wilson was appointed a parliamentary secretary in the Attlee ministry and rose quickly through the ministerial ranks ; he became Secretary for Overseas Trade in 1947 and was elevated to Cabinet shortly thereafter as President of the Board of Trade . In opposition to the next Conservative government , he served as Shadow Chancellor ( 1955-1961 ) and Shadow Foreign Secretary ( 1961-1963 ) . After Labour Party leader Hugh Gaitskell died suddenly in 1963 , Wilson won the subsequent leadership election . After narrowly winning the 1964 general election , Wilson saw an increased majority in a snap election in 1966 . Wilson 's first period as Prime Minister coincided with a period of low unemployment and relative economic prosperity , though hindered by significant problems with Britain 's external balance of payments . In 1969 he sent British troops to Northern Ireland . After losing the 1970 election to Edward Heath , he spent four years as Leader of the Opposition before the February 1974 election resulted in a hung parliament . After Heath 's talks with the Liberals broke down , Wilson returned to power as leader of a minority government until another general election in October , resulting in a narrow Labour victory . A period of economic crisis had begun to hit most Western countries , and in 1976 Wilson suddenly announced his resignation as Prime Minister . Wilson 's approach to socialism was moderate compared with others in his party at the time , emphasising programmes aimed at increasing opportunity in society through relatively indirect means rather than the more direct socialist goal of promoting wider public ownership of industry and workers ' control of production . He took little action to pursue the Labour Party constitution 's stated dedication to public ownership as a stepping stone towards this goal , though he did not formally disavow it .",
    "/wiki/George_Brown,_Baron_George-Brown": "George Alfred Brown , Baron George-Brown , PC ( 2 September 1914 - 2 June 1985 ) was a British Labour politician who served as Deputy Leader of the Labour Party from 1960 to 1970 and also in several Cabinet posts , including Foreign Secretary during the Labour government of the 1960s . He was a leader of the Labour Party 's trade union right wing , and an effective election campaigner . Ultimately , however , he was unable to cope with the pressures of high office without excessive drinking . He was always known simply as George Brown and , upon being granted a peerage in November 1970 , he insisted on combining his first name and surname to create the title Baron George-Brown of Jevington in the County of Sussex ."
  }
}