{
  "Minister_charged_with_the_administration_of_The_Liquor_Control_Act_(Manitoba)_0": {
    "/wiki/Rene_Toupin": "Rene Ernest Toupin ( May 15 , 1934 - March 15 , 2014 ) , born in Saint Boniface , Manitoba was a politician in Manitoba , Canada . He was a New Democratic member of the Legislative Assembly of Manitoba from 1969 to 1977 , and served as a cabinet minister in the government of Edward Schreyer . Toupin was educated at Universit\u00e9 Laval , and returned to Manitoba after his graduation . He was the Chair of the La Salle School Board from 1962 to 1966 , and Chair of the La Salle Credit Union from 1962 to 1969 . He was also a member of the Societe Franco-Manitobaine . He was elected to the Manitoba legislature in the provincial election of 1969 , scoring a relatively easy win in the riding of Springfield . The NDP formed a minority government following this election , and Toupin was named Minister of Consumer and Corporate Affairs on July 15 , 1969 . On December 18 , 1969 , he was transferred to the Ministry of Health and Social Development , where he remained for over four years . Toupin was narrowly re-elected in the 1973 election over Progressive Conservative challenger John Vaags . Toupin held several cabinet portfolios during the Schreyer government 's second term in office . He was named Minister of Tourism , Recreation and Cultural Affairs from January 28 , 1974 , and also became the Minister of Cooperative Development responsible for the Liquor Commission on October 15 , 1975 . Followed a cabinet shuffle on September 22 , 1976 , he retained the Cooperative Development portfolio and was named Minister of Consumer and Corporate Affairs for a second time , with responsibility for the Manitoba Telephone System and Communications .",
    "/wiki/New_Democratic_Party_of_Manitoba": "The New Democratic Party of Manitoba ( NDP ; ) is a social-democratic political party in Manitoba , Canada . It is the provincial wing of the federal New Democratic Party , and is a successor to the Manitoba Co-operative Commonwealth Federation . It is currently the opposition party in Manitoba .",
    "/wiki/Howard_Pawley": "Howard Russell Pawley , ( November 21 , 1934 - December 30 , 2015 ) was a Canadian politician and professor who was the 18th Premier of Manitoba from 1981 to 1988 .",
    "/wiki/Gerry_Mercier": "Gerald Wayne Joseph Gerry Mercier ( born November 12 , 1942 in Claresholm , Alberta ) is a politician in Manitoba , Canada . He was a member of the Legislative Assembly of Manitoba from 1977 to 1988 , and was a cabinet minister in the Progressive Conservative government of Sterling Lyon . The son of Gerard Mercier , he was educated at St. Paul 's College and the University of Manitoba Law School , and practiced as a lawyer before entering political life . He served on the Winnipeg City Council from 1971 to 1977 , when he shifted to the provincial scene . On one occasion , he served as Chair of the city 's Works and Operation Committee . In 1966 , he married Merryl-Lee Wood . In the 1977 provincial election , Mercier was elected in the central Winnipeg riding of Osborne over incumbent New Democrat Ian Turnbull by 96 votes . The Progressive Conservatives won a majority government in this election , and on October 24 , 1977 , Mercier was appointed Attorney General , Minister of Municipal Affairs and Minister of Urban Affairs . The latter two positions were merged as one ministry on October 20 , 1978 , and were separated again on November 15 , 1979 when Mercier was named Urban Affairs minister and Government House Leader . He also had responsibility for the Liquor Control Act between October 20 , 1978 and 1981 . Notwithstanding the changes in name , Mercier had essentially the same responsibilities through the entirety of the Lyon government . Lyon 's government was defeated in the 1981 election , although Mercier successfully sought re-election in the safe Tory seat of St. Norbert rather than in the marginal Osborne riding .",
    "/wiki/Progressive_Conservative_Party_of_Manitoba": "The Progressive Conservative Party of Manitoba ( French : Parti progressiste-conservateur du Manitoba ) is a centre-right political party in Manitoba , Canada . It is currently the governing party in the Legislative Assembly of Manitoba , after winning a substantial majority in the 2016 election and maintaining a majority in the 2019 election .",
    "/wiki/Roland_Penner": "Roland Penner ( July 30 , 1924 - May 31 , 2018 ) was a dean of law at the University of Manitoba and a Cabinet minister in the government of Manitoba .",
    "/wiki/Gary_Doer": "Gary Albert Doer , ( born March 31 , 1948 ) is a Canadian former politician and diplomat from Winnipeg , Manitoba , Canada . He served as Canada 's Ambassador to the United States from October 19 , 2009 to March 3 , 2016 . Doer previously served as the 20th Premier of Manitoba from 1999 to 2009 , leading a New Democratic Party government . Since the end of his term as envoy to Washington , Doer has taken up a position as senior business advisor with the global law firm Dentons and has been retained by the government of Alberta to lobby the Trump administration on the softwood lumber dispute .",
    "/wiki/James_McCrae_(politician)": "James Collus McCrae ( born September 19 , 1948 ) is a politician in Manitoba , Canada . He served as a member of the Legislative Assembly of Manitoba from 1986 to 1999 , in the Progressive Conservative Party caucus . From 1988 to 1999 , McCrae was a cabinet minister in the government of Premier Gary Filmon . McCrae was born in Vancouver , British Columbia . He was educated at Vincent Massey High School in Brandon , Manitoba and the Bryan College of Court Reporting in Los Angeles , California . He served as a court reporter for a number of years , and was a Hansard reporter for the House of Commons of Canada from 1975 to 1982 . McCrae served as a city councillor for Brandon City Council from 1983 to 1986 .",
    "/wiki/Linda_McIntosh": "Linda Laughlin McIntosh ( born December 14 , 1943 ) was a politician in Manitoba , Canada . She was a member of the Legislative Assembly of Manitoba from 1990 to 1999 , and a cabinet minister for most of this period . Among other awards and recognitions , McIntosh has received both the Queen Elizabeth 11 Golden Jubilee Medal and the Queen Eizabeth 11 Diamond Jubilee Medal , for her contributions to Canada .",
    "/wiki/Harold_Gilleshammer": "Harold Gilleshammer ( born April 8 , 1942 ) is a Canadian judge and former politician in Manitoba , Canada . He was a member of the Manitoba legislature from 1988 to 2003 , and a Cabinet Minister in the government of Progressive Conservative Premier Gary Filmon from 1990 to 1999 . The son of Olaf Gilleshammer , he was born in Winnipeg , Manitoba . He obtained a Bachelor of Arts in History , Political Science and English from the University of Manitoba and a Bachelor of Education from Brandon University . He subsequently worked as a teacher . Gilleshammer was first elected to the Manitoba legislature in the provincial election of 1988 , in the rural riding of Minnedosa in the province 's southwest . The seat has normally been safe for the Conservatives , although a rise in Liberal Party support in 1988 meant that Liberal candidate Terry Drebit was able to pose a credible challenge . Gilleshammer won the election , however , by 1,173 votes . The Progressive Conservatives formed a minority government after the election , although Gilleshammer was not initially appointed to cabinet . Provincial support for the Liberal Party declined in 1990 , and Gilleshammer defeated Drebit by over 2000 votes in that year 's provincial election , in a rematch between the two candidates . Shortly after the election , Gilleshammer was named Minister of Family Services . On September 10 , 1993 , he was promoted to Minister of Culture , Heritage and Citizenship , with responsibility for Multiculturalism , the Liquor Control Act and A.E .",
    "/wiki/Rosemary_Vodrey": "Rosemary Vodrey is a Canadian former politician in Manitoba , Canada . She was a Progressive Conservative member of the Legislative Assembly of Manitoba from 1990 to 1999 , and was a senior cabinet minister of the government of Gary Filmon .",
    "/wiki/Diane_McGifford": "Diane Ethel McGifford ( born March 26 , 1945 ) is a former Manitoba politician , and was a member of cabinet under Premiers Gary Doer and Greg Selinger . McGifford was born in Manchester , England , and moved to Manitoba at a young age . She was educated at the University of Manitoba , receiving a Bachelor of Arts degree in 1970 , a Master of Arts degree in 1974 , and a Ph.D. in English in 1979 . She subsequently worked as a professor at the University of Saskatchewan , the University of Manitoba and the University of Winnipeg , and has served as a director of the Fort Garry Women 's Resource Centre and Kali-Shiva AIDS Services . McGifford has edited Shakti 's Words : An Anthology of South Asian Canadian Women 's Poetry and The Geography of Voice : Canadian Literature of the South Asian Diaspora . McGifford was elected to the Legislative Assembly of Manitoba in the provincial election of 1995 , defeating incumbent Liberal Norma McCormick by almost one thousand votes in the central Winnipeg riding of Osborne . She was easily re-elected in the 1999 election in the redistributed riding of Lord Roberts . The New Democratic Party won the election of 1999 , and McGifford was appointed to Premier Gary Doer 's first cabinet as Minister of Culture , Heritage and Tourism on October 5 , 1999 . On January 17 , 2001 , she was transferred to the Ministry of Advanced Education and Training . On her initial appointment to cabinet , she was also given responsibility for the Status of Women and Seniors , and the administration of the Manitoba Lotteries Corporation Act . She was relieved of the last responsibility on September 25 , 2002 , and of the first two on November 4 , 2003 . In 2003 , McGifford supported Bill Blaikie 's campaign to become leader of the federal New Democratic Party .",
    "/wiki/Scott_Smith_(Canadian_politician)": "Scott Smith ( born 1959 ) is a politician in Manitoba , Canada . He was a member of the Legislative Assembly of Manitoba as New Democratic Party from 1999 to 2007 , and was a cabinet minister in the government of Gary Doer .",
    "/wiki/Greg_Selinger": "Gregory Francis Greg Selinger ( born February 16 , 1951 ) is a Canadian former politician who served as the 21st Premier of Manitoba from 2009 until 2016 , leading an NDP government . From 1999 to 2009 he was the Minister of Finance in the government of his immediate predecessor , Gary Doer . Selinger was the member of the Legislative Assembly of Manitoba for St. Boniface from 1999 until his resignation in early 2018 . His party was defeated by Brian Pallister and the Progressive Conservatives in the 2016 Manitoba general election .",
    "/wiki/Ron_Lemieux": "Ron Lemieux , ( born August 15 , 1950 ) is a Canadian politician , who has been an elected member of the Legislative Assembly of Manitoba since 1999 , and a former professional ice hockey player . Born in Dauphin , Manitoba , Lemieux was an ice hockey defenceman and was selected by the Pittsburgh Penguins 110th overall in the 1970 NHL Amateur Draft . Lemieux started with the Dauphin Kings of the Manitoba Junior Hockey League , helping the Kings to the Manitoba championship in 1971-72 . He played for the Green Bay Bobcats in the United States Hockey League for the 1974-75 season ( scoring seven goals and eighteen assists ) , but was never called up to the NHL . He later coached girls ' hockey in Lorette , Manitoba and St. Adolphe . After leaving hockey , Lemieux received a Bachelor of Arts in 1979 and a Bachelor of Education in 1985 from the University of Winnipeg . He completed post-baccalaureate work in education at the University of Manitoba . He worked as a teacher for several years , coaching various high school teams and holding positions in the teacher 's association . In the provincial election of 1999 , Lemieux was elected to the Manitoba legislature for the rural riding of La Verendrye , defeating Progressive Conservative incumbent Ben Sveinson by 3533 votes to 3367 . Lemieux 's victory was something of an upset , as it occurred in a riding which had never before been won by the New Democratic Party or its social-democratic predecessors ( despite having existed since 1879 ) . In the 2003 election , Lemieux was re-elected with 58% of the riding 's vote . On October 5 , 1999 , Lemieux was appointed Minister of Consumer of Corporate Affairs , with responsibility for the Gaming Control Act ."
  },
  "Template:African_Championships_in_Athletics_medalists_in_women's_triple_jump_0": {
    "/wiki/1992_African_Championships_in_Athletics": "The 1992 African Championships in Athletics were held between 25 and 28 June 1992 in Belle Vue Maurel , Pamplemousses District , Mauritius at the Stade Anjalay .",
    "/wiki/Awa_Dioum-Ndiaye": "Awa Dioum-Ndiaye ( also spelled N'Diaye ; born 21 November 1961 ) is a retired track and field athlete from Senegal who competed in the hurdling , high jump and the heptathlon events during her career in the 1980s . She is best known for winning the gold medal in the women 's high jump contest at the 1987 All-Africa Games . She was twice winner at the African Championships in Athletics , winning in 1984 and 1985 - the first athlete to win it twice .",
    "/wiki/Sonya_Agb\u00e9ssi": "Sonya Agbessi is a Beninese long jumper . She competed at the 1992 Summer Olympics where she was also the flag bearer for Benin during the opening ceremony .",
    "/wiki/1993_African_Championships_in_Athletics": "The 9th African Championships in Athletics were held between 23 and 27 June 1993 in Durban , South Africa at Kings Park Stadium .",
    "/wiki/B\u00e9ryl_Laram\u00e9": "B\u00e9ryl Laram\u00e9 ( born 1 July 1973 ) is a retired Seychellois female track and field athlete who specialised in high jump and triple jump events . She won two silvers and one bronze medal in the African Championships between 1993 and 2000 . Her personal best in triple jump is 12.62 metres ( achieved in 2000 ) , which is still the Seychellois national record . She also competed for Seychelles in the 1996 Summer Olympics in Atlanta , but failed to progress to the final round .",
    "/wiki/1996_African_Championships_in_Athletics": "The 10th African Championships in Athletics were held in Yaound\u00e9 , Cameroon between 13 and 16 June 1996 at the Stade Ahmadou Ahidjo .",
    "/wiki/K\u00e9n\u00e9_Ndoye": "K\u00e9n\u00e9 Ndoye ( born November 20 , 1978 ) is a female track and field athlete , competing internationally for Senegal . She was 14th in the triple jump at the 2004 Olympic Games in Athens , Greece . She won Senegal 's first world indoor medal when she took bronze in the triple jump at the 2003 World Indoor Championships . She has also been successful in the African Championships in Athletics . She won 10 medals at African Championships in Athletics ( 3 Gold , 3 Silver and 4 Bronze ) . She had 3 All Africa Games Medals ( 1 Gold , 2 Bronze ) . She won the Golden Lion as Senegal 's top sports person for 2003 . She has been a scholarship holder with the Olympic Solidarity program since November 2002 .",
    "/wiki/Fran\u00e7oise_Mbango_Etone": "Fran\u00e7oise Mbango Etone ( born 14 April 1976 in Yaound\u00e9 ) is a Cameroonian-born female track and field athlete . She has competed internationally for France since 2010 . While competing for Cameroon , Etone was a 2-time Olympic gold medalist in the triple jump at the 2004 Olympic Games in Athens , Greece and 2008 Olympic Games in Beijing , China . She currently holds the Olympic record for triple jump which she set with a distance of 15.39 m at the Beijing Olympics in 2008 . The 15.39m is the second longest women 's triple jump in history under any conditions , only bettered by Inessa Kravets ' world record 13 years earlier . Only 25 women have ever jumped 15 metres , Etone jumped beyond 15 metres 7 of her last 11 attempts in the Olympic final alone . She is also a talented long jumper who finished second at the African Championships in 1999 ( 6.55 m ) . She is the first athlete representing Cameroon to win medals at the World Championships , Commonwealth Games and Olympic Games . She has been a scholarship holder with the Olympic Solidarity program since November 2002 . During the 2005-06 academic year , she lived in New York City on a scholarship to attend St. John 's University in Queens , New York . The scholarship was made possible through the collaboration of the American electricity company AES Sonel along with US Ambassador to Cameroon , Niels Marquardt . She selected St. John 's University for study ( along with her younger sister , Berthe ) because of the school 's support of cultural programs in Cameroon .",
    "/wiki/1998_African_Championships_in_Athletics": "The 11th African Championships in Athletics were held in Dakar , Senegal , from August 18 to August 22 at the Stade L\u00e9opold Senghor .",
    "/wiki/Baya_Rahouli": "Baya Rahouli ( Arabic : \u0628\u0627\u064a\u0629 \u0631\u062d\u0648\u0644\u064a , born July 27 , 1979 in Bab El Oued , Algiers ) is an Algerian athlete who competes in the triple jump . She is a former African record holder in this event , and has two African championship titles , beating Fran\u00e7oise Mbango Etone and K\u00e9n\u00e9 Ndoye on both occasions . In two editions of the Pan Arab Games she has taken a clean sweep , winning eight gold medals in total .",
    "/wiki/2000_African_Championships_in_Athletics": "The 12th African Championships in Athletics were held in Algiers , Algeria between 12 and 15 July 2000 at the Stade 5 Juillet 1962 .",
    "/wiki/2002_African_Championships_in_Athletics": "The 13th African Championships in Athletics were held in Tunis and Rad\u00e8s , Tunisia in August , 2002 .",
    "/wiki/2002_African_Championships_in_Athletics_\u2013_Women's_triple_jump": "The women 's triple jump event at the 2002 African Championships in Athletics was held in Rad\u00e8s , Tunisia on August 6 .",
    "/wiki/2004_African_Championships_in_Athletics": "The 14th African Championships in Athletics were held in Brazzaville , Republic of Congo in July , 2004 . Since African Championships is a biennial event , this edition was contested only a month before 2004 Summer Olympics . Thus some top athletes shunned the event . On the other hand , many athletes use the competition to prepare for the Olympics .",
    "/wiki/2004_African_Championships_in_Athletics_\u2013_Women's_triple_jump": "The women 's triple jump event at the 2004 African Championships in Athletics was held in Brazzaville , Republic of the Congo on July 14 .",
    "/wiki/Yamil\u00e9_Aldama": "Yamil\u00e9 Aldama Pozo ( ; born 14 August 1972 ) is a Cuban-born triple jumper . She represented Cuba until 2003 , Sudan from 2004 to 2010 , then Great Britain from 2011 onwards . A four-time Olympian ( 2000-12 ) , she won a silver medal at the 1999 World Championships and a gold medal at the 2012 World Indoor Championships .",
    "/wiki/2006_African_Championships_in_Athletics": "The 15th African Championships in Athletics were held in Mauritius between August 9 and August 13 , 2006 . The event was staged at Stade Germain Comarmond in Bambous , Rivi\u00e8re Noire District . This was the second time when the African Championships in Athletics were hosted in Mauritius , the first was in 1992 . Many world-class runners were competing , but in terms of the field events the standard was poor . In addition , some of those , especially the throwing events , had very few participants as African federations can not afford to send large teams .",
    "/wiki/2006_African_Championships_in_Athletics_\u2013_Women's_triple_jump": "The women 's triple jump event at the 2006 African Championships in Athletics was held at the Stade Germain Comarmond on August 13 .",
    "/wiki/Otonye_Iworima": "Otonye Iworima ( born 13 April 1976 ) is a Nigerian triple jumper . In 2006 , she finished second at the Commonwealth Games and third at the African Championships . For these achievements the Athletics Federation of Nigeria chose her as the Nigerian Female Athlete of the Year . In 2007 , she won another bronze medal , at the All-Africa Games .",
    "/wiki/2008_African_Championships_in_Athletics": "The 16th African Championships in Athletics was held in Addis Ababa , the capital city of Ethiopia , from April 30 to May 4 , 2008 . The competition venue was the Addis Ababa Stadium . It is the largest Athletics event held in Ethiopia to date . It was the first time in its then 29-year history the African Championships in Athletics were held in Eastern Africa , despite the region 's well-documented success in long-distance running . In the men 's 100 m , Nigerians Olusoji Fasuba and Uchenna Emedolu repeated the places from the 2006 edition . On April 30 , there was a 35-minute delay to the men 's 10,000 metres due to weather , but the Ethiopians dominated the podium and the race , with the missed absence of world champion Kenenisa Bekele .",
    "/wiki/2008_African_Championships_in_Athletics_\u2013_Women's_triple_jump": "The men 's triple jump event at the 2008 African Championships in Athletics was held at the Addis Ababa Stadium on May 1 .",
    "/wiki/Chinonye_Ohadugha": "Chinonyelum Ohadugha ( born 24 March 1986 ) is a Nigerian triple jumper . In 2006 , she finished fourth at the Commonwealth Games . In 2007 , she won the silver medal at the All-Africa Games with a jump of 14.21 metres , a new Nigerian record . She did not reach the final round at the 2007 World Championships , but won the bronze medal at the 2008 African Championships . She competed at the 2008 Olympic Games without reaching the final . She also finished fifth in 4 x 100 metres relay at the 2005 Summer Universiade .",
    "/wiki/2010_African_Championships_in_Athletics": "The 2010 African Championships in Athletics was held in Nairobi , Kenya from 28 July to 1 August 2010 .",
    "/wiki/2010_African_Championships_in_Athletics_\u2013_Women's_triple_jump": "The women 's triple jump at the 2010 African Championships in Athletics was held on August 1 .",
    "/wiki/Sarah_Nambawa": "Sarah Nambawa ( born 23 September 1985 in Kampala ) is a Ugandan athlete specialising in the triple jump . She is a two-time African Champion . Her personal best in the event is from 2011 .",
    "/wiki/2012_African_Championships_in_Athletics": "The 2012 African Championships in Athletics was held at the Stade Charles de Gaulle in Porto Novo , Benin from 27 June to 1 July 2012 . It was the first time that Benin had hosted the event .",
    "/wiki/2012_African_Championships_in_Athletics_\u2013_Women's_triple_jump": "The women 's triple jump at the 2012 African Championships in Athletics was held at the Stade Charles de Gaulle on 1 July .",
    "/wiki/2014_African_Championships_in_Athletics": "The 2014 African Championships in Athletics was held in Marrakech , Morocco from 10 to 14 August 2014 . The competition was the 19th edition of Africa senior championships . The competition served as preparation to African athletes for the next continental cup which is planned to hold on 13 and 14 September 2014 in Marrakech . It was the second time that Morocco had hosted the event .",
    "/wiki/2014_African_Championships_in_Athletics_\u2013_Women's_triple_jump": "The women 's triple jump event at the 2014 African Championships in Athletics was held on August 14 on Stade de Marrakech .",
    "/wiki/Jo\u00eblle_Mbumi_Nkouindjin": "Jo\u00eblle Sandrine Mbumi Nkouindjin ( born 25 May 1986 ) is a Cameroonian athlete whose specialty is the triple jump . She competed at the 2015 World Championships in Beijing without qualifying for the final . She has personal bests of 14.16 metres in the triple jump ( Yaound\u00e9 2015 ) and 6.35 metres in the long jump ( Yaound\u00e9 2014 ) .",
    "/wiki/Nadia_Eke": "Nadia Eke ( born 11 January 1993 , Accra ) is a Ghanaian triple jumper . In 2014 , she finished tenth at the Commonwealth Games in Glasgow , won silver at the African Championships in Marrakech and was seventh at the IAAF Continental Cup . She also won bronze at the African Games in Brazzaville in 2015 . In 2016 , she became African champion .",
    "/wiki/2016_African_Championships_in_Athletics": "The 20th African Championships in Athletics was held in Durban , South Africa from 22 to 26 June 2016 . It was the second time that Durban and South Africa hosted this competition .",
    "/wiki/2016_African_Championships_in_Athletics_\u2013_Women's_triple_jump": "The women 's triple jump event at the 2016 African Championships in Athletics was held on 26 June in Kings Park Stadium ."
  }
}