{
  "List_of_Knights_and_Dames_Grand_Cross_of_the_Order_of_St_Michael_and_St_George_0": {
    "/wiki/Thomas_Maitland_(British_Army_officer)": "Lieutenant General The Right Honourable Sir Thomas Maitland ( 10 March 1760 - 17 January 1824 ) was a British soldier and colonial governor . He also served as a Member of Parliament for Haddington from 1790-1796 , 1802-06 and 1812-13 . He was made a Privy Councillor on 23 November 1803 . He was the second surviving son of James Maitland , 7th Earl of Lauderdale , and the younger brother of James Maitland , 8th Earl of Lauderdale . Maitland never married .",
    "/wiki/Charles_Penrose_(Royal_Navy_officer)": "Vice Admiral Sir Charles Vinicombe Penrose ( 20 June 1759 - 1 January 1830 ) was a Royal Navy officer who went on to be Commander-in-Chief , Mediterranean Fleet .",
    "/wiki/Giuseppe_Borg_Olivier": "Giuseppe Borg Olivier ( 2 November 1755 - 21 February 1831 ) was a member of the Supreme Council of Justice of Malta from 1815 to 1818 when he retired .",
    "/wiki/Thomas_Fremantle_(Royal_Navy_officer)": "Vice-Admiral Sir Thomas Francis Fremantle , ( 20 November 1765 - 19 December 1819 ) was a British naval officer in the Royal Navy whose accolades include three separate fleet actions , a close friendship with Lord Nelson , and a barony in Austria . He was the father of Sir Admiral Charles Fremantle , after whom the city Fremantle , in Western Australia , is named .",
    "/wiki/Frederick_North,_5th_Earl_of_Guilford": "Frederick North , 5th Earl of Guilford ( 7 February 1766 - 14 October 1827 ) , styled The Honourable Frederick North until 1817 , was a British politician and colonial administrator ."
  }
}