{
  "National_Register_of_Historic_Places_listings_in_Venango_County,_Pennsylvania_0": {
    "/wiki/Allegheny_Baptist_Church": "Allegheny Baptist Church , known since 1890 as the Free Methodist Church of Pleasantville , is a historic Baptist church located at Pleasantville , Venango County , Pennsylvania . It was built between 1847 and 1849 , and is a one-story , frame building , three bays by four bays , with a square tower . It features a wide , recessed front entrance . The tower includes a bell tower that rises 22 feet above the roof . It was listed on the National Register of Historic Places in 1978 .",
    "/wiki/Pennsylvania_Route_27": "Pennsylvania Route 27 ( PA 27 ) is a 65.7-mile-long ( 105.7 km ) state highway located in northwest Pennsylvania . The western terminus of the route is at Park Avenue near U.S. Route 6 and U.S. Route 19 in Meadville . The eastern terminus is at Pennsylvania Route 69 three miles ( 5 km ) south of Sugar Grove .",
    "/wiki/Pleasantville,_Venango_County,_Pennsylvania": "Pleasantville is a borough in Venango County , Pennsylvania in the United States . The population was 850 at the 2000 census , and 892 at the 2010 census . It was an early oil 'boom town ' , and the population jumped from 291 to 1,598 between 1860 and 1870 . But the boom soon passed , and the population shrank to 855 by 1880 , and has remained fairly stable since then .",
    "/wiki/Jersey_Bridge_(Cherrytree_Township,_Pennsylvania)": "The Jersey Bridge is a one-lane , Pratt through truss bridge that spans Oil Creek in Cherrytree Township , Venango County in the U.S. state of Pennsylvania . It connects the city of Titusville to the Drake Well Museum and Oil Creek State Park . The bridge was listed on the National Register of Historic Places in 1988 . It was replaced in 1998 with a newer bridge that used the superstructure of the old bridge .",
    "/wiki/Oil_Creek_(Allegheny_River)": "Oil Creek is a 46.7-mile ( 75.2 km ) tributary of the Allegheny River in Venango and Crawford counties in the U.S. state of Pennsylvania . It has a drainage area of 319 square miles ( 830 km2 ) and joins the Allegheny at Oil City . Attractions along the river include the Drake Well Museum and Oil Creek State Park . The stream was named after the oil that was found along its banks before the historic oil strike by Edwin Drake in Titusville , which Oil Creek flows through . Oil Creek is popular with canoeists and fishers . The creek is rated as a beginners creek for those interested in learning how to safely use canoes and kayaks . Oil Creek is a cold water fishery with bass and trout living in its waters .",
    "/wiki/Titusville,_Pennsylvania": "Titusville is a third class city in far east corner Crawford County , Pennsylvania , United States . The population was 5,418 at the 2017 census . Titusville is known as the birthplace of the American Oil Industry and for a number of years , was the leading oil producing region in the world . Titusville was notable for its lumber industry , including 17 sawmills , as well as its plastic , and tool making industries .",
    "/wiki/Cherrytree_Township,_Venango_County,_Pennsylvania": "Cherrytree Township is a township in Venango County , Pennsylvania , United States . The population was 1,973 at the 2010 census . It is part of the Titusville PA .",
    "/wiki/Bridge_in_Clinton_Township": "Bridge in Clinton Township is a historic Pratt through truss bridge located in Clinton Township , Venango County , Pennsylvania . It was built by the Smith Bridge Company of Toledo , Ohio in 1887 . It measures 106-foot-long ( 32 m ) and crosses the Scrubgrass Creek . It was listed on the National Register of Historic Places in 1988 .",
    "/wiki/Clinton_Township,_Venango_County,_Pennsylvania": "Clinton Township is a township in Venango County , Pennsylvania , United States . The population was 758 at the 2000 census .",
    "/wiki/Connely-Holeman_House": "Connely-Holeman House is a historic home located at Pleasantville , Venango County , Pennsylvania . It was built between 1869 and 1871 , and is a large three-story , square wood frame building in the Second Empire style . It measures 50 feet by 50 feet and features two projecting bays , covered porches with Corinthian order columns , and a mansard roof with cast iron cresting . A rear addition was built in 1887 . It was listed on the National Register of Historic Places in 2007 .",
    "/wiki/Samuel_F._Dale_House": "Samuel F. Dale House is a historic home located at Franklin , Venango County , Pennsylvania . It was built in 1875 , and is a large two-story , brick dwelling in the Second Empire style . It has a gabled wing with solarium and sleeping porch . It features a slate covered mansard roof , two-story projecting bay , and porches across the front and rear facades . Also on the property is a contributing carriage house converted to a garage . It was listed on the National Register of Historic Places in 1975 .",
    "/wiki/Franklin,_Pennsylvania": "Franklin is a city in Venango County , Pennsylvania , United States . The population was 6,545 in the 2010 census . It is the county seat of Venango County . Franklin is part of the Oil City , PA Micropolitan Statistical Area .",
    "/wiki/Drake_Oil_Well": "The Drake Well is a 69.5-foot-deep ( 21.2 m ) oil well in Cherrytree Township , Venango County in the U.S. state of Pennsylvania , the success of which sparked the first oil boom in the United States . The well is the centerpiece of the Drake Well Museum located 3 miles ( 5 km ) south of Titusville . Drilled by Edwin Drake in 1859 , along the banks of Oil Creek , it is the first commercial oil well in the United States . Drake Well was listed on National Register of Historic Places and designated a National Historic Landmark in 1966 . It was designated a Historic Mechanical Engineering Landmark in 1979 . The well was designated a National Historic Chemical Landmark in 2009 , on the sesquicentennial of the strike . The Drake Well is often referred to as the first commercial oil well , although that title is also claimed for wells in Azerbaijan , Ontario , West Virginia , Yenangyaung Myanmar , Persia , Arabia , Szechuan China and Poland , among others . In the United States before the Drake Well , oil-producing wells were wells that were drilled for salt brine , and produced oil and gas only as accidental byproducts . An intended drinking water well at Oil Springs , Ontario found oil in 1858 , a year before the Drake Well , but it had not been drilled for oil . Historians have noted that the importance of the Drake Well was not in being the first well to produce oil , but in attracting the first great wave of investment in oil drilling , refining , and marketing :",
    "/wiki/Pennsylvania_Route_36": "Pennsylvania Route 36 ( PA 36 ) is a 151.12 mi ( 243.2 km ) long state highway located in the U.S. state of Pennsylvania . The southern terminus is at Pennsylvania Route 26 near the Hopewell Township community of Yellow Creek . The northern terminus is at Pennsylvania Route 27 and Pennsylvania Route 227 in Pleasantville . One of the longest and oldest highways in the commonwealth , PA 36 serves as a major connector between South Central and Northwestern Pennsylvania . In 1955 , the highway was designated as the Colonel Drake Highway in honor of Edwin Drake .",
    "/wiki/Emlenton_Historic_District": "Emlenton Historic District is a national historic district located at Emlenton , Venango County , Pennsylvania . The district includes 317 contributing buildings , 57 contributing structures , and 1 contributing object in the central business district and surrounding residential areas of Emlenton . It includes commercial , residential , industrial , and institutional buildings . They are in a variety of popular architectural styles including Italianate , Greek Revival , and Gothic Revival . Notable buildings include the Valley House Hotel ( 1837 ) , Quaker State Oil Refining Complex , Harry Crawford birthplace ( c. 1860 ) , Farmers National Bank Building ( 1904 ) , Criswell-Bishop Building ( c. 1920 ) , Crawford Memorial School ( 1928 ) , St. John 's Reformed Church ( 1869 ) , St. John 's Evangelical Lutheran Church ( 1886 ) , Emlenton Presbyterian Church ( 1874 ) , St. Michael 's Roman Catholic Church ( 1870 , 1930 ) , and Emlenton Borough Building ( 1928 ) . The contributing structures are mostly located at the Quaker State Oil Refining Complex and the contributing object is a World War I memorial . The Emlenton Mill ( 1874 ) was lost to fire on February 6 , 2015 . At the time of the fire it housed an ice cream shop , a hostel for cyclists on the Allegheny River Trail , and a small museum . Several nearby houses were also damaged . Emlenton , a town of 648 , has been trying to remake itself into a tourist destination . The district was added to the National Register of Historic Places in 1997 .",
    "/wiki/Allegheny_River": "The Allegheny River ( /\u02cc\u00e6l\u0259\u02c8\u0261e\u026ani/ AL-\u0259-GAY-nee ) is a 325-mile ( 523 km ) long headwater stream of the Ohio River in western Pennsylvania and New York , United States . The Allegheny River runs from its headwaters just below the middle of Pennsylvania 's northern border northwesterly into New York then in a zigzag southwesterly across the border and through Western Pennsylvania to join the Monongahela River at the Forks of the Ohio on the Point of Point State Park in Downtown Pittsburgh , Pennsylvania . The Allegheny River is , by volume , the main headstream of both the Ohio and Mississippi Rivers . Historically , the Allegheny was considered to be the upper Ohio River by both Native Americans and European settlers . The shallow river has been made navigable upstream from Pittsburgh to East Brady by a series of locks and dams constructed in the early 20th century . A 24-mile long portion of the upper river in Warren and McKean counties of Pennsylvania and Cattaraugus County in New York is the Allegheny Reservoir also known as Lake Kinzua , created by the erection of the Kinzua Dam in 1965 for flood control . The name of the river comes from one of a number of Delaware Indian phrases which are homophones of the English name , with varying translations .",
    "/wiki/Emlenton,_Pennsylvania": "Emlenton is a borough in Clarion and Venango counties in the U.S. state of Pennsylvania . The population was 625 at the 2010 census . Of this , 617 were in Venango County , and only 8 were in Clarion County . The borough is home to the I-80 Emlenton Bridge , which spans the Allegheny River .",
    "/wiki/Franklin_Historic_District_(Franklin,_Pennsylvania)": "Franklin Historic District is a national historic district located at Franklin , Venango County , Pennsylvania . The district includes 380 contributing buildings in the central business district and surrounding residential areas of Franklin . It includes commercial , residential , industrial , and institutional buildings . They are in a variety of popular architectural styles including Queen Anne , Greek Revival , and Federal . Notable non-residential buildings include the Venango County Courthouse ( 1867 , 1931-32 ) , County Jail , and First United Methodist Church . It was added to the National Register of Historic Places in 1984 .",
    "/wiki/Indian_God_Rock": "Indian God Rock is a large boulder in the northwestern part of the U.S. state of Pennsylvania . Located near the unincorporated community of Brandon , it lies along the Allegheny River in Venango County 's Rockland Township . It is significant for the large petroglyph on one of its sides . :2 , 3 Because of the petroglyph , the rock has been an explorers ' landmark , a tourist attraction , and an object of scholarly investigation .",
    "/wiki/Rockland_Township,_Venango_County,_Pennsylvania": "Rockland Township is a township in Venango County , Pennsylvania , United States . The population was 1,346 at the 2000 census . The township is quite remote , containing one general store ( which is now closed ) , a Methodist church , and a volunteer fire department . A place of interest is Freedom Falls , where a waterfall and old iron furnace can be found .",
    "/wiki/National_Transit_Building": "National Transit Building is a historic commercial building located at 206 Seneca Street , Oil City , Venango County , Pennsylvania . The main block was built in 1890 , and is a four-story , stone and brick building . An adjacent annex building was built in 1896 . The annex is connected by an enclosed bridgeway at the second , third , and fourth levels . The main entrance features a sandstone archway . The National Transit Building is a jewel in the tapestry of the Oil City Downtown Commercial Historic District . Once the hub of John D. Rockefellers Standard Oil Company , it has been transformed by the Oil City Civic Center into artists studios . Architects of the building were Curtis and Archer of Fredonia , New York . The builder of the structure , Horace B. Robinson of Oil City , etched his initials into a window on the second floor of the building with his diamond ring . At a cost of $ 90,000.00 , it was the first building in the nation with offices for companies specializing in the transportation of oil by pipeline . Located at Center and Seneca Streets , the red brick structure opened in 1890 , followed six years later by the yellow brick Annex . The two structures were connected by an architectural bridge for a total of 25,880 square feet .",
    "/wiki/Oil_City,_Pennsylvania": "Oil City is a city in Venango County , Pennsylvania known for its prominence in the initial exploration and development of the petroleum industry . It is located at a bend in the Allegheny River at the mouth of Oil Creek . Initial settlement of Oil City was sporadic , and tied to the iron industry . After the first oil wells were drilled in 1861 , it became central to the petroleum industry while hosting headquarters for the Pennzoil , Quaker State , and Wolf 's Head motor oil companies . Tourism plays a prominent role in the region by promoting oil heritage sites , nature trails , and Victorian architecture . The population was 10,557 at the 2010 census , and it is the principal city of the Oil City , PA Micropolitan Statistical Area .",
    "/wiki/Oil_City_Armory": "Oil City Armory is a historic National Guard armory located at Oil City , Venango County , Pennsylvania . It was built in 1914 , and consists of a two-story administration section with a taller two-story drill hall in a Late Victorian style . The administration section has a taller three-story , corner , polygonal office tower with Gothic-influenced window surrounds . The drill hall measures 70 by 72 feet and has a roof supported by Pratt trusses . It was added to the National Register of Historic Places in 1991 . It is located in the Oil City South Side Historic District .",
    "/wiki/Oil_City_Downtown_Commercial_Historic_District": "Oil City Downtown Commercial Historic District is a national historic district located at Oil City , Venango County , Pennsylvania . The district includes 51 contributing buildings and 2 contributing structures in the central business district of Oil City . It primarily includes commercial buildings in a variety of popular architectural styles including Romanesque Revival , Colonial Revival , and Italianate . Notable buildings include the General Telephone Company Building ( 1942 ) , Trinity Methodist Episcopal Church ( 1924 ) , Oil City Boiler Works , Downs Block ( 1894 ) , Veach Block ( 1896 , 1913 ) , Drake Building ( 1928 ) , and Oil City National Bank ( 1926 ) . It was added to the National Register of Historic Places in 1997 .",
    "/wiki/Oil_City_North_Side_Historic_District": "Oil City North Side Historic District , also known as Cottage Hill , Palace Hill , and Polish Hill , is a national historic district located at Oil City , Venango County , Pennsylvania . It is directly north of the Oil City Downtown Commercial Historic District . The district includes 1,140 contributing buildings in a predominantly residential section of Oil City . It includes a few neighborhood commercial buildings , churches , and two schools . The houses were built between about 1870 and 1945 and are in a variety of popular architectural styles including Romanesque Revival , Queen Anne , Second Empire , Colonial Revival , Classical Revival , and Italianate . It also includes a number of working class vernacular dwellings , especially in the Polish Hill section . It was added to the National Register of Historic Places in 1999 .",
    "/wiki/Consolidated_Rail_Corporation": "Conrail ( formally the Consolidated Rail Corporation , with reporting mark CR ) was the primary Class I railroad in the Northeastern United States between 1976 and 1999 . The trade name Conrail is a portmanteau based on the company 's legal name , and while it no longer operates trains , it continues to do business as an asset management and network services provider in three Shared Assets Areas that were excluded from the division of its operations during its acquisition by CSX Corporation and the Norfolk Southern Railway . The Federal Government created Conrail to take over the potentially-profitable lines of multiple bankrupt carriers , including the Penn Central Transportation Company and Erie Lackawanna Railway . After railroad regulations were lifted by the 4R Act and the Staggers Act , Conrail began to turn a profit in the 1980s and was privatized in 1987 . The two remaining Class I railroads in the East , CSX Transportation and the Norfolk Southern Railway ( NS ) , agreed in 1997 to acquire the system and split it into two roughly-equal parts ( alongside three residual shared-assets areas ) , returning rail freight competition to the Northeast by essentially undoing the 1968 merger of the Pennsylvania Railroad and New York Central Railroad that created Penn Central . Following approval by the Surface Transportation Board , CSX and NS took control in August 1998 , and on June 1 , 1999 , began operating their respective portions of Conrail . The old company remains a jointly-owned subsidiary , with CSX and NS owning respectively 42 percent and 58 percent of its stock , corresponding to how much of Conrail 's assets they acquired . Each parent , however , has an equal voting interest . The primary asset retained by Conrail is ownership of the three Shared Assets Areas in New Jersey , Philadelphia , and Detroit . Both CSX and NS have the right to serve all shippers in these areas , paying Conrail for the cost of maintaining and improving trackage . They also make use of Conrail to perform switching and terminal services within the areas , but not as a common carrier , since contracts are signed between shippers and CSX or NS . Conrail also retains various support facilities including maintenance-of-way and training , as well as a 51 percent share in the Indiana Harbor Belt Railroad .",
    "/wiki/Oil_City_South_Side_Historic_District": "Oil City South Side Historic District , also known as Venango City and Laytonia , is a national historic district located at Oil City , Venango County , Pennsylvania . It is directly south of the Oil City Downtown Commercial Historic District . The district includes 882 contributing buildings and 2 contributing objects in a mixed use section of Oil City . It includes a large number of dwellings , commercial buildings , churches , and institutional buildings . The houses were built between about 1863 and 1945 and are in a variety of popular architectural styles including Romanesque Revival , Late Gothic Revival , Second Empire , Colonial Revival , Classical Revival , Bungalow , American Foursquare , and Italianate . Notable non-residential buildings include the Carnegie Library ( 1905 ) , Latonai Theater ( 1928 ) , Knights of Columbus Hall ( 1927-1928 ) , Good Hope Lutheran Church Rectory ( 1928 ) , Christ Episcopal Church ( 1886 ) , St. Stephen 's Roman Catholic Church ( 1906 ) , and Second Lutheran Church ( 1913 ) . Located in the district is the separately listed Oil City Armory . It was added to the National Register of Historic Places in 1997 .",
    "/wiki/Pithole_Stone_Arch_Bridge": "The Pithole Stone Arch Bridge is a 37-foot ( 11 m ) masonry , deck arch bridge that spans Pithole Creek between Cornplanter and President Townships , Venango County in the U.S. state of Pennsylvania . The bridge was listed on the National Register of Historic Places in 1988 and was documented by the Historic American Engineering Record ( HAER ) in 1997 .",
    "/wiki/Pithole_Creek": "Pithole Creek is a 17.1-mile ( 27.5 km ) tributary of the Allegheny River in Northwest Pennsylvania in the United States . It has a drainage area of 41.8 square miles ( 108 km2 ) . Pithole Creek joins the Allegheny River approximately 0.5 miles ( 0.80 km ) upstream of Oleopolis .",
    "/wiki/Cornplanter_Township,_Venango_County,_Pennsylvania": "Cornplanter Township is a township in Venango County , Pennsylvania , United States . The population was 2,687 at the 2000 census .",
    "/wiki/President_Township,_Venango_County,_Pennsylvania": "President Township is a township in Venango County , Pennsylvania , United States . The population was 543 at the 2000 census .",
    "/wiki/Rockland_Furnace": "Rockland Furnace is a historic iron furnace located at Rockland Township , Venango County , Pennsylvania . It was built 1832 , and is a stone structure approximately 25 feet tall . It has an 11 feet wide , 10 feet tall casting arch and 9 feet wide , 9 feet tall tuyere arch . Also on the property are the wheel pit and mill race . It was listed on the National Register of Historic Places in 1991 .",
    "/wiki/Pithole,_Pennsylvania": "Pithole , or Pithole City , is a ghost town in Cornplanter Township , Venango County in Pennsylvania , about 6 miles ( 9.7 km ) from Oil Creek State Park and the Drake Well Museum , the site of the first commercial oil well in the United States . Pithole 's sudden growth and equally rapid decline , as well as its status as a proving ground of sorts for the burgeoning petroleum industry , made it one of the most famous of oil boomtowns . Oil strikes at nearby wells in January 1865 prompted a large influx of people to the area that would become Pithole , most of whom were land speculators . The town was laid out in May 1865 , and by December was incorporated with an approximate population of 20,000 . At its peak , Pithole had at least 54 hotels , 3 churches , the third largest post office in Pennsylvania , a newspaper , a theater , a railroad , the world 's first pipeline and a red-light district the likes of Dodge City 's . By 1866 , economic growth and oil production in Pithole had slowed . Oil strikes around other nearby communities and numerous fires drove residents away from Pithole and , by 1877 , the borough was unincorporated . The site was cleared of overgrowth and was donated to the Pennsylvania Historical and Museum Commission in 1961 . A visitor center , containing exhibits pertaining to the history of Pithole , was built in 1972 . Pithole was listed on the National Register of Historic Places in 1973 .",
    "/wiki/U.S._Post_Office_(Oil_City,_Pennsylvania)": "The U.S. Post Office , also known as the U.S. Federal Building , is a historic post office building located at Oil City , Venango County , Pennsylvania . It was designed by the Office of the Supervising Architect under the direction of James Knox Taylor and built in 1906 , with additions built in 1912 and 1928 . It is in the Beaux Arts style . It is a steel frame building faced with limestone ashlar . It was added to the National Register of Historic Places in 1977 .",
    "/wiki/Witherup_Bridge": "Witherup Bridge is a historic Pratt pony truss bridge located in Clinton Township , Venango County , Pennsylvania . It was built by the Canton Bridge Company in 1906 . It measures 86-foot-long ( 26 m ) and crosses the Scrubgrass Creek . It was listed on the National Register of Historic Places in 1988 ."
  },
  "List_of_gubernatorial_nominees_from_the_New_Progressive_Party_of_Puerto_Rico_0": {
    "/wiki/Luis_A._Ferr\u00e9": "Don Luis Alberto Ferr\u00e9 Aguayo ( February 17 , 1904 - October 20 , 2003 ) was a Puerto Rican engineer , industrialist , politician , philanthropist , and a patron of the arts . He was Governor of Puerto Rico , serving from 1969 to 1973 . He was the founding father of the New Progressive Party , which advocates for Puerto Rico to become a state of the United States of America . He is a recipient of the Presidential Medal of Freedom .",
    "/wiki/1968_Puerto_Rican_general_election": "General elections were held in Puerto Rico on 5 November 1968 . Luis A. Ferr\u00e9 of the New Progressive Party ( PNP ) was elected Governor . In the House of Representatives elections the PNP won a plurality of the vote , but the Popular Democratic Party won a majority of the seats . They also won a majority of seats in the Senate . Voter turnout was 78.4% .",
    "/wiki/1972_Puerto_Rican_general_election": "General elections were held in Puerto Rico on 7 November 1972 . Rafael Hern\u00e1ndez Col\u00f3n of the Popular Democratic Party ( PPD ) was elected Governor , whilst the PPD also won a majority of the seats in the House of Representatives and the Senate . Voter turnout was 80.4% .",
    "/wiki/Carlos_Romero_Barcel\u00f3": "Carlos Antonio Romero Barcel\u00f3 ( born September 4 , 1932 ) is a Puerto Rican politician who served as Governor of Puerto Rico , the second governor to be elected from the New Progressive Party ( PNP ) and also Resident Commissioner of Puerto Rico from 1993 to 2001 . Romero Barcel\u00f3 is the grandson of Antonio R. Barcel\u00f3 , a former Union Party leader and advocate of Puerto Rican independence during the early 20th century and the son of Josefina Barcel\u00f3 , the first woman to preside over a major political party in Puerto Rico .",
    "/wiki/1976_Puerto_Rican_general_election": "General elections were held in Puerto Rico on 2 November 1976 . Carlos Romero Barcel\u00f3 of the New Progressive Party ( PNP ) was elected Governor , whilst the PNP also won a majority of the seats in the House of Representatives and the Senate . Voter turnout was 86.1% .",
    "/wiki/1980_Puerto_Rican_general_election": "General elections were held in Puerto Rico on 4 November 1980 . Carlos Romero Barcel\u00f3 of the New Progressive Party ( PNP ) was re-elected Governor . In the House of Representatives elections the PNP received a plurality of votes , but the Popular Democratic Party won a majority of the seats . They also won a majority of seats in the Senate . Voter turnout was 88.30% .",
    "/wiki/1984_Puerto_Rican_general_election": "General elections were held in Puerto Rico on 6 November 1984 . Rafael Hern\u00e1ndez Col\u00f3n of the Popular Democratic Party ( PPD ) was elected Governor , whilst the PPD also won a majority of seats in the House of Representatives and the Senate . Voter turnout was 88.9% .",
    "/wiki/Baltasar_Corrada_del_R\u00edo": "Baltasar Corrada del R\u00edo ( April 10 , 1935 - March 11 , 2018 ) was a Puerto Rican politician . He held various high political offices in the island , including President of the Puerto Rico Civil Rights Commission , Resident Commissioner ( 1977-1985 ) , Mayor of the capital city of San Juan ( 1985-1989 ) , Puerto Rico 's 15th Secretary of State ( 1993-1995 ) and Associate Justice of the Supreme Court ( 1995-2005 ) . He was also the unsuccessful NPP candidate for Governor in the elections of 1988 .",
    "/wiki/1988_Puerto_Rican_general_election": "General elections were held in Puerto Rico on 8 November 1988 . Rafael Hern\u00e1ndez Col\u00f3n of the Popular Democratic Party ( PPD ) was re-elected Governor , whilst the PPD also won a majority of seats in the House of Representatives and the Senate . Voter turnout was 84.5% .",
    "/wiki/Pedro_Rossell\u00f3": "Pedro Juan Rossell\u00f3 Gonz\u00e1lez , ( Spanish pronunciation : [ rose\u02c8\u028eo ] ; born April 5 , 1944 ) is a Puerto Rican physician and politician who served as Governor of Puerto Rico from 1993 to 2001 . He was President of the New Progressive Party from 1991 to 1999 and 2003 to 2008 , and served as Senator for the District of Arecibo from 2005 to 2008 . His son , Ricardo was the 12th Governor of Puerto Rico , who became the first Puerto Rican governor to resign . In 1988 Rossell\u00f3 ran for Resident Commissioner of Puerto Rico , but lost to Jaime Fuster in the 1988 elections . From 1990 to 1991 he successfully challenged former Governor and then-NPP President Carlos Romero Barcel\u00f3 for the NPP 's presidency . He was thereafter elected Governor of Puerto Rico in 1992 and in 1996 was re-elected by the widest electoral margin up to that date . He also served as President of the Council of State Governments as well as Chairman of the Southern Governors ' Association , and Democratic Governors Association . He retired from active politics in 2001 . In 2003 Rossell\u00f3 made a comeback , winning the NPP 's 2004 gubernatorial nomination in primaries against then-NPP President Carlos Pesquera . He then lost the 2004 gubernatorial race to Anibal Acevedo Vil\u00e1 by an unprecedented and a vigorously disputed razor-thin margin . Soon after an elected NPP Senator from Arecibo resigned his seat and Rossell\u00f3 filled the vacancy . From 2005 to 2006 Rossell\u00f3 unsuccessfully sought to remove Senate President Kenneth McClintock from that position and replace him .",
    "/wiki/1992_Puerto_Rican_general_election": "General elections were held in Puerto Rico on 3 November 1992 . Pedro Rossell\u00f3 of the New Progressive Party ( PNP ) was elected Governor , whilst the PNP also won a majority of seats in the House of Representatives and the Senate . Voter turnout was between 82% and 84% .",
    "/wiki/1996_Puerto_Rican_general_election": "General elections were held in Puerto Rico on 5 November 1996 . Pedro Rossell\u00f3 of the New Progressive Party ( PNP ) was re-elected Governor , whilst the PNP also won a majority of seats in the House of Representatives and the Senate . Voter turnout was between 80% and 82% .",
    "/wiki/Carlos_Pesquera": "Carlos Ignacio Pesquera Morales ( born August 17 , 1956 ) is a Puerto Rican civil engineer . He ran in the 2016 New Progressive Party primary to be Puerto Rico 's Resident Commissioner as Pedro Pierluisi 's ballot running mate , but lost by over 70% of the vote to state representative Jenniffer Gonzalez . He is married to Irasema Rivera , an agronomist , and has one son and one daughter . He currently resides in Guaynabo , Puerto Rico .",
    "/wiki/2000_Puerto_Rican_general_election": "General elections were held in Puerto Rico on 7 November 2000 . Sila Mar\u00eda Calder\u00f3n of the Popular Democratic Party ( PPD ) was elected Governor , whilst the PPD also won a majority of seats in the House of Representatives and the Senate . Voter turnout was between 80% and 82% .",
    "/wiki/2004_Puerto_Rican_general_election": "The Puerto Rico General Elections of 2004 took place on Election Day , Tuesday , November 2 , 2004 . After a count by the State Commission of Elections , the winner was inaugurated to a four-year term as Governor of Puerto Rico on January 2 , 2005 . The post of Governor of Puerto Rico and the entire House of Representatives and the entire Senate , as well as the Mayors of the municipalities of Puerto Rico , and the Resident Commissioner were also elected for four-year terms . For the first time in Puerto Rican history , citizens unable to mobilize to voting colleges for medical reasons , but capable of practicing their right to vote , were visited in their own homes and hospitals so that they could exercise their vote .",
    "/wiki/Luis_Fortu\u00f1o": "Luis Guillermo Fortu\u00f1o Burset [ a ] ( born 31 October 1960 ) is a Puerto Rican politician who served as governor of Puerto Rico , a territory of the United States of America , and as president of the New Progressive Party of Puerto Rico ( PNP ) until 2013 , served as president of the Council of State Governments during 2012 and served as president of the Southern Governors Association from 2011 to 2012 . On 26 June 2011 he announced his plans to run for reelection . He was defeated in the 2012 elections by Alejandro Garcia Padilla . In the 1990s , Fortu\u00f1o served as the first secretary of economic development and commerce ( 1994-1997 ) , as the executive director of the Puerto Rico Tourism Company ( 1993-1994 ) , and as the president of the Puerto Rico Hotel Development Corporation during the administration of Pedro Rossell\u00f3 . In 2003 Fortu\u00f1o won the 2004 PNP nomination for resident commissioner of Puerto Rico in primaries against former governor Carlos Romero Barcel\u00f3 , former Senate president Charlie Rodriguez and then-senator Miriam Ram\u00edrez de Ferrer . He was then elected resident commissioner in 2004 , defeating Senator Roberto Prats . Fortu\u00f1o represented Puerto Rico from 2005 to 2009 in the United States House of Representatives , and served as Chair of the Congressional Hispanic Conference , a Member of the newly created United States House Natural Resources Subcommittee on Insular Affairs and co-chair , with Representative Xavier Becerra ( D-CA ) , of the Friends of Spain Caucus . Fortu\u00f1o later won the PNP gubernatorial nomination by a wide margin after defeating former governor and then-senator Pedro Rossell\u00f3 in the primaries . He then won the general election for governor by a comfortable margin during the 2008 elections , defeating incumbent governor An\u00edbal Acevedo Vil\u00e1 .",
    "/wiki/2008_Puerto_Rican_general_election": "The Puerto Rico general election of 2008 were held on Tuesday , November 4 , 2008 to elect the officials of the Puerto Rican government that would serve for the next four years , most notably the Governor of Puerto Rico . The election was won by incumbent Resident Commissioner of Puerto Rico Luis Fortu\u00f1o ( from the New Progressive Party ) , who defeated the incumbent Governor , An\u00edbal Acevedo Vil\u00e1 ( from the Popular Democratic Party ) . Fortu\u00f1o received 1,025,965 votes , and Acevedo Vil\u00e1 801,071 . Also , most of the other positions were won by the candidates of the PNP , who ended up with a majority of seats in the Senate and the House of Representatives . The elections occurred after one term of what was called shared government , as a result of the 2004 elections . Because of this , the island had a Governor from one party ( Acevedo Vil\u00e1 ) , while the opposing party held a majority in the Senate and the House of Representatives . The struggles faced by the opposing parties attempts at cooperation , mixed with the global economic crisis , paved the campaign for this elections . Also , Acevedo Vil\u00e1 was facing criminal accusations at the time . Fortu\u00f1o was sworn in as Governor of Puerto Rico on January 2 , 2009 .",
    "/wiki/2012_Puerto_Rican_general_election": "The Puerto Rico general election of 2012 were held on Tuesday , November 6 , 2012 to elect the officials of the Puerto Rican government that would serve for the next four years , most notably the Governor of Puerto Rico . A status referendum was held on the same date . The election was won by then-Senator Alejandro Garc\u00eda Padilla ( from the Popular Democratic Party ) , who defeated incumbent Governor Luis Fortu\u00f1o ( from the New Progressive Party ) in a close election .",
    "/wiki/Ricardo_Rossell\u00f3": "Ricardo Ricky Antonio Rossell\u00f3 Nevares ( Spanish : [ rose\u02c8\u028eo ] ; born March 7 , 1979 ) is a Puerto Rican politician , scientist , and businessman . From 2017 to 2019 , Rossell\u00f3 served as governor of Puerto Rico . He resigned on August 2 , 2019 after protests related to the Telegramgate scandal . He is the son of former governor of Puerto Rico and pediatric surgeon Pedro Rossell\u00f3 . In 2010 , Rossell\u00f3 founded the political advocacy group Boricua \u00a1Ahora Es ! to advocate for changing the current political status of Puerto Rico . Rossell\u00f3 supports Puerto Rican statehood . Following several years of political advocacy , Rossell\u00f3 announced that he would seek the nomination of the New Progressive Party ( PNP in Spanish ) for Governor of Puerto Rico in 2016 . After winning the New Progressive Party primary , Rossell\u00f3 was elected Governor in the 2016 general election , defeating five other candidates . In July 2019 , Rossell\u00f3 faced widespread controversy after a group chat on the Telegram app between Rossell\u00f3 and his staff was made public . The chat included vulgar misogynistic and homophobic language , a discussion of the operation of Internet troll networks on social media , jokes about people who had died during hurricane Maria , and an apparent death threat made by Rossell\u00f3 against Mayor of San Juan Carmen Yul\u00edn Cruz . As a result of the leak , protests were held for several consecutive days throughout Puerto Rico demanding Rossell\u00f3 's resignation .",
    "/wiki/2016_Puerto_Rican_general_election": "General elections were held in Puerto Rico on Tuesday , November 8 , 2016 to elect the officials of the Puerto Rican government that will serve from January 2017 to January 2021 , most notably the Governor of Puerto Rico . Rossello was elected Governor of Puerto Rico with the lowest percentage of votes since 1968 . The election also resulted in a historic 23% drop in turnout . 2016 's participation was the lowest voter turnout in Puerto Rican history . Rossello would go on to serve a 2 year term , having to resign after historic protests as a result of Telegramgate scandal . Wanda V\u00e1zquez Garced succeeded Rossello ."
  }
}