{
  "List_of_killings_by_law_enforcement_officers_in_the_United_States,_January_2010_0": {
    "/wiki/Portland,_Oregon": "Portland ( /\u02c8p\u0254\u02d0rtl\u0259nd/ ; PORT-l\u0259nd ) is the largest and most populous city in the U.S. state of Oregon and the seat of Multnomah County . It is a major port in the Willamette Valley region of the Pacific Northwest , at the confluence of the Willamette and Columbia rivers . As of 2018 , Portland had an estimated population of 653,115 , making it the 25th most populated city in the United States , and the second-most populous in the Pacific Northwest after Seattle . Approximately 2.4 million people live in the Portland metropolitan statistical area ( MSA ) , making it the 25th most populous in the United States . Its combined statistical area ( CSA ) ranks 19th-largest with a population of around 3.2 million . Approximately 60% of Oregon 's population resides within the Portland metropolitan area . [ a ] Named after Portland , Maine , the Oregon settlement began to be populated in the 1830s near the end of the Oregon Trail . Its water access provided convenient transportation of goods , and the timber industry was a major force in the city 's early economy . At the turn of the 20th century , the city had a reputation as one of the most dangerous port cities in the world , a hub for organized crime and racketeering . After the city 's economy experienced an industrial boom during World War II , its hard-edged reputation began to dissipate . Beginning in the 1960s , Portland became noted for its growing progressive political values , earning it a reputation as a bastion of counterculture . The city operates with a commission-based government guided by a mayor and four commissioners as well as Metro , the only directly elected metropolitan planning organization in the United States .",
    "/wiki/Newark,_New_Jersey": "Newark ( /\u02c8nu\u02d0\u0259rk/ , locally /nj\u028a\u0259rk/ ) is the most populous city in the U.S. state of New Jersey and the seat of Essex County . As one of the nation 's major air , shipping , and rail hubs , the city had a population of 282,090 in 2018 , making it the nation 's 73rd-most populous municipality , after being ranked 63rd in the nation in 2000 . Settled in 1666 by Puritans from New Haven Colony , Newark is one of the oldest cities in the United States . Its location at the mouth of the Passaic River ( where it flows into Newark Bay ) has made the city 's waterfront an integral part of the Port of New York and New Jersey . Today , Port Newark-Elizabeth is the primary container shipping terminal of the busiest seaport on the U.S. East Coast . Newark Liberty International Airport was the first municipal commercial airport in the United States , and today is one of its busiest . Several leading companies have their headquarters in Newark , including Prudential , PSEG , Panasonic Corporation of North America , Audible.com , IDT Corporation , and Manischewitz . A number of important higher education institutions are also in the city , including the Newark campus of Rutgers University ( which includes law and medical schools and the Rutgers Institute of Jazz Studies ) ; the New Jersey Institute of Technology ; and Seton Hall University 's law school . The U.S. District Court for the District of New Jersey sits in the city as well . Local cultural venues include the New Jersey Performing Arts Center , Newark Symphony Hall , the Prudential Center and The Newark Museum of Art . Newark is divided into five political wards ( East , West , South , North and Central ) and contains neighborhoods ranging in character from bustling urban districts to quiet suburban enclaves . Newark 's Branch Brook Park is the oldest county park in the United States and is home to the nation 's largest collection of cherry blossom trees , numbering over 5,000 .",
    "/wiki/Oakland,_California": "Oakland is the largest city and the county seat of Alameda County , California , United States . A major West Coast port city , Oakland is the largest city in the East Bay region of the San Francisco Bay Area , the third largest city overall in the San Francisco Bay Area , the eighth most populated city in California , and the 45th largest city in the United States . With a population of 428,827 as of 2018 [ update ] , it serves as a trade center for the San Francisco Bay Area ; its Port of Oakland is the busiest port in the San Francisco Bay , the entirety of Northern California , and the fifth busiest in the United States of America . An act to incorporate the city was passed on May 4 , 1852 , and incorporation was later approved on March 25 , 1854 , which officially made Oakland a city . Oakland is a charter city . Oakland 's territory covers what was once a mosaic of California coastal terrace prairie , oak woodland , and north coastal scrub . Its land served as a rich resource when its hillside oak and redwood timber were logged to build San Francisco . Oakland 's fertile flatland soils helped it become a prolific agricultural region . In the late 1860s , Oakland was selected as the western terminal of the Transcontinental Railroad . Following the 1906 San Francisco earthquake , many San Francisco citizens moved to Oakland , enlarging the city 's population , increasing its housing stock , and improving its infrastructure . It continued to grow in the 20th century with its busy port , shipyards , and a thriving automobile manufacturing industry .",
    "/wiki/Sedro-Woolley,_Washington": "Sedro-Woolley is a city in Skagit County , Washington , United States . The population was 10,540 at the 2010 census . This city is home to North Cascades National Park . It is included in the Mount Vernon-Anacortes , Washington Metropolitan Statistical Area .",
    "/wiki/Memphis,_Tennessee": "Memphis is a city located along the Mississippi River in southwestern Shelby County , Tennessee , United States . The 2018 city population was 650,618 , making Memphis the largest city on the Mississippi River , the second most populous city in Tennessee , as well as the 26th largest city in the United States . Greater Memphis is the 42nd largest metropolitan area in the United States , with a population of 1,348,260 in 2017 . The city is the anchor of West Tennessee and the greater Mid-South region , which includes portions of neighboring Arkansas and Mississippi . Memphis is the seat of Shelby County , the most populous county in Tennessee . As one of the more historic and culturally significant cities of the southern United States , the city features a wide variety of landscapes and distinct neighborhoods . The first European explorer to visit the area of present-day Memphis was Spanish conquistador Hernando de Soto in 1541 with his expedition into the New World . The high Chickasaw Bluffs protecting the location from the waters of the Mississippi would then be contested between the Spanish , French , and the English as Memphis took shape . Modern Memphis was founded in 1819 by three prominent Americans : John Overton , James Winchester , and future president Andrew Jackson . Memphis grew into one of the largest cities of the Antebellum South as a market for agricultural goods , natural resources like lumber , and the American slave trade . After the American Civil War and the end of slavery , the city experienced even faster growth into the 20th century as it became among the largest world markets for cotton and lumber . Home to Tennessee 's largest African-American population , Memphis played a prominent role in the American civil rights movement and was the site of Dr. Martin Luther King , Jr. 's 1968 assassination .",
    "/wiki/Valdosta,_Georgia": "Valdosta is a city in and the county seat of Lowndes County , Georgia , United States . As of 2018 , Valdosta had an estimated population of 56,426 , and is the 14th largest city in Georgia . Valdosta is the principal city of the Valdosta Metropolitan Statistical Area , which in 2010 had a population of 139,588 . It includes Brooks County to the west . Valdosta is the home of Valdosta State University , a regional university in the University System of Georgia with over 10,900 students . The local public Valdosta High School has the football program with the most wins of any high school in the United States . Valdosta is called the Azalea City , as the plant grows in profusion there . The city hosts an annual Azalea Festival in March .",
    "/wiki/Omaha,_Nebraska": "Omaha ( /\u02c8o\u028am\u0259h\u0251\u02d0/ OH-m\u0259-hah ) is the largest city in the state of Nebraska and the county seat of Douglas County . Omaha is in the Midwestern United States on the Missouri River , about 10 miles ( 15 km ) north of the mouth of the Platte River . The nation 's 40th-largest city , Omaha 's 2018 estimated population was 466,061 . Omaha is the anchor of the eight-county , bi-state Omaha-Council Bluffs metropolitan area . The Omaha Metropolitan Area is the 59th largest in the United States , with an estimated population of 944,316 ( 2018 ) . The Omaha-Council Bluffs-Fremont , NE-IA Combined Statistical Area ( CSA ) encompasses the Omaha-Council Bluffs MSA as well as the separate Fremont , NE Micropolitan Statistical Area , which consists of the entirety of Dodge County , Ohio . The total population of the CSA was 970,023 based on 2017 estimates . Approximately 1.3 million people reside within the Greater Omaha area , within a 50 mi ( 80 km ) radius of Downtown Omaha . Omaha 's pioneer period began in 1854 , when the city was founded by speculators from neighboring Council Bluffs , Iowa . The city was founded along the Missouri River , and a crossing called Lone Tree Ferry earned the city its nickname , the Gateway to the West . Omaha introduced this new West to the world in 1898 , when it played host to the World 's Fair , dubbed the Trans-Mississippi Exposition . During the 19th century , Omaha 's central location in the United States spurred the city to become an important national transportation hub .",
    "/wiki/Albuquerque,_New_Mexico": "Albuquerque ( /\u02c8\u00e6lb\u0259k\u025c\u02d0rki/ ( listen ) AL-b\u0259-kur-kee ; Navajo : Bee\u02bceld\u00ed\u00edl Dahsinil [ p\u00e8\u02d0\u0294\u00e8lt\u00ed\u02d0l t\u0251\u0300xs\u026a\u0300n\u026a\u0300l ] ; Eastern Keres : Arawageeki ; Jemez : Vak\u00ea\u00eake ; Zuni : Alo : ke : k'ya ; Jicarilla Apache : Go\u0142g\u00e9eki'y\u00e9 ) , abbreviated as ABQ , is the most populous city in the U.S. state of New Mexico , and the 32nd-most populous city in the United States . The city 's nicknames are The Duke City and Burque , both of which reference its 1706 founding by Nuevo M\u00e9xico governor Francisco Cuervo y Vald\u00e9s as La Villa de Alburquerque , named in honor of then Viceroy the 10th Duke of Alburquerque , the Villa was an outpost on El Camino Real for the Tiquex and Hispano towns in the area ( such as Barelas , Corrales , Isleta Pueblo , Los Ranchos , and Sandia Pueblo ) . Since the city 's founding it has continued to be included on travel and trade routes including Santa Fe Railway ( ATSF ) , Route 66 , Interstate 25 , Interstate 40 , and the Albuquerque International Sunport . The population census-estimated population of the city as 560,218 in 2018 , it is the principal city of the Albuquerque metropolitan area , which has 915,927 residents as of July 2018 . The metropolitan population includes Rio Rancho , Bernalillo , Placitas , Zia Pueblo , Los Lunas , Belen , South Valley , Bosque Farms , Jemez Pueblo , Cuba , and part of Laguna Pueblo . This metro is included in the larger Albuquerque-Santa Fe-Las Vegas combined statistical area , with a population of 1,171,991 as of 2016 . The CSA constitutes the southernmost point of the Southern Rocky Mountain Front megalopolis , including other major Rocky Mountain region cities such as Cheyenne , Wyoming , and Denver , Colorado , with a population of 5,467,633 according to the 2010 United States Census . Albuquerque serves as the county seat of Bernalillo County , and is in north-central New Mexico . The Sandia Mountains run along the eastern side of Albuquerque , and the Rio Grande flows north to south through its center , while the West Mesa and Petroglyph National Monument make up the western part of the city . Albuquerque has one of the highest elevations of any major city in the U.S. , ranging from 4,900 feet ( 1,490 m ) above sea level near the Rio Grande to over 6,700 feet ( 1,950 m ) in the foothill areas of Sandia Heights and Glenwood Hills . The civic apex is found in an undeveloped area within the Albuquerque Open Space ; there , the terrain rises to an elevation of approximately 6880+ feet ( 2,097 m ) . The economy of Albuquerque centers on science , medicine , technology , commerce , education , entertainment , and culture outlets .",
    "/wiki/Oklahoma_City": "Oklahoma City ( /o\u028akl\u0259\u02ccho\u028am\u0259 -/ ) , often shortened to OKC , is the capital and largest city of the U.S. state of Oklahoma . The county seat of Oklahoma County , the city ranks 27th among United States cities in population . The population grew following the 2010 Census , with the population estimated to have increased to 649,021 as of July 2018 . The Oklahoma City metropolitan area had a population of 1,396,445 , and the Oklahoma City-Shawnee Combined Statistical Area had a population of 1,469,124 residents , making it Oklahoma 's largest municipality and metropolitan area by population . Oklahoma City 's city limits extend somewhat into Canadian , Cleveland , and Pottawatomie counties , though much of those areas outside the core Oklahoma County area are suburban tracts or protected rural zones ( watershed ) . The city ranks as the eighth-largest city in the United States by total area when including consolidated city-counties ; it is the second largest city in the United States by total area , following Houston , when not including consolidated cities . Lying in the Great Plains region , Oklahoma City has one of the world 's largest livestock markets . Oil , natural gas , petroleum products and related industries are the largest sector of the local economy . The city is in the middle of an active oil field and oil derricks dot the capitol grounds . The federal government employs large numbers of workers at Tinker Air Force Base and the United States Department of Transportation 's Mike Monroney Aeronautical Center ( these two sites house several offices of the Federal Aviation Administration and the Transportation Department 's Enterprise Service Center , respectively ) . Oklahoma City is on the I-35 Corridor , which is one of the primary travel corridors south into neighboring Texas and Mexico and north towards Wichita and Kansas City . Located in the state 's Frontier Country region , the city 's northeast section lies in an ecological region known as the Cross Timbers .",
    "/wiki/Las_Vegas": "Las Vegas ( Spanish for The Meadows ) , officially the City of Las Vegas and often known simply as Vegas , is the 28th-most populated city in the United States , the most populated city in the state of Nevada , and the county seat of Clark County . The city anchors the Las Vegas Valley metropolitan area and is the largest city within the greater Mojave Desert . Las Vegas is an internationally renowned major resort city , known primarily for its gambling , shopping , fine dining , entertainment , and nightlife . The Las Vegas Valley as a whole serves as the leading financial , commercial , and cultural center for Nevada . The city bills itself as The Entertainment Capital of the World , and is famous for its mega casino-hotels and associated activities . It is a top three destination in the United States for business conventions and a global leader in the hospitality industry , claiming more AAA Five Diamond hotels than any other city in the world . Today , Las Vegas annually ranks as one of the world 's most visited tourist destinations . The city 's tolerance for numerous forms of adult entertainment earned it the title of Sin City , and has made Las Vegas a popular setting for literature , films , television programs , and music videos . Las Vegas was settled in 1905 and officially incorporated in 1911 . At the close of the 20th century , it was the most populated American city founded within that century ( a similar distinction was earned by Chicago in the 19th century ) . Population growth has accelerated since the 1960s , and between 1990 and 2000 the population nearly doubled , increasing by 85.2% . Rapid growth has continued into the 21st century , and according to estimates from the U.S. Census Bureau , the city had 648,224 residents in 2018 , with a metropolitan population of 2,227,053 .",
    "/wiki/Hamilton,_Montana": "Hamilton ( ) is a city in and the county seat of Ravalli County , Montana , United States . The population was 4,348 at the 2010 census . Significant outlying population growth is shown in the area ; the ZIP Code Tabulation Area for Hamilton 's ZIP Code , 59840 , had a population of 12,979 at the United States Census Bureau 2013 estimate . If the city of Hamilton annexed all the area in its zipcode it would be the 8th largest city in Montana .",
    "/wiki/Free_Union,_Virginia": "Free Union is a census-designated place ( CDP ) in Albemarle County , Virginia , United States , ten miles north-northwest of Charlottesville . The population as of the 2010 Census was 193 . It is a very small hamlet consisting of a private school ( Free Union Country School ) , a doctor 's office , a post office , a country store , a homebuilder , and several dozen homes . Otherwise it is entirely rural in character . A few miles north of this hamlet is a winery .",
    "/wiki/Fort_Collins,_Colorado": "Fort Collins is a municipality in northern Colorado , which serves as the seat of Larimer County . Situated on the Cache La Poudre River along the Colorado Front Range , Fort Collins is located 56 mi ( 90 km ) north of the Colorado State Capitol in Denver . With a 2018 estimated population of 167,830 , it is the fourth most populous city in Colorado after Denver , Colorado Springs , and Aurora . Fort Collins is a midsize college city , home to Colorado State University and Front Range Community College 's Larimer campus ."
  }
}