{
  "List_of_killings_by_law_enforcement_officers_in_the_United_States_prior_to_2009_1": {
    "/wiki/La_Habra,_California": "La Habra is a city in the northwestern corner of Orange County , California , United States . In the 2010 census , the city had a population of 60,239 . Its related city , La Habra Heights , is located to the north of La Habra , and is in Los Angeles County .",
    "/wiki/Shooting_of_Michael_Cho": "The shooting of Michael Sungman Cho occurred on December 31 , 2007 , in the Orange County city of La Habra , California . Cho , a 25-year-old Korean-American artist , was brandishing a tire iron outside a store and was shot by two police officers . The shooting was ruled justified by the Orange County district attorney . Cho 's family received a $ 100,000 settlement from a lawsuit .",
    "/wiki/Federal_Way,_Washington": "Federal Way is a city in King County , Washington , United States . It is a city within the Seattle metropolitan area . The population was 89,306 at the 2010 census and an estimated 97,044 in 2018 . Federal Way is the tenth largest city in Washington and the fifth largest in King County , according to the Census Bureau 's 2018 population estimate .",
    "/wiki/Bakersfield,_California": "Bakersfield is a charter city in Kern County , California , United States . It is the county seat and largest city of Kern County . The city covers about 151 sq mi ( 390 km2 ) near the southern end of the San Joaquin Valley and the Central Valley region . Bakersfield 's population is around 380,000 , making it the 52nd-most populous city in the United States of America and the 9th-most populous city in California . The Bakersfield-Delano Metropolitan Statistical Area , which includes all of Kern County , had a 2010 census population of 839,631 , making it the 62nd-largest metropolitan area in the United States . The more built-up portion of the metro area that includes Bakersfield and areas immediately around the city , such as East Bakersfield , Oildale and Rosedale , has a population of about 520,000 . Bakersfield is a significant hub for both agriculture and energy production . Kern County is the most productive oil-producing county and the fourth-most productive agricultural county ( by value ) in the United States . Industries in and around Bakersfield include natural gas and other energy extraction , mining , petroleum refining , distribution , food processing , and corporate regional offices . The city is also the birthplace of the country music genre known as the Bakersfield sound .",
    "/wiki/Belle_Glade,_Florida": "Belle Glade is a city in Palm Beach County , Florida , United States on the southeastern shore of Lake Okeechobee . According to the 2010 U.S. Census , the city had a population of 17,467 . Belle Glade ( and the surrounding area ) is sometimes referred to as Muck City due to the large quantity of muck , in which sugarcane grows , found in the area . Despite being located in the South Florida region of the state , Belle Glade is culturally more associated with the Florida Heartland . For a time during the early to mid 1980s , the city had the highest rate of AIDS infection per capita ( 37 cases in a population of roughly 19,000 ) in the United States . According to the FBI , in 2003 , the city had the second highest violent crime rate in the country at 298 per 10,000 residents . In 2010 , the Palm Beach County sheriff 's office estimated that half of the young men in Belle Glade between the ages of 18 and 25 had felony convictions . Some families have recently resorted to catching rainwater to survive because their utilities have been cut off for nonpayment .",
    "/wiki/Quitman,_Georgia": "Quitman is a city in and the county seat of Brooks County , Georgia , United States . The population was 3,850 at the 2010 census . The Quitman Historic District is listed on the National Register of Historic Places . Quitman was a home of James Pierpont , author of the song Jingle Bells ( 1857 ) , and uncle of American financier J.P. Morgan . Pierpont was organist for the First Presbyterian Church . A local Quitman ordinance prohibits chickens from crossing the road . It is called the Camellia City , as the tree grows in profusion around the area .",
    "/wiki/Denver": "Denver ( /\u02c8d\u025bnv\u0259r/ ) , officially the City and County of Denver , is the capital and most populous municipality of the U.S. state of Colorado . Denver is located in the South Platte River Valley on the western edge of the High Plains just east of the Front Range of the Rocky Mountains . With an estimated population of 716,492 in 2018 , Denver is the 19th-most populous U.S. city , and with a 19.38% increase since the 2010 United States Census , it has been one of the fastest-growing major cities in the United States . The metropolitan city is located in the middle of the extensive Southern Rocky Mountain Front with Cheyenne , Wyoming , to the north and Albuquerque , New Mexico , to the south , this rapidly growing region has a population of 5,467,633 , according to the 2010 United States Census . The Denver downtown district is immediately east of the confluence of Cherry Creek with the South Platte River , approximately 12 mi ( 19 km ) east of the foothills of the Rocky Mountains . Denver is named after James W. Denver , a governor of the Kansas Territory . It is nicknamed the Mile High City because its official elevation is exactly one mile ( 5280 feet or 1609.3 meters ) above sea level . The 105th meridian west of Greenwich , the longitudinal reference for the Mountain Time Zone , passes directly through Denver Union Station . Denver is ranked as a Beta world city by the Globalization and World Cities Research Network . The 10-county Denver-Aurora-Lakewood , CO Metropolitan Statistical Area had an estimated 2018 population of 2,932,415 and is the 19th most populous U.S. metropolitan statistical area . The 12-city Denver-Aurora , CO Combined Statistical Area had an estimated 2018 population of 3,572,798 and is the 15th most populous U.S. metropolitan area . Denver is the most populous city of the 18-county Front Range Urban Corridor , an oblong urban region stretching across two states with an estimated 2018 population of 4,976,781 .",
    "/wiki/Madison,_Wisconsin": "Madison is the capital of the U.S. state of Wisconsin and the seat of Dane County . As of July 1 , 2018 , Madison 's estimated population of 258,054 made it the second-largest city in Wisconsin by population , after Milwaukee , and the 81st-largest in the United States . The city forms the core of the Madison Metropolitan Area which includes Dane County and neighboring Iowa , Green , and Columbia counties for a population of 654,230 . Located on an isthmus and lands surrounding four lakes-Lake Mendota , Lake Monona , Lake Kegonsa and Lake Waubesa-the city is home to the University of Wisconsin-Madison , the Wisconsin State Capitol , Henry Vilas Zoo , lakes , and an extensive network of parks and bike trails . Madison has historically been a center for progressive political activity , protests , and demonstrations . The presence of the University of Wisconsin-Madison ( the largest employer in the state ) as well as other educational institutions has a significant impact on the economy , culture , and demographics of Madison . Madison is a growing technology economy and the region is home to the headquarters of Epic Systems , American Family Insurance , Exact Sciences , American Girl , Sub-Zero , Lands ' End , a regional office for Google , the University Research Park , as well as many biotech and health systems startups . A 2018 report ranked Madison 14th among the top fifteen cities worldwide for venture capital deals per capita . Madison , which is named for US Founding Father James Madison , is home to eight National Historic Landmarks , including one UNESCO World Heritage Site .",
    "/wiki/Shooting_of_Tony_Robinson": "The shooting of Tony Terrell Robinson Jr. occurred on March 6 , 2015 , in Madison , Wisconsin . Robinson , an unarmed 19-year-old man , was fatally shot by 45-year-old Matthew Kenny , a Wisconsin police officer , during an altercation that occurred while Kenny was responding to reports that Robinson was jumping in front of cars and had attempted to strangle someone . On May 12 , 2015 , the shooting was determined to be justified self-defense by the Dane County District Attorney Ismael Ozanne . The death was protested by the Black Lives Matter movement ; Robinson was biracial and of African American descent .",
    "/wiki/Athens,_Georgia": "Athens , officially Athens-Clarke County , is a consolidated city-county and college town in the U.S. state of Georgia . Athens lies about 70 mi ( 113 km ) northeast of downtown Atlanta , a global city . The University of Georgia , the state 's flagship public university and an R1 research institution , is in Athens and contributed to its initial growth . In 1991 , after a vote the preceding year , the original City of Athens abandoned its charter to form a unified government with Clarke County , referred to jointly as Athens-Clarke County . As of 2017 [ update ] , the U.S. Census Bureau 's estimated population of the consolidated city-county ( all of Clarke County except Winterville and a portion of Bogart ) was 125,691 ; the entire county including Winterville and Bogart had a population of 127,064 . Athens is the sixth-largest city in Georgia , and the principal city of the Athens metropolitan area , which had a 2017 estimated population of 209,271 , according to the U.S. Census Bureau . Metropolitan Athens is a component of the larger Atlanta-Athens-Clarke County-Sandy Springs Combined Statistical Area , a trading area . The city is dominated by a pervasive student culture and music scene centered on downtown Athens , next to the University of Georgia 's North Campus . Major music acts associated with Athens include numerous alternative rock bands such as R.E.M. , the B-52 's , Widespread Panic , and Neutral Milk Hotel . The city is also known as a recording site for such groups as the Atlanta-based Indigo Girls .",
    "/wiki/West_Memphis,_Arkansas": "West Memphis is the largest city in Crittenden County , Arkansas , United States . The population was 26,245 at the 2010 census , ranking it as the state 's 18th largest city , behind Bella Vista . It is part of the Memphis metropolitan area , and is located directly across the Mississippi River from Memphis , Tennessee .",
    "/wiki/Murder_of_Jessie_Davis": "Jessie Marie Davis ( May 27 , 1981 - June 14 , 2007 ) was a murdered , near-term pregnant , 26-year-old American woman first reported missing from her home in Lake Township , Stark County , Ohio on June 15 , 2007 . The case drew an extraordinary response from the American media . On February 15 , 2008 , Bobby Lee Cutts Jr. , the father of her 2-year-old son and unborn daughter , was convicted of the aggravated murders of Davis and their unborn child . He was sentenced to life in prison without parole for 57 years on February 27 , 2008 . A high-school friend of Cutts , Myisha Lynne Ferrell , was also later charged .",
    "/wiki/Lake_Township,_Stark_County,_Ohio": "Lake Township is one of the seventeen townships of Stark County , Ohio , United States . It is an urban township ; the 2000 census found 25,892 people in the township , 23,718 of whom lived in the unincorporated portions of the township .",
    "/wiki/Canton,_Ohio": "Canton ( /\u02c8k\u00e6nt\u0259n/ ) is a city in and the county seat of Stark County , Ohio , United States . It is located approximately 60 miles ( 97 km ) south of Cleveland and 20 miles ( 32 km ) south of Akron in Northeast Ohio . The city lies on the edge of Ohio 's extensive Amish country , particularly in Holmes and Wayne counties to the city 's west and southwest . Canton is the largest municipality in the Canton-Massillon , OH Metropolitan Statistical Area , which includes all of Stark and Carroll counties . As of the 2010 Census , the population was 73,007 , making Canton eighth among Ohio cities in population . Founded in 1805 alongside the Middle and West Branches of Nimishillen Creek , Canton became a heavy manufacturing center because of its numerous railroad lines . However , its status in that regard began to decline during the late 20th century , as shifts in the manufacturing industry led to the relocation or downsizing of many factories and workers . After this decline , the city 's industry diversified into the service economy , including retailing , education , finance and healthcare . Canton is chiefly notable for being the home of the Pro Football Hall of Fame and the birthplace of the National Football League . 25th U.S. President William McKinley conducted the famed front porch campaign , which won him the presidency of the United States in the 1896 election , from his home in Canton . The McKinley National Memorial and the William McKinley Presidential Library and Museum commemorate his life and presidency . Canton was also chosen as the site of the First Ladies National Historic Site largely in honor of his wife , Ida Saxton McKinley .",
    "/wiki/Akron,_Ohio": "Akron ( /\u02c8\u00e6kr\u0259n/ ) is the fifth-largest city in the U.S. state of Ohio and is the county seat of Summit County . It is located on the western edge of the Glaciated Allegheny Plateau , about 30 miles ( 48 km ) south of Cleveland . As of the 2018 Census estimate , the city proper had a total population of 198,006 , making it the 119th-largest city in the United States . The Greater Akron area , covering Summit and Portage counties , had an estimated population of 703,505 . The city was founded in 1825 by Simon Perkins and Paul Williams , along the Little Cuyahoga River at the summit of the developing Ohio and Erie Canal . The name is derived from the Greek word signifying a summit or high point . It was briefly renamed South Akron after Eliakim Crosby founded nearby North Akron in 1833 , until both merged into an incorporated village in 1836 . In the 1910s , Akron doubled in population , making it the nation 's fastest-growing city . A long history of rubber and tire manufacturing , carried on today by Goodyear Tire , gave Akron the nickname Rubber Capital of the World . It was once known as a center of airship development . Today , its economy includes manufacturing , education , healthcare , and biomedical research ; leading corporations include Gojo Industries , FirstEnergy , Huntington Bank , and Charter Spectrum . Notable historic events in Akron include the passage of the Akron School Law of 1847 , which created the K-12 system ; the popularization of the church architectural Akron Plan , the foundation of Alcoholics Anonymous , the Akron Experiment into preventing goiters with iodized salt , the 1983 Supreme Court case City of Akron v. Akron Center for Reproductive Health ; and portions of the 2014 Gay Games .",
    "/wiki/Life_imprisonment": "Life imprisonment ( also known as imprisonment for life , life in prison , whole-life order , a life sentence , a life term , lifelong incarceration , life incarceration or simply life ) is any sentence of imprisonment for a crime under which convicted persons are to remain in prison either for the rest of their natural life or until paroled or otherwise commuted to a fixed term . Crimes for which , in some countries , a person could receive this sentence include murder , attempted murder , conspiracy to commit murder , blasphemy , apostasy , terrorism , severe child abuse , rape , child rape , espionage , treason , high treason , drug dealing , drug trafficking , drug possession , human trafficking , severe cases of fraud , severe cases of financial crimes , aggravated criminal damage in English law , and aggravated cases of arson , kidnapping , burglary , or robbery which result in death or grievous bodily harm , piracy , aircraft hijacking , and in certain cases genocide , ethnic cleansing , crimes against humanity , certain war crimes or any three felonies in case of three strikes law . Life imprisonment ( as a maximum term ) can also be imposed , in certain countries , for traffic offenses causing death . The life sentence does not exist in all countries : Portugal was the first to abolish life imprisonment , in 1884 . Where life imprisonment is a possible sentence , there may also exist formal mechanisms for requesting parole after a certain period of prison time . This means that a convict could be entitled to spend the rest of the sentence ( until that individual dies ) outside prison . Early release is usually conditional on past and future conduct , possibly with certain restrictions or obligations . In contrast , when a fixed term of imprisonment has ended , the convict is free . The length of time served and the conditions surrounding parole vary . Being eligible for parole does not necessarily ensure that parole will be granted . In some countries , including Sweden , parole does not exist but a life sentence may - after a successful application - be commuted to a fixed-term sentence , after which the culprit is released as if the sentence served was that originally imposed . In many countries around the world , particularly in the Commonwealth , courts have the authority to pass prison terms which may amount to de facto life imprisonment .",
    "/wiki/Yakima,_Washington": "Yakima ( /\u02c8j\u00e6k\u026am\u0251\u02d0/ or /\u02c8j\u00e6k\u026am\u0259/ ) is a city in and the county seat of Yakima County , Washington , and the state 's eleventh-largest city by population . As of the 2010 census , the city had a total population of 91,067 and a metropolitan population of 243,231 . The unincorporated suburban areas of West Valley and Terrace Heights are considered a part of greater Yakima . Yakima is about 60 miles ( 100 kilometers ) southeast of Mount Rainier in Washington . It is situated in the Yakima Valley , a productive agricultural region noted for apple , wine , and hop production . As of 2011 , the Yakima Valley produces 77% of all hops grown in the United States . The name Yakima originates from the Yakama Nation Native American tribe , whose reservation is located south of the city .",
    "/wiki/Savannah,_Georgia": "Savannah ( /s\u0259\u02c8v\u00e6n\u0259/ ) is the oldest city in the U.S. state of Georgia and is the county seat of Chatham County . Established in 1733 on the Savannah River , the city of Savannah became the British colonial capital of the Province of Georgia and later the first state capital of Georgia . A strategic port city in the American Revolution and during the American Civil War , Savannah is today an industrial center and an important Atlantic seaport . It is Georgia 's fifth-largest city , with a 2018 estimated population of 145,862 . The Savannah metropolitan area , Georgia 's third-largest , had an estimated population of 389,494 in 2018 . Each year Savannah attracts millions of visitors to its cobblestone streets , parks , and notable historic buildings . These buildings include the birthplace of Juliette Gordon Low ( founder of the Girl Scouts of the USA ) , the Georgia Historical Society ( the oldest continually operating historical society in the South ) , the Telfair Academy of Arts and Sciences ( one of the South 's first public museums ) , the First African Baptist Church ( one of the oldest African-American Baptist congregations in the United States ) , Temple Mickve Israel ( the third-oldest synagogue in the U.S. ) , and the Central of Georgia Railway roundhouse complex ( the oldest standing antebellum rail facility in the U.S. ) . Savannah 's downtown area , which includes the Savannah Historic District , the Savannah Victorian Historic District , and 22 parklike squares , is one of the largest National Historic Landmark Districts in the United States ( designated by the U.S. government in 1966 ) . [ a ] Downtown Savannah largely retains the original town plan prescribed by founder James Oglethorpe ( a design now known as the Oglethorpe Plan ) . Savannah was the host city for the sailing competitions during the 1996 Summer Olympics held in Atlanta .",
    "/wiki/Meridian,_Idaho": "Meridian is a city located in Ada County in the U.S. state of Idaho . As of the 2010 census , the population of Meridian was 75,092 making it then the third largest city in Idaho after Boise and Nampa . Meridian is considered the state 's fastest-growing city and among the fastest-growing cities in the United States . A 2015 census estimate placed the population at approximately 90,739 . With a 2018 Census estimate of 106,804 and a 1,000 percent increase in population since 1990 , the city is currently estimated as the second largest in the state .",
    "/wiki/Hamilton_Township,_Atlantic_County,_New_Jersey": "Hamilton Township is a township in Atlantic County , New Jersey , United States . As of the 2010 United States Census , the township 's population was 26,503 , reflecting an increase of 6,004 ( +29.3% ) from the 20,499 counted in the 2000 Census , which had in turn increased by 4,487 ( +28.0% ) from the 16,012 counted in the 1990 Census . The Township of Hamilton was incorporated by the New Jersey Legislature on February 5 , 1813 . The township calls itself New Jersey 's Largest Municipality on its stationery and its website . At , Hamilton Township has the largest land area of any municipality in New Jersey . However , with a total area of it is the second-largest municipality in New Jersey in terms of total area ; neighboring Galloway Township , which has a total area of , is more than larger than Hamilton Township .",
    "/wiki/Fulton_County,_Georgia": "Fulton County is a county in the north-central portion of the U.S. state of Georgia . As of 2018 estimates , the population was 1,050,114 , making it the state 's most populous county and its only one with over 1 million inhabitants . Its county seat is Atlanta , the state capital . Approximately 90% of the City of Atlanta is located within Fulton County ( the other 10% lies within DeKalb County ) . Fulton County is the principal county of the Atlanta metropolitan area . Fulton County is part of the Atlanta-Sandy Springs-Roswell , GA Metropolitan Statistical Area .",
    "/wiki/Tulsa,_Oklahoma": "Tulsa /\u02c8t\u028cls\u0259/ is the second-largest city in the state of Oklahoma and 45th-most populous city in the United States . As of July 2018 [ update ] , the population was 403,035 , an increase of 11,129 since the 2010 Census . It is the principal municipality of the Tulsa Metropolitan Area , a region with 991,005 residents in the MSA and 1,251,172 in the CSA . The city serves as the county seat of Tulsa County , the most densely populated county in Oklahoma , with urban development extending into Osage , Rogers , and Wagoner counties . Tulsa was settled between 1828 and 1836 by the Lochapoka Band of Creek Native American tribe . For most of the 20th century , the city held the nickname Oil Capital of the World and played a major role as one of the most important hubs for the American oil industry . Historically , a robust energy sector fueled Tulsa 's economy ; however , today the city has diversified and leading sectors include finance , aviation , telecommunications and technology . Two institutions of higher education within the city have sports teams at the NCAA Division I level , Oral Roberts University and the University of Tulsa . It is situated on the Arkansas River between the Osage Hills and the foothills of the Ozark Mountains in northeast Oklahoma , a region of the state known as Green Country . Considered the cultural and arts center of Oklahoma , Tulsa houses two art museums , full-time professional opera and ballet companies , and one of the nation 's largest concentrations of art deco architecture . The city has been called one of America 's most livable large cities by Partners for Livable Communities , Forbes , and Relocate America . FDi Magazine in 2009 ranked the city no .",
    "/wiki/Downey,_California": "Downey is a city located in southeast Los Angeles County , California , United States , 13 mi ( 21 km ) southeast of downtown Los Angeles . It is considered part of the Gateway Cities . The city is the birthplace of the Apollo space program . It is also the home of the oldest still operational McDonald 's restaurant in the world . As of the 2010 census , the city had a total population of 111,779 .",
    "/wiki/Candler_County,_Georgia": "Candler County is a county located in the U.S. state of Georgia . As of the 2010 census , the population was 10,998 . The county seat is Metter . The county was founded in 1914 and named for Allen D. Candler , the 56th governor of Georgia ."
  }
}