{
  "List_of_Major_League_Baseball_career_fielding_errors_as_a_first_baseman_leaders_1": {
    "/wiki/Cap_Anson": "Adrian Constantine Anson ( April 17 , 1852 - April 14 , 1922 ) , nicknamed Cap ( for Captain ) and Pop , was an American Major League Baseball ( MLB ) first baseman . Including his time in the National Association ( NA ) , he played a record 27 consecutive seasons . Anson was regarded as one of the greatest players of his era and one of the first superstars of the game . Anson spent most of his career with the Chicago Cubs franchise ( then known as the White Stockings and later the Colts ) , serving as the club 's manager , first baseman and , later in his tenure , minority owner . He led the team to six National League pennants in the 1880s . Anson was one of baseball 's first great hitters , and probably the first to tally over 3,000 career hits . His contemporary influence and prestige are regarded by historians as playing a major role in establishing the racial segregation in professional baseball that persisted until the late 1940s . On several occasions , Anson refused to take the field when the opposing roster included black players . Anson may have influenced the most noted vote in 19th-century professional baseball in favor of segregation : a July 14 , 1887 one by the high-minor International League to ban the signing of new contracts with black players . After retiring as a player and leaving the Colts , Anson briefly managed the New York Giants . He ran several enterprises in Chicago , including opening a billiards and bowling hall and running a semi-professional baseball team he dubbed Anson 's Colts . Anson also toured extensively on the vaudeville circuit , performing monologues and songs .",
    "/wiki/Dan_Brouthers": "Dennis Joseph Dan Brouthers ( /\u02c8bru\u02d0\u03b8\u0259rz/ ; May 8 , 1858 - August 2 , 1932 ) was an American first baseman in Major League Baseball whose career spanned the period from 1879 to 1896 , with a brief return in 1904 . Nicknamed Big Dan for his size , he was 6 feet 2 inches ( 1.88 m ) and weighed 207 pounds ( 94 kg ) , which was large by 19th-century standards . Recognized as the first great slugger in baseball history , and among the greatest sluggers of his era , he held the record for career home runs from 1887 to 1889 , with his final total of 106 tying for the fourth most of the 19th century . His career slugging percentage of .519 remained the Major League record for a player with at least 4,000 at bats until Ty Cobb edged ahead of him in 1922 . At the time of his initial retirement , he also ranked second in career triples ( 205 ) , and third in runs batted in ( 1,296 ) and hits . A dominant hitter during the prime of his career , he led ( or was in the top of ) the league in most offensive categories , including batting average , runs scored , runs batted in ( RBI ) , on-base percentage and hits . He led the league in batting average five times , the most by a 19th-century player , and his career .342 batting average still ranks ninth all-time . Brouthers is one of only 29 players in baseball history to date who have appeared in Major League games in four decades . He was also an active players ' union member , and was elected vice president of the Brotherhood of Professional Base Ball Players . Brouthers was elected to the Baseball Hall of Fame in 1945 by the Veterans Committee .",
    "/wiki/Jake_Beckley": "Jacob Peter Beckley ( August 4 , 1867 - June 25 , 1918 ) , nicknamed Eagle Eye , was an American professional baseball first baseman . He played in Major League Baseball for the Pittsburgh Alleghenys , Pittsburgh Burghers , Pittsburgh Pirates , New York Giants , Cincinnati Reds and St. Louis Cardinals from 1888 to 1907 . Beckley had a batting average of over .300 in 13 seasons . His 244 triples are fourth all time and his 23,767 putouts are a major league record . A career .308 hitter he was nominated to the National Baseball Hall of Fame in 1971 via the Veteran 's Committee .",
    "/wiki/Joe_Start": "Joseph Start ( October 14 , 1842 - March 27 , 1927 ) , nicknamed Old Reliable , was one of the most durable regulars of baseball 's earliest era , and one of the top first basemen of his time . He started his career in 1859 , before the advent of organized leagues and paid professionalism , and continued to play regularly until 1886 , when he was 43 . Writing in the SABR Nineteenth Century Committee 's Nineteen Century Notes ( Summer 2018 ) , baseball historian Bill Ryczek wrote : There have been a number of 20th-century players who had long careers , but the game that Tommy John played during his rookie year was very much like the game he played during his final season in 1989 . When 16-year-old Joe Start began playing in 1859 , pitchers threw underhand with a stiff wrist from behind a line 45 feet from home plate , a fly ball caught on one bounce was an out , and gloves were unheard of , as were professional ballplayers . During his final season , pitchers threw over-hand or sidearm with velocity that was unimaginable in 1859 . The one-bounce out was 20 years in the grave , and most players wore fielding gloves . All of the top players were professionals , and baseball had become big business , far removed from the amateur affair of 1859 . Despite the dramatic changes in the game of baseball , Joe Start remained a steady , productive player , adapting to the changes as quickly as they appeared . He was a regular until his final year .",
    "/wiki/Roger_Connor": "Roger Connor ( July 1 , 1857 - January 4 , 1931 ) was a 19th-century Major League Baseball ( MLB ) player . He played for several teams , but his longest tenure was in New York , where he was responsible for the New York Gothams becoming known as the Giants . He was the player whom Babe Ruth succeeded as the all-time home run champion . Connor hit 138 home runs during his 18-year career , and his career home run record stood for 23 years after his retirement in 1897 . Connor owned and managed minor league baseball teams after his playing days . He was elected to the Baseball Hall of Fame by its Veterans Committee in 1976 . Largely forgotten after his retirement , Connor was buried in an unmarked grave until a group of citizens raised money for a grave marker in 2001 .",
    "/wiki/Charles_Comiskey": "Charles Albert Comiskey ( August 15 , 1859 - October 26 , 1931 ) , also nicknamed Commy or The Old Roman , was an American Major League Baseball player , manager and team owner . He was a key person in the formation of the American League , and was also founding owner of the Chicago White Sox . Comiskey Park , the White Sox ' storied baseball stadium , was built under his guidance and named for him . Comiskey 's reputation was permanently tarnished by his team 's involvement in the Black Sox Scandal , although he was inducted as an executive into the Baseball Hall of Fame in 1939 .",
    "/wiki/Hal_Chase": "Harold Homer Chase ( February 13 , 1883 - May 18 , 1947 ) , nicknamed Prince Hal , was an American professional baseball first baseman and manager in Major League Baseball , widely viewed as the best fielder at his position . During his career , he played for the New York Highlanders ( 1905-1913 ) , Chicago White Sox ( 1913-1914 ) , Buffalo Blues ( 1914-1915 ) , Cincinnati Reds ( 1916-1918 ) , and New York Giants ( 1919 ) . Babe Ruth and Walter Johnson named Chase the best first baseman ever , and contemporary reports described his glovework as outstanding . He is sometimes considered the first true star of the franchise that would eventually become the New York Yankees . In 1981 , 62 years after his last major league game , baseball historians Lawrence Ritter and Donald Honig included him in their book The 100 Greatest Baseball Players of All Time . Despite being an excellent hitter and his reputation as a peerless defensive player , Chase 's legacy was tainted by a litany of corruption . He allegedly gambled on baseball games , and also engaged in suspicious play in order to throw games in which he played .",
    "/wiki/Tommy_Tucker_(baseball)": "Thomas Joseph Tucker ( October 28 , 1863 - October 22 , 1935 ) was a first baseman in Major League Baseball who played with six different teams between and . Listed at , 165 lb. , Tucker was a switch-hitter and threw right-handed . Tucker was born in Holyoke , Massachusetts , where he started his baseball career playing for the Springfield and Newark clubs . He was a flashy first baseman in an era when using two hands was normal , making one-handed scoops of wild throws and pick-ups with his small glove , in contrast to the big-sized gloves employed by today 's first basemen . He entered the majors in 1887 with the Baltimore Orioles of the American Association , playing for them three years before joining the National League with the Boston Beaneaters ( 1890-1897 ) , Washington Senators ( 1897 ) , Brooklyn Bridegrooms ( 1898 ) , St. Louis Browns ( 1898 ) and Cleveland Spiders ( 1899 ) . His most productive season came in 1889 with Baltimore , when he led the AA hitters with a .372 batting average ( still the highest league-leading average ever for a switch-hitter ) and 196 hits . His .372 average was 118 points above the Baltimore team average of .254 . In a 13-season career , Tucker was a .290 hitter ( 1882-for-6479 ) with 42 home runs and 932 RBI in 1687 games , including 1084 runs , 240 doubles , 85 triples , 352 stolen bases , and a .364 on-base percentage . Tucker had the reputation of being one of the toughest players of his era . He was notorious for hip-checking a base runner off first base , and then tagging them out . Tucker died in Montague , Massachusetts .",
    "/wiki/Harry_Davis_(1900s_first_baseman)": "Harry H. Davis ( July 19 , 1873 - August 11 , 1947 ) was a Major League Baseball first baseman who played for the New York Giants ( 1895-96 ) , Pittsburgh Pirates ( 1896-98 ) , Louisville Colonels ( 1898 ) , Washington Senators ( 1898-99 ) , Philadelphia Athletics ( 1901-11 , 1913-17 ) , and Cleveland Naps ( 1912 ) .",
    "/wiki/Fred_Tenney": "Frederick Tenney ( November 26 , 1871 - July 3 , 1952 ) was an American professional baseball player whose career spanned 20 seasons , 17 of which were spent with the Major League Baseball ( MLB ) Boston Beaneaters/Doves/Rustlers ( 1894-1907 , 1911 ) and the New York Giants ( 1908-1909 ) . Described as one of the best defensive first basemen of all time , Tenney is credited with originating the 3-6-3 double play and originating the style of playing off the first base foul line and deep , as modern first basemen do . Over his career , Tenney compiled a batting average of .294 , 1,278 runs scored , 2,231 hits , 22 home runs , and 688 runs batted in ( RBI ) in 1,994 games played . Born in Georgetown , Massachusetts , Tenney was one of the first players to enter the league after graduating college , where he served as a left-handed catcher for Brown University . Signing with the Beaneaters , Tenney spent the next 14 seasons with the team , including a three-year managerial stint from 1905-1907 . In December 1907 Tenney was traded to the Giants as a part of an eight-man deal ; after two years playing for New York , he re-signed with the Boston club , where he played for and managed the team in 1911 . After retiring from baseball , Tenney worked for the Equitable Life Insurance Society before his death in Boston on July 3 , 1952 .",
    "/wiki/Bill_Phillips_(first_baseman)": "William B . Bill Phillips ( April 1857 - October 7 , 1900 ) , also known as Silver Bill , was a Canadian professional baseball first baseman from the mid-1870s until the late 1880s . From 1879 to 1888 , he played for three major league teams ; the Cleveland Blues of the National League ( NL ) from 1879 to 1884 , the Brooklyn Grays of the American Association ( AA ) from 1885 to 1887 , and the Kansas City Cowboys of the AA in 1888 . A native of Saint John , New Brunswick , Canada , he has the distinction of being the first Canadian to play in the major leagues . As a batter , Phillips finished in the top-ten among league leaders on multiple occasions , including triples four times , and games played , at bats , doubles , runs batted in ( RBIs ) , and extra base hits three times each . Additionally , as a fielder , he finished among the defensive leaders for the league 's first baseman in double plays for three consecutive years , and twice finished first in putouts and fielding percentage . He died in Chicago at the age of 43 . He was later enshrined into the Canadian Baseball Hall of Fame in 1988 for his accomplishments , and is considered by some to be greatest Canadian first baseman in baseball history .",
    "/wiki/John_Reilly_(baseball)": "John Good Reilly [ Long John ] ( October 5 , 1858 - May 31 , 1937 ) was an American first baseman in Major League Baseball who hit 69 home runs and batted .289 during his ten-year career . In 1888 , he hit 13 home runs with 103 RBI and a .321 batting average .",
    "/wiki/John_Morrill": "John Francis Morrill ( February 19 , 1855 - April 2 , 1932 ) , nicknamed Honest John , was an American first baseman and manager in Major League Baseball who played from 1876 to 1890 . Over the years he played all positions . Although he pitched a couple of games each season , he was primarily an infielder , and had a career batting average of .260 . In an incredible season in 1883 , he batted .316 , played six different positions , and led the Boston Beaneaters to the National League pennant after taking over as manager from Jack Burdock in midseason . Morrill 's parents were Irish emigrants to Boston , where Morrill was born . He played for amateur teams including the Boston Stars and the Lowell Lowells prior to being signed by the Boston Red Legs in 1876 . Morrill stood 5'11 and weighed 155 pounds as he began his major league career , and he had been known as a second baseman and catcher . Once he arrived in the major leagues , Morrill only played 23 games at catcher , all of them in his first season with Boston . An obituary stated that he was one of the last catchers to appear at the position without a glove . Popular baseball manager King Kelly described Morrill as a careful manager who saved Boston a great deal of money through his decisions . Kelly cited Morrill 's understanding of the rules when he said that Morrill was a better manager than anyone besides Cap Anson . Kelly dismissed the popular notion that he did not get along with Morrill .",
    "/wiki/Jack_Doyle_(baseball)": "John Joseph Doyle ( October 25 , 1869 - December 31 , 1958 ) was an Irish-American first baseman in Major League Baseball whose career spanned 17 seasons , mainly in the National League . He was born in Killorglin , Ireland , and emigrated to the U.S. when he was a child , his family settling in Holyoke , Massachusetts .",
    "/wiki/George_Sisler": "George Harold Sisler ( March 24 , 1893 - March 26 , 1973 ) , nicknamed Gorgeous George , was an American professional baseball first baseman and player-manager . He played in Major League Baseball ( MLB ) for the St. Louis Browns , Washington Senators and Boston Braves . He managed the Browns from 1924 through 1926 . Sisler played college baseball for the University of Michigan and was signed by the St. Louis Browns as a free agent in 1915 . He won the American League batting title in 1920 and 1922 . In 1920 he set the major league record for hits with 257 which stood for 84 years and had a batting average of .407 ( the seventh highest after 1900 ) . In 1922 he won the AL Most Valuable Player Award , he finished with a batting average of .420 which is the third highest batting average ever recorded after 1900 . An attack of sinusitis in 1923 caused Sisler 's play to decline , but he continued to play in the majors until 1930 . After Sisler retired as a player , he worked as a major league scout and aide . A two time batting champion , Sisler led the league in hits twice , triples twice , and stolen bases four times . He collected 200 or more hits six times in his career , and had a batting average of over .300 a total of 13 times throughout his career . His career batting average of .340 is the 16th highest of all time , Sisler was elected to the National Baseball Hall of Fame in 1939 .",
    "/wiki/Sid_Farrar": "Sidney Douglas Farrar ( August 10 , 1859 - May 7 , 1935 ) was an American professional baseball infielder . He played in Major League Baseball ( MLB ) from 1883 through 1890 for the Philadelphia Quakers and Philadelphia Athletics . He was the father of opera singer Geraldine Farrar .",
    "/wiki/Fred_Merkle": "Carl Frederick Rudolf Merkle ( December 20 , 1888 - March 2 , 1956 ) , also documented as Frederick Charles Merkle , and nicknamed Bonehead , was an American first baseman in Major League Baseball from 1907 to 1926 . Although he had a lengthy career , he is best remembered for a controversial base-running mistake he made while still a teenager .",
    "/wiki/George_Burns_(first_baseman)": "George Henry Burns ( January 31 , 1893 - January 7 , 1978 ) , nicknamed Tioga George , was an American first baseman in Major League Baseball ( MLB ) who played for five American League ( AL ) teams from 1914 to 1929 . One of the league 's top right-handed batters of the 1920s , he was named the AL Most Valuable Player in 1926 with the Cleveland Indians after batting .358 and setting a major league record with 64 doubles . A career .307 hitter , he retired with 2,018 hits , then the third-highest total by an AL right-handed hitter . His 1,671 games at first base were the most by an AL right-handed player until 1940 ; he still ranks third in league history .",
    "/wiki/Harry_Stovey": "Harry Duffield Stovey ( December 20 , 1856 - September 20 , 1937 ) , born Harry Duffield Stowe , was a 19th-century Major League Baseball player and the first player in major league history to hit 100 home runs . Born in Philadelphia , Pennsylvania , Stovey played for 14 seasons in the majors and was appointed player-manager on two separate occasions during his career . Known today as both a prolific home run hitter and base-stealer , he led the league in both categories multiple times in his career , including a season record of 14 home runs in 1883 and a league-leading 97 stolen bases in 1890 . From 1880 to 1891 he appeared in the top 10 in home runs every year except 1887 , and led the league five times . He was the first to wear sliding pads and among the first to slide feet first .",
    "/wiki/Kitty_Bransfield": "William Edward Bransfield ( January 7 , 1875 - May 1 , 1947 ) was an American professional baseball first baseman . He played in Major League Baseball ( MLB ) from 1906 to 1914 for the Boston Beaneaters , Pittsburgh Pirates , Philadelphia Phillies , and Chicago Cubs ."
  }
}