{
  "List_of_international_cricket_five-wicket_hauls_on_New_Zealand_cricket_grounds_3": {
    "/wiki/Sarah_Collyer": "Sarah Victoria Collyer ( born 3 October 1980 ) is an English cricketer who appeared for the England women 's cricket team on 32 occasions between 1998 and 2003 . An all-rounder , she made her debut for England in a Women 's One Day International cricket match against Australia in July 1998 . She was a medium-paced swing bowler , and made her international debut at the age of 17 , having been playing county cricket since July 1995 . A month after her ODI debut , she made her first Test match appearance , taking one wicket against Australia . Her first wicket came in her sixth match , against India in July 1999 . Her best performance for England came during the 2000 Women 's Cricket World Cup , when she took five wickets against the Netherlands , though they were considered weak opposition for England . Two years later , she and Kathryn Leng were removed from the side , and stripped of their National Lottery funding , when they went on an unauthorised holiday to Tenerife . During the English winter of 2002-3 , she played domestic cricket in Australia for Western Australia . She returned to the England team in early 2003 , but after a back problem forced her to undergo surgery , she did not play for England again . Her final international appearance was a Test match against Australia in late February 2003 . She played domestic cricket for Cheshire in 2005 . She completed her career with 24 wickets in ODI cricket at an average of 29.33 , and 8 wickets in Test cricket at 50.62 .",
    "/wiki/England_women's_cricket_team": "The England women 's cricket team represents England and Wales in international women 's cricket . The team is administrated by England and Wales Cricket Board ( ECB ) ; they played their first Tests in 1934-35 , when they beat Australia 2-0 in a three-Test series . Their current captain is Heather Knight . There is also an England Women 's Academy team , consisting of players just below the full England squad . In 2017 , they won the BBC Sports Personality Team of the Year Award .",
    "/wiki/Netherlands_women's_national_cricket_team": "The Netherlands women 's national cricket team , nicknamed the Lionesses , represents the Netherlands in international women 's cricket . The team is organised by the Koninklijke Nederlandse Cricket Bond ( KNCB ) , which has been an associate member of the International Cricket Council ( ICC ) since 1966 . A Dutch women 's team first played an international match in 1937 , when Australia toured on its way to play a series in England . The team regularly played fixtures against English club sides over the following decades , but it was not until the early 1980s that regular international competition commenced . The Netherlands made its One Day International ( ODI ) debut in 1984 , against New Zealand , and made its World Cup debut at the 1988 edition of the tournament , in Australia . Considered a top-level team from the late 1980s through to the early 2000s , the Netherlands participated in four consecutive World Cups between 1988 and 2000 , and made the quarter-finals of the 1997 event . Since 2000 , the Dutch side has not qualified for either the World Cup or the World Twenty20 , although it retained ODI status until the 2011 World Cup Qualifier . In 2007 , the team played a one-off Test match against South Africa , joining Ireland as the only associate member of the ICC to play at that level . In April 2018 , the ICC granted full Women 's Twenty20 International ( WT20I ) status to all its members . Therefore , all Twenty20 matches played between the Netherlands women and another international side after 1 July 2018 will be a full WT20I .",
    "/wiki/Nooshin_Al_Khadeer": "Nooshin Al Khadeer ( born 13 February 1981 ) is a Canarese cricketer . She plays for Karnataka , Railways , Central Zone and India . She made her debut in international cricket on 8 January 2002 in a Women 's One Day International against England . She has played 5 WTests , 78 WODIs and 2 WT20Is . She performed consistently well and was ranked No . 1 in the world in 2003 . She has taken 100 wickets in WODIs .",
    "/wiki/India_women's_national_cricket_team": "The India women 's national cricket team , nicknamed the Women in Blue , represents the country of India in international women 's cricket . India made its Test debut in 1976 , against the West Indies , and its One Day International ( ODI ) debut at the 1978 World Cup , which it hosted . The team has made the World Cup final on two occasions , losing to Australia by 98 runs in 2005 , and losing to England by 9 runs in 2017 . India has made the semi-finals on three other occasions , in 1997 , 2000 , and 2009 . India has also made the semi-finals of the World Twenty20 on three occasions ( 2009 , 2010 , and 2018 ) .",
    "/wiki/Cathryn_Fitzpatrick": "Cathryn Lorraine Fitzpatrick ( born 4 March 1968 ) is a former Australian cricketer . She was recognised as the world 's fastest women pace bowler , bowling at up to 125 km/h . She announced her retirement from international and state cricket in March 2007 , intending to concentrate on coaching . In 2019 , Fitzpatrick was inducted into the Australian Cricket Hall of Fame and later that year , she was inducted into ICC Cricket Hall of Fame . Fitzpatrick played domestic cricket for Victorian Spirit , appearing in 103 domestic matches . She made her international debut for Australia in 1991 . She played in 13 Test matches , scoring 152 runs at a batting average of 16.88 , including one half-century . She took 60 Test wickets at a bowling average of 19.11 . Only one Australian woman has taken more Test wickets . She also played in 109 Women 's One-day Internationals , scoring 651 runs at 16.69 and taking 180 wickets at 16.79 , the most wickets for any woman in ODIs until passed by Jhulan Goswami in May 2017 . She also played in two international Twenty20 matches . Fitzpatrick was a member of the Australian team that won the Women 's Cricket World Cup in 1997 and 2005 .",
    "/wiki/Australia_women's_national_cricket_team": "The Australian women 's national cricket team represent Australia in international women 's cricket . They were nicknamed Southern Stars , but in 2017 this name was dropped and are now known only as the Australian women 's cricket team in an attempt to promote gender equality with the men , who have no nickname for their team . The team is currently captained by Meg Lanning and coached by former Victoria and Queensland batsman Matthew Mott . As of 21 August 2018 , they are ranked first in all forms of women 's international cricket . The team played their first Test match in 1934-35 , when they lost to England two-nil in a three-Test series . They now compete against England for the Women 's Ashes . They have won more World Cups than any other side - winning in 1978 , 1982 , 1988 , 1997 , 2005 and 2013 . The team has also be crowned champions of the ICC Women 's World Twenty20 tournament more than any other side - winning in 2010 , 2012 , 2014 and 2018 . In 2003 , Women 's Cricket Australia ( WCA ) , and the Australian Cricket board ( ACB ) merged to form a single national cricket board ( now known as Cricket Australia ) , which remains to this day . This merger has been a positive influence on women 's cricket , providing more financial support and gathering more exposure for the sport .",
    "/wiki/New_Zealand_women's_national_cricket_team": "The New Zealand women 's national cricket team , nicknamed the White Ferns , represents New Zealand in international women 's cricket . One of eight teams competing in the ICC Women 's Championship ( the highest level of international women 's cricket ) , the team is organised by New Zealand Cricket , a full member of the International Cricket Council ( ICC ) . New Zealand made its Test debut in 1935 , against England , becoming the third team to play at that level . With Australia and England , New Zealand is one of only three teams to have participated in all ten editions of the Women 's Cricket World Cup . The team has made the final of the tournament on four occasions , winning in 2000 and placing second in 1993 , 1997 , and 2009 . At the Women 's World Twenty20 , New Zealand were runners-up in 2009 and 2010 , but are yet to win the event .",
    "/wiki/Beth_McNeill": "Beth Hannah McNeill ( born 10 November 1982 ) is a New Zealand cricketer . She was born in Wellington , and plays for the Canterbury Magicians .",
    "/wiki/Emma_Sampson": "Emma Margaret Sampson ( born 29 July 1985 in Adelaide , South Australia ) is an Australian cricketer who has played one Test and 31 ODI cricket matches for Australia national women 's cricket team.She is married to Hannah Sampson Predominantly a bowler , she is considered one of the fastest in the women 's game , bowling at about . Sampson played 98 domestic limited overs matches , including 62 Women 's National Cricket League matches for the South Australian Scorpions . After playing 31 ODIs , a Test and five Twenty20 Internationals she announced her retirement from cricket , at the age of 23 , after the 2009 World Cup . Her best analysis was 5 for 30 against New Zealand in 2008 . Sampson was the 154th woman to play Test cricket for Australia , and the 108th woman to play One Day International cricket for Australia .",
    "/wiki/Holly_Huddleston": "Holly Rachael Huddleston ( born 11 October 1987 ) is a New Zealand cricketer who plays for the national team . In April 2018 , she won the Phyl Blackler Cup for her domestic bowling at the New Zealand Cricket Awards . In August 2018 , she was awarded a central contract by New Zealand Cricket , following the tours of Ireland and England in the previous months . In October 2018 , she was named in New Zealand 's squad for the 2018 ICC Women 's World Twenty20 tournament in the West Indies .",
    "/wiki/West_Indies_women's_cricket_team": "The West Indies women 's cricket team , nicknamed the Windies , is a combined team of players from various countries in the Caribbean that competes in international women 's cricket . The team is organised by the West Indies Cricket Board ( WICB ) , a full member of the International Cricket Council ( ICC ) , which represents fifteen countries and territories . At the inaugural edition of the World Cup , in 1973 , two teams that now compete as part of the West Indies , Jamaica and Trinidad and Tobago , competed separately . A combined West Indian team made its Test debut in 1976 ( almost 50 years after its male counterpart ) , and its One Day International ( ODI ) in 1979 . The West Indies currently competes in the ICC Women 's Championship , the highest level of the sport , and has participated in five of the ten editions of the Women 's Cricket World Cup held to date . At the most recent 2013 World Cup , the team made the tournament 's final for the first time , but lost to Australia . At the ICC World Twenty20 , the team won its first title at the 2016 tournament , having made the semi-finals in each of the preceding tournaments .",
    "/wiki/Felicity_Leydon-Davis": "Felicity Carol Leydon-Davis ( born 22 June 1994 ) is a New Zealand cricketer .",
    "/wiki/Kate_Cross": "Kathryn Laura Cross ( born 3 October 1991 ) is an English international cricketer . She also co-hosts a podcast alongside Alex Hartley named No Balls .",
    "/wiki/Morna_Nielsen": "Morna Jessie Godwin Nielsen ( born 24 February 1990 ) is a New Zealand former cricketer who bowled left arm orthodox , and played for New Zealand in the women 's one-day internationals . She made her international debut in 2010 . On 10 November 2015 , she got her first five-wicket haul in the Bert Sutcliffe Oval . In August 2018 , she announced her retirement from all forms of cricket .",
    "/wiki/Sri_Lanka_women's_national_cricket_team": "The Sri Lanka women 's national cricket team represents Sri Lanka in international women 's cricket . One of eight teams competing in the ICC Women 's Championship ( the highest level of the sport ) , the team is organised by Sri Lanka Cricket ( SLC ) , a full member of the International Cricket Council ( ICC ) . Sri Lanka made its One Day International ( ODI ) debut in 1997 , against the Netherlands , and later in the year participated in the 1997 World Cup in India . The team has since participated in every edition of the World Cup , with a fifth-place finish at the 2013 event being its best performance . At the World Twenty20 , Sri Lanka has likewise played at every tournament , although the team has never progressed past the first round . Sri Lanka played in its first and only Test match to date in April 1998 , defeating Pakistan ."
  }
}