{
  "List_of_cultural_property_of_national_significance_in_the_United_Arab_Emirates_7": {
    "/wiki/Fujairah_Fort": "Fujairah Fort ( ) is a fort in the city of Fujairah , United Arab Emirates ( UAE ) . Dating back to the 16th century , it is the among the oldest as well as the largest castles in the country . It is noted for playing significant roles in fighting back the wave of colonialism . Today , it is among the main tourist attractions in the city . It is probably the oldest fort in the UAE and was occupied by the Wahhabists .",
    "/wiki/Habhab": "Habhab is a village in Fujairah , United Arab Emirates ( UAE ) . It is the site of the JSW Factory for Clinker Production , owned by Indian 'green ' cement producer JSW Cement Group . The facility is planned to have the capability to produce an annual 6 million tonnes of limestone , of which 1.4 million tonnes are to be used for clinker production . A recent initiative to establish majlis or meeting places in remote areas of Fujairah saw a 30-seat majlis with a 400-capacity ballroom for weddings and other community functions opened in 2017 at Habhab .",
    "/wiki/Al_Bithnah": "Al Bithnah is a village in Fujairah , United Arab Emirates ( UAE ) , long occupying a strategic location in the Wadi Ham , which is the only natural link to the interior of the UAE and the Persian Gulf from the East Coast city , and Emirate , of Fujairah . Located between Fujairah City and Masafi , the village is the site of a significant stone , mud-brick and adobe fort and a little-known megalithic tomb that links the village to a 3,000-year-old trade route along Wadi Ham through the Hajar Mountains from the East Coast emirate of Fujairah through Masafi ( itself part of Ras Al Khaimah ) and Manama down to the desert town of Dhaid and then to Sharjah and the Persian Gulf . It has traditionally been inhabited by members of the Sharqiyin ( Al Sharqi ) tribe .",
    "/wiki/Al_Badiyah": "Al Badiyah is a settlement in the Emirate of Fujairah , United Arab Emirates . Al Badiyah is the site of the Al Badiyah Mosque , the oldest mosque in the United Arab Emirates , dating back to the 15th century .",
    "/wiki/Sakamkam_Fort": "Sakamkam Fort is a historic fort in Sakamkam , just north of Fujairah City , Emirate of Fujairah , United Arab Emirates . The fort , on a hilly position , became ruined , but has now been restored . It has a round watchtower , with views of the modern Fujairah City , where Fujairah Fort is located . Sakamkam Fort is close to the Fujairah Free Zone , to the east .",
    "/wiki/Fujairah_City": "Fujairah City ( Arabic : \u0627\u0644\u0641\u062c\u064a\u0631\u0629 ) is the capital of the emirate of Fujairah in the United Arab Emirates , located on the Gulf of Oman ( part of the Indian Ocean ) .",
    "/wiki/Al_Hayl": "Al Hayl is a suburb of Fujairah , United Arab Emirates ( UAE ) , at the mouth of the Wadi Hayl . It is traditionally the home of the Kunud ( singular Al Kindi ) tribe . It is the site of a Dhs1.7 billion construction project , Mohammed bin Zayed City , which is planned to comprise 1,100 houses and apartments , as well as offering community services . Al Hayl Fort , a hilltop fortification that has been dated to 1932 , stands over the restored old village of Hayl . The wadi also contains a collection of petroglyphs , thought to date back to the Iron Age . Over 100 examples of rock art have been documented but a number are under threat because of the expansion of quarries as well as industrial sites and residential areas . The Kunud are thought to be descendants of Aswad Al Kindi , who moved to the area of Oman from Yemen in the time of Muhammad .",
    "/wiki/Al_Badiyah_Mosque": "Al-Bidya Mosque ( Arabic : \u0645\u064e\u0633\u0652\u062c\u0650\u062f \u0671\u0644\u0652\u0628\u0650\u062f\u0652\u064a\u064e\u0629 , romanized : Masjid Al-Bidyah , sometimes transliterated as Al-Bidiyah ( \u0671\u0644\u0652\u0628\u0650\u062f\u0650\u064a\u064e\u0629 ) or Al-Badiyah ( \u0671\u0644\u0652\u0628\u064e\u062f\u0650\u064a\u064e\u0629 ) ) is a historical mosque in the Emirate of Fujairah , the United Arab Emirates . It was the oldest known mosque in the country , prior to the discovery in September 2018 of the ruins of a 1000-year-old mosque dating back to the Islamic Golden Age , near the Sheikh Khalifa Bin Zayed Al Nahyan Mosque in the city of Al Ain , Emirate of Abu Dhabi . Still in use , it is located in the small village of Al-Badiyah or Al-Bidiyah , about 40 km ( 25 mi ) north of the Emirate 's capital city , and is also known as the Ottoman Mosque ."
  }
}