{
  "List_of_cultural_property_of_national_significance_in_the_United_Arab_Emirates_9": {
    "/wiki/Kalba": "Kalba ( Arabic : \u0643\u064e\u0644\u0652\u0628\u064e\u0627\u0621 , romanized : Kalb\u0101\u02be ) is a city in the Emirate of Sharjah in the United Arab Emirates ( UAE ) . It is an exclave of Sharjah lying on the Gulf of Oman coast north of Oman . Khor Kalba ( Kalba Creek ) , an important nature reserve and mangrove swamp , is located south of the town by the Omani border . The town was captured by the Portuguese Empire in the 16th century and was referred to as Ghallah . It was attacked and sacked by the Sultan of Muscat 's forces in March 1811 as part of the ongoing Omani campaign against the maritime forces of Al-Qasimi . It was a Trucial State from 1936 to 1951 , before being reincorporated into Sharjah . Kalba Mangrove reserve is currently closed to the public and is being developed as an eco-tourism resort by the Sharjah Investment and Development Authority ( Shurooq ) . A number of conservationists and ecologists have expressed concern regarding the project .",
    "/wiki/Dibba_Al-Hisn": "Dibba Al-Hisn ( white Dibba ) is a pene-exclave of the emirate of Al-Sharjah , one of the seven United Arab Emirates . It is bordered by the Gulf of Oman from the East , Dibba Al-Baya ( a province of Oman in Musandam ) from the North , and Dibba Al-Fujairah from the South . It is also geographically part of the Dibba region . It is the smallest in size among the Dibbas . It is mostly known for its fish market and the ancient fortress from which it got its name . Also , it is known for its high density of population relative to the other Dibbas .",
    "/wiki/Sharjah": "Sharjah ( /\u02c8\u0283\u0251\u02d0rd\u0292\u0259/ ; Arabic : \u0671\u0644\u0634\u064e\u0651\u0627\u0631\u0642\u064e\u0629 a\u0161-\u0160\u0101riqah ; Gulf Arabic : a\u0161-\u0161\u0101rja ) is the third largest and third most populous city in the United Arab Emirates , forming part of the Dubai-Sharjah-Ajman metropolitan area . The emirate of Sharjah borders with Dubai to the south , Ajman and Umm Al Quwain to the north and Ras Al Khaimah to the east . It is the only emirate that overlooks the coastline on the Persian Gulf to the west and the Gulf of Oman ( Indian Ocean ) to the East , with the eastern Sharjah coastal towns of Kalba and Khor Fakkan . Sharjah is the capital of the emirate of the same name . Sharjah shares legal , political , military and economic functions with the other emirates of the UAE within a federal framework , although each emirate has jurisdiction over some functions such as civil law enforcement and provision and upkeep of local facilities . Sharjah has been ruled by the Al Qasimi dynasty since the 18th century . The city is a centre for culture and industry , and alone contributes 7.4% of the GDP of the United Arab Emirates . The city covers an approximate area of 235 km\u00b2 and has a population of over 800,000 ( 2008 ) . The sale or consumption of alcoholic beverages is prohibited in the emirate of Sharjah without possession of an alcohol licence and alcohol is not served in Sharjah hotels , restaurants or other outlets due to the Muslim majority in the area . This has helped Sharjah increase the number of Islamic tourists who visit the country . Sharjah has been officially named as a WHO healthy city . The 2016 edition of QS Best Student Cities ranked Sharjah as the 68th best city in the world to be a university student .",
    "/wiki/Al_Mahatta_Fort": "Al Mahatta Fort ( the station in Arabic ) is located in central Sharjah in the United Arab Emirates . The fort was built by the Ruler of Sharjah in 1932 to afford protection for passengers and staff of Imperial Airways . It was the first British establishment on the Trucial Coast , after an agreement was struck between the British and the ruler of Sharjah in June 1932 . It was also used by the Royal Air Force in World War II . The fort today houses an aviation museum , known as the Al Mahatta Museum .",
    "/wiki/Sharjah_Fort": "Sharjah Fort ( Al Hisn Sharjah ) is a double story traditional rock , coral and adobe fortification in the centre of the city of Sharjah in the United Arab Emirates ( UAE ) . The fort was originally constructed in 1820 by the then Ruler of Sharjah , Sheikh Sultan bin Saqr Al Qasimi . It was partially demolished in January 1970 , the one remaining tower ( called 'kubs ' , that to the far right of the fort as you stand at the entrance ) lending its name to the square in which it sits , 'Al Burj ' , Arabic for 'tower ' . The fort has been restored by the current Ruler as part of a comprehensive programme of ongoing restoration of the traditional core of the old port city of Sharjah under the name 'Heart of Sharjah ' . The restoration of Sharjah Fort commenced in January 1996 and was completed in April 1997 ."
  },
  "List_of_football_clubs_in_S\u00e3o_Tom\u00e9_and_Pr\u00edncipe_by_competitive_honours_won_2": {
    "/wiki/GD_Os_Oper\u00e1rios": "Grupo Desportivo Os Oper\u00e1rios , sometimes known as Sport Oper\u00e1rios e Benfica , is a football club that plays in the Principe Island League in S\u00e3o Tom\u00e9 and Pr\u00edncipe . The team is based in the island of Pr\u00edncipe and plays at Est\u00e1dio 13 de Julho in the island capital as every club on the island does . Os Oper\u00e1rios the second successful football ( soccer ) club in Pr\u00edncipe , it has one of the most honours in S\u00e3o Tom\u00e9 and Pr\u00edncipe , having won about 14 official titles , six are national and the remaining eight are regional titles . The club was once affiliated to Portugal 's S.L . Benfica .",
    "/wiki/GD_Sundy": "Grupo Desportivo Sundy is a football club that is based in the section of Sundy/Sundi in the island of Principe in S\u00e3o Tom\u00e9 and Pr\u00edncipe . The team plays in the Principe Island League in its local division and plays at Est\u00e1dio 13 de Julho in the island capital as every club on the island does , their main field is Campo de Sundi which is located in Sundi . Its nickname is Nig\u00e9ria , Portuguese for Nigeria .",
    "/wiki/Sporting_Clube_do_Pr\u00edncipe": "Sporting Clube do Pr\u00edncipe is a football club that plays in the island of Principe in S\u00e3o Tom\u00e9 and Pr\u00edncipe . The team plays in the Principe Island League in its local division .",
    "/wiki/FC_Porto_Real": "Futebol Clube Porto Real is a football club that plays in Porto Real in the island of Principe in S\u00e3o Tom\u00e9 and Pr\u00edncipe . The team plays in the Principe Island League in its local division and plays at Est\u00e1dio 13 de Julho in the island capital as every club on the island does .",
    "/wiki/1\u00ba_de_Maio": "Grupo Desportivo 1\u00ba de Maio is a football club that plays in the island of Principe in S\u00e3o Tom\u00e9 and Pr\u00edncipe . The team plays in the Principe Island League in its local division and plays at Est\u00e1dio 13 de Julho in the island capital as every club on the island does .",
    "/wiki/UDAPB": "Uni\u00e3o Desportiva Aeroporto , Pic\u00e3o e Belo Monte ( Portuguese meaning the Pic\u00e3o e Belo Monte Airport Sporting Union , abbreviation and common form : UDAPB ) is a football club that plays in Santo Ant\u00f3nio in the island of Principe in S\u00e3o Tom\u00e9 and Pr\u00edncipe . The team plays in the Principe Island League in its local division and plays at Est\u00e1dio 13 de Julho in the island capital as every club on the island does . It is located next to the island 's only airport and is based in the village of Pic\u00e3o and the club area includes the Santo Ant\u00f3nio subdivision of Aeroporto and Belo Monte , S\u00e3o Tom\u00e9 and Pr\u00edncipe in the northeast whose the club areas included , other areas includes the whole northeast of the island and Santa Rita ."
  }
}