{
  "National_Register_of_Historic_Places_listings_in_Doddridge_County,_West_Virginia_0": {
    "/wiki/Center_Point_Covered_Bridge": "The Center Point Covered Bridge is a historic covered bridge near Center Point , Doddridge County , West Virginia , USA . It was commissioned by the County Court and was built between 1888 and 1890 . It spans Pike 's Fork ( Middle Fork ) of McElroy Creek . The masons were T.C . Ancell and E. Underwood ( who charged $ 976.54 for all abutments ) . The carpenters were John Ash and S.H . Smith ( who charged $ 230 ) . The design utilizes the Long Truss . As of 1983 , the Center Point Covered Bridge was one of only 17 covered bridges left in West Virginia . It was listed on the National Register of Historic Places in 1983 .",
    "/wiki/West_Virginia_Route_23": "West Virginia Route 23 is a north-south state highway in the northern portion of the U.S. state of West Virginia . The northern terminus of the route is at West Virginia Route 18 in Tyler , Tyler County . The southern terminus is at old U.S. Route 50 in Salem , Harrison County .",
    "/wiki/Center_Point,_West_Virginia": "Center Point is an unincorporated community in northeastern Doddridge County , West Virginia , USA . It lies along Route 23 northeast of the town of West Union , the county seat of Doddridge County . Its elevation is 791 feet ( 241 m ) . Historically , the community has also been known as Three Forks of McElroy ( or Three Fork ) , Centerpoint , Centre Point , and Mount Pleasant ; the Board on Geographic Names officially designated the current name and spelling in 1964 . Although it is unincorporated , it had a post office until November 2 , 2002 , and still has a ZIP code of 26339 . It lies near the confluence of three streams that form McElroy Creek ( Robinson , Pike , and Talkington Forks ) . Located near Center Point is the Center Point Covered Bridge ( built ca . 1888-90 ) , listed on the National Register of Historic Places in 1983 . The first oil pool in Doddridge County was discovered ( brought in as it was then termed ) and drilled in 1892 at Center Point . The oil and gas industry transformed life in the area very quickly and permanently .",
    "/wiki/Lathrop_Russell_Charter_House": "The Lathrop Russell Charter House is a historic home located at West Union , Doddridge County , West Virginia , U.S.A . It was built in 1877 , and is a two-story , T-shaped frame dwelling , with a low-pitched hipped roof with bracketed eaves . It features tall crowned windows and a two-story side porch . Also on the property is a contributing guest house . It was listed on the National Register of Historic Places in 1993 .",
    "/wiki/West_Union,_West_Virginia": "West Union , incorporated July 20 , 1881 , is a town in Doddridge County , West Virginia , United States . The population was 825 at the 2010 census . It is the county seat of Doddridge County . The mayor is Joseph Thorpe as of 2013 . The town is located along Middle Island Creek at the junction of U.S. Route 50 and West Virginia Route 18 ; the North Bend Rail Trail also passes through the town .",
    "/wiki/Doddridge_County_Courthouse": "The Doddridge County Courthouse in West Union , Doddridge County , West Virginia , USA , was designed in the Victorian Romanesque style by J. Charles Fulton , who also designed courthouses in Barbour County and Randolph County . Built in 1899 by contractor John B. Conn , the courthouse features stone carvings by James Grant . The courthouse replaced a previous courthouse that was destroyed by fire in 1898 .",
    "/wiki/Gamsjager\u2013Wysong_Farm": "Gamsjager-Wysong Farm , also known as the Old Gamsjager Place , is a historic farmhouse located at St. Clara , Doddridge County , West Virginia . It was built in 1906 , and is a two-story , rectangular German-style farmhouse with a two-story rear wing . It has a steeply pitched roof and sits on a sandstone foundation . Also on the property is a cellar house and 19th-century German bank barn . It was listed on the National Register of Historic Places in 1986 .",
    "/wiki/St._Clara,_West_Virginia": "St. Clara is an unincorporated community in central Doddridge County , West Virginia , US . Its elevation is 850 feet ( 254 m ) . An early postmaster gave the community the name of his wife , Clara DisDebar . Located at St. Clara is the Gamsjager-Wysong Farm , listed on the National Register of Historic Places in 1986 .",
    "/wiki/Krenn_School": "Krenn School , also known as St. Clara Community Building , is a historic one-room school building located at New Milton , Doddridge County , West Virginia . It was built in 1897 , and is a one-story rectangular , wood frame building measuring 35 feet deep and 24 feet wide . It has a low pitched gable roof covered in corrugated metal . The building was renovated in 1922 . It was used as a school until the late 1930s , at which time it became a community center . It was listed on the National Register of Historic Places in 1989 .",
    "/wiki/New_Milton,_West_Virginia": "New Milton is an unincorporated community in central Doddridge County , West Virginia , United States . The community is located along Meathouse Fork , southeast of the town of West Union , the county seat of Doddridge County . Its elevation is 833 feet ( 254 m ) . Although it is unincorporated , it has a post office , with the ZIP code of 26411 .",
    "/wiki/Silas_P._Smith_Opera_House": "Silas P. Smith Opera House , now known as Doddridge County Public Library , is a historic theatre located at West Union , Doddridge County , West Virginia . It was built in 1900 , and is a two-story brick commercial building measuring 40 feet wide and 70 feet deep . It has simple Romanesque Revival style architectural details . The building has housed the Doddridge County Public Library since 1965 . It is included in the West Union Downtown Historic District . It was listed on the National Register of Historic Places in 2001 .",
    "/wiki/W._Scott_Stuart_House": "The W. Scott Stuart House is a historic home located at West Union , Doddridge County , West Virginia . It was built about 1905 , and is a three-story , frame dwelling , with a two-story front portico with Ionic order columns , wrap-around porch , and an opulent interior in a transitional Queen Anne style . It features circular twin towers located on each front corner with tile conical roofs . It was listed on the National Register of Historic Places in 1993 .",
    "/wiki/West_Union_Downtown_Historic_District": "West Union Downtown Historic District is a national historic district located at West Union , Doddridge County , West Virginia . It encompasses 27 contributing buildings that include the commercial and civic core of the town , and surrounding residential buildings . The district includes a number of buildings representative of popular architectural styles from the late-19th century and early-20th century including Romanesque Revival , Neoclassical , and Queen Anne . Notable buildings include the Doddridge County Courthouse ( 1903 ) and Jail ( 1937 , now Doddridge County Museum ) , Scott W. Stuart House ( c. 1905 ) , Silas P. Smith House ( c. 1903 ) , Town Hall ( 1893 ) , Droppleman Residence ( c. 1917 ) , Michel 's Pharmacy ( 1925 ) . Empire Oil Building ( c. 1900 ) , and Myles Manufacturing Co. , Inc. ( c. 1915 ) . Also located in the district is the separately listed Silas P. Smith Opera House . It was listed on the National Register of Historic Places in 2003 .",
    "/wiki/Baltimore_and_Ohio_Railroad": "The Baltimore and Ohio Railroad ( reporting marks B & O , BO ) was the first common carrier railroad and the oldest railroad in the United States , with its first section opening in 1830 . Merchants from the city of Baltimore , which had benefitted to some extent from the construction of the National Road early in the century , wanted to continue to compete for trade with trans-Appalachian settlers with the newly constructed Erie Canal ( which served New York City ) , another canal being proposed by Pennsylvania ( which would have connected Philadelphia and Pittsburgh ) , the Chesapeake and Ohio Canal ( which connected to the nation 's capital , Washington , D.C. ) , and the James River Canal , which directed traffic toward Richmond and Norfolk , Virginia . At first the B & O was located entirely in the state of Maryland , its original line extending from the port of Baltimore west to Sandy Hook . Because of competition with the C & O canal for trade with coal fields in western Maryland , it could not use the C & O right of way . Thus , to continue westward while minimizing high-cost track through the Appalachian Mountains , the B & O chose to cross the Potomac River into Virginia ( now West Virginia ) , near the confluence of the Potomac and Shenandoah rivers . From there track continued through Virginia from Harpers Ferry to a point just west of the junction of Patterson Creek and the North Branch Potomac River , where it crossed back into Maryland to reach Cumberland , the terminus of the National Road . From there the B & O extended to the Ohio River at Wheeling and a few years later also to Parkersburg , West Virginia ( below rapids which made navigation difficult during parts of the year ) . It proved crucial to Union success during the American Civil War , although the conflict also caused considerable damage ( and repair costs ) . After the war 's end , the B & O consolidated several feeder lines in Virginia and West Virginia , as well as expanded westward into Ohio ( including a junction at Portsmouth ) , Indiana and Illinois . B & O advertising later carried the motto : Linking 13 Great States with the Nation . After several mergers , the B & O became part of the CSX Transportation ( CSX ) network . The B & O also includes the Leiper Railroad , the first permanent horse-drawn railroad in the U.S. At the end of 1970 , the B & O operated 5,552 miles of road and 10,449 miles of track , not including the Staten Island Rapid Transit ( SIRT ) or the Reading and its subsidiaries .",
    "/wiki/West_Union_Residential_Historic_District": "West Union Residential Historic District is a national historic district located at West Union , Doddridge County , West Virginia . It encompasses 85 contributing residential buildings , built between about 1858 and 1940 . They are representative of popular architectural styles from the late-19th century and early-20th century including Colonial Revival and Queen Anne . Notable non-residential buildings include the West Union Baptist Church , Emmanuel United Methodist Church , and Doddridge County High School . It was listed on the National Register of Historic Places in 2010 ."
  }
}