{
  "List_of_Medal_of_Honor_recipients_educated_at_the_United_States_Military_Academy_3": {
    "/wiki/William_E._Birkhimer": "William Edward Birkhimer ( March 1 , 1848 - June 10 , 1914 ) was a United States Army Brigadier General and lawyer received the Medal of Honor while a captain during the Philippine-American War . His career was long and varied , as he started as an Iowa private in the Union Army during the Civil War .",
    "/wiki/Brigadier_general": "Brigadier general ( Brig . Gen. ) or brigade general is a senior rank in the armed forces . It is the lowest ranking general officer in some countries , usually sitting between the ranks of colonel and major general . When appointed to a field command , a brigadier general is typically in command of a brigade consisting of around 4,000 troops ( four battalions ) . In some countries a brigadier general is informally designated as a one-star general ( OF-6 ) . In some countries , this rank is given the name of brigadier , which is usually equivalent to brigadier general in the armies of nations that use the rank . The rank can be traced back to the militaries of Europe where a brigadier general , or simply a brigadier , would command a brigade in the field . The rank name g\u00e9n\u00e9ral de brigade ( which translates as brigade general ) was first used in the French revolutionary armies . In the first quarter of the 20th century , British and Commonwealth armies used the rank of brigadier general as a temporary appointment , or as an honorary appointment on retirement ; in the 1920s this practice changed to the use of brigadier , which was not classed as a general officer . Some armies , such as Taiwan and Japan , use major general as the equivalent of brigadier general ( See also Japan & Taiwan for details. ) . Some of these armies then use the rank of colonel general to make four general-officer ranks . [ citation needed ] Mexico uses the ranks of both General brigadier and General de brigada .",
    "/wiki/James_Parker_(Medal_of_Honor)": "James Parker ( February 20 , 1854 - June 2 , 1934 ) was a major general in the United States Army and a Medal of Honor recipient for his role in the Philippine-American War during 1899 . His son , Cortlandt Parker , also became a major general in the United States Army .",
    "/wiki/Major_general": "Major general ( abbreviated MG , maj. gen. and similar ) is a military rank used in many countries . It is derived from the older rank of sergeant major general . The disappearance of the sergeant in the title explains the apparently confusing phenomenon whereby a lieutenant general outranks a major general while a major outranks a lieutenant . In the Commonwealth and the United States , it is a division commander 's rank subordinate to the rank of lieutenant general and senior to the ranks of brigadier and brigadier general . In the Commonwealth , major general is equivalent to the navy rank of rear admiral , and in air forces with a separate rank structure , it is equivalent to air vice-marshal . In some countries , including much of Eastern Europe , major general is the lowest of the general officer ranks , with no brigadier-grade rank .",
    "/wiki/J._Franklin_Bell": "James Franklin Bell ( January 9 , 1856 - January 8 , 1919 ) was an officer in the United States Army who served as Chief of Staff of the United States Army from 1906 to 1910 . Bell was a major general in the Regular United States Army , commanding the Department of the East , with headquarters at Governors Island , New York at the time of his death in 1919 . He entered West Point in 1874 , and graduated 38th in a class of 43 in 1878 , with a commission as second lieutenant of the 9th Cavalry Regiment , a black unit .",
    "/wiki/9th_Cavalry_Regiment_(United_States)": "The 9th Cavalry Regiment is a parent cavalry regiment of the United States Army . Historically , it was one of the Army 's four segregated African American regiments . The regiment saw combat during the Indian and Spanish-American Wars . During Westward Expansion , the regiment provided security for the early western settlers and defended the American borders against Indian bands , Mexican encroachment , and criminal elements . As of 2019 [ update ] , the 1st Battalion and 4th Squadron serve with the 2nd Brigade Combat Team , 1st Cavalry Division as a combined arms battalion and an armored reconnaissance squadron , respectively , while the 6th Squadron is the armored reconnaissance squadron of the 3rd Brigade Combat Team of the division . All three units are stationed at Fort Hood .",
    "/wiki/Hugh_J._McGrath": "Hugh Jocelyn McGrath ( April 6 , 1856 - November 7 , 1899 ) was a Captain in the United States Army and a Medal of Honor recipient for his actions in the Philippine-American War . He graduated from the United States Military Academy in 1880 . He lived in Eau Claire , Wisconsin . He was wounded in the left thigh at Noveleta in October 1899 , and he died of his wound a month later . His body was repatriated in December 1899 and he was buried at Arlington National Cemetery .",
    "/wiki/Major": "Major is a military rank of commissioned officer status , with corresponding ranks existing in many military forces throughout the world .",
    "/wiki/William_H._Sage": "William Hampden Sage ( April 6 , 1859 - June 3 , 1922 ) was a major general in the United States Army and a Medal of Honor recipient for his actions during the Battle of Zapote Bridge , an action of the Philippine-American War .",
    "/wiki/John_Alexander_Logan,_Jr.": "John Alexander Logan Jr. , born Manning Alexander Logan ( July 24 , 1865 - November 11 , 1899 ) , was a United States Army officer who posthumously received the Medal of Honor for actions during the Philippine-American War .",
    "/wiki/Major_(United_States)": "In the United States Army , Marine Corps , and Air Force , major is a field grade military officer rank above the rank of captain and below the rank of lieutenant colonel . It is equivalent to the naval rank of lieutenant commander in the other uniformed services . Although lieutenant commanders are considered junior officers by their respective services ( Navy and Coast Guard ) , the rank of major is that of a senior officer in the United States Army , the United States Marine Corps , and the United States Air Force . The pay grade for the rank of major is O-4 . The insignia for the rank consists of a golden oak leaf , with slight stylized differences between the Army/Air Force version and the Marine Corps version . Promotion to major is governed by the Department of Defense policies derived from the Defense Officer Personnel Management Act of 1980 .",
    "/wiki/Louis_J._Van_Schaick": "Louis Joseph Van Schaick ( pronounced Van Scoik ) ( July 1 , 1875 - February 14 , 1945 ) was an officer in the United States Army and a Medal of Honor recipient for his actions in the Philippine-American War .",
    "/wiki/Colonel": "Colonel ( /\u02c8k\u025c\u02d0rn\u0259l/ kernel ; abbreviated Col. , Col or COL ) is a senior military officer rank below the general officer ranks . However , in some small military forces , such as those of Monaco or the Vatican , colonel is the highest rank . It is also used in some police forces and paramilitary organizations . Historically , in the seventeenth , eighteenth and nineteenth centuries , a colonel was typically in charge of a regiment in an army . Modern usage varies greatly , and in some cases , the term is used as an honorific title that may have no direct relationship to military service . The rank of colonel is typically above the rank of lieutenant colonel . The rank above colonel is typically called brigadier , brigade general or brigadier general . Equivalent naval ranks may be called captain or ship-of-the-line captain . In the Commonwealth air force rank system , the equivalent rank is group captain .",
    "/wiki/Arthur_H._Wilson": "Arthur Harrison Wilson ( 1881-1953 ) was an officer in the United States Army and a Medal of Honor recipient for his actions in the Philippine Insurrection . Originally a member of the West Point class of 1903 , he was held back a year and graduated in 1904 . He was the captain of the world champion West Point Polo Team , and served a long career in the Cavalry . He was a full colonel and commander of Fort Brown , Texas , when he retired in 1942 after almost 40 years service . He lived the remaining 11 years of his life in retirement at Brownsville , Texas . He died of cardiac failure while duck hunting , one of his favorite sports .",
    "/wiki/Moro_people": "The collective term Moro people or Bangsamoro people refers to the 13 Islamized ethnolinguistic groups of Mindanao , Sulu , and Palawan . As Muslim-majority ethnic groups , they form the largest non-Christian majority population in the Philippines , and comprise about 5% of the country 's total population , or 5 million people . Most Moros are followers of Sunni Islam of the Shafi ' i madh'hab . The Muslim Moros originally had an independent state known as the Sulu Sultanate , which once exercised sovereignty over the present day provinces of Basilan , Palawan , Sulu , Tawi-Tawi , the eastern part of the Malaysian state of Sabah ( formerly North Borneo ) and North Kalimantan in Indonesia . Today , the Moro people mostly live in southwest Mindanao , Sulu and Basilan , small communities can also be found in most large modern cities of the Philippines , including Manila , Cebu and Davao . Some have emigrated to Malaysia , Indonesia and Brunei in the late 20th century due to the Moro conflict in Mindanao . Newer communities can be found today in Kota Kinabalu , Sandakan , Semporna in neighbouring Sabah , Malaysia , North Kalimantan in Indonesia , as well in Bandar Seri Begawan of Brunei .",
    "/wiki/John_Thomas_Kennedy": "John Thomas Kennedy ( July 22 , 1885 - September 22 , 1969 ) was a Second Lieutenant in the United States Army who received the Medal of Honor for actions during the Philippine-American War and the last surviving US veteran of the war to receive the medal ."
  }
}