{
  "European_Association_of_Daily_Newspapers_in_Minority_and_Regional_Languages_(MIDAS)_0": {
    "/wiki/Berria": "Berria ( Basque : News ) is the only daily newspaper published wholly in the Basque language and which can be read in the entirety of the Basque country . It was created after the closure of the previous Basque language newspaper , Egunkaria , by the Spanish government , after being accused of having ties with ETA . The newspaper shutdown was regarded by many as an attack on freedom of speech and the Basque language . After 7 years , in April 2010 , the editorial team were found not guilty and acquitted . Berria is published daily , with the exception of Monday . The first issue was released on 21 June 2003 . The newspaper 's headquarters is in Andoain , Gipuzkoa , in the autonomous Basque region , Euskadi , in northern Spain . There are also centres in Vitoria-Gasteiz , Pamplona , Bilbao and Bayonne .",
    "/wiki/Hufvudstadsbladet": "Hufvudstadsbladet ( abbr . Hbl ) is the highest-circulation Swedish-language newspaper in Finland . Its headquarters are located in Helsinki , the capital of Finland . The name of the newspaper translates approximately into Journal of the Capital , hufvudstad ( modern spelling huvudstad ) being 19th-century Swedish for capital . The newspaper is informally also called Husis or H\u00f6blan .",
    "/wiki/Der_Nordschleswiger": "Der Nordschleswiger is a German-language regional newspaper of the German minority published in Denmark . It is one of two major minority newspapers published in the Danish-German border region , the other one being Flensborg Avis of the Danish minority in Germany . In addition , it is the only paper published in German in Denmark and in Scandinavia as well as the first German-language paper established in Europe following World War II .",
    "/wiki/Dolomiten": "Dolomiten is an Italian local daily newspaper , based in Bozen/Bolzano . It is the oldest and most important German-language newspaper published in South Tyrol , a region where German is spoken by the majority of the inhabitants . The title takes the German name of the local mountain range , the Dolomites .",
    "/wiki/Flensborg_Avis": "Flensborg Avis is a Danish language daily newspaper , published in Flensburg ( ) , Germany . It regularly cooperates with Flensburger Tageblatt , a German majority newspaper in the city , and Der Nordschleswiger , a German minority newspaper published in Denmark .",
    "/wiki/Avui": "Avui ( , meaning Today in English ) was a Catalan daily newspaper , based in Barcelona , in Catalonia . It was one of the city 's newest papers , having been founded in 1976 . The editorial line was Catalan nationalist .",
    "/wiki/La_Vanguardia": "' , despite being mostly distributed in Catalonia , has Spain 's fourth-highest circulation among general-interest newspapers , trailing only the three main Madrid dailies - ' , and ABC , all of which are national newspapers with offices and local editions throughout the country . Its editorial line leans to the centre of politics and is moderate in its opinions , although under Franco it followed Francoist ideology and to this day has Catholic sensibilities and strong ties to the Spanish nobility through the God\u00f3 family .",
    "/wiki/\u00daj_Sz\u00f3": "\u00daj Sz\u00f3 ( ) is a Hungarian language only daily newspaper published in Bratislava , Slovakia . It also publishes a weekly Sunday supplement titled Vas\u00e1rnap ( , before 1990 : Vas\u00e1rnapi \u00daj Sz\u00f3 ) .",
    "/wiki/Allgemeine_Deutsche_Zeitung_f\u00fcr_Rum\u00e4nien": "The Allgemeine Deutsche Zeitung f\u00fcr Rum\u00e4nien ( ADZ ) is a German-language daily newspaper based in Romania .",
    "/wiki/Primorski_dnevnik": "Primorski dnevnik ( ) , mostly known as Primorski , is a Slovene language daily newspaper published in Trieste , Italy . It is the only Slovene daily in any country other than Slovenia , and one of the three historical daily newspapers in Italy published in a language other than Italian ( the other two are the German-language Dolomiten and Neue S\u00fcdtiroler Tageszeitung ) . It is primarily published for the Slovene minority in Italy . The newspaper was founded on 13 May 1945 in Trieste by the Yugoslav Partisans which occupied the city . It was founded as the main daily newspaper for the Yugoslav-occupied Slovenian Littoral , previously known as the Julian March . However , with the Yugoslav retreat from Trieste in early June 1945 , and the establishment of the Free Territory of Trieste in September 1947 , the newspaper became the herald of the Slovene community in Trieste and in other areas of the Friuli-Venezia Giulia region . The legal predecessor of the Primorski dnevnik was the Partizanski dnevnik , published illegally during World War II . The Partizanski dnevnik was published between November 1943 and May 1945 by the Slovenian partisan resistance in the Slovenian Littoral , first in Cerkno and then in Gorenja Trebu\u0161a . After the liberation of Trieste by the Yugoslav Partisans on 1 May 1945 , the headquarters was moved to Trieste , and its current name was adopted . After the Soviet-Yugoslav split in 1948 , Primorski dnevnik became the organ of the Titoist Slovenian-Italian Popular Front . The newspaper centers its reporting on the Slovene community in Italy , but reports extensively also on news from Slovenia and the world . It frequently publishes articles relating to the Slovene minority in Carinthia and other minorities in Europe ."
  },
  "List_of_Bolivian_submissions_for_the_Academy_Award_for_Best_Foreign_Language_Film_0": {
    "/wiki/1995_in_film": "This is a list of films released in 1995 . The highly anticipated sequel Die Hard with a Vengeance was the year 's biggest box-office hit , and Braveheart won the Academy Award for Best Picture .",
    "/wiki/68th_Academy_Awards": "The 68th Academy Awards ceremony , organized by the Academy of Motion Picture Arts and Sciences ( AMPAS ) , honored the best films of 1995 in the United States and took place on March 25 , 1996 , at the Dorothy Chandler Pavilion in Los Angeles beginning at 6:00 p.m. PST / 9:00 p.m. EST . During the ceremony , AMPAS presented Academy Awards ( commonly referred to as Oscars ) in 24 categories . The ceremony , televised in the United States by ABC , was produced by Quincy Jones and directed by Jeff Margolis . Actress Whoopi Goldberg hosted the show for the second time , having previously presided over the 66th ceremony in 1994 . Three weeks earlier , in a ceremony held at the Regent Beverly Wilshire Hotel in Beverly Hills , California , on March 2 , the Academy Awards for Technical Achievement were presented by host Richard Dreyfuss . Braveheart won five awards , including Best Director for Mel Gibson and Best Picture . Other winners included Apollo 13 , Pocahontas , Restoration and The Usual Suspects with two awards , and Anne Frank Remembered , Antonia 's Line , Babe , A Close Shave , Dead Man Walking , Il Postino : The Postman , Leaving Las Vegas , Lieberman in Love , Mighty Aphrodite , One Survivor Remembers and Sense and Sensibility with one . The telecast garnered almost 45 million viewers in the United States .",
    "/wiki/Jonah_and_the_Pink_Whale": "Jonah and the Pink Whale ( Spanish : Jon\u00e1s y la ballena rosada ) is a 1995 Mexican-Bolivian co-production film directed by Juan Carlos Valdivia . The film is based on the 1987 novel by Jos\u00e9 Wolfango Montes Vannuci The film focuses on the relationship of Jonas , a photographer and his romantic relationship with his sister-in-law . Jonah and the Pink Whale was the Bolivian entry for the Best Foreign Language Film competition in the 68th Academy Awards , but it did not receive an Oscar nomination .",
    "/wiki/Spanish_language": "Spanish ( /\u02c8sp\u00e6n\u026a\u0283/ ( listen ) ; espa\u00f1ol ( help\u00b7info ) ) , or Castilian ( /k\u00e6\u02c8st\u026ali\u0259n/ ( listen ) , castellano ( help\u00b7info ) ) , is a Romance language that originated in the Iberian Peninsula and today has over 483 million native speakers , mainly in Spain and the Americas . It is a global language , the world 's second-most spoken native language , after Mandarin Chinese , and the world 's fourth-most spoken language , after Mandarin Chinese , English and Hindi . Spanish is a part of the Ibero-Romance group of languages , which evolved from several dialects of Vulgar Latin in Iberia after the collapse of the Western Roman Empire in the 5th century . The oldest Latin texts with traces of Spanish come from mid-northern Iberia in the 9th century , and the first systematic written use of the language happened in Toledo , a prominent city of the Kingdom of Castile , in the 13th century . Beginning in 1492 , the Spanish language was taken to the viceroyalties of the Spanish Empire , most notably to the Americas , as well as territories in Africa , Oceania and the Philippines . A 1949 study by Italian-American linguist Mario Pei , analyzing the degree of difference from a language 's parent ( Latin , in the case of Romance languages ) by comparing phonology , inflection , syntax , vocabulary , and intonation , indicated the following percentages ( the higher the percentage , the greater the distance from Latin ) : In the case of Spanish , it is one of the closest Romance languages to Latin ( 20% distance ) , only behind Sardinian ( 8% distance ) and Italian ( 12% distance ) . Around 75% of modern Spanish vocabulary is derived from Latin , including Latin borrowings from Ancient Greek . Spanish vocabulary has been in contact with Arabic from an early date , having developed during the Al-Andalus era in the Iberian Peninsula . With around 8% of its vocabulary being Arabic in origin , this language makes up the second greatest vocabulary source after Latin itself . It has also been influenced by Basque , Iberian , Celtiberian , Visigothic , and by neighboring Ibero-Romance languages . Additionally , it has absorbed vocabulary from other languages , particularly other Romance languages - French , Italian , Andalusi Romance , Portuguese , Galician , Catalan , Occitan , and Sardinian - as well as from Quechua , Nahuatl , and other indigenous languages of the Americas . Spanish is one of the six official languages of the United Nations .",
    "/wiki/2003_in_film": "The year 2003 in film involved some significant events .",
    "/wiki/76th_Academy_Awards": "The 76th Academy Awards ceremony , presented by the Academy of Motion Picture Arts and Sciences ( AMPAS ) , honored the best films of 2003 and took place on February 29 , 2004 , at the Kodak Theatre in Hollywood , Los Angeles beginning at 5:30 p.m. PST / 8:30 p.m. EST . During the ceremony , AMPAS presented Academy Awards ( commonly referred to as Oscars ) in 24 categories . The ceremony , televised in the United States by ABC , was produced by Joe Roth and was directed by Louis J. Horvitz . Actor Billy Crystal hosted for the eighth time . He first presided over the 62nd ceremony held in 1990 and had last hosted the 72nd ceremony held in 2000 . Two weeks earlier in a ceremony at The Ritz-Carlton Huntington Hotel & Spa in Pasadena , California held on February 14 , the Academy Awards for Technical Achievement were presented by host Jennifer Garner . The Lord of the Rings : The Return of the King won all eleven awards it was nominated for , tying the Academy Awards record for most awards won ( alongside Ben-Hur and Titanic ) , including Best Director for Peter Jackson and Best Picture . Other winners included Master and Commander : The Far Side of the World and Mystic River with two awards and The Barbarian Invasions , Chernobyl Heart , Cold Mountain , Finding Nemo , The Fog of War , Harvie Krumpet , Lost in Translation , Monster and Two Soldiers with one . The telecast garnered nearly 44 million viewers in North America the United States , making it the most-watched telecast in four years .",
    "/wiki/Sexual_Dependency_(film)": "Sexual Dependency ( original Spanish title Dependencia sexual ) is a Bolivian drama film by Rodrigo Bellott . It focuses on five young people just beginning to construct their sexual identity . Most of the actors featured were non-professional . It was Bolivia 's entry to the foreign film category of the 76th Academy Awards .",
    "/wiki/English_language": "English is a West Germanic language that was first spoken in early medieval England and eventually became a global lingua franca . It is named after the Angles , one of the Germanic tribes that migrated to the area of Great Britain that later took their name , as England . Both names derive from Anglia , a peninsula in the Baltic Sea . The language is closely related to Frisian and Low Saxon , and its vocabulary has been significantly influenced by other Germanic languages , particularly Norse ( a North Germanic language ) , and to a greater extent by Latin and French . English has developed over the course of more than 1,400 years . The earliest forms of English , a group of West Germanic ( Ingvaeonic ) dialects brought to Great Britain by Anglo-Saxon settlers in the 5th century , are collectively called Old English . Middle English began in the late 11th century with the Norman conquest of England ; this was a period in which the language was influenced by French . Early Modern English began in the late 15th century with the introduction of the printing press to London , the printing of the King James Bible and the start of the Great Vowel Shift . Modern English has been spreading around the world since the 17th century by the worldwide influence of the British Empire and the United States . Through all types of printed and electronic media of these countries , English has become the leading language of international discourse and the lingua franca in many regions and professional contexts such as science , navigation and law . English is the largest language by number of speakers , and the third most-spoken native language in the world , after Standard Chinese and Spanish . It is the most widely learned second language and is either the official language or one of the official languages in almost 60 sovereign states .",
    "/wiki/2005_in_film": "2005 in film is an overview of events , including the highest-grossing films , award ceremonies , festivals , a list of country-specific lists of films released , notable deaths and film debuts .",
    "/wiki/78th_Academy_Awards": "The 78th Academy Awards presented by the Academy of Motion Picture Arts and Sciences ( AMPAS ) , took place on March 5 , 2006 , at the Kodak Theatre in Hollywood , Los Angeles beginning at 5:00 p.m. PST / 8:00 p.m. EST . The ceremony was scheduled one week later than usual to avoid a clash with the 2006 Winter Olympics . During the ceremony , AMPAS presented Academy Awards ( commonly referred to as Oscars ) in 24 categories honoring films released in 2005 . The ceremony , televised in the United States by ABC , was produced by Gil Cates and directed by Louis J. Horvitz . Actor Jon Stewart hosted the show for the first time . Two weeks earlier in a ceremony at The Beverly Hilton in Beverly Hills , California held on February 18 , the Academy Awards for Technical Achievement were presented by host Rachel McAdams . Crash won three awards including Academy Award for Best Picture . Other winners included Brokeback Mountain , King Kong and Memoirs of a Geisha also with three awards apiece , and Capote , The Chronicles of Narnia : The Lion , the Witch and the Wardrobe , The Constant Gardener , Hustle & Flow , March of the Penguins , The Moon and the Son : An Imagined Conversation , A Note of Triumph : The Golden Age of Norman Corwin , Six Shooter , Syriana , Tsotsi , Walk the Line and Wallace & Gromit : The Curse of the Were-Rabbit with one each . The telecast garnered nearly 39 million viewers in the United States .",
    "/wiki/Di_buen_d\u00eda_a_pap\u00e1": "Di buen d\u00eda a pap\u00e1 ( English : Say Good Morning to Dad ) is a 2005 Bolivian film directed by Fernando Vargas .",
    "/wiki/2006_in_film": "The following is an overview of events in 2006 , including the highest-grossing films , award ceremonies and festivals , a list of films released and notable deaths .",
    "/wiki/79th_Academy_Awards": "The 79th Academy Awards ceremony , presented by the Academy of Motion Picture Arts and Sciences ( AMPAS ) , honored the best films of 2006 and took place February 25 , 2007 , at the Kodak Theatre in Hollywood , Los Angeles beginning at 5:30 p.m. PST / 8:30 p.m. EST . During the ceremony , the Academy of Motion Picture Arts and Sciences presented Academy Awards ( commonly referred to as Oscars ) in 24 categories . The ceremony , televised in the United States by ABC , was produced by Laura Ziskin and directed by Louis J. Horvitz . Actress Ellen DeGeneres hosted for the first time . Two weeks earlier in a ceremony at the Beverly Wilshire Hotel in Beverly Hills , California held on February 10 , the Academy Awards for Technical Achievement were presented by host Maggie Gyllenhaal . The Departed won four awards , including Best Picture and Best Director for Martin Scorsese . Other winners included Pan 's Labyrinth with three , An Inconvenient Truth , Dreamgirls and Little Miss Sunshine with two , and Babel , The Blood of Yingzhou District , The Danish Poet , Happy Feet , The Last King of Scotland , Letters from Iwo Jima , The Lives of Others , Marie Antoinette , Pirates of the Caribbean : Dead Man 's Chest , The Queen and West Bank Story with one . The telecast garnered nearly 40 million viewers in the United States .",
    "/wiki/American_Visa": "American Visa is a 2005 Bolivia/Mexico-produced film by Bolivian writer and director Juan Carlos Valdivia . The film is set in La Paz , Bolivia , and features many exterior shots of the city and surrounding countryside . Mario is a retired English teacher from the Bolivian countryside . Leaving his career , his home , his town and his past , he sets out to follow his dream of seeing the United States . Mario hopes to become a part of the American dream ; America to him is opportunity , stability , and a place to escape from his old life and reunite with his now adult son . Mario arrives in La Paz in order to secure a travel visa for the US . Once there , he meets and befriends Blanca , an exotic dancer at the local strip club . But Mario is a diligent man , and he is willing to revert to any measure possible to obtain that one thing which he wants most : a life in the United States .",
    "/wiki/2007_in_film": "The following is an overview of events in 2007 in film , including the highest-grossing films , award ceremonies and festivals , a list of films released and notable deaths . The highest-grossing film of the year was Pirates of the Caribbean : At World 's End , which was just ahead of Harry Potter and the Order of the Phoenix . 2007 is often considered one of the greatest years for film in the 21st century . As of 2019 , this was the last year in which no film grossed at least $ 1 billion at the worldwide box office .",
    "/wiki/80th_Academy_Awards": "The 80th Academy Awards ceremony , presented by the Academy of Motion Picture Arts and Sciences ( AMPAS ) , honored the best films of 2007 and took place on February 24 , 2008 , at the Kodak Theatre in Hollywood , Los Angeles beginning at 5:30 p.m. PST / 8:30 p.m. EST . During the ceremony , AMPAS presented Academy Awards ( commonly referred to as Oscars ) in 24 categories . The ceremony was televised in the United States by ABC , and produced by Gil Cates and directed by Louis J , Horvitz . Actor Jon Stewart hosted the show for the second time , having previously presided over the 78th ceremony held in 2006 . Two weeks earlier in a gala at the Beverly Wilshire Hotel in Beverly Hills , California held on February 9 , the Academy Awards for Technical Achievement were presented by host Jessica Alba . No Country for Old Men won the most awards of the ceremony with four including Best Picture . Other winners included The Bourne Ultimatum with three awards , La Vie en Rose ( La m\u00f4me ) and There Will Be Blood with two awards , and Atonement , The Counterfeiters , Elizabeth : The Golden Age , Freeheld , The Golden Compass , Juno , Michael Clayton , The Mozart of Pickpockets , Once , Peter & the Wolf , Ratatouille , Sweeney Todd : The Demon Barber of Fleet Street , and Taxi to the Dark Side with one . The telecast garnered 31 million viewers , making it the least watched Oscar broadcast since 1974 , when Nielsen began keeping records of viewership .",
    "/wiki/Los_Andes_no_creen_en_Dios": "Los Andes no creen en Dios ( The Andes do not believe in God ) is a 2007 Bolivian film directed by Antonio Eguino . It is a drama set in a mining town in the Andes in the 1920s .",
    "/wiki/2009_in_film": "The year 2009 saw the release of many films . Seven made the top 50 list of highest-grossing films . Also in 2009 , the Academy of Motion Picture Arts and Sciences announced that as of that year , their Best Picture category would consist of ten nominees , rather than five ( the first time since the 1943 awards ) .",
    "/wiki/82nd_Academy_Awards": "The 82nd Academy Awards ceremony , presented by the Academy of Motion Picture Arts and Sciences ( AMPAS ) , honored the best films of 2009 and took place on March 7 , 2010 , at the Kodak Theatre in Hollywood , Los Angeles beginning at 5:30 p.m. PST / 8:30 p.m. EST . The ceremony was scheduled after its usual late-February date to avoid conflicting with the 2010 Winter Olympics . During the ceremony , the Academy of Motion Picture Arts and Sciences presented Academy Awards ( commonly referred to as Oscars ) in 24 categories . The ceremony was televised in the United States by ABC , and was produced by Bill Mechanic and Adam Shankman and directed by Hamish Hamilton . Actors Alec Baldwin and Steve Martin hosted the show . Martin hosted for the third time ; he first presided over the 73rd ceremony held in 2001 and last hosted the 75th ceremony held in 2003 . Meanwhile , this was Baldwin 's first Oscars hosting stint . This was also the first telecast to have multiple hosts since the 59th ceremony held in 1987 . On June 24 , 2009 , Academy president Sid Ganis announced at a press conference that , in an attempt to revitalize interest surrounding the awards , the 2010 ceremony would feature ten Best Picture nominees instead of five , a practice that was discontinued after the 16th ceremony in 1944 . On February 20 , 2010 , in a ceremony at the Beverly Wilshire Hotel in Beverly Hills , California , the Academy Awards for Technical Achievement were presented by host Elizabeth Banks . The Hurt Locker won six awards , including Best Picture and Best Director for Kathryn Bigelow , the first woman to win an Academy Award for Best Director . Other winners were Avatar with three awards , Crazy Heart , Precious : Based on the Novel 'Push ' by Sapphire , and Up , with two awards , and The Cove , Inglourious Basterds , The Blind Side , Logorama , Music by Prudence , The New Tenants , The Secret in Their Eyes , Star Trek , and The Young Victoria with one .",
    "/wiki/Aymara_language": "Aymara ( IPA : [ aj\u02c8ma.\u027ea ] ( listen ) ; also Aymar aru ) is an Aymaran language spoken by the Aymara people of the Andes . It is one of only a handful of Native American languages with over one million speakers . Aymara , along with Spanish , is an official language of Bolivia . It is also spoken , to a much lesser extent , by some communities in southern Peru and in northern Chile , where it is a recognized minority language . Some linguists have claimed that Aymara is related to its more widely spoken neighbor , Quechua . That claim , however , is disputed . Although there are indeed similarities , like the nearly-identical phonologies , the majority position among linguists today is that the similarities are better explained as areal features rising from prolonged cohabitation , rather than natural genealogical changes that would stem from a common protolanguage . Aymara is an agglutinating and , to a certain extent , a polysynthetic language . It has a subject-object-verb word order .",
    "/wiki/2014_in_film": "The following is an overview of the events of 2014 in film , including the highest-grossing films , award ceremonies , festivals , and a list of films released and notable deaths .",
    "/wiki/87th_Academy_Awards": "The 87th Academy Awards ceremony , presented by the Academy of Motion Picture Arts and Sciences ( AMPAS ) , honored the best films of 2014 and took place on February 22 , 2015 , at the Dolby Theatre in Hollywood , Los Angeles beginning at 5:30 p.m. PST / 8:30 p.m. EST . During the ceremony , AMPAS presented Academy Awards ( commonly referred to as Oscars ) in 24 categories . The ceremony was televised in the United States by ABC , produced by Neil Meron and Craig Zadan and directed by Hamish Hamilton . Actor Neil Patrick Harris hosted the ceremony for the first time . In related events , the Academy held its 6th Annual Governors Awards ceremony at the Grand Ballroom of the Hollywood and Highland Center on November 8 , 2014 . On February 7 , 2015 , in a ceremony at the Beverly Wilshire Hotel in Beverly Hills , California , the Academy Awards for Technical Achievement were presented by hosts Margot Robbie and Miles Teller . Birdman or ( The Unexpected Virtue of Ignorance ) and The Grand Budapest Hotel each won four awards , with the former film earning the Best Picture honor . Other winners include Whiplash with three and American Sniper , Big Hero 6 , Boyhood , Citizenfour , Crisis Hotline : Veterans Press 1 , Feast , Ida , The Imitation Game , Interstellar , The Phone Call , Selma , Still Alice , and The Theory of Everything with one . The telecast garnered more than 37 million viewers in the United States .",
    "/wiki/Forgotten_(2013_film)": "Forgotten ( Spanish : Olvidados ) is a 2013 Bolivian drama film written by Elia Petridis and directed by Carlos Bolado , and is based on the repression and killings associated with the U.S.-backed Operation Condor . It was selected as the Bolivian entry for the Best Foreign Language Film at the 87th Academy Awards , but was not nominated .",
    "/wiki/Carlos_Bolado": "Carlos Bolado Mu\u00f1oz ( born 1964 in Veracruz , Mexico ) is a Mexican filmmaker . He studied cinematography ( CUEC ) and sociology both in the same university , the National Autonomous University of Mexico . He has worked as a soundman and editor on several films . After making several short films , he ventured into the genre of film features with the film Baja California : The Limit of Time . The debut that brought high praise from both critics and the general public , becoming entitled to seven Ariel Awards , the highest recognition that Film Academy Awards in Mexico . Later on , he co-directed Promises , which was nominated for an Oscar for best documentary . In 2006 he premiered his film Only God Knows , starring Diego Luna and Alice Braga , with good reviews . Since 2012 Carlos has directed a number of high profile Mexican Films as well as T.V Shows all gathering praise . He is viewed as one of the most prominent and qualifed directors in Latin America , being ranked on the Magazine Quiens list as the top 50 Mexican Artists of the Decade . Carlos Bolado has two children , Mateo Bolado and Olivia Bolado . Mateo Bolado is also the son of well-known actress and Globe Trecker/Lonely Planet host Justine Shapiro .",
    "/wiki/2016_in_film": "2016 in film is an overview of events , including the highest-grossing films , award ceremonies , festivals , and a list of films released and deaths .",
    "/wiki/89th_Academy_Awards": "The 89th Academy Awards ceremony , presented by the Academy of Motion Picture Arts and Sciences ( AMPAS ) , honored the best films of 2016 , and took place on February 26 , 2017 , at the Dolby Theatre in Hollywood , Los Angeles , California , at 5:30 p.m. PST . During the ceremony , AMPAS presented Academy Awards ( commonly referred to as Oscars ) in 24 categories . The ceremony , televised in the United States by ABC , was produced by Michael De Luca and Jennifer Todd and directed by Glenn Weiss . Comedian Jimmy Kimmel hosted the ceremony for the first time . In related events , the Academy held its 8th Annual Governors Awards ceremony at the Grand Ballroom of the Hollywood and Highland Center on November 12 , 2016 . On February 11 , 2017 , in a ceremony at the Beverly Wilshire Hotel in Beverly Hills , California , the Academy Scientific and Technical Awards were presented by hosts John Cho and Leslie Mann . In the main ceremony , Moonlight won three awards including Best Picture , after La La Land was mistakenly announced as the winner , as well as Best Supporting Actor for Mahershala Ali . La La Land won six awards , the most for the evening , out of its record-tying fourteen nominations , including Best Actress for Emma Stone and Best Director for Damien Chazelle . Hacksaw Ridge and Manchester by the Sea won two awards each with Casey Affleck winning Best Actor for the latter . Viola Davis won the Best Supporting Actress honor for Fences . The telecast was viewed by 33 million people in the United States .",
    "/wiki/Sealed_Cargo_(2015_film)": "Sealed Cargo ( Spanish : Carga Sellada ) is a 2015 Bolivian drama film directed by Julia Vargas-Weise . It was selected as the Bolivian entry for the Best Foreign Language Film at the 89th Academy Awards but it was not nominated .",
    "/wiki/Julia_Vargas-Weise": "Julia Vargas-Weise ( 1942 - 1 April 2018 ) was a Bolivian photographer , screenwriter , educator , and film director .",
    "/wiki/2017_in_film": "2017 in film is an overview of events , including the highest-grossing films , award ceremonies , festivals , a list of films released , and notable deaths in 2017 .",
    "/wiki/90th_Academy_Awards": "The 90th Academy Awards ceremony , presented by the Academy of Motion Picture Arts and Sciences ( AMPAS ) , honored the best films of 2017 , and took place at the Dolby Theatre in Hollywood , Los Angeles , California . The ceremony was held on March 4 , 2018 , rather than its usual late-February date to avoid conflicting with the 2018 Winter Olympics . During the ceremony , AMPAS presented Academy Awards ( commonly referred to as Oscars ) in 24 categories . The ceremony was televised in the United States by American Broadcasting Company ( ABC ) , produced by Michael De Luca and Jennifer Todd and directed by Glenn Weiss . Comedian Jimmy Kimmel hosted for the second consecutive year . In related events , the Academy held its 9th Annual Governors Awards ceremony at the Grand Ballroom of the Hollywood and Highland Center on November 11 , 2017 . On February 10 , 2018 , in a ceremony at the Beverly Wilshire Hotel in Beverly Hills , California , the Academy Scientific and Technical Awards were presented by host Patrick Stewart . The Shape of Water won a leading four awards , including Best Picture and Best Director for Guillermo del Toro . Dunkirk won three awards ; Blade Runner 2049 , Coco , Darkest Hour , and Three Billboards Outside Ebbing , Missouri won two awards each . Frances McDormand and Sam Rockwell won Best Actress and Best Supporting Actor awards for Three Billboards Outside Ebbing , Missouri while Gary Oldman won Best Actor for Darkest Hour . Allison Janney won Best Supporting Actress honor for I , Tonya . With a U.S. viewership of 26.5 million , it was the least-watched Oscar ceremony to that point .",
    "/wiki/Dark_Skull": "Dark Skull ( Spanish : Viejo calavera ) is a 2016 Bolivian drama film directed by Kiro Russo . It was selected as the Bolivian entry for the Best Foreign Language Film at the 90th Academy Awards , but it was not nominated .",
    "/wiki/2018_in_film": "2018 in film is an overview of events , including the highest-grossing films , award ceremonies , critics ' lists of the best films of 2018 , festivals , a list of films released and notable deaths .",
    "/wiki/91st_Academy_Awards": "The 91st Academy Awards ceremony , presented by the Academy of Motion Picture Arts and Sciences ( AMPAS ) , honored the best films of 2018 , and took place at the Dolby Theatre in Hollywood , Los Angeles , California . The ceremony was held on February 24 , 2019 . During the ceremony , AMPAS presented Academy Awards ( commonly referred to as Oscars ) in 24 categories . The ceremony was televised in the United States by the American Broadcasting Company ( ABC ) , produced by Donna Gigliotti and Glenn Weiss , with Weiss also serving as director . It was the first ceremony in three decades , since the 61st Academy Awards in 1989 , to be conducted without a host . In related events , the Academy held its 10th Annual Governors Awards ceremony at the Grand Ballroom of the Hollywood and Highland Center on November 18 , 2018 . The Academy Scientific and Technical Awards were presented by host David Oyelowo on February 9 , 2019 , in a ceremony at the Beverly Wilshire Hotel in Beverly Hills . Green Book won three awards , including Best Picture , and Bohemian Rhapsody led the ceremony with four awards , including Best Actor for Rami Malek 's portrayal of Freddie Mercury . Roma and Black Panther also received three awards apiece , with the former winning Best Director for Alfonso Cuar\u00f3n and becoming the first Mexican submission to win Best Foreign Language Film . Olivia Colman was awarded Best Actress for portraying Anne , Queen of Great Britain in The Favourite . With a U.S. viewership of 29.6 million , it marked a 12% increase over the 2018 ceremony , but still ranks amongst the least watched ceremonies .",
    "/wiki/The_Goalkeeper": "The Goalkeeper ( Spanish : Muralla ) is a 2018 Bolivian thriller film directed by Rodrigo Pati\u00f1o . It was selected as the Bolivian entry for the Best Foreign Language Film at the 91st Academy Awards , but it was not nominated .",
    "/wiki/2019_in_film": "2019 in film is an overview of events , including the highest-grossing films , award ceremonies , critics ' lists of the best films of 2019 , festivals , a list of country-specific lists of films released , and notable deaths .",
    "/wiki/92nd_Academy_Awards": "The 92nd Academy Awards ceremony , presented by the Academy of Motion Picture Arts and Sciences ( AMPAS ) , honored the best films of 2019 , and took place at the Dolby Theatre in Hollywood , Los Angeles , California . After more than a decade of holding the Academy Award ceremonies towards the end of February , the 92nd Academy Awards took place earlier in the month , on February 9 , 2020 . During the ceremony , AMPAS presented Academy Awards ( commonly referred to as Oscars ) in 24 categories . The ceremony was televised in the United States by ABC , produced by Lynette Howell Taylor and Stephanie Allain ; it was directed by Glenn Weiss . Citing the success of the format at the 91st presentation in 2019 , ABC announced that the ceremony would again be conducted without a host . In related events , the Academy held its 11th Annual Governors Awards ceremony at the Grand Ballroom of the Hollywood and Highland Center on October 27 , 2019 . The South Korean film Parasite led the ceremony with four awards , including Best Director for Bong Joon-ho and Best Picture , becoming the first non-English language film to do so , as well as the first South Korean submission to win Best International Feature Film . The war film 1917 won three awards , while Ford v Ferrari , Joker , and Once Upon a Time in Hollywood won two awards each . American Factory , Bombshell , Hair Love , Jojo Rabbit , Judy , Learning to Skateboard in a Warzone ( If You 're a Girl ) , Little Women , Marriage Story , The Neighbors ' Window , Rocketman , and Toy Story 4 won one Oscar each .",
    "/wiki/I_Miss_You_(film)": "I Miss You ( Spanish : Tu me manques ) is a 2019 Bolivian drama film directed by Rodrigo Bellott . It was selected as the Bolivian entry for the Best International Feature Film at the 92nd Academy Awards , but it was not nominated ."
  }
}