{
  "List_of_women_players_who_have_scored_1,000+_runs_in_Twenty20_International_cricket_0": {
    "/wiki/Innings": "An innings is one of the divisions of a cricket match during which one team takes its turn to bat . Innings also means the period in which an individual player bats . Innings , in cricket , and rounders , is both singular and plural ; this contrasts with baseball and softball in which the singular is inning .",
    "/wiki/Run_(cricket)": "In cricket , a run is the unit of scoring . The team with the most runs wins in many versions of the game , and always draws at worst ( see result ) , except for some results decided by the DLS method . One run ( known as a single ) is scored when a batsman ( known as the striker ) has hit the ball with the bat , or with a gloved hand holding the bat , and directed it away from the fielders so that both the striker and the non-striker are able to run the length of the pitch ( 22 yards ) , crossing each other and arriving safely at the other end of the pitch , before the fielders can retrieve the ball and hit the wicket . Depending on how long it takes the fielding team to recover the ball , the batsmen may run more than once . Each completed run increments the scores of both the team and the striker . A batsman may also score 4 or 6 runs by striking the ball to the boundary . The team 's total score in the innings is the aggregate of all its batsmen 's individual scores plus any extras . To complete a run , both batsmen must make their ground , with some part of their person or bat touching the ground behind the popping crease at the other end of the pitch . Attempting a run carries a risk factor because either batsman can be run out , ( one method of dismissal ) , if the fielding side can break the wicket with the ball before the batsman has completed the run .",
    "/wiki/Batting_average_(cricket)": "In cricket , a player 's batting average is the total number of runs they have scored divided by the number of times they have been out . Since the number of runs a player scores and how often they get out are primarily measures of their own playing ability , and largely independent of their teammates , batting average is a good metric for an individual player 's skill as a batter . The number is also simple to interpret intuitively . If all the batter 's innings were completed ( i.e . they were out every innings ) , this is the average number of runs they score per innings . If they did not complete all their innings ( i.e . some innings they finished not out ) , this number is an estimate of the unknown average number of runs they score per innings . Each player normally has several batting averages , with a different figure calculated for each type of match they play ( First Class , one-day , Test Matches , List A , T20 , etc . ) , and a player 's batting averages may be calculated for individual seasons or series , or at particular grounds , or against particular opponents , or across their whole career . Batting average has been used to gauge cricket players ' relative skills since the 18th century .",
    "/wiki/Strike_rate": "Strike rate refers to two different statistics in the sport of cricket . Batting strike rate is a measure of how quickly a batsman achieves the primary goal of batting , namely scoring runs . Bowling strike rate is a measure of how quickly a bowler achieves the primary goal of bowling , namely taking wickets ( i.e . getting batsmen out ) . Both strike rates are relatively new statistics , having only been invented and considered of importance after the introduction of One Day International cricket in the 1970s .",
    "/wiki/Century_(cricket)": "In cricket , a century is a score of 100 or more runs in a single innings by a batsman or batswoman . The term is also included in century partnership which occurs when two batters add 100 runs to the team total when they are batting together . A century is regarded as a landmark score for batters and a player 's number of centuries is generally recorded in his career statistics . Scoring a century is loosely equivalent in merit to a bowler taking five wickets in an innings , and is commonly referred to as a ton or hundred . Scores of more than 200 runs are still statistically counted as a century , although these scores are referred as double ( 200-299 runs ) , triple ( 300-399 runs ) , and quadruple centuries ( 400-499 runs ) , and so on . Accordingly , reaching 50 runs in an innings is known as a half-century ; if the batter then goes on to score a century , the half-century is succeeded in statistics by the century . Chris Gayle holds the record of fastest hundred in the history of cricket when he smashed 100 in just 30 balls and scored 175 runs off 66 balls overall in 20 overs in IPL against Pune Warriors India in 2013 .",
    "/wiki/Glossary_of_cricket_terms": "This is a general glossary of the used in the sport of cricket . Where words in a sentence are also defined elsewhere in this article , they appear in italics . Certain aspects of cricket terminology are explained in more detail in cricket statistics and the naming of fielding positions is explained at fielding ( cricket ) . Cricket is known for its rich terminology . Some terms are often thought to be arcane and humorous by those not familiar with the game .",
    "/wiki/Charlotte_Edwards": "Charlotte Marie Lottie Edwards CBE ( born 17 December 1979 ) is an English former professional cricketer who was captain of the England women 's team . Edwards , who retired from international cricket in May 2016 and from all cricket in September 2017 , was England 's then youngest cricketer on her debut , and broke a world scoring record before her 18th birthday , one of many firsts in an international career of 20 years . Her leadership of the England team , from 2005 , included successful Ashes series , and world titles in one-day and Twenty/20 formats of the game . Edwards also played for Kent , Hampshire , and for teams in Australia . In addition to awards as ICC Women 's Cricketer of the Year , Wisden Cricketer of the Year , and ECB Cricketer of the Year awards Edwards was also appointed MBE and CBE for her services to cricket .",
    "/wiki/England_women's_cricket_team": "The England women 's cricket team represents England and Wales in international women 's cricket . The team is administrated by England and Wales Cricket Board ( ECB ) ; they played their first Tests in 1934-35 , when they beat Australia 2-0 in a three-Test series . Their current captain is Heather Knight . There is also an England Women 's Academy team , consisting of players just below the full England squad . In 2017 , they won the BBC Sports Personality Team of the Year Award .",
    "/wiki/Sarah_Taylor_(cricketer)": "Sarah Jane Taylor ( born 20 May 1989 ) is a former English cricketer . She is a wicket keeper-batter known for her free-flowing stroke play , opening the batting in one-day matches and batting in the middle order in Tests . She was a member of the England team which retained the Ashes in Australia in 2008 . She plays county cricket for Sussex . In September 2019 , Taylor announced her retirement from all forms of international cricket , following an ongoing anxiety issue .",
    "/wiki/Stafanie_Taylor": "Stafanie Roxann Taylor , OD ( born 11 June 1991 ) is a Jamaican cricketer who is current captain of West Indies women 's cricket team . She has represented West Indies women 's cricket team over 80 times since her debut in 2008 . A right-handed batsman and off break bowler , Taylor was selected as the 2011 ICC Women 's Cricketer of the Year - the first West Indian to receive the accolade . Born in Jamaica , Taylor broke into the West Indies team in 2008 , aged 17 , and immediately inserted herself as a key member of the team . She scored her highest Twenty20 total on debut , striking 90 runs from 49 balls to help her side to a large victory . In the 2016 World Twenty20 , she was the highest run-scorer and named player of the series . She played in her 100th Women 's One Day International ( WODI ) match , when the West Indies played India in the group stage of the 2017 Women 's Cricket World Cup , on 29 June 2017 . On 18 September 2019 , during the series against Australia , Taylor played in her 100th Women 's Twenty20 International ( WT20I ) match .",
    "/wiki/West_Indies_women's_cricket_team": "The West Indies women 's cricket team , nicknamed the Windies , is a combined team of players from various countries in the Caribbean that competes in international women 's cricket . The team is organised by the West Indies Cricket Board ( WICB ) , a full member of the International Cricket Council ( ICC ) , which represents fifteen countries and territories . At the inaugural edition of the World Cup , in 1973 , two teams that now compete as part of the West Indies , Jamaica and Trinidad and Tobago , competed separately . A combined West Indian team made its Test debut in 1976 ( almost 50 years after its male counterpart ) , and its One Day International ( ODI ) in 1979 . The West Indies currently competes in the ICC Women 's Championship , the highest level of the sport , and has participated in five of the ten editions of the Women 's Cricket World Cup held to date . At the most recent 2013 World Cup , the team made the tournament 's final for the first time , but lost to Australia . At the ICC World Twenty20 , the team won its first title at the 2016 tournament , having made the semi-finals in each of the preceding tournaments .",
    "/wiki/Suzie_Bates": "Suzannah Wilson Suzie Bates ( born 16 September 1987 in Dunedin ) is a New Zealand cricketer and former captain of national women cricket team . She plays for the Otago Sparks in the State League , the Southern Vipers in the Women 's Cricket Super League as well as for her national team , the White Ferns . She currently holds the highest score and highest batting average in the New Zealand Women 's Twenty20 cricket team . She won the ICC Women 's ODI Cricketer of the Year 2013 . Bates again won ICC Women 's ODI and T20I Cricketer of the Year 2015 .",
    "/wiki/New_Zealand_women's_national_cricket_team": "The New Zealand women 's national cricket team , nicknamed the White Ferns , represents New Zealand in international women 's cricket . One of eight teams competing in the ICC Women 's Championship ( the highest level of international women 's cricket ) , the team is organised by New Zealand Cricket , a full member of the International Cricket Council ( ICC ) . New Zealand made its Test debut in 1935 , against England , becoming the third team to play at that level . With Australia and England , New Zealand is one of only three teams to have participated in all ten editions of the Women 's Cricket World Cup . The team has made the final of the tournament on four occasions , winning in 2000 and placing second in 1993 , 1997 , and 2009 . At the Women 's World Twenty20 , New Zealand were runners-up in 2009 and 2010 , but are yet to win the event .",
    "/wiki/Deandra_Dottin": "Deandra Jalisa Shakira Dottin ( born 21 June 1991 ) is an international cricketer . A right-handed batswoman and right-arm fast bowler , Dottin made her debut for the West Indies women 's cricket team in June 2008 . She plays as a hard-hitting lower-order batswoman , and scored the first century in a women 's Twenty20 International in 2010 . In August 2016 it was announced she had signed to play for the Brisbane Heat in the Women 's Big Bash League . She played in her 100th Women 's One Day International ( WODI ) match , when the West Indies played India in the group stage of the 2017 Women 's Cricket World Cup , on 29 June 2017 . In June 2018 , she was named the Women 's T20 International Cricketer of the Year at the annual Cricket West Indies ' Awards . In September 2018 , she became the third woman to play in 100 Women 's Twenty20 International ( WT20I ) matches , during the series against South Africa . In October 2018 , Cricket West Indies awarded her a women 's contract for the 2018-19 season . In August 2019 , she was named as both the Women 's ODI and Women 's T20I Player of the Year by Cricket West Indies .",
    "/wiki/Lydia_Greenway": "Lydia Sophie Greenway ( born 6 August 1985 ) is an English cricketer . She is a left-handed batsman . She has appeared for England in seven Tests and 32 ODIs . Greenway was born at Farnborough and plays for Kent Women .",
    "/wiki/Mithali_Raj": "Mithali Dorai Raj ( born 3 December 1982 ) is an Indian cricketer and the captain of the Indian women 's national cricket team in Tests and ODIs . Often regarded as one of the greatest batswomen to have ever played the game , she is the highest run-scorer in women 's international cricket and the only female cricketer to surpass the 6,000 run mark in WODIs . She is the first player to score seven consecutive 50s in ODIs . Raj also holds the record for most half-centuries in WODIs . In June 2018 during the 2018 Women 's Twenty20 Asia Cup , she became the first player from India ( either male or female ) to score 2000 runs in T20Is , and also became the first woman cricketer to reach 2002 WT20I runs . Raj is the only player ( male or female ) to have captained India in more than one ICC ODI World Cup final , doing so twice in 2005 and 2017 . On 1 February 2019 , during India 's series against New Zealand Women , Raj became the first woman to play in 200 ODI matches . In September 2019 , she announced her retirement from T20Is to focus on ODI cricket . The former captain Mithali Raj became the first woman to complete 20 years in international cricket .",
    "/wiki/India_women's_national_cricket_team": "The India women 's national cricket team , nicknamed the Women in Blue , represents the country of India in international women 's cricket . India made its Test debut in 1976 , against the West Indies , and its One Day International ( ODI ) debut at the 1978 World Cup , which it hosted . The team has made the World Cup final on two occasions , losing to Australia by 98 runs in 2005 , and losing to England by 9 runs in 2017 . India has made the semi-finals on three other occasions , in 1997 , 2000 , and 2009 . India has also made the semi-finals of the World Twenty20 on three occasions ( 2009 , 2010 , and 2018 ) .",
    "/wiki/Meg_Lanning": "Meghann Moira Lanning ( born 25 March 1992 ) is an Australian international cricketer who currently captains the Australian women 's national team and the Victorian Spirit . She holds the record for the most career centuries in women 's One Day International , with twelve . In March 2018 , during Australia 's match against England in the 2017-18 India women 's Tri-Nation Series , Lanning became the first Australian , male or female , to score 2,000 runs in Twenty20 Internationals .",
    "/wiki/Australia_women's_national_cricket_team": "The Australian women 's national cricket team represent Australia in international women 's cricket . They were nicknamed Southern Stars , but in 2017 this name was dropped and are now known only as the Australian women 's cricket team in an attempt to promote gender equality with the men , who have no nickname for their team . The team is currently captained by Meg Lanning and coached by former Victoria and Queensland batsman Matthew Mott . As of 21 August 2018 , they are ranked first in all forms of women 's international cricket . The team played their first Test match in 1934-35 , when they lost to England two-nil in a three-Test series . They now compete against England for the Women 's Ashes . They have won more World Cups than any other side - winning in 1978 , 1982 , 1988 , 1997 , 2005 and 2013 . The team has also be crowned champions of the ICC Women 's World Twenty20 tournament more than any other side - winning in 2010 , 2012 , 2014 and 2018 . In 2003 , Women 's Cricket Australia ( WCA ) , and the Australian Cricket board ( ACB ) merged to form a single national cricket board ( now known as Cricket Australia ) , which remains to this day . This merger has been a positive influence on women 's cricket , providing more financial support and gathering more exposure for the sport .",
    "/wiki/Alex_Blackwell": "Alexandra Joy Blackwell ( born 31 August 1983 ) is a former professional cricketer who played for New South Wales and Australia as a specialist batsman . In October 2017 , she made her 250th international appearance for the Australian women 's cricket team . In November 2019 , she announced her retirement from cricket , after a career that spanned eighteen years . Her identical twin sister Kate has also played for Australia . Blackwell made her senior debut for New South Wales in the 2001-02 Women 's National Cricket League ( WNCL ) . Playing in the middle-order she had little to do as the opposition bowlers struggled to penetrate the New South Wales batting line-up . Blackwell made 33 runs at 33.00 in her debut season as New South Wales won the WNCL . The following season , she batted higher up the order and made 212 runs at 30.28 , and was selected for the national team at the end of the season with a WNCL career total of only 245 runs . Making her international debut in 2002-03 in a quadrangular One Day International ( ODI ) tournament , she had few opportunities with the bat , scoring 54 runs at 27.00 but was unexpectedly successful with the ball , taking a total of 4/34 despite only having one previous wicket at senior level . She made her Test debut in a two-match series against England immediately afterwards , hitting a half-century in the latter fixture . Alex Blackwell is the 142nd woman to play Test cricket for Australia . Over the next two years , Blackwell was inconsistent at international level and was in and out of the team due to poor performance .",
    "/wiki/Sara_McGlashan": "Sara Jade McGlashan ( born 28 March 1982 in Napier , New Zealand ) is a New Zealand cricketer who has played two women 's test matches , 80 women 's one-day internationals and 16 Twenty20 matches for the New Zealand . She is the sister of Peter McGlashan . She plays for the Central Districts in the State League . McGlashan along with Nicola Browne set the highest record 6th wicket partnership in the Women 's World Cup history ( 139* ) . In 2016 , she hit the final runs that secured the fightback for Sydney Sixers to qualify for the playoffs despite losing six games in a row to start the season . In November 2018 , she was named in the Sydney Sixers ' squad for the 2018-19 Women 's Big Bash League season .",
    "/wiki/Bismah_Maroof": "Bismah Maroof ( born 18 July 1991 ) is an international cricketer from Pakistan and current captain of Pakistan national women 's cricket team .",
    "/wiki/Pakistan_women's_national_cricket_team": "The Pakistan women 's national cricket team represents Pakistan in international women 's cricket . One of eight teams competing in the ICC Women 's Championship ( the highest level of international women 's cricket ) , the team is organised by the Pakistan Cricket Board ( PCB ) , a Full Member of the International Cricket Council ( ICC ) . Pakistan made its One Day International ( ODI ) debut in early 1997 , against New Zealand , and later in the year played in the 1997 World Cup in India . The team 's inaugural Test match came against Sri Lanka in April 1998 . In its early years , Pakistan was one of the least competitive of the top-level women 's teams , and after its inaugural appearance in 1997 , did not qualify for another World Cup until the 2009 event in Australia . However , the team has played in all four editions of the Women 's World Twenty20 to date , and also participated in the Women 's Asia Cup and the Asian Games cricket tournament .",
    "/wiki/Sophie_Devine": "Sophie Frances Monique Devine ( born 1 September 1989 ) is a New Zealand sportswoman , who has represented New Zealand in both cricket for the New Zealand national women 's cricket team ( the White Ferns ) , and in field hockey as a member of the New Zealand women 's national field hockey team ( the Black Sticks Women ) . She had since focused on cricket . She is known for not wearing a helmet when batting , a rarity in 21-century cricket . In December 2017 , she was named as one of the players in the ICC Women 's T20I Team of the Year . In August 2018 , she was awarded a central contract by New Zealand Cricket , following the tours of Ireland and England in the previous months . In October 2018 , she was named in New Zealand 's squad for the 2018 ICC Women 's World Twenty20 tournament in the West Indies . Ahead of the tournament , she was named as the star of the team .",
    "/wiki/Mignon_du_Preez": "Mignon du Preez ( born 13 June 1989 ) is a South African cricketer , who was the women 's team captain in all 3 forms of cricket Test , ODI and Twenty20 from 2007 to 2018 . A right-handed batsman and occasional wicket-keeper , du Preez made her debut for the South Africa national women 's cricket team in January 2007 , aged seventeen . Besides being the South African player with most matches as captain in both ODI and Twenty20 , she is the highest run-scorer for South Africa women in Twenty20 and also the highest in ODI . On 21 February 2016 , she became the first South African women to score 1,000 career runs in T20I during a match against England . On 21 June 2016 , she decided to step down as South Africa women 's captain , after having led the team for almost 5 years ( since 2011 ) in one Test , 46 ODIs and 50 T20Is . On 25 June 2017 , in South Africa 's match against Pakistan in the 2017 Women 's Cricket World Cup , she became the first woman for South Africa to play in 100 ODI matches . In March 2018 , she was one of fourteen players to be awarded a national contract by Cricket South Africa ahead of the 2018-19 season . In October 2018 , she was named in South Africa 's squad for the 2018 ICC Women 's World Twenty20 tournament in the West Indies . In November 2018 , she was named in the Melbourne Stars ' squad for the 2018-19 Women 's Big Bash League season . In September 2019 , she was named in the Devnarain XI squad for the inaugural edition of the Women 's T20 Super League in South Africa .",
    "/wiki/South_Africa_women's_national_cricket_team": "The South Africa women 's national cricket team , nicknamed the Proteas , represents South Africa in international women 's cricket . One of eight teams competing in the ICC Women 's Championship ( the highest level of the sport ) , the team is organised by Cricket South Africa ( CSA ) , a full member of the International Cricket Council ( ICC ) . South Africa made its Test debut in 1960 , against England , becoming the fourth team to play at that level ( after Australia , England , and New Zealand ) . Because of the sporting boycott of South Africa and other factors , the team did not play any international fixtures between 1972 and 1997 . South Africa returned to international competition in August 1997 , in a One Day International ( ODI ) match against Ireland , and later in the year participated in the 1997 World Cup in India . The team has participated in every edition of the World Cup since then , and made the tournament semi-finals in 2000 and 2017 . South Africa has likewise participated in every edition of the Women 's World Twenty20 , and made the semi-finals of the 2014 edition , played in Bangladesh .",
    "/wiki/Dane_van_Niekerk": "Dane van Niekerk ( born 14 May 1993 ) is a South African cricketer born in Pretoria and educated at Centurion High School . A leg spin bowler , she has appearances in Test , One-Day International ( ODI ) and Twenty20 International ( T20I ) representing South Africa and is the women 's team captain in all three forms ( Test , ODI and T20I ) since June 2016 .",
    "/wiki/Trisha_Chetty": "Trisha Chetty ( born 26 June 1988 , Durban ) , is a South Africa cricketer . She has made two Tests , and over one hundred limited-overs appearances for South Africa since 2007 . Initially she batted at number seven or eight , but was quickly promoted up the order and from mid-2008 onwards has been opening the batting . She along with Shandre Fritz set the record for the highest ever opening stand of 170 runs in the history of WT20I history She also holds the record of highest dismissal by a wicketkeeper in Women 's ODI . In February 2018 , she played in her 100th Women 's One Day International match for South Africa , against India . The following month , she was one of fourteen players to be awarded a national contract by Cricket South Africa ahead of the 2018-19 season . However , in May 2018 , she was dropped from South Africa 's squad , ahead of their tour to England in June . In October 2018 , she was named in South Africa 's squad for the 2018 ICC Women 's World Twenty20 tournament in the West Indies . However , after the start of the tournament , she was ruled out of South Africa 's squad due to an injury and was replaced by Faye Tunnicliffe . In September 2019 , she was named in the F van der Merwe XI squad for the inaugural edition of the Women 's T20 Super League in South Africa .",
    "/wiki/Harmanpreet_Kaur": "Harmanpreet Kaur ( born 8 March 1989 ) is an Indian cricketer . She plays as an allrounder for the Indian women 's cricket team and was awarded the prestigious Arjuna Award for Cricket in the year 2017 by the Ministry of Youth Affairs and Sports . In November 2018 , she became the first woman for India to score a century in a Women 's Twenty20 International ( WT20I ) match . In October 2019 , during the series against South Africa , she became the first cricketer for India , male or female , to play in 100 international Twenty20 matches .",
    "/wiki/Chamari_Atapattu": "Atapattu Mudiyanselage Chamari Jayangani ( born 9 February 1990 ) is a Sri Lankan cricketer and the current captain of the women 's Twenty20 International team of Sri Lanka . She had a short stint as the captain of the Sri Lanka women 's team , and was succeeded by the previous captain Shashikala Siriwardene . Chamari was the tenth captain for Sri Lanka women 's national cricket team , winning only one ODI , with 13 losses . In November 2017 , she was named the Women 's Cricketer of the Year for the 2016-17 season at Sri Lanka Cricket 's annual awards .",
    "/wiki/Sri_Lanka_women's_national_cricket_team": "The Sri Lanka women 's national cricket team represents Sri Lanka in international women 's cricket . One of eight teams competing in the ICC Women 's Championship ( the highest level of the sport ) , the team is organised by Sri Lanka Cricket ( SLC ) , a full member of the International Cricket Council ( ICC ) . Sri Lanka made its One Day International ( ODI ) debut in 1997 , against the Netherlands , and later in the year participated in the 1997 World Cup in India . The team has since participated in every edition of the World Cup , with a fifth-place finish at the 2013 event being its best performance . At the World Twenty20 , Sri Lanka has likewise played at every tournament , although the team has never progressed past the first round . Sri Lanka played in its first and only Test match to date in April 1998 , defeating Pakistan .",
    "/wiki/Amy_Satterthwaite": "Amy Ella Satterthwaite ( born 7 October 1986 ) is a New Zealand cricketer and current captain of New Zealand 's women team , currently plays for the Canterbury Magicians in the New Zealand State League and the Melbourne Renegades in the Australian Women 's Big Bash League . She has played internationally for New Zealand in women 's One Day Internationals ( ODI ) and women 's Twenty20 Internationals ( T20I ) since 2007 , appearing at the Women 's Cricket World Cup in 2009 and 2013 . On 26 February 2017 against Australia she became the first player in WODI and second overall after Kumar Sangakkara in ODI to score four consecutive hundreds . In December 2017 , she won the inaugural ICC Women 's ODI Player of the Year award . In September 2018 , Suzie Bates stepped down as captain of New Zealand and was replaced by Satterthwaite .",
    "/wiki/Elyse_Villani": "Elyse Jayne Villani ( born 6 October 1989 ) is an Australian cricketer who plays for the Australia national women 's team . She also plays domestically for Victoria in the Women 's National Cricket League ( WNCL ) and the Perth Scorchers in the Women 's Big Bash League ( WBBL ) . She made one appearance in the 2009 ICC Women 's World Twenty20 . She previously played for Victorian Spirit in the WNCL . In June 2015 , she was named as one of Australia 's touring party for the 2015 Women 's Ashes in England . In April 2018 , she was one of the fourteen players to be awarded a national contract for the 2018-19 season by Cricket Australia . In October 2018 , she was named in Australia 's squad for the 2018 ICC Women 's World Twenty20 tournament in the West Indies . In November 2018 , she was named in the Perth Scorchers ' squad for the 2018-19 Women 's Big Bash League season . In April 2019 , Cricket Australia awarded her with a contract ahead of the 2019-20 season . In June 2019 , Cricket Australia named her in Australia 's team for their tour to England to contest the Women 's Ashes .",
    "/wiki/Javeria_Khan": "Javeria Khan Wadood ( ) ( born 14 May 1988 ) is a female Pakistani cricketer from Karachi , Sindh . She has played for Pakistan as an All-rounder . She also played the ICC Women 's World Cup 2009 . She played International level as well as Domestic level ."
  }
}