{
  "List_of_television_stations_in_the_United_States_by_call_sign_(initial_letter_K)_18": {
    "/wiki/KSAN-TV": "KSAN-TV , virtual channel 3 ( UHF digital channel 16 ) , is an NBC-affiliated television station licensed to San Angelo , Texas , United States . The station is owned by Mission Broadcasting ; Nexstar Media Group , which owns CBS affiliate KLST ( channel 8 ) , operates KSAN-TV under joint sales and shared services agreements . The two stations share studios on Armstrong Street in San Angelo ; KSAN-TV 's transmitter is located north of the city on SH 208 .",
    "/wiki/NBC": "The National Broadcasting Company ( NBC ) is an American English-language commercial terrestrial radio and television network that is a flagship property of NBCUniversal , a subsidiary of Comcast . The network is headquartered at 30 Rockefeller Plaza in New York City , with additional major offices near Los Angeles ( at 10 Universal City Plaza ) , Chicago ( at the NBC Tower ) and Philadelphia ( at the Comcast Technology Center ) . The network is one of the Big Three television networks . NBC is sometimes referred to as the Peacock Network , in reference to its stylized peacock logo , introduced in 1956 to promote the company 's innovations in early color broadcasting . It became the network 's official emblem in 1979 . Founded in 1926 by the Radio Corporation of America ( RCA ) , NBC is the oldest major broadcast network in the United States . At that time the parent company of RCA was General Electric ( GE ) . In 1932 , GE was forced to sell RCA and NBC as a result of antitrust charges . In 1986 , control of NBC passed back to General Electric ( GE ) through its $ 6.4 billion purchase of RCA . GE immediately began to liquidate RCA 's various divisions , but retained NBC . Following the acquisition by GE , Bob Wright served as chief executive officer of NBC , remaining in that position until his retirement in 2007 , when he was succeeded by Jeff Zucker . In 2003 , French media company Vivendi merged its entertainment assets with GE , forming NBC Universal .",
    "/wiki/San_Angelo,_Texas": "San Angelo /s\u00e6n \u02c8\u00e6nd\u0292\u0259lo\u028a/ is a city in and the county seat of Tom Green County , Texas , United States . Its location is in the Concho Valley , a region of West Texas between the Permian Basin to the northwest , Chihuahuan Desert to the southwest , Osage Plains to the northeast , and Central Texas to the southeast . According to a 2018 Census estimate , San Angelo has a total population of 100,215 . It is the principal city and center of the San Angelo metropolitan area , which has a population of 118,182 . San Angelo is home to Angelo State University , historic Fort Concho , and Goodfellow Air Force Base . Common nicknames of the city include Angelo , Land of Sand and Jello , the Concho City , the Pearl of the Conchos , and the Oasis of West Texas .",
    "/wiki/KSAS-TV": "KSAS-TV , virtual channel 24 ( UHF digital channel 26 ) , is a Fox-affiliated television station licensed to Wichita , Kansas , United States . The station is owned by the Sinclair Broadcast Group , which also operates Hutchinson-licensed MyNetworkTV affiliate KMTW ( channel 36 ) under a local marketing agreement ( LMA ) with owner Mercury Broadcasting Company . The two stations share studios on North West Street in northwestern Wichita ; KSAS-TV 's transmitter is located in rural northwestern Sedgwick County ( east of Colwich ) . On cable , the station is available on Cox Communications channel 4 in both standard and high definition , and on AT & T U-verse channels 24 ( SD ) and 1024 ( HD ) .",
    "/wiki/Fox_Broadcasting_Company": "The Fox Broadcasting Company ( often shortened to Fox and stylized in all caps as FOX ) is an American broadcast television network that is a flagship property of the Fox Corporation . The network is headquartered at 1211 Avenue of the Americas in New York City , with additional offices at the Fox Broadcasting Center ( also in New York ) and at the Fox Television Center in Los Angeles . Launched on October 9 , 1986 , as a competitor to the Big Three television networks ( ABC , CBS and NBC ) , Fox went on to become the most successful attempt at a fourth television network . It was the highest-rated network in the 18-49 demographic from 2004 to 2012 , and earned the position as the most-watched American television network in total viewership during the 2007-08 season . Fox and its affiliated companies operate many entertainment channels in international markets , although these do not necessarily air the same programming as the U.S. network . Most viewers in Canada have access to at least one U.S.-based Fox affiliate , either free-to-air or through a pay television provider , although Fox 's National Football League broadcasts and most of its prime time programming are subject to simultaneous substitution regulations for pay television providers imposed by the Canadian Radio-television and Telecommunications Commission ( CRTC ) to protect rights held by domestically based networks . Fox is named after what was once called 20th Century Fox , its original corporate sibling ( and still its major supplier of programming , despite its acquisition by Disney ) and indirectly for producer William Fox , who founded one of the movie studio 's predecessors , Fox Film . Fox is a member of the North American Broadcasters Association and the National Association of Broadcasters .",
    "/wiki/Wichita,_Kansas": "Wichita ( /\u02c8w\u026at\u0283\u026at\u0254\u02d0/ WITCH-i-taw ) is the largest city in the U.S. state of Kansas and the county seat of Sedgwick County . As of 2018 , the estimated population of the city was 389,255 . Wichita is the principal city of the Wichita metropolitan area which had an estimated population of 644,888 in 2018 . Located in south-central Kansas on the Arkansas River , Wichita began as a trading post on the Chisholm Trail in the 1860s and was incorporated as a city in 1870 . It became a destination for cattle drives traveling north from Texas to Kansas railroads , earning it the nickname Cowtown . In the 1920s and 1930s , businessmen and aeronautical engineers established aircraft manufacturing companies in Wichita , including Beechcraft , Cessna , and Stearman Aircraft . The city became an aircraft production hub known as The Air Capital of the World . Textron Aviation , Learjet , Airbus , and Spirit AeroSystems continue to operate design and manufacturing facilities in Wichita , and the city remains a major center of the American aircraft industry . Wichita is also home to McConnell Air Force Base , and Wichita Dwight D. Eisenhower National Airport , the largest airport in Kansas . As an industrial hub , Wichita is a regional center of culture , media , and trade . It hosts several universities , large museums , theaters , parks , and entertainment venues , notably Intrust Bank Arena and Century II Performing Arts & Convention Center . The city 's Old Cowtown Museum maintains historical artifacts and exhibits on the city 's early history .",
    "/wiki/KSAT-TV": "KSAT-TV , virtual and VHF digital channel 12 , is an ABC-affiliated television station licensed to San Antonio , Texas , United States . The station is owned by the Graham Media Group subsidiary of Graham Holdings Company . KSAT 's studios are located on North St. Mary 's Street on the northern edge of downtown , and its transmitter is located off Route 181 in northwest Wilson County ( northeast of Elmendorf ) . On cable , the station is available on Charter Spectrum channel 13 , and Grande Communications and AT & T U-verse channel 12 .",
    "/wiki/American_Broadcasting_Company": "The American Broadcasting Company ( ABC ) is an American commercial broadcast radio and television network owned by the Disney Media Networks division of The Walt Disney Company . The network is headquartered in Burbank , California , on Riverside Drive , directly across the street from Walt Disney Studios and adjacent to the Roy E. Disney Animation Building . The network 's secondary offices , and headquarters of its news division , is in New York City , at its broadcast center at 77 West 66th Street on the Upper West Side of Manhattan . Since 2007 , when ABC Radio ( also known as Cumulus Media Networks ) was sold to Citadel Broadcasting , ABC has reduced its broadcasting operations almost exclusively to television . It is the fifth-oldest major broadcasting network in the world and the youngest of the Big Three television networks . ABC is nicknamed The Alphabet Network , as its initialism also represents the first three letters of the English alphabet , in order . ABC launched as a radio network on October 12 , 1943 , serving as the successor to the NBC Blue Network , which had been purchased by Edward J. Noble . It extended its operations to television in 1948 , following in the footsteps of established broadcast networks CBS and NBC . In the mid-1950s , ABC merged with United Paramount Theatres , a chain of movie theaters that formerly operated as a subsidiary of Paramount Pictures . Leonard Goldenson , who had been the head of UPT , made the new television network profitable by helping develop and greenlight many successful series . In the 1980s , after purchasing an 80 percent interest in cable sports channel ESPN , the network 's corporate parent , American Broadcasting Companies , Inc. , merged with Capital Cities Communications , owner of several print publications , and television and radio stations . In 1996 , most of Capital Cities/ABC 's assets were purchased by The Walt Disney Company .",
    "/wiki/MeTV": "MeTV ( an acronym for Memorable Entertainment Television ) is an American broadcast television network that is owned by Weigel Broadcasting . Marketed as The Definitive Destination for Classic TV , the network airs a variety of classic television programs from the 1950s through the early 1990s , which are obtained primarily from the libraries of CBS Television Distribution and 20th Television . Through its ownership by Weigel , MeTV is sister to four other networks that source their programming content from the network 's distributors : rerun-focused networks Heroes & Icons and Decades ( the latter operated as a joint venture with CBS Television Stations ) , the film-focused Movies ! ( a joint venture with Fox Television Stations ) and the drama-focused Start TV . MeTV is carried on digital subchannels of affiliated television stations in most markets ; however , some MeTV-affiliated stations carry the network as a primary affiliation on their main channel , and a small number of stations air select programs from the network alongside their regular general entertainment schedules , with a few carrying the network in high definition . The network is also available nationwide on free-to- air C band satellite via SES-1 in the DVB-S format , and in some markets on AT & T U-verse channels 136 ( in standard definition ) and 1136 ( in high definition ) , and cable television through cable TV providers . MeTV 's operations are located in Weigel Broadcasting 's corporate headquarters on North Halsted Street in Chicago , Illinois . Shows currently broadcast on this channel include M*A*S*H , The Andy Griffith Show , Perry Mason , Gunsmoke , Hogan 's Heroes , The Flintstones , and others .",
    "/wiki/San_Antonio": "San Antonio ( /\u02ccs\u00e6n \u00e6n\u02c8to\u028anio\u028a/ ; from Spanish , Saint Anthony , Spanish pronunciation : [ sa.n\u203fan\u02c8to.njo ] ) , officially the City of San Antonio , is the seventh-most populous city in the United States , and the second-most populous city in both Texas and the Southern United States , with more than 1.5 million residents . Founded as a Spanish mission and colonial outpost in 1718 , the city became the first chartered civil settlement in present-day Texas in 1731 . The area was still part of the Spanish Empire , and later of the Mexican Republic . It is the state 's oldest municipality , having celebrated its 300th anniversary on May 1 , 2018 . The city 's deep history is contrasted with its rapid growth over the past few decades . It was the fastest-growing of the top ten largest cities in the United States from 2000 to 2010 , and the second from 1990 to 2000 . Straddling the regional divide between South and Central Texas , San Antonio anchors the southwestern corner of an urban megaregion colloquially known as the Texas Triangle . The Greater San Antonio and Greater Austin areas are separated from each other by 80 miles along Interstate 35 between which lie the city of New Braunfels , Texas . San Antonio serves as the seat of Bexar County ; San Antonio is the center of the San Antonio-New Braunfels metropolitan statistical area . Commonly called Greater San Antonio , the metro area has a population of 2,473,974 based on the 2017 U.S. census estimate , making it the 24th-largest metropolitan area in the United States and third-largest in Texas . San Antonio was named by a 1691 Spanish expedition for Saint Anthony of Padua , whose feast day is June 13 . The city contains five 18th-century Spanish frontier missions , including The Alamo and San Antonio Missions National Historical Park , which together were designated UNESCO World Heritage sites in 2015 .",
    "/wiki/KSAX": "KSTP-TV , virtual channel 5 ( UHF digital channel 35 ) , is an ABC-affiliated television station licensed to Saint Paul , Minnesota , United States and serving the Twin Cities television market . It is the flagship television property of Saint Paul-based Hubbard Broadcasting , which has owned the station since its inception . KSTP-TV is part of a duopoly with Minneapolis-licensed independent station KSTC-TV ( channel 45 ) , and is also sister to radio stations KSTP ( 1500 AM ) , KSTP-FM ( 94.5 MHz ) , and KTMY ( 107.1 FM ) . The five outlets share studios on University Avenue , on the Saint Paul-Minneapolis border ; KSTP-TV 's transmitter is located at Telefarm Towers in Shoreview , Minnesota . KSTP-TV operates two full-power satellite stations : KSAX ( virtual channel 42 , UHF digital channel 24 ) in Alexandria ( with transmitter near Westport ) , and KRWF ( virtual channel 43 , UHF digital channel 27 ) in Redwood Falls ( with transmitter near Vesta ) . KSTP-TV also serves the Mankato market ( via K30FN-D in nearby St. James through the local municipal-operated Cooperative TV [ CTV ] network of translators ) , as that area does not have an ABC affiliate of its own . Nielsen Media Research treats KSTP-TV and its satellites as one station in local ratings books , using the identifier name KSTP+ .",
    "/wiki/Alexandria,_Minnesota": "Alexandria is a city in and the county seat of Douglas County , Minnesota . First settled in 1858 , it was named after brothers Alexander and William Kinkead from Maryland . The form of the name alludes to Alexandria , Egypt , a center of learning and civilization . The village of Alexandria was incorporated February 20 , 1877 . Its city charter was adopted in 1908 , and it was incorporated as a city in 1909 . W. E. Hicks was pivotal to the town 's early development . He purchased the townsite in 1868 and established a mill , hotel , newspaper , and store . He donated property for a courthouse , jail , and two churches : Methodist and Congregational . The population was 11,070 as of the 2010 census . Alexandria is near Interstate 94 , along Minnesota State Highways 27 and 29 . It is ten miles south of Lake Carlos State Park . In 2013 , Alexandria was named a Top 10 Best Small Town by the Livability website .",
    "/wiki/KSTP-TV": "KSTP-TV , virtual channel 5 ( UHF digital channel 35 ) , is an ABC-affiliated television station licensed to Saint Paul , Minnesota , United States and serving the Twin Cities television market . It is the flagship television property of Saint Paul-based Hubbard Broadcasting , which has owned the station since its inception . KSTP-TV is part of a duopoly with Minneapolis-licensed independent station KSTC-TV ( channel 45 ) , and is also sister to radio stations KSTP ( 1500 AM ) , KSTP-FM ( 94.5 MHz ) , and KTMY ( 107.1 FM ) . The five outlets share studios on University Avenue , on the Saint Paul-Minneapolis border ; KSTP-TV 's transmitter is located at Telefarm Towers in Shoreview , Minnesota . KSTP-TV operates two full-power satellite stations : KSAX ( virtual channel 42 , UHF digital channel 24 ) in Alexandria ( with transmitter near Westport ) , and KRWF ( virtual channel 43 , UHF digital channel 27 ) in Redwood Falls ( with transmitter near Vesta ) . KSTP-TV also serves the Mankato market ( via K30FN-D in nearby St. James through the local municipal-operated Cooperative TV [ CTV ] network of translators ) , as that area does not have an ABC affiliate of its own . Nielsen Media Research treats KSTP-TV and its satellites as one station in local ratings books , using the identifier name KSTP+ .",
    "/wiki/KSAZ-TV": "KSAZ-TV , virtual and VHF digital channel 10 , is a Fox owned-and-operated television station licensed to Phoenix , Arizona , United States . The station is owned by the Fox Television Stations subsidiary of Fox Corporation , as part of a duopoly with MyNetworkTV owned-and-operated station KUTP , channel 45 ( which rebroadcasts KSAZ 's signal on UHF channel 26.4 using virtual channel 10.2 via PSIP ) . The two stations share studios on West Adams Street in the west end of Downtown Phoenix 's Copper Square district ; KSAZ-TV 's transmitter is located atop South Mountain on the city 's south side . Its signal is relayed across northern Arizona through a network of 20 translator stations .",
    "/wiki/Phoenix,_Arizona": "Phoenix is the capital and most populous city in Arizona , with 1,660,272 people ( as of 2018 [ update ] ) . It is also the fifth most populous city in the United States , and the only state capital with a population of more than one million residents . Phoenix is the anchor of the Phoenix metropolitan area , also known as the Valley of the Sun , which in turn is part of the Salt River Valley . The metropolitan area is the 11th largest by population in the United States , with approximately 4.73 million people as of 2017 [ update ] . Phoenix is the seat of Maricopa County and the largest city in the state at 517.9 square miles ( 1,341 km2 ) , more than twice the size of Tucson and one of the largest cities in the United States . Phoenix was settled in 1867 as an agricultural community near the confluence of the Salt and Gila Rivers and was incorporated as a city in 1881 . It became the capital of Arizona Territory in 1889 . It is in the northeastern reaches of the Sonoran Desert and has a hot desert climate . Despite this , its canal system led to a thriving farming community with the original settler 's crops remaining important parts of the Phoenix economy for decades , such as alfalfa , cotton , citrus , and hay . Cotton , cattle , citrus , climate , and copper were known locally as the Five C 's anchoring Phoenix 's economy . These remained the driving forces of the city until after World War II , when high-tech companies began to move into the valley and air conditioning made Phoenix 's hot summers more bearable . The city averaged a four percent annual population growth rate over a 40-year period from the mid-1960s to the mid-2000s .",
    "/wiki/KSBI": "KSBI , virtual channel 52 ( UHF digital channel 23 ) , is a MyNetworkTV-affiliated television station licensed to Oklahoma City , Oklahoma , United States . The station is owned by locally based Griffin Communications , as part of a duopoly with CBS affiliate and company flagship KWTV-DT ( channel 9 ) . The two stations share studios on Kelley Avenue and 74th Street ( near North Lincoln Boulevard ) in northeast Oklahoma City , adjacent to the studios and main offices of the Oklahoma Educational Television Authority ( OETA ) PBS member network ; KSBI 's transmitter is located between 122nd Street and the John Kilpatrick Turnpike , also on the city 's northeast side . On cable , KSBI is available on Cox Communications channel 7 and AT & T U-verse channel 52 in standard definition , and in high definition on Cox digital channel 707 and U-verse channel 1052 .",
    "/wiki/MyNetworkTV": "MyNetworkTV ( unofficially abbreviated as MyTV , MyNet , MNT or MNTV ) , is an American television network/syndication service that is owned by Fox Corporation , operated by its Fox Television Stations division , and distributed through the syndication structure of 20th Television . MyNetworkTV began operations on September 5 , 2006 with an initial affiliate lineup covering about 96% of the country , most of which consisted of stations that were former affiliates of The WB and UPN that did not join the successor of those two networks , The CW . Under the ownership structure of Fox Corporation , the service is incorporated as a subsidiary company known as Master Distribution Service , Inc. On September 28 , 2009 , following disappointment with the network 's results , MyNetworkTV dropped its status as a television network and transitioned into a programming service , similar to Ion Television , relying mainly on repeats of recent broadcast and cable series . Fox Corporation retained MyNetworkTV after the acquisition of 21st Century Fox by The Walt Disney Company was completed on March 20 , 2019 .",
    "/wiki/Oklahoma_City": "Oklahoma City ( /o\u028akl\u0259\u02ccho\u028am\u0259 -/ ) , often shortened to OKC , is the capital and largest city of the U.S. state of Oklahoma . The county seat of Oklahoma County , the city ranks 27th among United States cities in population . The population grew following the 2010 Census , with the population estimated to have increased to 649,021 as of July 2018 . The Oklahoma City metropolitan area had a population of 1,396,445 , and the Oklahoma City-Shawnee Combined Statistical Area had a population of 1,469,124 residents , making it Oklahoma 's largest municipality and metropolitan area by population . Oklahoma City 's city limits extend somewhat into Canadian , Cleveland , and Pottawatomie counties , though much of those areas outside the core Oklahoma County area are suburban tracts or protected rural zones ( watershed ) . The city ranks as the eighth-largest city in the United States by total area when including consolidated city-counties ; it is the second largest city in the United States by total area , following Houston , when not including consolidated cities . Lying in the Great Plains region , Oklahoma City has one of the world 's largest livestock markets . Oil , natural gas , petroleum products and related industries are the largest sector of the local economy . The city is in the middle of an active oil field and oil derricks dot the capitol grounds . The federal government employs large numbers of workers at Tinker Air Force Base and the United States Department of Transportation 's Mike Monroney Aeronautical Center ( these two sites house several offices of the Federal Aviation Administration and the Transportation Department 's Enterprise Service Center , respectively ) . Oklahoma City is on the I-35 Corridor , which is one of the primary travel corridors south into neighboring Texas and Mexico and north towards Wichita and Kansas City . Located in the state 's Frontier Country region , the city 's northeast section lies in an ecological region known as the Cross Timbers .",
    "/wiki/KSBW": "KSBW , virtual and VHF digital channel 8 , is a dual NBC/ABC-affiliated television station licensed to Salinas , California , United States and serving the Monterey Bay area . The station is owned by the Hearst Television subsidiary of Hearst Communications . KSBW 's studios are located on John Street ( Highway 68 ) in downtown Salinas , and its transmitter is located on Fremont Peak in the Gabilan Mountains . The call letters KSBW stand for Salad Bowl of the World , which is the nickname of the city of Salinas .",
    "/wiki/Salinas,_California": "Salinas ( /s\u0259\u02c8li\u02d0n\u0259s/ ) is a city in Monterey County , California , United States . With a population of 156,259 ( as of 2018 [ update ] ) , Salinas is the most populous city in Monterey County , as well as its county seat . Salinas is an urban area located just outside the southern portion of the Greater Bay Area and 10 miles ( 16 km ) southeast of the mouth of the Salinas River . The city is located at the mouth of the Salinas Valley , roughly eight miles from the Pacific Ocean , and it has a climate more influenced by the ocean than the interior . Salinas serves as the main business , governmental and industrial center of the region . The marine climate is ideal for the floral industry , grape vineyards , and vegetable growers . Salinas is known as the Salad Bowl of the World for its large , vibrant agriculture industry . It was the hometown of writer and Nobel laureate John Steinbeck ( 1902-68 ) , who set many of his stories in the Salinas Valley and Monterey .",
    "/wiki/KSBY": "KSBY , virtual channel 6 ( UHF digital channel 15 ) , is a dual NBC/CW+-affiliated television station licensed to San Luis Obispo , California , United States and serving the Central Coast of California . The station is owned by the E. W. Scripps Company . KSBY 's studios are located on Calle Joaquin in San Luis Obispo , with an additional studio on Skyway Drive in Santa Maria , near the Santa Maria Public Airport . The station 's transmitter is located atop Cuesta Peak .",
    "/wiki/San_Luis_Obispo,_California": "San Luis Obispo ( /s\u00e6n \u02cclu\u02d0\u026as \u0259\u02c8b\u026aspo\u028a/ ; SLO ( /slo\u028a/ ) for short , is a city in the U.S. state of California , located 190 miles ( 310 km ) north of Los Angeles in Southern California 's Central Coast region . The population was 45,119 at the 2010 census . The population of San Luis Obispo County was 269,637 in 2010 . Founded in 1772 by Spanish Franciscan Jun\u00edpero Serra , San Luis Obispo is one of California 's oldest European-founded communities . Serra 's original mission was named after the 13th-century saint and bishop Louis of Toulouse . The city , locally referred to as San Luis , SLO , or SLO Town ( as its county is also referred to as SLO ) is the county seat of San Luis Obispo County and is adjacent to California Polytechnic State University .",
    "/wiki/KSCC": "KSCC , virtual and UHF digital channel 38 , is a Fox-affiliated television station licensed to Corpus Christi , Texas , United States . The station is owned by the Sinclair Broadcast Group . KSCC 's studios are located on South Padre Island Drive in Corpus Christi , and its transmitter is located southeast of Robstown . Because KSCC is a full-power television station , its signal covers the Corpus Christi metropolitan area , as well as outlying towns as far as Raymondville and George West . The coverage area is far greater than that of the market 's original Fox affiliate , low-powered K47DF ( channel 47 , now a Telemundo affiliate ) . On cable , KSCC can be seen on Charter Spectrum and Grande Communications channel 11 . KSCC was also used to provide full-market over-the-air standard definition digital coverage of two co-owned low-powered analog stations ( on its two subchannels ) : TBD owned-and-operated station KXPX-LP ( simulcast over KSCC-DT2 ) and MyNetworkTV affiliate KTOV-LP ( simulcast over KSCC-DT3 ) . This ended when the low-power stations ' licenses were turned in on April 3 , 2018 ; both now operate solely as subchannels of KSCC .",
    "/wiki/Corpus_Christi,_Texas": "Corpus Christi ( /\u02cck\u0254\u02d0rp\u0259s \u02c8kr\u026asti/ ; Latin : Body of Christ ) , colloquially Corpus , is a coastal city in the South Texas region of the U.S. state of Texas . The county seat of Nueces County , it also extends into Aransas , Kleberg , and San Patricio Counties . It is 130 miles southeast of San Antonio . Its political boundaries encompass Nueces Bay and Corpus Christi Bay . Its zoned boundaries include small land parcels or water inlets of three neighboring counties . The city 's population was estimated to be 326,554 in 2018 , making it the eighth-most populous city in Texas . The Corpus Christi metropolitan area had an estimated population of 442,600 . It is also the hub of the six-county Corpus Christi-Kingsville-Alice Combined Statistical area , with a 2013 estimated population of 516,793 . The Port of Corpus Christi is the fifth-largest in the United States . The region is served by the Corpus Christi International Airport . The city 's name means body of Christ in Latin . The name was given to the settlement and surrounding bay by Spanish explorer Alonso \u00c1lvarez de Pineda in 1519 , as he discovered the lush semitropical bay on the Catholic feast day of Corpus Christi .",
    "/wiki/KSCE": "KSCE , virtual channel 38 ( UHF digital channel 21 ) , is a religious independent television station licensed to El Paso , Texas , United States and also serving Las Cruces , New Mexico . The station is owned by Channel 38 Christian Television . KSCE 's studios are located on Wyoming Avenue ( northwest of I-10 ) in northeast El Paso , and its transmitter is located atop the Franklin Mountains on the El Paso city limits .",
    "/wiki/Religious_broadcasting": "Religious broadcasting refers to the dissemination of television and/or radio content that intentionally has religious ideas , religious experience , or religious practice as its core focus . In some countries , religious broadcasting developed primarily within the context of public service provision ( as in the UK ) , whilst in others , it has been driven more by religious organisations themselves ( as in the USA ) . Across Europe and in the US and Canada , religious broadcasting began in the earliest days of radio , usually with the transmission of religious worship , preaching or 'talks ' . Over time , formats evolved to include a broad range of styles and approaches , including radio and television drama , documentary , and chat show formats , as well as more traditional devotional content . Today , many religious organizations record sermons and lectures , and have moved into distributing content on their own web-based IP channels . Religious broadcasting can be funded commercially or through some sort of public broadcasting-style arrangement ( religious broadcasters are often recognized as non-profit organizations ) . Donations from listeners and viewers , often tax-deductible , are solicited by some broadcasters . In the US , 42 percent of non-commercial radio stations currently have a religious format where on the other hand about 80 percent of the 2,400 Christian radio stations and 100 full-power Christian TV stations throughout the entire United States are considered non-profit . In some countries , particularly those with an established state religion , broadcasting related to one particular religion only is allowed , or in some cases required . For example , a function of the state-owned Pakistan Broadcasting Corporation is by law to broadcast such programmes as may promote Islamic ideology , national unity and principles of democracy , freedom equality , tolerance and social justice as enunciated by Islam . ( s. 10 ( 1 ) ( b ) ) .",
    "/wiki/El_Paso,_Texas": "El Paso ( /\u025bl \u02c8p\u00e6so\u028a/ ; from Spanish , the pass ) is a city and the county seat of El Paso County , Texas , United States , in the far western part of the state . The 2018 population estimate for the city from the U.S. Census was 682,669 , making it the 22nd largest city in the United States . Its metropolitan statistical area ( MSA ) covers all of El Paso and Hudspeth counties in Texas , and has a population of 840,758 . El Paso stands on the Rio Grande across the Mexico-United States border from Ciudad Ju\u00e1rez , the most populous city in the Mexican state of Chihuahua with 1.4 million people . Las Cruces , in the neighboring U.S. state of New Mexico , has a population of 215,579 . On the U.S. side , the El Paso metropolitan area forms part of the larger El Paso-Las Cruces CSA , with a population of 1,060,397 . Bi-nationally , these three cities form a combined international metropolitan area sometimes referred to as the Paso del Norte or the Borderplex . The region of 2.5 million people constitutes the largest bilingual and binational work force in the Western Hemisphere . The city is home to three publicly traded companies , and former Western Refining , now Andeavor . as well as home to the Medical Center of the Americas , the only medical research and care provider complex in West Texas and Southern New Mexico , and the University of Texas at El Paso , the city 's primary university . The city hosts the annual Sun Bowl college football post-season game , the second oldest bowl game in the country . El Paso has a strong federal and military presence .",
    "/wiki/KSCI": "KSCI , virtual and UHF digital channel 18 , is an independent television station serving Los Angeles , California , United States that is licensed to Long Beach . The station is owned by WRNN-TV Associates . KSCI 's studios are located on South Bundy Drive in West Los Angeles , and its transmitter is located atop Mount Harvard . The station 's signal is relayed on low-power translator station KSKT-CD ( channel 43 ) in San Marcos . KSCI served as a multicultural television station until July 2017 , when it changed to a schedule primarily featuring infomercials .",
    "/wiki/Long_Beach,_California": "Long Beach is a city in the US state of California located within the Los Angeles metropolitan area . It is the 39th most populous city in the United States with a population of 462,257 in 2010 . A charter city , Long Beach is the 7th most populous city in California . Incorporated in 1897 , Long Beach lies in Southern California in the southeastern corner of Los Angeles County . Long Beach is approximately 20 miles ( 32 km ) south of downtown Los Angeles , and is part of the Gateway Cities region . The Port of Long Beach is the second busiest container port in the United States and is among the world 's largest shipping ports . The city is over an oilfield with minor wells both directly beneath the city as well as offshore . The city is known for its waterfront attractions , including the permanently docked RMS Queen Mary and the Aquarium of the Pacific . Long Beach also hosts the Grand Prix of Long Beach , currently an IndyCar race . The California State University , Long Beach , one of the largest universities in California by enrollment , is located in the city .",
    "/wiki/KSCW-DT": "KSCW-DT , virtual channel 33 ( VHF digital channel 12 ) , is a CW-affiliated television station licensed to Wichita , Kansas , United States . The station is owned by Gray Television , as part of a duopoly with Hutchinson-licensed CBS affiliate KWCH-DT ( channel 12 ) ; Gray also operates Derby-licensed Univision affiliate KDCU-DT ( channel 31 ) under joint sales and shared services agreements ( JSA/SSA ) with owner Entravision Communications . The three stations share studios on 37th Street in northeast Wichita ; KSCW and KWCH share transmitter facilities in rural northeastern Reno County ( south-southeast of Buhler ) . There is no separate website for KSCW ; instead , it is integrated with that of sister station KWCH . KSCW also operates a low-power digital fill-in translator on UHF channel 33 ( its previous analog signal allotment ) from a transmitter in Bel Aire , Kansas , just north of the station 's studio facility . On cable , the station is available on Cox Communications channel 5 in both standard and high definition , and on AT & T U-verse channels 5 ( SD ) and 1005 ( HD ) .",
    "/wiki/The_CW": "The CW Television Network ( commonly referred to as just The CW ) is an American English-language free-to-air television network that is operated by The CW Network , LLC , a limited liability joint venture between the CBS Entertainment Group unit of ViacomCBS ; and AT & T , whose WarnerMedia subsidiary is the parent company of Warner Bros. , former majority owner of The WB . The network 's name is an abbreviation derived from the first letters of the names of its two parent corporations ( CBS and Warner Bros. ) . The CW Television Network made its debut on September 18 , 2006 , after its two predecessors , UPN and The WB , respectively ceased independent operations on September 15 and 17 of that year . The CW 's first two nights of programming - on September 18 and 19 , 2006 - consisted of reruns and launch-related specials . The CW marked its formal launch date on September 20 , 2006 , with the two-hour premiere of the seventh cycle of America 's Next Top Model . Originally , the network 's programming lineup was intended to appeal mainly to women between the ages of 18 and 34 , although starting in 2011 the network increased in programming that appeals to men . As of August 2017 , the CW 's audience is 50% male and 50% female . The network currently runs programming seven days a week : airing Mondays through Fridays in the afternoon ( The CW Daytime ) and Sundays through Fridays in prime time , along with a Saturday morning live-action educational programming block produced by Litton Entertainment called One Magnificent Morning , which is the successor to the animation block Vortexx . It is also available in Canada on pay television providers through stations owned-and-operated by ViacomCBS and affiliates that are located within proximity to the Canada-United States border ( whose broadcasts of CW shows are subject to simultaneous substitution laws imposed by the Canadian Radio-television and Telecommunications Commission , if a Canadian network holds the broadcast rights ) ; it is also available through two affiliates that are classified in the United States as superstations - New York City affiliate WPIX and Los Angeles affiliate KTLA . Additionally , The CW is available in Mexico through affiliates located near the Mexico-U.S. border ( such as KFMB-DT2/San Diego-Tijuana , KECY-DT3 in El Centro , California , KVIA-DT2 in El Paso , and KCWT-CD with simulcasters KFXV-LD2 KNVO-DT4 in McAllen-Brownsville , Texas and XHRIO-TV in Matamoros , Tamaulipas ) on pay television providers . In both Canada and Mexico , some CW affiliate signals originating from the U.S. are receivable over-the-air in border areas depending on the station 's signal coverage .",
    "/wiki/KSDK": "KSDK , virtual channel 5 ( UHF digital channel 35 ) , is an NBC-affiliated television station licensed to St. Louis , Missouri , United States . The station is owned by Tegna Inc. KSDK 's studios are located on Market Street in Downtown St. Louis , and its transmitter is located in Shrewsbury , Missouri . On cable , the station is available on Charter Spectrum channels 5 ( standard definition ) and 705 ( high definition ) , and on AT & T U-verse channels 5 ( SD ) and 1005 ( HD ) .",
    "/wiki/St._Louis,_Missouri": "St. Louis ( /se\u026ant \u02c8lu\u02d0\u026as/ ) is an independent city in Missouri . It is the largest metropolitan area in the state of Missouri , however the independent city of St. Louis is the second-largest city in Missouri behind Kansas City . It is situated along the western bank of the Mississippi River , which forms the state line between Illinois and Missouri . The Missouri River merges with the Mississippi River 15 river miles north of Downtown St. Louis , forming the fourth-longest river system in the world . The estimated 2018 population of the city proper was 302,838 and the bi-state metropolitan area was 2,804,724 . Greater St. Louis is the largest metropolitan area in Missouri , second-largest in Illinois , 7th-largest in the Great Lakes Megalopolis , and the 20th-largest in the United States . Before European settlement , the area was a regional center of Native American Mississippian culture . The city of St. Louis was founded in 1764 by French fur traders Pierre Lacl\u00e8de and Auguste Chouteau , and named after Louis IX of France . In 1764 , following France 's defeat in the Seven Years ' War , the area was ceded to Spain and retroceded back to France in 1800 . In 1803 , the United States acquired the territory as part of the Louisiana Purchase . During the 19th century , St. Louis became a major port on the Mississippi River ; at the time of the 1870 Census , it was the fourth-largest city in the country . It separated from St. Louis County in 1877 , becoming an independent city and limiting its own political boundaries .",
    "/wiki/KSEE": "KSEE , virtual channel 24 ( UHF digital channel 38 ) , is an NBC-affiliated television station licensed to Fresno , California , United States . The station is owned by Nexstar Media Group , as part of a duopoly with CBS affiliate KGPE ( channel 47 ) . The two stations share studios on McKinley Avenue in eastern Fresno ( several blocks from Fresno Yosemite International Airport ) ; KSEE 's transmitter is located on Bear Mountain ( near Meadow Lakes ) .",
    "/wiki/Fresno,_California": "Fresno ( /\u02c8fr\u025bzno\u028a/ FREZ-noh ; Spanish for ash tree ) is a city in and the county seat of Fresno County , California , United States . It covers about 112 square miles ( 290 km2 ) in the center of the San Joaquin Valley , the southern portion of California 's Central Valley . Named for the abundant ash trees lining the San Joaquin River , Fresno was founded in 1872 as a railway station of the Central Pacific Railroad before it was incorporated in 1885 . The city has since become an economic hub of Fresno County and the San Joaquin Valley , with much of the surrounding areas in the Metropolitan Fresno region predominantly tied to large-scale agricultural production . The population of Fresno grew from 134,000 in 1960 to 428,000 in 2000 . With a census-estimated 2018 population of 530,093 , Fresno is the fifth-most populous city in California , the most populous inland city in California , and the 34th-most populous city in the nation . Fresno is near the geographical center of California . It lies approximately 220 miles ( 350 km ) north of Los Angeles , 170 miles ( 270 km ) south of the state capital , Sacramento , and 185 miles ( 300 km ) southeast of San Francisco . Yosemite National Park is about 60 miles ( 100 km ) to the north , Kings Canyon National Park is 60 miles ( 100 km ) to the east , and Sequoia National Park is 75 miles ( 120 km ) to the southeast .",
    "/wiki/KSFY-TV": "KSFY-TV , virtual and VHF digital channel 13 , is a dual ABC/CW+-affiliated television station licensed to Sioux Falls , South Dakota , United States . The station is owned by Gray Television , as part of a duopoly with NBC affiliate KDLT-TV ( channel 46 ) . The two stations share studios on Courthouse Square in Sioux Falls ; KSFY-TV 's transmitter is located near Rowena , South Dakota .",
    "/wiki/Sioux_Falls,_South_Dakota": "Sioux Falls ( /\u02ccsu\u02d0 \u02c8f\u0254\u02d0lz/ ) ( Lakota : \u00cd\u014bya\u014b Ok\u00e1ble\u010da Ot\u021f\u00fa\u014bwahe ; Stone Shatter City ) is the most populous city in the U.S. state of South Dakota and the 140th-most populous city in the United States . It is the county seat of Minnehaha County and also extends into Lincoln County to the south , proximate with the Minnesota state line . As of 2018 , Sioux Falls had an estimated population of 190,750 . The metropolitan population of 265,653 accounts for 29% of South Dakota 's population . Chartered in 1856 on the banks of the Big Sioux River , the city is situated in the rolling hills at the junction of Interstate 90 and Interstate 29 .",
    "/wiki/KSGW-TV": "KOTA-TV , virtual channel 3 ( VHF digital channel 7 ) , is an ABC-affiliated television station licensed to Rapid City , South Dakota , United States . Owned by Gray Television , it is a sister station to low-powered Fox affiliate KEVN-LD , channel 7 ( which is simulcast on KOTA-TV 's second digital subchannel ) . The two stations share studios and transmitter facilities on Skyline Drive in Rapid City . KOTA-TV operates two full-power satellite stations : KHSD-TV ( virtual channel 11 , VHF digital channel 5 ) in Lead , South Dakota ( which can also be seen over the air in Rapid City ) , with transmitter atop Terry Peak , and KSGW-TV ( virtual channel 12 , VHF digital channel 13 ) in Sheridan , Wyoming , with transmitter on Bosin Rock . KOTA serves a large area in western South Dakota , eastern Montana , eastern Wyoming and the Nebraska panhandle . It calls its vast coverage area KOTA Territory .",
    "/wiki/Sheridan,_Wyoming": "Sheridan is a city in the U.S. state of Wyoming and the county seat of Sheridan County . The city is located halfway between Yellowstone Park and Mount Rushmore . It is the principal city of the Sheridan , Wyoming , Micropolitan Statistical Area which encompasses all of Sheridan County . The 2010 census put the city 's population at 17,444 and the Sheridan , Wyoming , Micropolitan Statistical Area at 29,116 , making it the 424th-most populous micropolitan area in the United States .",
    "/wiki/KSHB-TV": "KSHB-TV , virtual channel 41 ( UHF digital channel 36 ) , is an NBC-affiliated television station licensed to Kansas City , Missouri , United States and serving the Kansas City metropolitan area . The station is owned by the E. W. Scripps Company , as part of a duopoly with Lawrence , Kansas-licensed independent station KMCI-TV ( channel 38 ) . The two stations share studios on Oak Street in southern Kansas City , Missouri , and transmitter facilities at the Blue River Greenway in the city 's Hillcrest section . On cable , KSHB is available on Charter Spectrum , Consolidated Communications and Google Fiber channel 13 , Comcast Xfinity channel 8 , and AT & T U-verse channel 41 . KSHB-TV also serves as an alternate NBC affiliate for the St. Joseph market ( which borders the northern portions of the Kansas City Designated Market Area ) , as its transmitter produces a city-grade signal that reaches St. Joseph proper and rural areas in the market 's central and southern counties . KSHB had previously served as the default NBC affiliate for St. Joseph from its assumption of the Kansas City affiliation rights from WDAF-TV ( channel 4 ) in September 1994 , until locally based KNPG-LD ( channel 21 ) switched its primary affiliation from The CW Plus to NBC on November 1 , 2016 . Though the station remains available on Suddenlink Communications and smaller cable providers in St. Joseph , duplicate NBC network programs carried by KSHB are blacked out on the station 's cable channel slots within that market out of exclusivity to KNPG , in compliance with regulations imposed by the Federal Communications Commission ( FCC ) that allow local television stations to require cable systems to black out network programs shown on out-of-market stations that the provider also carries if a station holds the exclusive local affiliation rights .",
    "/wiki/Kansas_City,_Missouri": "Kansas City ( abbreviated KC or KCMO ) is the largest city in the U.S. state of Missouri by population and area . According to the U.S. Census Bureau , the city had an estimated population of 491,918 in 2018 , making it the 38th most-populous city in the United States . It is the most populated municipality and historic core city of the Kansas City metropolitan area , which straddles the Kansas-Missouri state line and has a CSA population of 2,487,053 . Most of the city lies within Jackson County , but portions spill into Clay , Cass , and Platte counties . The city borders Johnson County and Kansas City , Kansas , ( KCK/Wyandotte County ) in Kansas . Kansas City was founded in the 1830s as a Missouri River port at its confluence with the Kansas River coming in from the west . On June 1 , 1850 , the town of Kansas was incorporated ; shortly after came the establishment of the Kansas Territory . Confusion between the two ensued , and the name Kansas City was assigned to distinguish them soon after . In 2017 , the city had the fifth-highest per capita murder rate in the nation with 2019 homicide rates nearing a record high . Sitting on Missouri 's western boundary with Kansas , with Downtown near the confluence of the Kansas and Missouri Rivers , the city encompasses some 319.03 square miles ( 826.3 km2 ) , making it the 23rd largest city by total area in the United States . Along with Independence , one of its major suburbs , it serves as one of the two county seats of Jackson County . Other major suburbs include the Missouri cities of Blue Springs and Lee 's Summit and the Kansas cities of Overland Park , Olathe , and Kansas City .",
    "/wiki/KSHV-TV": "KSHV-TV , virtual channel 45 ( UHF digital channel 16 ) , is a MyNetworkTV-affiliated television station licensed to Shreveport , Louisiana , United States and also serving Texarkana , Texas . Owned by White Knight Broadcasting , the station is operated under a shared services agreement ( SSA ) by Nexstar Media Group , which owns Texarkana-licensed NBC affiliate KTAL-TV ( channel 6 ) ; Nexstar also operates Shreveport-licensed Fox affiliate KMSS-TV ( channel 33 ) under a separate SSA with owner Marshall Broadcasting Group . The three stations share studios on North Market Street and Deer Park Road in northeast Shreveport ( north of the city 's downtown district ) ; KSHV-TV 's transmitter is located near St. Johns Baptist Church Road ( southeast of Mooringsport and Caddo Lake ) in rural northern Caddo Parish . On cable , the station is available on Comcast Xfinity channels 9 ( standard definition ) and 1009 ( high definition ) in Shreveport ; Suddenlink channel 9 ( SD and HD ) in Bossier City ; NewWave Communications channels 10 ( SD ) and 206 ( HD ) in Blanchard , Vivian , Springhill and Mansfield ; and Cable One channels 45 ( SD ) and 1045 ( HD ) in Texarkana and Fouke , Arkansas .",
    "/wiki/Shreveport,_Louisiana": "Shreveport ( /\u02c8\u0283ri\u02d0vp\u0254\u02d0rt/ SHREEV-port ) is a city in the U.S. state of Louisiana . It is the most populous city in the Shreveport-Bossier City metropolitan area . Shreveport ranks third in population in Louisiana after New Orleans and Baton Rouge and 133rd in the U.S . The bulk of Shreveport is in Caddo Parish , of which it is the parish seat . Shreveport extends along the west bank of the Red River ( most notably at Wright Island , the Charles and Marie Hamel Memorial Park , and Bagley Island ) into neighboring Bossier Parish . The population of Shreveport was 199,311 as of the 2010 U.S. Census . The United States Census Bureau 's 2018 estimates for the city 's population decreased to 188,987 , and grew to an estimated 189,149 . Shreveport was founded in 1836 by the Shreve Town Company , a corporation established to develop a town at the juncture of the newly navigable Red River and the Texas Trail , an overland route into the newly independent Republic of Texas . Prior to Texas becoming independent , this trail entered Mexico . The city grew throughout the 20th century and , after the discovery of oil in Louisiana , became a national center for the oil industry . Standard Oil of Louisiana ( absorbed by Standard Oil of New Jersey and now part of ExxonMobil ) and United Gas Corporation ( now part of Pennzoil ) were headquartered in the city until the 1960s and 1980s . After the loss of jobs in the oil industry , the close of Shreveport Operations ( a General Motors vehicle factory ) , and other economic problems the city struggled with a declining population , poverty , drugs and violent crime .",
    "/wiki/KSIN-TV": "Iowa PBS , formerly Iowa Public Television ( IPTV ) , is a network of Public Broadcasting Service ( PBS ) member stations in the U.S. state of Iowa . It is owned by the Iowa Public Broadcasting Board , an agency of the state education department which holds the licenses for all the PBS member stations in the state . Iowa PBS ' headquarters are located at 6450 Corporate Drive in Johnston , Iowa , a suburb of Des Moines .",
    "/wiki/Public_Broadcasting_Service": "The Public Broadcasting Service ( PBS ) is an American public broadcaster and television program distributor . It is a nonprofit organization and the most prominent provider of educational television programming to public television stations in the United States , distributing series such as American Experience , America 's Test Kitchen , Antiques Roadshow , Arthur , Barney & Friends , Clifford the Big Red Dog , Downton Abbey , Finding Your Roots , Frontline , The Magic School Bus , Masterpiece , Mister Rogers ' Neighborhood , Nature , Nova , the PBS NewsHour , Reading Rainbow , Sesame Street , Teletubbies , and This Old House . PBS is funded by a combination of member station dues , the Corporation for Public Broadcasting , National Datacast , pledge drives , and donations from both private foundations and individual citizens . All proposed funding for programming is subject to a set of standards to ensure the program is free of influence from the funding source . Since the mid-2000s , Roper Opinion Research polls commissioned by PBS have consistently placed the service as the most-trusted national institution in the United States . A 2016-2017 study by Nielsen Media Research found 80% of all US television households view the network 's programs over the course of a year . However , PBS is not responsible for all programming carried on public television stations , a large proportion of which may come from its member stations , including WGBH-TV , WETA-TV , WNET , WTTW , WHYY-TV , Twin Cities PBS , American Public Television , and independent producers . This distinction regarding the origin of different programs on the service present a frequent source of viewer confusion . PBS has more than 350 member television stations , many owned by educational institutions , nonprofit groups both independent or affiliated with one particular local public school district or collegiate educational institution , or entities owned by or related to state government .",
    "/wiki/Sioux_City,_Iowa": "Sioux City ( /su\u02d0/ ) is a city in Woodbury and Plymouth counties in the northwestern part of the U.S. state of Iowa . The population was 82,684 in the 2010 census , which makes it the fourth largest city in Iowa . The bulk of the city is in Woodbury County , of which it is the county seat , though a small portion is in Plymouth County . Sioux City is located at the navigational head of the Missouri River . The city is home to several cultural points of interest including the Sioux City Public Museum , Sioux City Art Center and Sergeant Floyd Monument , which is a National Historic Landmark . The city is also home to Chris Larsen Park , commonly referred to as the Riverfront , which includes the Anderson Dance Pavilion , Sergeant Floyd Riverboat Museum and Lewis and Clark Interpretive Center . Sioux City is the primary city of the five-county Sioux City , IA-NE-SD Metropolitan Statistical Area ( MSA ) , with a population of 168,825 in 2010 and a slight increase to an estimated 169,405 in 2018 . The Sioux City-Vermillion , IA-NE-SD Combined Statistical Area had a population of 182,675 as of 2010 but has decreased to an estimated population of 178,448 as of 2018 . Sioux City is at the navigational head , or the most upstream point to which general cargo ships can travel , of the Missouri River , about 95 miles ( 153 km ) north of the Omaha-Council Bluffs metropolitan area . Sioux City and the surrounding areas of northwestern Iowa , northeastern Nebraska and southeastern South Dakota are sometimes referred to as Siouxland , especially by local media and residents . It is also a part of the Sioux Falls-Sioux City Designated Market Area ( DMA ) , a larger media market region that covers parts of four states and has a population of 1,043,450 .",
    "/wiki/KSIX-TV": "KSIX-TV , virtual channel 6 ( UHF digital channel 25 ) , is a Telemundo-affiliated television station licensed to Kailua-Kona , Hawaii , United States . The station is owned by Mauna Kea Broadcasting . KSIX-TV 's transmitter is located near Kalaoa , Hawaii . On cable , the station is available statewide on Oceanic Spectrum digital channels 6 and 695 . KSIX-TV serves a 7,954-square-mile ( 20,601 km2 ) area , and covers an estimated population of 71,400 . The station 's signal is relayed on satellite station KLEI ( channel 21 ) in Wailuku and on the second digital subchannel of KKAI ( channel 50 ) in Kailua .",
    "/wiki/The_Family_Channel_(US_TV_network)": "The Family Channel is an American general entertainment television network owned by Luken Communications , and based in Chattanooga , Tennessee .",
    "/wiki/Kailua_Kona,_Hawaii": "Kailua , also known by its post office designation Kailua-Kona to differentiate it from Kailua located on the windward side of O\u02bbahu island , and sometimes referred to as Kona in everyday speech , is an unincorporated city ( Census Designated Place ) in Hawai\u02bbi County , Hawaii , United States , in the North Kona District of the Island of Hawai\u02bbi . The population was 11,975 at the 2010 census , up from 9,870 at the 2000 census . It is the center of commerce and of the tourist industry on West Hawai\u02bbi . The city is served by Kona International Airport , located just to the north in the adjacent Kalaoa CDP . Kailua-Kona was the closest major settlement to the epicenter of the 2006 Kiholo Bay earthquake ."
  }
}