{
  "List_of_Macedonian_submissions_for_the_Academy_Award_for_Best_Foreign_Language_Film_0": {
    "/wiki/1994_in_film": "This is a list of films released in 1994 . The top worldwide grosser was The Lion King , becoming the highest-grossing Walt Disney Feature Animation film of all-time , although it was slightly overtaken at the North American domestic box office by Forrest Gump , which won the Academy Award for Best Picture . Metro-Goldwyn-Mayer celebrated its 70th Anniversary in 1994 .",
    "/wiki/67th_Academy_Awards": "The 67th Academy Awards ceremony , organized by the Academy of Motion Picture Arts and Sciences ( AMPAS ) took place on March 27 , 1995 , at the Shrine Auditorium in Los Angeles beginning at 6:00 p.m. PST / 9:00 p.m. EST . During the ceremony , AMPAS presented Academy Awards ( commonly referred to as the Oscars ) in 23 categories honoring the films released in 1994 . The ceremony , televised in the United States by ABC , was produced by Gilbert Cates and directed by Jeff Margolis . Comedian David Letterman hosted the show for the first time . Three weeks earlier in a ceremony held at the Regent Beverly Wilshire Hotel in Beverly Hills , California on March 4 , the Academy Awards for Technical Achievement were presented by host Jamie Lee Curtis . Forrest Gump won six awards , including Best Picture . Other winners included Ed Wood , The Lion King , and Speed with two awards , and The Adventures of Priscilla , Queen of the Desert , Blue Sky , Bob 's Birthday , Bullets over Broadway , Burnt by the Sun , Franz Kafka 's It 's a Wonderful Life , Legends of the Fall , The Madness of King George , Maya Lin : A Strong Clear Vision , Pulp Fiction , A Time for Justice and Trevor with one . The telecast garnered more than 48 million viewers in the United States , making it the most watched Oscars telecast since the 55th Academy Awards in 1983 .",
    "/wiki/Before_the_Rain_(1994_film)": "Before the Rain ( Macedonian : \u041f\u0440\u0435\u0434 \u0434\u043e\u0436\u0434\u043e\u0442 , Pred do\u017edot ) is a 1994 film written and directed by Milcho Manchevski . The film stars Katrin Cartlidge , Rade \u0160erbed\u017eija , Gr\u00e9goire Colin and Labina Mitevska . It features an original score by the Macedonian band Anastasia . Before the Rain consists of three interlocking stories set both in North Macedonia and London . The film addresses the ethnic and religious roots of violence and hatred in the Balkans as well as some international implications of the tragic regional conflict . Before the Rain received positive reviews from film critics who praised the message it sends to viewers in light of the events during the time of its release . It was included in the List of Best 1,000 Films Ever Made compiled by The New York Times . The film won the Golden Lion at the Venice Film Festival . It was also nominated in the category for Best Foreign Language Film at the 67th Academy Awards in 1995 , marking North Macedonia 's first nomination in the award show .",
    "/wiki/Milcho_Manchevski": "Milcho Manchevski ( Macedonian : \u041c\u0438\u043b\u0447\u043e \u041c\u0430\u043d\u0447\u0435\u0432\u0441\u043a\u0438 [ \u02c8milt\u0361\u0283\u0254 \u02c8mant\u0361\u0283\u025bfski ] ( listen ) ) is a New York-based Macedonian-born film director , photographer and artist . His film Before the Rain was nominated for an Academy Award , and The New York Times included it in its Guide to the Best 1,000 Films Ever Made list . He has also made Dust , Shadows , Mothers , Bikini Moon and Willow on IMDb , and the shorts The End of Time , Thursday , Macedonia Timeless , Tennessee and 1.73 , as well as The Wire . Manchevski has authored two exhibitions of photographs , works of fiction , books of essays , and performance art . His work had more than 350 festival screenings ( including Venice , Berlin , Toronto , S\u00e3o Paulo , Istanbul , Tokyo , Jerusalem , Hong Kong , Stockholm , etc. ) . His films have been distributed in more than 50 countries . His work has been included in the curricula of numerous universities and has been the subject of two academic conferences ( in Firenza and Leipzig ) ; he holds an Honorary Doctorate from Moscow 's VGIK . He has taught and lectured at the Feirstein Graduate School at Brooklyn College , Tisch School of the Arts at New York University , VGIK in Moscow , EICTV in Cuba , London Film School , University of Texas at Austen , Chicago University , Cambridge University , Cineteca di Bologna , Shanghai University , etc .",
    "/wiki/1997_in_film": "The year 1997 in film involved many significant films , including Titanic , and the beginning of the film studio DreamWorks .",
    "/wiki/70th_Academy_Awards": "The 70th Academy Awards ceremony , organized by the Academy of Motion Picture Arts and Sciences ( AMPAS ) , took place on March 23 , 1998 , at the Shrine Auditorium in Los Angeles beginning at 6:00 p.m. PST / 9:00 p.m. EST . During the show , AMPAS presented Academy Awards ( commonly referred to as Oscars ) in 24 categories honoring films released in 1997 . The ceremony , which was televised in the United States by ABC , was produced by Gil Cates and directed by Louis J. Horvitz . Actor Billy Crystal hosted the show for the sixth time . He first presided over the 62nd ceremony held in 1990 , and he had hosted the previous year 's gala . Nearly a month earlier in an event held at the Regent Beverly Wilshire Hotel in Beverly Hills , California on February 28 , the Academy Awards for Technical Achievement were presented by host Ashley Judd . Titanic won a record-tying eleven awards including Best Director for James Cameron and Best Picture . Other winners included As Good as It Gets , Good Will Hunting and L.A . Confidential with two awards , and The Full Monty , Geri 's Game , Karakter , The Long Way Home , Visas and Virtue , Men in Black and A Story of Healing with one . The telecast garnered more than 57 million viewers in the United States , making it the most watched Oscars broadcast in history .",
    "/wiki/Gypsy_Magic": "Gypsy Magic is a 1997 Macedonian film directed by Stole Popov . It was Macedonia 's submission to the 70th Academy Awards for the Academy Award for Best Foreign Language Film , but was not accepted as a nominee .",
    "/wiki/Stole_Popov": "Stole Popov is a Macedonian film director .",
    "/wiki/1998_in_film": "The year 1998 in film involved many significant films including ; Shakespeare in Love ( which won the Academy Award for Best Picture ) , Saving Private Ryan , American History X , The Truman Show , Primary Colors , Rushmore , Rush Hour , There 's Something About Mary , The Big Lebowski , and Terrence Malick 's directorial return in The Thin Red Line . Animated releases included Antz , A Bug 's Life , Mulan , The Prince of Egypt and The Rugrats Movie . Warner Bros. Pictures celebrated its 75th anniversary in 1998 .",
    "/wiki/71st_Academy_Awards": "The 71st Academy Awards ceremony , organized by the Academy of Motion Picture Arts and Sciences ( AMPAS ) , honored the best of 1998 in film and took place on March 21 , 1999 , at the Dorothy Chandler Pavilion in Los Angeles beginning at 5:30 p.m. PST / 8:30 p.m. EST . During the ceremony , AMPAS presented Academy Awards ( commonly referred to as Oscars ) in 24 categories . The ceremony , televised in the United States by ABC , was produced by Gil Cates and directed by Louis J. Horvitz . Actress Whoopi Goldberg hosted the show for the third time . She first hosted the 66th ceremony held in 1994 and had last hosted the 68th ceremony in 1996 . Nearly a month earlier in a ceremony held at the Regent Beverly Wilshire Hotel in Beverly Hills , California on February 27 , the Academy Awards for Technical Achievement were presented by host Anne Heche . Shakespeare in Love won seven awards including Best Picture . Other winners included Saving Private Ryan with five awards , Life Is Beautiful with three , and Affliction , Bunny , Election Night , Elizabeth , Gods and Monsters , The Last Days , The Personals , The Prince of Egypt and What Dreams May Come with one . The telecast garnered nearly 46 million viewers in the United States .",
    "/wiki/Goodbye,_20th_Century!": "Goodbye , 20th Century ! ( Macedonian : \u0417\u0431\u043e\u0433\u0443\u043c \u043d\u0430 \u0434\u0432\u0430\u0435\u0441\u0435\u0442\u0442\u0438\u043e\u0442 \u0432\u0435\u043a ! , romanized : Zbogum na dvaesettiot vek ! ) is a 1998 Macedonian film directed by Darko Mitrevski and Aleksandar Popovski .",
    "/wiki/Darko_Mitrevski": "Darko Mitrevski is an ex-Yugoslav film director currently living in Los Angeles , California , United States since 2007 . His list of feature films includes Goodbye , 20th Century ! , Bal-Can-Can , and The Third Half .",
    "/wiki/2004_in_film": "2004 in film is an overview of events , including the highest-grossing films , award ceremonies , festivals , a list of country-specific lists of films released , notable deaths and film debuts .",
    "/wiki/77th_Academy_Awards": "The 77th Academy Awards ceremony , presented by the Academy of Motion Picture Arts and Sciences ( AMPAS ) , took place on February 27 , 2005 , at the Kodak Theatre in Hollywood , Los Angeles beginning at 5:30 p.m. PST / 8:30 p.m. EST . During the ceremony , AMPAS presented Academy Awards ( commonly referred to as the Oscars ) in 24 categories honoring films released in 2004 . The ceremony , televised in the United States by ABC , was produced by Gil Cates and was directed by Louis J. Horvitz . Actor Chris Rock hosted the show for the first time . Two weeks earlier in a ceremony at The Ritz-Carlton Huntington Hotel & Spa in Pasadena , California held on February 12 , the Academy Awards for Technical Achievement were presented by host Scarlett Johansson . The Aviator won the most awards of the night with five . Million Dollar Baby won four awards , including Best Picture . Other winners included The Incredibles , and Ray with two awards , and Born into Brothels , Eternal Sunshine of the Spotless Mind , Finding Neverland , Lemony Snicket 's A Series of Unfortunate Events , Mighty Times : The Children 's March , The Motorcycle Diaries , Ryan , The Sea Inside , Sideways , Spider-Man 2 and Wasp each with one . The telecast garnered over 42 million viewers in the United States .",
    "/wiki/The_Great_Water": "The Great Water ( Macedonian : \u0393\u043e\u043b\u0435\u043c\u0430\u0442\u0430 \u0412\u043e\u0434\u0430 , Latinic : Golemata Voda ) is a 2004 Macedonian film starring Saso Kekenovski , Maja Stankovska , Mitko Apostolovski , Meto Jovanovski and Verica Nedeska . It was directed and written by Ivo Trajkov . The music was created by Kiril Dzajkovski .",
    "/wiki/2006_in_film": "The following is an overview of events in 2006 , including the highest-grossing films , award ceremonies and festivals , a list of films released and notable deaths .",
    "/wiki/79th_Academy_Awards": "The 79th Academy Awards ceremony , presented by the Academy of Motion Picture Arts and Sciences ( AMPAS ) , honored the best films of 2006 and took place February 25 , 2007 , at the Kodak Theatre in Hollywood , Los Angeles beginning at 5:30 p.m. PST / 8:30 p.m. EST . During the ceremony , the Academy of Motion Picture Arts and Sciences presented Academy Awards ( commonly referred to as Oscars ) in 24 categories . The ceremony , televised in the United States by ABC , was produced by Laura Ziskin and directed by Louis J. Horvitz . Actress Ellen DeGeneres hosted for the first time . Two weeks earlier in a ceremony at the Beverly Wilshire Hotel in Beverly Hills , California held on February 10 , the Academy Awards for Technical Achievement were presented by host Maggie Gyllenhaal . The Departed won four awards , including Best Picture and Best Director for Martin Scorsese . Other winners included Pan 's Labyrinth with three , An Inconvenient Truth , Dreamgirls and Little Miss Sunshine with two , and Babel , The Blood of Yingzhou District , The Danish Poet , Happy Feet , The Last King of Scotland , Letters from Iwo Jima , The Lives of Others , Marie Antoinette , Pirates of the Caribbean : Dead Man 's Chest , The Queen and West Bank Story with one . The telecast garnered nearly 40 million viewers in the United States .",
    "/wiki/Kontakt_(film)": "Kontakt is a 2005 Macedonian film directed by Sergej Stanojkovski . It was Macedonia 's submission to the 79th Academy Awards for the Academy Award for Best Foreign Language Film , but was not accepted as a nominee .",
    "/wiki/2007_in_film": "The following is an overview of events in 2007 in film , including the highest-grossing films , award ceremonies and festivals , a list of films released and notable deaths . The highest-grossing film of the year was Pirates of the Caribbean : At World 's End , which was just ahead of Harry Potter and the Order of the Phoenix . 2007 is often considered one of the greatest years for film in the 21st century . As of 2019 , this was the last year in which no film grossed at least $ 1 billion at the worldwide box office .",
    "/wiki/80th_Academy_Awards": "The 80th Academy Awards ceremony , presented by the Academy of Motion Picture Arts and Sciences ( AMPAS ) , honored the best films of 2007 and took place on February 24 , 2008 , at the Kodak Theatre in Hollywood , Los Angeles beginning at 5:30 p.m. PST / 8:30 p.m. EST . During the ceremony , AMPAS presented Academy Awards ( commonly referred to as Oscars ) in 24 categories . The ceremony was televised in the United States by ABC , and produced by Gil Cates and directed by Louis J , Horvitz . Actor Jon Stewart hosted the show for the second time , having previously presided over the 78th ceremony held in 2006 . Two weeks earlier in a gala at the Beverly Wilshire Hotel in Beverly Hills , California held on February 9 , the Academy Awards for Technical Achievement were presented by host Jessica Alba . No Country for Old Men won the most awards of the ceremony with four including Best Picture . Other winners included The Bourne Ultimatum with three awards , La Vie en Rose ( La m\u00f4me ) and There Will Be Blood with two awards , and Atonement , The Counterfeiters , Elizabeth : The Golden Age , Freeheld , The Golden Compass , Juno , Michael Clayton , The Mozart of Pickpockets , Once , Peter & the Wolf , Ratatouille , Sweeney Todd : The Demon Barber of Fleet Street , and Taxi to the Dark Side with one . The telecast garnered 31 million viewers , making it the least watched Oscar broadcast since 1974 , when Nielsen began keeping records of viewership .",
    "/wiki/Shadows_(2007_film)": "In Shadows ( Macedonian : \u0421\u0435\u043d\u043a\u0438 , Transliteration : Senki ) , the son of a reputable physician struggles to live up to other people 's expectations of him , until one day he is confronted by people who appear to die time and again . Written and directed by Academy-award nominated director Milcho Manchevski , this Macedonian-German-Italian-Spanish-Bulgarian co-production stars Borce Nacev , Vesna Stanojevska , Ratka Radmanovic , Salaetin Bilal and Petar Mircevski .",
    "/wiki/Mil\u010do_Man\u010devski": "Milcho Manchevski ( Macedonian : \u041c\u0438\u043b\u0447\u043e \u041c\u0430\u043d\u0447\u0435\u0432\u0441\u043a\u0438 [ \u02c8milt\u0361\u0283\u0254 \u02c8mant\u0361\u0283\u025bfski ] ( listen ) ) is a New York-based Macedonian-born film director , photographer and artist . His film Before the Rain was nominated for an Academy Award , and The New York Times included it in its Guide to the Best 1,000 Films Ever Made list . He has also made Dust , Shadows , Mothers , Bikini Moon and Willow on IMDb , and the shorts The End of Time , Thursday , Macedonia Timeless , Tennessee and 1.73 , as well as The Wire . Manchevski has authored two exhibitions of photographs , works of fiction , books of essays , and performance art . His work had more than 350 festival screenings ( including Venice , Berlin , Toronto , S\u00e3o Paulo , Istanbul , Tokyo , Jerusalem , Hong Kong , Stockholm , etc. ) . His films have been distributed in more than 50 countries . His work has been included in the curricula of numerous universities and has been the subject of two academic conferences ( in Firenza and Leipzig ) ; he holds an Honorary Doctorate from Moscow 's VGIK . He has taught and lectured at the Feirstein Graduate School at Brooklyn College , Tisch School of the Arts at New York University , VGIK in Moscow , EICTV in Cuba , London Film School , University of Texas at Austen , Chicago University , Cambridge University , Cineteca di Bologna , Shanghai University , etc .",
    "/wiki/2008_in_film": "The year 2008 involved many major movie events . Its highest-grossing films included The Dark Knight , Kung Fu Panda , WALL-E and Indiana Jones and the Kingdom of the Crystal Skull .",
    "/wiki/81st_Academy_Awards": "The 81st Academy Awards ceremony , presented by the Academy of Motion Picture Arts and Sciences ( AMPAS ) , honored the best films of 2008 and took place on February 22 , 2009 , at the Kodak Theatre in Hollywood , Los Angeles beginning at 5:30 p.m. PST / 8:30 p.m. EST . During the ceremony , the Academy of Motion Picture Arts and Sciences presented Academy Awards ( commonly referred to as Oscars ) in 24 categories . The ceremony was televised in the United States by ABC , and was produced by Bill Condon and Laurence Mark and directed by Roger Goodman . Actor Hugh Jackman hosted the show for the first time . Two weeks earlier in a ceremony at the Beverly Wilshire Hotel in Beverly Hills , California held on February 7 , the Academy Awards for Technical Achievement were presented by host Jessica Biel . Slumdog Millionaire won eight awards , the most of the evening , including Best Picture and Best Director for Danny Boyle . Other winners were The Curious Case of Benjamin Button with three awards , The Dark Knight and Milk with two awards , and Departures , The Duchess , La Maison en Petits Cubes , Man on Wire , The Reader , Smile Pinki , Toyland , Vicky Cristina Barcelona , and WALL-E with one . The telecast garnered almost 37 million viewers in the United States .",
    "/wiki/2009_in_film": "The year 2009 saw the release of many films . Seven made the top 50 list of highest-grossing films . Also in 2009 , the Academy of Motion Picture Arts and Sciences announced that as of that year , their Best Picture category would consist of ten nominees , rather than five ( the first time since the 1943 awards ) .",
    "/wiki/82nd_Academy_Awards": "The 82nd Academy Awards ceremony , presented by the Academy of Motion Picture Arts and Sciences ( AMPAS ) , honored the best films of 2009 and took place on March 7 , 2010 , at the Kodak Theatre in Hollywood , Los Angeles beginning at 5:30 p.m. PST / 8:30 p.m. EST . The ceremony was scheduled after its usual late-February date to avoid conflicting with the 2010 Winter Olympics . During the ceremony , the Academy of Motion Picture Arts and Sciences presented Academy Awards ( commonly referred to as Oscars ) in 24 categories . The ceremony was televised in the United States by ABC , and was produced by Bill Mechanic and Adam Shankman and directed by Hamish Hamilton . Actors Alec Baldwin and Steve Martin hosted the show . Martin hosted for the third time ; he first presided over the 73rd ceremony held in 2001 and last hosted the 75th ceremony held in 2003 . Meanwhile , this was Baldwin 's first Oscars hosting stint . This was also the first telecast to have multiple hosts since the 59th ceremony held in 1987 . On June 24 , 2009 , Academy president Sid Ganis announced at a press conference that , in an attempt to revitalize interest surrounding the awards , the 2010 ceremony would feature ten Best Picture nominees instead of five , a practice that was discontinued after the 16th ceremony in 1944 . On February 20 , 2010 , in a ceremony at the Beverly Wilshire Hotel in Beverly Hills , California , the Academy Awards for Technical Achievement were presented by host Elizabeth Banks . The Hurt Locker won six awards , including Best Picture and Best Director for Kathryn Bigelow , the first woman to win an Academy Award for Best Director . Other winners were Avatar with three awards , Crazy Heart , Precious : Based on the Novel 'Push ' by Sapphire , and Up , with two awards , and The Cove , Inglourious Basterds , The Blind Side , Logorama , Music by Prudence , The New Tenants , The Secret in Their Eyes , Star Trek , and The Young Victoria with one .",
    "/wiki/2010_in_film": "In the year 2010 , there was a dramatic increase and prominence in the use of 3D-technology in filmmaking after the success of Avatar in the format , with releases such as Alice in Wonderland , Clash of the Titans , Jackass 3D , all animated films , with numerous other titles being released in 3D formats . 20th Century Fox celebrated its 75th anniversary in 2010 .",
    "/wiki/83rd_Academy_Awards": "The 83rd Academy Awards ceremony , organized by the Academy of Motion Picture Arts and Sciences ( AMPAS ) , honored the best films of 2010 in the United States and took place on February 27 , 2011 , at the Kodak Theatre in Hollywood , Los Angeles beginning at 5:30 p.m. PST ( 8:30 p.m. EST ) . During the ceremony , Academy Awards ( commonly called the Oscars ) were presented in 24 competitive categories . The ceremony was televised in the United States by ABC , and produced by Bruce Cohen and Don Mischer , with Mischer also serving as director . Actors James Franco and Anne Hathaway co-hosted the ceremony , marking the first time for each . In related events , the Academy held its second annual Governors Awards ceremony at the Grand Ballroom of the Hollywood and Highland Center on November 13 , 2010 . On February 12 , 2011 , in a ceremony at the Beverly Wilshire Hotel in Beverly Hills , California , the Academy Awards for Technical Achievement were presented by host Marisa Tomei . Inception and The King 's Speech won four awards each with the latter film winning Best Picture . Other winners included The Social Network with three awards , Alice in Wonderland , The Fighter , and Toy Story 3 , with two awards , and Black Swan , God of Love , In a Better World , Inside Job , The Lost Thing , Strangers No More , and The Wolfman with one . The telecast garnered almost 38 million viewers in the United States .",
    "/wiki/Mothers_(2010_film)": "Mothers ( Macedonian : \u041c\u0430\u0458\u043a\u0438 / Majki ) is a 2010 film by Milcho Manchevski . The internationally co-produced film is notable for its innovative use of fiction and documentary . Manchevski attributes his experiment to his interest in the blurring lines between truth and fiction , drama and documentary . The three stories focus on three aspects of life in contemporary Republic of Macedonia ( a city , a small town and a deserted village ) . Mothers , whose motto is The Truth Hurts explores the nature of truth - all three stories ( two fiction and one documentary ) are based on real events , but only one - the most incredible - is told as documentary . This story examines the unsolved mystery of the Kichevo serial killer who murdered several retired cleaning women . A crime reporter who covered the stories was arrested , and two days later he was found dead with his head in a bucket of water . A suicide note was found in his cell . Mothers premiered at the Toronto Film Festival and had its European premiere in the Panorama section of the 61st Berlin International Film Festival .",
    "/wiki/2011_in_film": "The following is an overview of the events of 2011 in film , including the highest-grossing films , film festivals , award ceremonies and a list of films released and notable deaths . More film sequels were released in 2011 than any other year before it , with 28 sequels released . Film critic Scout Tafoya considers 2011 as the best year for cinema , countering the notion of 1939 being film 's best year overall and citing important developments in cinematic expression during 2011 .",
    "/wiki/84th_Academy_Awards": "The 84th Academy Awards ceremony , presented by the Academy of Motion Picture Arts and Sciences ( AMPAS ) , honored the best films of 2011 in the United States and took place on February 26 , 2012 , at the Hollywood and Highland Center Theatre [ a ] in Hollywood , Los Angeles beginning at 5:30 p.m. PST / 8:30 p.m. EST . During the ceremony , the Academy of Motion Picture Arts and Sciences presented Academy Awards ( commonly referred to as Oscars ) in 24 categories . The ceremony was televised in the United States by ABC , and produced by Brian Grazer and Don Mischer , with Mischer also serving as director . Actor Billy Crystal hosted the show for the ninth time . He first presided over the 62nd ceremony held in 1990 and had last hosted the 76th ceremony held in 2004 . On June 14 , 2011 , Academy president Tom Sherak announced at a press conference that , in an attempt to further revitalize interest surrounding the awards , the 2012 ceremony would feature between five and ten Best Picture nominees depending on voting results , as opposed to a set number of nominees . In related events , the Academy held its third annual Governors Awards ceremony at the Grand Ballroom of the Hollywood and Highland Center on November 12 , 2011 . On February 11 , 2012 , in a ceremony at the Beverly Wilshire Hotel in Beverly Hills , California , the Academy Awards for Technical Achievement were presented by host Milla Jovovich . The Artist won five awards , including Best Actor for Jean Dujardin , Best Director for Michel Hazanavicius , and Best Picture , the first silent feature to win an Academy Award for Best Picture since 1927 's Wings , the inaugural winner in 1929 . Other winners included Hugo also with five awards , The Iron Lady with two awards , and Beginners , The Descendants , The Fantastic Flying Books of Mr. Morris Lessmore , The Girl with the Dragon Tattoo , The Help , Midnight in Paris , The Muppets , Rango , Saving Face , A Separation , The Shore , and Undefeated with one . The telecast garnered more than 39 million viewers in the United States .",
    "/wiki/Punk's_Not_Dead_(2011_film)": "Punk 's Not Dead ( Macedonian : \u041f\u0430\u043d\u043a\u043e\u0442 \u043d\u0435 \u0435 \u043c\u0440\u0442\u043e\u0432 , translit . Pankot ne e mrtov ) is a 2011 Macedonian comedy film written and directed by Vladimir Blazevski . The film was selected as the Macedonian entry for the Best Foreign Language Film at the 84th Academy Awards , but it did not make the final shortlist .",
    "/wiki/2012_in_film": "The following tables list films released in 2012 . Most notably , the two oldest surviving American film studios , Universal and Paramount both celebrated their centennial anniversaries , marking the first time that two major film studios celebrate 100 years , and the Dolby Atmos sound format was launched for the premiere of Brave . The James Bond film series celebrated its 50th anniversary and released its 23rd film , Skyfall . Six box-office blockbusters from previous years ( Beauty and the Beast , Star Wars : Episode I - The Phantom Menace , Titanic , Raiders of the Lost Ark , Finding Nemo , and Monsters , Inc. ) were re-released in 3D and IMAX . Also 2012 in film marked the debut for high frame rate technology . The first film using 48 fps , a higher frame rate than the film industry standard 24 fps , was The Hobbit : An Unexpected Journey .",
    "/wiki/85th_Academy_Awards": "The 85th Academy Awards ceremony , presented by the Academy of Motion Picture Arts and Sciences ( AMPAS ) , honored the best films of 2012 and took place on February 24 , 2013 , at the Dolby Theatre in Hollywood , Los Angeles beginning at 5:30 p.m. PST / 8:30 p.m. EST . The ceremony was the first in the Academy 's 85-year history to adopt the phrase The Oscars as the ceremony 's official name during the broadcast and marketing . During the ceremony , the Academy of Motion Picture Arts and Sciences presented Academy Awards ( commonly referred to as Oscars ) in 24 categories . The ceremony was televised in the United States by ABC , and produced by Craig Zadan and Neil Meron and directed by Don Mischer . Actor Seth MacFarlane hosted the show for the first time . In related events , the Academy held its 4th annual Governors Awards ceremony at the Grand Ballroom of the Hollywood and Highland Center on December 1 , 2012 . On February 9 , 2013 , in a ceremony at The Beverly Hills Hotel in Beverly Hills , California , the Academy Awards for Technical Achievement were presented by hosts Chris Pine and Zoe Saldana . Life of Pi won four awards including Best Director for Ang Lee . Argo won three awards , including Best Picture , the fourth film to win an Academy Award for Best Picture without its director nominated . Other winners included Les Mis\u00e9rables also with three awards , Django Unchained , Lincoln , and Skyfall with two , and Amour , Anna Karenina , Brave , Curfew , Inocente , Paperman , Searching for Sugar Man , Silver Linings Playbook and Zero Dark Thirty with one . The telecast garnered more than 40 million viewers in the United States .",
    "/wiki/The_Third_Half": "The Third Half ( Macedonian : \u0422\u0440\u0435\u0442\u043e \u041f\u043e\u043b\u0443\u0432\u0440\u0435\u043c\u0435 [ \u02c8tr\u025bt\u0254 p\u0254\u02c8\u026buvr\u025bm\u025b ] ) is a Macedonian-Czech-Serbian film that deals with Macedonian football during World War II , and the deportation of Jews from Macedonia . It is a story of love during wartime and a country 's passion for soccer . The government of Macedonia considered the movie of national interest and funded it with one million euros . The film was inspired by the true story of the FC Macedonia football team . The Jewish coach Ill\u00e9s Spitz and Neta Koen ( current name Marija Mladenovska ) Mladenovska is a Macedonian Holocaust survivor . In 1998 the Shoah Foundation interviewed her .",
    "/wiki/2014_in_film": "The following is an overview of the events of 2014 in film , including the highest-grossing films , award ceremonies , festivals , and a list of films released and notable deaths .",
    "/wiki/87th_Academy_Awards": "The 87th Academy Awards ceremony , presented by the Academy of Motion Picture Arts and Sciences ( AMPAS ) , honored the best films of 2014 and took place on February 22 , 2015 , at the Dolby Theatre in Hollywood , Los Angeles beginning at 5:30 p.m. PST / 8:30 p.m. EST . During the ceremony , AMPAS presented Academy Awards ( commonly referred to as Oscars ) in 24 categories . The ceremony was televised in the United States by ABC , produced by Neil Meron and Craig Zadan and directed by Hamish Hamilton . Actor Neil Patrick Harris hosted the ceremony for the first time . In related events , the Academy held its 6th Annual Governors Awards ceremony at the Grand Ballroom of the Hollywood and Highland Center on November 8 , 2014 . On February 7 , 2015 , in a ceremony at the Beverly Wilshire Hotel in Beverly Hills , California , the Academy Awards for Technical Achievement were presented by hosts Margot Robbie and Miles Teller . Birdman or ( The Unexpected Virtue of Ignorance ) and The Grand Budapest Hotel each won four awards , with the former film earning the Best Picture honor . Other winners include Whiplash with three and American Sniper , Big Hero 6 , Boyhood , Citizenfour , Crisis Hotline : Veterans Press 1 , Feast , Ida , The Imitation Game , Interstellar , The Phone Call , Selma , Still Alice , and The Theory of Everything with one . The telecast garnered more than 37 million viewers in the United States .",
    "/wiki/To_the_Hilt_(film)": "To the Hilt : Story from the Wild East ( Macedonian : \u0414\u043e \u0431\u0430\u043b\u0447\u0430\u043a - \u041f\u0440\u0438\u043a\u0430\u0437\u043d\u0430 \u043e\u0434 \u0434\u0438\u0432\u0438\u043e\u0442 \u0438\u0441\u0442\u043e\u043a ) is a 2014 Macedonian action-adventure western style film directed by Stole Popov . The film takes place in Ottoman ruled Macedonia . The filming started in May , 2012 and scenes were shot in Bitola , Ohrid , Skopje , Demir Hisar , \u0160tip and Prilep . It premiered in Skopje , in October 2014 . It was selected as the Macedonian entry for the Best Foreign Language Film at the 87th Academy Awards , but was not nominated .",
    "/wiki/2015_in_film": "2015 in film is an overview of events , including the highest-grossing films , award ceremonies , festivals , and a list of films released and notable deaths .",
    "/wiki/88th_Academy_Awards": "The 88th Academy Awards ceremony , presented by the Academy of Motion Picture Arts and Sciences ( AMPAS ) , honored the best films of 2015 and took place on February 28 , 2016 , at the Dolby Theatre in Hollywood , Los Angeles , 5:30 p.m. PST . During the ceremony , AMPAS presented Academy Awards ( commonly referred to as Oscars ) in 24 categories . The ceremony , televised in the United States by ABC , was produced by David Hill and Reginald Hudlin and directed by Glenn Weiss . Actor Chris Rock hosted the show for the second time , having previously hosted the 77th ceremony held in 2005 . In related events , the Academy held its 7th Annual Governors Awards ceremony at the Grand Ballroom of the Hollywood and Highland Center on November 14 , 2015 . On February 13 , 2016 , in a ceremony at the Beverly Wilshire Hotel in Beverly Hills , California , the Academy Awards for Technical Achievement were presented by hosts Olivia Munn and Jason Segel . Spotlight won two awards including Best Picture , making it the first film since The Greatest Show On Earth to win Best Picture while only winning one other award and Mad Max : Fury Road won six awards , the most for the evening . The Revenant earned three awards including Best Director for Alejandro G. I\u00f1\u00e1rritu and Best Actor for Leonardo DiCaprio . Brie Larson won Best Actress for Room , while Mark Rylance and Alicia Vikander won supporting acting honors for Bridge of Spies and The Danish Girl , respectively . The telecast garnered 34.42 million viewers in the United States .",
    "/wiki/Honey_Night": "Honey Night ( Macedonian : \u041c\u0435\u0434\u0435\u043d\u0430 \u043d\u043e\u045c ) is a 2015 Macedonian drama film directed by Ivo Trajkov . The film was selected as the Macedonian entry for the Best Foreign Language Film at the 88th Academy Awards but it was not nominated .",
    "/wiki/2016_in_film": "2016 in film is an overview of events , including the highest-grossing films , award ceremonies , festivals , and a list of films released and deaths .",
    "/wiki/89th_Academy_Awards": "The 89th Academy Awards ceremony , presented by the Academy of Motion Picture Arts and Sciences ( AMPAS ) , honored the best films of 2016 , and took place on February 26 , 2017 , at the Dolby Theatre in Hollywood , Los Angeles , California , at 5:30 p.m. PST . During the ceremony , AMPAS presented Academy Awards ( commonly referred to as Oscars ) in 24 categories . The ceremony , televised in the United States by ABC , was produced by Michael De Luca and Jennifer Todd and directed by Glenn Weiss . Comedian Jimmy Kimmel hosted the ceremony for the first time . In related events , the Academy held its 8th Annual Governors Awards ceremony at the Grand Ballroom of the Hollywood and Highland Center on November 12 , 2016 . On February 11 , 2017 , in a ceremony at the Beverly Wilshire Hotel in Beverly Hills , California , the Academy Scientific and Technical Awards were presented by hosts John Cho and Leslie Mann . In the main ceremony , Moonlight won three awards including Best Picture , after La La Land was mistakenly announced as the winner , as well as Best Supporting Actor for Mahershala Ali . La La Land won six awards , the most for the evening , out of its record-tying fourteen nominations , including Best Actress for Emma Stone and Best Director for Damien Chazelle . Hacksaw Ridge and Manchester by the Sea won two awards each with Casey Affleck winning Best Actor for the latter . Viola Davis won the Best Supporting Actress honor for Fences . The telecast was viewed by 33 million people in the United States .",
    "/wiki/The_Liberation_of_Skopje_(2016_film)": "The Liberation of Skopje ( Macedonian : \u041e\u0441\u043b\u043e\u0431\u043e\u0434\u0443\u0432\u0430\u045a\u0435 \u043d\u0430 \u0421\u043a\u043e\u043f\u0458\u0435 , Osloboduvanje na Skopje ) is a 2016 Macedonian drama film directed by Rade \u0160erbed\u017eija and Danilo \u0160erbed\u017eija . The film was selected as the Macedonian entry for the Best Foreign Language Film at the 89th Academy Awards but it was not nominated .",
    "/wiki/Rade_\u0160erbed\u017eija": "Rade \u0160erbed\u017eija ( Serbian Cyrillic : \u0420\u0430\u0434\u0435 \u0428\u0435\u0440\u0431\u0435\u045f\u0438\u0458\u0430 , Serbo-Croatian pronunciation : [ r\u01ce\u02d0de \u0283erb\u011bd\u0292ija ] ; born 27 July 1946 ) , occasionally credited as Rade Sherbedgia in some English-language productions , is a Croatian actor , director and musician . He is known for his portrayals of imposing figures on both sides of the law . He was one of the most popular Yugoslav actors in the 1970s and 1980s . He is internationally known mainly for his supporting roles in Hollywood films such as Harry Potter and the Deathly Hallows : Part 1 , X-Men : First Class , The Saint , In the Land of Blood and Honey , Mission : Impossible 2 ; his role as Boris the Blade in Snatch ; and for his recurring role as former Soviet Army General Dmitri Gredenko in Season 6 of TV action series 24 .",
    "/wiki/Danilo_\u0160erbed\u017eija": "Danilo \u0160erbed\u017eija ( born 1971 ) is a Croatian film director . His debut feature film , 72 Days ( 2010 ) , was selected as the Croatian entry for the Best Foreign Language Film at the 84th Academy Awards , but it did not make the final shortlist . Danilo \u0160erbed\u017eija 's father is Rade \u0160erbed\u017eija , an ethnic Serb born in Croatia , and his sister is Lucija \u0160erbed\u017eija , both Croatian actors .",
    "/wiki/2018_in_film": "2018 in film is an overview of events , including the highest-grossing films , award ceremonies , critics ' lists of the best films of 2018 , festivals , a list of films released and notable deaths .",
    "/wiki/91st_Academy_Awards": "The 91st Academy Awards ceremony , presented by the Academy of Motion Picture Arts and Sciences ( AMPAS ) , honored the best films of 2018 , and took place at the Dolby Theatre in Hollywood , Los Angeles , California . The ceremony was held on February 24 , 2019 . During the ceremony , AMPAS presented Academy Awards ( commonly referred to as Oscars ) in 24 categories . The ceremony was televised in the United States by the American Broadcasting Company ( ABC ) , produced by Donna Gigliotti and Glenn Weiss , with Weiss also serving as director . It was the first ceremony in three decades , since the 61st Academy Awards in 1989 , to be conducted without a host . In related events , the Academy held its 10th Annual Governors Awards ceremony at the Grand Ballroom of the Hollywood and Highland Center on November 18 , 2018 . The Academy Scientific and Technical Awards were presented by host David Oyelowo on February 9 , 2019 , in a ceremony at the Beverly Wilshire Hotel in Beverly Hills . Green Book won three awards , including Best Picture , and Bohemian Rhapsody led the ceremony with four awards , including Best Actor for Rami Malek 's portrayal of Freddie Mercury . Roma and Black Panther also received three awards apiece , with the former winning Best Director for Alfonso Cuar\u00f3n and becoming the first Mexican submission to win Best Foreign Language Film . Olivia Colman was awarded Best Actress for portraying Anne , Queen of Great Britain in The Favourite . With a U.S. viewership of 29.6 million , it marked a 12% increase over the 2018 ceremony , but still ranks amongst the least watched ceremonies .",
    "/wiki/Secret_Ingredient": "Secret Ingredient is a 2017 Macedonian black comedy film directed by Gjorce Stavreski . It was selected as the Macedonian entry for the Best Foreign Language Film at the 91st Academy Awards , but it was not nominated .",
    "/wiki/2019_in_film": "2019 in film is an overview of events , including the highest-grossing films , award ceremonies , critics ' lists of the best films of 2019 , festivals , a list of country-specific lists of films released , and notable deaths .",
    "/wiki/92nd_Academy_Awards": "The 92nd Academy Awards ceremony , presented by the Academy of Motion Picture Arts and Sciences ( AMPAS ) , honored the best films of 2019 , and took place at the Dolby Theatre in Hollywood , Los Angeles , California . After more than a decade of holding the Academy Award ceremonies towards the end of February , the 92nd Academy Awards took place earlier in the month , on February 9 , 2020 . During the ceremony , AMPAS presented Academy Awards ( commonly referred to as Oscars ) in 24 categories . The ceremony was televised in the United States by ABC , produced by Lynette Howell Taylor and Stephanie Allain ; it was directed by Glenn Weiss . Citing the success of the format at the 91st presentation in 2019 , ABC announced that the ceremony would again be conducted without a host . In related events , the Academy held its 11th Annual Governors Awards ceremony at the Grand Ballroom of the Hollywood and Highland Center on October 27 , 2019 . The South Korean film Parasite led the ceremony with four awards , including Best Director for Bong Joon-ho and Best Picture , becoming the first non-English language film to do so , as well as the first South Korean submission to win Best International Feature Film . The war film 1917 won three awards , while Ford v Ferrari , Joker , and Once Upon a Time in Hollywood won two awards each . American Factory , Bombshell , Hair Love , Jojo Rabbit , Judy , Learning to Skateboard in a Warzone ( If You 're a Girl ) , Little Women , Marriage Story , The Neighbors ' Window , Rocketman , and Toy Story 4 won one Oscar each .",
    "/wiki/Honeyland_(2019_film)": "Honeyland ( Macedonian : \u041c\u0435\u0434\u0435\u043d\u0430 \u0437\u0435\u043c\u0458\u0430 , transliterated : Medena zemja ) is a 2019 Macedonian documentary film directed by Tamara Kotevska and Ljubomir Stefanov . It portrays the life of Hatid\u017ee Muratova , a beekeeper in the remote mountainous village of Bekirlija , North Macedonia and follows her lifestyle and the changes therein after the arrival of a nomad family in the neighbouring house . Originally intended as a government-supported documentary short about the region surrounding river Bregalnica in the central region of the country , the documentary 's area of focus changed course upon the encounter between the filming team and Muratova . Honeyland received its world premiere at the 2019 Sundance Film Festival on 28 January . Filming of Honeyland lasted for three years , with the directors collecting a total of four hundred hours of footage . Several environmental topics are explored in the documentary such as climate change , biodiversity loss and exploitation of natural resources . Two different ideologies are contrasted with the documentary 's main protagonists , namely humanity 's balance with the ecosystem portrayed through Muratova and consumerism and resource depletion portrayed through her neighbours . The main focus of the directors when filming were the visuals and during the editing process , the audio track was not used . As such , Honeyland contains elements of several documentary styles , including fly on the wall , direct cinema and cin\u00e9ma v\u00e9rit\u00e9 . The documentary also portrays the protagonist 's relationship with her bed-ridden mother and her neighbors . Honeyland received widespread and universal critical acclaim from film critics who praised its attention to visual details and the universal message of nature conservation . The documentary also received numerous prizes at award shows in Europe and the United States .",
    "/wiki/Tamara_Kotevska": "Tamara Kotevska ( Macedonian : \u0422\u0430\u043c\u0430\u0440\u0430 \u041a\u043e\u0442\u0435\u0432\u0441\u043a\u0430 ; born 9 August 1993 ) is a Macedonian filmmaker best known her 2019 documentary Honeyland . Together with Ljubomir Stefanov , Kotevska spent three years in North Macedonia filming the documentary about a female wild beekeeper , Hatidze . The film was originally going to be a documentary short about the Bregalnica river region when they came across the beekeeper . Kotevska and Stefanov previously worked together on another documentary , Lake of Apples ( 2017 ) . Honeyland won three awards at the 2019 Sundance Film Festival and received two nominations at the 92nd Academy Awards : Best Documentary Feature and Best International Feature Film . It is the second Macedonian film to earn an Oscar nomination after Before the Rain ( 1994 ) . Kotevska was born in Prilep , Republic of Macedonia ( now North Macedonia ) . She earned a scholarship to study abroad in Tennessee for her junior year in high school . She graduated from the Faculty of Dramatic Arts at the Sts . Cyril and Methodius University in Skopje , with an emphasis in documentary film ."
  }
}