{
  "List_of_U.S._communities_where_English_is_not_the_majority_language_spoken_at_home_3": {
    "/wiki/Cyr_Plantation,_Maine": "Cyr Plantation is a plantation in Aroostook County , Maine , United States . The population was 103 at the 2010 census .",
    "/wiki/Plantation_(Maine)": "In the U.S. state of Maine , a plantation is a type of minor civil division falling between township ( or unorganized territory ) and town . The term , as used in this sense in modern times , appears to be exclusive to Maine . Plantations are typically found in sparsely populated areas .",
    "/wiki/Aroostook_County,_Maine": "Aroostook County ( French : Comt\u00e9 d'Aroostook ) ( /\u0259\u02c8ru\u02d0st\u0259k/ \u0259-ROOS-t\u0259k ) is a county in the U.S. state of Maine along the Canada-U.S. border . As of the 2010 census , the population was 71,870 . Its seat is Houlton with offices in Caribou and Fort Kent . Known locally in Maine as The County , it is the largest American county by land area east of the Rocky Mountains ( St. Louis County , Minnesota , is larger by total area ) and the largest county by area in Maine , as well as in New England . As Maine 's northernmost county , its northernmost village , Estcourt Station , is therefore also the northernmost community in New England and in the contiguous United States east of the Great Lakes . Aroostook County is known for its potato crops , as well as its Acadian culture . In the Saint John Valley in the northern part of the county , which borders Madawaska County , New Brunswick , many of the residents are bilingual in English and Acadian French . Elsewhere in Maine , New England French is the predominant form of French spoken ( apart from standard French ) . The county is also an emerging hub for wind power .",
    "/wiki/French_language": "French ( le fran\u00e7ais [ l\u0259 f\u0281\u0251\u0303s\u025b ] or la langue fran\u00e7aise [ la l\u0251\u0303\u0261 f\u0281\u0251\u0303s\u025b\u02d0z ] ) is a Romance language of the Indo-European family . It descended from the Vulgar Latin of the Roman Empire , as did all Romance languages . French evolved from Gallo-Romance , the spoken Latin in Gaul , and more specifically in Northern Gaul . Its closest relatives are the other langues d'o\u00efl - languages historically spoken in northern France and in southern Belgium , which French ( Francien ) has largely supplanted . French was also influenced by native Celtic languages of Northern Roman Gaul like Gallia Belgica and by the ( Germanic ) Frankish language of the post-Roman Frankish invaders . Today , owing to France 's past overseas expansion , there are numerous French-based creole languages , most notably Haitian Creole . A French-speaking person or nation may be referred to as Francophone in both English and French . French is an official language in 29 countries across multiple continents , most of which are members of the Organisation internationale de la Francophonie ( OIF ) , the community of 84 countries which share the official use or teaching of French . It is spoken as a first language ( in descending order of the number of speakers ) in France , the Canadian provinces of Quebec , Ontario and New Brunswick as well as other Francophone regions , Belgium ( Wallonia and the Brussels-Capital Region ) , western Switzerland ( cantons of Bern , Fribourg , Geneva , Jura , Neuch\u00e2tel , Vaud , Valais ) , Monaco , partly in Luxembourg , the states of Louisiana , Maine , New Hampshire and Vermont in the United States , and in northwestern Italy ( region of Aosta Valley ) , and by various communities elsewhere . In 2015 , approximately 40% of the francophone population ( including L2 and partial speakers ) lived in Europe , 35% in sub-Saharan Africa , 15% in North Africa and the Middle East , 8% in the Americas , and 1% in Asia and Oceania . French is the fourth most widely spoken mother tongue in the European Union . Of Europeans who speak other languages natively , approximately one-fifth are able to speak French as a second language .",
    "/wiki/Fort_Kent,_Maine": "Fort Kent is a town in Aroostook County , Maine , United States . The population was 4,097 in the 2010 census . Fort Kent is home to an Olympic biathlete training center , an annual CAN-AM dogsled race , and the Fort Kent Blockhouse , built in reaction to the Aroostook War and in modern times designated a national historic site . Principal industries include agriculture ( particularly potatoes and forestry ) and textiles . Fort Kent is the northern terminus of U.S. 1 and the ending point of the Northern Forest Canoe Trail .",
    "/wiki/New_England_town": "The New England town , generally referred to in New England simply as a town , is the basic unit of local government and local division of state authority in each of the six New England states and without a direct counterpart in most other U.S. states . New England towns overlay the entire area of a state , similar to civil townships in other states where they exist , but they are fully functioning municipal corporations , possessing powers similar to cities in other states . New Jersey 's system of equally powerful townships , boroughs , towns , and cities is the system which is most similar to that of New England . New England towns are often governed by a town meeting legislative body . The great majority of municipal corporations in New England are based on the town model ; statutory forms based on the concept of a compact populated place are uncommon , though they are prevalent elsewhere in the U.S. County government in New England states is typically weak at best , and in some states nonexistent . Connecticut , for example , has no county governments , nor does Rhode Island . Both of those states retain counties only as geographic subdivisions with no governmental authority , while Massachusetts has abolished eight of fourteen county governments so far . With few exceptions , counties serve mostly as dividing lines for the states ' judicial systems .",
    "/wiki/Fort_Kent_(CDP),_Maine": "Fort Kent is a census-designated place ( CDP ) that comprises the main village in the town of Fort Kent in Aroostook County , Maine . In 2010 Fort Kent 's population was 2,488 of 4,097 for the entire town .",
    "/wiki/Census-designated_place": "A census-designated place ( CDP ) is a concentration of population defined by the United States Census Bureau for statistical purposes only . CDPs have been used in each decennial census since 1980 as the counterparts of incorporated places , such as self-governing cities , towns , and villages , for the purposes of gathering and correlating statistical data . CDPs are populated areas that generally include one officially designated but currently unincorporated community , for which the CDP is named , plus surrounding inhabited countryside of varying dimensions and , occasionally , other , smaller unincorporated communities as well . CDPs include small rural communities , colonias located along the Mexico-United States border , and unincorporated resort and retirement communities and their environs . The boundaries of a CDP have no legal status and may not always correspond with the local understanding of the area or community with the same name . However , criteria established for the 2010 Census require that a CDP name be one that is recognized and used in daily communication by the residents of the community ( not a name developed solely for planning or other purposes ) and recommend that a CDP 's boundaries be mapped based on the geographic extent associated with inhabitants ' regular use of the named place . The Census Bureau states that census-designated places are not considered incorporated places and that it includes only census-designated places in its city population list for Hawaii because that state has no incorporated cities . In addition , census city lists from 2007 included Arlington County , Virginia 's CDP in the list with the incorporated places , but since 2010 , only the Urban Honolulu CDP , Hawaii representing the historic core of Honolulu , Hawaii , is shown in the city and town estimates .",
    "/wiki/Frenchville,_Maine": "Frenchville ( ) is a town in Aroostook County , Maine , United States . The population was 1,087 at the 2010 census : 80 percent are habitual speakers of French , aided by its proximity to French-speaking Quebec and New Brunswick in Canada . The town is home to the general aviation airport Northern Aroostook Regional Airport , Frenchville Railroad Station and Water Tank , and Corriveau Mill .",
    "/wiki/Grand_Isle,_Maine": "Grand Isle is a town in Aroostook County , Maine , United States . The population was 467 at the 2010 census .",
    "/wiki/Hamlin,_Maine": "Hamlin is a town in Aroostook County , Maine , United States . It is located on the Canada-US border with a border crossing into Grand Falls , New Brunswick and is the closest continental location to Europe in the United States . The population was 219 at the 2010 census .",
    "/wiki/Madawaska,_Maine": "Madawaska is a town in Aroostook County , Maine , United States . The population was 4,035 at the 2010 census . Madawaska is opposite Edmundston , Madawaska County in New Brunswick , Canada , to which it is connected by the Edmundston-Madawaska Bridge over the Saint John River . The majority of its residents speak French ; 83.4% of the population speak French at home . Home of a large annual Acadian festival , Madawaska is the northernmost town in New England .",
    "/wiki/Madawaska_(CDP),_Maine": "Madawaska is a census-designated place ( CDP ) comprising the main village within the town of Madawaska in Aroostook County , Maine , United States . The population of the CDP was 2,967 at the 2010 census , out of a population of 4,035 for the entire town .",
    "/wiki/Passamaquoddy_Pleasant_Point_Reservation": "Passamaquoddy Pleasant Point Reservation , in Malecite-Passamaquoddy , is one of two Indian reservations of the federally recognized Passamaquoddy tribe in Washington County , Maine , United States . The population was 749 at the 2010 census . They also have the Indian Township Reservation , located near Calais , Maine .",
    "/wiki/List_of_Indian_reservations_in_the_United_States": "This is a list of Indian reservations and other tribal homelands in the United States . In Canada , the Indian reserve is a similar institution .",
    "/wiki/Washington_County,_Maine": "Washington County is a county located in the U.S. state of Maine . As of the 2010 census , its population was 32,856 , making it the third-least populous county in Maine . Its county seat is Machias . The county was established on June 25 , 1789 . It borders the Canadian province of New Brunswick . It is sometimes referred to as Sunrise County because it includes the easternmost point in the United States , and claims have been made that Washington County is where the sun first rises on the 48 contiguous states . Many small seaside communities have small-scale fishing-based economies . Tourism is also important along the county 's shoreline , but it is not as important as elsewhere in the state . The blueberry crop plays a major role in the county 's economy .",
    "/wiki/Malecite-Passamaquoddy_language": "Malecite-Passamaquoddy ( also known as Maliseet-Passamaquoddy ) is an endangered Algonquian language spoken by the Maliseet and Passamaquoddy peoples along both sides of the border between Maine in the United States and New Brunswick , Canada . The language consists of two major dialects : Malecite , which is mainly spoken in the Saint John River Valley in New Brunswick ; and Passamaquoddy , spoken mostly in the St. Croix River Valley of eastern Maine . However , the two dialects differ only slightly , mainly in accent . Malecite-Passamaquoddy was widely spoken by the indigenous people in these areas until around the post-World War II era , when changes in the education system and increased marriage outside of the speech community caused a large decrease in the number of children who learned or regularly used the language . As a result , in both Canada and the U.S. today , there are only 600 speakers of both dialects , and most speakers are older adults . Although the majority of younger people can not speak the language ( particularly the Passamaquoddy dialect ) , there is growing interest in teaching the language in community classes and in some schools .",
    "/wiki/St._Agatha,_Maine": "St. Agatha ( English : [ se\u026an a\u02c8\u0261a\u0294 ] ; French : [ s\u1ebd\u026a\u0303t\u203fagat ] ) is a town in Aroostook County , Maine , United States . The population was 747 at the 2010 census .",
    "/wiki/St._Francis,_Maine": "St. Francis is a town in Aroostook County , Maine , United States on the Canada-United States border at the junction of the St. Francis River and the Saint John River . The population was 485 at the 2010 census . First settled by English speakers from southern Maine , the original population has been supplanted by French-speaking Acadians .",
    "/wiki/Van_Buren,_Maine": "Van Buren is a town on the Saint John River in Aroostook County , Maine , United States ; located across from Saint-Leonard , New Brunswick , Canada . The population was 2,171 at the 2010 census . It is named after U.S. President Martin Van Buren .",
    "/wiki/Van_Buren_(CDP),_Maine": "Van Buren is a census-designated place ( CDP ) comprising the main village within the town of Van Buren in Aroostook County , Maine , United States . The population of the CDP was 1,937 at the 2010 census , out of a population of 2,171 for the entire town .",
    "/wiki/Wallagrass,_Maine": "Wallagrass is a town in Aroostook County , Maine , United States . The population was 546 at the 2010 census ."
  },
  "List_of_international_television_series_premieres_on_Australian_television_in_2008_0": {
    "/wiki/Skins_(British_TV_series)": "Skins is a British teen comedy-drama television series that follows the lives of a group of teenagers in Bristol , South West England , through the two years of sixth form . Its controversial story-lines have explored issues like dysfunctional families , mental illness ( such as depression , eating disorders , post-traumatic stress disorder and bipolar disorder ) , adolescent sexuality , gender , substance abuse , Autism spectrum disorder , death , and bullying . Each episode generally focuses on a particular character and the struggles they face in their life and the episodes are named after the featured character . The show was created by father-and-son television writers Bryan Elsley and Jamie Brittain for Company Pictures , and premiered on E4 on 25 January 2007 . Skins went on to be a critical success as well as a ratings winner . Over its initial six-year run , Skins proved to be atypical of ongoing drama series in that it replaced its primary cast every two years . Plans for a film spin-off were first discussed in 2009 , but ultimately did not come to fruition . Instead , a specially-commissioned seventh and final series of the show was broadcast in 2013 , featuring some of the cast from its 2007-2010 run . The show 's name comes from the cigarette rolling papers known as skins . Other ventures to expand the brand have included a short-lived American remake , which aired on MTV in 2011 , but was cancelled after one season after advertisers abandoned the series in response to low ratings and the significant controversy which arose over its depiction of teen sexuality .",
    "/wiki/SBS_(Australian_TV_channel)": "SBS is a national public television network in Australia . Launched on 24 October 1980 , it is the responsibility of SBS 's television division , and is available nationally . In 2018 , SBS had a 7.9% audience share .",
    "/wiki/Burn_Notice": "Burn Notice is an American television series created by Matt Nix , which originally aired on the USA Network for a total of seven seasons from June 28 , 2007 , to September 12 , 2013 . The show stars Jeffrey Donovan , Gabrielle Anwar , Bruce Campbell , Sharon Gless , and beginning in season four , Coby Bell .",
    "/wiki/Network_10": "Network 10 ( commonly known as Channel 10 or simply 10 ) is an Australian commercial television network . One of five national free-to-air networks , 10 's owned-and-operated stations can be found in the state capital cities of Sydney , Melbourne , Brisbane , Adelaide and Perth , while affiliates extend the network to regional areas of the country . The network is owned by Ten Network Holdings , which in-turn is owned by ViacomCBS . As of 2019 , Network 10 is the third rated television network and primary channel in Australia , behind the Nine Network , the Seven Network ahead of the ABC and SBS .",
    "/wiki/My_Friends_Tigger_&_Pooh": "My Friends Tigger & Pooh is an American computer-animated children 's television series inspired by A . A. Milne 's Winnie-the-Pooh . The series was developed by Walt Disney Television Animation , and was executive produced by Brian Hohlfeld .",
    "/wiki/Seven_Network": "The Seven Network ( commonly known as Channel Seven or simply Seven ) is a major Australian commercial free-to-air television network . It is owned by Seven West Media Limited , and is one of five main free-to-air television networks in Australia . Channel Seven 's head office is in Sydney . As of 2019 , the Seven Network is the second-highest rated television network and primary channel in Australia , behind the Nine Network and ahead of Network 10 , the ABC and SBS . The Seven Network is the broadcaster of popular franchises and programs , including the AFL , the Cricket , the Olympics , Sunrise , My Kitchen Rules , Big Brother Australia , The Chase Australia , Australia 's Got Talent , House Rules , Home and Away , Better Homes & Gardens and Seven News . In 2011 the Seven Network won all 40 out of 40 weeks of the ratings season for total viewers . Seven is the first to achieve this since the introduction of the OzTAM ratings system in 2001 . As of 2014 , it is the second largest network in the country in terms of population reach .",
    "/wiki/Samantha_Who?": "Samantha Who ? is an American television sitcom that originally aired on ABC from October 15 , 2007 to July 23 , 2009 . The series was created by Cecelia Ahern and Don Todd , who also served as producers . Although highly rated during its first season , the sitcom lost momentum and viewers throughout its second season , and ABC canceled the show in May 2009 before the remaining seven episodes were burned off the 2008-09 TV schedule . The series was produced by Brillstein Entertainment Partners and Touchstone Television partnered with ABC Studios and executive produced by Christina Applegate , Donald Todd , Peter Traugott , Bob Kushell , Alex Reid , and Marco Pennette .",
    "/wiki/Monarchy_(TV_series)": "Monarchy is a Channel 4 British TV series , 2004-2006 , by British academic David Starkey of Sandbach , Cheshire , charting the political and ideological history of the English monarchy from the Saxon period to modern times . The show also aired on PBS stations throughout the United States , courtesy of PBS-member station WNET . In Australia , all four seasons were broadcast on ABC1 from May 2005 onwards .",
    "/wiki/Nine_Network": "The Nine Network ( commonly known as Channel Nine or simply Nine ) is a major Australian commercial free-to-air television network , that is a division of Nine Entertainment Co. with headquarters in Willoughby , a suburb located on the North Shore of Sydney , Australia . The Nine Network is one of five main free-to-air commercial networks in Australia . As of 2019 , the Nine Network is the highest-rating television network in Australia , ahead of the Seven Network , Network 10 , ABC , and SBS . Since 2017 , the network 's slogan has been We Are the One .",
    "/wiki/Milly,_Molly": "Milly , Molly is a series of New Zealand children 's books by Gill Pittar . It is about the adventures of two little girls from different ethnic backgrounds , and the books promote the acceptance of diversity and the learning of life skills . There is an animated television series based on the books .",
    "/wiki/ABC1": "ABC ( formerly known as The ABC National Television Service or ABC-TV from 1956 until 2008 , and as ABC1 from 2008 until 2014 ) is a national public television network in Australia . Launched on 5 November 1956 it is the responsibility of the ABC 's television division , and is available nationally . The ABC 's headquarters is in Ultimo , an inner-city suburb of Sydney , New South Wales .",
    "/wiki/Little_Britain": "Little Britain is a British sketch comedy , first appearing as a radio series between 2000 and 2002 and then as a television series between 2003 and 2020 . It was written and performed by comic duo David Walliams and Matt Lucas . Financed by the BBC , the radio series was first broadcast on BBC Radio 4 , with the initial two television series premiering on BBC 3 and the fourth and final series on BBC 1 . The programme consists of a series of sketches involving exaggerated parodies of British people from various walks of life . Each sketch was introduced by a voice-over narration ( Tom Baker ) suggesting that the programme was a guide - aimed at non-British people - to British society . Despite the narrator 's description of great British institutions , the comedy arises from the British audience 's self-deprecating understanding of either themselves or of people known to them . Recurring characters included Andy Pipkin , who falsely presented himself as being wheelchair bound to gain the attention of his carer , Lou Todd ; Daffyd Thomas , who claims to be the only gay in the village despite much evidence to the contrary ; and Vicky Pollard , presented as a working-class chav engaging in anti-social behaviour . The programme 's title is an amalgamation of the terms Little England and Great Britain . The programme 's title is in part an elaboration of the term Little England ( er ) : a reference to narrow-mindedness and complacent insularity - as exhibited , to humorous effect , by many of the ( recurring ) subjects of the sketches . The programme was a huge ratings success , receiving 9.5 million viewers following its move to BBC One in 2005 . It spurred a live show which toured internationally between 2005 and 2007 , various specials for the Comic Relief charity marathons , and the HBO-produced Little Britain USA spin-off in 2008 . Walliams and Lucas followed Little Britain with another sketch show , Come Fly With Me .",
    "/wiki/Kitchen_Nightmares": "Kitchen Nightmares is an American reality television series formerly broadcast on the Fox network , in which chef Gordon Ramsay is invited by the owners to spend a week with a failing restaurant in an attempt to revive the business . It is based on the British show Ramsay 's Kitchen Nightmares . The show premiered Wednesday September 19 , 2007 . On June 23 , 2014 , Ramsay announced that he was ending the series . In June 2018 , Gordon Ramsay 's 24 Hours to Hell and Back , a new series with a premise much like Kitchen Nightmares but a shorter timeline , premiered on Fox .",
    "/wiki/Suburban_Secrets": "Suburban Secrets is a 2007 American non-fiction television series created by truTV . It is produced by Sirens Media . The show is described as being a cross between City Confidential and Desperate Housewives . Some cities that the show has documented : Notable cases documented :",
    "/wiki/Dirty_Sexy_Money": "Dirty Sexy Money is an American prime time drama series created by Craig Wright . It ran on ABC from September 26 , 2007 , to August 8 , 2009 . The series was produced by ABC Studios , Bad Hat Harry Productions , Berlanti Television and Gross Entertainment . Wright served as an executive producer alongside Greg Berlanti , Bryan Singer , Matthew Gross , Peter Horton , and Josh Reims , with Melissa Berman producing . The series revolves around lawyer and family man Nick George , portrayed by Peter Krause . When Nick 's father mysteriously dies in a plane crash , he agrees to take his position as the Darling family 's lawyer , while trying to discover who committed the murder . The Darlings , the richest family in New York , constantly rely on Nick to solve their problems . Nick struggles to balance his morals and family life while dealing with the demands of the Darlings .",
    "/wiki/Legend_of_the_Dragon_(TV_series)": "Legend of the Dragon is an animated series consisting of 26 episodes followed by 13 additional episodes for a total of 39 episodes . It is produced by BKN and premiered in October 2006 as part of the Jetix block on Toon Disney . Subsequently , the two-part premiere , Trial by Fire was shown as a Jetix Blockbuster on ABC Family in August before all Jetix programming moved to Toon Disney . In the UK , the first 26 episodes have aired across CBBC . It premiered in Summer 2005 on the CBBC channel . The last thirteen episodes of the show aired in Australia on Network Ten 's Toasted TV from 19 March 2008 and ended in 2012 .",
    "/wiki/Terminator:_The_Sarah_Connor_Chronicles": "Terminator : The Sarah Connor Chronicles ( sometimes abbreviated as Terminator : TSCC or simply TSCC ) is an American science fiction television series that aired on Fox from January 2008 to April 2009 . The show was produced by Warner Bros. Television , and C2 Pictures ( C2 Pictures was replaced by The Halcyon Company in season two ) . It is a spin-off from the Terminator series of films . It revolves around the lives of the fictional characters Sarah and John Connor , following the events of Terminator 2 : Judgment Day . The series premiered on Sunday , January 13 , 2008 , on the U.S. television network Fox . Production for the series was provided by the Judgment Day and Rise of the Machines producers and C2 Pictures , Sony Pictures Entertainment ( International ) co-presidents Mario Kassar and Andrew G. Vajna , C2 Senior Vice President James Middleton , David Nutter and Josh Friedman , who not only served as executive producer but also wrote the script for the first two episodes . The show opened mid-season with a shortened run of nine episodes , January through March 2008 . It was the highest-rated new scripted series of the 2007-08 television season and was renewed for a second season , which began on September 8 , 2008 , and ended April 10 , 2009 ( the same year Warner Bros. and the Halcyon Company produced McG 's Terminator Salvation ) . On May 18 , 2009 , despite fan efforts , Fox Entertainment president Kevin Reilly announced Fox would not renew the show for a third season .",
    "/wiki/Women's_Murder_Club_(TV_series)": "Women 's Murder Club is an American police procedural and legal drama , which aired on ABC from October 12 , 2007 , to May 13 , 2008 . The series is set in San Francisco , California , and is based on the series of novels by the same name written by James Patterson . Series creators Elizabeth Craft and Sarah Fain also served as executive producers alongside Patterson , Joe Simpson , Brett Ratner , and R. Scott Gemmill . The latter also served as showrunner , with Gretchen J. Berg and Aaron Harberts co-executive producing . The pilot was directed by Scott Winant . Produced by 20th Century Fox Television , the series first aired on Friday nights at 9:00PM Eastern/8:00PM Central . On October 31 , 2007 , ABC ordered an additional three scripts . On March 31 , 2008 , it was announced that Women 's Murder Club would return with three new episodes , beginning on Tuesday April 29 , 2008 , at 10:00PM Eastern/9:00PM Central , replacing Boston Legal . On May 12 , 2008 , ABC confirmed that the series would not return for a second season .",
    "/wiki/Back_to_You_(TV_series)": "Back to You is an American sitcom which aired on Fox from September 19 , 2007 , to May 14 , 2008 . The creators and executive producers were Christopher Lloyd and Steven Levitan , and the director was James Burrows . The series starred Kelsey Grammer and Patricia Heaton as squabbling anchors of a news program .",
    "/wiki/Lewis_(TV_series)": "Lewis is a British television detective drama produced for ITV . It is a spin-off from Inspector Morse and , like that series , it is set in Oxford . Kevin Whately reprises his character Robert Robbie Lewis , who was Morse 's sergeant in the original series . Lewis has now been promoted to detective inspector and is assisted by DS James Hathaway , portrayed by Laurence Fox , who was promoted to inspector before the seventh series . The series also stars Clare Holman as forensic pathologist Dr. Laura Hobson , likewise reprising her role from Inspector Morse and from the seventh season , Angela Griffin as DS Lizzie Maddox . On 2 November 2015 , ITV announced that the show would end after its ninth series , following the decision made by Kevin Whately and Laurence Fox to retire from their roles in the series . Whately announced that the show had gone on long enough , with his character having done many stories between Morse and Lewis after he took on the role 30 years ago .",
    "/wiki/Rules_of_Engagement_(TV_series)": "Rules of Engagement is an American sitcom television series that ran on CBS from February 5 , 2007 , to May 20 , 2013 , originally airing as a mid-season replacement . The series was produced by Adam Sandler 's Happy Madison Productions in association with CBS Television Studios and Sony Pictures Television ( SPT controls the North American rights while CBS controls the international rights ) . Although the show received negative reviews throughout its run , it always earned reasonably good ratings , helping the show reach 100 episodes ( typically the minimum needed for syndication ) over seven seasons .",
    "/wiki/Shrink_Rap_(TV_series)": "Shrink Rap is a British television series hosted by clinical psychologist Dr Pamela Stephenson in which she interviews various celebrities using psychotherapeutic techniques . The show focuses on relating various childhood experiences and traumas to the adult difficulties of the celebrities . While quasi-therapeutic in approach , the interviewees were briefed that the conversations were interviews and not strictly therapy . The programme premi\u00e8red on More4 on 2 April 2007 and was aired in Australia on ABC2 in 2008 .",
    "/wiki/ABC_Comedy": "ABC Comedy is an Australian free-to-air television channel that was launched on 7 March 2005 as ABC2 ; it is owned by the Australian Broadcasting Corporation . The channel broadcasts a range of comedy supplemented with repeats of popular ABC TV programmes . Between the hours of 5am and 7.30pm daily the channel 's bandwidth is used for the ABC Kids channel for young children . It was announced by the ABC that on 4 December 2017 , ABC2 would be rebranded as ABC Comedy , ending the use of the ABC2 name after 12 years .",
    "/wiki/That_Mitchell_and_Webb_Look": "That Mitchell and Webb Look is a British sketch comedy television show starring David Mitchell and Robert Webb . As well as Mitchell and Webb themselves , the writers include Jesse Armstrong , James Bachman , Sam Bain , Mark Evans , Olivia Colman , Joel Morris , John Finnemore , and others . It was produced by Gareth Edwards . Colman , Bachman , and Evans were also members of the cast , alongside Gus Brown , Sarah Hadland , Daniel Kaluuya and Paterson Joseph . The first two series were directed by David Kerr , and the third and fourth series were directed by Ben Gosling Fuller . Many of its characters and sketches were first featured in the duo 's radio show That Mitchell and Webb Sound . First aired on 14 September 2006 , a second series was commissioned later that same year and shown between 21 February and 27 March 2008 . The third series began on 11 June 2009 . Since the second series , the production has also been broadcast on BBC HD . The first series won a BAFTA award in 2007 . The third series started airing on BBC America on 14 April 2010 . The fourth series premiered on BBC Two and BBC HD on 13 July 2010 with a total of six episodes commissioned by the BBC .",
    "/wiki/Eloise:_The_Animated_Series": "Eloise : The Animated Series or Me , Eloise ! is an American children 's animated comedy television series , based on the Eloise series of children 's books drawn and written by Kay Thompson and Hilary Knight . This series features Mary Matilyn Mouser as Eloise , Lynn Redgrave as the Nanny , and Tim Curry as Mr. Salamone . The television series was produced by Starz Media and HandMade Films , and premiered on the Starz Kids & Family TV network around October 8 , 2006 .",
    "/wiki/Viva_Pi\u00f1ata_(TV_series)": "Viva Pi\u00f1ata is a Canadian-American animated television series produced by 4Kids Productions and Bardel Entertainment in collaboration with Microsoft . It is based on the Xbox 360 video game of the same name by Xbox Game Studios and Rare , which was released alongside the TV series . Lloyd Goldfine and Paul Griffin served as executive producers , with Mike deSeve acting as story editor and Anne Bernstein and David Steven Cohen among the series ' writers . Viva Pi\u00f1ata premiered on August 26 , 2006 as part of the 4Kids TV programming block , later moving to The CW4Kids before being removed from the schedule on October 25 , 2008 . In Canada , the series aired on YTV , where its final episode was broadcast on May 18 , 2009 , and would continue to air in reruns until June 24 , 2011 . The series also aired on Nicktoons Network and CITV in the UK and on Nickelodeon in Australia ."
  },
  "List_of_first-level_administrative_country_subdivisions_by_nominal_GDP_per_capita_1": {
    "/wiki/Inner_London": "Inner London is the name for the group of London boroughs which form the interior part of Greater London and are surrounded by Outer London . With its origins in the Bills of mortality , it became fixed as an area for statistics in 1847 and was used as an area of local government from 1855 to 1965 principally as the County of London or earlier as the Metropolitan Board of Works Area ( metropolis ) . It now has two common definitions . The first is the statutory definition delineated in the London Government Act 1963 , coming into force on 1 April 1965 , comprising twelve Inner London boroughs and almost identical to the County of London that was abolished at the same time . The second is the current definition used by the Office for National Statistics comprising eleven of the statutory Inner London boroughs and two of the statutory Outer London boroughs , and the City of London . Inner London is smaller than Outer London both in terms of population and area , but the density of population is more than double that of Outer London . Inner London is officially the wealthiest area in Europe with the most expensive street in Europe : GDP per capita is more than \u20ac80,000 while the UK GDP per capita is around \u20ac27,000 . Many of the world 's wealthiest people live in Inner London , but there is also widespread poverty . Central London is located at the core of Inner London . Labour have the majority of support in Inner London , contributing to the recent election of Mayor of London Sadiq Khan . [ citation needed ]",
    "/wiki/United_Kingdom": "The United Kingdom of Great Britain and Northern Ireland , commonly known as the United Kingdom ( UK or U.K. ) or Britain , [ note 11 ] is a sovereign country located off the north\u00adwestern coast of the European mainland . Existing under its current name since 1921 , the United Kingdom includes the island of Great Britain , the north\u00adeastern part of the island of Ireland , and many smaller islands . Northern Ireland shares a land border with the Republic of Ireland . Otherwise , the United Kingdom is surrounded by the Atlantic Ocean , with the North Sea to the east , the English Channel to the south and the Celtic Sea to the southwest , giving it the 12th-longest coastline in the world . The Irish Sea separates Great Britain and Ireland . The total area of the United Kingdom is 94,000 square miles ( 240,000 km2 ) . The United Kingdom is a unitary parliamentary democracy and constitutional monarchy . [ note 12 ] The current monarch is Queen Elizabeth II , who has reigned since 1952 , making her the world 's longest-serving current head of state . The United Kingdom 's capital and largest city is London , a global city and financial centre with an urban area population of 10.3 million . Other major cities include Birmingham , Manchester , Glasgow , Leeds and Liverpool . The United Kingdom consists of four constituent countries : England , Scotland , Wales , and Northern Ireland . Their capitals are London , Edinburgh , Cardiff , and Belfast , respectively .",
    "/wiki/Brussels": "Brussels ( French : Bruxelles [ b\u0281ys\u025bl ] ( listen ) or [ b\u0281yks\u025bl ] ; Dutch : Brussel [ \u02c8br\u028fs\u0259l ] ( listen ) ) , officially the Brussels-Capital Region ( French : R\u00e9gion de Bruxelles-Capitale ; [ a ] Dutch : Brussels Hoofdstedelijk Gewest ) , [ b ] is a region of Belgium comprising 19 municipalities , including the City of Brussels , which is the capital of Belgium . The Brussels-Capital Region is located in the central portion of the country and is a part of both the French Community of Belgium and the Flemish Community , but is separate from the Flemish Region ( which forms an enclave ) and the Walloon Region . Brussels is the most densely populated and the richest region in Belgium in terms of GDP per capita . It covers 162 km2 ( 63 sq mi ) , a relatively small area compared to the two other regions , and has a population of over 1.2 million . The metropolitan area of Brussels comprises over 2.5 million people , which makes it the largest in Belgium . It is also part of a large conurbation extending towards Ghent , Antwerp , Leuven and Walloon Brabant , home to over 5 million people . Brussels grew from a small rural settlement on the river Senne to become an important city-region in Europe . Since the end of the Second World War , it has been a major centre for international politics and home to numerous international organisations , politicians , diplomats and civil servants . Brussels is the de facto capital of the European Union , as it hosts a number of principal EU institutions , including its administrative-legislative , executive-political , and legislative branches ( though the judicial branch is located in Luxembourg , and the European Parliament meets for a minority of the year in Strasbourg ) [ c ] . Its name is sometimes used metonymically to describe the EU and its institutions . The secretariat of the Benelux and headquarters of NATO are also located in Brussels . As the economic capital of Belgium and one of the top financial centres of Western Europe with Euronext Brussels , it is classified as an Alpha global city .",
    "/wiki/Belgium": "Belgium , [ A ] officially the Kingdom of Belgium , is a country in Western Europe . It is bordered by the Netherlands to the north , Germany to the east , Luxembourg to the southeast , France to the southwest , and the North Sea to the northwest . It covers an area of 30,689 km2 ( 11,849 sq mi ) and has a population of more than 11.5 million , making it the 22nd most densely populated country in the world and the 6th most densely populated country in Europe , with a density of 376 per square kilometre ( 970/sq mi ) . The capital and largest city is Brussels ; other major cities are Antwerp , Ghent , Charleroi and Li\u00e8ge . The sovereign state is a federal constitutional monarchy with a parliamentary system . Its institutional organization is complex and is structured on both regional and linguistic grounds . It is divided into three highly autonomous regions : the Flemish Region in the north , Wallonia in the south , and the Brussels-Capital Region . Brussels is the smallest and most densely populated region , as well as the richest region in terms of GDP per capita . Belgium is home to two main linguistic groups or communities : the Dutch-speaking Flemish Community , which constitutes about 60 percent of the population , and the French-speaking Community , which comprises about 40 percent of all Belgians . A small German-speaking Community , numbering around one percent , exists in the East Cantons . The Brussels-Capital Region is officially bilingual ( French and Dutch ) , although French is the dominant language . Belgium 's linguistic diversity and related political conflicts are reflected in its political history and complex system of governance , made up of six different governments .",
    "/wiki/Groningen_(province)": "Groningen ( Dutch pronunciation : [ \u02c8\u0263ro\u02d0n\u026a\u014b\u0259 ( n ) ] ( listen ) ; Gronings : Grunn ; West Frisian : Grinsl\u00e2n ) is the northeasternmost province of the Netherlands . It borders on Friesland to the west , Drenthe to the south , the German state of Lower Saxony to the east , and the Wadden Sea to the north . As of November 2019 , Groningen had a population of 585,881 and a total area of 2,960 km2 ( 1,140 sq mi ) . The area was subsequently part of Frisia , the Frankish Empire , the Holy Roman Empire , and the Dutch Republic , which is the precursor state of the Netherlands . In the 14th century , the city of Groningen became a member of the Hanseatic League . The provincial capital and the largest city in the province is the city of Groningen ( 231,299 inhabitants ) . Since 2016 , Ren\u00e9 Paas has been the King 's Commissioner in the province . A coalition of the Labour Party , People 's Party for Freedom and Democracy , Democrats 66 , and ChristianUnion forms the executive branch . The province is divided into 23 municipalities . The land is mainly used for agriculture . There are seaports in Delfzijl and Eemshaven . The Groningen gas field was discovered in 1959 .",
    "/wiki/Netherlands": "The Netherlands ( Dutch : Nederland , [ \u02c8ne\u02d0d\u0259rl\u0251nt ] ( listen ) ) , informally Holland , is a country in Northwestern Europe with some overseas territories in the Caribbean . In Europe , it consists of 12 provinces that border Germany to the east , Belgium to the south , and the North Sea to the northwest , with maritime borders in the North Sea with those countries and the United Kingdom . Together with the Caribbean Netherlands - Bonaire , Sint Eustatius and Saba - it forms a constituent country of the Kingdom of the Netherlands . The official language is Dutch and a secondary official language in the province of Friesland is West Frisian . In the north and east of the country , Low Saxon is also spoken , and in the southeast , Limburgish . In the Caribbean Netherlands English and Papiamento are recognised languages . The five largest cities in the Netherlands are Amsterdam , Rotterdam , The Hague , Utrecht and Eindhoven . Amsterdam is the country 's most populous city and nominal capital , while The Hague holds the seat of the States General , Cabinet and Supreme Court . The Port of Rotterdam is the busiest seaport in Europe , and the busiest in any country outside Asia . Amsterdam Airport Schiphol is the busiest airport in the Netherlands , and the third busiest in Europe . The country is a founding member of the EU , Eurozone , G10 , NATO , OECD and WTO , as well as a part of the Schengen Area and the trilateral Benelux Union . It hosts several intergovernmental organisations and international courts , many of which are centered in The Hague , which is consequently dubbed 'the world 's legal capital ' .",
    "/wiki/Capital_Region_of_Denmark": "The Capital Region of Denmark ( ) is the easternmost administrative region of Denmark , established on January 1 , 2007 as part of the 2007 Danish Municipal Reform , which abolished the traditional counties ( Danish plural : amter , singular : amt ) and set up five regions . At the same time , smaller municipalities were merged into larger units , cutting the number of municipalities from 271 before 1 January 2006 , when \u00c6r\u00f8 Municipality was created , to 98 . The Capital Region has 29 municipalities . The regional council consists of 41 elected politicians . The chairman as of 1 January 2014 is Sophie H\u00e6storp Andersen . She is a member of the Social Democrats political party . The reform was implemented on January 1 , 2007 . The main task for the Danish regions are hospitals and healthcare . It is not to be confused with the Copenhagen Metropolitan Area nor with the \u00d8resund Region . Unlike the counties ( 1970-2006 ) ( Danish literally county municipality ) the regions are not municipalities and are thus not allowed to have coat of arms , but only logotypes , and can not shuffle money around from one area of expenditure to another area of expenditure , that is , use money for any other purpose than has been stated specifically , but must pay money not used back rather like departments or agencies of the central government . The regions do not levy any taxes but are financed only through block grants . For population growth , see Regions of Denmark .",
    "/wiki/Denmark": "Denmark ( Danish : Danmark , pronounced [ \u02c8t\u00e6nmak ] ( listen ) ) , officially the Kingdom of Denmark , [ N 10 ] [ N 2 ] is a Nordic country in Northwest Europe . Denmark proper , which is the southernmost of the Scandinavian countries , consists of a peninsula , Jutland , and an archipelago of 443 named islands , [ N 2 ] with the largest being Zealand , Funen and the North Jutlandic Island . The islands are characterised by flat , arable land and sandy coasts , low elevation and a temperate climate . The southernmost of the Scandinavian nations , Denmark lies southwest of Sweden and south of Norway , [ N 11 ] and is bordered to the south by Germany . The Kingdom of Denmark also includes two autonomous territories in the North Atlantic Ocean : the Faroe Islands and Greenland . Denmark has a total area of 42,924 km2 ( 16,573 sq mi ) , land area of 42,394 km2 ( 16,368 sq mi ) , and the total area including Greenland and the Faroe Islands is 2,210,579 km2 ( 853,509 sq mi ) , and a population of 5.8 million in Denmark proper ( Danish egentlige Danmark ) ( as of 2020 [ update ] ) . The unified kingdom of Denmark emerged in the 8th century as a proficient seafaring nation in the struggle for control of the Baltic Sea . Denmark , Sweden , and Norway were ruled together under one sovereign ruler in the Kalmar Union , established in 1397 and ending with Swedish secession in 1523 . The areas of Denmark and Norway remained under the same monarch until 1814 , Denmark-Norway . Beginning in the 17th century , there were several devastating wars with the Swedish Empire , ending with large cessions of territory to Sweden . After the Napoleonic Wars , Norway was ceded to Sweden , while Denmark kept the Faroe Islands , Greenland , and Iceland . In the 19th century there was a surge of nationalist movements , which were defeated in the First Schleswig War .",
    "/wiki/London": "London is the capital and largest city of England and of the United Kingdom . Standing on the River Thames in the south-east of England , at the head of its 50-mile ( 80 km ) estuary leading to the North Sea , London has been a major settlement for two millennia . Londinium was founded by the Romans . The City of London , London 's ancient core \u2212 an area of just 1.12 square miles ( 2.9 km2 ) and colloquially known as the Square Mile \u2212 retains boundaries that closely follow its medieval limits . [ note 1 ] The City of Westminster is also an Inner London borough holding city status . Greater London is governed by the Mayor of London and the London Assembly . [ note 2 ] London is considered to be one of the world 's most important global cities and has been termed the world 's most powerful , most desirable , most influential , most visited , most expensive , innovative , sustainable , most investment friendly , and most popular for work city . London exerts a considerable impact upon the arts , commerce , education , entertainment , fashion , finance , healthcare , media , professional services , research and development , tourism and transportation . London ranks 26th out of 300 major cities for economic performance . It is one of the largest financial centres and has either the fifth or the sixth largest metropolitan area GDP . [ note 3 ] It is the most-visited city as measured by international arrivals and has the busiest city airport system as measured by passenger traffic . It is the leading investment destination , hosting more international retailers and ultra high-net-worth individuals than any other city .",
    "/wiki/Stockholm": "Stockholm ( Swedish pronunciation : [ \u02c8st\u0254\u0302k\u02d0 ( h ) \u0254lm ] ( listen ) ) is the capital and most populous urban area of Sweden . 972,647 people live in the municipality , approximately 1.6 million in the urban area , and 2.4 million in the metropolitan area . The city stretches across fourteen islands where Lake M\u00e4laren flows into the Baltic Sea . Outside the city to the east , and along the coast , is the island chain of the Stockholm archipelago . The area has been settled since the Stone Age , in the 6th millennium BC , and was founded as a city in 1252 by Swedish statesman Birger Jarl . It is also the county seat of Stockholm County . Stockholm is the cultural , media , political , and economic centre of Sweden . The Stockholm region alone accounts for over a third of the country 's GDP , and is among the top 10 regions in Europe by GDP per capita . It is an important global city , and the main centre for corporate headquarters in the Nordic region . The city is home to some of Europe 's top ranking universities , such as the Stockholm School of Economics , Karolinska Institute and KTH Royal Institute of Technology . It hosts the annual Nobel Prize ceremonies and banquet at the Stockholm Concert Hall and Stockholm City Hall . One of the city 's most prized museums , the Vasa Museum , is the most visited non-art museum in Scandinavia .",
    "/wiki/Sweden": "Sweden ( Swedish : Sverige [ \u02c8sv\u00e6\u030crj\u025b ] ( listen ) ) , officially the Kingdom of Sweden ( Swedish : Konungariket Sverige [ \u02c8k\u00f4\u02d0n\u0275\u014ba\u02ccri\u02d0k\u025bt \u02c8sv\u00e6\u030crj\u025b ] ( listen ) ) , is a Scandinavian country in Northern Europe . It borders Norway to the west and north and Finland to the east , and is connected to Denmark in the southwest by a bridge-tunnel across the \u00d6resund Strait . At 450,295 square kilometres ( 173,860 sq mi ) , Sweden is the largest country in Northern Europe , the third-largest country in the European Union and the fifth largest country in Europe by area . The capital city is Stockholm . Sweden has a total population of 10.3 million of which 2.5 million have a foreign background . Persons who have foreign backgrounds are defined as persons who are foreign born , or born in Sweden with foreign born parents . It has a low population density of 22 inhabitants per square kilometre ( 57/sq mi ) and the highest urban concentration is in the central and southern half of the country . Sweden is part of the geographical area of Fennoscandia . The climate is in general mild for its northerly latitude due to significant maritime influence . In spite of the high latitude , Sweden often has warm continental summers , being located in between the North Atlantic , the Baltic Sea and the vast Eurasian Russian landmass . The general climate and environment varies significantly from the south and north due to the vast latitudal difference and much of Sweden has reliably cold and snowy winters . Southern Sweden is predominantly agricultural , while the north is heavily forested and includes a portion of the Scandinavian Mountains .",
    "/wiki/Hamburg": "Hamburg ( English : /\u02c8h\u00e6mb\u025c\u02d0r\u0261/ , German : [ \u02c8hamb\u028a\u0281k ] ( listen ) , locally also [ \u02c8hamb\u028a\u026a\u032f\u00e7 ] ( listen ) [ \u02c8hamb\u0254\u02d0\u03c7 ] ; Low Saxon : Hamborg ) , officially the Free and Hanseatic City of Hamburg ( German : Freie und Hansestadt Hamburg ; Low Saxon : Friee un Hansestadt Hamborg ) , is the second-largest city in Germany after Berlin and 7th largest city in the European Union with a population of over 1.84 million . One of Germany 's 16 federal states , it is surrounded by Schleswig-Holstein to the north and Lower Saxony to the south . The city 's metropolitan region is home to more than five million people . Hamburg lies on the River Elbe and two of its tributaries , the River Alster and the River Bille . The official name reflects Hamburg 's history as a member of the medieval Hanseatic League and a free imperial city of the Holy Roman Empire . Before the 1871 Unification of Germany , it was a fully sovereign city state , and before 1919 formed a civic republic headed constitutionally by a class of hereditary grand burghers or Hanseaten . Beset by disasters such as the Great Fire of Hamburg , North Sea flood of 1962 and military conflicts including World War II bombing raids , the city has managed to recover and emerge wealthier after each catastrophe . Hamburg is Europe 's third-largest port . Major regional broadcaster NDR , the printing and publishing firm Gruner + Jahr and the newspapers Der Spiegel and Die Zeit are based in the city . Hamburg is the seat of Germany 's oldest stock exchange and the world 's oldest merchant bank , Berenberg Bank . Media , commercial , logistical , and industrial firms with significant locations in the city include multinationals Airbus , Blohm + Voss , Aurubis , Beiersdorf , and Unilever . The city hosts specialists in world economics and international law , including consular and diplomatic missions as the International Tribunal for the Law of the Sea , the EU-LAC Foundation , and the UNESCO Institute for Lifelong Learning , multipartite international political conferences and summits such as Europe and China and the G20 .",
    "/wiki/Germany": "Germany ( German : Deutschland , German pronunciation : [ \u02c8d\u0254\u028ft\u0283lant ] ) , constitutionally the Federal Republic of Germany ( German : Bundesrepublik Deutschland , listen ( help\u00b7info ) ) , [ f ] is a country in Central and Western Europe . It borders Denmark to the north , Poland and the Czech Republic to the east , Austria and Switzerland to the south , France to the southwest , and Luxembourg , Belgium , and the Netherlands to the west . Germany includes 16 constituent states , covers an area of 357,386 square kilometres ( 137,988 sq mi ) , and has a largely temperate seasonal climate . With 83 million inhabitants , it is the second most populous state of Europe after Russia , the most populous state lying entirely in Europe , as well as the most populous member state of the European Union . Germany is a very decentralised country . Its capital and largest metropolis is Berlin , while Frankfurt serves as its financial capital and has the country 's busiest airport . Various Germanic tribes have inhabited the northern parts of modern Germany since classical antiquity . A region named Germania was documented before AD 100 . Beginning in the 10th century , German territories formed a central part of the Holy Roman Empire . During the 16th century , northern German regions became the centre of the Protestant Reformation . After the collapse of the Holy Roman Empire , the German Confederation was formed in 1815 . The German revolutions of 1848-49 resulted in the Frankfurt Parliament establishing major democratic rights .",
    "/wiki/\u00cele-de-France": "\u00cele-de-France ( /\u02cci\u02d0l d\u0259 \u02c8fr\u0252\u0303s/ , French : [ il d\u0259 f\u0281\u0251\u0303s ] ( listen ) ; literally Island of France ) is the most populous of the 18 regions of France . It is located in the north-central part of the country and often called the r\u00e9gion parisienne ( Paris Region ) because it includes the city of Paris . \u00cele-de-France is densely populated and economically important : it covers only 12,012 square kilometres ( 4,638 square miles ) , about 2% of France 's territory , but has an official estimated population of 12,213,364 ( 18.2% of the population of France ) and accounts for nearly 30% of the French Gross Domestic Product ( GDP ) . The region is made up of eight administrative departments : Paris , Essonne , Hauts-de-Seine , Seine-Saint-Denis , Seine-et-Marne , Val-de-Marne , Val-d'Oise and Yvelines . It was created as the District of the Paris Region in 1961 and renamed in 1976 after the historic province of \u00cele-de-France , when its status was aligned with the other French administrative regions created in 1972 . Residents are sometimes referred to as Franciliens , an administrative word created in the 1980s . The GDP of the region in 2016 was \u20ac681 billion ( or US $ 850 billion at market exchange rates ) . It has the highest per-capita GDP among regions in France and the third-highest of regions in the European Union . In 2018 , almost all of the twenty-eight French companies listed in the Fortune Global 500 had their headquarters in the Paris Region . Besides the landmarks of Paris , the region has many important historic sites , including the Palace of Versailles and the Palace of Fontainebleau , as well as the most-visited tourist attraction in France , Disneyland Paris . The poverty rate in \u00cele-de-France was 15.9% in 2015 , compared with 12.3% in 2006 . The region is also increasingly unequal .",
    "/wiki/France": "France ( French : [ f\u0281\u0251\u0303s ] ( listen ) ) , officially the French Republic ( French : R\u00e9publique fran\u00e7aise , pronounced [ \u0281epyblik f\u0281\u0251\u0303s\u025b\u02d0z ] ( listen ) ) , is a country whose territory consists of metropolitan France in Western Europe and several overseas regions and territories . [ XIII ] The metropolitan area of France extends from the Mediterranean Sea to the English Channel and the North Sea , and from the Rhine to the Atlantic Ocean . It is bordered by Belgium , Luxembourg and Germany to the northeast , Switzerland and Italy to the east , and Andorra and Spain to the south . The overseas territories include French Guiana in South America and several islands in the Atlantic , Pacific and Indian oceans . The country 's 18 integral regions ( five of which are situated overseas ) span a combined area of 643,801 square kilometres ( 248,573 sq mi ) and a total population of 67.02 million ( as of July 2019 [ update ] ) . France is a unitary semi-presidential republic with its capital in Paris , the country 's largest city and main cultural and commercial centre . Other major urban areas include Lyon , Marseille , Toulouse , Bordeaux , Lille and Nice . France , including its overseas territories , has the most number of time zones of any country , with a total of 12 . During the Iron Age , what is now metropolitan France was inhabited by the Gauls , a Celtic people . Rome annexed the area in 51 BC , holding it until the arrival of Germanic Franks in 476 , who formed the Kingdom of Francia . The Treaty of Verdun of 843 partitioned Francia into East Francia , Middle Francia and West Francia . West Francia , which became the Kingdom of France in 987 , emerged as a major European power in the Late Middle Ages , following its victory in the Hundred Years ' War ( 1337-1453 ) .",
    "/wiki/NUTS_statistical_regions_of_Ireland": "The Nomenclature of Territorial Units for Statistics ( NUTS ) is a geocode standard for referencing the subdivisions of Ireland for statistical purposes . The standard is developed and regulated by the European Union . The NUTS standard is instrumental in delivering the European Union 's Structural Funds . The NUTS code for Ireland is IE and a hierarchy of three levels is established by Eurostat . Below these is a further levels of geographic organisation - the local administrative unit ( LAU ) . In Ireland , the LAUs are electoral divisions .",
    "/wiki/Republic_of_Ireland": "Ireland ( Irish : \u00c9ire [ \u02c8e\u02d0\u027e\u02b2\u0259 ] ( listen ) ) , also known as the Republic of Ireland ( Poblacht na h\u00c9ireann ) , is a country in north-western Europe occupying 26 of 32 counties of the island of Ireland . The capital and largest city is Dublin , which is located on the eastern side of the island . Around a third of the country 's population of 4.9 million people resides in the greater Dublin area . The sovereign state shares its only land border with Northern Ireland , a part of the United Kingdom . It is otherwise surrounded by the Atlantic Ocean , with the Celtic Sea to the south , St George 's Channel to the south-east , and the Irish Sea to the east . It is a unitary , parliamentary republic . The legislature , the Oireachtas , consists of a lower house , D\u00e1il \u00c9ireann , an upper house , Seanad \u00c9ireann , and an elected President ( Uachtar\u00e1n ) who serves as the largely ceremonial head of state , but with some important powers and duties . The head of government is the Taoiseach ( Prime Minister , literally 'Chief ' , a title not used in English ) , who is elected by the D\u00e1il and appointed by the President ; the Taoiseach in turn appoints other government ministers . The state was created as the Irish Free State in 1922 as a result of the Anglo-Irish Treaty . It had the status of Dominion until 1937 when a new constitution was adopted , in which the state was named Ireland and effectively became a republic , with an elected non-executive president as head of state . It was officially declared a republic in 1949 , following the Republic of Ireland Act 1948 . Ireland became a member of the United Nations in December 1955 .",
    "/wiki/Vienna": "Vienna ( /vi\u02c8\u025bn\u0259/ ( listen ) ; German : Wien [ vi\u02d0n ] ( listen ) ) is the national capital , largest city , and one of nine states of Austria . Vienna is Austria 's most populous city , with about 1.9 million inhabitants ( 2.6 million within the metropolitan area , nearly one third of the country 's population ) , and its cultural , economic , and political centre . It is the 6th-largest city by population within city limits in the European Union . Until the beginning of the 20th century , it was the largest German-speaking city in the world , and before the splitting of the Austro-Hungarian Empire in World War I , the city had 2 million inhabitants . Today , it is the second-largest German-speaking city after Berlin . Vienna is host to many major international organizations , including the United Nations , OPEC , and the OSCE . The city is located in the eastern part of Austria and is close to the borders of Czechia , Slovakia , and Hungary . These regions work together in a European Centrope border region . Along with nearby Bratislava , Vienna forms a metropolitan region with 3 million inhabitants . In 2001 , the city centre was designated a UNESCO World Heritage Site . In July 2017 it was moved to the list of World Heritage in Danger . Additionally to being known as the City of Music due to its musical legacy , Vienna is also said to be the City of Dreams , because of it being home to the world 's first psychoanalyst Sigmund Freud .",
    "/wiki/Austria": "Austria ( /\u02c8\u0252stri\u0259/ ( listen ) , /\u02c8\u0254\u02d0s-/ ; German : \u00d6sterreich [ \u02c8\u00f8\u02d0st\u0250\u0281a\u026a\u032f\u00e7 ] ( listen ) ) , officially the Republic of Austria ( German : Republik \u00d6sterreich , listen ( help\u00b7info ) ) , is a landlocked East Alpine country in the southern part of Central Europe . It is composed of nine federated states ( Bundesl\u00e4nder ) , one of which is Vienna , Austria 's capital and its largest city . It is bordered by Germany to the northwest , Czech Republic to the north , Slovakia to the northeast , Hungary to the east , Slovenia and Italy to the south , and Switzerland and Liechtenstein to the west . Austria occupies an area of 83,879 km2 ( 32,386 sq mi ) and has a population of nearly 9 million people . While German is the country 's official language , many Austrians communicate informally in a variety of Bavarian dialects . Austria initially emerged as a margraviate around 976 and developed into a duchy and archduchy . In the 16th century , Austria started serving as the heart of the Habsburg Monarchy and the junior branch of the House of Habsburg - one of the most influential royal dynasties in history . As an archduchy , it was a major component and administrative centre of the Holy Roman Empire . Early in the 19th century , Austria established its own empire , which became a great power and the leading force of the German Confederation but pursued its own course independently of the other German states . Following the Austro-Prussian War and the compromise with Hungary , the Dual Monarchy was established . Austria was involved in World War I under Emperor Franz Joseph following the assassination of Archduke Ferdinand , the presumptive successor to the Austro-Hungarian throne . After the defeat and the dissolution of the Monarchy , the Republic of German-Austria was proclaimed with the intent of the union with Germany , which eventually failed because of the Allied Powers and the state remained unrecognized .",
    "/wiki/\u00c5land_Islands": "The \u00c5land Islands or \u00c5land ( /\u02c8\u0254\u02d0l\u0259nd , \u02c8\u0251\u02d0l\u0259nd/ , also US : /\u02c8o\u028al\u0259nd , \u02c8o\u028al\u0251\u02d0n ( d ) , \u02c8\u0251\u02d0l\u0251\u02d0nd/ , Swedish : [ \u02c8\u01d2\u02d0land ] , Finland Swedish : [ \u02c8o\u02d0l\u0251nd ] ; Finnish : Ahvenanmaa [ \u02c8\u0251h\u028ben\u0251n\u02c8m\u0251\u02d0 ] ) is an archipelago province at the entrance to the Gulf of Bothnia in the Baltic Sea belonging to Finland . It is autonomous , demilitarised and is the only monolingually Swedish-speaking region in Finland . It is the smallest region of Finland , constituting 0.51% of its land area and 0.54% of its population . \u00c5land comprises Fasta \u00c5land on which 90% of the population resides and a further 6,500 skerries and islands to its east . Fasta \u00c5land is separated from the coast of Sweden by 38 kilometres ( 24 mi ) of open water to the west . In the east , the \u00c5land archipelago is contiguous with the Finnish Archipelago Sea . \u00c5land 's only land border is located on the uninhabited skerry of M\u00e4rket , which it shares with Sweden . \u00c5land 's autonomous status means that those provincial powers normally exercised by representatives of the central Finnish government are largely exercised by its own government .",
    "/wiki/Finland": "Finland ( Finnish : Suomi [ \u02c8suo\u032fmi ] ( listen ) ; Swedish : Finland [ \u02c8f\u026a\u030cnland ] ( listen ) , Finland Swedish : [ \u02c8finl\u0251nd ] ) , officially the Republic of Finland ( Finnish : Suomen tasavalta , Swedish : Republiken Finland ( listen to all ) ) , [ note 1 ] is a Nordic country in Northern Europe bordering the Baltic Sea , Gulf of Bothnia , and Gulf of Finland , between Sweden to the west , Russia to the east , Estonia to the south , and north-eastern Norway to the north . The capital and largest city is Helsinki . Other major cities are Espoo , Tampere , Vantaa , Oulu , Turku , Jyv\u00e4skyl\u00e4 , Lahti and Kuopio . Finland 's population is 5.52 million as of July 2019 , the majority of whom live in the central and south of the country and speak Finnish , a Finnic language from the Uralic language family , unrelated to the Scandinavian languages . Finland is the eighth-largest country in Europe and the most sparsely populated country in the European Union . It is a parliamentary republic of 310 municipalities , and includes an autonomous region , the \u00c5land Islands . Over 1.4 million people live in the Greater Helsinki metropolitan area , which produces one third of the country 's GDP . Swedish is the second official language of Finland , which is mainly spoken in certain coastal areas and on \u00c5land . A large majority of Finns are members of the Evangelical Lutheran Church . Finland was inhabited when the last ice age ended , approximately 9000 BC . Comb Ceramic culture introduced pottery 5200 BC and Corded Ware culture coincided with the start of agriculture between 3000 and 2500 BC . The Bronze Age and Iron Age were characterised by extensive contacts with other cultures in the Fennoscandian and Baltic regions .",
    "/wiki/Utrecht": "Utrecht ( /\u02c8ju\u02d0tr\u025bkt/ YOO-trekt , also UK : /ju\u02d0\u02c8tr\u025bxt/ yoo-TREKHT , Dutch : [ \u02c8ytr\u025bxt ] ( listen ) ) is the fourth-largest city and a municipality of the Netherlands , capital and most populous city of the province of Utrecht . It is located in the eastern corner of the Randstad conurbation , in the very centre of mainland Netherlands ; it had a population of 357,179 as of 2019 . Utrecht 's ancient city centre features many buildings and structures , several dating as far back as the High Middle Ages . It has been the religious centre of the Netherlands since the 8th century . It lost the status of prince-bishopric but remains the main religious centre in the country . Utrecht was the most important city in the Netherlands until the Dutch Golden Age , when it was surpassed by Amsterdam as the country 's cultural centre and most populous city . Utrecht is host to Utrecht University , the largest university in the Netherlands , as well as several other institutions of higher education . Due to its central position within the country , it is an important transport hub for both rail and road transport ; the busiest train station in the Netherlands , Utrecht Centraal , is in the city of Utrecht . It has the second highest number of cultural events in the Netherlands , after Amsterdam . In 2012 , Lonely Planet included Utrecht in the top 10 of the world 's unsung places .",
    "/wiki/Upper_Bavaria": "Upper Bavaria ( , ) is one of the seven administrative districts of Bavaria , Germany .",
    "/wiki/North_Holland": "North Holland ( Dutch : Noord-Holland pronounced [ \u02ccno\u02d0rt \u02c8\u0266\u0254l\u0251nt ] ( listen ) , West Frisian : Noard-Holl\u00e2n ) is a province of the Netherlands in the northwestern part of the country . It is on the North Sea , north of South Holland and Utrecht , and west of Friesland and Flevoland . In November 2019 , it had a population of 2,877,909 and a total area of 4,092 km2 ( 1,580 sq mi ) , of which 1,430 km2 ( 550 sq mi ) is water . From the 9th to the 16th century , the area was an integral part of the County of Holland . During this period West Friesland was incorporated . In the 17th and 18th century , the area was part of the province of Holland and commonly known as the Noorderkwartier ( English : Northern Quarter ) . In 1840 , the province of Holland was split into the two provinces of North Holland and South Holland . In 1855 , the Haarlemmermeer was drained and turned into land . The provincial capital is Haarlem ( pop . 161,265 ) , the province 's largest city and also the largest city in the Netherlands is the Dutch capital Amsterdam , with a population of 862,965 as of November 2019 . The King 's Commissioner of North Holland is Johan Remkes , serving since 2010 . There are 51 municipalities and three ( including parts of ) water boards in the province .",
    "/wiki/Bremen": "The City Municipality of Bremen ( /\u02c8bre\u026am\u0259n/ , also US : /\u02c8br\u025bm\u0259n/ ; German : Stadtgemeinde Bremen , IPA : [ \u02c8\u0283tat\u0261\u0259\u02ccma\u026and\u0259 \u02c8b\u0281e\u02d0m\u0259n ] ( listen ) ; Low German also : Breem or Br\u00e4m ) is the capital of the German federal state Free Hanseatic City of Bremen ( also called just Bremen for short ) , a two-city-state consisting of the cities of Bremen and Bremerhaven . With around 570,000 inhabitants , the Hanseatic city is the 11th largest city of Germany as well as the second largest city in Northern Germany after Hamburg . Bremen is the largest city on the River Weser , the longest river flowing entirely in Germany , lying some 60 km ( 37 mi ) upstream from its mouth into the North Sea , and is surrounded by the state of Lower Saxony . A commercial and industrial city , Bremen is , together with Oldenburg and Bremerhaven , part of the Bremen/Oldenburg Metropolitan Region , with 2.5 million people . Bremen is contiguous with the Lower Saxon towns of Delmenhorst , Stuhr , Achim , Weyhe , Schwanewede and Lilienthal . There is an exclave of Bremen in Bremerhaven , the Citybremian Overseas Port Area Bremerhaven ( Stadtbremisches \u00dcberseehafengebiet Bremerhaven ) . Bremen is the fourth largest city in the Low German dialect area after Hamburg , Dortmund and Essen . Bremen 's port , together with the port of Bremerhaven at the mouth of the Weser , is the second largest port in Germany after the Port of Hamburg . The airport of Bremen ( Flughafen Bremen Hans Koschnick ) lies in the southern borough of Neustadt-Neuenland and is Germany 's 12th busiest airport . Bremen is a major cultural and economic hub of Northern Germany . The city is home to dozens of historical galleries and museums , ranging from historical sculptures to major art museums , such as the Bremen Overseas Museum ( \u00dcbersee-Museum Bremen ) . The Bremen City Hall and the Bremen Roland are UNESCO World Heritage Sites .",
    "/wiki/Darmstadt": "Darmstadt ( /\u02c8d\u0251\u02d0rmst\u00e6t/ , also UK : /-\u0283t\u00e6t/ , US : /-st\u0251\u02d0t , -\u0283t\u0251\u02d0t/ , German : [ \u02c8da\u0281m\u0283tat ] ( listen ) ) is a city in the state of Hesse in Germany , located in the southern part of the Rhine-Main-Area ( Frankfurt Metropolitan Region ) . Darmstadt had a population of around 157,437 at the end of 2016 . The Darmstadt Larger Urban Zone has 430,993 inhabitants . Darmstadt holds the official title City of Science ( German : Wissenschaftsstadt ) as it is a major centre of scientific institutions , universities , and high-technology companies . The European Organisation for the Exploitation of Meteorological Satellites ( EUMETSAT ) and the European Space Operations Centre ( ESOC ) are located in Darmstadt , as well as GSI Centre for Heavy Ion Research , where several chemical elements such as bohrium ( 1981 ) , meitnerium ( 1982 ) , hassium ( 1984 ) , darmstadtium ( 1994 ) , roentgenium ( 1994 ) , and copernicium ( 1996 ) were discovered . The existence of the following elements were also confirmed at GSI Centre for Heavy Ion Research : nihonium ( 2012 ) , flerovium ( 2009 ) , moscovium ( 2012 ) , livermorium ( 2010 ) , and tennessine ( 2012 ) . The Facility for Antiproton and Ion Research ( FAIR ) is an international accelerator facility under construction . Darmstadt is also the seat of the world 's oldest pharmaceutical company , Merck , which is the city 's largest employer .",
    "/wiki/Central_Denmark_Region": "Central Denmark Region ( Danish : Region Midtjylland ) , or more directly translated as Central Jutland Region and sometimes simply Mid Jutland , is an administrative region of Denmark established on 1 January 2007 as part of the 2007 Danish Municipal Reform . The reform abolished the traditional counties ( amter ) and replaced them with five new administrative regions . At the same time , smaller municipalities were merged into larger units , cutting the total number of municipalities from 271 to 98 . Central Denmark Region comprises 19 municipalities .",
    "/wiki/NUTS_statistical_regions_of_the_United_Kingdom": "In the Nomenclature of Territorial Units for Statistics ( NUTS ) codes of the United Kingdom ( UK ) , the three levels are :"
  }
}