{
  "Cinema_Audio_Society_Award_for_Outstanding_Achievement_in_Sound_Mixing_for_a_Motion_Picture_\u2013_Animated_3": {
    "/wiki/Brave_(2012_film)": "Brave is a 2012 American computer-animated fantasy film produced by Pixar Animation Studios and released by Walt Disney Pictures . It was directed by Mark Andrews and Brenda Chapman and co-directed by Steve Purcell . The story is by Chapman , with the screenplay by Andrews , Purcell , Chapman and Irene Mecchi . The film was produced by Katherine Sarafian , with John Lasseter , Andrew Stanton , and Pete Docter as executive producers . The film 's voice cast features Kelly Macdonald , Billy Connolly , Emma Thompson , Julie Walters , Robbie Coltrane , Kevin McKidd , and Craig Ferguson . Set in the Scottish Highlands , the film tells the story of a princess named Merida who defies an age-old custom , causing chaos in the kingdom by expressing the desire not to be betrothed . Merida is the first , and currently , only Disney princess created by Pixar . The film is also dedicated to Steve Jobs , who died before the film 's release . Chapman drew inspiration for the film 's story from her relationship with her own daughter . Co-directing with Mark Andrews , Chapman became Pixar 's first female director of a feature-length film . To create the most complex visuals possible , Pixar completely rewrote their animation system for the first time in 25 years . Brave is the first film to use the Dolby Atmos sound format .",
    "/wiki/Tom_Johnson_(sound_engineer)": "Thomas Johnson is a British sound engineer . He has won two Academy Awards for Best Sound and has been nominated for six more in the same category . He has worked on over 125 films since 1983 .",
    "/wiki/Gary_Rydstrom": "Gary Roger Rydstrom ( born June 29 , 1959 ) is an American sound designer and director . He has been nominated for 18 Academy Awards for his work in sound for movies , winning 7 .",
    "/wiki/Frankenweenie_(2012_film)": "Frankenweenie is a 2012 American 3D stop motion-animated supernatural horror comedy film directed by Tim Burton and produced by Walt Disney Pictures . It is a remake of Burton 's 1984 short film of the same name and is also both a parody of and homage to the 1931 film Frankenstein , based on Mary Shelley 's book of the same name . The voice cast includes four actors who worked with Burton on previous films : Winona Ryder ( Beetlejuice and Edward Scissorhands ) ; Martin Short ( Mars Attacks ! ) ; Catherine O'Hara ( Beetlejuice and The Nightmare Before Christmas ) ; and Martin Landau ( Ed Wood and Sleepy Hollow ) , along with some new voice actors , such as Charlie Tahan and Atticus Shaffer . Frankenweenie is also the fourth stop-motion film produced by Burton and the first of those four that is not a musical . In the film , a boy named Victor loses his dog , a Bull Terrier named Sparky , and uses the power of electricity to resurrect him - but is then blackmailed by his peers into revealing how they too can reanimate their deceased past pets and other creatures , resulting in mayhem . The tongue-in-cheek film contains numerous references and parodies related to the book , past film versions of the book , other literary classics and other films which Burton has directed . Frankenweenie , the first black and white feature-length film and the first stop-motion film to be released in IMAX 3D , was released in the United States on October 5 , 2012 and met with positive reviews and moderate box office sales . The film won the Saturn Award for Best Animated Film and was nominated for an Oscar ; a Golden Globe ; a BAFTA ; and an Annie Award for Best Film in each respective animated category .",
    "/wiki/Doc_Kane": "Doc Kane is an American sound engineer . He has been nominated for four Academy Awards in the category Best Sound . He has worked on nearly 350 films since 1984 .",
    "/wiki/Michael_Semanick": "Michael Semanick ( born 1963 ) is an American sound engineer , credited as a sound re-recording mixer . He has won two Academy Awards for Best Sound and has been nominated for nine more in the same category . He has worked on more than 110 films since 1987 .",
    "/wiki/Christopher_Boyes": "Christopher Boyes is an American sound engineer . He has won four Academy Awards and has been nominated for another ten . He has worked on more than 70 films since 1991 .",
    "/wiki/Dennis_S._Sands": "Dennis S. Sands is an American sound engineer . He has been nominated for four Academy Awards in the category Best Sound . He has worked on more than 240 films since 1979 .",
    "/wiki/The_Lorax_(film)": "The Lorax ( also known as Dr. Seuss ' The Lorax ) is a 2012 American 3D computer-animated musical fantasy comedy film produced by Illumination Entertainment and based on Dr. Seuss 's children 's book of the same name . The film was released by Universal Pictures on March 2 , 2012 , on what would have been Seuss ' 108th birthday . The second adaptation of the book ( following the 1972 animated television special ) , the film builds on the book by expanding the story of the Lorax and Ted , the previously unnamed boy who visits the Once-ler . The cast includes Danny DeVito as the Lorax , Ed Helms as the Once-ler and Zac Efron as Ted . New characters introduced in the film are Audrey , Ted 's love interest ( voiced by Taylor Swift ) , Aloysius O'Hare ( Rob Riggle ) , Mrs. Wiggins , Ted 's mother ( Jenny Slate ) , and Grammy Norma , Ted 's grandmother ( Betty White ) . While the film received mixed reviews from critics , it was a box office success , grossing $ 348.8 million worldwide based on a $ 70 million budget .",
    "/wiki/Randy_Thom": "David Randall Thoms ( born 1951 in Shreveport , Louisiana ) is a sound designer , and the current Director of Sound Design at Skywalker Sound .",
    "/wiki/Gary_Rizzo": "Gary Rizzo ( born January 31 , 1972 ) is an American re-recording mixer . He studied audio engineering at Full Sail University and works at Lucasfilm 's Skywalker Sound . He has won two Oscars for Best Sound and has been nominated for another three in the same category . He has worked on more than 150 films since 1994 .",
    "/wiki/Shawn_Murphy_(sound_engineer)": "Shawn Murphy ( born May 16 , 1948 ) is an American sound engineer . He has won an Academy Award for Best Sound and has been nominated for another two in the same category . He has worked on over 350 films since 1983 .",
    "/wiki/Rise_of_the_Guardians": "Rise of the Guardians is a 2012 American 3D computer-animated action fantasy-comedy film based on and serving as a continuation of William Joyce 's The Guardians of Childhood book series and The Man in the Moon short film by Joyce and Reel FX Creative Studios . Peter Ramsey directed the film , while Joyce and Guillermo del Toro were executive producers with voice acting by Chris Pine , Alec Baldwin , Hugh Jackman , Isla Fisher , and Jude Law . Produced by DreamWorks Animation and distributed by Paramount Pictures,1 it was released on November 21 , 2012 . Despite receiving generally positive reviews and grossing $ 306 million against its $ 145 million budget , it was a commercial failure , due to production and marketing costs , losing DreamWorks Animation $ 83 million . Set about 300 years after the book series , the film tells a story about Guardians Santa Claus , the Tooth Fairy , the Easter Bunny , and the Sandman , who enlist Jack Frost to stop the evil Pitch Black from engulfing the world in darkness in a fight of dreams . The film was nominated for the Golden Globe Award for Best Animated Feature Film . This was the last DreamWorks Animation film to be distributed by Paramount Pictures .",
    "/wiki/Andy_Nelson_(sound_engineer)": "Andy Nelson is a British re-recording mixer and sound engineer working in Los Angeles , California . He has won two Academy Awards for Best Sound and has been nominated for 19 more in the same category . He has worked on over 150 films since 1980 . In addition to the Academy Awards , Nelson has won five BAFTA Award for Best Sound and has been nominated for eight more in the same category . He was awarded the Australian Centenary Medal in the Queen 's 2001 New Year Honours List for his services to Australia society and Australian film production .",
    "/wiki/Wreck-It_Ralph": "Wreck-It Ralph is a 2012 American 3D computer-animated comedy film produced by Walt Disney Animation Studios and released by Walt Disney Pictures . It is the 52nd Disney animated feature film . The film was directed by Rich Moore in his directorial debut , who also directed episodes of The Simpsons and Futurama , and the screenplay was written by Phil Johnston and Jennifer Lee from a story by Moore , Johnston , and Jim Reardon . John Lasseter served as the executive producer . The film features the voices of John C. Reilly , Sarah Silverman , Jack McBrayer and Jane Lynch and tells the story of the eponymous arcade game villain who rebels against his bad-guy role and dreams of becoming a hero . Wreck-It Ralph premiered at the El Capitan Theatre on October 29 , 2012 , and went into general release on November 2 . The film was a critical and commercial success , grossing $ 471 million worldwide against a $ 165 million budget and winning the Annie Award for Best Animated Feature , as well as receiving nominations for the Golden Globe and Academy Award for Best Animated Feature . The film was released on Blu-ray and DVD on March 5 , 2013 . It is the first installment in the Wreck-It Ralph film series . A sequel , Ralph Breaks the Internet , was released on November 21 , 2018 .",
    "/wiki/Cinema_Audio_Society_Awards_2013": "The 50th Cinema Audio Society Awards were held on February 22 , 2014 in the Bunker Hill Ballroom of the OMNI Los Angeles Hotel at California Plaza , Los Angeles , honoring outstanding achievements in sound mixing in film and television of 2013 .",
    "/wiki/Frozen_(2013_film)": "Frozen is a 2013 American 3D computer-animated musical fantasy film produced by Walt Disney Animation Studios and released by Walt Disney Pictures . The 53rd Disney animated feature film , it is inspired by Hans Christian Andersen 's fairy tale The Snow Queen . It tells the story of a fearless princess who sets off on a journey alongside a rugged iceman , his loyal reindeer , and a naive snowman to find her estranged sister , whose icy powers have inadvertently trapped their kingdom in eternal winter . Frozen underwent several story treatments before being commissioned in 2011 , with a screenplay written by Jennifer Lee , who also co-directed with Chris Buck . The film features the voices of Kristen Bell , Idina Menzel , Jonathan Groff , Josh Gad , and Santino Fontana . Christophe Beck was hired to compose the film 's orchestral score , while Robert Lopez and Kristen Anderson-Lopez wrote the songs . Frozen premiered at the El Capitan Theatre in Hollywood , California , on November 19 , 2013 , had a limited release on November 22 and went into general theatrical release on November 27 . It was met with praise for its visuals , screenplay , themes , music , and voice acting ; some film critics consider Frozen to be the best Disney animated feature film since the studio 's renaissance era . The film also achieved significant commercial success , earning $ 1.280 billion in worldwide box office revenue , including $ 400 million in the United States and Canada and $ 247 million in Japan . It went on to surpass Toy Story 3 ( which was also distributed by Disney ) as the highest-grossing animated film at the time as well as the highest grossing musical film before being surpassed by the remake of The Lion King in 2019 ; it also ranks as the 16th highest-grossing film of all time , the highest-grossing film of 2013 , and the third highest-grossing film in Japan . It was also the highest-earning film with a female director in terms of US earnings , until surpassed by Warner Bros. Pictures ' Wonder Woman . With over 18 million home media sales in 2014 , it entered the list of best-selling films in the United States .",
    "/wiki/The_Croods": "The Croods is a 2013 American 3D computer-animated comedy adventure film produced by DreamWorks Animation and distributed by 20th Century Fox . It stars the voices of Nicolas Cage , Emma Stone , Ryan Reynolds , Catherine Keener , Clark Duke , Cloris Leachman , and Randy Thom . The film is set in a fictional prehistoric Pliocene era known as The Croodaceous ( a prehistoric period which contains fictional prehistoric creatures ) when a caveman 's position as a Leader of the Hunt is threatened by the arrival of a prehistoric genius who comes up with revolutionary new inventions as they trek through a dangerous but exotic land in search of a new home . The Croods was written and directed by Kirk DeMicco and Chris Sanders , and produced by Kristine Belson and Jane Hartwell . The film premiered at the 63rd Berlin International Film Festival on February 15 , 2013 , and was released in the United States on March 22 , 2013 . As part of the distribution deal , this was the first DreamWorks Animation film to be distributed by 20th Century Fox , since the end of their distribution deal with Paramount Pictures . The Croods received generally positive reviews , and proved to be a box office success , earning more than $ 587 million on a budget of $ 135-175 million . It was nominated for an Oscar for Best Animated Feature and for a Golden Globe Award for Best Animated Feature Film . The film launched a new franchise , with a television series , Dawn of the Croods , which debuted on December 24 , 2015 , on Netflix . A sequel is set to be released in December 2020 .",
    "/wiki/Despicable_Me_2": "Despicable Me 2 is a 2013 American 3D computer-animated comedy film and the sequel to the 2010 animated film Despicable Me . Produced by Illumination Entertainment for Universal Pictures and animated by Illumination Mac Guff , the film was directed by Pierre Coffin and Chris Renaud , and written by Cinco Paul and Ken Daurio . Steve Carell , Russell Brand , Miranda Cosgrove , Elsie Fisher , and Dana Gaier reprise their roles as Gru , Dr. Nefario , Margo , Agnes , and Edith respectively . Kristen Wiig , who played Miss Hattie in the first film , voices agent Lucy Wilde , while Ken Jeong , who played the Talk Show Host , voices Floyd Eagle-san . New cast members include Benjamin Bratt as Eduardo El Macho P\u00e9rez and Steve Coogan as Silas Ramsbottom , head of the fictional Anti-Villain League ( AVL ) . Despicable Me 2 premiered on June 5 , 2013 in Australia and had a wide theatrical release in the United States on July 3 , 2013 . It received generally positive reviews from critics , and it has grossed over $ 970 million worldwide against a budget of $ 76 million . It was nominated for Academy Award for Best Animated Feature and for Academy Award for Best Original Song ( for Happy ) , losing both to Walt Disney Animation Studios ' Frozen . It became the second-highest-grossing animated film of 2013 and the third highest-grossing film of 2013 . It is also the most profitable film in the 101-year history of Universal Pictures . A spinoff/prequel film , Minions , focusing on the little yellow henchmen before they met Gru , was released on July 10 , 2015 . A sequel , Despicable Me 3 , was released on June 30 , 2017 .",
    "/wiki/Christopher_Scarabosio": "Christopher Scarabosio is a sound editor who started working in sound on Gumby Adventures ( 1988 ) as a Sound Effects Assistant , and later as a Sound Editor on The Young Indiana Jones Chronicles . He usually works at Skywalker Sound . He was nominated at the 80th Academy Awards for the film There Will Be Blood in the category of Best Sound Editing , shared with Matthew Wood . He has , also , received two nominations for the Academy Award for Best Sound Mixing , for his work on ( with Andy Nelson and Stuart Wilson ) , and Rogue One : A Star Wars Story ( with David Parker and , again , Stuart Wilson ) .",
    "/wiki/Monsters_University": "Monsters University is a 2013 American 3D computer-animated comedy film produced by Pixar Animation Studios for Walt Disney Pictures . It was directed by Dan Scanlon in his feature film debut and produced by Kori Rae , with John Lasseter , Pete Docter , Andrew Stanton and Lee Unkrich as executive producers . The music for the film was composed by Randy Newman , making it his seventh collaboration with Pixar . It is a prequel to Monsters , Inc. ( 2001 ) , making it the first , and currently , only time Pixar has made a prequel film . Monsters University tells the story of two monsters , Mike and Sulley , and their time studying at college , where they start off as rivals , but slowly become best friends . John Goodman , Billy Crystal , Steve Buscemi , Bob Peterson , and John Ratzenberger reprise their roles as James P. Sullivan , Mike Wazowski , Randall Boggs , Roz , and the Abominable Snowman , respectively . Bonnie Hunt , who voiced Ms. Flint in the first film , voices Mike 's grade school teacher Ms. Karen Graves . Disney , as the rights holder , had plans for a sequel to Monsters , Inc. since 2005 . Following disagreements with Pixar , Disney tasked its Circle 7 Animation unit to make the film . An early draft of the film was developed ; however , Disney 's purchase of Pixar in early 2006 led to the cancellation of Circle 7 's version of the film . A Pixar-made sequel was confirmed in 2010 , and in 2011 , it was confirmed that the film would instead be a prequel titled Monsters University . Monsters University premiered on June 5 , 2013 at the BFI Southbank in London , England , and was theatrically released on June 21 , 2013 , in the United States .",
    "/wiki/Gary_Summers": "Gary Summers is an American sound re-recording mixer . He has done the sound re-recording on a number of blockbuster motion pictures including Avatar , Titanic , , Saving Private Ryan , and Jurassic Park . Summers has won four Oscars , an Emmy Award , two BAFTA awards and three C.A.S . Awards . He got his start working on The Empire Strikes Back and began a twenty-year stretch working for the Skywalker Sound division of George Lucas 's Lucas Digital in Marin County , California . Summers formed Summers Sound Services , Inc. in 2002 and is currently self-employed .",
    "/wiki/Walking_with_Dinosaurs_(film)": "Walking with Dinosaurs is a 2013 family film about dinosaurs set in the Late Cretaceous period , years ago . The production features computer-animated dinosaurs in live-action settings with actors John Leguizamo , Justin Long , Tiya Sircar , and Skyler Stone providing voice-overs for the main characters . It was directed by Neil Nightingale and Barry Cook from a screenplay by John Collee . The film was produced by BBC Earth and Evergreen Films and was titled after BBC 's 1999 television documentary miniseries of the same name . The film , with a budget of , was one of the largest independent productions to date ; it was financed by Reliance Big Entertainment and IM Global instead of a major studio . The majority of distribution rights were eventually sold to 20th Century Fox . The crew filmed footage on location in the U.S. state of Alaska and in New Zealand , which were chosen for their similarities to the dinosaurs ' surroundings millions of years ago . Animal Logic designed computer-animated dinosaurs and added them to the live-action backdrop . Though the film was originally going to lack narration or dialogue , 20th Century Fox executives decided to add voiceovers , believing it would connect audiences to the characters . Walking with Dinosaurs premiered on 2013 at the Dubai International Film Festival . It was released in cinemas in 2D and 3D on 2013 . Critics commended the film 's visual effects , but derided its subpar storyline and the juvenile quality of the voiceover performances .",
    "/wiki/Cinema_Audio_Society_Awards_2014": "The 51st Cinema Audio Society Awards were held on February 14 , 2015 in the Bunker Hill Ballroom of the OMNI Los Angeles Hotel at California Plaza , Los Angeles , honoring outstanding achievements in sound mixing in film and television of 2014 .",
    "/wiki/Big_Hero_6_(film)": "Big Hero 6 is a 2014 American 3D computer animated superhero film produced by Walt Disney Animation Studios and released by Walt Disney Pictures . Loosely based on the superhero team of the same name by Marvel Comics , the film is the 54th Disney animated feature film . Directed by Don Hall and Chris Williams , the film tells the story of Hiro Hamada , a young robotics prodigy who forms a superhero team to combat a masked villain . The film features the voices of Scott Adsit , Ryan Potter , Daniel Henney , T.J. Miller , Jamie Chung , Damon Wayans Jr. , Genesis Rodriguez , Alan Tudyk , James Cromwell and Maya Rudolph . Big Hero 6 is the first Disney animated film to feature Marvel Comics characters , whose parent company was acquired by The Walt Disney Company in 2009 . Walt Disney Animation Studios created new software technology to produce the film 's animated visuals . Big Hero 6 premiered at the 27th Tokyo International Film Festival on October 23 , 2014 , and at the Abu Dhabi Film Festival on October 31 ; it was theatrically released in the Disney Digital 3-D and RealD 3D formats in the United States on November 7 , 2014 . The film was met with both critical and commercial success , grossing over $ 657.8 million worldwide and becoming the highest-grossing animated film of 2014 . It won the Academy Award for Best Animated Feature and the Kids ' Choice Award for Favorite Animated Movie . It also received nominations for the Annie Award for Best Animated Feature , the Golden Globe Award for Best Animated Feature Film and the BAFTA Award for Best Animated Film . Big Hero 6 was released on DVD and Blu-ray Disc on February 24 , 2015 . A television series , which continues the story of the film , debuted on November 20 , 2017 on Disney Channel and Disney XD .",
    "/wiki/The_Boxtrolls": "The Boxtrolls is a 2014 American stop-motion animated fantasy comedy film directed by Graham Annable and Anthony Stacchi based on the 2005 novel Here Be Monsters ! by Alan Snow . It is produced by Laika . The film tells the story of Eggs , a human boy raised by trash-collecting trolls , known as Boxtrolls , as he attempts to save them from Archibald Snatcher , a pest exterminator . The film introduces Isaac Hempstead-Wright as the voice of Eggs and features the voices of Ben Kingsley , Elle Fanning , Dee Bradley Baker , Steve Blum , Toni Collette , Jared Harris , Nick Frost , Richard Ayoade , Tracy Morgan , and Simon Pegg . The film was released on September 26 , 2014 , by Focus Features , to generally positive reviews from critics . The film earned $ 109 million on a $ 60 million budget . It was nominated for an Academy Award for Best Animated Feature .",
    "/wiki/Tom_Myers_(sound_engineer)": "Tom Myers is an American sound engineer . He has been nominated for 3 Academy Awards ; 1 for Best Sound Mixing and 2 for Best Sound Editing . He has worked on more than 100 films since 1990 .",
    "/wiki/Ren_Klyce": "Ren Klyce is an American sound designer . He has been nominated for seven Academy Awards ; four for Best Sound and three for Best Sound Editing . He is best known for his frequent collaborations with director David Fincher , having been the primary sound designer on every one of his films since Seven , including The Girl with the Dragon Tattoo . He is also known for his frequent collaborations with Spike Jonze .",
    "/wiki/How_to_Train_Your_Dragon_2": "How to Train Your Dragon 2 is a 2014 American computer-animated action fantasy film loosely based on the book series of the same name by Cressida Cowell , produced by DreamWorks Animation and distributed by 20th Century Fox . It is the sequel to the 2010 computer-animated film How to Train Your Dragon and the second installment in the trilogy . The film was written and directed by Dean DeBlois , and stars the voices of Jay Baruchel , Gerard Butler , Craig Ferguson , America Ferrera , Jonah Hill , Christopher Mintz-Plasse , T.J. Miller , and Kristen Wiig , along with Cate Blanchett , Djimon Hounsou , and Kit Harington joining the cast . The film takes place five years after the first film , featuring Hiccup and his friends as young adults as they meet Valka , Hiccup 's long-lost mother , and Drago Bludvist , a madman who wants to conquer the world . DeBlois , who co-directed the first film , agreed to return to direct the second film on the condition that he would be allowed to turn it into a trilogy . He cited The Empire Strikes Back and My Neighbor Totoro as his main inspirations , with the expanded scope of The Empire Strikes Back being particularly influential . The entire voice cast from the first film returned , and Cate Blanchett and Djimon Hounsou signed on to voice Valka and Drago , respectively . DeBlois and his creative team visited Norway and Svalbard to give them ideas for the setting . Composer John Powell returned to score the film . How to Train Your Dragon 2 benefited from advances in animation technology and was DreamWorks ' first film to use scalable multicore processing and the studio 's new animation and lighting software . How to Train Your Dragon 2 premiered at Cannes on May 16 , 2014 , and was released in the United States on June 13 . Critics praised the film for its animation , voice acting , musical score , action sequences , emotional depth , and darker , more serious tone compared to its predecessor .",
    "/wiki/The_Lego_Movie": "The Lego Movie is a 2014 computer-animated comedy film written and directed by Phil Lord and Christopher Miller from a story by Lord , Miller , and Dan and Kevin Hageman . Based on the Lego line of construction toys , its story focuses on an ordinary Lego minifigure who finds himself helping a resistance stop a tyrannical businessman from gluing everything in the Lego world into his vision of perfection . Chris Pratt , Will Ferrell , Elizabeth Banks , Will Arnett , Nick Offerman , Alison Brie , Charlie Day , Liam Neeson , and Morgan Freeman provide their voices for the film 's main characters . The film was dedicated to Kathleen Fleming , the former director of entertainment development of the Lego company , following her death in Canc\u00fan , Mexico , in April 2013 . The first film produced by the Warner Animation Group , The Lego Movie was released on February 7 , 2014 , by Warner Bros. Pictures . It became a critical and commercial success , grossing $ 468 million worldwide against its $ 60 million budget , and received praise for its animation , story , and humor . The film won the BAFTA Award for Best Animated Film , the Critics ' Choice Movie Award for Best Animated Feature , the Producers Guild of America Award for Best Animated Motion Picture , and the Saturn Award for Best Animated Film ; it was also nominated for the Golden Globe Award for Best Animated Feature Film and received an Academy Award nomination for Best Original Song for Everything Is Awesome . The film has since expanded into a major franchise which ties into the Lego brand , with the sequel The Lego Movie 2 : The Second Part released in 2019 . The spin-off films The Lego Batman Movie and The Lego Ninjago Movie were both released in 2017 , with another titled The Billion Brick Race in development . A 4D film based on the film itself , entitled The Lego Movie : 4D - A New Adventure , was released to Legoland parks across the world after its premiere at Legoland Florida in 2016 .",
    "/wiki/Gregg_Rudloff": "Gregg Rudloff ( November 2 , 1955 - January 6 , 2019 ) was an American re-recording mixer . He won three Academy Awards for Best Sound and was nominated for four more in the same category . He worked on 150 films from 1983 onwards . His father , Tex Rudloff , was a sound engineer who was nominated for an Academy Award in 1978 . On January 6 , 2019 , Rudloff died at the age of 63 from a reported suicide .",
    "/wiki/Penguins_of_Madagascar": "Penguins of Madagascar , released on home video as Penguins of Madagascar : The Movie , is a 2014 American computer-animated spy action comedy film produced by DreamWorks Animation and distributed by 20th Century Fox . It is a spin-off of the Madagascar film series , and takes place right after the events of Madagascar 3 : Europe 's Most Wanted , following the penguins Skipper , Kowalski , Rico and Private in their own adventure . Apart from the main characters , it is unrelated to the TV series of the same name . The film was directed by Simon J. Smith and Eric Darnell , and written by Michael Colton , John Aboud , and Brandon Sawyer . It stars the voices of Tom McGrath , Chris Miller , Conrad Vernon , Christopher Knights , Benedict Cumberbatch , John Malkovich , and Ken Jeong . The film was released on November 26 , 2014 . It is the first and only film in the Madagascar franchise that was distributed by 20th Century Fox and was the final DreamWorks Animation film produced by Pacific Data Images before its closure on January 22 , 2015 . Despite taking a gross of $ 373 million on a $ 132 million budget , the film underperformed at the box office and forced a write-down for the studio .",
    "/wiki/Paul_N._J._Ottosson": "Paul N. J. Ottosson ( born 25 February 1966 ) is a Swedish sound designer . He won a total of three Academy Awards . Two for the film The Hurt Locker , one for Zero Dark Thirty , and was nominated for a fourth for Spider-Man 2 . He has worked on more than 100 films since 1995 .",
    "/wiki/Cinema_Audio_Society_Awards_2015": "The 52nd Cinema Audio Society Awards were held on February 20 , 2016 in the Bunker Hill Ballroom of the OMNI Los Angeles Hotel at California Plaza , Los Angeles , honoring outstanding achievements in sound mixing in film and television of 2015 .",
    "/wiki/Inside_Out_(2015_film)": "Inside Out is a 2015 American 3D computer-animated comedy film produced by Pixar Animation Studios and released by Walt Disney Pictures . The film was directed by Pete Docter and co-directed by Ronnie del Carmen , with a screenplay written by Docter , Meg LeFauve , and Josh Cooley , adapted from a story by Docter and del Carmen . The film is set in the mind of a young girl named Riley ( Kaitlyn Dias ) , where five personified emotions - Joy ( Amy Poehler ) , Sadness ( Phyllis Smith ) , Anger ( Lewis Black ) , Fear ( Bill Hader ) , and Disgust ( Mindy Kaling ) - try to lead her through life as she and her parents ( Diane Lane and Kyle MacLachlan ) adjust to their new surroundings after moving from Minnesota to San Francisco . Docter first began developing Inside Out in 2010 , after noticing changes in his daughter 's personality as she grew older . The film 's producers consulted numerous psychologists including Dacher Keltner from the University of California , Berkeley , who helped revise the story by emphasizing the neuropsychological findings that human emotions affect interpersonal relationships and can be significantly moderated by them . After premiering at the 68th Cannes Film Festival on May 18 , 2015 , Inside Out was released in North America on June 19 , 2015 , accompanied by the short film Lava . The film was praised for its concept , screenplay , subject matter , Michael Giacchino 's musical score , and the vocal performances ( particularly those of Poehler , Smith , Black , and Richard Kind ) . The film grossed $ 90.4 million in its first weekend , making it the highest opening for an original title at the time , accumulating over $ 857 million in worldwide box office revenue in 2015 , making it the seventh-highest-grossing film of 2015 . The film received several awards , including a BAFTA Award , Golden Globe Award , Critics ' Choice Award , Annie Award , Satellite Award , and Academy Award for Best Animated Feature .",
    "/wiki/Joel_Iwataki": "Joel Iwataki is an American sound engineer . He has won one Primetime Emmy Award . He has worked on more than 150 films .",
    "/wiki/The_Good_Dinosaur": "The Good Dinosaur is a 2015 American 3D computer-animated drama film produced by Pixar Animation Studios and released by Walt Disney Pictures . Directed by Peter Sohn in his directorial debut and written by Meg LeFauve from an original idea by Bob Peterson , the film is set in an alternate history in which dinosaurs never became extinct . The film follows a young and timid Apatosaurus named Arlo , who meets an unlikely human friend while traveling through a harsh , dangerous and mysterious landscape . The film features the voices of Raymond Ochoa , Jack Bright , Sam Elliott , Anna Paquin , A.J . Buckley , Steve Zahn , Jeffrey Wright and Frances McDormand . Peterson , who came up with the idea for the story , directed the film until August 2013 , to which in October 2014 , Sohn was announced as the new director . The film , alongside Inside Out , marked the first time Pixar released two feature films in the same year . The Good Dinosaur premiered on November 10 , 2015 in Paris and was released in the United States on November 25 , 2015 . Despite positive reviews from critics , the film grossed $ 332.2 million worldwide against a $ 175 million budget . Adding in marketing costs , this resulted in a total net loss of $ 85 million , causing it to become Pixar 's first box-office bomb .",
    "/wiki/Hotel_Transylvania_2": "Hotel Transylvania 2 is a 2015 American 3D computer animated comedy film , the second installment in the Hotel Transylvania franchise and the sequel to the 2012 film Hotel Transylvania , with its director , Genndy Tartakovsky , and writer , Robert Smigel , returning for the film . Produced by Sony Pictures Animation , it was animated by Sony Pictures Imageworks , with an additional funding provided by LStar Capital . Hotel Transylvania 2 depicts events taking place 7 years after the first film , with the hotel now open to human guests . Mavis and Johnny have a young son named Dennis , whose lack of any vampire abilities worries his grandfather Dracula . When Mavis and Johnny go on a visit to Johnny 's parents , Dracula calls his friends to help him make Dennis a vampire . Soon , things turn upside-down when Dracula 's old-school human-hating father Vlad unexpectedly visits the hotel . Original voices from the first film - Adam Sandler , Andy Samberg , Selena Gomez , Kevin James , David Spade , Steve Buscemi , Molly Shannon , Fran Drescher , Sadie Sandler and Jonny Solomon - returned for the sequel , with Keegan-Michael Key replacing CeeLo Green as Murray . New additions to the cast include Asher Blinkoff , Nick Offerman , Megan Mullally , Dana Carvey , Rob Riggle and Mel Brooks . The film was released on September 25 , 2015 , by Columbia Pictures and was a box office success , grossing $ 474 million worldwide on an $ 80 million budget . A third film , titled , was released on July 13 , 2018 , with a fourth film set for release on December 21 , 2021 .",
    "/wiki/Minions_(film)": "Minions is a 2015 American 3D computer-animated comedy film , serving as a spin-off prequel to the Despicable Me franchise . Produced by Illumination Entertainment for Universal Pictures , it was directed by Pierre Coffin and Kyle Balda , written by Brian Lynch , and produced by Chris Meledandri and Janet Healy . The film stars the voices of Coffin ( as the Minions , including : Kevin , Stuart , and Bob ) , Sandra Bullock , Jon Hamm , Michael Keaton , Allison Janney , Steve Coogan , and Jennifer Saunders , with the narration provided by Geoffrey Rush . It was first foreshadowed in the end credits of Despicable Me 2 ( 2013 ) , where Kevin , Stuart , and Bob , three of the Minions and the film 's main characters , are seen auditioning for the film . Minions had its premiere on June 11 , 2015 , in Leicester Square , London , and went into general release in the United States on July 10 , 2015 . Critical response was mixed : some critics praised the comedic aspects of the film and the vocal performances of Bullock and Hamm , while also saying they felt that the title characters were not able to carry the film on their own , and that the villains were flatly characterized . The film has grossed over $ 1.1 billion worldwide ( outgrossing each of the Despicable Me films ) , making it the fifth-highest-grossing film of 2015 , the 21st highest-grossing film of all time , the fifth highest-grossing animated film ( behind the 2019 version of The Lion King , Frozen II , Frozen , and Incredibles 2 ) and the highest-grossing non-Disney animated film . A sequel , Minions : The Rise of Gru will be released on July 3 , 2020 .",
    "/wiki/The_Peanuts_Movie": "The Peanuts Movie ( known in some countries as Snoopy and Charlie Brown : A Peanuts Movie ) is a 2015 American computer-animated comedy film based on Charles M. Schulz 's comic strip Peanuts , produced by Blue Sky Studios and distributed by 20th Century Fox . It is the fifth full-length Peanuts film , and the first in 35 years . The film is directed by Steve Martino from a screenplay by Craig and Bryan Schulz ( Schulz 's son and grandson , respectively ) , and Cornelius Uliano , and stars the voices of Noah Schnapp as Charlie Brown and , via archival recordings , Bill Melendez as Snoopy and Woodstock . The film sees Charlie Brown trying to improve his odds with the Little Red-Haired Girl , while Snoopy writes a book about the World War I Flying Ace as he imagines himself as a legend trying to save his love interest and fellow pilot Fifi from the Red Baron and his army . Development of the film began in 2006 , six years after the death of Charles Schulz and the final release of the last Peanuts comic strip . Craig Schulz , the son of Charles , pitched a film idea to his son , Bryan Schulz . While presenting the film idea , Bryan stated that he had full creative control on the film , so that the quality would remain under Charles ' legacy . 20th Century Fox and Blue Sky Studios announced development of a computer-animated film in October 2012 , with Steve Martino directing , due to his faithfulness in the film , Horton Hears a Who ! , also produced by Blue Sky . Numerous elements from the comic strip were featured in the film , such as Charlie Brown 's skating pond , his house , the wall and Lucy 's psychiatrist booth , as well as the Snoopy and Woodstock voice tracks from Bill Melendez . The soundtrack was composed by Christophe Beck , with contributions by Meghan Trainor and David Benoit , including original tracks from Vince Guaraldi The Peanuts Movie premiered in New York City on November 1 , 2015 , and was released in the United States five days later . It grossed $ 246 million worldwide against a $ 99 million budget , and was met with generally favorable reviews , with praise for the animation and faithfulness towards the source material . It received nominations for the Annie Award for Best Animated Feature , the Critics ' Choice Movie Award for Best Animated Feature , and was the first Blue Sky Studios film to be nominated for a Golden Globe Award for Best Animated Feature Film .",
    "/wiki/Lora_Hirschberg": "Lora Hirschberg ( born 1963 ) is an American sound engineer . She has won an Academy Award for Best Sound and has been nominated for another in the same category . She has worked on more than 110 films since 1990 . Hirschberg 's wife is named Laura ."
  }
}