{
  "List_of_contestants_from_the_UK_national_selection_for_the_Eurovision_Song_Contest_65": {
    "/wiki/Luminites": "Luminites were a four-piece English band from London who rose to fame after reaching the final of the seventh series of Britain 's Got Talent in 2013 .",
    "/wiki/The_X_Factor_(British_series_14)": "The X Factor is a British television music competition to find new singing talent . The fourteenth series began airing on ITV on 2 September 2017 , presented by Dermot O'Leary . For the first time in seven years , the judging panel remained the same as the previous series , with Simon Cowell , Sharon Osbourne , Nicole Scherzinger and Louis Walsh returning . This is the first series not to include companion show The Xtra Factor , after it was cancelled in January 2017 . Its replacement is a programme called Xtra Bites presented by Becca Dudley on the ITV Hub . This is also the first series to be sponsored by Just Eat , with the show having being sponsored by TalkTalk since 2009 , as well as the second time the show has premiered in September , rather than August , since the first series in 2004 . Rak-Su won the competition on 3 December 2017 and they became the second group to win the competition and Simon Cowell became the winning mentor for the fourth time .",
    "/wiki/Bigger_than_Us_(Michael_Rice_song)": "Bigger than Us is a song written by Laurell Barker , Anna-Klara Folin , Jonas Thander , and John Lundvik and performed by Michael Rice . He performed the song at the Eurovision Song Contest 2019 , and came in 26th place . The song was chosen on 8 February 2019 at BBC 's national selection show . The song was used as the theme music for the Pride of Britain Awards 2019 .",
    "/wiki/Michael_Rice_(singer)": "Michael Rice ( born 25 October 1997 ) is an English singer . He represented the United Kingdom at the Eurovision Song Contest 2019 in Tel Aviv , Israel with the song Bigger than Us , coming in 26th place with only 11 points and getting only 3 from the public vote . Prior to this , he won the first series of BBC One 's singing competition All Together Now in 2018 , and also appeared in the eleventh series of The X Factor in 2014 ."
  }
}