{
  "List_of_contestants_from_the_UK_national_selection_for_the_Eurovision_Song_Contest_58": {
    "/wiki/Clea_(band)": "Clea was an English girl group whose members met on the television show in 2002 . Chloe Morgan ( n\u00e9e Staines ) , Lynsey Brown , Emma Beard , and Aimee Kearsley , decided to form a band after they were voted off the series . The name 'Clea ' is an acronym of the first letter of each member 's name .",
    "/wiki/The_Revelations": "The Revelations were a British-based girl group formed in 2005 . The members are Annika Magnberg ( born c. 1982 ) , Sarah Vitorino ( born c. 1985 ) , and Louise Masters ( born c. 1982 ) . Magnberg came to the UK from Sweden . Their own record label , Crazy Dancer Records , is distributed by Poptones , the label run by Alan McGee , who has served as DJ for them , and has described them as ABBA meets Phil Spector . The band was conceived by Adam Howarth , formerly of the surf-rock group Captain Soul , who wanted to put together a contemporary version of The Ronettes . Vitorino and Masters answered an ad in NME , and then Magnberg was brought in from near Gothenburg . Their first single , in 2005 , was You 're the Loser , on the indie label Fierce Panda Records . Their self-titled debut album was released in 2007 . In 2008 , they entered the Eurovision - Your Decision finals , hoping to represent the UK at the Eurovision Song Contest with the song It 's You . They reached the second stage where their song was voted on by the public , but failed to make the final sing-off . Earlier in the evening they had been criticised by the judging panel for a weak vocal performance , with particular criticism being levelled at Magnberg who judge Carrie Grant accused of being too weak vocally to lead the song . They represented the UK at the OGAE Second Chance Contest , which is a contest of rejected songs from the national finals organized by fans .",
    "/wiki/Even_If_(Andy_Abraham_song)": "Even If is a song by Andy Abraham and the United Kingdom 's entry for the Eurovision Song Contest 2008 , which took place in Belgrade , Serbia . It was released on 19 May 2008 , stated by his official website . The song is an up-tempo soul type song written by Andy Abraham , Paul Wilson and Andy Watkins . According to betting site PaddyPower.com , the odds for the song to win the Eurovision Song Contest 2008 were 100/1 . In the end , the song reached joint last place at 23rd , with 14 points . The single reached # 67 on the UK Singles Chart . The song was succeeded as United Kingdom representative at the 2009 contest by Jade Ewen with It 's My Time . The UK 's 2009 performance was a significant improvement on 2008 's last-place finish , with Jade Ewen coming 5th in Moscow .",
    "/wiki/Andy_Abraham": "Andrew Abraham ( born 16 July 1964 in North London , England ) is a British singer . He was the runner-up in the second UK series of TV talent show The X Factor in 2005 to Shayne Ward , and also represented the United Kingdom in the Eurovision Song Contest 2008 . Before applying for The X Factor , Abraham was a refuse collector . Prior to this , he worked as a bus driver for Arriva London North based at Palmers Green bus garage . Abraham has two children by his wife Denise , a daughter called Tara and a son called Jacob . He is of Grenadian descent .",
    "/wiki/Michelle_Gayle": "Michelle Patricia Gayle ( born 2 February 1971 ) is a British singer , songwriter , actress and author . Gayle had success as a soul and R & B singer in the 1990s . She achieved seven Top 40 singles in the UK Singles Chart , her two biggest hits to date being Sweetness ( number 4 , September 1994 ) and Do You Know ( number 6 , February 1997 ) . She released two Top 40 albums through RCA Records but they parted company in 1997 , and although Gayle has recorded other albums , they have not been released . As an actress , Gayle is best known for her work on television , in particular playing Hattie Tavernier in BBC 's EastEnders from 1990-1993 . She has also had various roles in film and theatre and played Belle in the West End musical Beauty and the Beast in 1999 . She has taken part in several celebrity-based reality television shows , and , in June 2007 , she became a panellist for ITV 's topical chatshow Loose Women . Gayle branched into writing and the rights to her first novel were acquired by Walker Books in 2010 . The book , Pride and Premiership , was published on 5 May 2011 . She was married to ex-footballer Mark Bright for 10 years but the couple separated in 2007 ."
  }
}