{
  "List_of_Cultural_Properties_of_the_Philippines_in_the_Cordillera_Administrative_Region_0": {
    "/wiki/Abra_(province)": "Abra ( Ilocano : Probinsia ti Abra ; Tagalog : Lalawigan ng Abra ) is a landlocked province of the Philippines in the Cordillera Administrative Region in Luzon . Its capital is Bangued , and is bordered by Ilocos Norte on the northwest , Apayao on the northeast , Kalinga on the mid-east , Mountain Province on the southeast , and Ilocos Sur on the southwest .",
    "/wiki/Tayum": "' , officially the ' , ( ; ) , is a in the province of , . According to the , it has a population of people . Tayum is east of capital Bangued . Roman Catholicism is the dominant religion . Every 25 November , Tayum celebrates its town fiesta .",
    "/wiki/Tayum_Church": "The Santa Catalina de Alejandria Parish Church ( Spanish : Iglesia Parroquial de Santa Catalina de Alejandr\u00eda ) , commonly known as the Tayum Church , is a 19th-century Baroque church located at Brgy . Poblacion , Tayum , Abra , Philippines . The parish church , under the patronage of Saint Catherine of Alexandria , is under the jurisdiction of the Roman Catholic Diocese of Bangued . The church , together with 25 other Spanish-era churches , was declared a National Cultural Treasure by the National Museum of the Philippines in 2001 . Its current parish priest is Fr . Roderick Ardaniel , who succeeded Fr . Ruben Valdez .",
    "/wiki/Divine_Word_College_of_Bangued": "The Divine Word College of Bangued is a Catholic institution of higher learning run by the Society of the Divine Word or SVD in Bangued , Abra , Philippines . The College was the most famous in the province .",
    "/wiki/San_Isidro,_Abra": "' , officially the ' , ( ; ) , is a in the province of , . According to the , it has a population of people .",
    "/wiki/Benguet": "Benguet ( Tagalog pronunciation : [ be\u014b\u02c8\u0261et ] ; Ibaloi : Probinsya ne Benguet ; Ilocano : Probinsia ti Benguet ; Pangasinan : Luyag na Benguet ; Tagalog : Lalawigan ng Benguet ) is a landlocked province of the Philippines located in the southern tip of the Cordillera Administrative Region in the island of Luzon . Its capital is La Trinidad . The highland province is known as the Salad Bowl of the Philippines due to its huge production of upland vegetables . Situated within the interior of Benguet is the highly urbanized city of Baguio , which is administered independent from the province .",
    "/wiki/Baguio": "Baguio ( UK : /\u02c8b\u00e6\u0261io\u028a/ BAG-ee-oh , US : /\u02c8b\u0251\u02d0\u0261- , \u02ccb\u0251\u02d0\u0261i\u02c8o\u028a/ BAH-ghee-oh , -\u2060OH ) , officially the City of Baguio ( Ibaloi : Ciudad ne Bag-iw ; Ilocano : Siudad ti Baguio ; Tagalog : Lungsod ng Baguio ) and popularly referred to as Baguio City , is a city in the mountainous area of the Northern Luzon , Philippines . It is known as the Summer Capital of the Philippines , owing to its cool climate since the city is located approximately 4,810 feet ( 1,470 meters ) above mean sea level , often cited as 1,540 meters ( 5,050 feet ) in the Luzon tropical pine forests ecoregion , which also makes it conducive for the growth of mossy plants , orchids and pine trees , to which it attributes its other moniker as the City of Pines . Baguio was established as a hill station by the United States in 1900 at the site of an Ibaloi village known as Kafagway . It was the United States ' only hill station in Asia . Baguio is classified as a Highly Urbanized City ( HUC ) . It is geographically located within Benguet , serving as the provincial capital from 1901 to 1916 , but has since been administered independently from the province following its conversion into a chartered city . The city is a major center of business , commerce , and education in northern Luzon , as well as the location of the Cordillera Administrative Region . According to the 2015 census , Baguio has a population of 345,366 .",
    "/wiki/Teacher's_Camp": "The Baguio Teachers ' Camp ( BTC ) , sometimes referred as Teacher 's Camp is an events venue and teachers ' training center located along Leonard Wood Road in Baguio , Philippines .",
    "/wiki/The_Mansion_(Baguio)": "The Mansion House ( also known as The Mansion ) is the official summer palace of the President of the Philippines . The mansion is located in the summer capital of the country , Baguio , situated around asl in the Cordillera Central Range of northern Luzon .",
    "/wiki/Brent_International_School": "Brent International School is an international co-educational day and boarding school associated with the Episcopal Church in the Philippines . It has campuses in different locations throughout the Philippines : Brent School Manila in Brgy . Mamplasan , Bi\u00f1an ( Main Campus ) ; Brent School Baguio , and Brent School Subic .",
    "/wiki/Kiangan_National_Shrine": "The Kiangan National Shrine ( Filipino : Bantayog sa Kiangan ) also known as the Yamashita Shrine is a war memorial in Kiangan , Ifugao , Philippines . which commemorates the surrender the top commander of Japanese Imperial Army in the Philippines , General Tomoyuki Yamashita to the Allied forces which led to the end of the Japanese occupation of the archipelago during the World War II era .",
    "/wiki/Ifugao": "Ifugao ( Ilocano : Probinsia ti Ifugao ; Tagalog : Lalawigan ng Ifugao ) is a landlocked province of the Philippines in the Cordillera Administrative Region in Luzon . Its capital is Lagawe and it borders Benguet to the west , Mountain Province to the north , Isabela to the east , and Nueva Vizcaya to the south . The Rice Terraces of the Philippine Cordilleras and Banaue Rice Terraces are the main tourist attractions in the province . These terraces are believed to have been hand-carved into the mountains 2,000 years ago to plant rice . However , recent research by carbon dating suggests that they were built much later . In 1995 , the Rice Terraces of the Philippine Cordilleras were declared as a UNESCO World Heritage Site . In 2008 and 2015 , the Hudhud chants of the Ifugao and the Punnuk ( Tugging rituals and games ) were inscribed in the UNESCO Intangible Cultural Heritage Lists .",
    "/wiki/Kiangan,_Ifugao": "' , officially the ' is a in the province of , . According to the , it has a population of people . Kiangan is the oldest town in the province . It derives its name from Kiyyangan , an ancient village near the bank of the Ibulao River across the Lagawe valley . The name Kiyyangan is enshrined in Ifugao mythology and is believed to be the dwelling of Wigan and Bugan , the mythological ancestors of the Ifugao . It was the former capital of Ifugao until the topology was deemed unfit and moved to neighboring Lagawe . The Nagacadan Rice Terraces are part of the Rice Terraces of the Philippine Cordilleras World Heritage Site .",
    "/wiki/Banaue_Rice_Terraces": "The Banaue Rice Terraces ( ) are terraces that were carved into the mountains of Banaue , Ifugao , in the Philippines , by the ancestors of the indigenous people . The terraces are occasionally called the Eighth Wonder of the World . It is commonly thought that the terraces were built with minimal equipment , largely by hand . The terraces are located approximately above sea level . These are fed by an ancient irrigation system from the rainforests above the terraces . It is said that if the steps were put end to end , it would encircle half of the globe . Locals up to this day still plant rice and vegetables on the terraces , although more and more younger Ifugaos do not find farming appealing , often opting for the more lucrative hospitality industry generated by the terraces . The result is the gradual erosion of the characteristic steps , which require constant reconstruction and care . In 2010 , a further problem encountered was drought , with the terraces drying up completely in March of that year . Anthropologist Otley Beyer has estimated that the terraces are over 2000 years old , but several researchers dispute this and contend that they were built much later . There are also giant earthworms ( olang in Ifugao ) of the genus Pheretima or Polypheretima elongata which are blamed for causing damage to the terraces , as well as rodents of the genus Chrotomis mindorensis , and snails ."
  }
}