{
  "List_of_international_cricket_centuries_at_Punjab_Cricket_Association_IS_Bindra_Stadium_1": {
    "/wiki/Nathan_Astle": "Nathan John Astle ( born 15 September 1971 ) is a former New Zealand cricketer , who played all formats of the game . A right handed batsman who played as an opener in One Day Internationals ( ODI ) , while batting in the middle order in Test matches . In a career that spanned 12 years , Astle played 81 Tests and 223 ODIs accumulating 4,702 and 7,090 runs respectively . As of 2013 , he is New Zealand 's second-most prolific run scorer . Astle collected 154 wickets with his medium-paced bowling at the international level . He holds two records - scoring the fastest double century in Test cricket and the second highest individual score in the fourth innings of a Test match . Both the records were achieved when he made 222 against England in Christchurch in 2002 . Astle has played County Cricket in England for Derbyshire , Durham and Nottinghamshire and for Canterbury in New Zealand . He was also a footballer who represented Rangers A.F.C . and good at Auto racing .",
    "/wiki/New_Zealand_national_cricket_team": "The New Zealand national cricket team represents New Zealand in men 's international cricket . Nicknamed the Black Caps , they played their first Test in 1930 against England in Christchurch , becoming the fifth country to play Test cricket . From 1930 New Zealand had to wait until 1956 , more than 26 years , for its first Test victory , against the West Indies at Eden Park in Auckland . They played their first ODI in the 1972-73 season against Pakistan in Christchurch . The current captain in all formats of the game is Kane Williamson , who replaced Brendon McCullum after the latter 's retirement in December 2015 . The national team is organised by New Zealand Cricket . The New Zealand cricket team became known as the Black Caps in January 1998 , after its sponsor at the time , Clear Communications , held a competition to choose a name for the team . This is one of many national team nicknames related to the All Blacks . As of 8 September 2019 , New Zealand have played 1324 international matches , winning 505 , losing 599 , tying 12 and drawing 165 matches while 43 matches ended as no result . The team is ranked 2nd in Tests , 3rd in ODIs and 6th in T20Is by the ICC . New Zealand defeated South Africa in the semi final of the 2015 World Cup , which was their first win in the a world cup semi final and hence they made their maiden appearance in a World Cup Final , but they ultimately lost to Trans-Tasman rivals Australia . In the next World Cup in 2019 , New Zealand again reached the final which they lost to the hosts England on boundary count after the match and the subsequent Super Over both ended as ties .",
    "/wiki/Pakistan_national_cricket_team": "The Pakistan national cricket team ( Urdu : \u067e\u0627\u06a9\u0633\u062a\u0627\u0646 \u0642\u0648\u0645\u06cc \u06a9\u0631\u06a9\u0679 \u0679\u06cc\u0645 ) , popularly referred to as the Shaheens ( Urdu : \u0634\u0627\u06c1\u06cc\u0646 , lit . Falcons ) , Green Shirts and Men in Green , is administered by the Pakistan Cricket Board ( PCB ) . The team is a Full Member of the International Cricket Council , and participates in Test , One Day International ( ODI ) and Twenty20 International cricket matches . Pakistan has played 428 Test matches , winning 138 , losing 130 and drawing 160 . Pakistan was given Test status on 28 July 1952 , following a recommendation by India , and made its Test debut against India at Feroz Shah Kotla Ground , Delhi , in October 1952 , with India winning by an innings and 70 runs . In the 1930s and 40s , several Pakistani Test players had played Test cricket for the Indian cricket team before the creation of Pakistan in 1947 . The team has played 927 ODIs , winning 486 , losing 413 , tying 8 with 20 ending in no-result . Pakistan was the 1992 World Cup champion , and was the runner-up in the 1999 tournament . Pakistan , in conjunction with other countries in South Asia , has hosted the 1987 and 1996 World Cups , with the 1996 final being hosted at Gaddafi Stadium in Lahore . The team has also played 151 Twenty20 Internationals , the most of any team , winning 92 losing 55 and tying 3 . Pakistan won the 2009 ICC World Twenty20 and were runners-up in the inaugural tournament in 2007 . Pakistan also won the 2017 ICC Champions Trophy for the first time , defeating India .",
    "/wiki/Upul_Tharanga": "Warushavithana Upul Tharanga ( born 2 February 1985 ) , commonly known as Upul Tharanga ( ) , is a professional Sri Lankan cricketer , and a former limited over captain who plays for all formats of the game . He is a left-handed opening batsman and occasional wicket-keeper .",
    "/wiki/Sri_Lanka_national_cricket_team": "The Sri Lanka national men 's cricket team , ( Sinhala : \u0dc1\u0dca\u200d\u0dbb\u0dd3 \u0dbd\u0d82\u0d9a\u0dcf \u0da2\u0dcf\u0dad\u0dd2\u0d9a \u0d9a\u0dca\u200d\u0dbb\u0dd2\u0d9a\u0da7\u0dca \u0d9a\u0dab\u0dca\u0da9\u0dcf\u0dba\u0db8 , Tamil : \u0b87\u0bb2\u0b99\u0bcd\u0b95\u0bc8 \u0ba4\u0bc7\u0b9a\u0bbf\u0baf \u0b95\u0bbf\u0bb0\u0bbf\u0b95\u0bcd\u0b95\u0bc6\u0b9f\u0bcd \u0b85\u0ba3\u0bbf ) nicknamed The Lions , represents Sri Lanka in men 's international cricket . It is a Full Member of the International Cricket Council ( ICC ) with Test , One-Day International ( ODI ) and T20 International ( T20I ) status . The team first played international cricket ( as Ceylon ) in 1926-27 , and were later awarded Test status in 1982 , which made Sri Lanka the eighth Test cricket playing nation . The team is administered by Sri Lanka Cricket . Sri Lanka 's national cricket team achieved considerable success beginning in the 1990s , rising from underdog status to winning the Cricket World Cup in 1996 . Since then , the team has continued to be a force in international cricket . The Sri Lankan cricket team reached the finals of the 2007 and 2011 Cricket World Cups consecutively . They ended up being runners up on both occasions . Sri Lanka won the Cricket World Cup in 1996 , the ICC Champions Trophy in 2002 ( co-champions with India ) , and the ICC T20 World Cup in 2014 . They have been consecutive runners up in the 2007 and 2011 Cricket World Cups , and have been runners up in the ICC T20 World Cup in 2009 and 2012 . The Sri Lankan cricket team currently holds several world records , including the world record for the highest team total in Test cricket .",
    "/wiki/Bangladesh_national_cricket_team": "The Bangladesh men 's national cricket team ( Bengali : \u09ac\u09be\u0982\u09b2\u09be\u09a6\u09c7\u09b6 \u099c\u09be\u09a4\u09c0\u09af\u09bc \u0995\u09cd\u09b0\u09bf\u0995\u09c7\u099f \u09a6\u09b2 ) , popularly known as , The Tigers [ citation needed ] is administered by the Bangladesh Cricket Board ( BCB ) . It is a Full Member of the International Cricket Council ( ICC ) with Test and One-Day International ( ODI ) status . It played its first Test match in November 2000 against India in Dhaka , becoming the tenth Test-playing nation . Bangladesh 's first official foray into international cricket came in the 1979 ICC Trophy in England . On 31 March 1986 , Bangladesh played its first ODI match , against Pakistan in the Asia Cup . For a long time , football was the most popular sport in Bangladesh , but cricket gradually became very popular - particularly in urban areas - and by the late 1990s had surpassed football .",
    "/wiki/Younis_Khan": "Mohammad Younis Khan ( ) ( born 1975 ) is a Pakistani cricket coach and former cricketer and captain of the Pakistan national cricket team in all three formats of the game , and is widely regarded as one of Pakistan 's greatest batsmen in Test cricket . Khan is the only Test cricketer in the history of the game to score a century in all 11 countries that have hosted Test matches . Younis holds the record for the most runs and the most centuries scored by a Pakistani in Test cricket history . and is the third Pakistani player to score 300 or more runs in an innings . He is one of the handful of test batsman in the world with a century conversion ratio of over 100 percent , with 34 centuries and 33 fifties . He led Pakistan to their victory in the 2009 ICC World Twenty20 , which was their first World Twenty20 title . On 23 April 2017 , he became the first Pakistani and 13th ever batsmen to score 10,000 runs in Test cricket . He became the oldest and sixth fastest batsmen to reach the 10,000 run milestone in relation to innings played . On 24 March 2010 , Younis , along with teammate Mohammad Yousuf were suspended from playing by the Pakistan Cricket Board following an inquiry report which suggested they were involved in breaches of discipline by inciting divisions within the team . The ban was lifted three months later . In a Test match against Australia beginning on 22 October 2014 , Younis made his 25th and 26th centuries in the same match , becoming just the 6th Pakistani to do so . On 25 June 2015 , Younis became the fifth Pakistani cricketer to play 100 Test matches and on 13 October 2015 , he became Pakistan 's highest run scorer in Test cricket , breaking Javed Miandad 's record of 8,832 runs .",
    "/wiki/India_national_cricket_team": "The India men 's national cricket team , also known as Team India and Men in Blue , is governed by the Board of Control for Cricket in India ( BCCI ) , and is a Full Member of the International Cricket Council ( ICC ) with Test , One-Day International ( ODI ) and Twenty20 International ( T20I ) status . Cricket was introduced to India by European merchant sailors in the 18th century , and the first cricket club was established in 1792 . India 's national cricket team did not play its first Test match until 25 June 1932 at Lord 's , becoming the sixth team to be granted test cricket status . From 1932 India had to wait until 1952 , almost 20 years for its first Test victory . In its first fifty years of international cricket , India was one of the weaker teams , winning only 35 of the first 196 Test matches it played . The team , however , gained strength in the 1970s with the emergence of players such as batsmen Gavaskar , Viswanath , Kapil Dev , and the Indian spin quartet . Traditionally much stronger at home than abroad , the Indian team has improved its overseas form , especially in limited-overs cricket , since the start of the 21st century , winning Test matches in Australia , England and South Africa . It has won the Cricket World Cup twice - in 1983 under the captaincy of Kapil Dev and in 2011 under the captaincy of Mahendra Singh Dhoni . After winning the 2011 World Cup , India became only the third team after West Indies and Australia to have won the World Cup more than once , and the first cricket team to win the World Cup at home . It also won the 2007 ICC World Twenty20 and 2013 ICC Champions Trophy , under the captaincy of MS Dhoni . It was also the joint champions of 2002 ICC Champions Trophy , along with Sri Lanka . The Indian cricket team has rivalries with other Test-playing nations , most notably with Pakistan , the political arch-rival of India .",
    "/wiki/Hashim_Amla": "Hashim Mohammed Amla OIS ( born 31 March 1983 ) is a former South African international cricketer who played for South Africa in all three formats of the game . He is regarded as one of the greatest opening batsmen of all time . Amla currently holds the record for being the fastest ever to 2000 , 3000 , 4000 , 5000 , 6000 and 7000 ODI runs . He also became the fastest cricketer to reach 10 ODI centuries . Amla is an occasional off break bowler and was South Africa 's Test captain from June 2014 to January 2016 . He is a right-handed batsman and holds the record for the highest individual Test score of any South African batsman of 311 not out , scored against England at The Oval , London in July 2012 . In 2014 , he became the fastest cricketer to reach 15 centuries in ODIs in his 86th innings . In the same year he became the fastest cricketer to reach 16 centuries in ODIs in his 94th inning and fastest cricketer to 17 centuries in ODIs in his 98th innings . On 18 January 2015 , he became the fastest cricketer to score 18 centuries in ODIs in his 102nd innings . On 3 March 2015 , he became the fastest cricketer to reach 20 centuries in ODIs in his 108th innings . He has scored ODI centuries against all Test playing countries and is only the fourth person to do so . He was named as one of the Wisden Cricketers of the Year in 2013 .",
    "/wiki/South_Africa_national_cricket_team": "The South Africa national cricket team also known as Proteas represents South Africa in men 's international cricket ( after South Africa 's national flower , Protea cynaroides , commonly known as the king protea ) , is administered by Cricket South Africa . South Africa is a full member of the International Cricket Council ( ICC ) with Test , One-Day International ( ODI ) and Twenty20 International ( T20I ) status . South Africa entered first-class and international cricket at the same time when they hosted an England cricket team in the 1888-89 season . At first , the team was no match for Australia or England but , having gained in experience and expertise , they were able to field a competitive team in the first decade of the 20th century . The team regularly played against Australia , England and New Zealand through to the 1960s , by which time there was considerable opposition to the country 's apartheid policy and an international ban was imposed by the ICC , commensurate with actions taken by other global sporting bodies . When the ban was imposed , South Africa had developed to a point where its team including Eddie Barlow , Graeme Pollock and Mike Procter was arguably the best in the world and had just outplayed Australia . The ban remained in place until 1991 and South Africa could then play against India , Pakistan , Sri Lanka and the West Indies for the first time . The team since reinstatement has mostly been strong and has at times held number one positions in international rankings ( had best ranking of No.1 in all three formats ) but has lacked success in ICC organised tournaments . Outstanding players since reinstatement have included Allan Donald , Makhaya Ntini , Shaun Pollock , Jacques Kallis , Graeme Smith , Kagiso Rabada , AB de Villiers , Dale Steyn , Herschelle Gibbs , Faf du Plessis , Morne Morkel , Imran Tahir and Hashim Amla .",
    "/wiki/Netherlands_national_cricket_team": "The Netherlands national cricket team is the team that represents the Kingdom of the Netherlands and is administered by the Koninklijke Nederlandse Cricket Bond ( Royal Dutch Cricket Association ) . Cricket has been played in the Netherlands since at least the 19th century , and in the 1860s was considered a major sport in the country . Other sports - notably football - have long since surpassed cricket in popularity amongst the Dutch , but today there are around 6,000 cricketers in the Netherlands . The first national association , the forerunner of today 's Royal Dutch Cricket Association , was formed in 1883 and the Netherlands achieved Associate Membership of the International Cricket Council ( ICC ) in 1966 . The Netherlands have taken part in all eleven ICC Trophy/World Cup Qualifier tournaments , winning the competition in Canada in 2001 and finishing as runners-up twice ( in 1986 and 1990 ) . The Netherlands also participated in the 1996 , 2003 , 2007 and 2011 Cricket World Cups , and from 1996 onwards the national team entered the English domestic NatWest Trophy competition ( and its successor , the C & G Trophy ) . In 2004 they played first-class cricket in the ICC Intercontinental Cup , drawing with Scotland in Aberdeen and then going down to an innings defeat against Ireland in Deventer . The Netherlands enjoyed full One Day International status from 1 January 2006 until 1 February 2014 . They regained Twenty20 International status in June 2014 , having played their first match in this format in 2008 . The Netherlands regained their ODI status after the conclusion of the 2018 Cricket World Cup Qualifier in March 2018 . They had guaranteed this status before the tournament as a result of winning the 2015-17 ICC World Cricket League Championship and thus qualifying for the 2020-22 ICC ODI League , and will retain the status until the 2022 Cricket World Cup Qualifier . In April 2018 , the ICC decided to grant full Twenty20 International ( T20I ) status to all its members .",
    "/wiki/AB_de_Villiers": "Abraham Benjamin de Villiers ( born 17 February 1984 ) , commonly known as AB de Villiers , Mr. 360\u00b0 or simply AB , is a South African cricketer . He is considered as one of the greatest batsmen of all time . He plays for Tshwane Spartans in Mzansi Super League and Royal Challengers Bangalore in the Indian Premier League . In limited overs cricket he is an attacking batsman . He was named as the ICC ODI Player of the Year three times during his 15-year international career . His name was also featured in Wisden Cricketers of the Decade at the end of 2019 . De Villiers began his international career as a wicket-keeper-batsman , but he has played most often solely as a batsman . He batted at various positions in the batting order , but predominantly in the middle-order . Noted as one of the most innovative and destructive batsmen in the modern era , De Villiers is known for a range of unorthodox shots , particularly behind the wicket-keeper . He made his international debut in a Test match against England in 2004 and first played a One Day International ( ODI ) in early 2005 . His debut in Twenty20 International cricket came in 2006 . He scored over 8,000 runs in both Test and ODI cricket and is one of the very few batsmen to have a batting average of over fifty in both forms of the game .",
    "/wiki/Devon_Smith": "Devon Sheldon Smith ( born 21 October 1981 in Hermitage , Grenada ) is a cricketer who represents the West Indies . His primary role within the team is as an opening or top order left-handed batsman , he has bowled right arm off breaks in his career but rarely at international level . In the West Indian domestic competitions he plays for the Windward Islands . He has been described as a compact player who heavily favours scoring on the offside .",
    "/wiki/West_Indies_cricket_team": "The West Indies cricket team , nicknamed the Windies , is a multi-national men 's cricket team representing the mainly English-speaking nations and territories in the Caribbean region and administered by Cricket West Indies . The players on this composite team are selected from a chain of fifteen Caribbean territories , which are parts of several different countries and dependencies . As of 29 December 2019 [ update ] , the West Indies cricket team is ranked eighth in the world in Tests , ninth in One-Day Internationals ( ODIs ) and tenth in Twenty20 Internationals ( T20Is ) in the official International Cricket Council ( ICC ) rankings . From the mid-late 1970s to the early 1990s , the West Indies team was the strongest in the world in both Test and One Day International cricket . A number of cricketers who were considered among the best in the world have hailed from the West Indies : Sir Garfield Sobers , Lance Gibbs , George Headley , Brian Lara , Clive Lloyd , Malcolm Marshall , Alvin Kalicharan , Sir Andy Roberts , Rohan Kanhai , Sir Frank Worrell , Sir Clyde Walcott , Sir Everton Weekes , Sir Curtly Ambrose , Michael Holding , Courtney Walsh , Joel Garner , Sir Viv Richards and Sir Wes Hall have all been inducted into the ICC Hall of Fame . The West Indies have won the ICC Cricket World Cup twice ( 1975 and 1979 ) , the ICC World Twenty20 twice ( 2012 and 2016 ) , the ICC Champions Trophy once ( 2004 ) , the ICC Under 19 Cricket World Cup once ( 2016 ) , and have also finished as runners-up in the Cricket World Cup ( 1983 ) , the Under 19 Cricket World Cup ( 2004 ) , and the ICC Champions Trophy ( 2006 ) . The West Indies appeared in three consecutive World Cup finals ( 1975 , 1979 and 1983 ) , and were the first team to win back-to-back World Cups ( 1975 and 1979 ) . The West Indies has hosted the 2007 Cricket World Cup and the 2010 ICC World Twenty20 . In June 2019 , during the 2019 Cricket World Cup , the West Indies played their 800th ODI match .",
    "/wiki/Ireland_cricket_team": "The Ireland cricket team represents all of Ireland in international cricket . The Irish Cricket Union , operating under the brand Cricket Ireland is the sport 's governing body in Ireland , and organises the international team . Ireland participate in all three major forms of the international game ; Test , One-Day International ( ODI ) and Twenty20 International ( T20I ) matches . They are the 11th Full Member of the International Cricket Council ( ICC ) , and the second Full Member from Europe , having been awarded Test status , along with Afghanistan , on 22 June 2017 . Cricket was introduced to Ireland in the 19th century , and the first match played by an Ireland team was in 1855 . Ireland toured Canada and the United States in the late 19th century , and occasionally hosted matches against touring sides . Ireland 's most significant international rivalry , with the Scotland national cricket team , was established when the teams first played each other in 1888 . Ireland 's maiden first-class match was played in 1902 . Ireland were elected to Associate membership of the ICC in 1993 , but played their first full ODI in 2006 against England in the build-up to the 2007 ICC Cricket World Cup , their first successful qualification . At that tournament , a series of eye-catching results against Full Members , including a draw against Zimbabwe , and wins against Pakistan and Bangladesh confirmed Ireland 's ODI status after the competition . Since then , they have gone on to play 150 ODIs , resulting in 64 victories , 75 defeats , 8 no results , and 3 ties . Contracts for players were introduced in 2009 , marking the transition to becoming a professional team .",
    "/wiki/MS_Dhoni": "Mahendra Singh Dhoni ( born 7 July 1981 ) , commonly known as MS Dhoni , is an Indian international cricketer who captained the Indian national team in limited-overs formats from 2007 to 2016 and in Test cricket from 2008 to 2014 . Under his captaincy , India won the 2007 ICC World Twenty20 , the 2010 and 2016 Asia Cups , the 2011 ICC Cricket World Cup and the 2013 ICC Champions Trophy . A right-handed middle-order batsman and wicket-keeper , Dhoni is one of the highest run scorers in One Day Internationals ( ODIs ) with more than 10,000 runs scored and is considered an effective finisher in limited-overs formats . He is also regarded by some as one of the best wicket-keepers and captain in modern limited-overs international cricket . He made his ODI debut in December 2004 against Bangladesh , and played his first Test a year later against Sri Lanka . Dhoni has been the recipient of many awards , including the ICC ODI Player of the Year award in 2008 and 2009 ( the first player to win the award twice ) , the Rajiv Gandhi Khel Ratna award in 2007 , the Padma Shri , India 's fourth highest civilian honour , in 2009 and the Padma Bhushan , India 's third highest civilian honour , in 2018 . He was named as the captain of the ICC World Test XI in 2009 , 2010 and 2013 . He has also been selected a record 8 times in ICC World ODI XI teams , 5 times as captain . The Indian Territorial Army conferred the honorary rank of Lieutenant Colonel to Dhoni on 1 November 2011 . He is the second Indian cricketer after Kapil Dev to receive this honour . Dhoni also holds numerous captaincy records such as the most wins by an Indian captain in ODIs and T20Is , and most back-to-back wins by an Indian captain in ODIs . He took over the ODI captaincy from Rahul Dravid in 2007 and led the team to its first-ever bilateral ODI series wins in Sri Lanka and New Zealand .",
    "/wiki/Australia_national_cricket_team": "The Australian men 's national cricket team represents Australia in men 's international cricket . As one of the oldest teams in Test cricket history , playing in the first ever Test match in 1877 , the team also plays One-Day International ( ODI ) and Twenty20 International ( T20I ) cricket , participating in both the first ODI , against England in the 1970-71 season and the first T20I , against New Zealand in the 2004-05 season , winning both games . The team draws its players from teams playing in the Australian domestic competitions - the Sheffield Shield , the Australian domestic limited-overs cricket tournament and the Big Bash League . The national team has played 830 Test matches , winning 393 , losing 224 , drawing 211 and tying 2 . As of February 2020 [ update ] , Australia is ranked second in the ICC Test Championship on 108 rating points . Australia is the most successful team in Test cricket history , in terms of overall wins , win-loss ratio and wins percentage . The Australian cricket team has played 942 ODI matches , winning 573 , losing 326 , tying 9 and with 34 ending in a no-result . As of January 2020 [ update ] , Australia is ranked fifth in the ICC ODI Championship on 110 rating points , though have been ranked first for 141 of 185 months since its introduction in 2002 . Australia is the most successful team in ODI cricket history , winning more than 60 per cent of their matches . Australia have made a record seven World Cup final appearances ( 1975 , 1987 , 1996 , 1999 , 2003 , 2007 and 2015 ) and have won the World Cup a record five times : 1987 , 1999 , 2003 , 2007 and 2015 . Australia is the first team to appear in four consecutive World Cup finals ( 1996 , 1999 , 2003 and 2007 ) , surpassing the old record of three consecutive World Cup appearances by the West Indies ( 1975 , 1979 and 1983 ) and the first team to win 3 consecutive World Cups ( 1999 , 2003 and 2007 ) . The team was undefeated in 34 consecutive World Cup matches until the 2011 Cricket World Cup where Pakistan beat them by 4 wickets in the Quarter-final .",
    "/wiki/Virat_Kohli": "Virat Kohli ( ; born 5 November 1988 ) is an Indian cricketer who currently captains the India national team . A right-handed top-order batsman , Kohli is regarded as one of the best batsmen in the world . He plays for Royal Challengers Bangalore in the Indian Premier League ( IPL ) , and has been the team 's captain since 2013 . Since October 2017 , he has been the top-ranked ODI batsman in the world and is currently 1st in Test rankings with 928 points.Among Indian batsmen , Kohli has the best ever Test rating ( 937 points ) , ( 911 points ) and ( 897 points ) . Kohli captained India Under-19s to victory at the 2008 Under-19 World Cup in Malaysia . After a few months later , he made his ODI debut for India against Sri Lanka at the age of 19 . Initially having played as a reserve batsman in the Indian team , he soon established himself as a regular in the ODI middle-order and was part of the squad that won the 2011 World Cup . He made his Test debut in 2011 and shrugged off the tag of ODI specialist by 2013 with Test hundreds in Australia and South Africa . Having reached the number one spot in the ICC rankings for ODI batsmen for the first time in 2013 , Kohli also found success in the Twenty20 format , winning the Man of the Tournament twice at the ICC World Twenty20 ( in 2014 and 2016 ) . Kohli was appointed the vice-captain of the ODI team in 2012 and handed over the Test captaincy following Mahendra Singh Dhoni 's Test retirement in 2014 . In early 2017 , he became the limited-overs captain as well after Dhoni stepped down from the position . In ODIs , Kohli has the second highest number of centuries and the highest number of centuries in run-chases in the world .",
    "/wiki/Rohit_Sharma": "Rohit Gurunath Sharma ( born 30 April 1987 ) is an Indian international cricketer who plays for Mumbai in domestic cricket and captains Mumbai Indians in the Indian Premier League as a right-handed batsman and an occasional right-arm off break bowler . He is the vice-captain of the Indian national team in limited-overs formats . He is the only cricketer in the history of cricket to score more than one ODI double-hundred , having scored three of them . In January 2020 , Sharma was named as the ODI Cricketer of the Year by the International Cricket Council ( ICC ) . Outside cricket , Sharma is an active supporter of animal welfare campaigns . He is the official Rhino Ambassador for WWF-India and is a member of People for the Ethical Treatment of Animals ( PETA ) . He has worked with PETA in its campaign to raise awareness of the plight of homeless cats and dogs in India .",
    "/wiki/Angelo_Mathews": "Angelo Davis Mathews , ( Sinhala : \u0d87\u0db1\u0dca\u0da2\u0dd9\u0dbd\u0ddd \u0db8\u0dd0\u0dad\u0dd2\u0dc0\u0dca\u0dc3\u0dca ; Tamil : \u0b86\u0b9e\u0bcd\u0b9a\u0bb2\u0bcb \u0bae\u0bbe\u0ba4\u0bcd\u0baf\u0bc2\u0bb8\u0bcd ; born 2 June 1987 ) , is a professional Sri Lankan cricketer and a former captain in all formats . He was also a key member of the team that won the 2014 ICC World Twenty20 and was part of the team that made the finals of 2011 Cricket World Cup , 2009 ICC World Twenty20 and 2012 ICC World Twenty20 . An occasional bowler who can deliver swinging match-winning spells , Mathews and Lasith Malinga holds the record for the highest ninth wicket partnership in ODI cricket .",
    "/wiki/Shikhar_Dhawan": "Shikhar Dhawan ( born 5 December 1985 ) is an Indian international cricketer . A left-handed opening batsman and an occasional right-arm off break bowler , he plays for Delhi in domestic cricket and Delhi Capitals in the IPL . He played for the Indian Under-17 and Under-19 teams before making his first-class debut for Delhi in November 2004 . At the 2015 World Cup , he was the leading run-scorer for India and in the following year , became the fastest Indian to reach 3,000 ODI runs . In December 2017 , he became the 2nd fastest Indian to reach 4000 ODI runs . Dhawan also holds the record for most runs in a calendar year in Twenty20 International cricket ( 689 ) . He is known for his successful knocks in ICC Tournaments . Dhawan made his One Day International ( ODI ) debut against Australia in October 2010 at Visakhapatnam . His Test debut came against the same opposition in March 2013 at Mohali where he scored the fastest century by any batsman on Test debut and ended his innings with 187 runs from 174 balls . A prolific run-scorer in ICC tournaments , Dhawan top-scored in the 2004 Under-19 World Cup , and the 2013 and 2017 Champions Trophy tournaments , and holds the record for the fastest to reach 1000 runs in ICC ODI tournaments . In August 2013 , he recorded the then-second-highest individual score in a List A match when he scored 248 runs off 150 balls for India A against South Africa A at Pretoria . During the 4th ODI against South Africa in Johannesburg , he became the first Indian and ninth overall to score a century in his 100th ODI game .",
    "/wiki/Peter_Handscomb": "Peter Stephen Patrick Handscomb ( born 26 April 1991 ) is an Australian cricketer who is the current captain for Victoria and Middlesex . He is contracted domestically to Victoria , the Melbourne Stars and Middlesex . He is also in the current squad for Tests , Twenty20 Internationals and One Day Internationals for Australia . He is a middle order batsman and occasional wicket-keeper . He initially had the role of wicket keeper for the national team when former keeper Matthew Wade was unavailable . He most recently kept during the First T20I against India in February 2019 , replacing vice-captain Alex Carey in the lineup ."
  },
  "List_of_international_cricket_centuries_at_the_Pallekele_International_Cricket_Stadium_1": {
    "/wiki/Ross_Taylor": "Luteru Ross Poutoa Lote Taylor ( born 8 March 1984 ) is a New Zealand cricketer who plays predominantly at number four in all formats of the game . Taylor is a former captain of New Zealand in all formats . In February 2017 he became the leading century maker for New Zealand in ODIs and in January 2019 scored his 20th century in ODIs , becoming the first New Zealand player to reach 20 centuries in any format of the game . In January 2020 , during the third Test against Australia , Taylor passed Stephen Fleming 's career total of 7,172 runs to become the leading run-scorer for New Zealand in Test cricket .",
    "/wiki/New_Zealand_national_cricket_team": "The New Zealand national cricket team represents New Zealand in men 's international cricket . Nicknamed the Black Caps , they played their first Test in 1930 against England in Christchurch , becoming the fifth country to play Test cricket . From 1930 New Zealand had to wait until 1956 , more than 26 years , for its first Test victory , against the West Indies at Eden Park in Auckland . They played their first ODI in the 1972-73 season against Pakistan in Christchurch . The current captain in all formats of the game is Kane Williamson , who replaced Brendon McCullum after the latter 's retirement in December 2015 . The national team is organised by New Zealand Cricket . The New Zealand cricket team became known as the Black Caps in January 1998 , after its sponsor at the time , Clear Communications , held a competition to choose a name for the team . This is one of many national team nicknames related to the All Blacks . As of 8 September 2019 , New Zealand have played 1324 international matches , winning 505 , losing 599 , tying 12 and drawing 165 matches while 43 matches ended as no result . The team is ranked 2nd in Tests , 3rd in ODIs and 6th in T20Is by the ICC . New Zealand defeated South Africa in the semi final of the 2015 World Cup , which was their first win in the a world cup semi final and hence they made their maiden appearance in a World Cup Final , but they ultimately lost to Trans-Tasman rivals Australia . In the next World Cup in 2019 , New Zealand again reached the final which they lost to the hosts England on boundary count after the match and the subsequent Super Over both ended as ties .",
    "/wiki/Pakistan_national_cricket_team": "The Pakistan national cricket team ( Urdu : \u067e\u0627\u06a9\u0633\u062a\u0627\u0646 \u0642\u0648\u0645\u06cc \u06a9\u0631\u06a9\u0679 \u0679\u06cc\u0645 ) , popularly referred to as the Shaheens ( Urdu : \u0634\u0627\u06c1\u06cc\u0646 , lit . Falcons ) , Green Shirts and Men in Green , is administered by the Pakistan Cricket Board ( PCB ) . The team is a Full Member of the International Cricket Council , and participates in Test , One Day International ( ODI ) and Twenty20 International cricket matches . Pakistan has played 428 Test matches , winning 138 , losing 130 and drawing 160 . Pakistan was given Test status on 28 July 1952 , following a recommendation by India , and made its Test debut against India at Feroz Shah Kotla Ground , Delhi , in October 1952 , with India winning by an innings and 70 runs . In the 1930s and 40s , several Pakistani Test players had played Test cricket for the Indian cricket team before the creation of Pakistan in 1947 . The team has played 927 ODIs , winning 486 , losing 413 , tying 8 with 20 ending in no-result . Pakistan was the 1992 World Cup champion , and was the runner-up in the 1999 tournament . Pakistan , in conjunction with other countries in South Asia , has hosted the 1987 and 1996 World Cups , with the 1996 final being hosted at Gaddafi Stadium in Lahore . The team has also played 151 Twenty20 Internationals , the most of any team , winning 92 losing 55 and tying 3 . Pakistan won the 2009 ICC World Twenty20 and were runners-up in the inaugural tournament in 2007 . Pakistan also won the 2017 ICC Champions Trophy for the first time , defeating India .",
    "/wiki/Upul_Tharanga": "Warushavithana Upul Tharanga ( born 2 February 1985 ) , commonly known as Upul Tharanga ( ) , is a professional Sri Lankan cricketer , and a former limited over captain who plays for all formats of the game . He is a left-handed opening batsman and occasional wicket-keeper .",
    "/wiki/Sri_Lanka_national_cricket_team": "The Sri Lanka national men 's cricket team , ( Sinhala : \u0dc1\u0dca\u200d\u0dbb\u0dd3 \u0dbd\u0d82\u0d9a\u0dcf \u0da2\u0dcf\u0dad\u0dd2\u0d9a \u0d9a\u0dca\u200d\u0dbb\u0dd2\u0d9a\u0da7\u0dca \u0d9a\u0dab\u0dca\u0da9\u0dcf\u0dba\u0db8 , Tamil : \u0b87\u0bb2\u0b99\u0bcd\u0b95\u0bc8 \u0ba4\u0bc7\u0b9a\u0bbf\u0baf \u0b95\u0bbf\u0bb0\u0bbf\u0b95\u0bcd\u0b95\u0bc6\u0b9f\u0bcd \u0b85\u0ba3\u0bbf ) nicknamed The Lions , represents Sri Lanka in men 's international cricket . It is a Full Member of the International Cricket Council ( ICC ) with Test , One-Day International ( ODI ) and T20 International ( T20I ) status . The team first played international cricket ( as Ceylon ) in 1926-27 , and were later awarded Test status in 1982 , which made Sri Lanka the eighth Test cricket playing nation . The team is administered by Sri Lanka Cricket . Sri Lanka 's national cricket team achieved considerable success beginning in the 1990s , rising from underdog status to winning the Cricket World Cup in 1996 . Since then , the team has continued to be a force in international cricket . The Sri Lankan cricket team reached the finals of the 2007 and 2011 Cricket World Cups consecutively . They ended up being runners up on both occasions . Sri Lanka won the Cricket World Cup in 1996 , the ICC Champions Trophy in 2002 ( co-champions with India ) , and the ICC T20 World Cup in 2014 . They have been consecutive runners up in the 2007 and 2011 Cricket World Cups , and have been runners up in the ICC T20 World Cup in 2009 and 2012 . The Sri Lankan cricket team currently holds several world records , including the world record for the highest team total in Test cricket .",
    "/wiki/Zimbabwe_national_cricket_team": "The Zimbabwe national cricket team represents Zimbabwe in men 's international cricket and is administered by Zimbabwe Cricket ( formerly known as the Zimbabwe Cricket Union or ZCU ) . Zimbabwe has been a Full Member of the International Cricket Council ( ICC ) since 1992 . As of November 2018 , Zimbabwe is ranked tenth in Tests , eleventh in ODIs and twelfth in Twenty20 Internationals by the ICC .",
    "/wiki/Tillakaratne_Dilshan": "Tillakaratne Mudiyanselage Dilshan ( Sinhala : \u0dad\u0dd2\u0dbd\u0d9a\u0dbb\u0dad\u0dca\u0db1 \u0da9\u0dd2\u0dbd\u0dca\u0dc2\u0dcf\u0db1\u0dca ; born on October 14 , 1976 ) is a former Sri Lankan cricketer and former captain of the Sri Lanka national cricket team . As the best rated Sri Lankan player in run-chases in ODI history , he is often regarded as one of the innovative and greatest ODI batsmen of all time . Dilshan is considered to be a rare example of a cricketer with notable skills in all aspects of the game , who can bat , bowl , field and keep wicket . He is an aggressive right-hand batsman who invented the scoop , which has come to be known as the Dilscoop , a shot that hits the ball over the keeper . Apart from being an opening batsman , he is also a capable off-break bowler . Energetic in the field , he usually fields at the point region . Dilshan made his Test and ODI debut during the Sri Lankan cricket team 's tour to Zimbabwe in 1999 . He is also the second cap for Sri Lanka in Twenty20 Internationals . He is the first cricketer in the history of the game to score hundreds in all formats as a captain . Dilshan won the Twenty20 International Performance of the Year award at the 2009 ICC Awards for his 96 off 57 ball shots against West Indies in the semi-final of the 2009 ICC World Twenty20 in England . He also won the man of the series trophy for his individual batting performances in the 2009 ICC World Twenty20 tournament . He was also a key member of the team that won the 2014 ICC World Twenty20 and was part of the team that made the finals of 2007 Cricket World Cup , 2011 Cricket World Cup , 2009 ICC World Twenty20 and 2012 ICC World Twenty20 .",
    "/wiki/Bangladesh_national_cricket_team": "The Bangladesh men 's national cricket team ( Bengali : \u09ac\u09be\u0982\u09b2\u09be\u09a6\u09c7\u09b6 \u099c\u09be\u09a4\u09c0\u09af\u09bc \u0995\u09cd\u09b0\u09bf\u0995\u09c7\u099f \u09a6\u09b2 ) , popularly known as , The Tigers [ citation needed ] is administered by the Bangladesh Cricket Board ( BCB ) . It is a Full Member of the International Cricket Council ( ICC ) with Test and One-Day International ( ODI ) status . It played its first Test match in November 2000 against India in Dhaka , becoming the tenth Test-playing nation . Bangladesh 's first official foray into international cricket came in the 1979 ICC Trophy in England . On 31 March 1986 , Bangladesh played its first ODI match , against Pakistan in the Asia Cup . For a long time , football was the most popular sport in Bangladesh , but cricket gradually became very popular - particularly in urban areas - and by the late 1990s had surpassed football .",
    "/wiki/South_Africa_national_cricket_team": "The South Africa national cricket team also known as Proteas represents South Africa in men 's international cricket ( after South Africa 's national flower , Protea cynaroides , commonly known as the king protea ) , is administered by Cricket South Africa . South Africa is a full member of the International Cricket Council ( ICC ) with Test , One-Day International ( ODI ) and Twenty20 International ( T20I ) status . South Africa entered first-class and international cricket at the same time when they hosted an England cricket team in the 1888-89 season . At first , the team was no match for Australia or England but , having gained in experience and expertise , they were able to field a competitive team in the first decade of the 20th century . The team regularly played against Australia , England and New Zealand through to the 1960s , by which time there was considerable opposition to the country 's apartheid policy and an international ban was imposed by the ICC , commensurate with actions taken by other global sporting bodies . When the ban was imposed , South Africa had developed to a point where its team including Eddie Barlow , Graeme Pollock and Mike Procter was arguably the best in the world and had just outplayed Australia . The ban remained in place until 1991 and South Africa could then play against India , Pakistan , Sri Lanka and the West Indies for the first time . The team since reinstatement has mostly been strong and has at times held number one positions in international rankings ( had best ranking of No.1 in all three formats ) but has lacked success in ICC organised tournaments . Outstanding players since reinstatement have included Allan Donald , Makhaya Ntini , Shaun Pollock , Jacques Kallis , Graeme Smith , Kagiso Rabada , AB de Villiers , Dale Steyn , Herschelle Gibbs , Faf du Plessis , Morne Morkel , Imran Tahir and Hashim Amla .",
    "/wiki/Hashim_Amla": "Hashim Mohammed Amla OIS ( born 31 March 1983 ) is a former South African international cricketer who played for South Africa in all three formats of the game . He is regarded as one of the greatest opening batsmen of all time . Amla currently holds the record for being the fastest ever to 2000 , 3000 , 4000 , 5000 , 6000 and 7000 ODI runs . He also became the fastest cricketer to reach 10 ODI centuries . Amla is an occasional off break bowler and was South Africa 's Test captain from June 2014 to January 2016 . He is a right-handed batsman and holds the record for the highest individual Test score of any South African batsman of 311 not out , scored against England at The Oval , London in July 2012 . In 2014 , he became the fastest cricketer to reach 15 centuries in ODIs in his 86th innings . In the same year he became the fastest cricketer to reach 16 centuries in ODIs in his 94th inning and fastest cricketer to 17 centuries in ODIs in his 98th innings . On 18 January 2015 , he became the fastest cricketer to score 18 centuries in ODIs in his 102nd innings . On 3 March 2015 , he became the fastest cricketer to reach 20 centuries in ODIs in his 108th innings . He has scored ODI centuries against all Test playing countries and is only the fourth person to do so . He was named as one of the Wisden Cricketers of the Year in 2013 .",
    "/wiki/Joe_Root": "Joseph Edward Root MBE ( born 30 December 1990 ) is an English international cricketer who is the current captain of the England Test team . He also represents Yorkshire domestically . He is currently ranked eighth in Test batting and eighth in ODI batting rankings according to the ICC Player Rankings , having previously been ranked the best Test batsman . Root was part of the England squad that won the 2019 Cricket World Cup . He was originally a right-handed opening batsman and occasional off-spinner , with a similar playing style to former England captain Michael Vaughan . However , he has played the majority of his cricket for England in the middle order . He made his debut for England in the 2012 Test series in India and made his ODI and Twenty20 International debuts on the same tour , before scoring his maiden Test century at his home ground of Headingley the following spring against New Zealand . On the occasion of England 's 1000th Test in August 2018 , he was named in the country 's greatest Test XI by the ECB .",
    "/wiki/England_cricket_team": "The England cricket team represents England and Wales in international cricket . Since 1997 , it has been governed by the England and Wales Cricket Board ( ECB ) , having been previously governed by Marylebone Cricket Club ( the MCC ) since 1903 . England , as a founding nation , is a Full Member of the International Cricket Council ( ICC ) with Test , One Day International ( ODI ) and Twenty20 International ( T20I ) status . Until the 1990s , Scottish and Irish players also played for England as those countries were not yet ICC members in their own right . England and Australia were the first teams to play a Test match ( 15-19 March 1877 ) , and along with South Africa , these nations formed the Imperial Cricket Conference ( the predecessor to today 's International Cricket Council ) on 15 June 1909 . England and Australia also played the first ODI on 5 January 1971 . England 's first T20I was played on 13 June 2005 , once more against Australia . As of 16 February 2020 [ update ] , England have played 1,022 Test matches , winning 371 and losing 304 ( with 347 draws ) . In Test series against Australia , England play for The Ashes , one of the most famous trophies in all of sport , and they have won the urn on 32 occasions . England have also played 746 ODIs , winning 375 . They have appeared in the final of the Cricket World Cup four times , winning once in 2019 ; they have also finished as runners-up in two ICC Champions Trophies ( 2004 and 2013 ) . England have played 117 T20Is , winning 58 .",
    "/wiki/Kumar_Sangakkara": "Kumar Chokshanada Sangakkara ( ; born 27 October 1977 ) is a cricket commentator , former cricketer and captain of the Sri Lankan national team . He is regarded as one of the greatest batsmen . Sangakkara scored 28,016 runs in international cricket across all formats in a career that spanned 15 years . At retirement , he was the second-highest run-scorer in ODI cricket and sixth-highest run scorer in Test cricket . Sangakkara was a left-handed top-order batsman and was wicket-keeper for many years in his career . Sangakkara holds many test records , having been the fastest to various run milestones in test cricket . Sangakkara 's partnership with Mahela Jayawardene holds the current batting partnership record in Test cricket . and the most wicket keeping dismissals in ODI cricket Sangakkara won the ICC Cricketer of the Year in 2012 and featured in many awards and Word Test & ODI XIs during his career . He was selected as Leading Cricketer in the World in the 2012 and 2015 editions of Wisden Cricketers ' Almanack , becoming the second player to have won this award twice . Sangakkara was rated as the Greatest ODI player of all time in a public poll conducted by Cricket Australia in 2016 . Sangakkara won the Man of the Match in the finals of 2014 ICC World Twenty20 and was part of the team that made the final of the 2007 Cricket World Cup , 2011 Cricket World Cup , 2009 ICC World Twenty20 and 2012 ICC World Twenty20 . He won the Man of the Match award in the final of the 2014 ICC World Twenty20 , where he helped the team win their first title .",
    "/wiki/Marlon_Samuels": "Marlon Nathaniel Samuels ( born 5 February 1981 ) is a Jamaican cricketer who plays internationally for the West Indies in all three formats , and a former ODI captain . He is a right-handed middle order batsman and an off-spinner . He was a key member of the West Indies team that won the 2012 ICC World Twenty20 and 2016 ICC World Twenty20 , and was named man of the match in the final of both tournaments , becoming first man to achieve the feat . Samuels made his Test debut in Australia in 2000 , and his One Day International debut against Sri Lanka in Nairobi during the ICC Knockout Trophy in the same year . In 2013 he was named one of the Wisden cricketers of the year . He was one of the franchise players for the inaugural Caribbean Premier League . In 2016 the West Indies Cricket Board named Samuels as the ODI Player of the Year and the Cricketer of the Year .",
    "/wiki/West_Indies_cricket_team": "The West Indies cricket team , nicknamed the Windies , is a multi-national men 's cricket team representing the mainly English-speaking nations and territories in the Caribbean region and administered by Cricket West Indies . The players on this composite team are selected from a chain of fifteen Caribbean territories , which are parts of several different countries and dependencies . As of 29 December 2019 [ update ] , the West Indies cricket team is ranked eighth in the world in Tests , ninth in One-Day Internationals ( ODIs ) and tenth in Twenty20 Internationals ( T20Is ) in the official International Cricket Council ( ICC ) rankings . From the mid-late 1970s to the early 1990s , the West Indies team was the strongest in the world in both Test and One Day International cricket . A number of cricketers who were considered among the best in the world have hailed from the West Indies : Sir Garfield Sobers , Lance Gibbs , George Headley , Brian Lara , Clive Lloyd , Malcolm Marshall , Alvin Kalicharan , Sir Andy Roberts , Rohan Kanhai , Sir Frank Worrell , Sir Clyde Walcott , Sir Everton Weekes , Sir Curtly Ambrose , Michael Holding , Courtney Walsh , Joel Garner , Sir Viv Richards and Sir Wes Hall have all been inducted into the ICC Hall of Fame . The West Indies have won the ICC Cricket World Cup twice ( 1975 and 1979 ) , the ICC World Twenty20 twice ( 2012 and 2016 ) , the ICC Champions Trophy once ( 2004 ) , the ICC Under 19 Cricket World Cup once ( 2016 ) , and have also finished as runners-up in the Cricket World Cup ( 1983 ) , the Under 19 Cricket World Cup ( 2004 ) , and the ICC Champions Trophy ( 2006 ) . The West Indies appeared in three consecutive World Cup finals ( 1975 , 1979 and 1983 ) , and were the first team to win back-to-back World Cups ( 1975 and 1979 ) . The West Indies has hosted the 2007 Cricket World Cup and the 2010 ICC World Twenty20 . In June 2019 , during the 2019 Cricket World Cup , the West Indies played their 800th ODI match .",
    "/wiki/David_Warner_(cricketer)": "David Andrew Warner ( born 27 October 1986 ) is an Australian international cricketer and a former captain of the Australian national team in limited overs cricket . A left-handed opening batsman , Warner is the first Australian cricketer in 132 years to be selected for a national team in any format without experience in first-class cricket . He plays for New South Wales and the Sydney Thunder in domestic cricket . He served as the Australian vice-captain across Test and ODI formats of the game between 2015 and 2018 . In January 2017 , he became the fourth player to win the Allan Border Medal more than once and also win the award in consecutive years . On 28 September 2017 , he played in his 100th ODI and became the first batsman for Australia and 8th batsman overall to score a century in his 100th ODI . In March 2018 , following a preliminary investigation into ball tampering by the Australian team in the third match of their Test series against South Africa , he was suspended , charged with bringing the game into disrepute . Following a board meeting on 28 March 2018 , Cricket Australia banned Warner from all international and domestic cricket in Australia for one year , and from any leadership positions permanently . In November 2019 , Warner scored the second-highest individual score for any Australian Test batsman with 335 not out against Pakistan .",
    "/wiki/Australia_national_cricket_team": "The Australian men 's national cricket team represents Australia in men 's international cricket . As one of the oldest teams in Test cricket history , playing in the first ever Test match in 1877 , the team also plays One-Day International ( ODI ) and Twenty20 International ( T20I ) cricket , participating in both the first ODI , against England in the 1970-71 season and the first T20I , against New Zealand in the 2004-05 season , winning both games . The team draws its players from teams playing in the Australian domestic competitions - the Sheffield Shield , the Australian domestic limited-overs cricket tournament and the Big Bash League . The national team has played 830 Test matches , winning 393 , losing 224 , drawing 211 and tying 2 . As of February 2020 [ update ] , Australia is ranked second in the ICC Test Championship on 108 rating points . Australia is the most successful team in Test cricket history , in terms of overall wins , win-loss ratio and wins percentage . The Australian cricket team has played 942 ODI matches , winning 573 , losing 326 , tying 9 and with 34 ending in a no-result . As of January 2020 [ update ] , Australia is ranked fifth in the ICC ODI Championship on 110 rating points , though have been ranked first for 141 of 185 months since its introduction in 2002 . Australia is the most successful team in ODI cricket history , winning more than 60 per cent of their matches . Australia have made a record seven World Cup final appearances ( 1975 , 1987 , 1996 , 1999 , 2003 , 2007 and 2015 ) and have won the World Cup a record five times : 1987 , 1999 , 2003 , 2007 and 2015 . Australia is the first team to appear in four consecutive World Cup finals ( 1996 , 1999 , 2003 and 2007 ) , surpassing the old record of three consecutive World Cup appearances by the West Indies ( 1975 , 1979 and 1983 ) and the first team to win 3 consecutive World Cups ( 1999 , 2003 and 2007 ) . The team was undefeated in 34 consecutive World Cup matches until the 2011 Cricket World Cup where Pakistan beat them by 4 wickets in the Quarter-final .",
    "/wiki/Rohit_Sharma": "Rohit Gurunath Sharma ( born 30 April 1987 ) is an Indian international cricketer who plays for Mumbai in domestic cricket and captains Mumbai Indians in the Indian Premier League as a right-handed batsman and an occasional right-arm off break bowler . He is the vice-captain of the Indian national team in limited-overs formats . He is the only cricketer in the history of cricket to score more than one ODI double-hundred , having scored three of them . In January 2020 , Sharma was named as the ODI Cricketer of the Year by the International Cricket Council ( ICC ) . Outside cricket , Sharma is an active supporter of animal welfare campaigns . He is the official Rhino Ambassador for WWF-India and is a member of People for the Ethical Treatment of Animals ( PETA ) . He has worked with PETA in its campaign to raise awareness of the plight of homeless cats and dogs in India .",
    "/wiki/India_national_cricket_team": "The India men 's national cricket team , also known as Team India and Men in Blue , is governed by the Board of Control for Cricket in India ( BCCI ) , and is a Full Member of the International Cricket Council ( ICC ) with Test , One-Day International ( ODI ) and Twenty20 International ( T20I ) status . Cricket was introduced to India by European merchant sailors in the 18th century , and the first cricket club was established in 1792 . India 's national cricket team did not play its first Test match until 25 June 1932 at Lord 's , becoming the sixth team to be granted test cricket status . From 1932 India had to wait until 1952 , almost 20 years for its first Test victory . In its first fifty years of international cricket , India was one of the weaker teams , winning only 35 of the first 196 Test matches it played . The team , however , gained strength in the 1970s with the emergence of players such as batsmen Gavaskar , Viswanath , Kapil Dev , and the Indian spin quartet . Traditionally much stronger at home than abroad , the Indian team has improved its overseas form , especially in limited-overs cricket , since the start of the 21st century , winning Test matches in Australia , England and South Africa . It has won the Cricket World Cup twice - in 1983 under the captaincy of Kapil Dev and in 2011 under the captaincy of Mahendra Singh Dhoni . After winning the 2011 World Cup , India became only the third team after West Indies and Australia to have won the World Cup more than once , and the first cricket team to win the World Cup at home . It also won the 2007 ICC World Twenty20 and 2013 ICC Champions Trophy , under the captaincy of MS Dhoni . It was also the joint champions of 2002 ICC Champions Trophy , along with Sri Lanka . The Indian cricket team has rivalries with other Test-playing nations , most notably with Pakistan , the political arch-rival of India .",
    "/wiki/Reeza_Hendricks": "Reeza Raphael Hendricks ( born 14 August 1989 ) is a South African cricketer who plays for the Highveld Lions . He is a right-hand middle-order batsman who has played for the South Africa cricket team since 2017/18 ."
  }
}