{
  "List_of_Slovenian_submissions_for_the_Academy_Award_for_Best_International_Feature_Film_0": {
    "/wiki/1993_in_film": "The year 1993 in film involved many significant films , including the blockbuster hits Jurassic Park , The Fugitive and The Firm . ( For more about films in foreign languages , check sources in those languages . ) Walt Disney Studios celebrated its 70th anniversary in 1993 .",
    "/wiki/66th_Academy_Awards": "The 66th Academy Awards ceremony , organized by the Academy of Motion Picture Arts and Sciences ( AMPAS ) , honored films released in 1993 and took place on March 21 , 1994 , at the Dorothy Chandler Pavilion in Los Angeles beginning at 6:00 p.m. PST / 9:00 p.m. EST . During the ceremony , AMPAS presented Academy Awards ( commonly referred to as Oscars ) in 23 categories . The ceremony , televised in the United States by ABC , was produced by Gil Cates and directed by Jeff Margolis . Actress Whoopi Goldberg hosted the show for the first time . Nearly a month earlier in a ceremony held at The Beverly Hilton in Beverly Hills , California on February 26 , the Academy Awards for Technical Achievement were presented by host Laura Dern . Schindler 's List won seven awards , including Best Picture and Best Director for Steven Spielberg . Other winners included Jurassic Park and The Piano with three awards each , Philadelphia with two awards , and The Age of Innocence , Belle Epoque , Defending Our Lives , The Fugitive , I Am a Promise : The Children of Stanton Elementary School , Mrs. Doubtfire , Schwarzfahrer and The Wrong Trousers with one . The telecast was watched by more than 46 million viewers in the United States .",
    "/wiki/When_I_Close_My_Eyes_(1993_film)": "When I Close My Eyes ( Slovene : Ko zaprem o\u010di ) is a 1993 Slovenian thriller film directed by Franci Slak . The film was selected as the Slovenian entry for the Best Foreign Language Film at the 66th Academy Awards , but was not accepted as a nominee .",
    "/wiki/Franci_Slak": "Franci Slak ( 1 February 1953 - 27 October 2007 ) was a Slovenian film director , producer , screenwriter , lecturer and politician . His 1987 film Hudodelci ( The Felons ) was entered into the 38th Berlin International Film Festival .",
    "/wiki/1994_in_film": "This is a list of films released in 1994 . The top worldwide grosser was The Lion King , becoming the highest-grossing Walt Disney Feature Animation film of all-time , although it was slightly overtaken at the North American domestic box office by Forrest Gump , which won the Academy Award for Best Picture . Metro-Goldwyn-Mayer celebrated its 70th Anniversary in 1994 .",
    "/wiki/67th_Academy_Awards": "The 67th Academy Awards ceremony , organized by the Academy of Motion Picture Arts and Sciences ( AMPAS ) took place on March 27 , 1995 , at the Shrine Auditorium in Los Angeles beginning at 6:00 p.m. PST / 9:00 p.m. EST . During the ceremony , AMPAS presented Academy Awards ( commonly referred to as the Oscars ) in 23 categories honoring the films released in 1994 . The ceremony , televised in the United States by ABC , was produced by Gilbert Cates and directed by Jeff Margolis . Comedian David Letterman hosted the show for the first time . Three weeks earlier in a ceremony held at the Regent Beverly Wilshire Hotel in Beverly Hills , California on March 4 , the Academy Awards for Technical Achievement were presented by host Jamie Lee Curtis . Forrest Gump won six awards , including Best Picture . Other winners included Ed Wood , The Lion King , and Speed with two awards , and The Adventures of Priscilla , Queen of the Desert , Blue Sky , Bob 's Birthday , Bullets over Broadway , Burnt by the Sun , Franz Kafka 's It 's a Wonderful Life , Legends of the Fall , The Madness of King George , Maya Lin : A Strong Clear Vision , Pulp Fiction , A Time for Justice and Trevor with one . The telecast garnered more than 48 million viewers in the United States , making it the most watched Oscars telecast since the 55th Academy Awards in 1983 .",
    "/wiki/Morana_(film)": "Morana is a 1994 Slovenian horror film directed by Ale\u0161 Verbi\u010d . The film was selected as the Slovenian entry for the Best Foreign Language Film at the 67th Academy Awards , but was not accepted as a nominee .",
    "/wiki/1996_in_film": "The year 1996 involved many significant films . The major releases this year included Scream , Independence Day , Fargo , Trainspotting , The Rock , The English Patient , Twister , Mars Attacks ! , Jerry Maguire and a film version of the musical , Evita .",
    "/wiki/69th_Academy_Awards": "The 69th Academy Awards ceremony , organized by the Academy of Motion Picture Arts and Sciences ( AMPAS ) took place on March 24 , 1997 , at the Shrine Auditorium in Los Angeles beginning at 6:00 p.m. PST / 9:00 p.m. EST . During the ceremony , AMPAS presented the Academy Awards ( commonly referred to as Oscars ) in 24 categories honoring films released in 1996 . The ceremony , televised in the United States by ABC , was produced by Gil Cates , and directed by Louis J. Horvitz . Actor Billy Crystal hosted the show for the fifth time . He first presided over the 62nd ceremony held in 1990 and had last hosted the 65th ceremony held in 1993 . Three weeks earlier , in a ceremony held at the Regent Beverly Wilshire Hotel in Beverly Hills , California , on March 1 , the Academy Awards for Technical Achievement were presented by host Helen Hunt . This also served as the launch event for DVD , with its U.S. launch being on the same day as the ceremony . The English Patient won the most awards of the evening with nine including Best Picture . Other winners included Fargo with two awards , and Breathing Lessons : The Life and Work of Mark O'Brien , Dear Diary , Emma , Evita , The Ghost and the Darkness , Independence Day , Jerry Maguire , Kolya , The Nutty Professor , Quest , Shine , Sling Blade , and When We Were Kings with one .",
    "/wiki/Felix_(1996_film)": "Felix ( Slovene : Feliks ) is a 1996 Slovenian drama film directed by Bo\u017eo \u0160prajc . The film was selected as the Slovenian entry for the Best Foreign Language Film at the 69th Academy Awards , but was not accepted as a nominee .",
    "/wiki/1997_in_film": "The year 1997 in film involved many significant films , including Titanic , and the beginning of the film studio DreamWorks .",
    "/wiki/70th_Academy_Awards": "The 70th Academy Awards ceremony , organized by the Academy of Motion Picture Arts and Sciences ( AMPAS ) , took place on March 23 , 1998 , at the Shrine Auditorium in Los Angeles beginning at 6:00 p.m. PST / 9:00 p.m. EST . During the show , AMPAS presented Academy Awards ( commonly referred to as Oscars ) in 24 categories honoring films released in 1997 . The ceremony , which was televised in the United States by ABC , was produced by Gil Cates and directed by Louis J. Horvitz . Actor Billy Crystal hosted the show for the sixth time . He first presided over the 62nd ceremony held in 1990 , and he had hosted the previous year 's gala . Nearly a month earlier in an event held at the Regent Beverly Wilshire Hotel in Beverly Hills , California on February 28 , the Academy Awards for Technical Achievement were presented by host Ashley Judd . Titanic won a record-tying eleven awards including Best Director for James Cameron and Best Picture . Other winners included As Good as It Gets , Good Will Hunting and L.A . Confidential with two awards , and The Full Monty , Geri 's Game , Karakter , The Long Way Home , Visas and Virtue , Men in Black and A Story of Healing with one . The telecast garnered more than 57 million viewers in the United States , making it the most watched Oscars broadcast in history .",
    "/wiki/Outsider_(1997_film)": "Outsider is a film produced in 1997 in Slovenia by writer and director Andrej Ko\u0161ak . The film was selected as the Slovenian entry for the Best Foreign Language Film at the 70th Academy Awards , but was not accepted as a nominee . The film takes place in the 1980 in the former Yugoslavia . It covers issues such as the former Yugoslav punk rock scene and drug use in the year when Josip Broz Tito died . The story begins in autumn 1979 when Sead Mulahasanovi\u0107 , whose father was a Warrant Officer ( zastavnik ) of Yugoslav People 's Army moved to Ljubljana and started attending one of the local secondary schools . He immediately joined local punkers who formed a band . Because punk rock in Yugoslavia was not tolerated some of them quickly fell into trouble . Authorities were on high alert because Tito got seriously ill and was admitted to University Medical Centre Ljubljana . Sead spent a lot of time with his new friends because his father was devoted only to the army and wanted Sead to join the army school to become an officer or a pilot . Sead fell in love with Metka , a girl from his class , so he also began spending his time with her . Then several things occurred : one of his friends was beaten by the Police and put to prison , he was punished by his father for not being devoted enough to the ideas of socialism , Metka got pregnant and they were again forced to move , so Sead should leave his life behind and start it anew . He did n't hold out any more and committed suicide - coincidentally it happened on the day when Tito died .",
    "/wiki/2001_in_film": "The year 2001 in film involved some significant events , including the first of the Harry Potter series , the first of The Fast and the Furious franchise , the first of The Lord of the Rings trilogy , the first of the Ocean 's Trilogy , and the first of the Shrek franchise . Significant non-English language films released included Monsoon Wedding and Am\u00e9lie .",
    "/wiki/74th_Academy_Awards": "The 74th Academy Awards ceremony , presented by the Academy of Motion Picture Arts and Sciences ( AMPAS ) , took place on March 24 , 2002 , at the Kodak Theatre in Hollywood , Los Angeles . During the ceremony , AMPAS presented Academy Awards ( commonly referred to as Oscars ) in 24 categories honoring films released in 2001 . The ceremony , televised in the United States by ABC , was produced by Laura Ziskin and directed by Louis J. Horvitz . Actress Whoopi Goldberg hosted the show for the fourth time . She first hosted the 66th ceremony held in 1994 and had last hosted the 71st ceremony in 1999 . Three weeks earlier , in a ceremony held at the Regent Beverly Wilshire Hotel in Beverly Hills , California , on March 2 , the Academy Awards for Technical Achievement were presented by host Charlize Theron . A Beautiful Mind won four awards , including Best Picture and Best Director for Ron Howard . Other winners included The Lord of the Rings : The Fellowship of the Ring also with four awards , Black Hawk Down , and Moulin Rouge ! with two , and The Accountant , For the Birds , Gosford Park , Iris , Monster 's Ball , Monsters , Inc. , Murder on a Sunday Morning , No Man 's Land , Pearl Harbor , Shrek , Thoth , and Training Day , with one . Despite a record length of four hours and twenty-three minutes , the telecast garnered nearly 42 million viewers in the United States .",
    "/wiki/Bread_and_Milk": "Bread and Milk ( Slovene : Kruh in mleko ) is a 2001 Slovene film directed by Jan Cvitkovi\u010d . It was Slovenia 's submission to the 74th Academy Awards for the Academy Award for Best Foreign Language Film , but was not accepted as a nominee .",
    "/wiki/Jan_Cvitkovi\u010d": "Jan Cvitkovi\u010d ( born 1966 ) is a Slovenian film director , screenwriter and actor . As of April 2007 he has already won a total of 12 awards and 3 nominations at various film festivals for his work , including the San Sebastian Film Festival and the Venice Film Festival .",
    "/wiki/2002_in_film": "The year 2002 in film involved some significant events .",
    "/wiki/75th_Academy_Awards": "The 75th Academy Awards ceremony , presented by the Academy of Motion Picture Arts and Sciences ( AMPAS ) took place on March 23 , 2003 , at the Kodak Theatre in Hollywood , Los Angeles beginning at 5:30 p.m. PST / 8:30 p.m. EST . During the ceremony , AMPAS presented Academy Awards ( commonly referred to as Oscars ) in 24 categories honoring films released in 2002 . The ceremony , televised in the United States by ABC , was produced by Gil Cates and was directed by Louis J. Horvitz . Actor Steve Martin hosted for the second time , having previously presided over the 73rd ceremony held in 2001 . Three weeks earlier in a ceremony at Regent Beverly Wilshire Hotel in Beverly Hills , California held on March 1 , the Academy Awards for Technical Achievement were presented by host Kate Hudson . Chicago won six awards including Best Picture . Other winners included The Pianist with three awards , Frida and The Lord of the Rings : The Two Towers with two , and Adaptation , Bowling for Columbine , The ChubbChubbs ! , 8 Mile , The Hours , Nowhere in Africa , Road to Perdition , Spirited Away , Talk to Her , This Charming Man , and Twin Towers with one . The telecast garnered about 33 million viewers in the United States , making it the least-watched and lowest-rated televised Oscar ceremony to that point .",
    "/wiki/Headnoise_(film)": "Headnoise ( Slovene : Zvenenje v glavi ) is a Slovenian feature film by the director Andrej Ko\u0161ak , featuring Jernej \u0160ugman in the main role . It was released in 2002 . It was edited by Jurij Mo\u0161kon , who received the Best Cinematography Award at the Cologne Mediterranean Film Festival for it .",
    "/wiki/2003_in_film": "The year 2003 in film involved some significant events .",
    "/wiki/76th_Academy_Awards": "The 76th Academy Awards ceremony , presented by the Academy of Motion Picture Arts and Sciences ( AMPAS ) , honored the best films of 2003 and took place on February 29 , 2004 , at the Kodak Theatre in Hollywood , Los Angeles beginning at 5:30 p.m. PST / 8:30 p.m. EST . During the ceremony , AMPAS presented Academy Awards ( commonly referred to as Oscars ) in 24 categories . The ceremony , televised in the United States by ABC , was produced by Joe Roth and was directed by Louis J. Horvitz . Actor Billy Crystal hosted for the eighth time . He first presided over the 62nd ceremony held in 1990 and had last hosted the 72nd ceremony held in 2000 . Two weeks earlier in a ceremony at The Ritz-Carlton Huntington Hotel & Spa in Pasadena , California held on February 14 , the Academy Awards for Technical Achievement were presented by host Jennifer Garner . The Lord of the Rings : The Return of the King won all eleven awards it was nominated for , tying the Academy Awards record for most awards won ( alongside Ben-Hur and Titanic ) , including Best Director for Peter Jackson and Best Picture . Other winners included Master and Commander : The Far Side of the World and Mystic River with two awards and The Barbarian Invasions , Chernobyl Heart , Cold Mountain , Finding Nemo , The Fog of War , Harvie Krumpet , Lost in Translation , Monster and Two Soldiers with one . The telecast garnered nearly 44 million viewers in North America the United States , making it the most-watched telecast in four years .",
    "/wiki/Damjan_Kozole": "Damjan Kozole ( born 1964 in Bre\u017eice , Slovenia ) is a Slovenian filmmaker whose directing credits include the 2003 critically acclaimed Spare Parts and 2009 worldwide released Slovenian Girl , among others . Spare parts was nominated for the Golden Bear at the 53rd Berlin International Film Festival ; in 2008 Sight & Sound ranked this film among the ten most important films of the New Europe . In 2012 Kozole received Lifetime Achievement Award at the Rome Film Festival . In his films , some of the most raffish , funky and even sordid characters discover their own humanity ( Alissa Simon , Variety ) . For his new film Nightlife ( 2016 ) he won Best director award at the 51st Karlovy Vary International Film Festival .",
    "/wiki/2004_in_film": "2004 in film is an overview of events , including the highest-grossing films , award ceremonies , festivals , a list of country-specific lists of films released , notable deaths and film debuts .",
    "/wiki/77th_Academy_Awards": "The 77th Academy Awards ceremony , presented by the Academy of Motion Picture Arts and Sciences ( AMPAS ) , took place on February 27 , 2005 , at the Kodak Theatre in Hollywood , Los Angeles beginning at 5:30 p.m. PST / 8:30 p.m. EST . During the ceremony , AMPAS presented Academy Awards ( commonly referred to as the Oscars ) in 24 categories honoring films released in 2004 . The ceremony , televised in the United States by ABC , was produced by Gil Cates and was directed by Louis J. Horvitz . Actor Chris Rock hosted the show for the first time . Two weeks earlier in a ceremony at The Ritz-Carlton Huntington Hotel & Spa in Pasadena , California held on February 12 , the Academy Awards for Technical Achievement were presented by host Scarlett Johansson . The Aviator won the most awards of the night with five . Million Dollar Baby won four awards , including Best Picture . Other winners included The Incredibles , and Ray with two awards , and Born into Brothels , Eternal Sunshine of the Spotless Mind , Finding Neverland , Lemony Snicket 's A Series of Unfortunate Events , Mighty Times : The Children 's March , The Motorcycle Diaries , Ryan , The Sea Inside , Sideways , Spider-Man 2 and Wasp each with one . The telecast garnered over 42 million viewers in the United States .",
    "/wiki/Beneath_Her_Window": "Beneath Her Window ( Slovene : Pod njenim oknom ) is a 2003 Slovenian film directed by Metod Pevec . It was Slovenia 's submission to the 77th Academy Awards for the Academy Award for Best Foreign Language Film , but was not accepted as a nominee . The main role was played by Polona Juh .",
    "/wiki/2005_in_film": "2005 in film is an overview of events , including the highest-grossing films , award ceremonies , festivals , a list of country-specific lists of films released , notable deaths and film debuts .",
    "/wiki/78th_Academy_Awards": "The 78th Academy Awards presented by the Academy of Motion Picture Arts and Sciences ( AMPAS ) , took place on March 5 , 2006 , at the Kodak Theatre in Hollywood , Los Angeles beginning at 5:00 p.m. PST / 8:00 p.m. EST . The ceremony was scheduled one week later than usual to avoid a clash with the 2006 Winter Olympics . During the ceremony , AMPAS presented Academy Awards ( commonly referred to as Oscars ) in 24 categories honoring films released in 2005 . The ceremony , televised in the United States by ABC , was produced by Gil Cates and directed by Louis J. Horvitz . Actor Jon Stewart hosted the show for the first time . Two weeks earlier in a ceremony at The Beverly Hilton in Beverly Hills , California held on February 18 , the Academy Awards for Technical Achievement were presented by host Rachel McAdams . Crash won three awards including Academy Award for Best Picture . Other winners included Brokeback Mountain , King Kong and Memoirs of a Geisha also with three awards apiece , and Capote , The Chronicles of Narnia : The Lion , the Witch and the Wardrobe , The Constant Gardener , Hustle & Flow , March of the Penguins , The Moon and the Son : An Imagined Conversation , A Note of Triumph : The Golden Age of Norman Corwin , Six Shooter , Syriana , Tsotsi , Walk the Line and Wallace & Gromit : The Curse of the Were-Rabbit with one each . The telecast garnered nearly 39 million viewers in the United States .",
    "/wiki/Janez_Burger": "Janez Burger ( born 21 March 1965 ) is a Slovene film director , screenwriter and producer .",
    "/wiki/2006_in_film": "The following is an overview of events in 2006 , including the highest-grossing films , award ceremonies and festivals , a list of films released and notable deaths .",
    "/wiki/79th_Academy_Awards": "The 79th Academy Awards ceremony , presented by the Academy of Motion Picture Arts and Sciences ( AMPAS ) , honored the best films of 2006 and took place February 25 , 2007 , at the Kodak Theatre in Hollywood , Los Angeles beginning at 5:30 p.m. PST / 8:30 p.m. EST . During the ceremony , the Academy of Motion Picture Arts and Sciences presented Academy Awards ( commonly referred to as Oscars ) in 24 categories . The ceremony , televised in the United States by ABC , was produced by Laura Ziskin and directed by Louis J. Horvitz . Actress Ellen DeGeneres hosted for the first time . Two weeks earlier in a ceremony at the Beverly Wilshire Hotel in Beverly Hills , California held on February 10 , the Academy Awards for Technical Achievement were presented by host Maggie Gyllenhaal . The Departed won four awards , including Best Picture and Best Director for Martin Scorsese . Other winners included Pan 's Labyrinth with three , An Inconvenient Truth , Dreamgirls and Little Miss Sunshine with two , and Babel , The Blood of Yingzhou District , The Danish Poet , Happy Feet , The Last King of Scotland , Letters from Iwo Jima , The Lives of Others , Marie Antoinette , Pirates of the Caribbean : Dead Man 's Chest , The Queen and West Bank Story with one . The telecast garnered nearly 40 million viewers in the United States .",
    "/wiki/Gravehopping": "Gravehopping ( Slovene : Odgrobadogroba ) is a 2005 Slovenian film directed by Jan Cvitkovi\u010d . It was Slovenia 's submission to the 79th Academy Awards for the Academy Award for Best Foreign Language Film , but was not accepted as a nominee .",
    "/wiki/2007_in_film": "The following is an overview of events in 2007 in film , including the highest-grossing films , award ceremonies and festivals , a list of films released and notable deaths . The highest-grossing film of the year was Pirates of the Caribbean : At World 's End , which was just ahead of Harry Potter and the Order of the Phoenix . 2007 is often considered one of the greatest years for film in the 21st century . As of 2019 , this was the last year in which no film grossed at least $ 1 billion at the worldwide box office .",
    "/wiki/80th_Academy_Awards": "The 80th Academy Awards ceremony , presented by the Academy of Motion Picture Arts and Sciences ( AMPAS ) , honored the best films of 2007 and took place on February 24 , 2008 , at the Kodak Theatre in Hollywood , Los Angeles beginning at 5:30 p.m. PST / 8:30 p.m. EST . During the ceremony , AMPAS presented Academy Awards ( commonly referred to as Oscars ) in 24 categories . The ceremony was televised in the United States by ABC , and produced by Gil Cates and directed by Louis J , Horvitz . Actor Jon Stewart hosted the show for the second time , having previously presided over the 78th ceremony held in 2006 . Two weeks earlier in a gala at the Beverly Wilshire Hotel in Beverly Hills , California held on February 9 , the Academy Awards for Technical Achievement were presented by host Jessica Alba . No Country for Old Men won the most awards of the ceremony with four including Best Picture . Other winners included The Bourne Ultimatum with three awards , La Vie en Rose ( La m\u00f4me ) and There Will Be Blood with two awards , and Atonement , The Counterfeiters , Elizabeth : The Golden Age , Freeheld , The Golden Compass , Juno , Michael Clayton , The Mozart of Pickpockets , Once , Peter & the Wolf , Ratatouille , Sweeney Todd : The Demon Barber of Fleet Street , and Taxi to the Dark Side with one . The telecast garnered 31 million viewers , making it the least watched Oscar broadcast since 1974 , when Nielsen began keeping records of viewership .",
    "/wiki/Short_Circuits_(film)": "Short Circuits ( Slovene : Kratki stiki ) is a 2006 Slovene film directed by Janez Lapajne . It was Slovenia 's submission to the 80th Academy Awards for the Academy Award for Best Foreign Language Film , but was not accepted as a nominee .",
    "/wiki/Janez_Lapajne": "Janez Lapajne ( Slovene : [ yannez la-pie-nay ] ; born 24 June 1967 in Celje , Yugoslavia ) is a Slovenian film director , producer , writer , editor and production designer . The son of geophysicist and seismologist Janez K. Lapajne [ sl ] , he graduated in film directing from the University of Ljubljana . [ citation needed ] He founded PoEtika [ sl ] , an occasional academy for researching the art of film directing , which he heads as mentor . He also directs for theatre , radio and television . He has won several awards for his student works and his feature films . [ citation needed ] He is former first president of Directors Guild of Slovenia . [ citation needed ] Lapajne is related to Slovenian female painter Ivana Kobilca . [ citation needed ]",
    "/wiki/2008_in_film": "The year 2008 involved many major movie events . Its highest-grossing films included The Dark Knight , Kung Fu Panda , WALL-E and Indiana Jones and the Kingdom of the Crystal Skull .",
    "/wiki/81st_Academy_Awards": "The 81st Academy Awards ceremony , presented by the Academy of Motion Picture Arts and Sciences ( AMPAS ) , honored the best films of 2008 and took place on February 22 , 2009 , at the Kodak Theatre in Hollywood , Los Angeles beginning at 5:30 p.m. PST / 8:30 p.m. EST . During the ceremony , the Academy of Motion Picture Arts and Sciences presented Academy Awards ( commonly referred to as Oscars ) in 24 categories . The ceremony was televised in the United States by ABC , and was produced by Bill Condon and Laurence Mark and directed by Roger Goodman . Actor Hugh Jackman hosted the show for the first time . Two weeks earlier in a ceremony at the Beverly Wilshire Hotel in Beverly Hills , California held on February 7 , the Academy Awards for Technical Achievement were presented by host Jessica Biel . Slumdog Millionaire won eight awards , the most of the evening , including Best Picture and Best Director for Danny Boyle . Other winners were The Curious Case of Benjamin Button with three awards , The Dark Knight and Milk with two awards , and Departures , The Duchess , La Maison en Petits Cubes , Man on Wire , The Reader , Smile Pinki , Toyland , Vicky Cristina Barcelona , and WALL-E with one . The telecast garnered almost 37 million viewers in the United States .",
    "/wiki/Rooster's_Breakfast": "Rooster 's Breakfast ( Slovene : Petelinji zajtrk ) is a Slovenian drama released in 2007 . It is an adaptation of less known novel of the same name by Feri Lain\u0161\u010dek . The film is the most acclaimed and most successful Slovenian films of all times , and also the third most successful movie in Slovenia , following Titanic and Troy .",
    "/wiki/Marko_Naber\u0161nik": "Marko Naber\u0161nik ( born 1973 , in Maribor ) is a Slovenian director of TV and film who might still be best known for his first film , Rooster 's Breakfast . He is also a screenwriter .",
    "/wiki/2009_in_film": "The year 2009 saw the release of many films . Seven made the top 50 list of highest-grossing films . Also in 2009 , the Academy of Motion Picture Arts and Sciences announced that as of that year , their Best Picture category would consist of ten nominees , rather than five ( the first time since the 1943 awards ) .",
    "/wiki/82nd_Academy_Awards": "The 82nd Academy Awards ceremony , presented by the Academy of Motion Picture Arts and Sciences ( AMPAS ) , honored the best films of 2009 and took place on March 7 , 2010 , at the Kodak Theatre in Hollywood , Los Angeles beginning at 5:30 p.m. PST / 8:30 p.m. EST . The ceremony was scheduled after its usual late-February date to avoid conflicting with the 2010 Winter Olympics . During the ceremony , the Academy of Motion Picture Arts and Sciences presented Academy Awards ( commonly referred to as Oscars ) in 24 categories . The ceremony was televised in the United States by ABC , and was produced by Bill Mechanic and Adam Shankman and directed by Hamish Hamilton . Actors Alec Baldwin and Steve Martin hosted the show . Martin hosted for the third time ; he first presided over the 73rd ceremony held in 2001 and last hosted the 75th ceremony held in 2003 . Meanwhile , this was Baldwin 's first Oscars hosting stint . This was also the first telecast to have multiple hosts since the 59th ceremony held in 1987 . On June 24 , 2009 , Academy president Sid Ganis announced at a press conference that , in an attempt to revitalize interest surrounding the awards , the 2010 ceremony would feature ten Best Picture nominees instead of five , a practice that was discontinued after the 16th ceremony in 1944 . On February 20 , 2010 , in a ceremony at the Beverly Wilshire Hotel in Beverly Hills , California , the Academy Awards for Technical Achievement were presented by host Elizabeth Banks . The Hurt Locker won six awards , including Best Picture and Best Director for Kathryn Bigelow , the first woman to win an Academy Award for Best Director . Other winners were Avatar with three awards , Crazy Heart , Precious : Based on the Novel 'Push ' by Sapphire , and Up , with two awards , and The Cove , Inglourious Basterds , The Blind Side , Logorama , Music by Prudence , The New Tenants , The Secret in Their Eyes , Star Trek , and The Young Victoria with one .",
    "/wiki/Pokrajina_\u0161t._2": "Pokrajina \u0161t . 2 ( Landscape No . 2 ) is a 2008 Slovenian film directed by Vinko M\u00f6derndorfer . The film appeared at the 65th Venice International Film Festival . It won the best film award at the 11th Slovenian Film Festival . The film deals with crimes by the Yugoslav Partisans in 1945 in post-World War II Slovenia .",
    "/wiki/Vinko_M\u00f6derndorfer": "Vinko M\u00f6derndorfer ( born 22 September 1958 ) is a Slovene writer , poet , playwright and theatre and film director . M\u00f6derndorfer was born in Celje in 1958 . He studied at the Academy for Theatre , Radio , Film and Television in Ljubljana and worked in numerous theatre companies around Slovenia . He started writing poetry in the late 1970s and since the early 1980s also published numerous works of prose , essays and drama as well as poetry and stories for children . In 2000 he won the Pre\u0161eren Foundation Award for his book of short stories Nekatere ljubezni . In 2003 he received the Ro\u017eanc Award for Gledali\u0161\u010de v ogledalu ( The Theatre in a Mirror ) .",
    "/wiki/2010_in_film": "In the year 2010 , there was a dramatic increase and prominence in the use of 3D-technology in filmmaking after the success of Avatar in the format , with releases such as Alice in Wonderland , Clash of the Titans , Jackass 3D , all animated films , with numerous other titles being released in 3D formats . 20th Century Fox celebrated its 75th anniversary in 2010 .",
    "/wiki/83rd_Academy_Awards": "The 83rd Academy Awards ceremony , organized by the Academy of Motion Picture Arts and Sciences ( AMPAS ) , honored the best films of 2010 in the United States and took place on February 27 , 2011 , at the Kodak Theatre in Hollywood , Los Angeles beginning at 5:30 p.m. PST ( 8:30 p.m. EST ) . During the ceremony , Academy Awards ( commonly called the Oscars ) were presented in 24 competitive categories . The ceremony was televised in the United States by ABC , and produced by Bruce Cohen and Don Mischer , with Mischer also serving as director . Actors James Franco and Anne Hathaway co-hosted the ceremony , marking the first time for each . In related events , the Academy held its second annual Governors Awards ceremony at the Grand Ballroom of the Hollywood and Highland Center on November 13 , 2010 . On February 12 , 2011 , in a ceremony at the Beverly Wilshire Hotel in Beverly Hills , California , the Academy Awards for Technical Achievement were presented by host Marisa Tomei . Inception and The King 's Speech won four awards each with the latter film winning Best Picture . Other winners included The Social Network with three awards , Alice in Wonderland , The Fighter , and Toy Story 3 , with two awards , and Black Swan , God of Love , In a Better World , Inside Job , The Lost Thing , Strangers No More , and The Wolfman with one . The telecast garnered almost 38 million viewers in the United States .",
    "/wiki/9:06": "9:06 is a 2009 Slovene thriller film directed by Igor \u0160terk . The film was selected as the Slovene entry for the Best Foreign Language Film at the 83rd Academy Awards but it did not make the final shortlist . The film won 15 awards at the 2009 Slovene Film Festival , including Best Film and Best Director .",
    "/wiki/2011_in_film": "The following is an overview of the events of 2011 in film , including the highest-grossing films , film festivals , award ceremonies and a list of films released and notable deaths . More film sequels were released in 2011 than any other year before it , with 28 sequels released . Film critic Scout Tafoya considers 2011 as the best year for cinema , countering the notion of 1939 being film 's best year overall and citing important developments in cinematic expression during 2011 .",
    "/wiki/84th_Academy_Awards": "The 84th Academy Awards ceremony , presented by the Academy of Motion Picture Arts and Sciences ( AMPAS ) , honored the best films of 2011 in the United States and took place on February 26 , 2012 , at the Hollywood and Highland Center Theatre [ a ] in Hollywood , Los Angeles beginning at 5:30 p.m. PST / 8:30 p.m. EST . During the ceremony , the Academy of Motion Picture Arts and Sciences presented Academy Awards ( commonly referred to as Oscars ) in 24 categories . The ceremony was televised in the United States by ABC , and produced by Brian Grazer and Don Mischer , with Mischer also serving as director . Actor Billy Crystal hosted the show for the ninth time . He first presided over the 62nd ceremony held in 1990 and had last hosted the 76th ceremony held in 2004 . On June 14 , 2011 , Academy president Tom Sherak announced at a press conference that , in an attempt to further revitalize interest surrounding the awards , the 2012 ceremony would feature between five and ten Best Picture nominees depending on voting results , as opposed to a set number of nominees . In related events , the Academy held its third annual Governors Awards ceremony at the Grand Ballroom of the Hollywood and Highland Center on November 12 , 2011 . On February 11 , 2012 , in a ceremony at the Beverly Wilshire Hotel in Beverly Hills , California , the Academy Awards for Technical Achievement were presented by host Milla Jovovich . The Artist won five awards , including Best Actor for Jean Dujardin , Best Director for Michel Hazanavicius , and Best Picture , the first silent feature to win an Academy Award for Best Picture since 1927 's Wings , the inaugural winner in 1929 . Other winners included Hugo also with five awards , The Iron Lady with two awards , and Beginners , The Descendants , The Fantastic Flying Books of Mr. Morris Lessmore , The Girl with the Dragon Tattoo , The Help , Midnight in Paris , The Muppets , Rango , Saving Face , A Separation , The Shore , and Undefeated with one . The telecast garnered more than 39 million viewers in the United States .",
    "/wiki/Silent_Sonata": "Silent Sonata ( Slovene : Circus Fantasticus ) is a 2011 Slovenian drama film directed by Janez Burger and has no dialogue . The main producers are the Slovene Stara Gara and the Irish Fastnet Films . Silent Sonata is the first official Slovene-Irish-Swedish-Finnish co-production and was shot in 35 days in Slovenia and Ireland . The world premiere took place on the International Film Festival Rotterdam in 2011 . The production crew included members from at least 18 countries . The film 's original title was Circus Fantasticus , but only in Slovenia , as it is distributed under its original title . The film was selected as the Slovenian entry for the Best Foreign Language Film at the 84th Academy Awards , however , the Society of Slovene filmmakers ( Dru\u0161tvo slovenskih filmskih ustvarjalcev , DSFU ) neglected to officially submit the entry in time because of a misunderstanding within the organization , so it was n't included in the final list of entries .",
    "/wiki/2012_in_film": "The following tables list films released in 2012 . Most notably , the two oldest surviving American film studios , Universal and Paramount both celebrated their centennial anniversaries , marking the first time that two major film studios celebrate 100 years , and the Dolby Atmos sound format was launched for the premiere of Brave . The James Bond film series celebrated its 50th anniversary and released its 23rd film , Skyfall . Six box-office blockbusters from previous years ( Beauty and the Beast , Star Wars : Episode I - The Phantom Menace , Titanic , Raiders of the Lost Ark , Finding Nemo , and Monsters , Inc. ) were re-released in 3D and IMAX . Also 2012 in film marked the debut for high frame rate technology . The first film using 48 fps , a higher frame rate than the film industry standard 24 fps , was The Hobbit : An Unexpected Journey .",
    "/wiki/85th_Academy_Awards": "The 85th Academy Awards ceremony , presented by the Academy of Motion Picture Arts and Sciences ( AMPAS ) , honored the best films of 2012 and took place on February 24 , 2013 , at the Dolby Theatre in Hollywood , Los Angeles beginning at 5:30 p.m. PST / 8:30 p.m. EST . The ceremony was the first in the Academy 's 85-year history to adopt the phrase The Oscars as the ceremony 's official name during the broadcast and marketing . During the ceremony , the Academy of Motion Picture Arts and Sciences presented Academy Awards ( commonly referred to as Oscars ) in 24 categories . The ceremony was televised in the United States by ABC , and produced by Craig Zadan and Neil Meron and directed by Don Mischer . Actor Seth MacFarlane hosted the show for the first time . In related events , the Academy held its 4th annual Governors Awards ceremony at the Grand Ballroom of the Hollywood and Highland Center on December 1 , 2012 . On February 9 , 2013 , in a ceremony at The Beverly Hills Hotel in Beverly Hills , California , the Academy Awards for Technical Achievement were presented by hosts Chris Pine and Zoe Saldana . Life of Pi won four awards including Best Director for Ang Lee . Argo won three awards , including Best Picture , the fourth film to win an Academy Award for Best Picture without its director nominated . Other winners included Les Mis\u00e9rables also with three awards , Django Unchained , Lincoln , and Skyfall with two , and Amour , Anna Karenina , Brave , Curfew , Inocente , Paperman , Searching for Sugar Man , Silver Linings Playbook and Zero Dark Thirty with one . The telecast garnered more than 40 million viewers in the United States .",
    "/wiki/A_Trip": "A Trip ( Slovene : Izlet ) is a 2011 Slovenian drama film directed by Nejc Gazvoda . The film was selected as the Slovenian entry for the Best Foreign Language Oscar at the 85th Academy Awards , but it did not make the final shortlist .",
    "/wiki/Nejc_Gazvoda": "Nejc Gazvoda ( born 5 June 1985 ) is a Slovene writer , screenwriter and director . He has published a number of novels and collections of short stories and also has written the scripts for two successful TV dramas and has recently written and directed his first feature film Izlet ( A Trip ) ( 2011 ) . Gazvoda was born in Novo Mesto in southeastern Slovenia in 1985 . He studied at the Academy for Theatre , Radio , Film and Television in Ljubljana . Whilst still in secondary school he published his book of short stories Vevericam ni\u010d ne uide ( Nothing Escapes the Squirrels ) for which he won the Fabula Award in 2006 for best collection of short prose in Slovene published within the previous two years . His 2011 film A Trip was selected as the Slovenian entry for the Best Foreign Language Oscar at the 85th Academy Awards , but it did not make the final shortlist .",
    "/wiki/2013_in_film": "The following tables list films released in 2013 . Three popular films ( Top Gun , Jurassic Park , and The Wizard of Oz ) were re-released in 3D and IMAX .",
    "/wiki/86th_Academy_Awards": "The 86th Academy Awards ceremony , presented by the Academy of Motion Picture Arts and Sciences ( AMPAS ) , honored the best films of 2013 and took place on March 2 , 2014 , at the Dolby Theatre in Hollywood , Los Angeles beginning at 5:30 p.m. PST / 8:30 p.m. EST . The ceremony was scheduled well after its usual late-February date to avoid conflicting with the 2014 Winter Olympics . During the ceremony , the Academy of Motion Picture Arts and Sciences presented Academy Awards ( commonly referred to as Oscars ) in 24 categories . The ceremony was televised in the United States by ABC , and produced by Neil Meron and Craig Zadan and directed by Hamish Hamilton . Actress Ellen DeGeneres hosted the show for the second time , having previously hosted the 79th ceremony held in 2007 . In related events , the Academy held its 5th annual Governors Awards ceremony at the Grand Ballroom of the Hollywood and Highland Center on November 16 , 2013 . On February 15 , 2014 , in a ceremony at The Beverly Hills Hotel in Beverly Hills , California , the Academy Awards for Technical Achievement were presented by hosts Kristen Bell and Michael B. Jordan . 12 Years a Slave won three awards including Best Picture . Gravity won the most awards with seven including Best Director for Alfonso Cuar\u00f3n . Other winners included Dallas Buyers Club also with three awards , Frozen , and The Great Gatsby with two , and Blue Jasmine , The Great Beauty , Helium , Her , The Lady in Number 6 , Mr Hublot , and 20 Feet from Stardom with one . The telecast garnered nearly 44 million viewers in the United States , making it the most watched Oscar ceremony since the 72nd Academy Awards in 2000 .",
    "/wiki/Class_Enemy_(film)": "Class Enemy ( Slovene : Razredni sovra\u017enik ) is a 2013 Slovenian drama film directed by Rok Bi\u010dek . The film was selected as the Slovenian entry for the Best Foreign Language Film at the 86th Academy Awards , but it was not nominated . It was nominated for the 2014 Lux Prize . It won the Fedeora Award at the 28th Venice Critics ' Week .",
    "/wiki/2014_in_film": "The following is an overview of the events of 2014 in film , including the highest-grossing films , award ceremonies , festivals , and a list of films released and notable deaths .",
    "/wiki/87th_Academy_Awards": "The 87th Academy Awards ceremony , presented by the Academy of Motion Picture Arts and Sciences ( AMPAS ) , honored the best films of 2014 and took place on February 22 , 2015 , at the Dolby Theatre in Hollywood , Los Angeles beginning at 5:30 p.m. PST / 8:30 p.m. EST . During the ceremony , AMPAS presented Academy Awards ( commonly referred to as Oscars ) in 24 categories . The ceremony was televised in the United States by ABC , produced by Neil Meron and Craig Zadan and directed by Hamish Hamilton . Actor Neil Patrick Harris hosted the ceremony for the first time . In related events , the Academy held its 6th Annual Governors Awards ceremony at the Grand Ballroom of the Hollywood and Highland Center on November 8 , 2014 . On February 7 , 2015 , in a ceremony at the Beverly Wilshire Hotel in Beverly Hills , California , the Academy Awards for Technical Achievement were presented by hosts Margot Robbie and Miles Teller . Birdman or ( The Unexpected Virtue of Ignorance ) and The Grand Budapest Hotel each won four awards , with the former film earning the Best Picture honor . Other winners include Whiplash with three and American Sniper , Big Hero 6 , Boyhood , Citizenfour , Crisis Hotline : Veterans Press 1 , Feast , Ida , The Imitation Game , Interstellar , The Phone Call , Selma , Still Alice , and The Theory of Everything with one . The telecast garnered more than 37 million viewers in the United States .",
    "/wiki/Seduce_Me": "Seduce Me ( Slovene : Zapelji me ) is a 2013 Slovenian drama film written and directed by Marko \u0160anti\u0107 . It was selected as the Slovenian entry for the Best Foreign Language Film at the 87th Academy Awards , but was not nominated .",
    "/wiki/2015_in_film": "2015 in film is an overview of events , including the highest-grossing films , award ceremonies , festivals , and a list of films released and notable deaths .",
    "/wiki/88th_Academy_Awards": "The 88th Academy Awards ceremony , presented by the Academy of Motion Picture Arts and Sciences ( AMPAS ) , honored the best films of 2015 and took place on February 28 , 2016 , at the Dolby Theatre in Hollywood , Los Angeles , 5:30 p.m. PST . During the ceremony , AMPAS presented Academy Awards ( commonly referred to as Oscars ) in 24 categories . The ceremony , televised in the United States by ABC , was produced by David Hill and Reginald Hudlin and directed by Glenn Weiss . Actor Chris Rock hosted the show for the second time , having previously hosted the 77th ceremony held in 2005 . In related events , the Academy held its 7th Annual Governors Awards ceremony at the Grand Ballroom of the Hollywood and Highland Center on November 14 , 2015 . On February 13 , 2016 , in a ceremony at the Beverly Wilshire Hotel in Beverly Hills , California , the Academy Awards for Technical Achievement were presented by hosts Olivia Munn and Jason Segel . Spotlight won two awards including Best Picture , making it the first film since The Greatest Show On Earth to win Best Picture while only winning one other award and Mad Max : Fury Road won six awards , the most for the evening . The Revenant earned three awards including Best Director for Alejandro G. I\u00f1\u00e1rritu and Best Actor for Leonardo DiCaprio . Brie Larson won Best Actress for Room , while Mark Rylance and Alicia Vikander won supporting acting honors for Bridge of Spies and The Danish Girl , respectively . The telecast garnered 34.42 million viewers in the United States .",
    "/wiki/The_Tree_(2014_film)": "The Tree ( Slovene : Drevo ) is a 2014 Slovenian drama film written and directed by Sonja Prosenc . It film was selected as the Slovenian entry for the Best Foreign Language Film at the 88th Academy Awards but it was not nominated .",
    "/wiki/2016_in_film": "2016 in film is an overview of events , including the highest-grossing films , award ceremonies , festivals , and a list of films released and deaths .",
    "/wiki/89th_Academy_Awards": "The 89th Academy Awards ceremony , presented by the Academy of Motion Picture Arts and Sciences ( AMPAS ) , honored the best films of 2016 , and took place on February 26 , 2017 , at the Dolby Theatre in Hollywood , Los Angeles , California , at 5:30 p.m. PST . During the ceremony , AMPAS presented Academy Awards ( commonly referred to as Oscars ) in 24 categories . The ceremony , televised in the United States by ABC , was produced by Michael De Luca and Jennifer Todd and directed by Glenn Weiss . Comedian Jimmy Kimmel hosted the ceremony for the first time . In related events , the Academy held its 8th Annual Governors Awards ceremony at the Grand Ballroom of the Hollywood and Highland Center on November 12 , 2016 . On February 11 , 2017 , in a ceremony at the Beverly Wilshire Hotel in Beverly Hills , California , the Academy Scientific and Technical Awards were presented by hosts John Cho and Leslie Mann . In the main ceremony , Moonlight won three awards including Best Picture , after La La Land was mistakenly announced as the winner , as well as Best Supporting Actor for Mahershala Ali . La La Land won six awards , the most for the evening , out of its record-tying fourteen nominations , including Best Actress for Emma Stone and Best Director for Damien Chazelle . Hacksaw Ridge and Manchester by the Sea won two awards each with Casey Affleck winning Best Actor for the latter . Viola Davis won the Best Supporting Actress honor for Fences . The telecast was viewed by 33 million people in the United States .",
    "/wiki/Houston,_We_Have_a_Problem!_(film)": "Houston , We Have a Problem ! ( Slovene : Houston , imamo problem ! ) is a 2016 internationally co-produced docufiction-mockumentary film by Slovene director \u017diga Virc . The film explores the myth of the secret multibillion-dollar deal behind the United States ' purchase of Yugoslavia 's clandestine space program in the early 1960s . It is based and inspired by numerous real events and facts , in the sense that it is intended as an allegory to the Cold War . The film premiered on 16 April 2016 at Tribeca Film Festival . It was selected as the Slovenian entry for the Best Foreign Language Film at the 89th Academy Awards but it was not nominated ."
  }
}