{
  "Template:2018_Winter_Olympics_Olympic_Athletes_from_Russia_women's_ice_hockey_team_roster_0": {
    "/wiki/Valeria_Tarakanova": "Valeria Dmitriyevna Tarakanova ( ) ( born 20 June 1998 ) is a Russian ice hockey player for SKIF Nizhni Novgorod and the Russian national team . She participated at the 2015 IIHF Women 's World Championship .",
    "/wiki/Zavolzhye,_Nizhny_Novgorod_Oblast": "Zavolzhye ( ) is a town in Gorodetsky District of Nizhny Novgorod Oblast , Russia , located on the right bank of the Volga River , opposite Gorodets , the administrative centre of the district , and northwest of Nizhny Novgorod , the administrative center of the oblast . Population :",
    "/wiki/SKIF_Nizhny_Novgorod": "SKIF Nizhny Novgorod ( ; also transliterated as SKIF Nizhni Novgorod ) is a Russian womens ice hockey team based in Nizhny Novgorod , Russia . They compete in the Women 's Hockey League ( ZhHL ) , the premier league for women 's ice hockey in Russia , where they have won the Russian Championship twelve times . The team was founded in Moscow in 1995 under the name Luzhniki Moskova . During the period the team was based in Moscow , they were known as Luzhniki Moskova ( 1995-96 ) , CSK VVS Moskova ( 1996-98 ) , Viking Moskova ( 1998-2000 ) , and SKIF Moskva ( 2000-06 ) . In 2006 the team moved from Moscow to Nizhny Novgorod and were renamed SKIF Nizhny Novgorod . Since relocation , the team 's home ice has been CEC Nagorny , which is also home to Torpedo Nizhny Novgorod of the KHL . SKIF won the IIHF European Women 's Champions Cup in 2009 and 2015 .",
    "/wiki/Russian_Women's_Hockey_League": "The Women 's Hockey League ( WHL ) ( ) is the national women 's ice hockey league in Russia . The league originally began in 1995 as the Russian Women 's Hockey League .",
    "/wiki/Angelina_Goncharenko": "Angelina Pavlovna Goncharenko ( ) ( born May 23 , 1994 ) is a Russian ice hockey Defenceman .",
    "/wiki/Moscow": "Moscow ( /\u02c8m\u0252sko\u028a/ , in US mainly : /\u02c8m\u0252ska\u028a/ ; Russian : \u041c\u043e\u0441\u043a\u0432\u0430 , tr . Moskva , IPA : [ m\u0250\u02c8skva ] ( listen ) ) is the capital and most populous city of Russia , with approximately 12.6 million residents within the city limits , 17 million within the urban area and 20 million within the metropolitan area . Moscow is one of Russia 's federal cities . Moscow is a major political , economic , cultural , and scientific centre of Russia and Eastern Europe . It is the second-most populous city in Europe , the most populous city entirely within Europe , as well as the largest city ( by area ) on the European continent . By broader definitions , Moscow is among the world 's largest cities , being the 24th largest metropolitan area , the 16th largest urban area , and the 10th largest by population within city limits worldwide . Moscow has been ranked as the ninth most expensive city in the world and has one of the world 's largest urban economies , being ranked as an alpha global city , and is also one of the fastest growing tourist destinations in the world . Moscow is home to the third-highest number of billionaires of any city in the world , and has the highest number of billionaires of any city in Europe . Moscow is the northernmost and coldest megacity on the Earth . It is home to the Ostankino Tower , the tallest free standing structure in Europe ; the Federation Tower , the second-tallest skyscraper in Europe ; and the Moscow International Business Center . Moscow is the largest city on the European continent by area . Moscow is situated on the Moskva River in the Central Federal District of European Russia , it is well known for its architecture , particularly its historic buildings such as Saint Basil 's Cathedral in Russian architectural style with a richly decorated and multicolored facade .",
    "/wiki/Liudmila_Belyakova": "Ludmila Viktorovna Luda Belyakova ( ; born 12 August 1994 ) is a Russian ice hockey forward and Master of Sports of Russia of International Class . Belyakova played for the New York Riveters of the National Women 's Hockey League in the season 2015-2016 , where she was the league 's first Russian player . Liudmila Belyakova is a member of the Russia women 's national ice hockey team .",
    "/wiki/Liana_Ganeyeva": "Liana Albertovna Ganeyeva ( ; born 20 December 1997 ) is a Russian ice hockey player for SK Gorny and the Russian national team . She participated at the 2017 IIHF Women 's World Championship .",
    "/wiki/Yekaterina_Lobova": "Yekaterina Aleksandrovna Lobova ( ; born October 25 , 1998 ) is a Russian ice hockey player for Biryusa Krasnoyarsk and the Russian national team . She participated at the 2017 IIHF Women 's World Championship .",
    "/wiki/Novosibirsk": "Novosibirsk ( /\u02ccno\u028av\u0259s\u026a\u02c8b\u026a\u0259rsk , -vo\u028as-/ , also UK : /\u02ccn\u0252v-/ ; Russian : \u041d\u043e\u0432\u043e\u0441\u0438\u0431\u0438\u0301\u0440\u0441\u043a , IPA : [ n\u0259v\u0259s\u02b2\u026a\u02c8b\u02b2irsk ] ( listen ) , li . : New Siberia ) is the administrative center of Novosibirsk Oblast in Russia . Located in the southwestern part of Siberia on the banks of the Ob River , it is the third-most populous city in Russia ( after Moscow and St. Petersburg ) as well as the most populous city in Asian Russia , with a population of 1,612,833 as of the 2018 census . Novosibirsk was founded in 1893 on the Ob River crossing point of the future Trans-Siberian Railway . Originally named Novonikolayevsk , it grew rapidly into a major transport , commercial and industrial hub . The city was ravaged by the Russian Civil War but recovered during the early Soviet period , and gained its present name in 1926 . Under Stalin , Novosibirsk became one of the largest industrial centers of Siberia . Following the outbreak of the Great Patriotic War the city hosted many factories relocated from European Russia . Novosibirsk is home to the headquarters of numerous Russian corporations , as well as the world-renowned Novosibirsk Zoo . It is served by Tolmachevo Airport , the busiest airport in Siberia .",
    "/wiki/Nina_Pirogova": "Nina Borisovna Pirogova ( ; born 26 January 1999 ) is a Russian ice hockey player for Tornado Moscow Region and the Russian national team . She participated at the 2015 and 2016 IIHF Women 's World Championships .",
    "/wiki/Valeria_Pavlova": "Valeria Viktorovna Pavlova ( ) ( born 15 April 1995 ) is a Russian ice hockey player for Biryusa Krasnoyarsk and the Russian national team . She participated at the 2015 and 2016 IIHF Women 's World Championships .",
    "/wiki/Tyumen": "Tyumen ( /tju\u02d0\u02c8m\u025bn/ tew-MEN ; Russian : \u0422\u044e\u043c\u0435\u043d\u044c , IPA : [ t\u02b2\u0289\u02c8m\u02b2en\u02b2 ] ( listen ) ) is the largest city and the administrative center of Tyumen Oblast , Russia , located on the Tura River 2,500 kilometers ( 1,600 mi ) east of Moscow . Tyumen was the first Russian settlement in Siberia . Founded in 1586 to support Russia 's eastward expansion , the city has remained one of the most important industrial and economic centers east of the Ural Mountains . Located at the junction of several important trade routes and with easy access to navigable waterways , Tyumen rapidly developed from a small military settlement to a large commercial and industrial city . The central part of Old Tyumen retains many historic buildings from throughout the city 's history . Today Tyumen is an important business center . It is the transport hub and industrial center of Tyumen Oblast - an oil-rich region bordering Kazakhstan - as well as the home of many companies active in Russia 's oil and gas industry .",
    "/wiki/Fanuza_Kadirova": "Fanuza Fahimovna Kadirova ( ; born 6 April 1998 ) is a Russian ice hockey player for SK Gorny and the Russian national team . She participated at the 2015 and 2016 IIHF Women 's World Championship .",
    "/wiki/Kukmor": "Kukmor ( ; , Quqmara ) is an urban locality ( an urban-type settlement ) and the administrative center of Kukmorsky District in the Republic of Tatarstan , Russia , located on the Nurminka River ( in the Vyatka 's basin ) , near the border with Kirov Oblast , from the republic 's capital of Kazan . As of the 2010 Census , its population was 16,918 .",
    "/wiki/Olga_Sosina": "Olga Petrovna Sosina ( ) ( born 27 July 1992 ) is a Russian ice hockey forward for HC Agidel Ufa .",
    "/wiki/Captain_(ice_hockey)": "In ice hockey , the captain is the player designated by a team as the only person authorized to speak with the game officials regarding rule interpretations when the captain is on the ice . At most levels of play each team must designate one captain and a number of alternate captains ( usually two or three ) who speak to the officials when the captain is on the bench . Captains wear a C on their sweaters , while alternate captains wear an A . Officially captains have no other responsibility or authority , although they may , depending on the league or individual team , have various informal duties , such as participation in pre-game ceremonies or other events outside the game . As with most team sports that designate captains , the captain is usually a well-respected player and a de facto team leader .",
    "/wiki/Almetyevsk": "Almetyevsk ( ; ) is a city in the Republic of Tatarstan , Russia , located on the left bank of the Zay River ( Kama 's tributary ) southeast of Kazan . Population : 77,000 ( 1969 ) ; 49,000 ( 1959 ) .",
    "/wiki/Maria_Batalova": "Maria Viktorovna Batalova ( ; born 3 May 1996 ) is a Russian ice hockey player for Tornado Moscow Region and the Russian national team . She participated at the 2017 IIHF Women 's World Championship .",
    "/wiki/Diana_Kanayeva": "Diana Rafaelevna Kanayeva ( ) ( born 27 March 1997 ) is a Russian ice hockey player for HC St. Petersburg . She competed in the 2018 Winter Olympics .",
    "/wiki/Naberezhnye_Chelny": "Naberezhnye Chelny ( Russian : \u041d\u0430\u0301\u0431\u0435\u0440\u0435\u0436\u043d\u044b\u0435 \u0427\u0435\u043b\u043d\u044b\u0301 , IPA : [ \u02c8nab\u02b2\u026ar\u02b2\u026a\u0290n\u0268j\u0259 t\u0255\u026al\u02c8n\u0268 ] ; Tatar : \u042f\u0440 \u0427\u0430\u043b\u043b\u044b IPA : [ \u02c8jar \u0255\u0251l\u02d0\u0264\u0306 ] ) is the second largest city in the Republic of Tatarstan , Russia . A major industrial center , Naberezhnye Chelny stands on the Kama River 225 kilometers ( 140 mi ) east of Kazan near Nizhnekamsk Reservoir . The population of the city over the years : 513,193 ( 2010 Census ) ; 509,870 ( 2002 Census ) ; 500,309 ( 1989 Census ) . The city was previously known as Naberezhnye Chelny ( until November 18 , 1982 ) , Brezhnev ( until 1988 ) .",
    "/wiki/Nadezhda_Alexandrova": "Nadezhda Valeriyevna Alexandrova ( ; born 3 January 1986 ) is a Russian ice hockey player for Tornado Moscow Region and the Russian national team . She participated at the 2017 IIHF Women 's World Championship .",
    "/wiki/Soviet_Union": "The Soviet Union , [ b ] officially known as the Union of Soviet Socialist Republics ( USSR or \u0421\u0421\u0421\u0420 ) , [ c ] was a federal sovereign state in northern Eurasia that existed from 1922 to 1991 . Nominally a union of multiple national Soviet republics , [ d ] in practice its government and economy were highly centralized . The country was a one-party state , governed by the Communist Party with Moscow as its capital in its largest republic , the Russian Soviet Federative Socialist Republic ( Russian SFSR ) . Other major urban centers were Leningrad , Kiev , Minsk , Tashkent , Alma-Ata , and Novosibirsk . It spanned over 10,000 kilometers ( 6,200 mi ) east to west across 11 time zones , and over 7,200 kilometers ( 4,500 mi ) north to south . Its territory included much of Eastern Europe , as well as part of Northern Europe and all of Northern and Central Asia . It had five climate zones : tundra , taiga , steppes , desert and mountains . The Soviet Union had its roots in the 1917 October Revolution , when the Bolsheviks , led by Vladimir Lenin , overthrew the Russian Provisional Government which had replaced the autocratic regime of Tsar Nicholas II during World War I . In 1922 , after a civil war ending in the Bolsheviks ' victory , the USSR was formed by a treaty which united the Russian , Transcaucasian , Ukrainian and Byelorussian republics . Following Lenin 's death in 1924 and a brief power struggle , Joseph Stalin came to power in the mid-1920s . Stalin formalized the Communist Party 's ideology of Marxism-Leninism and replaced the market economy with a command economy which led to a period of rapid industrialization and collectivization . During this period , rapid economic development resulted in dramatic improvements in the average standard of living , particularly in urban areas .",
    "/wiki/Svetlana_Tkacheva": "Svetlana Valeriyevna Tkacheva ( , born 3 November 1984 ) is a Russian female ice hockey player . She was part of the Russia women 's national ice hockey team that participated in the 2010 Winter Olympics . Russia finished 6th .",
    "/wiki/Yekaterina_Likhachyova": "Yekaterina Sergeyevna Likhachyova ( ) ( born 24 August 1998 ) is a Russian ice hockey player . She competed in the 2018 Winter Olympics .",
    "/wiki/Kirovo-Chepetsk": "Kirovo-Chepetsk ( ) is a town in Kirov Oblast , Russia , located at the confluence of the Cheptsa and the Vyatka Rivers , east of Kirov . Population :",
    "/wiki/Alyona_Starovoitova": "Alyona Mikhailovna Starovoitova ( , born 22 October 1999 ) is a Russian ice hockey player . She competed in the 2018 Winter Olympics .",
    "/wiki/Yelena_Dergachyova": "Yelena Nikolayevna Dergachyova ( ; born 8 November 1995 ) is a Russian ice hockey forward for Tornado Moscow Region .",
    "/wiki/Alevtina_Shtaryova": "Alevtina Pavlovna Shtaryova ( ; born 9 February 1997 ) is a Russian ice hockey player for Tornado Moscow and the Russian national team . She participated at the 2016 IIHF Women 's World Championship .",
    "/wiki/Viktoria_Kulishova": "Viktoria Igorevna Kulishova ( ) ( born 12 August 1999 ) is a Russian ice hockey player for SKIF Nizhny Novgorod . She competed in the 2018 Winter Olympics .",
    "/wiki/Yekaterina_Nikolayeva": "Yekaterina Gennadiyevna Nikolayeva ( ) ( born 5 October 1995 ) is a Russian ice hockey player for HC St. Petersburg and the Russian national team . She participated at the 2016 IIHF Women 's World Championship .",
    "/wiki/Saratov": "Saratov ( , ; ) is a city and the administrative center of Saratov Oblast , Russia , and a major port on the Volga River located upstream ( north ) of Volgograd . Population :",
    "/wiki/Yekaterina_Smolina": "Yekaterina Anatolievna Smolina ( ) ( born 8 October 1988 ) is a Russian ice hockey forward for HC St. Petersburg .",
    "/wiki/Oskemen": "Oskemen ( Kazakh : \u04e8\u0441\u043a\u0435\u043c\u0435\u043d , romanized : \u00d3skemen ) or Ust-Kamenogorsk ( Russian : \u0423\u0441\u0442\u044c-\u041a\u0430\u043c\u0435\u043d\u043e\u0433\u043e\u0301\u0440\u0441\u043a ) is the administrative center of East Kazakhstan Region of Kazakhstan . It is served by Oskemen Airport . Population : 303,720 ( 2009 Census results ) ; 310,950 ( 1999 Census results ) ."
  }
}