{
  "Screen_Actors_Guild_Award_for_Outstanding_Performance_by_a_Female_Actor_in_a_Leading_Role_0": {
    "/wiki/1st_Screen_Actors_Guild_Awards": "The Inaugural Screen Actors Guild Awards aired on NBC from Stage 12 , Universal Studios , on February 25 , 1995 . Unveiled during this evening for the first time was the Guilds new award statuette , The Actor , as well as the first awards for ensembles in drama series and comedy series which honor all of the actors who are the regulars in television series . From this auspicious beginning the Screen Actors Guild Awards\u00ae has been embraced as one of the most prestigious in the entertainment industry .",
    "/wiki/Jodie_Foster": "Alicia Christian Jodie Foster ( born November 19 , 1962 ) is an American actress , director , and producer . She has received two Academy Awards , three British Academy Film Awards , two Golden Globe Awards , and the Cecil B. DeMille Award . For her work as a director , she has been nominated for a Primetime Emmy Award . Foster began her professional career as a child model when she was three years old , and she made her acting debut in 1968 in the television sitcom Mayberry R.F.D . In the late 1960s and early 1970s , she worked in several television series and made her film debut with Disney 's Napoleon and Samantha ( 1972 ) . Following appearances in the musical Tom Sawyer ( 1973 ) and Martin Scorsese 's comedy-drama Alice Does n't Live Here Anymore ( 1974 ) , Foster 's breakthrough came with Scorsese 's psychological thriller Taxi Driver ( 1976 ) , in which she played a child prostitute ; at age 14 , she received a nomination for the Academy Award for Best Supporting Actress . Her other roles as a teenager include the musical Bugsy Malone ( 1976 ) and the thriller The Little Girl Who Lives Down the Lane ( 1976 ) , and she became a popular teen idol by starring in Disney 's Freaky Friday ( 1976 ) and Candleshoe ( 1977 ) , as well as Carny ( 1980 ) and Foxes ( 1980 ) . After attending college at Yale , Foster struggled to transition into adult roles until she gained critical acclaim for playing a rape survivor in the legal drama The Accused ( 1988 ) , for which she won the Academy Award for Best Actress . She won her second Academy Award three years later for the psychological horror The Silence of the Lambs ( 1991 ) , in which she portrayed Clarice Starling . Foster made her debut as a film director the same year with Little Man Tate , and founded her own production company , Egg Pictures , in 1992 . The company 's first production was Nell ( 1994 ) , in which she also played the title role , garnering her fourth nomination for an Academy Award . Her other successful films in the 1990s were the romantic drama Sommersby , western comedy Maverick ( 1994 ) , science fiction Contact ( 1997 ) , and period drama Anna and the King ( 1999 ) .",
    "/wiki/Nell_(film)": "Nell is a 1994 American drama film directed by Michael Apted from a screenplay written by William Nicholson . The film stars Jodie Foster ( who also produced ) in the titular role . Liam Neeson , Natasha Richardson , Richard Libertini , and Nick Searcy are featured in supporting roles . Based on Mark Handley 's play Idioglossia , the script for Nell was developed by co-producer Ren\u00e9e Missel and was inspired by Handley 's time living in the Cascade Mountains in the 1970s , and the story of Poto and Cabengo , twins who created their own language , the film 's narrative follows a young woman who has to face other people for the first time after being raised by her mother in an isolated cabin . The original musical score is composed by Mark Isham . Nell received limited release on December 16 , 1994 , before expanding into wide release on December 23 . The film upon release received mixed reviews from critics who praised the direction , score and performances but criticised its execution and limited exploration of the titular character , and was a box office success grossing over $ 106 million worldwide , on a $ 24.5 million production budget . Foster 's performance was widely praised and brought her various awards and nominations . She won the inaugural Screen Actors Guild Award for Outstanding Performance by a Female Actor in a Leading Role and was nominated for the Academy Award for Best Actress and the Golden Globe Award for Best Actress - Motion Picture Drama . The film also received two additional nominations at the 52nd Golden Globe Awards for Best Motion Picture - Drama , and Best Original Score .",
    "/wiki/Jessica_Lange": "Jessica Phyllis Lange ( /l\u00e6\u014b/ ; born April 20 , 1949 ) is an American actress . She is the thirteenth actress in history to achieve the Triple Crown of Acting , having won two Academy Awards , three Primetime Emmy Awards , one Tony Award , one Screen Actors Guild Award , and five Golden Globe Awards . Additionally , she is the second actress in history to win the Academy Award for Best Actress after winning the Academy Award for Best Supporting Actress , the third actress and first performer since 1943 to receive two Oscar nominations within the same year , the fifth actress and ninth performer to win Oscars in both the lead and supporting acting categories , and is tied as the sixth most Oscar-nominated actress in history . Lange holds the record for the most Golden Globe nominations in the Best Actress in a Miniseries or Motion Picture Made for Television category , and is the second actress with the most Golden Globe nominations in history . She is the only performer ever to win Primetime Emmy Awards in both the Outstanding Supporting Actress and Outstanding Lead Actress categories for the same miniseries . Lange has also garnered one Critics Choice Award and three Dorian Awards , making her the most honored actress by the Gay and Lesbian Entertainment Critics Association . In 1998 , Entertainment Weekly listed Lange among the 25 Greatest Actresses of the 1990s . In 2014 , Lange was scheduled to receive a star on The Hollywood Walk of Fame , though she has yet to claim it . Lange made her professional film debut in Dino De Laurentiis 's 1976 remake of the 1933 action-adventure classic King Kong , for which she also won her first Golden Globe Award for New Star of the Year . In 1983 , she won her second Golden Globe Award and the Academy Award for Best Supporting Actress for her role as a soap opera star in Tootsie ( 1982 ) and was also nominated for the Academy Award for Best Actress for her portrayal of the troubled actress Frances Farmer in Frances ( 1982 ) . Lange received three more nominations for Country ( 1984 ) , Sweet Dreams ( 1985 ) and Music Box ( 1989 ) , before winning her third Golden Globe Award , and the Academy Award for Best Actress for her performance as a manic depressive housewife in Blue Sky ( 1994 ) . In 2010 , she won her first Primetime Emmy Award for her portrayal of Jacqueline Kennedy Onassis ' famed aunt , Big Edie , in HBO 's Grey Gardens ( 2009 ) .",
    "/wiki/Blue_Sky_(1994_film)": "Blue Sky is a 1994 American drama film , about a nuclear coverup , and the last film directed by Tony Richardson . It was adapted by Rama Stagner , Arlene Sarner and Jerry Leichtling . It stars Jessica Lange , Tommy Lee Jones , Powers Boothe , Carrie Snodgress , Amy Locane , Galynn Duggan , and Chris O'Donnell . The original music score was composed by Jack Nitzsche . Filmed from May 14 to July 16 , 1990 , the film was completed in 1991 , but because of the bankruptcy of Orion Pictures , it sat on the shelf until 1994 , three years after Richardson 's death on November 14 , 1991 . Despite this , it won critical praise and Lange won the 1994 Academy Award for Best Actress , along with the Golden Globe Award and the Los Angeles Film Critics Association award . The film is based on Rama Stagner-Blum 's real life and the relationship between her parents , Clyde and Gloria Lee Moore-Stagner , during the 1960s while her father was in the army . They later divorced and Gloria remarried before dying in 1982 .",
    "/wiki/Meg_Ryan": "Meg Ryan ( born Margaret Mary Emily Hyra ; November 19 , 1961 ) is an American actress and producer . Ryan began her acting career in 1981 in minor roles before joining the cast of the CBS soap opera As the World Turns in 1982 . Subsequently , she began to appear in supporting roles in films during the mid 1980s like box office hit Top Gun , achieving recognition in independent films such as Promised Land ( 1987 ) before her performance in the Rob Reiner-directed romantic comedy When Harry Met Sally . ( 1989 ) brought her widespread attention and her first Golden Globe nomination . Ryan subsequently established herself , both nationally and internationally , as one of the most successful actresses in the 1990s and early 2000s , particularly in romantic comedy films such as Sleepless in Seattle ( 1993 ) , French Kiss ( 1995 ) , You 've Got Mail ( 1998 ) , and Kate & Leopold ( 2001 ) . Her other films include The Doors ( 1991 ) , When a Man Loves a Woman ( 1994 ) , Courage Under Fire ( 1996 ) , Addicted to Love ( 1997 ) , City of Angels ( 1998 ) , Proof of Life ( 2000 ) , and The Women ( 2008 ) . In 2015 , she made her directorial debut with Ithaca , a film in which she also acted .",
    "/wiki/When_a_Man_Loves_a_Woman_(film)": "When a Man Loves a Woman is a 1994 American romantic drama film directed by Luis Mandoki and starring Andy Garc\u00eda , Meg Ryan , Tina Majorino , Mae Whitman , Ellen Burstyn , Lauren Tom and Philip Seymour Hoffman . It was written by Al Franken and Ronald Bass . For her performance as an alcoholic mother , Ryan received a Screen Actors Guild Award nomination for Best Female Actor in a Leading Role . The film 's title is taken from the song of the same name by Percy Sledge .",
    "/wiki/Susan_Sarandon": "Susan Abigail Sarandon ( n\u00e9e Tomalin ; born October 4 , 1946 ) is an American actress and activist . She has received an Academy Award , a British Academy Film Award , and a Screen Actors Guild Award , and has been nominated for nine Golden Globe Awards . Known for her social and political activism , she was appointed a UNICEF Goodwill Ambassador in 1999 and received the Action Against Hunger Humanitarian Award in 2006 . Sarandon began her career in the film Joe ( 1970 ) , before appearing in the soap opera A World Apart ( 1970-71 ) . In 1974 , she co-starred as a Zelda Fitzgerald surrogate in the TV movie F. Scott Fitzgerald and 'The Last of the Belles ' and in 1975 , she starred in The Rocky Horror Picture Show . She was nominated for the Academy Award for Best Actress for Atlantic City ( 1980 ) , Thelma & Louise ( 1991 ) , Lorenzo 's Oil ( 1992 ) , and The Client ( 1994 ) , before winning for Dead Man Walking ( 1995 ) . She has also won the BAFTA Award for Best Actress in a Leading Role for The Client , and the Screen Actors Guild Award for Best Actress for Dead Man Walking . Her other films include : Pretty Baby ( 1978 ) , The Hunger ( 1983 ) , The Witches of Eastwick ( 1987 ) , Bull Durham ( 1988 ) , White Palace ( 1990 ) , Little Women ( 1994 ) , Stepmom ( 1998 ) , Enchanted ( 2007 ) , The Lovely Bones ( 2009 ) , Tammy ( 2014 ) , The Meddler ( 2015 ) , and A Bad Moms Christmas ( 2017 ) . She made her Broadway debut in An Evening with Richard Nixon in 1972 and went on to receive Drama Desk Award nominations for the Off-Broadway plays , A Coupla White Chicks Sitting Around Talking ( 1979 ) and Extremities ( 1982 ) . She returned to Broadway in the 2009 revival of Exit the King . On television , she is a six-time Emmy Award nominee , including for her guest roles on the sitcoms Friends ( 2001 ) and Malcolm in the Middle ( 2002 ) , and appearances in the TV films Bernard and Doris ( 2007 ) and You Do n't Know Jack ( 2010 ) . In 2017 , Sarandon portrayed Bette Davis in the first season of FX 's anthology series Feud , for which she was nominated for both acting and producing Emmys .",
    "/wiki/The_Client_(1994_film)": "The Client is a 1994 American legal thriller film directed by Joel Schumacher , and starring Susan Sarandon , Tommy Lee Jones , Brad Renfro , Mary-Louise Parker , Anthony LaPaglia , Anthony Edwards , and Ossie Davis . It is based on the eponymous novel by John Grisham . The film was released in the United States on July 20 , 1994 .",
    "/wiki/Meryl_Streep": "Mary Louise Meryl Streep ( born June 22 , 1949 ) is an American actress . Often described as the best actress of her generation , Streep is particularly known for her versatility and accents . Nominated for a record 21 Academy Awards , she has won three . Among other accolades , she has received 32 Golden Globe nominations , more than any other person , and won eight . Streep made her stage debut in Trelawny of the Wells in 1975 . In 1976 , she received a Tony Award nomination for Best Featured Actress in a Play for 27 Wagons Full of Cotton and A Memory of Two Mondays . In 1977 , she made her screen debut in the television film The Deadliest Season , and also made her film debut in Julia . In 1978 , she won an Emmy Award for Outstanding Lead Actress - Miniseries or a Movie for her role in the miniseries Holocaust , and received her first Oscar nomination for The Deer Hunter . Streep went on to win the Academy Award for Best Supporting Actress for Kramer vs. Kramer ( 1979 ) , and the Academy Award for Best Actress for Sophie 's Choice ( 1982 ) and The Iron Lady ( 2011 ) . Streep 's other Oscar-nominated roles were in The French Lieutenant 's Woman ( 1981 ) , Silkwood ( 1983 ) , Out of Africa ( 1985 ) , Ironweed ( 1987 ) , Evil Angels ( 1988 ) , Postcards from the Edge ( 1990 ) , The Bridges of Madison County ( 1995 ) , One True Thing ( 1998 ) , Music of the Heart ( 1999 ) , Adaptation ( 2002 ) , The Devil Wears Prada ( 2006 ) , Doubt ( 2008 ) , Julie & Julia ( 2009 ) , August : Osage County ( 2013 ) , Into the Woods ( 2014 ) , Florence Foster Jenkins ( 2016 ) , and The Post ( 2017 ) . Her stage roles include The Public Theater 's 2001 revival of The Seagull , and her television roles include two projects for HBO , the acclaimed miniseries Angels in America ( 2003 ) , for which her performance won her another Emmy Award , and the drama series Big Little Lies ( 2019 ) . Streep 's other films that were critically and or commercially successful where she was n't nominated for an Academy Award include Julia ( 1977 ) , Manhattan ( 1979 ) , The Seduction of Joe Tynan ( 1979 ) , Defending Your Life ( 1991 ) , Death Becomes Her ( 1992 ) , The River Wild ( 1994 ) , Marvin 's Room ( 1996 ) , Lemony Snicket 's A Series of Unfortunate Events ( 2004 ) , A Prairie Home Companion ( 2006 ) , Mamma Mia ( 2008 ) and its sequel , Fantastic Mr. Fox ( 2009 ) , It 's Complicated ( 2009 ) , Suffragette ( 2015 ) , Mary Poppins Returns ( 2018 ) and Little Women ( 2019 ) .",
    "/wiki/The_River_Wild": "The River Wild is a 1994 American adventure thriller film directed by Curtis Hanson and starring Meryl Streep , Kevin Bacon , David Strathairn , John C. Reilly , Benjamin Bratt , and Joseph Mazzello as Roarke . It is about a family on a whitewater rafting trip who encounter two violent criminals in the wilderness .",
    "/wiki/2nd_Screen_Actors_Guild_Awards": "The 2nd Screen Actors Guild Awards , honoring the best achievements in film and television performances for the year 1995 , took place on February 24 , 1996 . The ceremony was held at the Santa Monica Civic Auditorium in Los Angeles , California , and was televised live by NBC . The nominees were announced on January 18 , 1996 . This was the first year the category of Outstanding Performance by a Cast in a Motion Picture was offered .",
    "/wiki/Dead_Man_Walking_(film)": "Dead Man Walking is a 1995 American crime drama film starring Susan Sarandon and Sean Penn , and co-produced and directed by Tim Robbins , who adapted the screenplay from the non-fiction book of the same name . Sister Helen Prejean ( Sarandon ) establishes a special relationship with Matthew Poncelet ( Penn ) , a character based on convicted murderers Elmo Patrick Sonnier and Robert Lee Willie . He is a prisoner on death row in Louisiana , and she visits him as his spiritual adviser after having corresponded with him .",
    "/wiki/Helen_Prejean": "Helen Prejean , C.S.J . ( born April 21 , 1939 , in Baton Rouge , Louisiana ) is a Roman Catholic sister , a member of the Congregation of St. Joseph based in New Orleans , and a leading American advocate for the abolition of the death penalty . Prejean founded the groups SURVIVE to help families of victims of murder and related crimes . She served as the National Chairperson of the National Coalition to Abolish the Death Penalty from 1993 to 1995 . She helped establish The Moratorium Campaign , seeking an end to executions and conducting education on the death penalty . She is known for her best-selling book , Dead Man Walking ( 1993 ) , based on her experiences with two convicts on death row for whom she served as spiritual adviser before their executions . In her book , she explored the effects of the death penalty on everyone involved . The book was adapted as a 1995 film of the same name , starring Susan Sarandon and Sean Penn . It was also adapted as an opera , first produced in 2000 by the San Francisco Opera .",
    "/wiki/Joan_Allen": "Joan Allen ( born August 20 , 1956 ) is an American actress . She began her career with the Steppenwolf Theatre Company in 1977 , won the 1984 Drama Desk Award for Outstanding Actress in a Play for And a Nightingale Sang , and won the 1988 Tony Award for Best Actress in a Play for her Broadway debut in Burn This . She is also a three-time Academy Award nominee ; receiving Best Supporting Actress nominations for Nixon ( 1995 ) and The Crucible ( 1996 ) , and a Best Actress nomination for The Contender ( 2000 ) . Allen 's other film roles include Manhunter ( 1986 ) , Peggy Sue Got Married ( 1986 ) , Tucker : The Man and His Dream ( 1988 ) , The Ice Storm ( 1997 ) , Face/Off ( 1997 ) , Pleasantville ( 1998 ) , The Bourne Supremacy ( 2004 ) , The Upside of Anger ( 2005 ) , The Bourne Ultimatum ( 2007 ) , Death Race ( 2008 ) , and The Bourne Legacy ( 2012 ) . She won the Canadian Screen Award for Best Supporting Actress for the 2015 film Room . She has also starred in the Broadway plays The Heidi Chronicles ( 1988 ) , Impressionism ( 2009 ) , and The Waverly Gallery ( 2018 ) .",
    "/wiki/Nixon_(film)": "Nixon is a 1995 American epic historical drama film directed by Oliver Stone , produced by Clayton Townsend , Stone and Andrew G. Vajna . The film was written by Stone , Christopher Wilkinson and Stephen J. Rievele . The film tells the story of the political and personal life of former U.S. President Richard Nixon , played by Anthony Hopkins . The film portrays Nixon as a complex and , in many respects , admirable , though deeply flawed , person . Nixon begins with a disclaimer that the film is an attempt to understand the truth [ . ] based on numerous public sources and on an incomplete historical record . The cast includes Anthony Hopkins , Joan Allen , Annabeth Gish , Marley Shelton , Powers Boothe , J. T. Walsh , E. G. Marshall , James Woods , Paul Sorvino , Bob Hoskins , Larry Hagman , Ed Harris and David Hyde Pierce , plus archival appearances from political figures such as President Bill Clinton in TV footage from the Nixon funeral service . The film was nominated for four Academy Awards : Best Actor ( Anthony Hopkins ) , Best Supporting Actress ( Joan Allen ) , Best Original Score ( John Williams ) and Best Original Screenplay . This was Stone 's second of three films about the American presidency , made four years after JFK , about the assassination of John F. Kennedy , and followed 13 years later by W. , about George W. Bush .",
    "/wiki/Pat_Nixon": "Thelma Catherine Pat Nixon ( n\u00e9e Ryan ; March 16 , 1912 - June 22 , 1993 ) , also commonly known as Patricia Nixon , was an American educator and the wife of Richard Nixon , the 37th President of the United States . During her more than 30 years in public life , she served as both the Second ( 1953-1961 ) and First Lady of the United States ( 1969-1974 ) . Born in Ely , Nevada , she grew up with her two brothers in what is now Cerritos , California , graduating from high school in 1929 . She attended Fullerton Junior College and later the University of Southern California . She paid for her schooling by working multiple jobs , including pharmacy manager , typist , radiographer , and retail clerk . In 1940 , she married lawyer Richard Nixon and they had two daughters , Tricia and Julie . Dubbed the Nixon team , Richard and Pat Nixon campaigned together in his successful congressional campaigns of 1946 and 1948 . Richard Nixon was elected Vice President in 1952 alongside General Dwight D. Eisenhower , whereupon Pat became Second Lady . Pat Nixon did much to add substance to the role of the Vice President 's wife , insisting on visiting schools , orphanages , hospitals , and village markets as she undertook many missions of goodwill across the world . As First Lady , Pat Nixon promoted a number of charitable causes , including volunteerism . She oversaw the collection of more than 600 pieces of historic art and furnishings for the White House , an acquisition larger than that of any other administration . She was the most traveled First Lady in U.S. history , a record unsurpassed until twenty-five years later .",
    "/wiki/Elisabeth_Shue": "Elisabeth Judson Shue ( born October 6 , 1963 ) is an American actress , best known for her starring roles in the films The Karate Kid ( 1984 ) , Adventures in Babysitting ( 1987 ) , Cocktail ( 1988 ) , Back to the Future Part II ( 1989 ) , Back to the Future Part III ( 1990 ) , Soapdish ( 1991 ) , Leaving Las Vegas ( 1995 ) , The Saint ( 1997 ) , Hollow Man ( 2000 ) , and Piranha 3D ( 2010 ) . She has won several acting awards and has been nominated for an Academy Award , a Golden Globe and a BAFTA . She starred as Julie Finlay in the CBS procedural forensics crime drama CSI : Crime Scene Investigation from 2012 to 2015 . More recently she had supporting roles in Battle of the Sexes ( 2017 ) and Death Wish ( 2018 ) . She was also a series regular in the first season of the Amazon series The Boys ( 2019 ) .",
    "/wiki/Leaving_Las_Vegas": "Leaving Las Vegas is a 1995 American romantic drama film written and directed by Mike Figgis , and based on the semi-autobiographical novel of the same name by John O'Brien . Nicolas Cage stars as a suicidal alcoholic in Los Angeles who , divorced and recently fired , has decided to move to Las Vegas and drink himself to death . He loads a supply of liquor and beer into his BMW and gets drunk as he drives from Los Angeles to Nevada . Once there , he develops a romantic relationship with a pretty , but hardened prostitute ( Elisabeth Shue ) . O'Brien died by suicide after signing away the film rights to the novel . Leaving Las Vegas was filmed in super 16mm instead of 35mm film ; while 16 mm is common for art house films , 35 mm is most commonly used for mainstream film . After limited release in the United States on October 27 , 1995 , Leaving Las Vegas was released nationwide on February 9 , 1996 , receiving strong praise from critics and audiences . Cage received the Golden Globe Award for Best Actor - Motion Picture Drama and the Academy Award for Best Actor , while Shue was nominated for the Golden Globe Award for Best Actress - Motion Picture Drama and the Academy Award for Best Actress . The film also received nominations for Best Adapted Screenplay and Best Director .",
    "/wiki/The_Bridges_of_Madison_County_(film)": "The Bridges of Madison County is a 1995 American romantic drama film based on the best-selling novel of the same name by Robert James Waller . It was produced by Amblin Entertainment and Malpaso Productions , and distributed by Warner Bros. Entertainment . The film was produced and directed by Clint Eastwood with Kathleen Kennedy as co-producer and the screenplay was adapted by Richard LaGravenese . The film is about an Italian war bride , Francesca ( Meryl Streep ) , who lives with her husband and two children on a farm in Iowa . In 1965 , she meets a National Geographic photographer named Robert ( Eastwood ) and has a four-day extramarital affair with him that changes both of their lives forever . The film earned $ 182 million worldwide and was well received by critics . Streep received an Academy Award for Best Actress nomination in 1996 for her performance in the film .",
    "/wiki/Emma_Thompson": "Dame Emma Thompson DBE ( born 15 April 1959 ) is a British actress , screenwriter , activist , author , and comedian . One of Britain 's most acclaimed actresses , she often portrays enigmatic and matronly characters with a sense of wit , frequently in period dramas and literary adaptations . She is the recipient of numerous accolades , including two Academy Awards , a Primetime Emmy Award , three BAFTA Awards , and two Golden Globe Awards . Born in London to English actor Eric Thompson and Scottish actress Phyllida Law , Thompson was educated at Newnham College , University of Cambridge , where she became a member of the Footlights troupe . After appearing in several comedy programmes , she came to prominence in 1987 in two BBC TV series , Tutti Frutti and Fortunes of War , winning the BAFTA TV Award for Best Actress for her work in both series . Her first film role was in the 1989 romantic comedy The Tall Guy . In the early 1990s , she often collaborated with her then-husband , actor and director Kenneth Branagh . The pair became popular in the British media and co-starred in several films , including Dead Again ( 1991 ) and Much Ado About Nothing ( 1993 ) . In 1992 , Thompson won an Academy Award and a BAFTA Award for Best Actress for the period drama Howards End . In 1993 , she garnered dual Academy Award nominations for her roles in The Remains of the Day as the housekeeper of a grand household and In the Name of the Father as a lawyer . Thompson scripted and starred in Sense and Sensibility ( 1995 ) , which earned her numerous awards , including an Academy Award for Best Adapted Screenplay , which makes her the only person to receive Academy Awards for both acting and writing , and a BAFTA Award for Best Actress . In 2013 , she received acclaim and several award nominations for her portrayal of author P. L. Travers in Saving Mr. Banks .",
    "/wiki/Sense_and_Sensibility_(film)": "Sense and Sensibility is a 1995 American period drama film directed by Ang Lee and based on Jane Austen 's 1811 novel of the same name . Emma Thompson wrote the screenplay and stars as Elinor Dashwood , while Kate Winslet plays Elinor 's younger sister Marianne . The story follows the Dashwood sisters , members of a wealthy English family of landed gentry , as they must deal with circumstances of sudden destitution . They are forced to seek financial security through marriage . Hugh Grant and Alan Rickman play their respective suitors . The film was released on December 13 , 1995 , in the United States . Producer Lindsay Doran , a longtime admirer of Austen 's novel , hired Thompson to write the screenplay . She spent five years drafting numerous revisions , continually working on the script between other films as well as into production of the film itself . Studios were nervous that Thompson - a first-time screenwriter - was the credited writer , but Columbia Pictures agreed to distribute the film . Though initially intending to have another actress portray Elinor , Thompson was persuaded to take the role . Thompson 's screenplay exaggerated the Dashwood family 's wealth to make their later scenes of poverty more apparent to modern audiences . It also altered the traits of the male leads to make them more appealing to contemporary viewers .",
    "/wiki/3rd_Screen_Actors_Guild_Awards": "The 3rd Screen Actors Guild Awards , honoring the best achievements in film and television performances for the year 1996 , took place on February 22 , 1997 . The ceremony was held at the Shrine Exposition Center in Los Angeles , California , and was televised live by NBC . The nominees were announced on January 23 , 1997 .",
    "/wiki/Frances_McDormand": "Frances Louise McDormand ( born Cynthia Ann Smith , June 23 , 1957 ) is an American actress . She is the recipient of numerous accolades , including two Academy Awards , two Primetime Emmy Awards and a Tony Award , making her one of the few performers to achieve the Triple Crown of Acting . McDormand was educated at Bethany College and Yale University . She has starred in a number of films by the Coen brothers , including Blood Simple ( 1984 ) , Raising Arizona ( 1987 ) , Fargo ( 1996 ) , The Man Who Was n't There ( 2001 ) , Burn After Reading ( 2008 ) and Hail , Caesar ! ( 2016 ) . For playing Marge Gunderson in Fargo , she won the Academy Award for Best Actress . Her other film roles include Mississippi Burning ( 1988 ) , Almost Famous ( 2000 ) , and North Country ( 2005 ) , all earning her nominations for the Academy Award for Best Supporting Actress . In 2017 , she starred as a hardened woman seeking justice for her daughter 's murder in the crime-drama film Three Billboards Outside Ebbing , Missouri , which won her a second Academy Award for Best Actress . McDormand made her Broadway debut in a 1984 revival of the drama Awake and Sing ! , and received a nomination for the Tony Award for Best Actress in a Play for her acclaimed performance as Stella Kowalski in a 1988 revival of A Streetcar Named Desire . She returned to Broadway in 2008 with a revival of The Country Girl , leading to a Drama Desk Award nomination for Outstanding Actress in a Play . In 2011 , she won the Tony Award for Best Actress in a Play for playing a troubled single mother in Good People . On television , McDormand played the titular protagonist in the HBO miniseries Olive Kitteridge ( 2014 ) , which won her the Primetime Emmy Award for Outstanding Lead Actress in a Limited Series or Movie .",
    "/wiki/Fargo_(film)": "Fargo is a 1996 black comedy thriller film written , produced , and directed by Joel and Ethan Coen . Frances McDormand stars as Marge Gunderson , a pregnant Minnesota police chief investigating roadside homicides that ensue after a desperate car salesman ( William H. Macy ) hires two criminals ( Steve Buscemi and Peter Stormare ) to kidnap his wife in order to extort a hefty ransom from his wealthy father-in-law ( Harve Presnell ) . The film was an international co-production between the United States and United Kingdom . Fargo premiered at the 1996 Cannes Film Festival , where Joel Coen won the festival 's Prix de la mise en sc\u00e8ne ( Best Director Award ) and the film was nominated for the Palme d'Or . A critical and commercial success , Fargo received seven Academy Award nominations , including Best Picture . McDormand received the Academy Award for Best Actress and the Coens won the Academy Award for Best Original Screenplay . The film was selected in 2006 for preservation in the National Film Registry of the United States by the Library of Congress as culturally , historically , or aesthetically significant - one of only six films so designated in its first year of eligibility . In 1998 , the American Film Institute named it one of the 100 greatest American films in history . A Coen-produced FX television series of the same name , inspired by Fargo and taking place in the same fictional universe , premiered in 2014 and received critical acclaim .",
    "/wiki/Brenda_Blethyn": "Brenda Blethyn OBE ( n\u00e9e Bottle ; 20 February 1946 ) is an English actress . She is known for her portrayals of working-class women with eccentric qualities . She is the recipient of several accolades , including one Golden Globe , one BAFTA , one Cannes Film Festival Award for Best Actress and two Academy Award nominations . Blethyn pursued an administrative career before enrolling in the Guildford School of Acting in her late 20s . She subsequently joined the Royal National Theatre and gained attention for her performances in Troilus and Cressida ( 1976 ) , Mysteries ( 1979 ) , Steaming ( 1981 ) , and Benefactors ( 1984 ) , receiving an Olivier nomination for the latter . In 1980 , Blethyn made her television debut in Mike Leigh 's Grown-Ups . She later won leading roles on the short-run sitcoms Chance in a Million ( 1984-86 ) and The Labours of Erica ( 1989-90 ) . She made her big-screen debut with a small role in Nicolas Roeg 's 1990 film adaptation of Roald Dahl 's The Witches . She experienced a major career breakthrough with her leading role in Mike Leigh 's 1996 drama Secrets & Lies , for which she received multiple awards , including Best Actress at Cannes , a BAFTA , a Golden Globe , and an Academy Award nomination . She earned her second Academy Award nomination two years later , for her performance in Little Voice ( 1998 ) . Blethyn has since appeared in a range of big-budget and independent features , including Girls ' Night , Music from Another Room , Night Train ( all 1998 ) , Saving Grace ( 2000 ) , Lovely and Amazing ( 2001 ) , Pumpkin , Sonny , Plots with a View ( all 2002 ) , Beyond the Sea , A Way of Life ( both 2004 ) , Pride & Prejudice ( 2005 ) , Clubland , and Atonement ( both 2007 ) . In addition , she has continued to appear frequently on television , in productions such as Anne Frank : The Whole Story ( 2001 ) and War and Peace ( 2007 ) .",
    "/wiki/Secrets_&_Lies_(film)": "Secrets & Lies is a 1996 drama film written and directed by Mike Leigh . Led by an ensemble cast consisting of many Leigh regulars , it stars Marianne Jean-Baptiste as Hortense , a well-educated black middle-class London optometrist , who was adopted as a baby and has chosen to trace her family history - only to discover that her birth mother , Cynthia , played by Brenda Blethyn , is a working-class white woman with a dysfunctional family . Claire Rushbrook co-stars as Cynthia 's other daughter Roxanne , while Timothy Spall and Phyllis Logan portray Cynthia 's brother and sister-in-law , who have secrets of their own affecting their everyday family life . The film was one of the competitors for the Palme d'Or at the 1996 Cannes Film Festival , where it eventually won three awards , including the Best Actress award for Blethyn and the Palme d'Or . Critically acclaimed , the film won numerous other awards , including the Goya Award for Best European Film and the LFCC Award for Film of the Year . At the 50th British Academy Film Awards , the film received seven nominations , winning both Best British Film and Best Original Screenplay . It also received five Academy Award nominations at the 69th ceremony , while Blethyn also won the Golden Globe Award for Best Actress in a Motion Picture - Drama for her portrayal .",
    "/wiki/Diane_Keaton": "Diane Keaton ( n\u00e9e Hall ; born January 5 , 1946 ) is an American actress , director , producer , photographer , real estate developer , author , and singer . One of the most popular actresses of the 1970s and 1980s , she has received various accolades , including an Academy Award , a BAFTA Award , two Golden Globe Awards , and the AFI Life Achievement Award . Keaton began her career on stage and made her screen debut in 1970 . Her first major film role was as Kay Adams-Corleone in The Godfather ( 1972 ) , a role she reprised in The Godfather Part II ( 1974 ) and The Godfather Part III ( 1990 ) . But the films that helped shape her early career were those with director and co-star Woody Allen , beginning with Play It Again , Sam in 1972 . Her next two films with Allen , Sleeper ( 1973 ) and Love and Death ( 1975 ) , established her as a comic actor . Her fourth , the romantic comedy Annie Hall ( 1977 ) , won her the Academy Award for Best Actress . To avoid being typecast as her Annie Hall persona , Keaton became an accomplished dramatic performer , starring in Looking for Mr. Goodbar ( 1977 ) and Interiors ( 1978 ) , and received three more Academy Award nominations for playing feminist activist Louise Bryant in Reds ( 1981 ) , a woman with leukemia in Marvin 's Room ( 1996 ) , and a dramatist in Something 's Got ta Give ( 2003 ) . Keaton 's other popular films include Manhattan ( 1979 ) , Shoot the Moon ( 1982 ) , Mrs. Soffel ( 1984 ) , Baby Boom ( 1987 ) , Father of the Bride ( 1991 ) , Manhattan Murder Mystery ( 1993 ) , Father of the Bride Part II ( 1995 ) , The First Wives Club ( 1996 ) , The Other Sister ( 1999 ) , The Family Stone ( 2005 ) , Morning Glory ( 2010 ) , Finding Dory ( 2016 ) , Book Club ( 2018 ) , and Poms ( 2019 ) .",
    "/wiki/Marvin's_Room_(film)": "Marvin 's Room is a 1996 American drama film directed by Jerry Zaks . The script was written by John Guare and based on the play of the same name by Scott McPherson , who died in 1992 . McPherson had completed a screenplay for a film version before he died ; however Guare was hired to update it when the film eventually started production years later . It stars Meryl Streep , Leonardo DiCaprio , Diane Keaton , Robert De Niro , Hume Cronyn , Gwen Verdon , Hal Scardino and Dan Hedaya . Original music for the film was composed by Rachel Portman . Carly Simon wrote and performed the theme song Two Little Sisters , with Meryl Streep adding background vocals .",
    "/wiki/Gena_Rowlands": "Virginia Cathryn Gena Rowlands ( born June 19 , 1930 ) is an American actress , whose career in film , stage , and television has spanned over six decades . A four-time Emmy and two-time Golden Globe winner , she is known for her collaborations with her late actor-director husband John Cassavetes in ten films , including A Woman Under the Influence ( 1974 ) and Gloria ( 1980 ) , which earned her nominations for the Academy Award for Best Actress . She also won the Silver Bear for Best Actress for Opening Night ( 1977 ) . In November 2015 , Rowlands received an Honorary Academy Award in recognition of her unique screen performances .",
    "/wiki/Unhook_the_Stars": "Unhook the Stars is a 1996 American drama film directed by Nick Cassavetes , and starring his mother Gena Rowlands , Marisa Tomei , and G\u00e9rard Depardieu . Rowlands plays Mildred , a widow who befriends the wayward Monica ( Tomei ) , a single mother from across the street , and eventually finds herself babysitter of Monica 's young son , J.J. ( Lloyd ) Throughout the film , Monica and J.J. inadvertently teach Mildred valuable life lessons about herself and her relationships with others . Rowlands and Tomei both received SAG Award nominations for their performances . The film 's title refers to a song of the same name by Cyndi Lauper , which can be heard over the closing credits .",
    "/wiki/Kristin_Scott_Thomas": "Dame Kristin Ann Scott Thomas DBE ( born 24 May 1960 ) is an English-French actress . Five times a BAFTA Award nominee and five-times Olivier Award nominee , she won the BAFTA Award for Best Actress in a Supporting Role for Four Weddings and a Funeral ( 1994 ) and the Olivier Award for Best Actress in 2008 for the Royal Court revival of The Seagull . She was also nominated for the Academy Award for Best Actress for The English Patient ( 1996 ) . Scott Thomas made her film debut in the Prince-directed Under the Cherry Moon ( 1986 ) , and won the Evening Standard Film Award for Most Promising Newcomer for A Handful of Dust ( 1988 ) . Her work includes Bitter Moon ( 1992 ) , Mission : Impossible ( 1996 ) , The Horse Whisperer ( 1998 ) , Gosford Park ( 2001 ) , The Valet ( 2006 ) , and Tell No One ( 2007 ) . She won the European Film Award for Best Actress for Philippe Claudel 's I 've Loved You So Long ( 2008 ) . Her other films include , Leaving ( 2009 ) , Love Crime ( 2010 ) , Sarah 's Key ( 2010 ) Nowhere Boy ( 2010 ) , Only God Forgives ( 2013 ) , Darkest Hour ( 2017 ) , and Tomb Raider ( 2018 ) .",
    "/wiki/The_English_Patient_(film)": "The English Patient is a 1996 American epic romantic war drama film directed by Anthony Minghella from his own script based on the novel of the same name by Michael Ondaatje and produced by Saul Zaentz . The film tells the story of four people who find themselves in an abandoned villa in northern Italy in the last months of World War II . The eponymous protagonist , a man burned beyond recognition who speaks with an English accent , tells his story to the young nurse caring for him in a series of flashbacks , revealing his true identity and the love affair he was involved in before the war . The film was released to critical acclaim , and received 12 nominations at the 69th Academy Awards , winning nine , including Best Picture , Best Director for Minghella , and Best Supporting Actress for Juliette Binoche . It was also the first to receive a Best Editing Oscar for a digitally edited film . Ralph Fiennes , playing the titular character , and Kristin Scott Thomas were Oscar-nominated for their performances . The film also won five BAFTA Awards and two Golden Globes . The British Film Institute ranked The English Patient the 55th greatest British film of the 20th century .",
    "/wiki/4th_Screen_Actors_Guild_Awards": "The 4th Screen Actors Guild Awards , honoring the best achievements in film and television performances for the year 1997 , took place on March 8 , 1998 . The ceremony was held at the Shrine Exposition Center in Los Angeles , California , and was televised live by TNT . The nominees were announced on January 27 , 1998 by Melissa Joan Hart and David Paymer .",
    "/wiki/Helen_Hunt": "Helen Elizabeth Hunt ( born June 15 , 1963 ) is an American actress , director , and screenwriter . She rose to fame portraying Jamie Buchman in the sitcom Mad About You ( 1992-1999 , 2019-present ) , for which she won three Golden Globe Awards for Best Actress in a Television Series - Musical or Comedy and four Emmy Awards ( Primetime ) for Outstanding Lead Actress in a Comedy Series . Hunt won the Academy Award for Best Actress for starring as Carol Connelly in the romantic comedy As Good as It Gets ( 1997 ) , while her portrayal of Cheryl Cohen-Greene in The Sessions ( 2012 ) , gained her an additional Oscar nomination for Best Supporting Actress . Her other notable films include Twister ( 1996 ) , Cast Away ( 2000 ) , What Women Want ( 2000 ) , Pay It Forward ( 2000 ) , Bobby ( 2006 ) , Soul Surfer ( 2011 ) and The Miracle Season ( 2018 ) . Hunt made her directorial film debut with Then She Found Me ( 2007 ) , and has directed the film Ride ( 2014 ) and episodes of television series including House of Lies , This Is Us , Feud : Bette and Joan , American Housewife , and the premiere episode of the Mad About You revival .",
    "/wiki/As_Good_as_It_Gets": "As Good As It Gets is a 1997 American romantic comedy film directed by James L. Brooks , who co-wrote it with Mark Andrus . The film stars Jack Nicholson as a misanthropic and obsessive-compulsive novelist , Helen Hunt as a single mother with a chronically ill son , and Greg Kinnear as a gay artist . The paintings were created for the film by New York artist Billy Sullivan . Nicholson and Hunt won the Academy Award for Best Actor and Best Actress , respectively , making As Good As It Gets the most recent film to win both of the lead acting awards , and the first since 1991 's The Silence of the Lambs . It is ranked 140th on Empire magazine 's The 500 Greatest Movies of All Time list .",
    "/wiki/Helena_Bonham_Carter": "Helena Bonham Carter CBE ( born 26 May 1966 ) is an English actress . She is known for her roles in both low-budget independent art films and large-scale blockbusters . She was nominated for the Academy Award for Best Actress for her role as Kate Croy in The Wings of the Dove ( 1997 ) and for Best Supporting Actress for her role as Queen Elizabeth in The King 's Speech ( 2010 ) ; she won the BAFTA Award for Best Actress in a Supporting Role . She also won the 2010 International Emmy Award for Best Actress for her role as author Enid Blyton in the television film Enid ( 2009 ) . Bonham Carter began her film career playing Lucy Honeychurch in A Room with a View ( 1985 ) and the title character in Lady Jane ( 1986 ) . Her other films include Hamlet ( 1990 ) , Howards End ( 1992 ) , Mary Shelley 's Frankenstein ( 1994 ) , Woody Allen 's Mighty Aphrodite ( 1995 ) , Fight Club ( 1999 ) , Bellatrix Lestrange in the Harry Potter series ( 2007-11 ) , Miss Havisham in Great Expectations ( 2012 ) , Madame Th\u00e9nardier in Les Mis\u00e9rables ( 2012 ) , the Fairy Godmother in Cinderella ( 2015 ) , and Rose Weil in Ocean 's 8 ( 2018 ) . She has frequently collaborated with director Tim Burton in Planet of the Apes ( 2001 ) , Big Fish ( 2003 ) , Corpse Bride ( 2005 ) , Charlie and the Chocolate Factory ( 2005 ) , Sweeney Todd : The Demon Barber of Fleet Street ( 2007 ) , Dark Shadows ( 2012 ) , Alice in Wonderland ( 2010 ) , and Alice Through the Looking Glass ( 2016 ) . Her television films include A Pattern of Roses ( 1983 ) , Fatal Deception : Mrs. Lee Harvey Oswald ( 1993 ) , Live from Baghdad ( 2002 ) , Toast ( 2010 ) , and Burton & Taylor ( 2013 ) . In 2018 , she was confirmed to play Princess Margaret on seasons three and four of The Crown . Bonham Carter was made a Commander of the Order of the British Empire ( CBE ) in the 2012 New Year Honours list for services to drama , and Prime Minister David Cameron announced that she had been appointed to Britain 's new national Holocaust Commission in January 2014 .",
    "/wiki/The_Wings_of_the_Dove_(1997_film)": "The Wings of the Dove is a 1997 British-American romantic drama film directed by Iain Softley and starring Helena Bonham Carter , Linus Roache , and Alison Elliott . The screenplay by Hossein Amini is based on the 1902 novel of the same name by Henry James . The film was nominated for four Academy Awards and five BAFTAs , recognizing Bonham Carter 's performance , the screenplay , costume design and the cinematography .",
    "/wiki/Judi_Dench": "Dench was born in Heworth , York . Her mother , Eleanora Olive ( n\u00e9e Jones ) , was born in Dublin , Ireland . Her father , Reginald Arthur Dench ( 1897-1964 ) , a doctor , was born in Dorset , England , and later moved to Dublin , where he was brought up . He met Dench 's mother while he was studying medicine at Trinity College , Dublin . Dench attended the Mount School , a Quaker independent secondary school in York , and became a Quaker . Her brothers , one of whom was actor Jeffery Dench , were born in Tyldesley , Lancashire . Her niece , Emma Dench , is a historian of ancient Rome .",
    "/wiki/Mrs_Brown": "Mrs Brown ( also theatrically released as Her Majesty , Mrs Brown ) is a 1997 British drama film starring Judi Dench , Billy Connolly , Geoffrey Palmer , Antony Sher , and Gerard Butler in his film debut . It was written by Jeremy Brock and directed by John Madden . The film was produced by the BBC and Ecosse Films with the intention of being shown on BBC One and on WGBH 's Masterpiece Theatre . However , it was acquired by Miramax and released to unexpected success , going on to earn $ 9 million worldwide . The film was screened in the Un Certain Regard section at the 1997 Cannes Film Festival and released in the United Kingdom on 5 September 1997 . Dench won the Golden Globe Award for Best Actress in a Motion Picture - Drama and the BAFTA Award for Best Actress in a Leading Role ; additionally , she was nominated for many other awards for her performance , including the Academy Award for Best Actress and the Screen Actors Guild Award for Outstanding Performance by a Female Actor in a Leading Role , but lost both awards to Helen Hunt for her role in As Good as It Gets .",
    "/wiki/Queen_Victoria": "Victoria ( Alexandrina Victoria ; 24 May 1819 - 22 January 1901 ) was Queen of the United Kingdom of Great Britain and Ireland from 20 June 1837 until her death . On 1 May 1876 , she adopted the additional title of Empress of India . Known as the Victorian era , her reign of 63 years and seven months was longer than that of any of her predecessors . It was a period of industrial , cultural , political , scientific , and military change within the United Kingdom , and was marked by a great expansion of the British Empire . Victoria was the daughter of Prince Edward , Duke of Kent and Strathearn ( the fourth son of King George III ) , and Princess Victoria of Saxe-Coburg-Saalfeld . After both the Duke and his father died in 1820 , she was raised under close supervision by her mother and her comptroller , John Conroy . She inherited the throne aged 18 after her father 's three elder brothers died without surviving legitimate issue . The United Kingdom was an established constitutional monarchy in which the sovereign held relatively little direct political power . Privately , she attempted to influence government policy and ministerial appointments ; publicly , she became a national icon who was identified with strict standards of personal morality . Victoria married her cousin Prince Albert of Saxe-Coburg and Gotha in 1840 . Their children married into royal and noble families across the continent , earning Victoria the sobriquet the grandmother of Europe and spreading haemophilia in European royalty . After Albert 's death in 1861 , Victoria plunged into deep mourning and avoided public appearances .",
    "/wiki/Pam_Grier": "Pamela Suzette Grier ( born May 26 , 1949 ) is an American actress . She achieved fame for her starring roles in a string of 1970s women in prison and blaxploitation films for American International Pictures and New World Pictures , most notably Coffy ( 1973 ) and Foxy Brown ( 1974 ) . Her other films during this period include The Big Doll House ( 1971 ) , The Big Bird Cage ( 1972 ) , Black Mama , White Mama ( 1973 ) , Scream Blacula Scream ( 1973 ) , The Arena ( 1974 ) , Sheba , Baby ( 1975 ) , Bucktown ( 1975 ) and Friday Foster ( 1975 ) . Described by Quentin Tarantino as cinema 's first female action star , she starred as the titular character in Tarantino 's 1997 crime film Jackie Brown , for which she received a Satellite Award and a Golden Globe nomination for Best Actress . She has also been nominated for a SAG Award . For six seasons , Grier portrayed Kate Kit Porter on the Showtime television series The L Word , which ran from 2004 until 2009 . She received an Emmy nomination for her work in the animated program .",
    "/wiki/Jackie_Brown": "Jackie Brown is a 1997 American crime film written and directed by Quentin Tarantino and starring Pam Grier in the title role . The film is an adaptation of Elmore Leonard 's 1992 novel Rum Punch . It is the only film that Tarantino has adapted from a previous work . The film pays homage to 1970s blaxploitation films , particularly the films Coffy ( 1973 ) and Foxy Brown ( 1974 ) , both of which also starred Grier in the title roles . The film 's supporting cast includes Samuel L. Jackson , Robert Forster , Bridget Fonda , Michael Keaton , and Robert De Niro . It was Tarantino 's third film following Reservoir Dogs ( 1992 ) and Pulp Fiction ( 1994 ) . Grier and Forster were both veteran actors but neither had performed a leading role in many years ; this film revitalized their careers . The film garnered Forster a nomination for the Academy Award for Best Supporting Actor and Golden Globe Award nominations for Jackson and Grier .",
    "/wiki/Kate_Winslet": "Kate Elizabeth Winslet CBE ( born 5 October 1975 ) is an English actress . She is particularly known for her work in period dramas , and is often drawn to portraying angst-ridden women . Winslet is the recipient of various accolades , including three British Academy Film Awards , and is among the few performers to have won Academy , Emmy , and Grammy Awards . Born in Reading , Berkshire , Winslet studied drama at the Redroofs Theatre School . Her first screen appearance , at the age of 15 , was in the British television series Dark Season ( 1991 ) . She made her film debut playing a teenage murderess in Heavenly Creatures ( 1994 ) , and received her first BAFTA Award for playing Marianne Dashwood in Sense and Sensibility ( 1995 ) . Global stardom followed soon after with her leading role in the epic romance Titanic ( 1997 ) . It was the highest-grossing film of all time to that point , after which she eschewed parts in blockbusters in favour of critically acclaimed period pieces , including Quills ( 2000 ) and Iris ( 2001 ) , which were not widely seen . The science fiction romance Eternal Sunshine of the Spotless Mind ( 2004 ) , in which Winslet was cast against type in a contemporary setting , proved to be a turning point in her career , and she gained further recognition for her performances in Finding Neverland ( 2004 ) , Little Children ( 2006 ) , Revolutionary Road ( 2008 ) , and The Reader ( 2008 ) . For playing a former Nazi camp guard in the last of these , she won the BAFTA Award and Academy Award for Best Actress . In the 2010s , Winslet played a single mother in 1930s America in the miniseries Mildred Pierce ( 2011 ) , joined the Divergent film series , and portrayed Joanna Hoffman in Steve Jobs ( 2015 ) . She won a Primetime Emmy Award for the first of these and a third BAFTA Award for the lattermost .",
    "/wiki/Titanic_(1997_film)": "Titanic is a 1997 American epic romance and disaster film directed , written , co-produced , and co-edited by James Cameron . Incorporating both historical and fictionalized aspects , the film is based on accounts of the sinking of the RMS Titanic , and stars Leonardo DiCaprio and Kate Winslet as members of different social classes who fall in love aboard the ship during its ill-fated maiden voyage . Cameron 's inspiration for the film came from his fascination with shipwrecks ; he felt a love story interspersed with the human loss would be essential to convey the emotional impact of the disaster . Production began in 1995 , when Cameron shot footage of the actual Titanic wreck . The modern scenes on the research vessel were shot on board the Akademik Mstislav Keldysh , which Cameron had used as a base when filming the wreck . Scale models , computer-generated imagery , and a reconstruction of the Titanic built at Baja Studios were used to re-create the sinking . The film was co-financed by Paramount Pictures and 20th Century Fox ; the former handled distribution in North America while the latter released the film internationally . It was the most expensive film ever made at the time , with a production budget of $ 200 million . Upon its release on December 19 , 1997 , Titanic achieved significant critical and commercial success . Nominated for 14 Academy Awards , it tied All About Eve ( 1950 ) for the most Oscar nominations , and won 11 , including the awards for Best Picture and Best Director , tying Ben-Hur ( 1959 ) for the most Oscars won by a single film . With an initial worldwide gross of over $ 1.84 billion , Titanic was the first film to reach the billion-dollar mark , and became the highest-grossing film ever at the time , until Cameron 's Avatar surpassed it in 2010 . A 3D version of Titanic , released on April 4 , 2012 , to commemorate the centennial of the sinking , earned it an additional $ 343.6 million worldwide , pushing the film 's worldwide total to $ 2.18 billion and making it the second film to gross more than $ 2 billion worldwide ( after Avatar ) ."
  }
}