{
  "Screen_Actors_Guild_Award_for_Outstanding_Performance_by_a_Female_Actor_in_a_Leading_Role_1": {
    "/wiki/7th_Screen_Actors_Guild_Awards": "The 7th Screen Actors Guild Awards , honoring the best achievements in film and television performances for the year 2000 , took place on March 11 , 2001 . The ceremony was held at the Shrine Exposition Center in Los Angeles , California , and was televised live by TNT . The nominees were announced on January 30 , 2001 by Lucy Liu and Cary Elwes at Los Angeles ' Pacific Design Center .",
    "/wiki/Julia_Roberts": "Julia Fiona Roberts ( born October 28 , 1967 ) is an American actress and producer . She established herself as a leading lady in Hollywood after headlining the romantic comedy film Pretty Woman ( 1990 ) , which grossed $ 464 million worldwide . She has won three Golden Globe Awards , from eight nominations , and has been nominated for four Academy Awards for her film acting , winning the Academy Award for Best Actress for her performance in Erin Brockovich ( 2000 ) . Her films have collectively brought box office receipts of over US $ 2.8 billion , making her one of the most bankable actresses in Hollywood . Her most successful films include Mystic Pizza ( 1988 ) , Steel Magnolias ( 1989 ) , Pretty Woman ( 1990 ) , Sleeping with the Enemy ( 1991 ) , The Pelican Brief ( 1993 ) , My Best Friend 's Wedding ( 1997 ) , Notting Hill ( 1999 ) , Runaway Bride ( 1999 ) , Erin Brockovich ( 2000 ) , Ocean 's Eleven ( 2001 ) , Ocean 's Twelve ( 2004 ) , Charlie Wilson 's War ( 2007 ) , Valentine 's Day ( 2010 ) , Eat Pray Love ( 2010 ) , Money Monster ( 2016 ) , and Wonder ( 2017 ) . Roberts was nominated for the Primetime Emmy Award for Outstanding Supporting Actress in a Limited Series or Movie for her performance in the HBO television film The Normal Heart ( 2014 ) . In 2018 , she starred in the Prime Video psychological thriller series Homecoming . Roberts was the highest-paid actress in the world throughout most of the 1990s and in the first half of the 2000s . Her fee for 1990 's Pretty Woman was US $ 300,000 ; in 2003 , she was paid an unprecedented $ 25 million for her role in Mona Lisa Smile ( 2003 ) . As of 2017 [ update ] , Roberts 's net worth was estimated to be $ 170 million . People magazine has named her the most beautiful woman in the world a record five times .",
    "/wiki/Erin_Brockovich_(film)": "Erin Brockovich is a 2000 American biographical film directed by Steven Soderbergh and written by Susannah Grant . The film is a dramatization of the true story of Erin Brockovich , portrayed by Julia Roberts , who fought against the energy corporation Pacific Gas and Electric Company ( PG & E ) . The film was a box office success , and critical reaction was positive . Roberts won the Academy Award , BAFTA , Golden Globe Award , Screen Actors Guild Award , and various critics awards for Best Actress . The film itself was also nominated for the Best Picture . Steven Soderbergh , the film 's director , was nominated for the Best Director for both this film and Traffic , but he won the award for Traffic . Early in the film , the real Erin Brockovich has a cameo appearance as a waitress named Julia .",
    "/wiki/Erin_Brockovich": "Erin Brockovich ( born Pattee ; June 22 , 1960 ) is an American legal clerk , consumer advocate , and environmental activist , who , despite her lack of formal education in the law , was instrumental in building a case against the Pacific Gas and Electric Company ( PG & E ) of California in 1993 . Her successful lawsuit was the subject of a 2000 film , Erin Brockovich , which starred Julia Roberts . Since then , Brockovich has become a media personality as well , hosting the TV series Challenge America with Erin Brockovich on ABC and Final Justice on Zone Reality . She is the president of Brockovich Research & Consulting . She also works as a consultant for Girardi & Keese , the New York law firm of Weitz & Luxenberg , which has a focus on personal injury claims for asbestos exposure , and Shine Lawyers in Australia .",
    "/wiki/Joan_Allen": "Joan Allen ( born August 20 , 1956 ) is an American actress . She began her career with the Steppenwolf Theatre Company in 1977 , won the 1984 Drama Desk Award for Outstanding Actress in a Play for And a Nightingale Sang , and won the 1988 Tony Award for Best Actress in a Play for her Broadway debut in Burn This . She is also a three-time Academy Award nominee ; receiving Best Supporting Actress nominations for Nixon ( 1995 ) and The Crucible ( 1996 ) , and a Best Actress nomination for The Contender ( 2000 ) . Allen 's other film roles include Manhunter ( 1986 ) , Peggy Sue Got Married ( 1986 ) , Tucker : The Man and His Dream ( 1988 ) , The Ice Storm ( 1997 ) , Face/Off ( 1997 ) , Pleasantville ( 1998 ) , The Bourne Supremacy ( 2004 ) , The Upside of Anger ( 2005 ) , The Bourne Ultimatum ( 2007 ) , Death Race ( 2008 ) , and The Bourne Legacy ( 2012 ) . She won the Canadian Screen Award for Best Supporting Actress for the 2015 film Room . She has also starred in the Broadway plays The Heidi Chronicles ( 1988 ) , Impressionism ( 2009 ) , and The Waverly Gallery ( 2018 ) .",
    "/wiki/The_Contender_(2000_film)": "The Contender is a 2000 American political drama film written and directed by Rod Lurie . It stars Gary Oldman , Joan Allen , Jeff Bridges and Christian Slater . The film focuses on a fictional United States President ( played by Bridges ) and the events surrounding his appointment of a new Vice President ( Allen ) . The film serves as a response to the Lewinsky scandal involving President Bill Clinton . It became the subject of controversy regarding alterations that displeased Oldman , who co-produced . Joan Allen was nominated for Best Actress and Jeff Bridges for Best Supporting Actor at the Academy Awards .",
    "/wiki/Juliette_Binoche": "Juliette Binoche ( French pronunciation : \u200b [ \u0292ylj\u025bt bin\u0254\u0283 ] ; born 9 March 1964 ) is a French actress , artist , and dancer . She has appeared in more than 60 feature films , been the recipient of numerous international awards , and performed frequently on stage - both as an actress and dancer - internationally . She began taking acting lessons during adolescence and , after performing in several stage productions , was cast in the films of such notable auteur directors as Jean-Luc Godard ( Hail Mary , 1985 ) , Jacques Doillon ( Family Life , 1985 ) , and Andr\u00e9 T\u00e9chin\u00e9 ; the latter would make her a star in France with the leading role in his 1985 drama Rendez-vous . Her sensual performance in her English-language debut The Unbearable Lightness of Being ( 1988 ) , directed by Philip Kaufman , launched her international career . She sparked the interest of Steven Spielberg , who offered her several parts , including a role in Jurassic Park which she declined , choosing instead to join Krzysztof Kie\u015blowski in Three Colors : Blue ( 1993 ) , a performance for which she won the Venice Film Festival Award for Best Actress and a C\u00e9sar . Three years later , Binoche gained further acclaim in Anthony Minghella 's The English Patient ( 1996 ) , for which she was awarded an Academy Award and a BAFTA for Best Supporting Actress , in addition to the Best Actress Award at the 1997 Berlin International Film Festival . For her performance in Lasse Hallstr\u00f6m 's romantic comedy Chocolat ( 2000 ) , Binoche was nominated for the Academy Award for Best Actress in 2001 . During the 2000s she maintained a successful career , alternating between French and English language roles in both mainstream and art-house productions . In 2010 , she won the Best Actress Award at the Cannes Film Festival for her role in Abbas Kiarostami 's Certified Copy making her the first actress to win the European Best Actress Triple Crown ( for winning best actress awards at the Berlin , Cannes and Venice film festivals ) . Throughout her career Binoche has intermittently appeared on stage , most notably in a 1998 London production of Luigi Pirandello 's Naked and in a 2000 production of Harold Pinter 's Betrayal on Broadway for which she was nominated for a Tony Award . In 2008 she began a world tour with a modern dance production in-i devised in collaboration with Akram Khan . Often referred to as La Binoche by the press , her other notable performances include : Mauvais Sang ( 1986 ) , Les Amants du Pont-Neuf ( 1991 ) , Damage ( 1992 ) , The Horseman on the Roof ( 1995 ) , Code Unknown ( 2000 ) , Cach\u00e9 ( 2005 ) , Breaking and Entering ( 2006 ) , Flight of the Red Balloon ( 2007 ) , Camille Claudel 1915 ( 2013 ) , and Clouds of Sils Maria ( 2014 ) .",
    "/wiki/Chocolat_(2000_film)": "Chocolat ( ) is a 2000 British-American romantic comedy-drama film . It is based on the novel Chocolat by Joanne Harris , and was directed by Lasse Hallstr\u00f6m . Adapted by screenwriter Robert Nelson Jacobs , Chocolat tells the story of a young mother , played by Juliette Binoche and her six-year-old daughter . They arrive at the fictional , repressed French village , Lansquenet-sous-Tannes , where she opens a small chocolaterie . She and her chocolate quickly begin to influence the lives of the townspeople in very different and interesting ways . Filming took place between May and August 2000 . The film was shot in the village of Flavigny-sur-Ozerain in Burgundy , France , and on the Rue De L'ancienne Poste in Beynac-et-Cazenac on the Dordogne River in Dordogne , France . The river scenes were filmed at Fonthill Lake at Fonthill Bishop in Wiltshire , England and interior scenes at Shepperton Studios , Surrey , England . The film was nominated for five Academy Awards , including Best Picture . It was also nominated for eight BAFTAs , and four Golden Globes . Judi Dench won a Screen Actors Guild Award for her performance in the film .",
    "/wiki/Ellen_Burstyn": "Ellen Burstyn ( born Edna Rae Gillooly ; December 7 , 1932 ) is an American actress best known for her roles in films such as The Last Picture Show , The Exorcist , Alice Does n't Live Here Anymore , for which she won an Academy Award , and Requiem For a Dream . Her career began in theatre during the late 1950s , and over the next decade included several films and television series . Burstyn is one of the few performers to have won the Triple Crown of Acting . In 2013 , she was inducted into the American Theatre Hall of Fame . Her performance in the acclaimed 1971 ensemble drama The Last Picture Show brought her first Academy Award for Best Supporting Actress nomination , after which she moved from supporting to leading film and stage roles . Burstyn received a second Academy Award nomination for her lead performance in William Friedkin 's classic horror film The Exorcist ( 1973 ) , and won the Academy Award for Best Actress the following year for her role as a widowed drifter in Martin Scorsese 's Alice Does n't Live Here Anymore . In 1975 , she won the Tony Award for her lead performance in the Broadway production of Same Time , Next Year , and received a Golden Globe Award and a fourth Academy Award nomination for her performance in the 1978 film version of the play . Burstyn has worked consistently in film , television , and theatre since then , receiving multiple awards and nominations along the way , including seven additional Golden Globe Award nominations , five Emmy Award nominations ( two wins ) , and two more Academy Award nominations for her performances in the films Resurrection ( 1980 ) and Requiem for a Dream ( 2000 ) .",
    "/wiki/Requiem_for_a_Dream": "Requiem for a Dream is a 2000 American psychological drama film directed by Darren Aronofsky and starring Ellen Burstyn , Jared Leto , Jennifer Connelly , and Marlon Wayans . The film is based on the novel of the same name by Hubert Selby Jr. , with whom Aronofsky wrote the screenplay . The film depicts four characters affected by drug addiction . Their addictions cause them to become imprisoned in a world of delusion and reckless desperation . Once that delusional state is overtaken by reality , by the end of the film , they are left as hollow shells of their former selves . The film depicts how drug abuse can alter a person 's physical and psychological state and mindset . Requiem for a Dream was screened out of competition at the 2000 Cannes Film Festival and received positive reviews from critics upon its U.S. release . Burstyn was nominated for the Academy Award for Best Actress for her performance . The music for the movie was written by composer Clint Mansell .",
    "/wiki/Laura_Linney": "Laura Leggett Linney ( born February 5 , 1964 ) is an American actress and singer . She is the recipient of several awards , including two Golden Globe Awards and four Primetime Emmy Awards , and has been nominated for three Academy Awards and four Tony Awards . Linney made her Broadway debut in 1990 before going on to receive Tony Award nominations for the 2002 revival of The Crucible , the original Broadway productions of Sight Unseen ( 2004 ) and Time Stands Still ( 2010 ) , and the 2017 revival of The Little Foxes . On television , she won her first Emmy Award for the television film Wild Iris ( 2001 ) , and had subsequent wins for the sitcom Frasier ( 2003-04 ) and the miniseries John Adams ( 2008 ) . From 2010 to 2013 , she starred in the Showtime series The Big C , which won her a fourth Emmy in 2013 , and in 2017 she began starring in the Netflix crime series Ozark . Linney is also an established film actress . She made her film debut with a minor role in Lorenzo 's Oil ( 1992 ) and went on to receive Academy Award nominations for the dramas You Can Count On Me ( 2000 ) , Kinsey ( 2004 ) , and The Savages ( 2007 ) . Her other films include Primal Fear ( 1996 ) , The Truman Show ( 1998 ) , Mystic River and Love Actually ( both 2003 ) , The Squid and the Whale ( 2005 ) , The Nanny Diaries ( 2007 ) , Hyde Park on Hudson ( 2012 ) , Mr. Holmes ( 2015 ) , Sully and Nocturnal Animals ( both 2016 ) .",
    "/wiki/You_Can_Count_On_Me": "You Can Count On Me is a 2000 American drama film written and directed by Kenneth Lonergan and starring Laura Linney , Mark Ruffalo , Rory Culkin , and Matthew Broderick . It tells the story of Sammy , a single mother living in a small Catskill Mountains town , and her complicated relationships with family and friends . The film and its performances received highly positive reviews among critics , and dozens of award nominations and awards at film festivals , and during awards season , including two Oscar nominations .",
    "/wiki/8th_Screen_Actors_Guild_Awards": "The 8th Screen Actors Guild Awards , honoring the best achievements in film and television performances for the year 2001 , took place on March 10 , 2002 . The ceremony was held at the Shrine Exposition Center in Los Angeles , California and was televised live by TNT . The nominees were announced on January 29 , 2002 by Marisa Tomei and Ted Danson at Los Angeles ' Pacific Design Centers SilverScreen Theatre .",
    "/wiki/Halle_Berry": "Halle Maria Berry ( born Maria Halle Berry ; August 14 , 1966 ) is an American actress . Berry won the Academy Award for Best Actress for her performance in the romantic drama film Monster 's Ball ( 2001 ) , becoming the only woman of African American descent to have won the award . Before becoming an actress , Berry was a model and entered several beauty contests , finishing as the first runner-up in the Miss USA pageant and coming in sixth in the Miss World 1986 . Her breakthrough film role was in the romantic comedy Boomerang ( 1992 ) , alongside Eddie Murphy , which led to roles in films , such as the family comedy The Flintstones ( 1994 ) , the political comedy-drama Bulworth ( 1998 ) and the television film Introducing Dorothy Dandridge ( 1999 ) , for which she won a Primetime Emmy Award and a Golden Globe Award . In addition to her Academy Award , Berry garnered high-profile roles in the 2000s , such as Storm in X-Men ( 2000 ) , the thrillers Swordfish ( 2001 ) and Gothika ( 2003 ) , and the spy film Die Another Day ( 2002 ) , where she played Bond girl Jinx . She then appeared in the X-Men sequels , X2 ( 2003 ) and X-Men : The Last Stand ( 2006 ) . In the 2010s , she has featured in the science-fiction film Cloud Atlas ( 2012 ) , the crime thriller The Call ( 2013 ) and the action films X-Men : Days of Future Past ( 2014 ) , Kingsman : The Golden Circle ( 2017 ) and John Wick : Chapter 3 - Parabellum ( 2019 ) . Berry was one of the highest-paid actresses in Hollywood during the 2000s , and has been involved in the production of several of the films in which she performed . Berry is also a Revlon spokesmodel . She was formerly married to baseball player David Justice , singer-songwriter Eric Ben\u00e9t , and actor Olivier Martinez . She has a child each with Martinez and model Gabriel Aubry .",
    "/wiki/Monster's_Ball": "Monster 's Ball is a 2001 American romantic drama film directed by Marc Forster and written by Milo Addica and Will Rokos , who also appear in the film . It stars Billy Bob Thornton , Heath Ledger , Halle Berry , and Peter Boyle , with Sean Combs , Mos Def , and Coronji Calhoun in supporting roles . Thornton portrays a widowed corrections officer who begins a relationship with a woman ( Berry ) , unaware that she is the widow of a man ( Combs ) he executed . Berry received overwhelming acclaim for her performance and won the Academy Award for Best Actress , becoming the first and , as of 2020 , only African-American woman to win the award .",
    "/wiki/Jennifer_Connelly": "Jennifer Lynn Connelly ( born December 12 , 1970 ) is an American actress who began her career as a child model . She appeared in magazine , newspaper and television advertising , before she made her film acting debut in the crime film Once Upon a Time in America ( 1984 ) . Connelly continued modeling and acting , starring in a number of films , including the horror film Phenomena ( 1985 ) , the musical fantasy film Labyrinth ( 1986 ) , the romantic comedy Career Opportunities ( 1991 ) , and the period superhero film The Rocketeer ( 1991 ) . She gained critical acclaim for her work in the science fiction film Dark City ( 1998 ) and for playing a drug addict in Darren Aronofsky 's drama Requiem for a Dream ( 2000 ) . In 2002 , Connelly won the Academy Award for Best Supporting Actress for portraying Alicia Nash in Ron Howard 's biopic A Beautiful Mind ( 2001 ) . Her subsequent credits include the Marvel superhero film Hulk ( 2003 ) , in which she played Bruce Banner 's love interest Betty Ross , the horror film Dark Water ( 2005 ) , the drama Blood Diamond ( 2006 ) , the science fiction film The Day the Earth Stood Still ( 2008 ) , the romantic comedy He 's Just Not That Into You ( 2009 ) , and the biopic Creation ( 2009 ) . In the 2010s , she took on supporting roles in Aronofsky 's epic film Noah ( 2014 ) and in the action film Alita : Battle Angel ( 2019 ) . Connelly was named Amnesty International Ambassador for Human Rights Education in 2005 . She has been the face of Balenciaga fashion advertisements , as well as for Revlon cosmetics . In 2012 , she was named the first global face of the Shiseido Company . Magazines , including Time , Vanity Fair and Esquire , as well as the Los Angeles Times newspaper , have included her on their lists of the world 's most beautiful women .",
    "/wiki/A_Beautiful_Mind_(film)": "A Beautiful Mind is a 2001 American biographical drama film based on the life of the American mathematician John Nash , a Nobel Laureate in Economics and Abel Prize winner . The film was directed by Ron Howard , from a screenplay written by Akiva Goldsman . It was inspired by a bestselling , Pulitzer Prize-nominated 1998 book of the same name by Sylvia Nasar . The film stars Russell Crowe , along with Ed Harris , Jennifer Connelly , Paul Bettany , Adam Goldberg , Judd Hirsch , Josh Lucas , Anthony Rapp , and Christopher Plummer in supporting roles . The story begins in Nash 's days as a graduate student at Princeton University . Early in the film , Nash begins to develop paranoid schizophrenia and endures delusional episodes while watching the burden his condition brings on wife Alicia and friends . The film opened in the United States cinemas on December 21 , 2001 . It went on to gross over $ 313 million worldwide and won four Academy Awards , for Best Picture , Best Director , Best Adapted Screenplay and Best Supporting Actress . It was also nominated for Best Actor , Best Film Editing , Best Makeup and Best Original Score . It was well received by critics , but has been criticized for its inaccurate portrayal of some aspects of Nash 's life , especially his other family and a son born out of wedlock . However , the filmmakers have stated that the film was not meant to be a literal representation of Nash 's life .",
    "/wiki/Alicia_Nash": "Alicia Esther Nash ( n\u00e9e Lard\u00e9 Lopez-Harrison ; January 1 , 1933 - May 23 , 2015 ) was a Salvadoran-American physicist . The wife of mathematician John Forbes Nash , Jr. , she was a mental-health care advocate , who gave up her professional aspirations to support her husband and son who were both diagnosed with schizophrenia . Her life with Nash was chronicled in the 1998 book , A Beautiful Mind by Sylvia Nasar , as well as in the 2001 film of the same title , in which she was portrayed by Jennifer Connelly .",
    "/wiki/Judi_Dench": "Dench was born in Heworth , York . Her mother , Eleanora Olive ( n\u00e9e Jones ) , was born in Dublin , Ireland . Her father , Reginald Arthur Dench ( 1897-1964 ) , a doctor , was born in Dorset , England , and later moved to Dublin , where he was brought up . He met Dench 's mother while he was studying medicine at Trinity College , Dublin . Dench attended the Mount School , a Quaker independent secondary school in York , and became a Quaker . Her brothers , one of whom was actor Jeffery Dench , were born in Tyldesley , Lancashire . Her niece , Emma Dench , is a historian of ancient Rome .",
    "/wiki/Iris_(2001_film)": "Iris is a 2001 British-American biographical drama film that tells the story of Irish-born British novelist Dame Iris Murdoch and her relationship with John Bayley . The film contrasts the start of their relationship , when Murdoch ( Kate Winslet ) was an outgoing , dominant individual as compared to her timid and scholarly partner Bayley ( Hugh Bonneville ) , and their later life , when Murdoch ( Judi Dench ) was suffering from Alzheimer 's disease and tended to by a frustrated Bayley ( Jim Broadbent ) in their North Oxford home in Charlbury Road . The film , directed by Richard Eyre , is based on Bayley 's memoir Elegy for Iris . The beach scenes were filmed at Southwold in Suffolk , one of Murdoch 's favourite haunts . Broadbent received the Academy Award for Best Supporting Actor for his role . Dench and Winslet were both nominated , for Best Actress and Best Supporting Actress respectively .",
    "/wiki/Iris_Murdoch": "Dame Jean Iris Murdoch ( ; 15 July 1919 - 8 February 1999 ) was an Irish novelist and philosopher . Murdoch is best known for her novels about good and evil , sexual relationships , morality , and the power of the unconscious . Her first published novel , Under the Net , was selected in 1998 as one of Modern Library 's 100 best English-language novels of the 20th century . In 1987 , she was made a Dame Commander of the Order of the British Empire . Her books include The Bell ( 1958 ) , A Severed Head ( 1961 ) , The Red and the Green ( 1965 ) , The Nice and the Good ( 1968 ) , The Black Prince ( 1973 ) , Henry and Cato ( 1976 ) , The Sea , the Sea ( 1978 , Booker Prize ) , The Philosopher 's Pupil ( 1983 ) , The Good Apprentice ( 1985 ) , The Book and the Brotherhood ( 1987 ) , The Message to the Planet ( 1989 ) , and The Green Knight ( 1993 ) . In 2008 , The Times ranked Murdoch twelfth on a list of The 50 greatest British writers since 1945 .",
    "/wiki/Sissy_Spacek": "Mary Elizabeth Sissy Spacek ( /\u02c8spe\u026as\u025bk/ ; born December 25 , 1949 ) is an American actress and singer . She is the recipient of various accolades including an Academy Award , three Golden Globe Awards , two Critics ' Choice Movie Awards , a Screen Actors Guild Award , and nominations for four BAFTA Awards , three Primetime Emmy Awards , and a Grammy Award . She has also received a star on the Hollywood Walk of Fame . Born and raised in Texas , Spacek initially aspired to a career as a singer . In 1968 , using the name Rainbo , she recorded a single , John , You 've Gone Too Far This Time . Sales of her music sputtered , however , and she was dropped from her record label . She subsequently switched her focus to acting , enrolling at the Lee Strasberg Theatre and Film Institute . Spacek began her professional acting career in the early 1970s , making her debut with a minor role in Andy Warhol 's Women in Revolt ( 1971 ) and received attention for her role as Holly Sargis in Terrence Malick 's Badlands ( 1973 ) . Spacek rose to prominence with her portrayal of Carrie White in Brian De Palma 's Carrie ( 1976 ) , for which she received her first nomination for the Academy Award for Best Actress . Following her appearances in the acclaimed films Welcome to L.A. ( 1976 ) and Robert Altman 's 3 Women ( 1977 ) , she won the Academy Award for Best Actress for her portrayal of Loretta Lynn in the biographical musical Coal Miner 's Daughter ( 1980 ) . Her other Oscar-nominated roles include Missing ( 1982 ) , The River ( 1984 ) , Crimes of the Heart ( 1986 ) and In the Bedroom ( 2001 ) . Spacek also appeared in the films Raggedy Man ( 1981 ) , JFK ( 1991 ) , Affliction ( 1997 ) , The Straight Story ( 1999 ) , Tuck Everlasting ( 2002 ) , Nine Lives ( 2005 ) , North Country ( 2005 ) , Four Christmases ( 2008 ) , Get Low ( 2010 ) , The Help ( 2011 ) , and The Old Man & the Gun ( 2018 ) .",
    "/wiki/In_the_Bedroom": "In the Bedroom is a 2001 American independent crime film directed by Todd Field from a screenplay written by Field and Robert Festinger , based on the short story Killings by Andre Dubus . It stars Sissy Spacek , Tom Wilkinson , Nick Stahl , Marisa Tomei , and William Mapother . The film centers on the inner dynamics of a family in transition . Matt Fowler ( Wilkinson ) is a doctor practicing in Maine and is married to Ruth Fowler ( Spacek ) , a music teacher . Their son Frank ( Stahl ) is involved in a love affair with an older single mother Natalie Strout ( Tomei ) . As the beauty of Maine 's brief and fleeting summer comes to an end , these characters find themselves in the midst of an unimaginable tragedy . The title refers to the rear compartment of a lobster trap known as the bedroom and the fact that it can only hold up to two lobsters before they begin to turn on each other . In the Bedroom premiered at the Sundance Film Festival . It was theatrically released in limited theatres on November 23 , 2001 and grossed $ 43.4 million against a $ 1.7 million budget . The film was widely praised ; critics praised Field 's direction , its screenplay and the performances ( particularly of those of Spacek , Wilkinson and Tomei ) . In the Bedroom was chosen by the American Film Institute as one of the top 10 films of the year while Spacek 's performance was named the best female performance of the year . The film received five Oscar nominations at the 74th Academy Awards : Best Picture , Best Actress ( for Spacek ) , Best Actor ( for Wilkinson ) , Best Supporting Actress ( for Tomei ) , and Best Adapted Screenplay , and also three nominations at the 59th Golden Globe Awards including for the Best Motion Picture - Drama , and winning Best Actress - Drama ( for Spacek ) .",
    "/wiki/Ren\u00e9e_Zellweger": "Ren\u00e9e Kathleen Zellweger ( /r\u0259\u02c8ne\u026a \u02c8z\u025blw\u025b\u0261\u0259r/ ; born April 25 , 1969 ) is an American actress and producer . She has received numerous accolades , including two Academy Awards , four Golden Globe Awards , and two BAFTA Awards . Zellweger was one of the world 's highest-paid actresses by 2007 and was named Hasty Pudding Theatricals ' Woman of the Year in 2009 . Born in Texas , Zellweger studied English Literature at UT Austin . Initially aspiring to a career in journalism , she was drawn to acting following her brief work on stage during college . Following her film debut with a minor role in Richard Linklater 's Dazed and Confused ( 1993 ) , Zellweger 's first starring role came with the slasher film Texas Chainsaw Massacre : The Next Generation ( 1994 ) . She rose to prominence with starring roles in Jerry Maguire ( 1996 ) , One True Thing ( 1998 ) , Me , Myself and Irene ( 2000 ) , and Nurse Betty ( 2000 ) , winning her first Golden Globe Award for Best Actress for the lattermost . For her portrayals of Bridget Jones in the romantic comedy Bridget Jones 's Diary ( 2001 ) and Roxie Hart in the musical crime drama Chicago ( 2002 ) , she garnered consecutive nominations for the Academy Award for Best Actress . She reprised her role as Jones in two equally successful sequels , Bridget Jones : The Edge of Reason ( 2004 ) and Bridget Jones 's Baby ( 2016 ) . Zellweger won the Academy Award for Best Supporting Actress for playing a loquacious farmer in the epic drama Cold Mountain ( 2003 ) , and followed this with her portrayals of Mae Fox in Cinderella Man ( 2005 ) and author Beatrix Potter in Miss Potter ( 2006 ) . After starring roles in smaller scale films , such as Appaloosa ( 2008 ) and Case 39 ( 2009 ) , she had a six-year hiatus from the screen . In 2019 , Zellweger starred in the Netflix anthology series What/If and garnered critical acclaim for her portrayal of Judy Garland in the biopic Judy , winning the Academy Award for Best Actress .",
    "/wiki/Bridget_Jones's_Diary_(film)": "Bridget Jones 's Diary is a 2001 romantic comedy film directed by Sharon Maguire and written by Richard Curtis , Andrew Davies , and Helen Fielding . It is based on Fielding 's 1996 novel of the same name , which is a reinterpretation of Jane Austen 's Pride and Prejudice . The adaptation stars Ren\u00e9e Zellweger as Bridget ; Colin Firth as Bridget 's true love , Mark Darcy ; and Hugh Grant as the caddish Daniel Cleaver . Production began in August 2000 and ended in November 2000 , and took place largely on location in London and the Home Counties . The film premiered on 4 April 2001 in the United Kingdom and was released to theatres on 13 April 2001 simultaneously in the United Kingdom and in the United States . Bridget Jones 's Diary received positive reviews and was a commercial success , grossing over $ 280 million worldwide . Zellweger was nominated for the Academy Award for Best Actress for her role in the film . A sequel , Bridget Jones : The Edge of Reason , was released in 2004 , and another sequel , Bridget Jones 's Baby , was released in 2016 .",
    "/wiki/Bridget_Jones": "Bridget Jones is a franchise based on a fictional character of the same name created by British writer Helen Fielding . Jones first appeared in Fielding 's Bridget Jones 's Diary column in The Independent in 1995 , which - crucially - did not carry any byline . Thus , it seemed to be an actual personal diary chronicling the life of Jones as a thirtysomething single woman in London as she tries to make sense of life , love , and relationships with the help of a surrogate urban family of friends in the 1990s . The column was , in fact , a lampoon of women 's obsession with love , marriage and romance as well as women 's magazines such as Cosmopolitan and wider social trends in Britain at the time . Fielding published the novelisation of the column in 1996 , followed by a sequel in 1999 called . Both novels were adapted for the big screen in 2001 and 2004 , starring Ren\u00e9e Zellweger as Bridget Jones , and Hugh Grant and Colin Firth as the men in her life : Daniel Cleaver and Mark Darcy , respectively . After Fielding had ceased to work for The Daily Telegraph in late 1998 , the feature began again in The Independent on 4 August 2005 and finished in June 2006 . Helen Fielding released a third novel in 2013 , Bridget Jones : Mad About the Boy , which is set 14 years after the events of the second novel . The fictional character Bridget Jones was named on the 2016 Woman 's Hour Power List as one of seven women judged to have had the biggest impact on women 's lives over the past 70 years , alongside Margaret Thatcher , Barbara Castle , Helen Brook , Germaine Greer , Jayaben Desai and Beyonc\u00e9 .",
    "/wiki/9th_Screen_Actors_Guild_Awards": "The 9th Screen Actors Guild Awards , honoring the best achievements in film and television performances for the year 2002 , took place on March 9 , 2003 . The ceremony was held at the Shrine Exposition Center in Los Angeles , California , and was televised live by TNT . The nominees were announced on January 28 , 2003 by Megan Mullally and Michael Clarke Duncan at Los Angeles ' Skirball Cultural Centers Magnin Auditorium .",
    "/wiki/Chicago_(2002_film)": "Chicago is a 2002 American musical crime comedy-drama film based on the stage-musical of the same name . It explores the themes of celebrity , scandal , and corruption in Chicago during the Jazz Age . The film stars Ren\u00e9e Zellweger , Catherine Zeta-Jones , and Richard Gere . Chicago centers on Velma Kelly ( Zeta-Jones ) and Roxie Hart ( Zellweger ) , two murderesses who find themselves in jail together awaiting trial in 1920s Chicago . Velma , a vaudevillian , and Roxie , a housewife , fight for the fame that will keep them from the gallows . The film marks the theatrical directorial debut of Rob Marshall , who also choreographed the film , and was adapted by screenwriter Bill Condon , with music by John Kander and lyrics by Fred Ebb . Critically lauded , Chicago won six Academy Awards in 2003 , including Best Picture , the first musical to win Best Picture since Oliver ! in 1968 .",
    "/wiki/Roxie_Hart": "Roxanne Roxie Hart is a fictional character . She is the main character of the 1926 play Chicago and its various remakes and derivatives .",
    "/wiki/Salma_Hayek": "Salma Hayek Pinault ( /\u02c8ha\u026a\u025bk/ , Spanish : [ \u02c8salma \u02c8xa\u029dek ] ; born Salma Valgarma Hayek Jim\u00e9nez ; September 2 , 1966 ) is a Mexican and American film actress and producer . She began her career in Mexico starring in the telenovela Teresa and starred in the film El Callej\u00f3n de los Milagros ( Miracle Alley ) for which she was nominated for an Ariel Award . In 1991 , Hayek moved to Hollywood and came to prominence with roles in films such as Desperado ( 1995 ) , From Dusk till Dawn ( 1996 ) , Wild Wild West , and Dogma ( both 1999 ) . Her breakthrough role was in the 2002 film Frida , as Mexican painter Frida Kahlo , for which she was nominated for Best Actress for the Academy Award , BAFTA Award , Golden Globe Award , and Screen Actors Guild Award , and which she also produced . This movie received widespread attention and was a critical and commercial success . She won the Daytime Emmy Award for Outstanding Directing in a Children/Youth/Family Special for The Maldonado Miracle in 2004 , and received a Primetime Emmy Award nomination for Outstanding Guest Actress in a Comedy Series after guest-starring in the ABC television comedy-drama Ugly Betty in 2007 . She also guest-starred on the NBC comedy series 30 Rock from 2009 to 2013 . In 2017 , she was nominated for an Independent Spirit Award for her role in Beatriz at Dinner . Hayek 's recent films include Grown Ups ( 2010 ) , Puss in Boots ( 2011 ) , Grown Ups 2 ( 2013 ) , Tale of Tales ( 2015 ) , The Hitman 's Bodyguard ( 2017 ) and Like a Boss ( 2020 ) .",
    "/wiki/Frida": "Frida is a 2002 American biographical drama film directed by Julie Taymor . It depicts the professional and private life of the surrealist Mexican painter Frida Kahlo . It stars Salma Hayek in her Academy Award-nominated portrayal as Kahlo and Alfred Molina as her husband , Diego Rivera . The movie was adapted by Clancy Sigal , Diane Lake , Gregory Nava , Anna Thomas and unofficially by Edward Norton from the book Frida : A Biography of Frida Kahlo by Hayden Herrera . Frida received generally positive reviews from critics , and won two Academy Awards for Best Makeup and Best Original Score among six nominations .",
    "/wiki/Frida_Kahlo": "Frida Kahlo ( Spanish pronunciation : [ \u02c8f\u027ei\u00f0a \u02c8kalo ] ; born Magdalena Carmen Frida Kahlo y Calder\u00f3n ; 6 July 1907 - 13 July 1954 ) was a Mexican painter known for her many portraits , self-portraits , and works inspired by the nature and artifacts of Mexico . Inspired by the country 's popular culture , she employed a na\u00efve folk art style to explore questions of identity , postcolonialism , gender , class , and race in Mexican society . Her paintings often had strong autobiographical elements and mixed realism with fantasy . In addition to belonging to the post-revolutionary Mexicayotl movement , which sought to define a Mexican identity , Kahlo has been described as a surrealist or magical realist . Born to a German father and a mestiza mother , Kahlo spent most of her childhood and adult life at La Casa Azul , her family home in Coyoac\u00e1n , now publicly accessible as the Frida Kahlo Museum . Although she was disabled by polio as a child , Kahlo had been a promising student headed for medical school until a traffic accident at age eighteen , which caused her lifelong pain and medical problems . During her recovery , she returned to her childhood hobby of art with the idea of becoming an artist . Kahlo 's interests in politics and art led to her joining the Mexican Communist Party in 1927 , through which she met fellow Mexican artist Diego Rivera . The couple married in 1928 , and spent the late 1920s and early 1930s travelling in Mexico and the United States together . During this time , she developed her artistic style , drew her main inspiration from Mexican folk culture , and painted mostly small self-portraits which mixed elements from pre-Columbian and Catholic beliefs . Her paintings raised the interest of Surrealist artist Andr\u00e9 Breton , who arranged for Kahlo 's first solo exhibition at the Julien Levy Gallery in New York in 1938 . The exhibition was a success and was followed by another in Paris in 1939 .",
    "/wiki/Nicole_Kidman": "Nicole Mary Kidman AC ( born 20 June 1967 ) is an Australian actress and producer . She has won many awards including an Academy Award , two Primetime Emmy Awards , five Golden Globe Awards , and a Screen Actors Guild Award . She was listed among the highest-paid actresses in the world in 2006 , 2018 , and 2019 . Time magazine twice named her one of the 100 most influential people in the world , in 2004 and 2018 . Kidman began her acting career in Australia with the 1983 films Bush Christmas and BMX Bandits . Her breakthrough came in 1989 with the thriller film Dead Calm and the miniseries Bangkok Hilton . In 1990 , she made her Hollywood debut in the racing film Days of Thunder , opposite Tom Cruise . She went on to achieve wider recognition with lead roles in Far and Away ( 1992 ) , Batman Forever ( 1995 ) , To Die For ( 1995 ) , and Eyes Wide Shut ( 1999 ) . Kidman won the Academy Award for Best Actress for portraying the writer Virginia Woolf in the drama The Hours ( 2002 ) . Her other Oscar-nominated roles were as a courtesan in the musical Moulin Rouge ! ( 2001 ) and emotionally troubled mothers in the dramas Rabbit Hole ( 2010 ) and Lion ( 2016 ) . Kidman 's other film credits include The Others ( 2001 ) , Cold Mountain ( 2003 ) , Dogville ( 2003 ) , Birth ( 2004 ) , Australia ( 2008 ) , The Paperboy ( 2012 ) , Paddington ( 2014 ) , Destroyer ( 2018 ) , Aquaman ( 2018 ) , and Bombshell ( 2019 ) .",
    "/wiki/The_Hours_(film)": "The Hours is a 2002 psychological drama film directed by Stephen Daldry and starring Meryl Streep , Nicole Kidman , and Julianne Moore . Supporting roles are played by Ed Harris , John C. Reilly , Stephen Dillane , Jeff Daniels , Miranda Richardson , Allison Janney , Toni Collette , Claire Danes , and Eileen Atkins . The screenplay by David Hare is based on Michael Cunningham 's 1998 Pulitzer Prize-winning novel of the same title . The plot focuses on three women of different generations whose lives are interconnected by the novel Mrs Dalloway by Virginia Woolf . These are Clarissa Vaughan ( Streep ) , a New Yorker preparing an award party for her AIDS-stricken long-time friend and poet , Richard ( Harris ) in 2001 ; Laura Brown ( Moore ) , a pregnant 1950s California housewife with a young boy and an unhappy marriage ; and Virginia Woolf ( Kidman ) herself in 1920s England , who is struggling with depression and mental illness while trying to write her novel . The film was released in Los Angeles and New York City on Christmas Day 2002 , and was given a limited release in the United States and Canada two days later on December 27 , 2002 . It did not receive a wide release in North America until January 2003 , and was then released in British cinemas on Valentine 's Day that year . Critical reaction to the film was largely positive , with nine Academy Award nominations for The Hours including Best Picture , and a win for Nicole Kidman for Best Actress .",
    "/wiki/Virginia_Woolf": "Adeline Virginia Woolf ( /w\u028alf/ ; n\u00e9e Stephen ; 25 January 1882 - 28 March 1941 ) was an English writer , considered one of the most important modernist 20th-century authors and also a pioneer in the use of stream of consciousness as a narrative device . Woolf was born into an affluent household in South Kensington , London , the seventh child in a blended family of eight . Her mother , Julia Prinsep Jackson , celebrated as a Pre-Raphaelite artist 's model , had three children from her first marriage , while Woolf 's father , Leslie Stephen , a notable man of letters , had one previous daughter . The Stephens produced another four children , including the modernist painter Vanessa Bell . While the boys in the family received college educations , the girls were home-schooled in English classics and Victorian literature . An important influence in Virginia Woolf 's early life was the summer home the family used in St Ives , Cornwall , where she first saw the Godrevy Lighthouse , which was to become central in her novel To the Lighthouse ( 1927 ) . Woolf 's childhood came to an abrupt end in 1895 with the death of her mother and her first mental breakdown , followed two years later by the death of her half-sister and a mother figure to her , Stella Duckworth . From 1897 to 1901 , she attended the Ladies ' Department of King 's College London , where she studied classics and history and came into contact with early reformers of women 's higher education and the women 's rights movement . Other important influences were her Cambridge-educated brothers and unfettered access to her father 's vast library . Encouraged by her father , Woolf began writing professionally in 1900 . Her father 's death in 1905 caused another mental breakdown for Woolf . Following his death , the Stephen family moved from Kensington to the more bohemian Bloomsbury , where they adopted a free-spirited lifestyle .",
    "/wiki/Diane_Lane": "Diane Colleen Lane ( born January 22 , 1965 ) is an American actress . Born and raised in New York City , Lane made her screen debut in George Roy Hill 's 1979 film A Little Romance . She has since appeared in several notable films , including the 2002 film Unfaithful , which earned her Satellite , New York Film Critics Circle , and National Society of Film Critics awards for Best Actress in a Motion Picture ( Drama ) . Her performance in Unfaithful also garnered her Academy Award , Golden Globe , and Screen Actors Guild Award nominations for Best Actress . Lane has starred in The Outsiders ( 1983 ) , Knight Moves ( 1992 ) , Judge Dredd ( 1995 ) , A Walk on the Moon ( 1999 ) , The Perfect Storm ( 2000 ) , Under the Tuscan Sun ( 2003 ) , Cinema Verite ( 2011 ) , Inside Out ( 2015 ) , Trumbo ( 2015 ) , and in the sixth season of House of Cards . She played Martha Kent in Man of Steel ( 2013 ) , Batman v Superman : Dawn of Justice ( 2016 ) , and Justice League ( 2017 ) .",
    "/wiki/Unfaithful_(2002_film)": "Unfaithful is a 2002 American thriller film directed and produced by Adrian Lyne and starring Richard Gere , Diane Lane , Olivier Martinez , Erik Per Sullivan , Chad Lowe and Dominic Chianese . It was adapted by Alvin Sargent and William Broyles Jr. from the 1969 French film The Unfaithful Wife ( La Femme infid\u00e8le ) . It tells the story of a couple living in suburban New York City whose marriage goes dangerously awry when the wife indulges in an adulterous affair with a stranger she encounters by chance . Unfaithful grossed $ 52 million in North America and $ 119,137,784 worldwide . Despite mixed reviews overall , Lane received much praise for her performance . She won awards for best actress from the National Society of Film Critics and New York Film Critics , and was nominated for a Golden Globe and an Academy Award for Best Actress .",
    "/wiki/Julianne_Moore": "Julianne Moore ( born Julie Anne Smith ; December 3 , 1960 ) is a Scottish American actress and children 's author . Prolific in film since the early 1990s , she is particularly known for her portrayals of emotionally troubled women in both independent and blockbuster films , and has received many accolades , including an Academy Award , a British Academy Film Award and two Golden Globes . Time magazine named Moore one of the 100 most influential people in the world in 2015 . After studying theatre at Boston University , Moore began her career with a series of television roles . From 1985 to 1988 , she was a regular in the soap opera As the World Turns , earning a Daytime Emmy Award for her performance . Her film debut was in Tales from the Darkside : The Movie ( 1990 ) , and she continued to play small roles for the next four years , including in the thriller The Hand That Rocks the Cradle ( 1992 ) . Moore first received critical attention with Robert Altman 's Short Cuts ( 1993 ) , and successive performances in Vanya on 42nd Street ( 1994 ) and Safe ( 1995 ) continued this acclaim . Starring roles in the blockbusters Nine Months ( 1995 ) and The Lost World : Jurassic Park ( 1997 ) established her as a leading lady in Hollywood . Moore received considerable recognition in the late 1990s and early 2000s , earning Oscar nominations for Boogie Nights ( 1997 ) , The End of the Affair ( 1999 ) , Far from Heaven ( 2002 ) and The Hours ( 2002 ) . In the first of these , she played a 1970s pornographic actress , while the other three starred her as an unhappy , mid-20th century housewife . She also had success with the films The Big Lebowski ( 1998 ) , Magnolia ( 1999 ) , Hannibal ( 2001 ) , Children of Men ( 2006 ) , A Single Man ( 2009 ) , The Kids Are All Right ( 2010 ) , and Crazy , Stupid , Love ( 2011 ) , and won an Emmy Award for her portrayal of Sarah Palin in the television film Game Change ( 2012 ) . Moore won the Academy Award for Best Actress for her playing an Alzheimer 's patient in Still Alice ( 2014 ) and was named Best Actress at the Cannes Film Festival for Maps to the Stars ( 2014 ) .",
    "/wiki/Far_from_Heaven": "Far from Heaven is a 2002 American period melodrama film written and directed by Todd Haynes , and starring Julianne Moore , Dennis Quaid , Dennis Haysbert , and Patricia Clarkson . It premiered at the Venice Film Festival , where Moore won the Volpi Cup for Best Actress , and cinematographer Edward Lachman won a prize for Outstanding Individual Contribution . The film tells the story of Cathy Whitaker , a 1950s housewife , living in wealthy suburban Connecticut as she sees her seemingly perfect life begin to fall apart . Haynes pays homage to the films of Douglas Sirk ( especially 1955 's All That Heaven Allows and 1959 's Imitation of Life ) , and explores race , gender roles , sexual orientation , and class in the context of 1950s America .",
    "/wiki/10th_Screen_Actors_Guild_Awards": "The 10th Screen Actors Guild Awards , honoring the best achievements in film and television performances for the year 2003 , were presented at the Shrine Exposition Center in Los Angeles , California on February 22 , 2004 . The nominees were announced on January 15 , 2004 by Andie MacDowell and Mark Harmon at Los Angeles ' Pacific Design Center 's Silver Screen Theater .",
    "/wiki/Charlize_Theron": "Charlize Theron ( /\u0283\u0251\u02d0r\u02c8li\u02d0z \u02c8\u03b8\u025br\u0259n/ shar-LEEZ THERR-\u0259n ; Afrikaans : [ \u0283ar\u02c8lis \u02c8tr\u0254n ] ; born 7 August 1975 ) is a South African and American actress and producer . She is the recipient of several accolades , including an Academy Award , a Golden Globe Award , an American Cinematheque Award , and the Silver Bear for Best Actress . Time magazine named her one of the 100 most influential people in the world in 2016 , and she is one of the world 's highest-paid actresses , as of 2019 . Theron came to international prominence in the 1990s by playing the leading lady in the Hollywood films The Devil 's Advocate ( 1997 ) , Mighty Joe Young ( 1998 ) , and The Cider House Rules ( 1999 ) . In 2003 , she received critical acclaim for her portrayal of serial killer Aileen Wuornos in Monster , for which she won the Academy Award for Best Actress , becoming the first South African to win an Oscar in an acting category . She received another Academy Award nomination for playing a sexually abused woman seeking justice in the drama North Country ( 2005 ) . Theron has since starred in several top-grossing action films , including Hancock ( 2008 ) , Snow White and the Huntsman ( 2012 ) , Prometheus ( 2012 ) , Mad Max : Fury Road ( 2015 ) , The Fate of the Furious ( 2017 ) , and Atomic Blonde ( 2017 ) . She also received praise for playing troubled women in Jason Reitman 's comedy-dramas Young Adult ( 2011 ) and Tully ( 2018 ) , and for portraying Megyn Kelly in the drama Bombshell ( 2019 ) , receiving a third Academy Award nomination for Best Actress . Since the early 2000s , Theron has ventured into film production with her company Denver and Delilah Productions . She has produced numerous films , in many of which she had a starring role , including The Burning Plain ( 2008 ) , Dark Places ( 2015 ) , and Long Shot ( 2019 ) . Theron became an American citizen in 2007 , while retaining her South African citizenship .",
    "/wiki/Monster_(2003_film)": "Monster is a 2003 biographical crime drama film written and directed by Patty Jenkins . The film is about serial killer Aileen Wuornos , a former street prostitute who murdered her seven male clients between 1989 and 1990 and was executed in Florida in 2002 . Charlize Theron produced the film and played the role of Aileen Wuornos ; Christina Ricci played her semi-fictionalized lover , Selby Wall ( based on Wuornos 's real-life girlfriend Tyria Moore ) . Monster had its world premiere at the AFI Fest on November 16 , 2003 . On February 8 , 2004 , the film was presented in the main competition section of the 54th Berlin International Film Festival , where it won the Silver Bear for Best Actress ( Charlize Theron ) . The film was released in the United States on December 24 , 2003 , by Newmarket Films and on April 15 , 2004 , in Germany . Monster received positive reviews from critics and achieved box office success , grossing $ 60.4 million on a $ 8 million budget . The film received numerous awards and nominations , in particular for the role of Theron , including the Academy Award for Best Actress , the Golden Globe Award for Best Actress in a Motion Picture - Drama , the Screen Actors Guild Award for Outstanding Lead Actress , the Critics ' Choice Movie Award for Best Actress , the Independent Spirit Award for Best Female Lead , and also the Independent Spirit Award for Best First Feature ( Patty Jenkins ) . Theron 's acting has received critical acclaim ; film critic Roger Ebert called Theron 's role one of the greatest performances in the history of the cinema . The film was chosen by the American Film Institute as one of the top ten films of 2003 .",
    "/wiki/Aileen_Wuornos": "Aileen Carol Wuornos Pralle ( ; born Aileen Carol Pittman ; February 29 , 1956 - October 9 , 2002 ) was an American serial killer and prostitute who murdered seven men in Florida in 1989 and 1990 by shooting them at point-blank range . Wuornos claimed that her victims had either raped or attempted to rape her while she was servicing them , and that all of the homicides were committed in self-defense . She was convicted and sentenced to death for six of the murders and was executed by lethal injection on October 9 , 2002 . The 2003 film Monster chronicles Wuornos ' story from childhood until her first murder conviction . It stars Charlize Theron as Wuornos , a performance that earned Theron an Academy Award for Best Actress .",
    "/wiki/Patricia_Clarkson": "Patricia Davies Clarkson ( born December 29 , 1959 ) is an American actress . She has starred in numerous leading and supporting roles in a variety of films , ranging from independent features to major studio productions . Her accolades include one Academy Award nomination , two Golden Globe Award nominations , four Screen Actors Guild Award nominations , one Tony Award nomination , two Primetime Emmy Awards , two National Society of Film Critics Awards , and one British Independent Film Award . Born and raised in New Orleans to a politician mother and school administrator father , Clarkson earned a degree in drama from Fordham University before attending the Yale School of Drama , where she graduated with a Master of Fine Arts degree . She made her feature film debut in Brian De Palma 's mob drama The Untouchables ( 1987 ) , followed by a supporting role in Clint Eastwood 's The Dead Pool ( 1988 ) . After appearing in numerous minor roles in the early and mid-1990s , she garnered critical attention for her portrayal of a drug-addicted actress in the independent drama High Art ( 1998 ) . Clarkson went on to appear in numerous supporting roles in such films as The Green Mile ( 1999 ) , The Pledge ( 2001 ) , and Dogville ( 2003 ) . She garnered further critical acclaim in 2003 for her performances in the drama films The Station Agent , which earned her a Screen Actors Guild Award nomination , and Pieces of April , for which she was nominated for a Golden Globe and an Academy Award for Best Supporting Actress . Clarkson also appeared as a recurring guest star on the HBO series Six Feet Under from 2002 to 2006 , and won two Primetime Emmy Awards for her performance . Other credits from the 2000s include Good Night , and Good Luck ( 2005 ) , Lars and the Real Girl ( 2007 ) , and Elegy ( 2008 ) . In 2010 , Clarkson had a supporting role in Martin Scorsese 's thriller Shutter Island , followed by roles in the mainstream comedies Easy A ( 2010 ) and Friends with Benefits . She subsequently portrayed the villainous Ava Paige in The Maze Runner ( 2014 ) and its two sequels .",
    "/wiki/The_Station_Agent": "The Station Agent is a 2003 American comedy-drama film written and directed by Tom McCarthy . It stars Peter Dinklage as a man who seeks solitude in an abandoned train station in the Newfoundland section of Jefferson Township , New Jersey . It also stars Patricia Clarkson , Michelle Williams , Bobby Cannavale and John Slattery . For his writing achievement , McCarthy won the BAFTA Award for Best Original Screenplay and the Independent Spirit Award for Best First Screenplay .",
    "/wiki/Diane_Keaton": "Diane Keaton ( n\u00e9e Hall ; born January 5 , 1946 ) is an American actress , director , producer , photographer , real estate developer , author , and singer . One of the most popular actresses of the 1970s and 1980s , she has received various accolades , including an Academy Award , a BAFTA Award , two Golden Globe Awards , and the AFI Life Achievement Award . Keaton began her career on stage and made her screen debut in 1970 . Her first major film role was as Kay Adams-Corleone in The Godfather ( 1972 ) , a role she reprised in The Godfather Part II ( 1974 ) and The Godfather Part III ( 1990 ) . But the films that helped shape her early career were those with director and co-star Woody Allen , beginning with Play It Again , Sam in 1972 . Her next two films with Allen , Sleeper ( 1973 ) and Love and Death ( 1975 ) , established her as a comic actor . Her fourth , the romantic comedy Annie Hall ( 1977 ) , won her the Academy Award for Best Actress . To avoid being typecast as her Annie Hall persona , Keaton became an accomplished dramatic performer , starring in Looking for Mr. Goodbar ( 1977 ) and Interiors ( 1978 ) , and received three more Academy Award nominations for playing feminist activist Louise Bryant in Reds ( 1981 ) , a woman with leukemia in Marvin 's Room ( 1996 ) , and a dramatist in Something 's Got ta Give ( 2003 ) . Keaton 's other popular films include Manhattan ( 1979 ) , Shoot the Moon ( 1982 ) , Mrs. Soffel ( 1984 ) , Baby Boom ( 1987 ) , Father of the Bride ( 1991 ) , Manhattan Murder Mystery ( 1993 ) , Father of the Bride Part II ( 1995 ) , The First Wives Club ( 1996 ) , The Other Sister ( 1999 ) , The Family Stone ( 2005 ) , Morning Glory ( 2010 ) , Finding Dory ( 2016 ) , Book Club ( 2018 ) , and Poms ( 2019 ) .",
    "/wiki/Something's_Gotta_Give_(film)": "Something 's Got ta Give is a 2003 American romantic comedy film written , produced and directed by Nancy Meyers . It stars Jack Nicholson and Diane Keaton as a successful 60-something and 50-something , who find love for each other in later life , despite being complete opposites . Keanu Reeves and Amanda Peet co-star , with Frances McDormand , Paul Michael Glaser , Jon Favreau , and KaDee Strickland playing key supporting roles . The film received generally favorable reviews from critics , and was a box office hit following its North American release , eventually grossing $ 266.7 million worldwide . For her performance Keaton earned a Golden Globe , a Satellite Award , as well as an Oscar nomination and a SAG Award nomination for Best Actress , among other recognitions . Nicholson also received a Golden Globe nomination for Best Actor in a Motion Picture - Musical or Comedy . This was Nicholson and Keaton 's second film together since 1981 's Reds .",
    "/wiki/Naomi_Watts": "Naomi Ellen Watts ( born 28 September 1968 ) is a British actress and film producer . She made her film debut in the Australian drama For Love Alone ( 1986 ) and then appeared in the Australian television series Hey Dad. ! ( 1990 ) , Brides of Christ ( 1991 ) , Home and Away ( 1991 ) , and the film Flirting ( 1991 ) . After moving to the United States , Watts struggled as an actress for years , but managed to obtain parts in the films Tank Girl ( 1995 ) , Children of the Corn IV : The Gathering ( 1996 ) , and Dangerous Beauty ( 1998 ) , and the television series Sleepwalkers ( 1997-1998 ) . Watts rose to international prominence for playing an aspiring actress in David Lynch 's psychological thriller Mulholland Drive ( 2001 ) and a tormented journalist in the horror remake The Ring ( 2002 ) . She subsequently received a nomination for the Academy Award for Best Actress for her performance as a grief-stricken mother in Alejandro Gonz\u00e1lez I\u00f1\u00e1rritu 's neo-noir film 21 Grams ( 2003 ) . Her next films throughout the 2000s include I Heart Huckabees ( 2004 ) , King Kong ( 2005 ) , Eastern Promises ( 2007 ) , and The International ( 2009 ) . For her role as Maria Bennett in the disaster film The Impossible ( 2012 ) , Watts received another Academy Award for Best Actress nomination . In the 2010s , she starred in the well-received independent films Birdman ( 2014 ) , for which she won a Screen Actors Guild Award as part of the cast , St. Vincent ( 2014 ) , While We 're Young ( 2015 ) , and Luce ( 2019 ) . Watts also continued to act in blockbusters , with appearances in the Divergent franchise ( 2015-2016 ) , and ventured into television with the Showtime series Twin Peaks ( 2017 ) and The Loudest Voice ( 2019 ) . Watts is particularly known for her work in remakes and independent productions with dark or tragic themes , as well as portrayals of characters that endure loss or suffering . She established herself as one of the most bankable actresses in the American film industry by 2009 .",
    "/wiki/21_Grams": "21 Grams is a 2003 American crime drama film directed by Alejandro Gonz\u00e1lez I\u00f1\u00e1rritu from a screenplay by Guillermo Arriaga . The story was co-written by Gonz\u00e1lez I\u00f1\u00e1rritu and Arriaga . The film stars Sean Penn , Naomi Watts , Charlotte Gainsbourg , Danny Huston and Benicio Del Toro . The second part of Arriaga 's and Gonz\u00e1lez I\u00f1\u00e1rritu 's Trilogy of Death , preceded by Amores perros ( 2000 ) and followed by Babel ( 2006 ) , 21 Grams interweaves several plot lines in a nonlinear arrangement . The film 's plot is about the consequences of a tragic automobile accident . Penn plays a critically ill mathematician , Watts plays a grief-stricken mother , and Del Toro plays a born-again Christian ex-convict whose faith is sorely tested in the aftermath of the accident . The three main characters each have past , present and future story threads , which are shown as non-linear fragments that punctuate elements of the overall story , all imminently coming toward each other and coalescing as the story progresses .",
    "/wiki/Evan_Rachel_Wood": "Evan Rachel Wood ( born September 7 , 1987 ) is an American actress , model , and musician . She began acting in the 1990s , appearing in several television series , including American Gothic ( 1995-96 ) and Once and Again ( 1999-2002 ) . Wood made her debut as a leading film actress at the age of nine in Digging to China ( 1997 ) and garnered acclaim for her Golden Globe-nominated role as the troubled teenager Tracy Freeland in the teen drama film Thirteen ( 2003 ) . Wood continued acting mostly in independent films , including Pretty Persuasion ( 2005 ) , Down in the Valley ( 2005 ) , Running with Scissors ( 2006 ) , and in the big studio production Across the Universe ( 2007 ) . Since 2008 , Wood has appeared in more mainstream films , including The Wrestler ( 2008 ) , Whatever Works ( 2009 ) and The Ides of March ( 2011 ) . She also returned to television , playing the supporting role of Queen Sophie-Anne on True Blood from 2009 to 2011 and playing the daughter of Mildred Pierce in the HBO miniseries Mildred Pierce ( 2011 ) , for which she was nominated for the Golden Globe and Emmy Award for Best Supporting Actress . She currently plays the sapient android Dolores Abernathy in the HBO series Westworld , for which she won a Critics ' Choice Award and earned Golden Globe and Emmy Award nominations .",
    "/wiki/Thirteen_(2003_film)": "Thirteen is a 2003 American teen drama film directed by Catherine Hardwicke , written by Hardwicke and Nikki Reed , and starring Evan Rachel Wood , Holly Hunter , and Reed . Loosely based on Reed 's life from ages 12 to 13 , the film 's plot follows Tracy , a junior high school student in Los Angeles who begins dabbling in substance abuse , sex , and crime after being befriended by a troubled classmate . It features Brady Corbet , Deborah Kara Unger , Kip Pardue , and Vanessa Anne Hudgens in supporting roles . The screenplay for Thirteen was written over a period of six days by Hardwicke and the then-14-year-old Reed ; Hardwicke , a former production designer , independently raised funds herself for the production . Filming took place on location in Los Angeles in 2002 , largely shot with hand-held cameras , evoking a cin\u00e9ma v\u00e9rit\u00e9 visual style . Upon the film 's debut at the Sundance Film Festival in January 2003 , Hardwicke won the Sundance Directing ( Drama ) for the film . Fox Searchlight Pictures subsequently acquired Thirteen for distribution , giving the film a limited release in the United States beginning on August 20 , 2003 ; the release would expand in September 2003 , and the film went on to gross a total of $ 4.6 million at the United States box office . Though it received numerous favorable reviews from critics , Thirteen generated some controversy for its depiction of youth drug use ( including inhalants , marijuana , LSD , and alcohol ) , underage sexual behavior , and self-harm . The film earned Holly Hunter an Oscar nomination for Best Actress in a Supporting Role and Golden Globe nominations for Hunter and Evan Rachel Wood for Best Supporting Actress and Best Actress in a Drama , respectively ."
  }
}