{
  "International_Court_of_Justice_advisory_opinion_on_Kosovo's_declaration_of_independence_0": {
    "/wiki/Serbia": "Serbia ( Serbian : \u0421\u0440\u0431\u0438\u0458\u0430 , romanized : Srbija , pronounced [ s\u0159\u0329bija ] ) , [ note 1 ] officially the Republic of Serbia ( Serbian : \u0420\u0435\u043f\u0443\u0431\u043b\u0438\u043a\u0430 \u0421\u0440\u0431\u0438\u0458\u0430 , romanized : Republika Srbija , pronounced [ rep\u01d4blika s\u0159\u0329bija ] ) , is a land-locked country situated at the crossroads of Central and Southeast Europe in the southern Pannonian Plain and the central Balkans . It borders Hungary to the north , Romania to the northeast , Bulgaria to the southeast , North Macedonia to the south , Croatia and Bosnia and Herzegovina to the west , and Montenegro to the southwest . The country claims a border with Albania through the disputed territory of Kosovo . [ a ] Serbia 's population numbers approximately seven million . Its capital , Belgrade , ranks among the largest citi\u0435s in southeastern Europe . Inhabited since the Paleolithic Age , the territory of modern-day Serbia faced Slavic migrations to Southeastern Europe in the 6th century , establishing several regional states in the early Middle Ages at times recognised as tributaries to the Byzantine , Frankish and Hungarian kingdoms . The Serbian Kingdom obtained recognition by the Holy See and Constantinople in 1217 , reaching its territorial apex in 1346 as the relatively short-lived Serbian Empire . By the mid-16th century , the Ottomans annexed the entirety of modern-day Serbia ; their rule was at times interrupted by the Habsburg Empire , which began expanding towards Central Serbia from the end of the 17th century while maintaining a foothold in Vojvodina . In the early 19th century , the Serbian Revolution established the nation-state as the region 's first constitutional monarchy , which subsequently expanded its territory . Following disastrous casualties in World War I , and the subsequent unification of the former Habsburg crownland of Vojvodina ( and other lands ) with Serbia , the country co-founded Yugoslavia with other South Slavic peoples , which would exist in various political formations until the Yugoslav Wars of the 1990s . During the breakup of Yugoslavia , Serbia formed a union with Montenegro , which was peacefully dissolved in 2006 and restoring Serbia 's independence as a sovereign state for the first time since the late 1910s . In 2008 , the parliament of the province of Kosovo unilaterally declared independence , with mixed responses from the international community .",
    "/wiki/Du\u0161an_T._Batakovi\u0107": "Du\u0161an T. Batakovi\u0107 ( ; 23 April 1957 - 27 June 2017 ) was a Serbian historian and diplomat . His specialty was modern and contemporary Serbian and Balkan history . The last post he held was that of Director of the Institute for Balkan Studies at the Serbian Academy of Sciences and Arts .",
    "/wiki/Mitrovica,_Kosovo": "Mitrovica ( Albanian : Mitrovic\u00eb ) or Kosovska Mitrovica ( Serbian Cyrillic : \u041a\u043e\u0441\u043e\u0432\u0441\u043a\u0430 \u041c\u0438\u0442\u0440\u043e\u0432\u0438\u0446\u0430 ) is a city and municipality located in Kosovo . [ a ] Settled on the banks of Ibar and Sitnica rivers , the city is the administrative center of the Mitrovica District . In 2013 , following the North Kosovo crisis , the Serb-majority municipality of North Mitrovica was created , dividing the city in two administrative units , both operating within the Kosovo legal framework . According to the 2011 Census , in Mitrovica live 84,235 inhabitants , 71,909 of which in the southern municipality and 12,326 in North Mitrovica .",
    "/wiki/Serbian_Orthodox_Church": "The Serbian Orthodox Church ( ) is one of the autocephalous Eastern Orthodox Christian Churches . It is the second-oldest Slavic Orthodox Church in the world ( after the Bulgarian Orthodox Church ) . The Serbian Orthodox Church comprises the majority of the population in Serbia , Montenegro , and the Republika Srpska entity of Bosnia and Herzegovina . It is organized into metropolises and eparchies located primarily in Serbia , Bosnia and Herzegovina , Montenegro , and Croatia , but also all over the world where Serb diaspora lives . The Serbian Orthodox Church is an autocephalous , or ecclesiastically independent , member of the Eastern Orthodox communion . Serbian Patriarch serves as first among equals in his church ; the current patriarch is Irinej . The Church achieved autocephalous status in 1219 under the leadership of St. Sava , becoming independent Archbishopric of \u017di\u010da . Its status was elevated to that of a patriarchate in 1346 and was known afterward as the Serbian Patriarchate of Pe\u0107 . This patriarchate was abolished by the Ottoman Turks in 1766 , though the Serbian Church continued to exist with its exarchs in Serb-populated territories in the Ottoman Empire , the Habsburg Monarchy , the Republic of Venice and the First French Empire . Finally , the modern Serbian Orthodox Church was re-established in 1920 after the unification of the Patriarchate of Karlovci , the Metropolitanate of Belgrade and the Metropolitanate of Montenegro .",
    "/wiki/Kosovo": "Kosovo ( /\u02c8k\u0252s\u0259vo\u028a , \u02c8ko\u028a-/ ; Albanian : Kosova pronounced [ k\u0254\u02c8s\u0254va ] or Kosov\u00eb pronounced [ k\u0254\u02c8s\u0254v\u0259 ] ; Serbian Cyrillic : \u041a\u043e\u0441\u043e\u0432\u043e pronounced [ k\u00f4so\u028bo ] ) , officially the Republic of Kosovo ( Albanian : Republika e Kosov\u00ebs ; Serbian Cyrillic : \u0420\u0435\u043f\u0443\u0431\u043b\u0438\u043a\u0430 \u041a\u043e\u0441\u043e\u0432\u043e , romanized : Republika Kosovo ) , is a partially-recognized state in Southeast Europe , subject to a territorial dispute with the Republic of Serbia . Defined in an area of 10,887 square kilometres ( 4,203 sq mi ) , Kosovo is landlocked in the center of the Balkans and bordered by the uncontested territory of Serbia to the north and east , North Macedonia to the southeast , Albania to the southwest and Montenegro to the west . It possesses varied and diverse landscapes for its size by climate along with geology and hydrology . Most of central Kosovo is dominated by the vast plains and fields of Metohija and Kosovo . The Albanian Alps and \u0160ar Mountains rise in the southwest and southeast respectively . The earliest known human settlements in what is now Kosovo were the Paleolithic Vin\u010da and Star\u010devo cultures . During the Classical period , it was inhabited by the Illyrian-Dardanian and Celtic people . In 168 BC , the area was annexed by the Romans . In the Middle Ages , it was conquered by the Byzantine , Bulgarian , and Serbian Empires . The Battle of Kosovo of 1389 is considered to be one of the defining moments in Serbian medieval history . The region was the core of the Serbian medieval state , which has also been the seat of the Serbian Orthodox Church from the 14th century , when its status was upgraded to a patriarchate . Kosovo was part of the Ottoman Empire from the 15th to the early 20th century .",
    "/wiki/Sk\u00ebnder_Hyseni": "Sk\u00ebnder Hyseni ( Serbo-Croatian : Skender Hiseni ) ( born 17 February 1955 in Podujevo ) is a Kosovar Albanian politician who is the current Minister of Internal Affairs and the former foreign minister of the Kosovo . Hyseni graduated at the University of Pristina , branch of English Language and Literature in 1979 . Hyseni stayed for a short period of time for study purposes in Bloomsburg State College-USA ( 1978 ) and in Aberdeen University-Scotland ( 1986 ) . He was nominated as a Foreign Minister on 3 March 2008. and held the position until 18 October 2010 , when he was replaced by Vlora \u00c7itaku . Before holding this position he was the Minister of Culture , Youth , Sport and Non-Residential Affairs in the same government . Hysen had also served as a spokesman for the government and for Kosovan negotiators before the 2008 Kosovo declaration of independence .",
    "/wiki/Operation_Horseshoe": "Operation Horseshoe was the name given to an alleged plan of ethnic cleansing of Kosovo Albanians to be carried out by Serbian police and the Yugoslav army . Claims that the plan was being implemented were NATO 's justification for their bombing of Yugoslavia during the Kosovo War . Human Rights Watch said that in early 1999 , the Yugoslav army and the Serbian police in an organized manner , with significant use of state resources conducted a broad campaign of violence against Albanian civilians to expel them from Kosovo and thus maintain political control of Belgrade over the province .",
    "/wiki/Responsibility_to_protect": "The Responsibility to Protect ( R2P or RtoP ) is a global political commitment which was endorsed by all member states of the United Nations at the 2005 World Summit in order to address its four key concerns to prevent genocide , war crimes , ethnic cleansing and crimes against humanity . The principle of the Responsibility to Protect is based upon the underlying premise that sovereignty entails a responsibility to protect all populations from mass atrocity crimes and human rights violations . The principle is based on a respect for the norms and principles of international law , especially the underlying principles of law relating to sovereignty , peace and security , human rights , and armed conflict . The Responsibility to Protect provides a framework for employing measures that already exist ( i.e. , mediation , early warning mechanisms , economic sanctions , and chapter VII powers ) to prevent atrocity crimes and to protect civilians from their occurrence . The authority to employ the use of force under the framework of the Responsibility to Protect rests solely with United Nations Security Council and is considered a measure of last resort . The United Nations Secretary-General has published annual reports on the Responsibility to Protect since 2009 that expand on the measures available to governments , intergovernmental organizations , and civil society , as well as the private sector , to prevent atrocity crimes . The Responsibility to Protect has been the subject of considerable debate , particularly regarding the implementation of the principle by various actors in the context of country-specific situations , such as Libya , Syria , Sudan and Kenya , for example .",
    "/wiki/Rambouillet_Agreement": "The Rambouillet Agreement was a proposed peace agreement between the Federal Republic of Yugoslavia and a delegation representing the Albanian majority population of Kosovo . It was drafted by the North Atlantic Treaty Organisation ( NATO ) and named for the Ch\u00e2teau de Rambouillet , where it was initially proposed in early 1999 . The significance of the agreement lies in the fact that Yugoslavia refused to accept it , which NATO used as justification to start its intervention in the Kosovo War . Belgrade 's rejection was based on the argument that the agreement contained provisions for Kosovo 's autonomy that went further than the Serbian and Yugoslav governments saw as reasonable .",
    "/wiki/Albania": "Albania ( /\u00e6l\u02c8be\u026ani\u0259 , \u0254\u02d0l-/ ( listen ) a ( w ) l-BAY-nee-\u0259 ; Albanian : Shqip\u00ebri or Shqip\u00ebria ; Gheg Albanian : Shqipni or Shqipnia also Shqypni or Shqypnia ) , officially the Republic of Albania ( Albanian : Republika e Shqip\u00ebris\u00eb , pronounced [ \u027e\u025bpu\u02c8blika \u025b \u0283cip\u0259\u02c8\u027ei\u02d0s\u0259 ] ) , is a country in Southeast Europe on the Adriatic and Ionian Sea within the Mediterranean Sea . It shares land borders with Montenegro to the northwest , Kosovo [ a ] to the northeast , North Macedonia to the east , Greece to the south and maritime borders with Greece , Montenegro and Italy to the west . Geographically , the country displays varied climatic , geological , hydrological and morphological conditions , defined in an area of 28,748 km2 ( 11,100 sq mi ) . It possesses remarkable diversity with the landscape ranging from the snow-capped mountains in the Albanian Alps as well as the Korab , Skanderbeg , Pindus and Ceraunian Mountains to the hot and sunny coasts of the Albanian Adriatic and Ionian Sea along the Mediterranean Sea . Historically , the country has been inhabited by numerous civilisations such as the Illyrians , Thracians , Ancient Greeks , Romans , Byzantines , Venetians and Ottomans . The Albanians established the autonomous Principality of Arb\u00ebr in the 12th century . The Kingdom of Albania and Principality of Albania formed between the 13th and 14th centuries . Prior to the Ottoman conquest of Albania in the 15th century , the Albanian resistance to Ottoman expansion into Europe led by Gjergj Kastrioti Skanderbeg won them acclaim over most of Europe . Between the 18th and 19th centuries , Albanians gathered both spiritual and intellectual strength which conclusively led to the Albanian Renaissance . After the defeat of the Ottomans in the Balkan Wars , the modern nation state of Albania declared independence in 1912 . In the 20th century , the Kingdom of Albania was invaded by Italy which formed Greater Albania before becoming a protectorate of Nazi Germany . Enver Hoxha formed Communist Albania after the Second World War and launched the Albanians on a path of oppression and decades of isolation .",
    "/wiki/Germany": "Germany ( German : Deutschland , German pronunciation : [ \u02c8d\u0254\u028ft\u0283lant ] ) , constitutionally the Federal Republic of Germany ( German : Bundesrepublik Deutschland , listen ( help\u00b7info ) ) , [ f ] is a country in Central and Western Europe . It borders Denmark to the north , Poland and the Czech Republic to the east , Austria and Switzerland to the south , France to the southwest , and Luxembourg , Belgium , and the Netherlands to the west . Germany includes 16 constituent states , covers an area of 357,386 square kilometres ( 137,988 sq mi ) , and has a largely temperate seasonal climate . With 83 million inhabitants , it is the second most populous state of Europe after Russia , the most populous state lying entirely in Europe , as well as the most populous member state of the European Union . Germany is a very decentralised country . Its capital and largest metropolis is Berlin , while Frankfurt serves as its financial capital and has the country 's busiest airport . Various Germanic tribes have inhabited the northern parts of modern Germany since classical antiquity . A region named Germania was documented before AD 100 . Beginning in the 10th century , German territories formed a central part of the Holy Roman Empire . During the 16th century , northern German regions became the centre of the Protestant Reformation . After the collapse of the Holy Roman Empire , the German Confederation was formed in 1815 . The German revolutions of 1848-49 resulted in the Frankfurt Parliament establishing major democratic rights .",
    "/wiki/Susanne_Wasum-Rainer": "Susanne Wasum-Rainer ( born 31 July 1956 ) is a German diplomat who has been serving as Germanys Ambassador to Israel since 2018 .",
    "/wiki/Self-determination": "The right of a people to self-determination is a cardinal principle in modern international law ( commonly regarded as a jus cogens rule ) , binding , as such , on the United Nations as authoritative interpretation of the Charter 's norms . It states that people , based on respect for the principle of equal rights and fair equality of opportunity , have the right to freely choose their sovereignty and international political status with no interference . The concept was first expressed in the 1860s , and spread rapidly thereafter . During and after World War I , the principle was encouraged by both Vladimir Lenin and United States President Woodrow Wilson . Having announced his Fourteen Points on 8 January 1918 , on 11 February 1918 Wilson stated : National aspirations must be respected ; people may now be dominated and governed only by their own consent . 'Self determination ' is not a mere phrase ; it is an imperative principle of action . During World War II , the principle was included in the Atlantic Charter , signed on 14 August 1941 , by Franklin D. Roosevelt , President of the United States , and Winston Churchill , Prime Minister of the United Kingdom , who pledged The Eight Principal points of the Charter . It was recognized as an international legal right after it was explicitly listed as a right in the UN Charter . The principle does not state how the decision is to be made , nor what the outcome should be , whether it be independence , federation , protection , some form of autonomy or full assimilation . Neither does it state what the delimitation between peoples should be - nor what constitutes a people . There are conflicting definitions and legal criteria for determining which groups may legitimately claim the right to self-determination . By extension , the term self-determination has come to mean the free choice of one 's own acts without external compulsion .",
    "/wiki/Saudi_Arabia": "Saudi Arabia , [ c ] officially the Kingdom of Saudi Arabia , [ d ] is a country in Western Asia constituting the bulk of the Arabian Peninsula . With a land area of approximately 2,150,000 km2 ( 830,000 sq mi ) , Saudi Arabia is geographically the largest sovereign state in Western Asia , the second-largest in the Arab world ( after Algeria ) , the fifth-largest in Asia , and the 12th-largest in the world . Saudi Arabia is bordered by Jordan and Iraq to the north , Kuwait to the northeast , Qatar , Bahrain , and the United Arab Emirates to the east , Oman to the southeast and Yemen to the south ; it is separated from Israel and Egypt by the Gulf of Aqaba . It is the only nation with both a Red Sea coast and a Persian Gulf coast , and most of its terrain consists of arid desert , lowland and mountains . As of October 2018 , the Saudi economy was the largest in the Middle East and the 18th largest in the world . Saudi Arabia also has one of the world 's youngest populations ; 50 percent of its 33.4 million people are under 25 years old . The territory that now constitutes Saudi Arabia was the site of several ancient cultures and civilizations . The prehistory of Saudi Arabia shows some of the earliest traces of human activity in the world . The world 's second-largest religion , Islam , emerged in modern-day Saudi Arabia . In the early 7th century , the Islamic prophet Muhammad united the population of Arabia and created a single Islamic religious polity . Following his death in 632 , his followers rapidly expanded the territory under Muslim rule beyond Arabia , conquering huge and unprecedented swathes of territory ( from the Iberian Peninsula in the West to modern-day Pakistan in the East ) in a matter of decades . Arab dynasties originating from modern-day Saudi Arabia founded the Rashidun ( 632-661 ) , Umayyad ( 661-750 ) , Abbasid ( 750-1517 ) and Fatimid ( 909-1171 ) caliphates as well as numerous other dynasties in Asia , Africa and Europe .",
    "/wiki/Argentina": "Argentina ( Spanish : [ a\u027exen\u02c8tina ] ) , officially the Argentine Republic [ A ] ( Spanish : Rep\u00fablica Argentina ) , is a country located mostly in the southern half of South America . Sharing the bulk of the Southern Cone with Chile to the west , the country is also bordered by Bolivia and Paraguay to the north , Brazil to the northeast , Uruguay and the South Atlantic Ocean to the east , and the Drake Passage to the south . With a mainland area of 2,780,400 km2 ( 1,073,500 sq mi ) , [ B ] Argentina is the eighth-largest country in the world , the fourth largest in the Americas , the second largest in South America after Brazil , and the largest Spanish-speaking nation . The sovereign state is subdivided into twenty-three provinces ( Spanish : provincias , singular provincia ) and one autonomous city ( ciudad aut\u00f3noma ) , Buenos Aires , which is the federal capital of the nation ( Spanish : Capital Federal ) as decided by Congress . The provinces and the capital have their own constitutions , but exist under a federal system . Argentina claims sovereignty over part of Antarctica , the Falkland Islands ( Spanish : Islas Malvinas ) , and South Georgia and the South Sandwich Islands . The earliest recorded human presence in modern-day Argentina dates back to the Paleolithic period . The Inca Empire expanded to the northwest of the country in Pre-Columbian times . The country has its roots in Spanish colonization of the region during the 16th century . Argentina rose as the successor state of the Viceroyalty of the R\u00edo de la Plata , a Spanish overseas viceroyalty founded in 1776 . The declaration and fight for independence ( 1810-1818 ) was followed by an extended civil war that lasted until 1861 , culminating in the country 's reorganization as a federation of provinces with Buenos Aires as its capital city . The country thereafter enjoyed relative peace and stability , with several waves of European immigration , mainly Italians and Spaniards , radically reshaping its cultural and demographic outlook ; 62.5% of the population has full or partial Italian ancestry , and the Argentine culture has significant connections to the Italian culture .",
    "/wiki/Austria": "Austria ( /\u02c8\u0252stri\u0259/ ( listen ) , /\u02c8\u0254\u02d0s-/ ; German : \u00d6sterreich [ \u02c8\u00f8\u02d0st\u0250\u0281a\u026a\u032f\u00e7 ] ( listen ) ) , officially the Republic of Austria ( German : Republik \u00d6sterreich , listen ( help\u00b7info ) ) , is a landlocked East Alpine country in the southern part of Central Europe . It is composed of nine federated states ( Bundesl\u00e4nder ) , one of which is Vienna , Austria 's capital and its largest city . It is bordered by Germany to the northwest , Czech Republic to the north , Slovakia to the northeast , Hungary to the east , Slovenia and Italy to the south , and Switzerland and Liechtenstein to the west . Austria occupies an area of 83,879 km2 ( 32,386 sq mi ) and has a population of nearly 9 million people . While German is the country 's official language , many Austrians communicate informally in a variety of Bavarian dialects . Austria initially emerged as a margraviate around 976 and developed into a duchy and archduchy . In the 16th century , Austria started serving as the heart of the Habsburg Monarchy and the junior branch of the House of Habsburg - one of the most influential royal dynasties in history . As an archduchy , it was a major component and administrative centre of the Holy Roman Empire . Early in the 19th century , Austria established its own empire , which became a great power and the leading force of the German Confederation but pursued its own course independently of the other German states . Following the Austro-Prussian War and the compromise with Hungary , the Dual Monarchy was established . Austria was involved in World War I under Emperor Franz Joseph following the assassination of Archduke Ferdinand , the presumptive successor to the Austro-Hungarian throne . After the defeat and the dissolution of the Monarchy , the Republic of German-Austria was proclaimed with the intent of the union with Germany , which eventually failed because of the Allied Powers and the state remained unrecognized .",
    "/wiki/Rhodesia": "Rhodesia ( /ro\u028a\u02c8di\u02d0\u0292\u0259/ , /ro\u028a\u02c8di\u02d0\u0283\u0259/ ) was an unrecognised state in southern Africa from 1965 to 1979 , equivalent in territory to modern Zimbabwe . Rhodesia was the de facto successor state to the British colony of Southern Rhodesia , which had been self-governing since achieving responsible government in 1923 . A landlocked nation , Rhodesia was bordered by South Africa to the south , Bechuanaland ( later Botswana ) to the southwest , Zambia to the northwest , and Mozambique ( a Portuguese province until 1975 ) to the east . In the late 19th century , the territory north of the Transvaal was chartered to the British South Africa Company , led by Cecil Rhodes . Rhodes and his Pioneer Column marched north in 1890 , acquiring a huge block of territory that the company would rule until the early 1920s . In 1923 , the company 's charter was revoked , and Southern Rhodesia attained self-government and established a legislature . Between 1953 and 1963 , Southern Rhodesia was joined with Northern Rhodesia and Nyasaland in the Federation of Rhodesia and Nyasaland . The decolonisation of Africa in the early 1960s alarmed a significant proportion of Rhodesia 's white population . In an effort to delay the transition to black majority rule , Rhodesia 's predominantly white government issued its own Unilateral Declaration of Independence ( UDI ) from the United Kingdom on 11 November 1965 . ( The government of the United Kingdom supported Rhodesia 's transition to a multiracial democracy . ) The UDI administration initially sought recognition as an autonomous realm within the Commonwealth of Nations , but reconstituted itself as a republic in 1970 . The Rhodesian Bush War , which pitted the government against two African nationalist organisations , ZANU and ZAPU , intensified in the 1970s , prompting Rhodesian premier Ian Smith to concede to multiracial democracy in 1978 .",
    "/wiki/Azerbaijan": "Azerbaijan ( UK : /\u02cc\u00e6z\u0259rba\u026a\u02c8d\u0292\u0251\u02d0n , -\u02c8\u0292\u0251\u02d0n/ ( listen ) , US : /\u02cc\u0251\u02d0z\u0259rba\u026a\u02c8d\u0292\u0251\u02d0n , \u02cc\u00e6z-/ ; Azerbaijani : Az\u0259rbaycan [ \u0251\u02d0z\u00e6\u027eb\u0251j\u02c8d\u0361\u0292\u0251n ] ) , officially the Republic of Azerbaijan ( Azerbaijani : Az\u0259rbaycan Respublikas\u0131 [ \u0251\u02d0z\u00e6\u027eb\u0251j\u02c8d\u0361\u0292\u0251n \u027eespublik\u0251\u02c8s\u026f ] ) , is a landlocked country in the South Caucasus region of Eurasia at the crossroads of Eastern Europe and Central Asia . It is bounded by the Caspian Sea to the east , Russia to the north , Georgia to the northwest , Armenia to the west and Iran to the south . The exclave of Nakhchivan is bounded by Armenia to the north and east , Iran to the south and west , and has an 11 km ( 6.8 mi ) long border with Turkey in the northwest . The Azerbaijan Democratic Republic proclaimed its independence in 1918 and became the first secular democratic Muslim-majority state . In 1920 the country was incorporated into the Soviet Union as the Azerbaijan Soviet Socialist Republic . The modern Republic of Azerbaijan proclaimed its independence on 30 August 1991 , shortly before the dissolution of the USSR in the same year . In September 1991 , the Armenian majority of the disputed Nagorno-Karabakh region seceded to form the Republic of Artsakh . The region and seven adjacent districts outside it became de facto independent with the end of the Nagorno-Karabakh War in 1994 . These regions are internationally recognized as part of Azerbaijan pending a solution to the status of the Nagorno-Karabakh through negotiations facilitated by the OSCE . Azerbaijan is a unitary semi-presidential republic . It is one of six independent Turkic states and an active member of the Turkic Council and the T\u00dcRKSOY community . Azerbaijan has diplomatic relations with 158 countries and holds membership in 38 international organizations , including the United Nations ( since 1992 ) , the Council of Europe , the Non-Aligned Movement , the OSCE , and the NATO Partnership for Peace ( PfP ) program .",
    "/wiki/Diplomatic_recognition": "Diplomatic recognition in international law is a unilateral political act with domestic and international legal consequences whereby a state acknowledges an act or status of another state or government in control of a state ( may be also a recognized state ) . Recognition can be reaccorded either de facto or de jure . Recognition can be a declaration to that effect by the recognizing government , or an act of recognition such as entering into a treaty with the other state . A vote by a country in the United Nations in favour of the membership of another country is an implicit recognition of that country by the country so voting , as only states may be members of the UN . The non-recognition of particular acts of a state does not normally affect the recognition of the state itself . For example , the international rejection of the occupation of particular territory by a recognised state does not imply non-recognition of the state itself , nor a rejection of a change of government by illegal means .",
    "/wiki/Belarus": "Belarus ( /b\u025bl\u0259\u02c8ru\u02d0s/ ; Belarusian : \u0411\u0435\u043b\u0430\u0440\u0443\u0441\u044c , IPA : [ b\u02b2\u025bla\u02c8rus\u02b2 ] ) , officially the Republic of Belarus ( Belarusian : \u0420\u044d\u0441\u043f\u0443\u0431\u043b\u0456\u043a\u0430 \u0411\u0435\u043b\u0430\u0440\u0443\u0441\u044c , Russian : \u0420\u0435\u0441\u043f\u0443\u0431\u043b\u0438\u043a\u0430 \u0411\u0435\u043b\u0430\u0440\u0443\u0441\u044c ) , formerly known by its Russian name Byelorussia or Belorussia ( Russian : \u0411\u0435\u043b\u043e\u0440\u0443\u0441\u0441\u0438\u044f ) , is a landlocked country in Eastern Europe bordered by Russia to the northeast , Ukraine to the south , Poland to the west , and Lithuania and Latvia to the northwest . Its capital and most populous city is Minsk . Over 40% of its 207,600 square kilometres ( 80,200 sq mi ) is forested . Its major economic sectors are service industries and manufacturing . Until the 20th century , different states at various times controlled the lands of modern-day Belarus , including the Principality of Polotsk ( 11th to 14th centuries ) , the Grand Duchy of Lithuania , the Polish-Lithuanian Commonwealth , and the Russian Empire . In the aftermath of the 1917 Russian Revolution , Belarus declared independence as the Belarusian People 's Republic , which was conquered by Soviet Russia . The Socialist Soviet Republic of Byelorussia became a founding constituent republic of the Soviet Union in 1922 and was renamed as the Byelorussian Soviet Socialist Republic ( Byelorussian SSR ) . Belarus lost almost half of its territory to Poland after the Polish-Soviet War of 1919-1921 . Much of the borders of Belarus took their modern shape in 1939 , when some lands of the Second Polish Republic were reintegrated into it after the Soviet invasion of Poland , and were finalized after World War II . During WWII , military operations devastated Belarus , which lost about a quarter of its population and half of its economic resources . The republic was redeveloped in the post-war years . In 1945 the Byelorussian SSR became a founding member of the United Nations , along with the Soviet Union and the Ukrainian SSR .",
    "/wiki/Bolivia": "Bolivia ( /b\u0259\u02c8l\u026avi\u0259/ ( listen ) Spanish pronunciation : [ bo.\u02c8li.\u03b2ja ] ) , officially the Plurinational State of Bolivia ( Spanish : Estado Plurinacional de Bolivia Spanish pronunciation : [ es\u02c8ta\u00f0o plu\u027einasjo\u02c8nal de \u03b2o\u02c8li\u03b2ja ] ( listen ) ) , is a landlocked country located in western-central South America . The capital is Sucre , while the seat of government and financial center is located in La Paz . The largest city and principal industrial center is Santa Cruz de la Sierra , located on the Llanos Orientales ( tropical lowlands ) , a mostly flat region in the east of the country . The sovereign state of Bolivia is a constitutionally unitary state , divided into nine departments . Its geography varies from the peaks of the Andes in the West , to the Eastern Lowlands , situated within the Amazon Basin . It is bordered to the north and east by Brazil , to the southeast by Paraguay , to the south by Argentina , to the southwest by Chile , and to the northwest by Peru . One-third of the country is within the Andean mountain range . With 1,098,581 km2 ( 424,164 sq mi ) of area , Bolivia is the fifth largest country in South America , after Brazil , Argentina , Peru and Colombia ( and alongside Paraguay , one of the only two landlocked countries in the Americas ) , the 27th largest in the world , the largest landlocked country in the Southern Hemisphere and the world 's seventh largest landlocked country , after Kazakhstan , Mongolia , Chad , Niger , Mali and Ethiopia . The country 's population , estimated at 11 million , is multiethnic , including Amerindians , Mestizos , Europeans , Asians and Africans . Spanish is the official and predominant language , although 36 indigenous languages also have official status , of which the most commonly spoken are Guarani , Aymara and Quechua languages . Before Spanish colonization , the Andean region of Bolivia was part of the Inca Empire , while the northern and eastern lowlands were inhabited by independent tribes . Spanish conquistadors arriving from Cuzco and Asunci\u00f3n took control of the region in the 16th century .",
    "/wiki/Brazil": "Brazil ( Portuguese : Brasil ; Portuguese pronunciation : [ b\u027ea\u02c8ziw ] ) , [ nt 1 ] officially the Federative Republic of Brazil ( Portuguese : Rep\u00fablica Federativa do Brasil , listen ( help\u00b7info ) ) , is the largest country in both South America and Latin America . At 8.5 million square kilometers ( 3.2 million square miles ) and with over 211 million people , Brazil is the world 's fifth-largest country by area and the sixth most populous . Its capital is Bras\u00edlia , and its most populous city is S\u00e3o Paulo . The federation is composed of the union of the 26 states , the Federal District , and the 5,570 municipalities . It is the largest country to have Portuguese as an official language and the only one in the Americas ; it is also one of the most multicultural and ethnically diverse nations , due to over a century of mass immigration from around the world . Bounded by the Atlantic Ocean on the east , Brazil has a coastline of 7,491 kilometers ( 4,655 mi ) . It borders all other countries in South America except Ecuador and Chile and covers 47.3% of the continent 's land area . Its Amazon River basin includes a vast tropical forest , home to diverse wildlife , a variety of ecological systems , and extensive natural resources spanning numerous protected habitats . This unique environmental heritage makes Brazil one of 17 megadiverse countries , and is the subject of significant global interest and debate regarding deforestation and environmental protection . Brazil was inhabited by numerous tribal nations prior to the landing in 1500 of explorer Pedro \u00c1lvares Cabral , who claimed the area for the Portuguese Empire . Brazil remained a Portuguese colony until 1808 , when the capital of the empire was transferred from Lisbon to Rio de Janeiro . In 1815 , the colony was elevated to the rank of kingdom upon the formation of the United Kingdom of Portugal , Brazil and the Algarves .",
    "/wiki/Bulgaria": "Bulgaria ( /b\u028cl\u02c8\u0261\u025b\u0259ri\u0259 , b\u028al-/ ( listen ) ; Bulgarian : \u0411\u044a\u043b\u0433\u0430\u0440\u0438\u044f , romanized : Balgariya ) , officially the Republic of Bulgaria ( Bulgarian : \u0420\u0435\u043f\u0443\u0431\u043b\u0438\u043a\u0430 \u0411\u044a\u043b\u0433\u0430\u0440\u0438\u044f , romanized : Republika Balgariya , IPA : [ r\u025b\u02c8publik\u0250 b\u0250\u026b\u02c8\u0261arij\u0250 ] ) , is a country in Southeast Europe . It is bordered by Romania to the north , Serbia and North Macedonia to the west , Greece and Turkey to the south , and the Black Sea to the east . The capital and largest city is Sofia ; other major cities are Plovdiv , Varna and Burgas . With a territory of 110,994 square kilometres ( 42,855 sq mi ) , Bulgaria is Europe 's 16th-largest country . One of the earliest societies in the lands of modern-day Bulgaria was the Neolithic Karanovo culture , which dates back to 6,500 BC . In the 6th to 3rd century BC the region was a battleground for Thracians , Persians , Celts and ancient Macedonians ; stability came when the Roman Empire conquered the region in AD 45 . The Eastern Roman , or Byzantine , Empire lost some of these territories to an invading Bulgar horde in the late 7th century . The Bulgars founded the First Bulgarian Empire in AD 681 , which dominated most of the Balkans and significantly influenced Slavic cultures by developing the Cyrillic script . This state lasted until the early 11th century , when Byzantine emperor Basil II conquered and dismantled it . A successful Bulgarian revolt in 1185 established a Second Bulgarian Empire , which reached its apex under Ivan Asen II ( 1218-1241 ) . After numerous exhausting wars and feudal strife , the Second Bulgarian Empire disintegrated in 1396 and its territories fell under Ottoman rule for nearly five centuries . The Russo-Turkish War of 1877-78 resulted in the formation of the current Third Bulgarian State .",
    "/wiki/Burundi": "Burundi ( /b\u0259\u02c8r\u028andi/ ( listen ) , /-\u02c8r\u028cn-/ ) , officially the Republic of Burundi ( Kirundi : Republika y'Uburundi , [ u.\u03b2u.\u027e\u01d4\u02d0.ndi ] ; French : R\u00e9publique du Burundi , [ bu\u0281undi ] or [ by\u0281yndi ] ) , is a landlocked country in the Great Rift Valley where the African Great Lakes region and East Africa converge . It is bordered by Rwanda to the north , Tanzania to the east and southeast , and the Democratic Republic of the Congo to the west ; Lake Tanganyika lies along its southwestern border . The capital is Bujumbura . The Twa , Hutu and Tutsi peoples have lived in Burundi for at least 500 years . For more than 200 of those years , Burundi was an independent kingdom , until the beginning of the 20th century , when Germany colonised the region . After the First World War and Germany 's defeat , it ceded the territory to Belgium . Both Germans and Belgians ruled Burundi and Rwanda as a European colony known as Ruanda-Urundi . Despite common misconceptions , Burundi and Rwanda had never been under common rule until the time of European colonisation . Burundi gained independence in 1962 and initially had a monarchy , but a series of assassinations , coups and a general climate of regional instability culminated in the establishment of a republic and one-party state in 1966 . Bouts of ethnic cleansing and ultimately two civil wars and genocides during the 1970s and again in the 1990s left the economy undeveloped and the population as one of the world 's poorest . The presidents of Rwanda and Burundi , both Hutus , died together when their aeroplane was shot down in April 1994 . 2015 witnessed large-scale political strife as President Pierre Nkurunziza opted to run for a third term in office , a coup attempt failed and the country 's parliamentary and presidential elections were broadly criticised by members of the international community .",
    "/wiki/China": "China ( Chinese : \u4e2d\u56fd ; pinyin : Zh\u014dnggu\u00f3 ) , officially the People 's Republic of China ( PRC ) , is a country in East Asia and is the world 's most populous country , with a population of around 1.428 billion in 2017 . Covering approximately 9,600,000 square kilometers ( 3,700,000 sq mi ) , it is the third largest country by area . [ j ] Governed by the Communist Party of China , the state exercises jurisdiction over 22 provinces , [ k ] five autonomous regions , four direct-controlled municipalities ( Beijing , Tianjin , Shanghai , and Chongqing ) , and the special administrative regions of Hong Kong and Macau . China emerged as one of the world 's first civilizations , in the fertile basin of the Yellow River in the North China Plain . For millennia , China 's political system was based on hereditary monarchies , or dynasties , beginning with the semi-mythical Xia dynasty in 21st century BCE . Since then , China has expanded , fractured , and re-unified numerous times . In the 3rd century BCE , the Qin reunited core China and established the first Chinese empire . The succeeding Han dynasty , which ruled from 206 BCE until 220 CE , saw some of the most advanced technology at that time , including papermaking and the compass , along with agricultural and medical improvements . The invention of gunpowder and movable type in the Tang dynasty ( 618-907 ) and Northern Song ( 960-1127 ) completed the Four Great Inventions . Tang culture spread widely in Asia , as the new Silk Route brought traders to as far as Mesopotamia and the Horn of Africa . Dynastic rule ended in 1912 with the Xinhai Revolution , when the Republic of China ( ROC ) replaced the Qing dynasty . China , as a whole , was ravaged by feudal warlordism and Japan during World War II .",
    "/wiki/Xue_Hanqin": "Xue Hanqin ( \u859b\u634d\u52e4 , born 15 September 1955 , Shanghai , People 's Republic of China ) is a Chinese jurist at the International Court of Justice . On 29 June 2010 , she was elected to fill the vacancy created by Shi Jiuyong 's resignation on 28 May 2010 . She is one of three female judges serving on the ICJ and one of only four women elected as members of the Court to date . Xue is the fifth Chinese judge at the ICJ , and the third representing the People 's Republic of China ( see Judges of the International Court of Justice ) . Having been re-elected to the Court in 2011 , Xue 's term will expire on 5 February 2021 . On the sixth of February 2012 , Xue was appointed as Vice President of the International Court of Justice .",
    "/wiki/Cyprus": "Cyprus ( /\u02c8sa\u026apr\u0259s/ ( listen ) ; Greek : \u039a\u03cd\u03c0\u03c1\u03bf\u03c2 [ \u02c8cipros ] ; Turkish : K\u0131br\u0131s [ \u02c8k\u026fb\u027e\u026fs ] ) , officially the Republic of Cyprus ( Greek : \u039a\u03c5\u03c0\u03c1\u03b9\u03b1\u03ba\u03ae \u0394\u03b7\u03bc\u03bf\u03ba\u03c1\u03b1\u03c4\u03af\u03b1 , lit . Cypriot Republic ; Turkish : K\u0131br\u0131s Cumhuriyeti , lit . Republic of Cyprus ) , is an island country in the Eastern Mediterranean and the third-largest and third-most populous island in the Mediterranean , located south of Turkey , west of Syria and Lebanon , north of Israel , the Gaza Strip ( Palestinian region ) and Egypt , and southeast of Greece . The earliest known human activity on the island dates to around the 10th millennium BC . Archaeological remains from this period include the well-preserved Neolithic village of Khirokitia , and Cyprus is home to some of the oldest water wells in the world . Cyprus was settled by Mycenaean Greeks in two waves in the 2nd millennium BC . As a strategic location in the Middle East , it was subsequently occupied by several major powers , including the empires of the Assyrians , Egyptians and Persians , from whom the island was seized in 333 BC by Alexander the Great . Subsequent rule by Ptolemaic Egypt , the Classical and Eastern Roman Empire , Arab caliphates for a short period , the French Lusignan dynasty and the Venetians , was followed by over three centuries of Ottoman rule between 1571 and 1878 ( de jure until 1914 ) . Cyprus was placed under the UK 's administration based on the Cyprus Convention in 1878 and was formally annexed by the UK in 1914 . While Turkish Cypriots made up 18% of the population , the partition of Cyprus and creation of a Turkish state in the north became a policy of Turkish Cypriot leaders and Turkey in the 1950s . Turkish leaders for a period advocated the annexation of Cyprus to Turkey as Cyprus was considered an extension of Anatolia by them ; while , since the 19th century , the majority Greek Cypriot population and its Orthodox church had been pursuing union with Greece , which became a Greek national policy in the 1950s . Following nationalist violence in the 1950s , Cyprus was granted independence in 1960 .",
    "/wiki/Croatia": "Croatia ( /kro\u028a\u02c8e\u026a\u0283\u0259/ ( listen ) , kroh-AY-sh\u0259 ; Croatian : Hrvatska , pronounced [ x\u0159\u0329\u028ba\u02d0tska\u02d0 ] ) , officially the Republic of Croatia ( Croatian : Republika Hrvatska , listen ( help\u00b7info ) ) , [ d ] is a country in Southeast Europe . It borders Slovenia to the northwest , Hungary to the northeast , Serbia to the east , Bosnia and Herzegovina , and Montenegro to the southeast , sharing a maritime border with Italy . Its capital , Zagreb , forms one of the country 's primary subdivisions , along with twenty counties . Croatia has an area of 56,594 square kilometres ( 21,851 square miles ) and a population of 4.28 million , most of whom are Roman Catholics . Croatia has been inhabited since the Paleolithic Age . The Croats arrived in the area in the 6th century and organised the territory into two duchies by the 9th century . Croatia was first internationally recognized as an independent state on 7 June 879 during the reign of duke Branimir . Tomislav became the first king by 925 , elevating Croatia to the status of a kingdom , which retained its sovereignty for nearly two centuries . During the succession crisis after the Trpimirovi\u0107 dynasty ended , Croatia entered a personal union with Hungary in 1102 . In 1527 , faced with Ottoman conquest , the Croatian Parliament elected Ferdinand I of Austria to the Croatian throne . In October 1918 , in the final days of World War I , the State of Slovenes , Croats and Serbs , independent from Austria-Hungary , was proclaimed in Zagreb , and in December 1918 it was merged into the Kingdom of Serbs , Croats and Slovenes ( renamed the Kingdom of Yugoslavia in 1929 ) . Following the Axis invasion of Yugoslavia in April 1941 , most of the Croatian territory was incorporated into a Nazi-backed client-state , the Independent State of Croatia .",
    "/wiki/Denmark": "Denmark ( Danish : Danmark , pronounced [ \u02c8t\u00e6nmak ] ( listen ) ) , officially the Kingdom of Denmark , [ N 10 ] [ N 2 ] is a Nordic country in Northwest Europe . Denmark proper , which is the southernmost of the Scandinavian countries , consists of a peninsula , Jutland , and an archipelago of 443 named islands , [ N 2 ] with the largest being Zealand , Funen and the North Jutlandic Island . The islands are characterised by flat , arable land and sandy coasts , low elevation and a temperate climate . The southernmost of the Scandinavian nations , Denmark lies southwest of Sweden and south of Norway , [ N 11 ] and is bordered to the south by Germany . The Kingdom of Denmark also includes two autonomous territories in the North Atlantic Ocean : the Faroe Islands and Greenland . Denmark has a total area of 42,924 km2 ( 16,573 sq mi ) , land area of 42,394 km2 ( 16,368 sq mi ) , and the total area including Greenland and the Faroe Islands is 2,210,579 km2 ( 853,509 sq mi ) , and a population of 5.8 million in Denmark proper ( Danish egentlige Danmark ) ( as of 2020 [ update ] ) . The unified kingdom of Denmark emerged in the 8th century as a proficient seafaring nation in the struggle for control of the Baltic Sea . Denmark , Sweden , and Norway were ruled together under one sovereign ruler in the Kalmar Union , established in 1397 and ending with Swedish secession in 1523 . The areas of Denmark and Norway remained under the same monarch until 1814 , Denmark-Norway . Beginning in the 17th century , there were several devastating wars with the Swedish Empire , ending with large cessions of territory to Sweden . After the Napoleonic Wars , Norway was ceded to Sweden , while Denmark kept the Faroe Islands , Greenland , and Iceland . In the 19th century there was a surge of nationalist movements , which were defeated in the First Schleswig War .",
    "/wiki/Spain": "Spain ( Spanish : Espa\u00f1a [ es\u02c8pa\u0272a ] ( listen ) ) , officially the Kingdom of Spain ( Spanish : Reino de Espa\u00f1a ) , [ a ] [ b ] is a country in Southwestern Europe with some pockets of Spanish territory across the Strait of Gibraltar and the Atlantic Ocean . Its continental European territory is situated on the Iberian Peninsula . Its territory also includes two archipelagoes : the Canary Islands off the coast of Africa , and the Balearic Islands in the Mediterranean Sea . The African enclaves of Ceuta , Melilla , and Pe\u00f1\u00f3n de V\u00e9lez de la Gomera make Spain the only European country to have a physical border with an African country ( Morocco ) . [ h ] Several small islands in the Alboran Sea are also part of Spanish territory . The country 's mainland is bordered to the south and east by the Mediterranean Sea except for a small land boundary with Gibraltar ; to the north and northeast by France , Andorra , and the Bay of Biscay ; and to the west and northwest by Portugal and the Atlantic Ocean . With an area of 505,990 km2 ( 195,360 sq mi ) , Spain is the largest country in Southern Europe , the second largest country in Western Europe and the European Union , and the fourth largest country in the European continent . By population ( about 47 million ) , Spain is the sixth largest in Europe and the fifth in the European Union . Spain 's capital and largest city is Madrid ; other major urban areas include Barcelona , Valencia , Seville , Zaragoza , M\u00e1laga and Bilbao . Modern humans first arrived in the Iberian Peninsula around 35,000 years ago . Iberian cultures along with ancient Phoenician , Greek , Celtic and Carthaginian settlements developed on the peninsula until it came under Roman rule around 200 BCE , after which the region was named Hispania , based on the earlier Phoenician name Sp ( a ) n or Spania . At the end of the Western Roman Empire the Germanic tribal confederations migrated from Central Europe , invaded the Iberian peninsula and established relatively independent realms in its western provinces , including the Suebi , Alans and Vandals .",
    "/wiki/United_States": "The United States of America ( USA ) , commonly known as the United States ( U.S. or US ) or America , is a country consisting of 50 states , a federal district , five major self-governing territories , and various possessions . [ g ] At 3.8 million square miles ( 9.8 million km2 ) , it is the world 's third or fourth-largest country by total area [ b ] and is slightly smaller than the entire continent of Europe . Most of the country is located in central North America between Canada and Mexico . With an estimated population of over 328 million , the U.S. is the third most populous country in the world . The capital is Washington , D.C. , and the most populous city is New York City . Paleo-Indians migrated from Siberia to the North American mainland at least 12,000 years ago . European colonization began in the 16th century . The United States emerged from the thirteen British colonies established along the East Coast . Numerous disputes between Great Britain and the colonies led to the American Revolutionary War lasting between 1775 and 1783 , leading to independence . The United States embarked on a vigorous expansion across North America throughout the 19th century - gradually acquiring new territories , displacing Native Americans , and admitting new states - until by 1848 it spanned the continent . During the second half of the 19th century , the American Civil War led to the abolition of slavery in the United States . The Spanish-American War and World War I confirmed the country 's status as a global military power .",
    "/wiki/Harold_Hongju_Koh": "Harold Hongju Koh ( born December 8 , 1954 ) is an American lawyer and legal scholar . He served as the Legal Adviser of the Department of State . He was nominated to this position by President Barack Obama on March 23 , 2009 , and confirmed by the Senate on June 25 , 2009 . He departed as the State Department 's legal adviser in January 2013 , and returned to Yale University as a law professor , being named a Sterling Professor of International Law .",
    "/wiki/Russia": "Russia ( Russian : \u0420\u043e\u0441\u0441\u0438\u0301\u044f , tr . Rossiya , IPA : [ r\u0250\u02c8s\u02b2ij\u0259 ] ) , or the Russian Federation , [ e ] is a European country located in Eastern Europe with a vast expanse of territory that stretches across Northern Asia . At 17,125,200 square kilometres ( 6,612,100 sq mi ) , it is by far the largest country in the world by area , covering more than one-eighth of the Earth 's inhabited land area , spanning eleven time zones , and bordering 16 sovereign nations . The territory of Russia extends from the Baltic Sea in the west to the Pacific Ocean in the east , and from the Arctic Ocean in the north to the Black Sea and the Caucasus in the south . With 146.7 million inhabitants living in the country 's 85 federal subjects as of 2020 , Russia is the most populous nation in Europe and the ninth-most populous nation in the world . Russia 's capital and largest city is Moscow ; other major urban areas include Saint Petersburg , Novosibirsk , Yekaterinburg , Nizhny Novgorod , Kazan and Chelyabinsk . The East Slavs emerged as a recognizable group in Europe between the 3rd and 8th centuries AD . Founded and ruled by a Varangian warrior elite and their descendants , the medieval state of Rus arose in the 9th century . In 988 it adopted Orthodox Christianity from the Byzantine Empire , beginning the synthesis of Byzantine and Slavic cultures that defined Russian culture for the next millennium . Rus ultimately disintegrated into a number of smaller states , until it was finally reunified by the Grand Duchy of Moscow in the 15th century . By the 18th century , the nation had greatly expanded through conquest , annexation , and exploration to become the Russian Empire , which was the third largest empire in history , stretching from Poland on the west to Alaska on the east . Following the Russian Revolution , the Russian Soviet Federative Socialist Republic ( Russian SFSR ) became the largest and leading constituent of the Union of Soviet Socialist Republics ( USSR/Soviet Union ) , the world 's first constitutionally socialist state .",
    "/wiki/Kirill_Gevorgian": "Kirill Gevorgian ( Russian : \u041a\u0438\u0440\u0438\u043b\u043b \u0413\u0435\u0432\u043e\u0440\u0433\u044f\u043d ; born 8 April 1953 ) is a Russian diplomat and jurist . From 2003 to 2009 , he served as Russia 's ambassador to the Netherlands . In 2014 , he was elected to the International Court of Justice for a term beginning the following year ."
  }
}