{
  "Central_Committee_elected_by_the_12th_Congress_of_the_Russian_Communist_Party_(Bolsheviks)_1": {
    "/wiki/Andrey_Andreyevich_Andreyev": "Andrey Andreyevich Andreyev ( ; 30 October 1895 - 5 December 1971 ) was a Soviet Communist politician who rose to power during the rule of Joseph Stalin , joining the Politburo as a candidate member in 1926 and as a full member in 1932 . Andreyev also headed the powerful Central Control Commission of the Communist Party of the Soviet Union from 1930 to 1931 and then again from 1939 until 1952 . In 1952 Andreyev was removed from the Politburo and placed in a largely ceremonial position as a member of the Presidium of the Supreme Soviet .",
    "/wiki/Russians": "Russians ( Russian : \u0440\u0443\u0441\u0441\u043a\u0438\u0435 , tr . russkiye , IPA : \u02c8rusk\u02b2\u026aje ) are an East Slavic ethnic group native to European Russia and other parts of Eastern Europe ( some territories of the former Tsardom of Russia and Russian Empire ) ; they are the most numerous ethnic group in Europe . The majority of ethnic Russians live in the Russian Federation , but notable minorities exist in other former Soviet states such as Belarus , Kazakhstan , Moldova , Ukraine and the Baltic states . A large Russian diaspora ( sometimes including Russophones , i.e . Russian-speaking non-Russians ) has developed all over the world , with notable numbers in the United States , Germany , Brazil , and Canada . The culture of the ethnic Russian people has a long tradition and it is a foundation for the modern culture of the whole of Russia . The Russian language originally was the language of ethnic Russians . They are historically Orthodox Christians by religion . The ethnic Russians formed from East Slavic tribes and their cultural ancestry is based in Kievan Rus ' . The Russian word for ethnic Russians is derived from the people of Rus ' and the territory of Rus ' . The Russians share many historical and cultural traits with other European peoples , and especially with other East Slavic ethnic groups , specifically Belarusians and Ukrainians . Many ethnic groups had a common history within the former Soviet Union and Russian Empire , which was influential in the spreading of Russian culture and language .",
    "/wiki/Nikolai_Bukharin": "Nikolai Ivanovich Bukharin ( - 15 March 1938 ) was a Bolshevik revolutionary , Soviet Union politician and prolific author on revolutionary theory . As a young man , he spent six years in exile working closely with fellow exiles Vladimir Lenin and Leon Trotsky . After the revolution of February 1917 , he returned to Moscow , where his Bolshevik credentials earned him a high rank in the Bolshevik party and after the October Revolution became editor of the party newspaper Pravda . Within the Bolshevik Party , Bukharin was initially a left communist , but gradually moved from the left to the right from 1921 . His strong support for and defence of the New Economic Policy ( NEP ) eventually saw him lead the Right Opposition . By late 1924 , this stance had positioned Bukharin favourably as Joseph Stalin 's chief ally , with Bukharin soon elaborating Stalin 's new theory and policy of socialism in one country . Together , Bukharin and Stalin ousted Trotsky , Grigory Zinoviev and Lev Kamenev from the party at the XVth Communist Party Congress in December 1927 . From 1926 to 1929 , Bukharin enjoyed great power as General Secretary of the Comintern 's executive committee . However , Stalin 's decision to proceed with collectivisation drove the two men apart and Bukharin was expelled from the Politburo in 1929 . When the Great Purge began in 1936 , Stalin looked for any pretext to liquidate his former allies and rivals for power and some of Bukharin 's letters , conversations and tapped phone-calls indicated disloyalty . Arrested in February 1937 , he was charged with conspiring to overthrow the Soviet state . After a show trial that alienated many Western communist sympathisers , he was executed in March 1938 .",
    "/wiki/Pravda": "Pravda ( , Truth ) is a Russian broadsheet newspaper , formerly the official newspaper of the Communist Party of the Soviet Union , when it was one of the most influential papers in the country with a circulation of 11 million . The newspaper began publication on 5 May 1912 in the Russian Empire , but was already extant abroad in January 1911 . It emerged as a leading newspaper of the Soviet Union after the October Revolution . The newspaper was an organ of the Central Committee of the CPSU between 1912 and 1991 . After the dissolution of the Soviet Union Pravda was sold off by Russian President Boris Yeltsin to a Greek business family in 1996 , and the paper came under the control of their private company Pravda International . In 1996 , there was an internal dispute between the owners of Pravda International and some of the Pravda journalists which led to Pravda splitting into different entities . The Communist Party of the Russian Federation acquired the Pravda paper , while some of the original Pravda journalists separated to form Russia 's first online paper ( and the first online English paper ) Pravda.ru , which is not connected to the Communist Party . After a legal dispute between the rival parties , the Russian court of arbitration stipulated that both entities would be allowed to continue using the Pravda name . The Pravda paper is today run by the Communist Party of the Russian Federation , whereas the online Pravda.ru is privately owned and has international editions published in Russian , English , French and Portuguese .",
    "/wiki/Vlas_Chubar": "Vlas Yakovlevich Chubar ( ; ) ( - 26 February 1939 ) was a Ukrainian Bolshevik revolutionary and a Soviet politician . Chubar was arrested during the Great Terror of 1937-38 and executed early in 1939 . The top Communist Party official in the Ukraine during the 1932-33 famine , Chubar was posthumously held culpable for those events by a Ukrainian court in 2010 .",
    "/wiki/Ukrainians": "Ukrainians ( Ukrainian : \u0443\u043a\u0440\u0430\u0457\u043d\u0446\u0456 , romanized : ukrayintsi , pronounced [ \u028akr\u0250\u02c8jin\u02b2ts\u207d\u02b2\u207ei ] ) , historically also called Ruthenians , are an East Slavic ethnic group native to Ukraine , which is by total population the seventh-largest nation in Europe and the second-largest among the East Slavs after the Russians . The Constitution of Ukraine applies the term 'Ukrainians ' to all its citizens . The people of Ukraine have historically been known as Rusyns ( Carpatho-Ruthenians ) , Little Russians , and Cossacks , among others . The connection with the Zaporozhian Cossacks especially , is emphasized in the Ukrainian national anthem , We are , brothers , of Cossack kin . According to most dictionary definitions , a descriptive name for the inhabitants of Ukraine is Ukrainian or Ukrainian people . The majority of Ukrainians are Eastern Orthodox Christians .",
    "/wiki/Ukrainian_Soviet_Socialist_Republic": "The Ukrainian Soviet Socialist Republic ( Ukrainian SSR or UkrSSR or UkSSR ; , \u0423\u0420\u0421\u0420 ; , \u0423\u0421\u0421\u0420 ; see Name section below ) , also known as Soviet Ukraine , was one of the constituent republics of the Soviet Union from the Union 's inception in 1922 to its breakup in 1991 . The republic was governed by the Communist Party of Ukraine as a unitary one-party socialist soviet republic . The Ukrainian SSR was a founding member of the United Nations , although it was legally represented by the All-Union state in its affairs with countries outside of the Soviet Union . Upon the Soviet Union 's dissolution and perestroika , the Ukrainian SSR was transformed into the modern nation-state and renamed itself as Ukraine . Throughout its 72-year history , the republic 's borders changed many times , with a significant portion of what is now Western Ukraine being annexed by Soviet forces in 1939 from the Republic of Poland , and the addition of Zakarpattia in 1946 . From the start , the eastern city of Kharkiv served as the republic 's capital . However , in 1934 , the seat of government was subsequently moved to the city of Kiev , Ukraine 's historic capital . Kiev remained the capital for the rest of the Ukrainian SSR 's existence , and remained the capital of independent Ukraine after the breakup of the Soviet Union . Geographically , the Ukrainian SSR was situated in Eastern Europe to the north of the Black Sea , bordered by the Soviet republics of Moldavia , Byelorussia , and the Russian SFSR . The Ukrainian SSR 's border with Czechoslovakia formed the Soviet Union 's western-most border point . According to the Soviet Census of 1989 the republic had a population of 51,706,746 inhabitants , which fell sharply after the breakup of the Soviet Union . On 1 January 2018 , according to the State Statistics Committee of Ukraine the population of the country was 42,216,766 permanent residents .",
    "/wiki/Felix_Dzerzhinsky": "Felix Edmundovich Dzerzhinsky ( ; ; 20 July 1926 ) , nicknamed Iron Felix , was a Bolshevik revolutionary and official . Born into Polish nobility , from 1917 until his death in 1926 Dzerzhinsky led the first two Soviet state-security organizations , the Cheka and the OGPU , establishing a secret police for the post-revolutionary Soviet government . He was one of the architects of the Red Terror and Decossackization .",
    "/wiki/Poles": "The Poles ( Polish : Polacy , pronounced [ p\u0254\u02c8lat\u0361s\u0268 ] ; singular masculine : Polak , singular feminine : Polka ) , commonly referred to as the Polish people , are a nation and Lechitic ( West Slavic ) ethnic group native to Poland in Central Europe who share a common ancestry , culture , history , and are native speakers of the Polish language . The population of self-declared Poles in Poland is estimated at 37,394,000 out of an overall population of 38,538,000 ( based on the 2011 census ) , of whom 36,522,000 declared Polish alone . A wide-ranging Polish diaspora ( the Polonia ) exists throughout Europe , the Americas , and in Australasia . Today , the largest urban concentrations of Poles are within the Warsaw and Silesian metropolitan areas . Poland 's history dates back over a thousand years , to c. 930-960 AD , when the Western Polans - an influential tribe in the Greater Poland region , now home to such cities as Pozna\u0144 , Gniezno , Kalisz , Konin and Wrze\u015bnia - united various Lechitic clans under what became the Piast dynasty , thus creating the first Polish state . The subsequent Christianization of Poland by the Catholic Church , in 966 CE , marked Poland 's advent to the community of Western Christendom . However , throughout its existence , the Polish state followed a tolerant policy towards minorities resulting in numerous ethnic and religious identities of the Poles , such as Polish Jews . Poles have made important contributions to the world in every major field of human endeavor , among them Copernicus , Marie Curie , Joseph Conrad , Fryderyk Chopin and Pope John Paul II . Notable Polish \u00e9migr\u00e9s - many of them forced from their homeland by historic vicissitudes - have included physicist Joseph Rotblat , mathematician Stanis\u0142aw Ulam , pianist Arthur Rubinstein , actresses Helena Modjeska and Pola Negri , military leaders Tadeusz Ko\u015bciuszko and Casimir Pulaski , U.S. National Security Advisor Zbigniew Brzezinski , politician Rosa Luxemburg , painter Tamara de Lempicka , filmmakers Samuel Goldwyn and the Warner Brothers , cartoonist Max Fleischer , and cosmeticians Helena Rubinstein and Max Factor .",
    "/wiki/State_Political_Directorate": "The State Political Directorate ( also translated as the State Political Administration ) ( GPU ) was the intelligence service and secret police of the Russian Soviet Federative Socialist Republic ( RSFSR ) from February 6 , 1922 to December 29 , 1922 and the Soviet Union from December 29 , 1922 until November 15 , 1923 .",
    "/wiki/Russian_Soviet_Federative_Socialist_Republic": "The Russian Soviet Federative Socialist Republic ( Russian SFSR or RSFSR ; Russian : \u0420\u043e\u0441\u0441\u0438\u0301\u0439\u0441\u043a\u0430\u044f \u0421\u043e\u0432\u0435\u0301\u0442\u0441\u043a\u0430\u044f \u0424\u0435\u0434\u0435\u0440\u0430\u0442\u0438\u0301\u0432\u043d\u0430\u044f \u0421\u043e\u0446\u0438\u0430\u043b\u0438\u0441\u0442\u0438\u0301\u0447\u0435\u0441\u043a\u0430\u044f \u0420\u0435\u0441\u043f\u0443\u0431\u043b\u0438\u043a\u0430 , tr . Rossiysk\u00e1ya Sovetsk\u00e1ya Federat\u00edvnaya Socialist\u00edcheskaya Respublika , IPA : [ r\u0250\u02c8s\u02b2ijsk\u0259j\u0259 s\u0250\u02c8v\u02b2\u025btsk\u0259j\u0259 f\u02b2\u026ad\u02b2\u026ar\u0250\u02c8t\u02b2ivn\u0259j\u0259 s\u0259ts\u0268\u0259l\u02b2\u026a\u02c8s\u02b2t\u02b2it\u0255\u026ask\u0259j\u0259 r\u02b2\u026a\u02c8spubl\u02b2\u026ak\u0259 ] ( listen ) ) , previously known as the Russian Soviet Republic and the Russian Socialist Federative Soviet Republic , as well as being unofficially known as the Russian Federation , Soviet Russia , or simply Russia , was an independent state from 1917 to 1922 , and afterwards the largest and most populous of the Soviet socialist republics of the Soviet Union ( USSR ) from 1922 to 1990 , until becoming a sovereign part of the Soviet Union with priority of Russian laws over Union-level legislation in 1990 and 1991 , the last two years of the existence of the USSR . The Russian Republic was composed of sixteen smaller constituent units of autonomous republics , five autonomous oblasts , ten autonomous okrugs , six krais and forty oblasts . Russians formed the largest ethnic group . The capital of the Russian SFSR was Moscow and the other major urban centers included Leningrad , Novosibirsk , Yekaterinburg , Nizhny Novgorod and Samara . The economy of Russia became heavily industrialized , accounting for about two-thirds of the electricity produced in the USSR . By 1961 , it was the third largest producer of petroleum due to new discoveries in the Volga-Urals region and Siberia , trailing in production to only the United States and Saudi Arabia . In 1974 , there were 475 institutes of higher education in the republic providing education in 47 languages to some 23,941,000 students . A network of territorially organized public-health services provided health care . After 1985 , the perestroika restructuring policies of the Gorbachev administration relatively liberalised the economy , which had become stagnant since the late 1970s under General Secretary Leonid Brezhnev , with the introduction of non-state owned enterprises such as cooperatives . The Russian Soviet Republic was proclaimed on 7 November 1917 ( October Revolution ) as a sovereign state and the world 's first constitutionally socialist state with the ideology of Communism . The first Constitution was adopted in 1918 .",
    "/wiki/Leningrad_Regional_Committee_of_the_Communist_Party_of_the_Soviet_Union": "The Leningrad Regional Committee of the Communist Party of the Soviet Union , commonly referred to as the Leningrad CPSU obkom , was the position of highest authority in Leningrad Oblast during most of the existence of the Soviet Union . The position was created on 1 August 1927 , and abolished on 29 August 1991 although most authority was lost in June that year to the position of Governor of Leningrad Oblast . The First Secretary was a de facto appointed position usually by the Politburo or the General Secretary himself .",
    "/wiki/Mikhail_Frunze": "Mikhail Vasilyevich Frunze ( ; 2 February 1885 - 31 October 1925 ) was a Bolshevik leader during and just prior to the Russian Revolution of 1917 . Frunze was born in what is now modern day Kyrgyzstan , and rose to the rank of a major Red Army commander in the Russian Civil War . He is best known for defeating Baron Peter von Wrangel in Crimea . The capital of the Kyrghyz SSR ( modern Bishkek ) was named in his honor from 1926 until 1991 .",
    "/wiki/Moldovans": "Moldovans or Moldavians ( , ; Moldovan Cyrillic : \u041c\u043e\u043b\u0434\u043e\u0432\u0435\u043d\u044c ) are the largest ethnic group of the Republic of Moldova ( 75.1% of the population , as of 2014 ) , and a significant minority in Ukraine and Russia . Under the variant Moldavians , the term may also be used to refer to all inhabitants of the territory of historical Principality of Moldavia , currently divided among Romania ( 47.5% ) , Moldova ( 30.5% ) and Ukraine ( 22% ) , regardless of ethnic identity . This article refers to the Moldovan/Romanian language-speaking population native to the Republic of Moldova , the historical Bessarabia and diaspora originating from these regions , self-identified as Moldovans ( in Moldova , another 7% of the Moldovan/Romanian language-speaking native population self-identified as Romanians ) .",
    "/wiki/Mikhail_Kalinin": "Mikhail Ivanovich Kalinin ( ; 3 June 1946 ) , known familiarly by Soviet citizens as Kalinych , was a Bolshevik revolutionary and a Soviet politician . He served as head of state of the Russian Soviet Federative Socialist Republic and later of the Soviet Union from 1919 to 1946 . From 1926 , he was a member of the Politburo of the Communist Party of the Soviet Union . Born to a peasant family , Kalinin worked as a metal worker in Saint Petersburg and took part in the 1905 Russian Revolution as an early member of the Bolsheviks . During and after the October Revolution , he served as mayor of Petrograd ( St. Petersburg ) . After the revolution , Kalinin became the head of the new Soviet state , as well as a member of the Central Committee of the Communist Party and the Politburo . Kalinin remained head of the Soviet Union after the rise of Joseph Stalin , but held little real power or influence . He retired in 1946 and died in the same year . The former East-Prussian city of K\u00f6nigsberg was renamed Kaliningrad after him . The city of Tver was also known as Kalinin until the end of the Soviet Union in 1990 .",
    "/wiki/List_of_leaders_of_the_Russian_SFSR": "The following is a list of leaders of the Russian Soviet Federative Socialist Republic ( Russian SFSR ) . It lists heads of state , heads of government and heads of the local branch of the Communist Party of the Soviet Union.Commonly referred to as Soviet Russia or simply Russia , the Russian SFSR was a sovereign state in 1917-1922 , the largest , most populous , and most economically developed republic of the Soviet Union in 1922-1991 , having its own legislation within the Union in 1990-91 .",
    "/wiki/All-Russian_Central_Executive_Committee": "The All-Russian Central Executive Committee ( , VTsIK ) was the highest legislative , administrative and revising body of the Russian Soviet Federative Socialist Republic ( Russian SFSR ) from 1917 until 1937 . Although the All-Russian Congress of Soviets had supreme authority , in periods between its sessions its powers were passed to VTsIK .",
    "/wiki/All-Russian_Congress_of_Soviets": "The All-Russian Congress of Soviets evolved from 1917 to become the supreme governing body of the Russian Soviet Federative Socialist Republic from 1918 until 1936 , effectively . The 1918 Constitution of the Russian SFSR mandated that Congress shall convene at least twice a year , with the duties of defining ( and amending ) the principles of the Soviet Constitution and ratifying peace treaties . The October Revolution ousted the provisional government , making the Congress of Soviets the sole , and supreme governing body . It is important to note that this Congress was not the same as the Congress of Soviets of the Soviet Union which governed the whole Soviet Union after its creation in 1922 . For the earlier portion of its life , the Congress was a democratic body . Over Russia there were hundreds of soviets , democratic local governing bodies in which the surrounding population could participate . The soviets elected the delegates to the Congress , and then in turn the Congress held the national authority , making the highest decisions . There were several political parties represented in the various sessions of the Congress , each of which fought for increasing their own influence in the soviets . However , as the civil war progressed , the soviets ' authority was progressively reduced , with the rise to power of Stalinism effectively cementing this situation and decisively turning the Congress into a rubber-stamp parliament . The Congress was formed of representatives of city councils ( 1 delegate per 25,000 voters ) and the congresses of the provincial ( oblast ) and autonomous republican councils ( 1 deputy for every 125,000 inhabitants ) . The exclusive jurisdiction of the Congress consisted of the election of the All-Russian Central Executive Committee , adoption of the Constitution of the Russian SFSR and amendments to it , approval of amendments proposed by the central executive committee , and approval of the autonomous republics ' constitutions . On the other issues , the Congress and the Central Executive Committee had the same authority .",
    "/wiki/Central_Executive_Committee_of_the_Soviet_Union": "The Central Executive Committee of the USSR ( ) was the most authoritative governing body of the USSR during the interims of the sessions of the Congress of Soviets of the USSR , existing from 1922 until 1938 , when it was replaced by the Presidium of the Supreme Soviet of first convocation .",
    "/wiki/Congress_of_Soviets_of_the_Soviet_Union": "The Congress of Soviets of the Soviet Union ( ) , was the supreme governing body in the Soviet Union since the formation of the USSR ( 30 December 1922 ) and until adoption of the 1936 Soviet Constitution . It is not the same as the All-Russian Congress of Soviets which governed the Russian Soviet Federative Socialist Republic",
    "/wiki/Lev_Kamenev": "Lev Borisovich Kamenev ( born Leo Rosenfeld or Lev Borisovich Rozenfeld ; - 25 August 1936 ) was a Bolshevik revolutionary and a prominent Soviet politician . He was one of the seven members of the first Politburo , founded in 1917 to manage the Bolshevik Revolution : Lenin , Zinoviev , Kamenev , Trotsky , Stalin , Sokolnikov and Bubnov . Kamenev was the brother-in-law of Leon Trotsky . He served briefly as the equivalent of the first head of state of Soviet Russia in 1917 , and from 1923-24 as acting Premier in the last year of Vladimir Lenin 's life . Joseph Stalin viewed him as a cause of discontent and opposition to his own leadership . Kamenev was executed on 25 August 1936 after a show trial during the period of the Great Purges .",
    "/wiki/Government_of_Russia": "The government of Russia exercises executive power in the Russian Federation . The members of the government are the Prime Minister , the deputy prime ministers , and the federal ministers . It has its legal basis in the Constitution of the Russian Federation and the federal constitutional law On the Government the Russian Federation . According to the 1991 amendment to the 1978 Russian Constitution , the President of Russia was the head of the executive branch and headed the Council of Ministers of Russia . According to the current 1993 Constitution of Russia , the President is not a part of the Government of Russia , which exercises executive power . But , the President does appoint the Prime Minister . The Chapter 6 of the Constitution of Russia says , that The Government of the Russian Federation consists of the Chairman of the Government of the Russian Federation ( Prime Minister ) , Deputy Chairman of the Government of the Russian Federation and federal ministries .",
    "/wiki/Council_of_Labor_and_Defense": "The Council of Labor and Defense ( \u0421\u043e\u0432\u0435\u0442 \u0442\u0440\u0443\u0434\u0430 \u0438 \u043e\u0431\u043e\u0440\u043e\u043d\u044b , STO ) , first established as the Council of Workers ' and Peasants ' Defense in November 1918 , was an agency responsible for the central management of the economy and production of military materiel in the Russian Socialist Federative Soviet Republic and in its successor state , the Soviet Union . During the Russian Civil War of 1917-1922 the council served as an emergency national economic cabinet , issuing emergency decrees in an effort to sustain industrial production for the Red Army amidst economic collapse . The Council , a commission of the Council of People 's Commissars , included among its executive body such top-ranking Bolshevik leaders as V. I. Lenin , Leon Trotsky , and Joseph Stalin , who oversaw a burgeoning professional apparatus . Following the end of the Civil War the council was renamed and its economic planning and regulatory roles expanded to encompass the entire country . As the first central economic planning authority in Soviet Russia , the Council of Labor and Defense served as the institutional precursor to the better-known Soviet planning authority of later years , Gosplan , launched in August 1923 as a subcommittee of STO .",
    "/wiki/Sergei_Kirov": "Sergei Mironovich Kirov ( born Sergei Mironovich Kostrikov ; - 1 December 1934 ) was a prominent Russian revolutionary and a Soviet politician . He was a close , personal friend to Joseph Stalin , and his death in 1934 was used as a pretext to launch the Great Purge . An Old Bolshevik , Kirov took part in early revolutionary activities against Tsarist Russia , for which he was arrested and imprisoned several times . He rose through the Communist Party ranks to become head of the party organisation in Leningrad and a member of the Politburo . On 1 December 1934 , Kirov was shot and killed by a gunman at his offices in the Smolny Institute . There is a widespread belief that Joseph Stalin and elements of the NKVD were behind Kirov 's assassination , but evidence for this claim remains lacking . Kirov 's death was later used as a pretext for Stalin 's escalation of repression against dissident elements of the party , culminating in the Great Purge of the late 1930s in which many of the Old Bolsheviks were arrested , expelled from the party , and executed . Complicity in Kirov 's assassination was a common charge to which the accused confessed in the show trials of the period . The cities of Kirov , Kirovohrad , Kirovakan , and Kirovabad , as well as a uncountable number of Kirovsk , Kirovo , Kirovsky and other derivatives , were renamed in Kirov 's honour after his assassination . Following the collapse of the Soviet Union , Kirovakan and Kirovabad returned to their original names : Vanadzor and Ganja , respectively . In order to comply with decommunisation laws , Kirovohrad was renamed in July 2016 by the Ukrainian parliament to Kropyvnytskyi .",
    "/wiki/Communist_Party_of_Azerbaijan": "The Azerbaijan Communist Party ( ; ) was the ruling political party in the Azerbaijan SSR , making it effectively a branch of the Communist Party of the Soviet Union . It was formed on February 20 , 1920 , when the Hummat Party , the Adalat Party , the Ahrar Party of Iran and Baku Bolsheviks joined together to establish the Azerbaijan Communist Party . On April 1 of the same year , the Fifth Cabinet of Ministers of the Azerbaijan Democratic Republic gave its resignations and all the power to the Azerbaijan Communist Party . The party ruled the Azerbaijan SSR until 16 September 1991 when it was formally disbanded . Nevertheless , former leaders and members of the communists continued to play a role in the family- and patronage-based political system . The Azerbaijan Communist Party won the first multi-party elections in Azerbaijan that took place on 30 September and 14 October 1990 for the Supreme Soviet obtaining 280 out of 360 seats .",
    "/wiki/Emanuel_Kviring": "Emanuel Kwiring ( Kviring ) ( ) ( 13 September 1888 - 26 November 1937 ) was a Soviet politician . Born into a German family in Friesenthal , in the Samara Governorate of the Russian Empire ( present-day Novolypovka , Saratov Oblast , Russia ) , he became a socialist activist and politician ( Socialist-Revolutionary Party from 1906 to 1912 , and Bolshevik Party beginning in 1912 ) . After World War I and the Bolshevik Revolution , he was a leader of the Communist Party ( Bolsheviks ) of Ukraine ( October 1918 - March 1919 , and April 1923 - March 1925 ) . He was an opponent of the Ukrainization policy , so he had to leave Kharkiv for Moscow . Then he worked as an economist in the State Planning Committee ( Gosplan ) . In 1937 , he was arrested and executed by NKVD . In 1956 , Kwiring was posthumously rehabilitated by a decision of the USSR Supreme Court .",
    "/wiki/Volga_Germans": "The Volga Germans ( or ( a more generic term for all Russian Germans ) , ) are ethnic Germans who colonized and historically lived along the Volga River in the region of southeastern European Russia around Saratov and to the south . Recruited as immigrants to Russia in the 18th century , they were allowed to maintain their German culture , language , traditions and churches ( Lutheran , Reformed , Catholics , Moravians and Mennonites ) . In the 19th and early 20th centuries , many Volga Germans emigrated to Kansas , Nebraska , the Dakotas , California , Washington and other states across the western United States , as well as to Canada and South America ( mainly Argentina , Chile and Brazil ) . After the German invasion of the Soviet Union in 1941 during World War II , the Soviet government considered the Volga Germans potential collaborators , and deported many of them eastwards , where thousands died . After the war , the Soviet Union expelled a moderate number of ethnic Germans to the West . In the late 1980s and 1990s , many of the remaining ethnic Germans moved from the Soviet Union to Germany .",
    "/wiki/Mikhail_Lashevich": "Mikhail Mikhailovich Lashevich ( ; 1884 in Odessa , Russian Empire - 30 August 1928 in Harbin , China ) , also known under the name Gaskovich , born of a Jewish family was a Soviet military and party leader . Lashevich joined the Russian Social Democratic Labour Party in 1901 and after the split of 1903 adhered with the Bolshevik faction . He was conscripted into the Imperial Russian Army during the First World War and was twice wounded . After the February Revolution of 1917 , he went to St. Petersburg , where he opposed the decision of Lenin to launch the Bolshevik revolution . After the October Revolution , however , he held various higher military , party and governmental posts . As a senior Red Army commander he took part in the defeat of Yudenich , Denikin and Kolchak . He was appointed with Kliment Voroshilov to the Revolutionary Military Council in 1923 , and the same year was elected to the party 's Central Committee . Lashevich was Deputy Commissar for War in 1925-26 . Once Joseph Stalin started to rise to power , Lashevich sided with Leon Trotsky . As a result , he was removed from central posts and sent to Harbin to serve as acting manager of the Chinese Eastern Railway on 14 April 1926 . In 1927 , at the 15th Congress of the VKP ( b ) , he was expelled from the Party , together with other Trotskyists . In 1928 , after he recanted his opposition , his party membership was restored .",
    "/wiki/Siberian_Revolutionary_Committee": "The Siberian Revolutionary Committee ( Sibrevcom ) ( ) was an extraordinary organ of the Soviet power 's revolutionary committee in Siberia created during the Russian Civil War under the circumstances preventing the formal creation of constitutional organs of government . Established on August 27 , 1919 , it functioned from September 1919 until December 1 , 1925 .",
    "/wiki/Vladimir_Lenin": "Vladimir Ilyich Ulyanov ( 22 April 1870 - 21 January 1924 ) , better known by his alias Lenin , was a Russian revolutionary , politician , and political theorist . He served as head of government of Soviet Russia from 1917 to 1924 and of the Soviet Union from 1922 to 1924 . Under his administration , Russia and then the wider Soviet Union became a one-party communist state governed by the Russian Communist Party . Ideologically a communist , he developed a variant of Marxism known as Leninism . Born to a moderately prosperous middle-class family in Simbirsk , Lenin embraced revolutionary socialist politics following his brother 's 1887 execution . Expelled from Kazan Imperial University for participating in protests against the Russian Empire 's Tsarist government , he devoted the following years to a law degree . He moved to Saint Petersburg in 1893 and became a senior Marxist activist . In 1897 , he was arrested for sedition and exiled to Shushenskoye for three years , where he married Nadezhda Krupskaya . After his exile , he moved to Western Europe , where he became a prominent theorist in the Marxist Russian Social Democratic Labour Party ( RSDLP ) . In 1903 , he took a key role in a RSDLP ideological split , leading the Bolshevik faction against Julius Martov 's Mensheviks . Encouraging insurrection during Russia 's failed Revolution of 1905 , he later campaigned for the First World War to be transformed into a Europe-wide proletarian revolution , which as a Marxist he believed would cause the overthrow of capitalism and its replacement with socialism . After the 1917 February Revolution ousted the Tsar and established a Provisional Government , he returned to Russia to play a leading role in the October Revolution , in which the Bolsheviks overthrew the new regime .",
    "/wiki/List_of_heads_of_government_of_Russia": "Approximately 98 people have been head of the Russian government since its establishment in 1726 . The chairman of government was a member of the Supreme Privy Council , which was created on ( 19 ) February 1726 by Empress Catherine , and from ( 20 ) September 1802 ministerial duties were allocated by the Committee of Ministers , which was established on in accordance with the proclamation of Emperor Alexander II . Beginning with Count Aleksandr Romanovich Vorontsov , the eldest of the officers was de facto chairman of the committee . Eight years after the inauguration of the manifest , the first de jure office holder was Count Nikolay Rumyantsev . The Council of Ministers was unofficially formed in October 1857 , as a result of Emperor Alexander II 's reforms ; its first session began on ( 31 ) December 1857 . Before the actual formation of that body on ( 24 ) November 1861 , the Emperor himself was in charge . The Council of Ministers consisted of chairmen of the State Council and the Committee of Ministers , as well as high-ranking officers appointed by the Emperor . The first session ended on ( 23 ) December 1882 , after the number of files to the Council greatly decreased . The Committee of Ministers functioned simultaneously with the second session of the Council of Ministers for six more months ; Count Sergei Witte participated on both entities until the abolition of the committee on April ( 5 May ) 1906 . Following that event , the duties of the committee were left to the Council of Ministers , until the formation of the Small Council in 1909 , which also included deputy ministers . By the order of Emperor Nicholas II , the second session of the Council of Ministers began on October ( 1 November ) 1905 , following the formation of the State Duma . Shortly after the February Revolution and the inception of the Russian Provisional Government on ( 15 ) March 1917 , Georgy Lvov from the Constitutional Democratic Party and Alexander Kerensky from the Socialist Revolutionary Party became joint Minister-Chairmen .",
    "/wiki/Dmitry_Manuilsky": "Dmitriy Manuilsky , or Dmytro Zakharovych Manuilsky ( 3 October 1883 in Sviatets near Kremenets - 22 February 1959 in Kiev ) was an important Bolshevik , who was a Secretary of Comintern , the Communist International from December 1926 to its dissolution in May 1943 .",
    "/wiki/Communist_Party_of_Ukraine_(Soviet_Union)": "The Communist Party of Ukraine ( Komunistychna Partiya Ukrayiny , \u041a\u041f\u0423 , KPU ; ) , was the founding and ruling political party of the Ukrainian Soviet Socialist Republic operated as a republican branch ( union republics ) of the Communist Party of the Soviet Union ( CPSU ) . The CPU was the sole governing party was founded in 1918 as the Communist Party ( Bolshevik ) of Ukraine until 1952 , when it became the Communist Party of Ukraine . The party was liquidated in 26 August 1991 after the failed Soviet coup in Moscow . The CPU was organized on the basis of democratic centralism , a principle conceived by Vladimir Lenin that entails democratic and open discussion of policy issues within the party followed by the requirement of total unity in upholding the agreed policies . The CPU 's highest body was the Party Congress , convened every held every five years . When the Congress was not in session , the Central Committee was the highest body , but because the Central Committee met twice a year , most duties and responsibilities were vested in the Politburo . The party leader held the office of First Secretary who served as the head of government . Like all other CPSU republican branches , The CPU was committed , in accordance to the party statute , adhered to Marxist-Leninist ideology based on the writings of Vladimir Lenin and Karl Marx , and formalized under Joseph Stalin . The party had pursued state socialism , under which all industries were nationalized and a command economy was introduced . Prior to the introduction of central planning was adopted in 1929 , Lenin had introduced a mixed economy , commonly referred to as the New Economic Policy , in the 1920s , which allowed to introduce certain capitalist elements in the Soviet economy .",
    "/wiki/Anastas_Mikoyan": "Anastas Ivanovich Mikoyan ( ; ; ; 25 November 1895 - 21 October 1978 ) was a Soviet revolutionary , Old Bolshevik and statesman during the mandates of Lenin , Stalin , Khrushchev and Brezhnev . He was the only Soviet politician who managed to remain at the highest levels of power within the Communist Party of the Soviet Union , as that power oscillated between the Central Committee and the Politburo , from the latter days of Lenin 's rule , throughout the eras of Stalin and Khrushchev , until his peaceful retirement after the first months of Brezhnev 's rule . Mikoyan became an early convert to the Bolshevik cause . He was a strong supporter of Stalin during the immediate post-Lenin years . During Stalin 's rule , Mikoyan held several high governmental posts , including that of Minister of Foreign Trade . By the end of Stalin 's rule , Mikoyan began to lose favour with him , and in 1949 , Mikoyan lost his long-standing post of minister of foreign trade . In October 1952 at the 19th Party Congress Stalin even attacked Mikoyan viciously . When Stalin died in 1953 , Mikoyan again took a leading role in policy-making . He backed Khrushchev and his de-Stalinization policy and became First Deputy Premier under Khrushchev . Mikoyan 's position under Khrushchev made him the second most powerful figure in the Soviet Union at the time . Mikoyan made several key trips to communist Cuba and to the United States , acquiring an important stature on the international diplomatic scene , especially with his skill in exercising soft power to further Soviet interests . In 1964 Khrushchev was forced to step down in a coup that brought Brezhnev to power .",
    "/wiki/Armenians": "Armenians ( Armenian : \u0570\u0561\u0575\u0565\u0580 , hayer [ h\u0251\u02c8j\u025b\u027e ] ) are an ethnic group native to the Armenian Highlands of Western Asia . Armenians constitute the main population of Armenia and the de facto independent Artsakh . There is a wide-ranging diaspora of around 5 million people of full or partial Armenian ancestry living outside modern Armenia . The largest Armenian populations today exist in Russia , the United States , France , Georgia , Iran , Germany , Ukraine , Lebanon , Brazil and Syria . With the exceptions of Iran and the former Soviet states , the present-day Armenian diaspora was formed mainly as a result of the Armenian Genocide . Most Armenians adhere to the Armenian Apostolic Church , a non-Chalcedonian church , which is also the world 's oldest national church . Christianity began to spread in Armenia soon after Jesus ' death , due to the efforts of two of his apostles , St. Thaddeus and St. Bartholomew . In the early 4th century , the Kingdom of Armenia became the first state to adopt Christianity as a state religion . Armenian is an Indo-European language . It has two mutually intelligible and written forms : Eastern Armenian , today spoken mainly in Armenia , Artsakh , Iran , and the former Soviet republics ; and Western Armenian , used in the historical Western Armenia and , after the Armenian Genocide , primarily in the Armenian diasporan communities . The unique Armenian alphabet was invented in 405 AD by Mesrop Mashtots .",
    "/wiki/Vyacheslav_Molotov": "Vyacheslav Mikhailovich Molotov ( ; n\u00e9 Skryabin ; ( OS 25 February ) 9 March 1890 - 8 November 1986 ) was a stalinist Soviet politician and diplomat , an Old Bolshevik , and a leading figure in the Soviet government from the 1920s , when he rose to power as a prot\u00e9g\u00e9 of Joseph Stalin . Molotov served as Chairman of the Council of People 's Commissars ( Premier ) from 1930 to 1941 , and as Minister of Foreign Affairs from 1939 to 1949 and from 1953 to 1956 . He served as First Deputy Premier from 1942 to 1957 , when he was dismissed from the Presidium of the Central Committee by Nikita Khrushchev . Molotov was removed from all positions in 1961 after several years of obscurity . Molotov was the principal Soviet signatory of the Nazi-Soviet non-aggression pact of 1939 ( also known as the Molotov-Ribbentrop Pact ) , whose most important provisions were added in the form of a secret protocol that stipulated an invasion of Poland and partition of its territory between Nazi Germany and the Soviet Union . He was aware of the Katyn massacre committed by the Soviet authorities during this period . After World War II ( the Great Patriotic War ) , Molotov was involved in negotiations with the Western allies , in which he became noted for his diplomatic skills . He retained his place as a leading Soviet diplomat and politician until March 1949 , when he fell out of Stalin 's favour and lost the foreign affairs ministry leadership to Andrei Vyshinsky . Molotov 's relationship with Stalin deteriorated further , with Stalin criticising Molotov in a speech to the 19th Party Congress . However , after Stalin 's death in 1953 , Molotov was staunchly opposed to Khrushchev 's de-Stalinisation policy . Molotov defended Stalin 's policies and legacy until his death in 1986 , and harshly criticised Stalin 's successors , especially Khrushchev ."
  },
  "Central_Committee_elected_by_the_11th_Congress_of_the_Russian_Communist_Party_(Bolsheviks)_2": {
    "/wiki/Aleksei_Badayev": "Aleksei Yegorovich Badayev ( ; - 3 November 1951 ) was a Soviet functionary and a nominal head of state of the Russian Soviet Federative Socialist Republic during the leadership of Joseph Stalin .",
    "/wiki/Russians": "Russians ( Russian : \u0440\u0443\u0441\u0441\u043a\u0438\u0435 , tr . russkiye , IPA : \u02c8rusk\u02b2\u026aje ) are an East Slavic ethnic group native to European Russia and other parts of Eastern Europe ( some territories of the former Tsardom of Russia and Russian Empire ) ; they are the most numerous ethnic group in Europe . The majority of ethnic Russians live in the Russian Federation , but notable minorities exist in other former Soviet states such as Belarus , Kazakhstan , Moldova , Ukraine and the Baltic states . A large Russian diaspora ( sometimes including Russophones , i.e . Russian-speaking non-Russians ) has developed all over the world , with notable numbers in the United States , Germany , Brazil , and Canada . The culture of the ethnic Russian people has a long tradition and it is a foundation for the modern culture of the whole of Russia . The Russian language originally was the language of ethnic Russians . They are historically Orthodox Christians by religion . The ethnic Russians formed from East Slavic tribes and their cultural ancestry is based in Kievan Rus ' . The Russian word for ethnic Russians is derived from the people of Rus ' and the territory of Rus ' . The Russians share many historical and cultural traits with other European peoples , and especially with other East Slavic ethnic groups , specifically Belarusians and Ukrainians . Many ethnic groups had a common history within the former Soviet Union and Russian Empire , which was influential in the spreading of Russian culture and language .",
    "/wiki/Andrei_Bubnov": "Andrei Sergeyevich Bubnov ( ; 23 March 1883 - 1 August 1938 ) was a Bolshevik revolutionary leader in Russia , and member of the Left Opposition .",
    "/wiki/Agitprop": "Agitprop ( ; from , portmanteau of agitation and propaganda ) is political propaganda , especially the communist propaganda used in Soviet Russia , that is spread to the general public through popular media such as literature , plays , pamphlets , films , and other art forms with an explicitly political message . The term originated in Soviet Russia as a shortened name for the Department for Agitation and Propaganda ( , ) , which was part of the central and regional committees of the Communist Party of the Soviet Union . The department was later renamed Ideological Department . Typically Russian agitprop explained the ideology and policies of the Communist Party and attempted to persuade the general public to support and join the party and share its ideals . Agitprop was also used for dissemination of information and knowledge to the people , like new methods of agriculture . After the October Revolution of 1917 , an agitprop train toured the country , with artists and actors performing simple plays and broadcasting propaganda . It had a printing press on board the train to allow posters to be reproduced and thrown out of the windows as it passed through villages . It gave rise to agitprop theatre , a highly politicized theatre that originated in 1920s Europe and spread to the United States ; the plays of Bertolt Brecht are a notable example . Russian agitprop theater was noted for its cardboard characters of perfect virtue and complete evil , and its coarse ridicule . Gradually the term agitprop came to describe any kind of highly politicized art .",
    "/wiki/Sergey_Ivanovich_Gusev": "Sergei Ivanovich Gusev ( AKA Gussev ) ( Russian : \u0421\u0435\u0440\u0433\u0435\u0301\u0439 \u0418\u0432\u0430\u0301\u043d\u043e\u0432\u0438\u0447 \u0413\u0443\u0301\u0441\u0435\u0432 ) ( ( real name - Yakov Davidovich Drabkin : Russian - \u042f\u0301\u043a\u043e\u0432 \u0414\u0430\u0432\u0438\u0301\u0434\u043e\u0432\u0438\u0447 \u0414\u0440\u0430\u0301\u0431\u043a\u0438\u043d ) ( 1 January 1874-10 June 1933 ) was a Russian revolutionary , a founding member of the Bolshevik faction of the Russian Social Democratic Labour Party ( RSDLP ) , and Soviet party leader .",
    "/wiki/Revolutionary_Military_Council": "The Revolutionary Military Council ( ) , sometimes called the Revolutionary War Council or Revvoyensoviet ( ) , was the supreme military authority of Soviet Russia and later the Soviet Union . It was instituted on September 2 , 1918 by decree of the All-Russian Central Executive Committee ( VTsIK ) , known as the Decree Declaring the Soviet Republic Military Camp . Prior to Revvoyensoviet , the two main military authorities had been the Supreme Military Council ( , ) and the operations division of the People 's Commissariat on War and Navy Affairs . The decree put all fronts and military organizations under the command of the chairman of Revvoyensoviet , with a commander-in-chief second-in-line to the chairman to lead strategic and military operations stateside . The chairman was appointed by VTsIK on to serve as People 's Commissar ( or narkom ) of War and Navy Affairs . The first chairman of Revvoyensoviet was Leon Trotsky , with Latvian rifleman Jukums V\u0101cietis as his commander-in-chief . V\u0101cietis was replaced in July 1919 by Sergei Kamenev who served until 1924 . On November 30 , 1918 , the Council of Labour and Defense was created with the goal of mobilizing the country 's resources towards defense . Headed by Lenin , the council consisted of the premier ( Lenin ) , the chairman of Revvoyensoviet ( Trotsky ) , a representative of VTsIK ( Joseph Stalin ) , and several narkoms . Revvoyensoviet was dissolved under the Soviet Union in 1934 .",
    "/wiki/Sergei_Kirov": "Sergei Mironovich Kirov ( born Sergei Mironovich Kostrikov ; - 1 December 1934 ) was a prominent Russian revolutionary and a Soviet politician . He was a close , personal friend to Joseph Stalin , and his death in 1934 was used as a pretext to launch the Great Purge . An Old Bolshevik , Kirov took part in early revolutionary activities against Tsarist Russia , for which he was arrested and imprisoned several times . He rose through the Communist Party ranks to become head of the party organisation in Leningrad and a member of the Politburo . On 1 December 1934 , Kirov was shot and killed by a gunman at his offices in the Smolny Institute . There is a widespread belief that Joseph Stalin and elements of the NKVD were behind Kirov 's assassination , but evidence for this claim remains lacking . Kirov 's death was later used as a pretext for Stalin 's escalation of repression against dissident elements of the party , culminating in the Great Purge of the late 1930s in which many of the Old Bolsheviks were arrested , expelled from the party , and executed . Complicity in Kirov 's assassination was a common charge to which the accused confessed in the show trials of the period . The cities of Kirov , Kirovohrad , Kirovakan , and Kirovabad , as well as a uncountable number of Kirovsk , Kirovo , Kirovsky and other derivatives , were renamed in Kirov 's honour after his assassination . Following the collapse of the Soviet Union , Kirovakan and Kirovabad returned to their original names : Vanadzor and Ganja , respectively . In order to comply with decommunisation laws , Kirovohrad was renamed in July 2016 by the Ukrainian parliament to Kropyvnytskyi .",
    "/wiki/Communist_Party_of_Azerbaijan": "The Azerbaijan Communist Party ( ; ) was the ruling political party in the Azerbaijan SSR , making it effectively a branch of the Communist Party of the Soviet Union . It was formed on February 20 , 1920 , when the Hummat Party , the Adalat Party , the Ahrar Party of Iran and Baku Bolsheviks joined together to establish the Azerbaijan Communist Party . On April 1 of the same year , the Fifth Cabinet of Ministers of the Azerbaijan Democratic Republic gave its resignations and all the power to the Azerbaijan Communist Party . The party ruled the Azerbaijan SSR until 16 September 1991 when it was formally disbanded . Nevertheless , former leaders and members of the communists continued to play a role in the family- and patronage-based political system . The Azerbaijan Communist Party won the first multi-party elections in Azerbaijan that took place on 30 September and 14 October 1990 for the Supreme Soviet obtaining 280 out of 360 seats .",
    "/wiki/Aleksei_Kiselyov_(politician)": "Aleksei Semyonovich Kiselyov ( Russian : \u0410\u043b\u0435\u043a\u0441\u0435\u0439 \u0421\u0435\u043c\u0451\u043d\u043e\u0432\u0438\u0447 \u041a\u0438\u0441\u0435\u043b\u0451\u0432 , Aleksey Semyonovich Kiselyov ) ( 1879 - October 30 , 1937 ) was a Russian Bolshevik Party leader and Soviet Union official .",
    "/wiki/Government_of_Russia": "The government of Russia exercises executive power in the Russian Federation . The members of the government are the Prime Minister , the deputy prime ministers , and the federal ministers . It has its legal basis in the Constitution of the Russian Federation and the federal constitutional law On the Government the Russian Federation . According to the 1991 amendment to the 1978 Russian Constitution , the President of Russia was the head of the executive branch and headed the Council of Ministers of Russia . According to the current 1993 Constitution of Russia , the President is not a part of the Government of Russia , which exercises executive power . But , the President does appoint the Prime Minister . The Chapter 6 of the Constitution of Russia says , that The Government of the Russian Federation consists of the Chairman of the Government of the Russian Federation ( Prime Minister ) , Deputy Chairman of the Government of the Russian Federation and federal ministries .",
    "/wiki/Russian_Soviet_Federative_Socialist_Republic": "The Russian Soviet Federative Socialist Republic ( Russian SFSR or RSFSR ; Russian : \u0420\u043e\u0441\u0441\u0438\u0301\u0439\u0441\u043a\u0430\u044f \u0421\u043e\u0432\u0435\u0301\u0442\u0441\u043a\u0430\u044f \u0424\u0435\u0434\u0435\u0440\u0430\u0442\u0438\u0301\u0432\u043d\u0430\u044f \u0421\u043e\u0446\u0438\u0430\u043b\u0438\u0441\u0442\u0438\u0301\u0447\u0435\u0441\u043a\u0430\u044f \u0420\u0435\u0441\u043f\u0443\u0431\u043b\u0438\u043a\u0430 , tr . Rossiysk\u00e1ya Sovetsk\u00e1ya Federat\u00edvnaya Socialist\u00edcheskaya Respublika , IPA : [ r\u0250\u02c8s\u02b2ijsk\u0259j\u0259 s\u0250\u02c8v\u02b2\u025btsk\u0259j\u0259 f\u02b2\u026ad\u02b2\u026ar\u0250\u02c8t\u02b2ivn\u0259j\u0259 s\u0259ts\u0268\u0259l\u02b2\u026a\u02c8s\u02b2t\u02b2it\u0255\u026ask\u0259j\u0259 r\u02b2\u026a\u02c8spubl\u02b2\u026ak\u0259 ] ( listen ) ) , previously known as the Russian Soviet Republic and the Russian Socialist Federative Soviet Republic , as well as being unofficially known as the Russian Federation , Soviet Russia , or simply Russia , was an independent state from 1917 to 1922 , and afterwards the largest and most populous of the Soviet socialist republics of the Soviet Union ( USSR ) from 1922 to 1990 , until becoming a sovereign part of the Soviet Union with priority of Russian laws over Union-level legislation in 1990 and 1991 , the last two years of the existence of the USSR . The Russian Republic was composed of sixteen smaller constituent units of autonomous republics , five autonomous oblasts , ten autonomous okrugs , six krais and forty oblasts . Russians formed the largest ethnic group . The capital of the Russian SFSR was Moscow and the other major urban centers included Leningrad , Novosibirsk , Yekaterinburg , Nizhny Novgorod and Samara . The economy of Russia became heavily industrialized , accounting for about two-thirds of the electricity produced in the USSR . By 1961 , it was the third largest producer of petroleum due to new discoveries in the Volga-Urals region and Siberia , trailing in production to only the United States and Saudi Arabia . In 1974 , there were 475 institutes of higher education in the republic providing education in 47 languages to some 23,941,000 students . A network of territorially organized public-health services provided health care . After 1985 , the perestroika restructuring policies of the Gorbachev administration relatively liberalised the economy , which had become stagnant since the late 1970s under General Secretary Leonid Brezhnev , with the introduction of non-state owned enterprises such as cooperatives . The Russian Soviet Republic was proclaimed on 7 November 1917 ( October Revolution ) as a sovereign state and the world 's first constitutionally socialist state with the ideology of Communism . The first Constitution was adopted in 1918 .",
    "/wiki/Dmitry_Lebed": "Dmitry Valerievich Lebed ( born 1986 ) , known as The Abakan Strangler , is a Russian serial killer and rapist who operated in the Khakassian city of Abakan and its surrounding areas . Pretending to be a taxi driver and using rented cars , he raped 11 women , possibly more , four of whom he successfully murdered . Following his arrest for the murder of 24-year-old Oksana Litvinova , he confessed to other crimes not long after , for which he received life imprisonment at a special regime colony .",
    "/wiki/Latvians": "Latvians ( ; ) are a Baltic ethnic group and nation native to Latvia and the immediate geographical region , the Baltics . They are occasionally also referred to as Letts , although this term is becoming obsolete . Latvians share a common Latvian language , culture and history .",
    "/wiki/Dmitry_Manuilsky": "Dmitriy Manuilsky , or Dmytro Zakharovych Manuilsky ( 3 October 1883 in Sviatets near Kremenets - 22 February 1959 in Kiev ) was an important Bolshevik , who was a Secretary of Comintern , the Communist International from December 1926 to its dissolution in May 1943 .",
    "/wiki/Ukrainians": "Ukrainians ( Ukrainian : \u0443\u043a\u0440\u0430\u0457\u043d\u0446\u0456 , romanized : ukrayintsi , pronounced [ \u028akr\u0250\u02c8jin\u02b2ts\u207d\u02b2\u207ei ] ) , historically also called Ruthenians , are an East Slavic ethnic group native to Ukraine , which is by total population the seventh-largest nation in Europe and the second-largest among the East Slavs after the Russians . The Constitution of Ukraine applies the term 'Ukrainians ' to all its citizens . The people of Ukraine have historically been known as Rusyns ( Carpatho-Ruthenians ) , Little Russians , and Cossacks , among others . The connection with the Zaporozhian Cossacks especially , is emphasized in the Ukrainian national anthem , We are , brothers , of Cossack kin . According to most dictionary definitions , a descriptive name for the inhabitants of Ukraine is Ukrainian or Ukrainian people . The majority of Ukrainians are Eastern Orthodox Christians .",
    "/wiki/First_Secretary_of_the_Communist_Party_of_Ukraine": "The following list is composed of the First Secretarites of the Central Committee of the Communist Party of Ukraine ( CPU ) , a branch of the Communist Party of the Soviet Union . The office ' name alternated throughout its history between First Secretary and the General Secretary . While the CPU leader was not officially the leader of Ukraine , he was so de facto . The longest serving secretary was Vladimir Shcherbitsky with some 17 years .",
    "/wiki/Communist_Party_of_Ukraine_(Soviet_Union)": "The Communist Party of Ukraine ( Komunistychna Partiya Ukrayiny , \u041a\u041f\u0423 , KPU ; ) , was the founding and ruling political party of the Ukrainian Soviet Socialist Republic operated as a republican branch ( union republics ) of the Communist Party of the Soviet Union ( CPSU ) . The CPU was the sole governing party was founded in 1918 as the Communist Party ( Bolshevik ) of Ukraine until 1952 , when it became the Communist Party of Ukraine . The party was liquidated in 26 August 1991 after the failed Soviet coup in Moscow . The CPU was organized on the basis of democratic centralism , a principle conceived by Vladimir Lenin that entails democratic and open discussion of policy issues within the party followed by the requirement of total unity in upholding the agreed policies . The CPU 's highest body was the Party Congress , convened every held every five years . When the Congress was not in session , the Central Committee was the highest body , but because the Central Committee met twice a year , most duties and responsibilities were vested in the Politburo . The party leader held the office of First Secretary who served as the head of government . Like all other CPSU republican branches , The CPU was committed , in accordance to the party statute , adhered to Marxist-Leninist ideology based on the writings of Vladimir Lenin and Karl Marx , and formalized under Joseph Stalin . The party had pursued state socialism , under which all industries were nationalized and a command economy was introduced . Prior to the introduction of central planning was adopted in 1929 , Lenin had introduced a mixed economy , commonly referred to as the New Economic Policy , in the 1920s , which allowed to introduce certain capitalist elements in the Soviet economy .",
    "/wiki/Anastas_Mikoyan": "Anastas Ivanovich Mikoyan ( ; ; ; 25 November 1895 - 21 October 1978 ) was a Soviet revolutionary , Old Bolshevik and statesman during the mandates of Lenin , Stalin , Khrushchev and Brezhnev . He was the only Soviet politician who managed to remain at the highest levels of power within the Communist Party of the Soviet Union , as that power oscillated between the Central Committee and the Politburo , from the latter days of Lenin 's rule , throughout the eras of Stalin and Khrushchev , until his peaceful retirement after the first months of Brezhnev 's rule . Mikoyan became an early convert to the Bolshevik cause . He was a strong supporter of Stalin during the immediate post-Lenin years . During Stalin 's rule , Mikoyan held several high governmental posts , including that of Minister of Foreign Trade . By the end of Stalin 's rule , Mikoyan began to lose favour with him , and in 1949 , Mikoyan lost his long-standing post of minister of foreign trade . In October 1952 at the 19th Party Congress Stalin even attacked Mikoyan viciously . When Stalin died in 1953 , Mikoyan again took a leading role in policy-making . He backed Khrushchev and his de-Stalinization policy and became First Deputy Premier under Khrushchev . Mikoyan 's position under Khrushchev made him the second most powerful figure in the Soviet Union at the time . Mikoyan made several key trips to communist Cuba and to the United States , acquiring an important stature on the international diplomatic scene , especially with his skill in exercising soft power to further Soviet interests . In 1964 Khrushchev was forced to step down in a coup that brought Brezhnev to power .",
    "/wiki/Armenians": "Armenians ( Armenian : \u0570\u0561\u0575\u0565\u0580 , hayer [ h\u0251\u02c8j\u025b\u027e ] ) are an ethnic group native to the Armenian Highlands of Western Asia . Armenians constitute the main population of Armenia and the de facto independent Artsakh . There is a wide-ranging diaspora of around 5 million people of full or partial Armenian ancestry living outside modern Armenia . The largest Armenian populations today exist in Russia , the United States , France , Georgia , Iran , Germany , Ukraine , Lebanon , Brazil and Syria . With the exceptions of Iran and the former Soviet states , the present-day Armenian diaspora was formed mainly as a result of the Armenian Genocide . Most Armenians adhere to the Armenian Apostolic Church , a non-Chalcedonian church , which is also the world 's oldest national church . Christianity began to spread in Armenia soon after Jesus ' death , due to the efforts of two of his apostles , St. Thaddeus and St. Bartholomew . In the early 4th century , the Kingdom of Armenia became the first state to adopt Christianity as a state religion . Armenian is an Indo-European language . It has two mutually intelligible and written forms : Eastern Armenian , today spoken mainly in Armenia , Artsakh , Iran , and the former Soviet republics ; and Western Armenian , used in the historical Western Armenia and , after the Armenian Genocide , primarily in the Armenian diasporan communities . The unique Armenian alphabet was invented in 405 AD by Mesrop Mashtots .",
    "/wiki/Moscow_Regional_Committee_of_the_Communist_Party_of_the_Soviet_Union": "The Moscow Regional Committee of the Communist Party of the Soviet Union , commonly referred to as the Moscow CPSU obkom , was the position of highest authority in Moscow Oblast during most of the existence of the Soviet Union . The position was created on 24 January 1929 as the Central Industrial Oblast , and abolished on 29 August 1991 although most authority was lost in June that year to the position of Governor of Moscow Oblast . The First Secretary was a de facto appointed position usually by the Politburo or the General Secretary himself .",
    "/wiki/Georgy_Pyatakov": "Georgy ( Yury ) Leonidovich Pyatakov ( ; August 6 , 1890 - January 30 , 1937 ) was a Bolshevik revolutionary leader and a Politician during the Russian Revolution .",
    "/wiki/Gosplan": "The State Planning Committee , commonly known as Gosplan ( Russian : , ) , was the agency responsible for central economic planning in the Soviet Union . Established in 1921 and remaining in existence until the dissolution of the Soviet Union in 1991 , Gosplan had as its main task the creation and administration of a series of five-year plans governing the economy of the USSR .",
    "/wiki/Council_of_Labor_and_Defense": "The Council of Labor and Defense ( \u0421\u043e\u0432\u0435\u0442 \u0442\u0440\u0443\u0434\u0430 \u0438 \u043e\u0431\u043e\u0440\u043e\u043d\u044b , STO ) , first established as the Council of Workers ' and Peasants ' Defense in November 1918 , was an agency responsible for the central management of the economy and production of military materiel in the Russian Socialist Federative Soviet Republic and in its successor state , the Soviet Union . During the Russian Civil War of 1917-1922 the council served as an emergency national economic cabinet , issuing emergency decrees in an effort to sustain industrial production for the Red Army amidst economic collapse . The Council , a commission of the Council of People 's Commissars , included among its executive body such top-ranking Bolshevik leaders as V. I. Lenin , Leon Trotsky , and Joseph Stalin , who oversaw a burgeoning professional apparatus . Following the end of the Civil War the council was renamed and its economic planning and regulatory roles expanded to encompass the entire country . As the first central economic planning authority in Soviet Russia , the Council of Labor and Defense served as the institutional precursor to the better-known Soviet planning authority of later years , Gosplan , launched in August 1923 as a subcommittee of STO .",
    "/wiki/Uzbeks": "The Uzbeks ( Uzbek : O\u02bbzbek , \u040e\u0437\u0431\u0435\u043a , \u0627\u0648\u0632\u0628\u06a9 , plural : O\u02bbzbeklar , \u040e\u0437\u0431\u0435\u043a\u043b\u0430\u0440 , \u0627\u0648\u0632\u0628\u06a9\u0644\u0631 ) are a Turkic ethnic group native to Uzbekistan and wider Central Asia , being the largest Turkic ethnic group in the area . They comprise the majority population of Uzbekistan but are also found as a minority group in Afghanistan , Tajikistan , Kyrgyzstan , Kazakhstan , Turkmenistan , Russia and China . Uzbek diaspora communities also exist in Turkey , Saudi Arabia , and Pakistan .",
    "/wiki/Georgy_Safarov": "Georgy Ivanovich Safarov ( ) ( 1891 - 27 July 1942 ) was a Bolshevik revolutionary and politician who was a participant in the Russian Revolution and the Russian Civil War , and a participant in the executions of the Romanovs in Yekaterinburg and Alapayevsk . Later associated with Grigory Zinoviev 's New Opposition and Leon Trotsky 's United Opposition , he was purged from the Communist Party , and was later imprisoned in Vorkuta in 1937 , after which he served as an NKVD informant . He was ultimately executed on 27 July 1942 by a Special Collegium of the NKVD . He is one of the only victims of Joseph Stalin 's purges that was not posthumously rehabilitated or reinstated to the party after his death .",
    "/wiki/Executive_Committee_of_the_Communist_International": "The Executive Committee of the Communist International , commonly known by its acronym , ECCI ( Russian acronym \u0418\u041a\u041a\u0418 ) , was the governing authority of the Comintern between the World Congresses of that body . The ECCI was established by the Founding Congress of the Comintern in 1919 and was dissolved with the rest of the Comintern in May 1943 .",
    "/wiki/Communist_International": "The Communist International ( Comintern ) , known also as the Third International ( 1919-1943 ) , was an international organization that advocated world communism . The Comintern resolved at its Second Congress to struggle by all available means , including armed force , for the overthrow of the international bourgeoisie and the creation of an international Soviet republic as a transition stage to the complete abolition of the state . The Comintern had been preceded by the 1916 dissolution of the Second International . Its members included the Soviet Union and the People 's Republic of Mongolia . The Comintern held seven World Congresses in Moscow between 1919 and 1935 . During that period , it also conducted thirteen Enlarged Plenums of its governing Executive Committee , which had much the same function as the somewhat larger and more grandiose Congresses . The Comintern was dissolved by Stalin in 1943 to avoid antagonizing his wartime allies , the United States and the United Kingdom .",
    "/wiki/Vasily_Schmidt": "Vasili Schmidt ( 1886-1938 ) was a Bolshevik politician , born in Saint Petersburg . On 1 December 1918 he was appointed Commissar for Labour , a post he held until 29 November 1928 . He was particularly concerned with the statification of the trade unions .",
    "/wiki/Ivar_Smilga": "Ivar Tenisovich Smilga ( , ; 1892-1938 ) was a Bolshevik leader and member of the Left Opposition in the Soviet Union .",
    "/wiki/Daniil_Sulimov": "Daniil Yegorovich Sulimov ( - 27 November 1937 ) was a Soviet-Russian statesman who was from 1930 to 1937 the Chairman of the Council of People 's Commissars of the Russian SFSR , equivalent to Premier or Prime Minister . He was arrested and executed during the Great Purge ."
  }
}