{
  "Sajid\u2013Wajid_1": {
    "/wiki/3_Dev": "3 Dev is an unreleased Indian Hindi comedy film written and directed by Ankoosh Bhatt . The film stars Karan Singh Grover , Kunaal Roy Kapur , Ravi Dubey , Tisca Chopra and Raima Sen in the prominent roles while Arya , Prosenjit Chatterjee and Kay Kay Menon in the supportive roles . The film is bankrolled by Chitan Rana of R2 Phillum Productions and cinematography for the film is handled by Soni Singh . The Bollywood musical duo Sajid-Wajid have been roped into compose and score music for the film .",
    "/wiki/Family_of_Thakurganj": "Family Of Thakurganj was a 2019 Avrage Indian Hindi-language action drama film directed by Manoj K. Jha , and produced by Ajay Kumar Singh . The film stars Jimmy Sheirgill and Mahie Gill , and follows the influence of modern society on traditional values in a typical family . Principal photography of the film began in October 2018 in Lucknow , and the film was theatrically released in India on 19 July 2019 .",
    "/wiki/Dabangg_3": "Dabangg 3 is a 2019 Indian Hindi-language action comedy film directed by Prabhu Deva and produced by Salman Khan and Arbaaz Khan under their respective banners of Salman Khan Films and Arbaaz Khan Productions . The film serves as a circumquel the 2010 film Dabangg and 2012 film Dabangg 2 , and is the third installment of the Dabangg film series . The screenplay of the film is written by Salman Khan , Prabhu Deva , and Alok Upadhyaye . The story , written by Salman Khan , is set in the state of Madhya Pradesh . The film features Salman Khan , Sonakshi Sinha , and Arbaaz Khan reprising their roles from the previous film , along with Sudeep as the antagonist and Saiee Manjrekar in her Bollywood debut . Along with dubbed versions in Kannada , Tamil and Telugu languages , the film was theatrically released in India on 20 December 2019 .",
    "/wiki/Pagalpanti_(2019_film)": "Pagalpanti ( ) is a 2019 Indian Hindi-language action comedy film directed by Anees Bazmee and produced by Bhushan Kumar and Krishan Kumar under the banner of T-Series along with Kumar Mangat Pathak and Abhishek Pathak under the banner of Panorama Studios . The film stars an ensemble cast of Anil Kapoor , John Abraham , Ileana D'Cruz , Arshad Warsi , Urvashi Rautela , Pulkit Samrat , Kriti Kharbanda and Saurabh Shukla in the lead roles . Principal photography of the film commenced on 17 February 2019 in London .",
    "/wiki/Satyameva_Jayate_(2018_film)": "Satyameva Jayate ( ) is a 2018 Indian Hindi-language vigilante action film directed by Milap Milan Zaveri . It stars John Abraham and Manoj Bajpayee in lead roles , and also marks their second collaboration after Shootout at Wadala . The shooting for the film began on 5 March 2018 . The film follows a vigilante who kills corrupt police officers , and an honest officer who is called to hunt him down after the body count begins to rise . The film was released on 15 August 2018 , coinciding with the Indian Independence Day . Opening on 2500 screens , it received mixed reviews from critics but was received well by the audience and had the highest opening day for an A-rated film , following which it became a commercial success . A sequel to the film , Satyameva Jayate 2 , was announced on 27 September 2018 . It features Abraham , Divya Khosla Kumar and Bajpayee in lead roles . Filming began on 20 September 2019 and it is slated to be released on 2 October 2020 during the Gandhi Jayanti festival .",
    "/wiki/Nanu_Ki_Jaanu": "Nanu Ki Jaanu ( ) is a 2018 Indian Hindi-language horror comedy film directed by Faraz Haider , starring Abhay Deol and Patralekha . The first look poster was launched on 23 March 2018 followed by its theatrical trailer on 26 March 2018 . Nanu Ki Jaanu was released on 20 April 2018 . The movie is a remake of 2014 Tamil movie Pisaasu .",
    "/wiki/Welcome_to_New_York_(2018_film)": "Welcome To New York is a 2018 Indian 3D comedy film , directed by Chakri Toleti , produced by Vashu Bhagnani and Jackky Bhagnani , and starring Ritesh Deshmukh , Sonakshi Sinha , Karan Johar , Diljit Dosanjh , Lara Dutta and Boman Irani . The film released on 23 February 2018 .",
    "/wiki/Judwaa_2": "Judwaa 2 ( Twins 2 ) is a 2017 Indian Hindi-language action-comedy film directed by David Dhawan . A reboot of the 1997 film Judwaa , the film stars Varun Dhawan playing twins Raja and Prem opposite Jacqueline Fernandez and Taapsee Pannu . Produced by Nadiadwala Grandson Entertainment , Judwaa 2 was released on 29 September 2017 .",
    "/wiki/Father": "A father is the male parent of a child . Besides the paternal bonds of a father to his children , the father may have a parental , legal , and social relationship with the child that carries with it certain rights and obligations . An adoptive father is a male who has become the child 's parent through the legal process of adoption . A biological father is the male genetic contributor to the creation of the infant , through sexual intercourse or sperm donation . A biological father may have legal obligations to a child not raised by him , such as an obligation of monetary support . A putative father is a man whose biological relationship to a child is alleged but has not been established . A stepfather is a male who is the husband of a child 's mother and they may form a family unit , but who generally does not have the legal rights and responsibilities of a parent in relation to the child . The adjective paternal refers to a father and comparatively to maternal for a mother . The verb to father means to procreate or to sire a child from which also derives the noun fathering . Biological fathers determine the sex of their child through a sperm cell which either contains an X chromosome ( female ) , or Y chromosome ( male ) . Related terms of endearment are dad ( dada , daddy ) , baba , papa , pappa , papasita , ( pa , pap ) and pop . A male role model that children can look up to is sometimes referred to as a father-figure .",
    "/wiki/Freaky_Ali": "Freaky Ali is a 2016 Indian sports comedy film written and directed by Sohail Khan . It is produced by Khan and Nishant Pitti , with dialogue by Raaj Shaandilyaa . The film stars Nawazuddin Siddiqui , Arbaaz Khan , and Amy Jackson . Based on the 1996 American comedy film , Happy Gilmore , Freaky Ali was released on 9 September 2016 .",
    "/wiki/Devi_(2016_film)": "Devi is a 2016 Indian Tamil-language comedy horror film co-written and directed by A. L. Vijay . It features Prabhu Deva , Tamannaah , and Sonu Sood in the lead roles with Murali Sharma , RJ Balaji , Saptagiri , and Rajiv Thakur in supporting roles . The film was also simultaneously shot in Telugu and Hindi , titled Abhinetri and Tutak Tutak Tutiya respectively . All three versions were released worldwide on 7 October 2016 .",
    "/wiki/Kyaa_Kool_Hain_Hum_3": "Kya Kool Hain Hum 3 ( ) is a 2016 Indian adult comedy film starring Tusshar Kapoor , Aftab Shivdasani and Mandana Karimi in lead roles along with Gizele Thakral , Claudia Ciesla , Krishna Abhishek , Shakti Kapoor , Darshan Jariwala in pivotal roles . It was released on January 22 , 2016 . The film is a sequel to 2012 film Kyaa Super Kool Hain Hum and the third installment of Kyaa Kool Hai Hum film series . The film was a moderate box office success .",
    "/wiki/Singh_Is_Bliing": "Singh Is Bliing is a 2015 Indian Hindi-language action comedy film directed by Prabhu Deva . It was produced by Ashvini Yardi and Jayantilal Gada under the banners of Grazing Goat Pictures and Pen India Pvt . Ltd . The film features Akshay Kumar , Amy Jackson , Lara Dutta and Kay Kay Menon in leading roles . Although often misinterpreted as a sequel , it is unrelated to the 2008 film Singh is Kinng which also stars Kumar , hence qualifying as a qausi-sequel . The plot is unofficially copied from korean movie My Wife is a Gangster 3 . Few of the scenes were unashamedly copied frame by frame from original .",
    "/wiki/Tevar": "Tevar ( ) is a 2015 Indian action film directed by Amit Sharma and written by Gunasekhar . The film stars Arjun Kapoor and Sonakshi Sinha and in lead roles while Manoj Bajpayee also plays a crucial role . It is an official remake of Telugu film Okkadu ( 2003 ) starring Mahesh Babu and Bhumika Chawla . Shruti Haasan made a special appearance in the song Madamiyan . The film was released worldwide on 9 January 2015 .",
    "/wiki/Dolly_Ki_Doli": "Dolly Ki Doli ( ) is a 2015 Indian comedy-drama film , directed by debutant Abhishek Dogra and produced by actor Arbaaz Khan under his production house Arbaaz Khan Productions . The film stars Sonam Kapoor in the title role and also features Pulkit Samrat , Rajkummar Rao and Varun Sharma . The film was released on 23 January 2015 . The film 's trailer was unveiled on Malaika 's and Arbaaz 's anniversary in December 2014 . Though the film was an average grosser , Kapoor 's performance was praised , earning her a Best Actress nomination at the 61st Filmfare Awards .",
    "/wiki/Daawat-e-Ishq": "Daawat-e-Ishq ( ) is a 2014 Indian Hindi-language romantic comedy film directed by Habib Faisal , and produced by Aditya Chopra under the banner of Yash Raj Films . It stars Parineeti Chopra and Aditya Roy Kapur . The soundtrack was composed by Sajid-Wajid . The film was released on 19 September 2014 , to mostly positive reviews . The Hindu said Daawat-e-Ishq was a potent recipe , and Times of India gave it four stars out of five . The film collected at the box office in its first week run .",
    "/wiki/Heropanti": "Heropanti ( ) is an Indian Hindi-language romantic action comedy film , directed by Sabbir Khan and produced by Sajid Nadiadwala . The film stars Tiger Shroff and Kriti Sanon in their Hindi film debuts , alongside Prakash Raj in a supporting role . It is a remake of the Telugu film Parugu . Heropanti was released on 23 May 2014 .",
    "/wiki/Main_Tera_Hero": "Main Tera Hero ( ) is a 2014 Indian Hindi-language romantic action comedy film , directed by David Dhawan and produced by Shobha Kapoor and Ekta Kapoor for Balaji Motion Pictures . The film stars Nargis Fakhri , Varun Dhawan and Ileana D'Cruz in the lead roles . Principal photography for the movie began on 30 May 2013 , filming started on 5 July 2013 and was completed by 15 October . The film released on 4 April 2014 to mixed reviews from critics , though it became a box office success . It is a remake of the 2011 Telugu film Kandireega .",
    "/wiki/Jai_Ho_(film)": "Jai Ho ( ) is a 2014 Indian Hindi-language action drama film directed by Sohail Khan and produced by Khan and Sunil Lulla . The film stars Salman Khan , Tabu , Daisy Shah , Aditya Pancholi and Danny Denzongpa . It also features Sunil Shetty and Genelia D'Souza in cameo appearances . The film is an official remake of the Telugu film Stalin ( 2006 ) , directed by A. R. Murugadoss . Jai Ho was released on 24 January 2014 , on 3900 screens in India and around 650 screens overseas . It received mixed reviews from critics . Jai Ho 's worldwide distribution rights were sold for 110 crore ( US $ 16 million as of January 2016 ) , while its satellite rights were sold for 50 crore ( $ 7.4 million ) . Its music rights were also sold for 12 crore ( $ 1.8 million ) .",
    "/wiki/Bullett_Raja": "Bullett Raja ( ) is a 2013 Indian action film co-written and directed by Tigmanshu Dhulia and produced by Rahul Mittra , Nitin Tej Ahuja and Tigmanshu Dhulia , under the banner of BrandSmith Motion Pictures and Moving Pictures . The film is presented by Fox Star Studios . The film features Saif Ali Khan , Sonakshi Sinha and Jimmy Sheirgill in leading roles , whilst Chunky Pandey , Ravi Kishan , Gulshan Grover , Raj Babbar and Vidyut Jammwal feature in pivotal roles . The film is set against the backdrop of Uttar Pradesh-based mafia while dealing with the political and industrial powers of the State.It was the opening film at the 8th annual Mosaic International South Asian Film Festival ( MISAFF ) 2014 in Toronto . The film released on 29 November 2013 ."
  }
}