{
  "2015\u201316_Liga_II_0": {
    "/wiki/FC_Academica_Clinceni": "Fotbal Club Academica Clinceni , commonly known as Academica Clinceni or simply as Clinceni , is a Romanian football club based in Clinceni , Ilfov County , currently playing in the Liga I . Founded in 2005 under the name of CS Buftea , following a merger between a local team from Buftea , which was playing in the fourth division and Cimentul Fieni , being located only 20 km north-west of Bucharest , in the town of Buftea , Ilfov County , the club had originally a red , white and blue combination of colors and played its home matches on Or\u0103\u0219enesc Stadium . The club was enrolled directly in the Liga III and promoted for the first time in the second league at the end of the 2007-08 season , but it only resisted one year , selling its place to S\u0103geata Stejaru and swapping divisions with the squad from Tulcea County . After another three seasons spent in the third tier , Buftenii promoted again , this time under the name of ACS Buftea , but the local authorities have withdrawn their financial support leaving the club in a position to play a Romanian Cup match only with youth players , registering the biggest defeat in the history of the club and probably the biggest in the history of the Romanian football , 0-31 . After this black episode the team near Bucharest made a decent season and at the end was ranked 6th ( the best performance in the history of the club at that time ) . In the next years followed three relocations for the club , which has a short , but tumultuous history . First time in 2013 , the club was bought by the local authorities from Clinceni , 30 km away from Buftea , renamed as FC Clinceni and rebranded , then one year later , businessman Constantin Moroianu bought the club , moved it to Pite\u0219ti , renamed it as Academica Arge\u0219 , changing its colors and logo . After another year the club was relocated again to Clinceni , renamed as Academica Clinceni , changed its colors back in black and blue and also the logo . After some financial problems , the club started in 2017 a collaboration with FCSB , having some young players on loan from the multiple champions of Romania . In 2019 under the led of Ilie Poenaru and with a squad composed mostly of young players , Academica promoted in the Liga I , for the first time in its 14 years old history representing the smallest locality that ever played in the Liga I , commune of Clinceni having a population of only 4,938 people . The previous record was held by Br\u0103ne\u0219ti with 8,531 inhabitants , whose team , Victoria played in the top-flight during the 2010-11 season .",
    "/wiki/Clinceni": "Clinceni is a commune in the southwestern part of Ilfov County , Romania . It is composed of three villages : Clinceni , Olteni and Ordoreanu . The location hosts a small airport .",
    "/wiki/Stadionul_Clinceni": "Stadionul Clinceni is a multi-purpose stadium in Clinceni , Romania . It is currently used mostly for football matches and is the home ground of Academica Clinceni . The stadium has a capacity of 4,500 seats .",
    "/wiki/ACS_Gauss_Bac\u0103u": "Asocia\u021bia Club Sportiv Gauss Bac\u0103u , commonly known as Gauss Bac\u0103u ( ) , or simply as Gauss , is a Romanian football club based in Bac\u0103u , Bac\u0103u County . Founded in 2006 under the name of Mesagerul Bac\u0103u , the club promoted to Liga III in 2010 , then being bought by Municipality of Bac\u0103u and changed its name in SC Bac\u0103u . Under this name , the club obtianed its best rankings , promoting in the second tier and obtaining at its best a 4th place . In 2016 the Municipality retired its financial support and Sport Club withdrew from the second league , then being bought by Cristian Postolache and merging with his club , Gauss R\u0103c\u0103ciuni , changing its name in Gauss Bac\u0103u and therefore signing up for the Liga III .",
    "/wiki/Bac\u0103u": "Bac\u0103u ( UK : /\u02c8b\u00e6ka\u028a/ BAK-ow , US : /b\u0259\u02c8ka\u028a/ b\u0259-KOW , Romanian : [ ba\u02c8k\u0259w ] ( listen ) ; German : Bakau ; Hungarian : B\u00e1k\u00f3 ; Latin : Bacovia ) is the main city in Bac\u0103u County , Romania . At the 2016 national estimation it had a population of 196,883 , [ citation needed ] making it the 12th largest city in Romania . The city is situated in the historical region of Moldavia , at the foothills of the Carpathian Mountains , and on the Bistri\u021ba River ( which meets the Siret River about 8 kilometres ( 5.0 mi ) to the south of Bac\u0103u ) . The Ghime\u0219 Pass links Bac\u0103u to the region of Transylvania .",
    "/wiki/Stadionul_Constantin_Anghelache": "Stadionul Constantin Anghelache , known until 2012 as Stadionul Letea , is a multi-purpose stadium in Bac\u0103u , Romania . It is currently used mostly for football matches and is the home ground of Liga IV sides CSM Bac\u0103u and Dinamo Bac\u0103u . Opened in the early 1970s the stadium was for most of its existence the home ground of Letea Bac\u0103u , team that would become second team of FCM Bac\u0103u in the early 2000s . Between 2006 and 2017 the stadium was also used by Gauss Bac\u0103u , team known in the past also as Mesagerul Bac\u0103u or SC Bac\u0103u . The stadium holds 2,000 people .",
    "/wiki/CS_Balote\u0219ti": "Clubul Sportiv Balote\u0219ti , commonly known as CS Balote\u0219ti or simply as Balote\u0219ti , is a Romanian football club from Balote\u0219ti , Ilfov County founded in 2006 . They currently play in the Liga II . At the end of the 2013-14 Liga III season , the team gained promotion to Liga II , for the first time in their history .",
    "/wiki/Balote\u0219ti": "Balote\u0219ti is a commune in the northwestern part of Ilfov County , Romania . Two small rivers flow through this location : Cociovali\u015ftea and Vl\u0103sia . It is composed of three villages : Balote\u0219ti , Dumbr\u0103veni and S\u0103ftica . The commune is named after an 18th-century boyar , Balot\u0103 , who owned local lands . On March 31 , 1995 , a TAROM Romanian Airbus A310 crashed near Balote\u0219ti , leaving 60 dead ( see Tarom Flight 371 ) .",
    "/wiki/Stadionul_Central_(Balote\u0219ti)": "Stadionul Central is a multi-use stadium in Balote\u0219ti , Romania . It is used mostly for football matches and is the home ground of CS Balote\u0219ti . The stadium holds 3,780 people .",
    "/wiki/ACS_Berceni": "ACS Berceni was a Romanian professional football club from Berceni , Romania , founded in 2008 and dissolved in 2016 . In their last season , they played in the Liga II , in the 2016-17 season .",
    "/wiki/Berceni,_Ilfov": "Berceni is a commune in the southeastern part of Ilfov county , Romania , composed of a single village , Berceni . Its name is derived from the Hussars of Mikl\u00f3s Bercs\u00e9nyi , who fought the Kurucs wars in early 18th century and eventually settled near Bucharest .",
    "/wiki/Stadionul_Berceni": "Berceni Stadium is a football stadium in Berceni , Romania . The stadium holds 2,700 people . The home was the ground of second division side ACS Berceni until 2016 , the Stadionul Berceni stage three group matches at the 2011 UEFA European Under-19 Football Championship .",
    "/wiki/ACS_Bucovina_Pojor\u00e2ta": "Fotbal Club Pulicica , commonly known as FC Pulicica , or simply as Pulicica , is a Romanian football club based in Pulicica , Suceava founded in 1950 .",
    "/wiki/Pojor\u00e2ta": "Pojor\u00e2ta ( ) is a commune located in Suceava County , Romania . It is composed of two villages , Pojor\u00e2ta and Valea Putnei .",
    "/wiki/Stadionul_Comunal_(Pojor\u00e2ta)": "Stadionul Pojor\u00e2ta is a multi-use stadium in Pojor\u00e2ta , Romania . It is used mostly for football matches and is the home ground of FC Pojor\u00e2ta . The stadium holds 1,000 people .",
    "/wiki/CSM_Ceahl\u0103ul_Piatra_Neam\u021b": "Club Sportiv Municipal Ceahl\u0103ul Piatra Neam\u021b , ( ) , commonly known as Ceahl\u0103ul Piatra Neam\u021b or simply as Ceahl\u0103ul , is a Romanian professional football club based in Piatra Neam\u021b , Neam\u021b County , currently playing in the Liga III . Originally established in 1919 , the team 's name stems from the not far off Ceahl\u0103u Massif . Nem\u021benii made their first appearance in the Romanian top division in the 1993-94 season . The club plays its home matches in black and yellow kits at the 18,000-seater Stadionul Ceahl\u0103ul .",
    "/wiki/Piatra_Neam\u021b": "Piatra Neam\u021b ( Romanian pronunciation : [ \u02c8pjatra \u02c8ne\u032famt\u0361s ] ) , German : Kreuzburg an der Bistritz , Hungarian : Kar\u00e1csonk\u0151 ) is the capital city of Neam\u021b County , in the historical region of Moldavia , eastern Romania . Because of its privileged location in the Eastern Carpathian mountains , it is considered one of the most picturesque cities in Romania . The Nord-Est Regional Development Agency is located in Piatra Neam\u021b .",
    "/wiki/Stadionul_Ceahl\u0103ul": "Stadionul Ceahl\u0103ul is a multi-purpose stadium in Piatra Neam\u021b , Romania . It is currently used mostly for football matches and is the home ground of Ceahl\u0103ul Piatra Neam\u0163 . The stadium , as well as the local football club takes its name from the Ceahl\u0103u Massif , located in the region . The stadium holds 18,000 people , and after major rehabilitation works , received a Category 3 ranking . The 2008 Cupa Rom\u00e2niei Final and the 2011 Supercupa Rom\u00e2niei were held on this stadium . It is the 10th stadium in the country by capacity .",
    "/wiki/ACS_Dacia_Unirea_Br\u0103ila": "Asocia\u021bia Club Sportiv Dacia Unirea Br\u0103ila , commonly known as Dacia Unirea Br\u0103ila , is a Romanian professional football club from Br\u0103ila , founded in 1919 . The club currently plays in the Liga II , currently their 50th season at this level . Their home is the 18,256-seat Stadionul Municipal stadium , where they have played since 1974 . Among the club 's best performances are one Romanian Cup final in the 1992-93 season and a 6th-place finish in the top division of the Romanian football league system in the 1991-92 season . Dacia Unirea 's current home colors are white and dark blue . Accordingly , the players are nicknamed The White-blues or The Cozmocs Lions ( Leii lui Cozmoc ) and play their home games at the 20,000-seater Municipal Stadium . The club 's most notable rivalry is the one against Otelul Galati .",
    "/wiki/Br\u0103ila": "Br\u0103ila ( /br\u0259\u02c8i\u02d0l\u0259/ , also US : /-l\u0251\u02d0/ , Romanian : [ br\u0259\u02c8ila ] ( listen ) ; Greek : \u0392\u03c1\u03ac\u03b9\u03bb\u03b1 , romanized : Vr\u00e1ila ; Turkish : \u0130brail ) is a city in Muntenia , eastern Romania , a port on the Danube and the capital of Br\u0103ila County . The Sud-Est Regional Development Agency is located in Br\u0103ila . According to the 2011 Romanian census there were 180,302 people living within the city of Br\u0103ila , making it the 11th most populous city in Romania .",
    "/wiki/Stadionul_Municipal_(Br\u0103ila)": "The Municipal Stadium ( ) is a multi-purpose stadium in Br\u0103ila , Romania , and is the home ground of Dacia Unirea Br\u0103ila . It holds 20,154 people The stadium was opened on August 21 , 1974 and was built on the ground of the old Vasile Roait\u0103 Stadium , a small stadium that had only one stand . Over time the stadium was renovated , the most recent were made in the summer of 2008 , ending up with the mounting of 8,000 seats on the 1st and 2nd stand , decreasing its capacity from 25,000 to 20,000 also in 2012 the seats from Main Stand were changed in the club colors white and blue . It holds motorcycle speedway events like the Speedway European Championship ( Qualifying Round 3 ) .",
    "/wiki/FCM_Dorohoi": "FCM Dorohoi was a Romanian professional football club from Dorohoi , Boto\u015fani County , Romania , founded in 2010 . Home matches were played at Stadionul Municipal , the same stadium which Cristalul , former Dorohoi football team , used to play .",
    "/wiki/Dorohoi": "Dorohoi ( ) is a city in Boto\u0219ani County , Romania , on the right bank of the Jijia River , which broadens into a lake on the north .",
    "/wiki/Stadionul_Municipal_(Dorohoi)": "Stadionul Municipal is a multi-use stadium in Dorohoi , Boto\u0219ani County , Romania . It is currently used mostly for football matches , it holds 2,000 people and is the home ground of the local team Inter Dorohoi and of the second team of Liga I club Boto\u0219ani .",
    "/wiki/FC_Dun\u0103rea_C\u0103l\u0103ra\u0219i": "Asocia\u021bia Fotbal Club Dun\u0103rea 2005 C\u0103l\u0103ra\u0219i , commonly known as Dun\u0103rea C\u0103l\u0103ra\u0219i ( ) , is a Romanian professional football club from the city of C\u0103l\u0103ra\u0219i , C\u0103l\u0103ra\u0219i County . Founded in 1962 , Valahii currently play in the Liga II , after finishing 13th out of 14 at the end of the 2018-19 Liga I season .",
    "/wiki/C\u0103l\u0103ra\u0219i": "C\u0103l\u0103ra\u0219i ( ) , the capital of C\u0103l\u0103ra\u0219i County in the Muntenia region , is situated in south-east Romania , on the bank of Danube 's Borcea branch , at about from the Bulgarian border and from Bucharest . The city is an industrial centre for lumber and paper , food processing , glass manufacturing , textiles , medical equipment production and heavy industry , the last represented by the C\u0103l\u0103ra\u0219i steel works . The city is known colloquially as Cap\u0219a provinciei ( the Cap\u0219a from the provinces ) .",
    "/wiki/Stadionul_Ion_Com\u0219a": "Ion Com\u0219a Stadium is a multi-use stadium in C\u0103l\u0103ra\u0219i . It is the home ground of Dun\u0103rea C\u0103l\u0103ra\u0219i . It holds 10,400 people .",
    "/wiki/FC_Farul_Constan\u021ba": "Fotbal Club Farul Constan\u021ba 1920 ( ) , commonly known as Farul Constan\u021ba , or simply as Farul is a Romanian professional football club based in the city of Constan\u021ba , Constan\u021ba County . Established in 1920 , it currently plays in the Liga II . Farul is a Romanian word which translates as the Lighthouse . The team has spent 42 seasons in the Liga I , the highest position achieved being the fourth place on three occasions , and it has also played one Romanian Cup final in 2005 which they lost to Dinamo Bucure\u0219ti . Farul has produced several talented players , the most notable of them being Gheorghe Hagi , the joint top goalscorer of the Romania national team .",
    "/wiki/Constan\u021ba": "Constan\u021ba ( UK : /k\u0252n\u02c8st\u00e6nts\u0259/ , US : /k\u0259n\u02c8st\u0251\u02d0n ( t ) s\u0259/ , Romanian : [ kon\u02c8stantsa ] ( listen ) ; Greek : \u039a\u03c9\u03bd\u03c3\u03c4\u03ac\u03bd\u03c4\u03b6\u03b1 , romanized : K\u014dnst\u00e1ntza , or \u039a\u03c9\u03bd\u03c3\u03c4\u03ac\u03bd\u03c4\u03b9\u03b1 K\u014dnst\u00e1ntia ; Bulgarian : \u041a\u044e\u0441\u0442\u0435\u043d\u0434\u0436\u0430 , romanized : Kjustend\u017ea , or \u041a\u043e\u043d\u0441\u0442\u0430\u043d\u0446\u0430 Konstanca ; Turkish : K\u00f6stence ) , historically known as Tomis ( Ancient Greek : \u03a4\u03cc\u03bc\u03b9\u03c2 ) , is the oldest continuously inhabited city in Romania . It was founded around 600 BC . The city is located in the Northern Dobruja region of Romania , on the Black Sea coast . It is the capital of Constan\u021ba County and the largest city in the region of Dobruja . As of the 2011 census , Constan\u021ba has a population of 283,872 , making it the fifth most populous city in Romania . The Constan\u021ba metropolitan area includes 14 localities within 30 km ( 19 mi ) of the city , and with a total population of 425,916 inhabitants , it is one of the largest metropolitan areas in Romania . The Port of Constan\u021ba has an area of 39.26 km2 ( 15.16 sq mi ) and a length of about 30 km ( 19 mi ) . [ citation needed ] It is the largest port on the Black Sea , and one of the largest ports in Europe .",
    "/wiki/Stadionul_Farul": "Stadionul Farul is a multi-purpose stadium in Constan\u021ba , Romania . It is currently used mostly for football matches and is the current home ground of Farul Constan\u021ba . The stadium also functions as an athletics arena , with track and field athletics facilities . Stadionul Farul is the first stadium in Romania where was played a football match in the floodlight , in 1970 . The stadium has played host to the Romania national football team , in the World Cup 2006 Qualification , UEFA Euro 2008 qualifying and 2010 FIFA World Cup qualification . The stadium is currently in bad condition . A lot of the seats in the stands are missing or are damaged . In general , the stadium is in need of renovation . In 2016 , Farul returned to play in the facility . It 's kept in an operating condition , but there are currently no plans to renew or renovate the stadium . In 2018 , supporters of Farul have asked the municipality in an open letter for financial support , also in order to renovate or rebuild the stadium . No plans to renew the facility have been published yet .",
    "/wiki/FC_Gloria_Buz\u0103u": "FC Gloria Buz\u0103u ( ) , commonly known as Gloria Buz\u0103u , was a Romanian association football club based in Buz\u0103u . The team played for seven years in Liga I , the most recent presence being recorded in the 2008-09 season . The club went bankrupt in 2016 .",
    "/wiki/Buz\u0103u": "The city of Buz\u0103u ( formerly spelled Buzeu or Buz\u0115u ; Romanian pronunciation : [ bu\u02c8z\u0259w ] ( listen ) ) is the county seat of Buz\u0103u County , Romania , in the historical region of Muntenia . It lies near the right bank of the Buz\u0103u River , between the south-eastern curvature of the Carpathian Mountains and the lowlands of B\u0103r\u0103gan Plain . Buz\u0103u is a railway hub in south-eastern Romania , where railways that link Bucharest to Moldavia and Transylvania to the Black Sea coast meet . DN2 , a segment of European route E85 crosses the city . Buz\u0103u 's proximity to trade routes helped it develop its role as a commerce hub in older days , and as an industrial centre during the 20th century . During the Middle Ages , Buz\u0103u was a market town and Eastern Orthodox episcopal see in Wallachia . It faced a period of repeated destruction during the 17th and 18th centuries , nowadays symbolized on the city seal by the Phoenix bird . In the 19th century , after the end of that era , the city began to recover . The economy underwent industrialization , Buz\u0103u became a railway hub , and public education became available . At this time , the Communal Palace , the city 's landmark building , and Cr\u00e2ng Park , the main recreational area , were built . The communist regime after World War II brought forced industrialization and the tripling of the city 's population . Some of the factories open at the time are still functioning within the framework of market economy .",
    "/wiki/Stadionul_Municipal_(Buz\u0103u)": "Stadionul Municipal is a multi-purpose stadium located near Cr\u00e2ng Park , in Buz\u0103u , Romania . It is currently used mostly for football matches and is the home ground of Gloria Buz\u0103u . The stadium was built between 1936-1942 , on the initiative of Buz\u0103u mayor . It underwent a major refurbishment between 1971 and 1976 . It was refurbished again in 2007 when it was transformed into an all-seater stadium .",
    "/wiki/ASC_O\u021belul_Gala\u021bi": "Asocia\u021bia Suporter Club O\u021belul Gala\u021bi ( Romanian pronunciation : [ o\u02c8t\u0361selul \u0261a\u02c8lat\u0361s\u02b2 ] ; Gala\u021bi Steel ) , commonly known as O\u021belul Gala\u021bi , or simply as O\u021belul , is a Romanian football club based in the city of Gala\u021bi , Gala\u021bi County , currently playing in the Liga III . Founded in 1964 as the team of the Gala\u021bi steel works , O\u021belul spent the first two decades of their history in the lower leagues . They reached the Liga I for the first time in 1986 and have spent a total of twenty-seven seasons playing in the top flight , while also securing several seasons of European football . O\u021belul won the league title at the end of the 2010-11 campaign , becoming the first Romanian champion from the region of Moldavia ; this triumph was accompanied by winning the 2011 Supercup . Their best result in the Romanian Cup is reaching the 2004 final . Internationally , O\u021belul 's best performances are qualifying for the group stages of the 2011-12 UEFA Champions League , and being one of the eleven co-winners of the 2007 UEFA Intertoto Cup . O\u021belarii 's team colors are red , white and blue , and they play at the O\u021belul Stadium .",
    "/wiki/Gala\u021bi": "Gala\u021bi ( UK : /\u0261\u00e6\u02c8l\u00e6ts/ , US : /\u0261\u0251\u02d0\u02c8l\u0251\u02d0ts ( i ) / , Romanian : [ \u0261a\u02c8lats\u02b2 ] ( listen ) ; also known by other alternative names ) is the capital city of Gala\u021bi County , in the historical region of Moldavia , eastern Romania . Gala\u021bi is a port town on the Danube River . In 2011 , the Romanian census recorded 249,432 residents , making it the 8th most populous city in Romania . Gala\u021bi is an economic centre based around the port of Gala\u021bi , the naval shipyard , and the largest steel mill in Romania , Gala\u021bi steel works .",
    "/wiki/Stadionul_O\u021belul": "Stadionul O\u021belul is a multi-purpose stadium in Gala\u0163i , Romania . It is currently used mostly for football matches and is the home ground of O\u0163elul Gala\u0163i .",
    "/wiki/Stadionul_Nicolae_Rainea": "Stadionul Nicolae Rainea , formerly known as Dun\u0103rea Stadium , is a multi-purpose stadium , frequently used for football . It is located in Gala\u021bi and was the home ground of CSU Gala\u021bi and Dun\u0103rea Gala\u0163i , among others . The stadium holds 23,000 people . Named after Nicolae Rainea , it is the 7th stadium in the country by capacity ( List of football stadiums in Romania ) .",
    "/wiki/FC_Rapid_Bucure\u0219ti": "Fotbal Club Rapid 1923 , commonly known as Rapid Bucure\u0219ti ( Romanian pronunciation : [ ra\u02c8pid buku\u02c8re\u0283t\u02b2 ] ) or simply as Rapid , is a Romanian football club based in Bucharest . It was founded in 1923 by a group of employees from the Grivi\u021ba workshops under the name of Asocia\u021bia Cultural\u0103 \u0219i Sportiv\u0103 CFR ( CFR Cultural and Sports Association ) . Domestically , Rapid Bucure\u0219ti is one of the most successful clubs in Romania , having won 3 Liga I titles , 13 Cupa Rom\u00e2niei and 4 Supercupa Rom\u00e2niei . Internationally , their most notable achievements are reaching the quarter-finals of the 1972-73 Cup Winners ' Cup and of the 2005-06 UEFA Cup , and the final of the 1940 Mitropa Cup , which was not played because of the Second World War . In July 2016 , the club was declared bankrupt and subsequently replaced in the first division by ACS Poli Timi\u0219oara . Several new entities claimed the legacy of Rapid , including ACS Rapid - Frumo\u0219ii Nebuni ai Giule\u0219tiului , AFC Rapid and Academia Rapid . In June 2018 , after 18 auctions along which the price of the Rapid brand had fallen with about \u20ac3 million , Academia officially became the successor of the original club . Since 1939 , the club plays its home matches at the Giule\u0219ti-Valentin St\u0103nescu in burgundy and white uniforms . Giule\u0219tenii have fierce local rivalries with CSA Steaua and Dinamo Bucure\u0219ti , as well as with Petrolul Ploie\u0219ti .",
    "/wiki/Bucharest": "Bucharest ( UK : /\u02ccbu\u02d0k\u0259\u02c8r\u025bst/ BOO-k\u0259-REST , US : /\u02c8bu\u02d0k\u0259r\u025bst/ -\u2060rest ; Romanian : Bucure\u0219ti [ buku\u02c8re\u0283t\u02b2 ] ( listen ) ) is the capital and largest city of Romania , as well as its cultural , industrial , and financial centre . It is located in the southeast of the country , at 44\u00b025\u203257\u2033N 26\u00b006\u203214\u2033E / 44.43250\u00b0N 26.10389\u00b0E / 44.43250 ; 26.10389Coordinates : 44\u00b025\u203257\u2033N 26\u00b006\u203214\u2033E / 44.43250\u00b0N 26.10389\u00b0E / 44.43250 ; 26.10389 , on the banks of the D\u00e2mbovi\u021ba River , less than 60 km ( 37.3 mi ) north of the Danube River and the Bulgarian border . Bucharest was first mentioned in documents in 1459 . It became the capital of Romania in 1862 and is the centre of Romanian media , culture , and art . Its architecture is a mix of historical ( neo-classical and Art Nouveau ) , interbellum ( Bauhaus , and art deco ) , communist era and modern . In the period between the two World Wars , the city 's elegant architecture and the sophistication of its elite earned Bucharest the nickname of 'Paris of the East ' ( Romanian : Parisul Estului ) or 'Little Paris ' ( Romanian : Micul Paris ) . Although buildings and districts in the historic city centre were heavily damaged or destroyed by war , earthquakes , and even Nicolae Ceau\u0219escu 's program of systematization , many survived and have been renovated . In recent years , the city has been experiencing an economic and cultural boom . It is one of the fastest-growing high-tech cities in Europe , according to Financial Times , CBRE , TechCrunch and others . UiPath , a global startup founded in Bucharest , has reached $ 7 billion in valuation . Since 2019 , Bucharest hosts the largest high tech summit in Southeast Europe ( Romania Blockchain Summit ) . In 2016 , the historical city centre was listed as 'endangered ' by the World Monuments Watch .",
    "/wiki/Stadionul_Giule\u0219ti-Valentin_St\u0103nescu_(1939)": "Giule\u0219ti-Valentin St\u0103nescu Stadium was a football stadium in Bucharest , Romania . It was the home stadium of FC Rapid Bucure\u0219ti for almost 80 years . It was named after Valentin St\u0103nescu , the coach that helped Rapid to win its first title , but was most commonly known as the Giule\u0219ti Stadium , after the name of the neighborhood in which it was located . Landmarks near the stadium include Podul Grant , Giule\u0219ti Theatre and Prunaru market . Gara de Nord is not far away from the stadium and the Grivi\u021ba Railway Yards are right next to it . The stadium was entirely demolished in 2019 , and will be replaced with a new all-seater stadium expected to open in 2020 .",
    "/wiki/ACS_Foresta_Suceava": "Asocia\u021bia Club Sportiv Foresta Suceava , commonly known as Foresta Suceava or simply as Foresta , is a professional football club from Romania , based in Suceava , Suceava County , Romania and founded in 1946 as Locomotiva I\u021bcani . Previously , the club changed its name to A.S. C.F.R . I\u021bcani as well . At the end of the 2017-2018 season finished 18th out of 20 teams and were relegated to the third league . They currently play in the Liga III , in the 2018-19 season finished on the 5th place .",
    "/wiki/Suceava": "Suceava ( ) is the largest city and the seat of Suceava County , situated in the historical region of Moldavia , north-eastern Romania , and at the crossroads of Central and Eastern Europe respectively . During the late Middle Ages , more specifically from 1388 to 1564 , the city was the third capital of the Principality of Moldavia . Between 1775 and 1918 , Suceava was the third most populous urban settlement of the Duchy of Bukovina ( ) , a constituent province of the Austrian Empire and subsequently a crown land within Austria-Hungary , being solely surpassed by Cern\u0103u\u021bi ( ) and R\u0103d\u0103u\u021bi ( ) , both located to the north . Throughout this period of time , Suceava fulfilled the task of an important , strategically-located commercial border town with the then Romanian Old Kingdom ( ) , receiving a large influx of German-speaking settlers in the process of the Josephine colonization ( a community which has dwindled to a very feeble number in contemporary times ) . After 1918 , along with the rest of Bukovina , Suceava became part of the enlarged Kingdom of Romania . Nowadays , within the economic framework of the European Union , the city is one of the most significant economic , touristic , and historical urban centres of the Romanian North-East development region .",
    "/wiki/Stadionul_Areni": "Areni Stadium is a multi-purpose stadium in Suceava . It currently is the home ground of Foresta Suceava . The stadium had a total capacity of 12,500 seats and was opened in 1963 as the Municipal Stadium . Additionally , the stadium was also renovated between the periods 1976-1977 , 1980-1982 and 2002 respectively . After the seats were installed it holds 7,000 people ."
  },
  "2019\u201320_Liga_II_1": {
    "/wiki/FC_Arge\u0219_Pite\u0219ti": "Fotbal Club Arge\u0219 Pite\u0219ti ( Romanian pronunciation : [ \u02c8ard\u0361\u0292e\u0283 pi\u02c8te\u0283t\u02b2 ] ) , commonly known as FC Arge\u0219 or Arge\u0219 Pite\u0219ti , is a Romanian professional football club based in Pite\u0219ti , Arge\u0219 County , currently playing in the Liga II . Nicknamed the White-Violet Eagles , the team was founded in 1953 as Dinamo Pite\u0219ti . Its most successful period was in the 1970s , when it won the national championship twice . FC Arge\u0219 traditionally plays its home matches at the Nicolae Dobrin Stadium , which has a capacity of 15,000 .",
    "/wiki/Ionu\u021b_Badea": "Ionu\u0163 Badea ( born 14 October 1975 ) is a retired Romanian footballer and currently manager of Liga II club Arge\u0219 Pite\u0219ti .",
    "/wiki/Vasile_Buh\u0103escu": "Vasile Buh\u0103escu ( born 2 February 1988 ) , is a Romanian professional footballer who plays as a centre forward for Arge\u0219 Pite\u0219ti .",
    "/wiki/Macron_(sportswear)": "Macron S.p.A. is an Italian sporting apparel company , based in Crespellano , Bologna . It is considered a European leader in the production of active sportswear . Macron operates in three main business areas :",
    "/wiki/Pite\u0219ti": "Pite\u0219ti ( Romanian pronunciation : [ pi\u02c8te\u0283t\u02b2 ] ) is a city in Romania , located on the Arge\u0219 River . The capital and largest city of Arge\u0219 County , it is an important commercial and industrial center , as well as the home of two universities . Pite\u0219ti is situated in the historical region of Muntenia . It lies on the A1 freeway connecting the city directly to the national capital Bucharest , being an important railway junction , with a classification yard in nearby B\u0103lile\u0219ti . The city houses the Arpechim oil refinery , and is a marketing center for the automotive industry , in particular Automobile Dacia . Inhabited since prehistoric times but first mentioned in the 14th century , it developed as a trading town in northern Wallachia , serving as an informal residence for various Wallachian Princes until the 18th century . From the 19th century and until the interwar period , it was an important political center for the National Liberal Party and the main residence of the Br\u0103tianu family of politicians . During the early stages of the communist regime , it was one of the main sites of political repression , with the Pite\u0219ti prison becoming home to an experiment in brainwashing techniques .",
    "/wiki/ASU_Politehnica_Timi\u0219oara": "Asocia\u021bia Sportiv\u0103 Universitatea Politehnica Timi\u0219oara ( ) , commonly known as ASU Politehnica Timi\u0219oara , or simply as ASU Poli , is a Romanian professional football club based in the city of Timi\u0219oara , Timi\u0219 County , currently playing in the Liga II . ASU Poli belongs to the Politehnica University of Timi\u0219oara and is a fan-owned phoenix club formed after the dissolution of the original FC Politehnica Timi\u0219oara in 2012 . Also in that year , ACS Reca\u0219 was moved to Timi\u0219oara and renamed ACS Poli Timi\u0219oara , but the fans decided to create and support an amateur team , being of the opinion that ACS Poli is a fraud and a political maneuver .",
    "/wiki/Ioan_Mera": "Ioan Mera ( born 5 January 1987 ) is a Romanian professional footballer who plays for ASU Politehnica Timi\u0219oara as a centre back .",
    "/wiki/CS_Concordia_Chiajna": "Clubul Sportiv Concordia Chiajna , commonly known as Concordia Chiajna , is a Romanian professional football club founded in 1957 and based in Chiajna , Ilfov County . The team currently plays in the Liga II , the second tier of the Romanian football league system .",
    "/wiki/Florin_Bratu": "Florin Daniel Bratu ( born 2 January 1980 ) is a Romanian football coach and former player , who played as forward .",
    "/wiki/Petre_Ivanovici": "Petre Daniel Ivanovici ( born 2 March 1990 ) is a Romanian professional footballer who plays as a midfielder for Concordia Chiajna .",
    "/wiki/Joma": "Joma ( Spanish pronunciation : [ \u02c8xoma ] ) is a Spanish sports clothing manufacturer , which currently produces footwear and clothing for football , futsal , handball basketball , volleyball , running , tennis , padel , fitness . Its headquarters are located in Spain . Joma was founded in 1965 to produce shoes for general use . In 1968 , the company began to specialize in sport shoes production and distribution . After a relative success , Joma decided to enter into football market , obtaining a great success and becoming the leader in its country , consequently also with international success . Eventually , Joma Sport had opened offices in the United States , Europe and Asia being currently present in over 70 countries throughout the world . Joma Sport brand is in the top ten in the world-ranking .",
    "/wiki/CSM_Re\u0219i\u021ba": "Clubul Sportiv Muncitoresc Re\u0219i\u021ba ( Romanian pronunciation : [ \u02ccklubul spor\u02c8tiv \u02ccmu\u014bt\u0283i.to\u02c8resk \u02c8re\u0283it\u0361sa ] ) , commonly known as CSM Re\u0219i\u021ba or simply as Re\u0219i\u021ba , is a Romanian football club based in Re\u0219i\u021ba , Cara\u0219-Severin County , currently playing in the Liga II . The club was founded on 25 May 1926 as UD ( Uzinele \u0219i Domeniile ) Re\u0219i\u021ba and throughout its almost centennial history survived to many sharp ups and downs , from a national title in 1931 and a silver medal in 1932 to the last shine in the late 1990s , several reorganizations in the 2000s and an almost fatal fall at the level of amateur leagues during the 2010s . Over time CSM had important battles with local rivals as Muncitorul Re\u0219i\u021ba or Gloria Re\u0219i\u021ba , but has secured itself the city 's supremacy , as well as the title of county 's most important and supported club . Despite the strong support from the Mountain Banat , Re\u0219i\u021benii have never succeeded in imposing themselves on a regional level , not even the national title won in 1931 or the 1954 cup not being able to tilt the balance in favor of the red and blacks , in their duel for Banat against FC Politehnica Timi\u0219oara . In time the rivalry between the two sides increased as intensity and continued even after the bankruptcy of FC Politehnica , but now at a much lower level , against ASU Politehnica Timi\u0219oara , fans team and unofficial successor of the old white and violet side . CSM Re\u0219i\u021ba is nicknamed by fans Rosso-Nerii or Milan from Banat due to its classical red kits with black stripes . Re\u0219i\u021ba 's supporters are well-known in Romania for the eagerness with which support their team , the ultras group of CSM being named Guardia Rosso-Nera ( GRN ) . Rosso-Nerii play their home matches on Mircea Chivu Stadium .",
    "/wiki/Dorinel_Munteanu": "Dorinel Ionel Munteanu ( ; born 25 June 1968 ) is a Romanian retired professional footballer and currently manager of Romanian club CSM Re\u0219i\u021ba . A former midfielder , Munteanu is the most capped Romanian player of all time , with a total of 134 appearances and 16 goals . He played in two editions of the World Cup , those held in the United States in 1994 and France in 1998 , as well as two European Championships , in 1996 and 2000 .",
    "/wiki/Lauren\u021biu_Rus": "Lauren\u021biu Daniel Rus ( born 7 May 1985 ) is a Romanian professional footballer who plays for S\u0103n\u0103tatea Cluj . He is a versityle player , being able to play as a right winger , a midfielder or a right back .",
    "/wiki/Jako": "Jako AG is a German sportswear company based in the Hollenbach district of Mulfingen , Baden-W\u00fcrttemberg . The company was founded by Rudi Spr\u00fcgel in 1989 in Stachenhausen . Jako provides kits for teams playing association football , handball , basketball , ice hockey and other sports .",
    "/wiki/Re\u0219i\u021ba": "Re\u0219i\u021ba ( Romanian pronunciation : [ \u02c8re\u0283it\u0361sa ] ; German : Reschitz ; Hungarian : Resicab\u00e1nya ; Croatian : Ri\u010dica ; Czech : Re\u0161ice ; Serbian : \u0420\u0435\u0448\u0438\u0446\u0430/Re\u0161ica ; Turkish : Re\u015f\u00e7e ) is a city in western Romania and the capital of Cara\u0219-Severin County , in the Banat region . Its 2011 population was 73,282 .",
    "/wiki/ASC_Daco-Getica_Bucure\u0219ti": "Asocia\u021bia Sport Club Daco-Getica Bucure\u0219ti , commonly known as Daco-Getica Bucure\u0219ti , is a professional Romanian football club based in Bucharest . From 1992 to the summer of 2018 , the team was known as Juventus Bucure\u0219ti , a name which was also used by unrelated Petrolul Ploie\u0219ti in the past . One year prior to the renaming , Daco-Getica played their first season in the Liga I , the top division in the country . Daco-Getica dissolved its senior squad after 13 rounds played of the 2019-20 Liga II season .",
    "/wiki/FC_Dun\u0103rea_C\u0103l\u0103ra\u0219i": "Asocia\u021bia Fotbal Club Dun\u0103rea 2005 C\u0103l\u0103ra\u0219i , commonly known as Dun\u0103rea C\u0103l\u0103ra\u0219i ( ) , is a Romanian professional football club from the city of C\u0103l\u0103ra\u0219i , C\u0103l\u0103ra\u0219i County . Founded in 1962 , Valahii currently play in the Liga II , after finishing 13th out of 14 at the end of the 2018-19 Liga I season .",
    "/wiki/Cristian_Pustai": "Cristian Dumitru Pustai ( born 12 October 1967 in Media\u0219 ) is a Romanian football manager and former striker .",
    "/wiki/Georgian_Honciu": "Georgian Honciu ( born 24 April 1989 ) is a Romanian professional footballer who plays as a midfielder for Dun\u0103rea C\u0103l\u0103ra\u0219i . Honciu made his Liga I debut on 22 July 2018 , at 29 years old , when he played for Dun\u0103rea C\u0103l\u0103ra\u0219i , club that also made its debut in the top flight , against Viitorul Constan\u021ba , scoring the only goal of the match . Until his debut in the Liga I , Georgian Honciu played in the Liga II and Liga III for clubs such as : Chindia T\u00e2rgovi\u0219te , Fortuna Poiana C\u00e2mpina , Mioveni or \u0218irineasa .",
    "/wiki/FC_Farul_Constan\u021ba": "Fotbal Club Farul Constan\u021ba 1920 ( ) , commonly known as Farul Constan\u021ba , or simply as Farul is a Romanian professional football club based in the city of Constan\u021ba , Constan\u021ba County . Established in 1920 , it currently plays in the Liga II . Farul is a Romanian word which translates as the Lighthouse . The team has spent 42 seasons in the Liga I , the highest position achieved being the fourth place on three occasions , and it has also played one Romanian Cup final in 2005 which they lost to Dinamo Bucure\u0219ti . Farul has produced several talented players , the most notable of them being Gheorghe Hagi , the joint top goalscorer of the Romania national team .",
    "/wiki/Ianis_Zicu": "Ianis Alin Zicu ( born 23 October 1983 ) is a Romanian former professional footballer who played as a midfielder . He is currently the manager of Farul Constan\u021ba .",
    "/wiki/Vlad_Mu\u021biu": "Vlad Ionu\u021b Mu\u021biu ( born 2 February 1995 ) is a Romanian professional footballer who plays as a goalkeeper for Farul Constan\u021ba .",
    "/wiki/FC_Metaloglobus_Bucure\u0219ti": "Fotbal Club Metaloglobus Bucure\u0219ti , commonly known as Metaloglobus Bucure\u0219ti or simply as Metaloglobus , is a Romanian football club based in Bucure\u0219ti , currently playing in the Liga II .",
    "/wiki/Marius_M\u0103ld\u0103r\u0103\u0219anu": "Marius Constantin M\u0103ld\u0103r\u0103\u0219anu ( born 19 April 1975 in Ploie\u015fti ) is a retired Romanian football midfielder and current manager of Metaloglobus Bucure\u0219ti . He started his career playing for Petrolul Ploie\u015fti in 1996 , moving to Rapid Bucure\u015fti in 1998 . M\u0103ld\u0103r\u0103\u015fanu joined Turkish side Be\u015fikta\u015f during the 2002 season , only to return in 2003 . In January 2008 , after a conflict with coach Mircea Rednic , M\u0103ld\u0103r\u0103\u015fanu was released from his contract . Soon after he signed a contract with FC Bra\u015fov . M\u0103ld\u0103r\u0103\u015fanu has been capped 8 times for his country .",
    "/wiki/Ovidiu_Herea": "Nicolae Ovidiu Herea ( born 26 March 1985 ) is a Romanian footballer who plays as an attacking midfielder for Metaloglobus Bucure\u0219ti .",
    "/wiki/FK_Miercurea_Ciuc": "Futball Klub Miercurea Ciuc , commonly known as FK Miercurea Ciuc ( ) or simply Miercurea Ciuc ( ) ; ( ) ( ) , is a professional Romanian football club based in Miercurea Ciuc , Harghita County and also geographically placed in the historic and ethnographic region of Sz\u00e9kely Land , an area inhabited mainly by Sz\u00e9kelys , a subgroup of the Hungarian people . The team is currently playing in the Liga II . The history of football from Miercurea Ciuc ( Cs\u00edkszereda ) started back in 1904 , when Transylvania was still part of Austria-Hungary and the football club of the city was an amateur one , without significant results at the national level . Re-founded as Asocia\u021bia de Educa\u021bie Fizic\u0103 din Miercurea Ciuc in 1919 , and after as part of Romania until 1940 , when re-annexed to Hungary it was renamed as Cs\u00edkszereda TE , the club did not obtain important results , the maximum being a season ( interrupted after 4 rounds ) in the Nemzeti Bajnoks\u00e1g II , second league of Hungary . After WWII Miercurea Ciuc has become again part of the Kingdom of Romania then from 1947 of the Socialist Republic of Romania and football has taken a downward slope until 1971 , when AS Miercurea Ciuc ( as it was named at that time ) promoted for the first time in its history in the Divizia C. During the 1970s and 1980s , the team evolved mainly in the third tier , under names such as IUPS , Tractorul or Rapid , having as the best performance a 3rd place at the end of the 1988-89 season of Divizia C. After the Romanian Revolution of 1989 Rapid has encountered many financial problems , promoting and relegating constantly between the third and fourth tier , all culminating in a withdrew from the championship of Divizia C at the start of the 2000-01 season . After a decade of amateurism and subsistence , the football club of Miercurea Ciuc was re-founded in 2010 under the name of CSM Miercurea Ciuc ( ) , changing its name after two years in FK Miercurea Ciuc ( ) . The team won Harghita Series of Liga IV in 2012 , 2013 and 2014 , before promoting back to Liga III , after 14 years of absence . In the third tier , under the led of R\u00f3bert Ily\u00e9s , the squad beat the old record of the club and finished 2nd at the end of the 2017-18 edition . Finally , at the end of the 2018-19 season , under the command of Valentin Suciu , the coach who promoted Sepsi OSK Sf\u00e2ntu Gheorghe ( first team from Sz\u00e9kely Land that achieved the top-flight of the Romanian football ) from the fourth tier to Liga I , the Red and Blacks promoted for the first time in their history to Liga II .",
    "/wiki/Valentin_Suciu": "Valentin Dumitru Suciu ( born 25 September 1980 ) is a Romanian professional football manager . He was the manager of Sepsi Sf\u00e2ntu Gheorghe in the Liga I and currently is the manager of Miercurea Ciuc .",
    "/wiki/2Rule": "2Rule is a Hungarian sports clothing brand .",
    "/wiki/Miercurea_Ciuc": "Miercurea Ciuc ( , ; , , ; ) is the county seat of Harghita County , Romania . It lies in the Sz\u00e9kely Land , a mainly Hungarian-speaking ethno-cultural region in eastern Transylvania , and is situated in the Olt River valley . The city administers three villages :",
    "/wiki/CS_Mioveni": "Clubul Sportiv Mioveni ( ; Mioveni Sports Club ) , commonly known as CS Mioveni , or simply as Mioveni , is a Romanian professional football club based in Mioveni , Arge\u0219 County , currently playing in the Liga II . They were founded in 2000 as AS Mioveni 2000 and play their home matches at the Stadionul Or\u0103\u0219enesc , which has a capacity of 10,000 .",
    "/wiki/Claudiu_Niculescu": "Claudiu Iulian Niculescu ( born 23 June 1976 ) is a Romanian football coach and former striker . As a footballer , he played in Romania for Universitatea Craiova , Dinamo Bucure\u0219ti and U Cluj , and has also played abroad for Genoa 1893 , MSV Duisburg and Omonia . He was a striker and was especially skilled in free-kicks . He is 11th in an all-time ranking for the goalscorers in Liga I , with 156 goals .",
    "/wiki/Ionu\u021b_Burnea": "Ionu\u021b Georgian Burnea ( born 12 August 1992 ) is a Romanian professional footballer who plays for Mioveni as a defender .",
    "/wiki/Mioveni": "Mioveni ( ) is a town in Arge\u0219 County , Romania , approximately 15 km ( 9 miles ) north-east of Pite\u0219ti . , it had a population of 31,998 . The town administers four villages : Clucereasa , Coliba\u0219i , F\u0103getu and Racovi\u021ba .",
    "/wiki/CS_Pandurii_T\u00e2rgu_Jiu": "Clubul Sportiv Pandurii Lignitul T\u00e2rgu Jiu ( Romanian pronunciation : [ \u02ccklubul spor\u02c8tiv pan\u02c8durij li\u0261\u02c8nitul \u02cct\u0268r\u0261u \u02c8\u0292iw ] ) , commonly known as Pandurii T\u00e2rgu Jiu , or simply as Pandurii , is a Romanian professional football club based in T\u00e2rgu Jiu , Gorj County , currently playing in the Liga II . Founded in 1962 , following the merger of Flac\u0103ra-Unirea T\u00e2rgu Jiu and CIL T\u00e2rgu Jiu , Pandurii is one of the four Romanian clubs that represent the country at the European Club Association . Domestically , Gorjenii have never won any major honour , but finished as runners-up in the league at the end of the 2012-13 season and lost a League Cup final in 2015 . They qualified for the very first time in a European competition in 2013 , playing in the UEFA Europa League and reaching the group stage . The colors of the team are white and blue .",
    "/wiki/Nike,_Inc.": "Nike , Inc. ( /\u02c8na\u026aki/ ) [ note 1 ] is an American multinational corporation that is engaged in the design , development , manufacturing , and worldwide marketing and sales of footwear , apparel , equipment , accessories , and services . The company is headquartered near Beaverton , Oregon , in the Portland metropolitan area . It is the world 's largest supplier of athletic shoes and apparel and a major manufacturer of sports equipment , with revenue in excess of US $ 24.1 billion in its fiscal year 2012 ( ending May 31 , 2012 ) . As of 2012 , it employed more than 44,000 people worldwide . In 2014 the brand alone was valued at $ 19 billion , making it the most valuable brand among sports businesses . As of 2017 , the Nike brand is valued at $ 29.6 billion . Nike ranked No . 89 in the 2018 Fortune 500 list of the largest United States corporations by total revenue . The company was founded on January 25 , 1964 , as Blue Ribbon Sports , by Bill Bowerman and Phil Knight , and officially became Nike , Inc. on May 30 , 1971 . The company takes its name from Nike , the Greek goddess of victory . Nike markets its products under its own brand , as well as Nike Golf , Nike Pro , Nike+ , Air Jordan , Nike Blazers , Air Force 1 , Nike Dunk , Air Max , Foamposite , Nike Skateboarding , Nike CR7 , and subsidiaries including Brand Jordan , Hurley International and Converse . Nike also owned Bauer Hockey ( later renamed Nike Bauer ) from 1995 to 2008 , and previously owned Cole Haan and Umbro .",
    "/wiki/FC_Petrolul_Ploie\u0219ti": "Fotbal Club Petrolul Ploie\u0219ti ( Romanian pronunciation : [ pe\u02c8trolul plo\u02c8je\u0283t\u02b2 ] ) , commonly known as Petrolul Ploie\u0219ti , or simply as Petrolul , is a Romanian professional football club based in Ploie\u0219ti , Prahova County , which plays in the Liga II . Founded in 1924 in capital Bucharest as Juventus , following the merger of Triumf and Romcomit , it won its first league championship in the 1929-30 season . The team was relocated north to the city of Ploie\u0219ti in 1952 and settled on the current name of Petrolul five years later . [ note 1 ] Shortly after , the club achieved three more national titles - in 1957-58 , 1958-59 and 1965-66 . Domestically , its honours also include three national cups , the latest in the 2012-13 campaign . Petrolul 's debut in European football was recorded in 1958 , when they faced Wismut Karl Marx Stadt of East Germany in the preliminary round . In recent history , Petrolul became insolvent in February 2015 and dissolution followed , however supporters and club legends refounded and enrolled it in the fourth division in the summer of 2016 . Petrolul 's current home colors are yellow and dark blue . Accordingly , the players are nicknamed the Yellow Wolves and play their home games at the 15,500-seater Ilie Oan\u0103 Stadium . The club 's most notable rivalries are the ones against Rapid Bucure\u0219ti and Astra Giurgiu .",
    "/wiki/Costel_Enache": "Costel Enache ( born 11 March 1973 ) is a Romanian football coach and former player .",
    "/wiki/Lauren\u021biu_Marinescu": "Lauren\u021biu Nicolae Marinescu ( born 25 August 1984 ) is a Romanian footballer who plays as a midfielder for Petrolul Ploie\u0219ti .",
    "/wiki/Veolia": "Veolia Environnement S.A. , branded as Veolia , is a French transnational company with activities in three main service and utility areas traditionally managed by public authorities - water management , waste management and energy services . It previously also managed transport services through its subsidiary Veolia Transport ( later Transdev ) until January 2019 . In 2012 , Veolia employed 318,376 employees in 48 countries . Its revenue in that year was recorded at \u20ac29.4 billion . It is quoted on Euronext Paris . It is headquartered in Aubervilliers . Between 1998 and 2003 the company was known as Vivendi Environnement , having been spun off from the Vivendi conglomerate , most of the rest of which became Vivendi . Prior to 1998 Vivendi was known as Compagnie G\u00e9n\u00e9rale des Eaux . In 2014 , following a major restructuring , the company adopted the unaccompanied Veolia name across its businesses .",
    "/wiki/FC_Rapid_Bucure\u0219ti": "Fotbal Club Rapid 1923 , commonly known as Rapid Bucure\u0219ti ( Romanian pronunciation : [ ra\u02c8pid buku\u02c8re\u0283t\u02b2 ] ) or simply as Rapid , is a Romanian football club based in Bucharest . It was founded in 1923 by a group of employees from the Grivi\u021ba workshops under the name of Asocia\u021bia Cultural\u0103 \u0219i Sportiv\u0103 CFR ( CFR Cultural and Sports Association ) . Domestically , Rapid Bucure\u0219ti is one of the most successful clubs in Romania , having won 3 Liga I titles , 13 Cupa Rom\u00e2niei and 4 Supercupa Rom\u00e2niei . Internationally , their most notable achievements are reaching the quarter-finals of the 1972-73 Cup Winners ' Cup and of the 2005-06 UEFA Cup , and the final of the 1940 Mitropa Cup , which was not played because of the Second World War . In July 2016 , the club was declared bankrupt and subsequently replaced in the first division by ACS Poli Timi\u0219oara . Several new entities claimed the legacy of Rapid , including ACS Rapid - Frumo\u0219ii Nebuni ai Giule\u0219tiului , AFC Rapid and Academia Rapid . In June 2018 , after 18 auctions along which the price of the Rapid brand had fallen with about \u20ac3 million , Academia officially became the successor of the original club . Since 1939 , the club plays its home matches at the Giule\u0219ti-Valentin St\u0103nescu in burgundy and white uniforms . Giule\u0219tenii have fierce local rivalries with CSA Steaua and Dinamo Bucure\u0219ti , as well as with Petrolul Ploie\u0219ti .",
    "/wiki/Dan_Alexa": "Dan Alexa ( born 28 October 1979 in Timi\u015foara ) is a Romanian professional football manager and former player . As a defensive midfielder , he spent 16 years as a professional player . After he ended his playing career , Alexa became a manager . His first job was at Poli Timi\u0219oara , in March 2014 . Since August 23 , 2017 he was manager of Dun\u0103rea C\u0103l\u0103ra\u0219i until summer of 2019 . Then he was named manager of Astra Giurgiu .",
    "/wiki/Ionu\u021b_Voicu": "Ionu\u021b Cosmin Voicu ( born 24 August 1984 ) is a Romanian professional footballer who plays as a right back for Rapid Bucure\u0219ti .",
    "/wiki/FC_Ripensia_Timi\u0219oara": "Fotbal Club Ripensia UVT Timi\u0219oara ( Romanian pronunciation : [ timi\u02c8\u0283o\u032fara ] ) , commonly known as Ripensia Timi\u0219oara , or simply as Ripensia , is a Romanian professional football club based in Timi\u0219oara , Timi\u0219 County . It plays in the Liga II . The team was founded in 1928 by Dr. Cornel Laz\u0103r and folded after twenty years due to lack of funds . However , Ripi was brought back to life and enrolled in the Liga VI , the sixth tier of the Romanian football league system , in 2012 . Ripensia Timi\u0219oara was the first Romanian club to turn professional , and because of this status they were unable to compete in the national league until the 1932-33 season . After being granted permission in the national system , the club soon became one of the best in the country , winning four national titles and two national cups in their short history . The colors of the team are red and yellow .",
    "/wiki/Alexandru_Pelici": "Alexandru Pelici ( born 10 January 1974 ) is a Romanian former professional footballer and currently a manager .",
    "/wiki/CS_Sportul_Snagov": "Club Sportiv Sportul Snagov , commonly known as Sportul Snagov or simply as Snagov , is a Romanian professional football club from Snagov , Ilfov County founded in 2010 as Damila M\u0103ciuca . Currently it plays in the Liga II , the second-tier in the Romanian football system .",
    "/wiki/SCM_Gloria_Buz\u0103u": "Sport Club Municipal Gloria Buz\u0103u ( ) , commonly known as Gloria Buz\u0103u or simply as SCM Gloria , is a Romanian association football club based in Buz\u0103u , Buz\u0103u County , currently playing in the Liga II . The club was founded on 25 August 2016 , as FC Buz\u0103u , being renamed as SCM Gloria Buz\u0103u in the summer of 2018 at once with the inclusion as the football section of the newly founded sports club of the city , SCM Gloria Buz\u0103u . The Glorious Ones achieved three consecutive promotions from the fifth tier up to Liga II , in the Liga III being undefeated for almost all the season . Founded as a chance of continuity for the football in Buz\u0103u , the club does not hold the record of the old team ( FC Gloria Buz\u0103u ) , but enjoys the support of the local fans ( including the ultras group Peluza Cr\u00e2ng ) , who consider it as the main club of the city and the successor , at least unofficially , of the football history from the Cr\u00e2ng park .",
    "/wiki/Ilie_Stan": "Ilie Stan ( born 17 October 1967 in C\u0103ld\u0103r\u0103\u015fti ) is a Romanian manager and former footballer , who currently is managing Liga II side SCM Gloria Buz\u0103u .",
    "/wiki/AFC_Turris-Oltul_Turnu_M\u0103gurele": "AFC Turris-Oltul Turnu M\u0103gurele , commonly known as Turris-Oltul Turnu M\u0103gurele , or simply Turris Turnu M\u0103gurele , is a Romanian professional football club based in Turnu M\u0103gurele , Teleorman County . The team was founded as Voin\u021ba Saelele in 1965 and was originally based in Saelele , Teleorman County . The club played only at amateur level , Liga IV and Liga V , until 2017 when it won Liga IV - Teleorman County and the promotion play-off against CS Strehaia ensuring its first Liga III presence . In the summer of the same year the club was moved from Saelele to Turnu M\u0103gurele and changed its name in Voin\u021ba Turnu M\u0103gurele , then in the summer of 2018 in Turris-Oltul Turnu M\u0103gurele .",
    "/wiki/Erik_Lincar": "Erik Augustin Lincar ( born 16 October 1978 in Oradea ) is a Romanian former player and current manager . He was born in Oradea and debuted in Divizia A with Steaua Bucure\u0219ti in 1997 , having joined Steaua from the Girondins de Bordeaux youth team . Steaua won the league title during his first season with the club , took the cup title in 1999 and the league title again in 2001 . In 2002 , he headed overseas to spend two unsuccessful seasons in Greece at Panathinaikos and Akratitos . After playing for a while in Russia for FC Amkar Perm , Lincar returns to Romania . He played for Prefab Modelu where he is also an assistant manager . In 2011 , he was manager of FC Hunedoara for six matches being dismissed on 26 September 2011 . Lincar got 5 caps for the Romanian national team in 1999 and 2000 , and was an unused substitute at Euro 2000 .",
    "/wiki/Silviu_Pan\u0103": "Silviu Gabriel Pan\u0103 ( born 24 September 1991 in Bucharest ) is a Romanian footballer who plays as a midfielder for Turris-Oltul Turnu M\u0103gurele . First match in Liga I was played for Concordia Chiajna , against Sportul Studen\u021besc . His older brother is Sorin Pan\u0103 .",
    "/wiki/FC_Universitatea_Cluj": "Fotbal Club Universitatea Cluj ( Romanian pronunciation : [ universi\u02c8tate\u032fa klu\u0292 ] ) , or simply as U Cluj , is a Romanian professional football club based in the city of Cluj-Napoca , Cluj County . Founded in 1919 by Iuliu Ha\u021bieganu , the team currently plays in the Liga II , the second tier of the Romanian football league system . Universitatea Cluj spent most of their history in the first division , but never became national champions . They played five Romanian Cup finals , under four different names , and won the trophy in the 1964-65 season . They were considered to be the important in the region of Transylvania , however this status has recently been threatened by the success of their city rivals CFR Cluj . Its players and fans are nicknamed \u0218epcile ro\u0219ii ( The Red Caps ) , because of the red berets worn by students of the Cluj University of Medicine . Universitatea Cluj traditionally plays in white and black kits , although variations of red , maroon and gold have been used in the past . The club 's home ground is the Cluj Arena .",
    "/wiki/Adrian_Falub": "Adrian Falub ( born 8 July 1971 in Dej , Romania ) is a Romanian football manager and former player .",
    "/wiki/Dorin_Goga": "Dorin Ioan Goga ( born 2 July 1984 ) is a Romanian professional footballer who plays for Liga II club Universitatea Cluj as a forward .",
    "/wiki/Adidas": "Adidas AG ( German : [ \u02c8\u0294adi\u02ccdas ] AH-dee-DAHS ; stylized as \u0251did\u0251s since 1949 ) is a multinational corporation , founded and headquartered in Herzogenaurach , Germany , that designs and manufactures shoes , clothing and accessories . It is the largest sportswear manufacturer in Europe , and the second largest in the world , after Nike . It is the holding company for the Adidas Group , which consists of the Reebok sportswear company , 8.33% of the German football club Bayern Munich , and Runtastic , an Austrian fitness technology company . Adidas ' revenue for 2018 was listed at \u20ac21.915 billion . The company was started by Adolf Dassler in his mother 's house ; he was joined by his elder brother Rudolf in 1924 under the name Dassler Brothers Shoe Factory . Dassler assisted in the development of spiked running shoes ( spikes ) for multiple athletic events . To enhance the quality of spiked athletic footwear , he transitioned from a previous model of heavy metal spikes to utilising canvas and rubber . Dassler persuaded U.S. sprinter Jesse Owens to use his handmade spikes at the 1936 Summer Olympics . In 1949 , following a breakdown in the relationship between the brothers , Adolf created Adidas , and Rudolf established Puma , which became Adidas ' business rival . Adidas ' logo is three stripes , which is used on the company 's clothing and shoe designs as a marketing aid . The branding , which Adidas bought in 1952 from Finnish sports company Karhu Sports , became so successful that Dassler described Adidas as The three stripes company .",
    "/wiki/De'Longhi": "De'Longhi S.p.A is an Italian small appliance manufacturer based in Treviso , Italy .",
    "/wiki/Untold_Festival": "Untold Festival is the largest electronic music festival held in Romania , taking place in Cluj-Napoca at the Cluj Arena . It 's held annually and has been designated Best Major Festival within European Festival Awards 2015 . Guests include a vast range of European countries , as well as Asia and North America .",
    "/wiki/FC_UTA_Arad": "Fotbal Club UTA Arad ( Romanian pronunciation : [ \u02c8uta a\u02c8rad ] ) , commonly known as UTA Arad , or simply as UTA , is a Romanian professional football club based in the city of Arad , Arad County , currently playing in Liga II . UTA stands for Uzina Textil\u0103 Arad . Founded in 1945 as IT Arad , they have won the national title six times and the national cup twice . Domestically , along with Chinezul Timi\u0219oara , UTA can be considered one of the most successful Romanian clubs of the 20th century , with only three teams winning more championships during that period - Steaua , Dinamo and Venus , all from Bucharest . After a decline which started in 1979 with a relegation to the second league , in 2014 the team was dissolved . With the support of fans , a new team started its way back from Liga IV , the fourth level of Romanian league system , and is credited as the official successor of the defunct club . The Old Lady plays in red and white kits at the Motorul Stadium , as their traditional home ground , Francisc von Neuman , is currently under reconstruction .",
    "/wiki/L\u00e1szl\u00f3_Balint": "Gy\u00f6rgy L\u00e1szl\u00f3 Gyuszi Balint ( born 29 March 1979 ) is a Romanian football manager of Hungarian descent . He has been a player-manager in the 2010-2011 season , after signing as a player in March 2010 . In his early career as a footballer , he played for Rapid Energia Bra\u015fov , Romradiatoare Bra\u015fov , before joining FC Bra\u015fov in 2001 , where he played for four seasons in Liga I . After the club 's relegation he moved to CFR Cluj , under player-coach Dorinel Munteanu , reaching with his new club into the Intertoto Cup finals of 2005 . The following season , he transferred to another Liga I club , UTA Arad . In 2007 , he is brought by Dan Petrescu into the squad of Unirea Urziceni , a team that would gain its first championship title in history two years later . After that , followed a short spell at Di\u00f3sgy\u0151r in the Hungarian First Division , before signing as a player-manager for Unirea T\u0103rlungeni in the Romanian Liga III , a club near his hometown of Bra\u015fov . Under his management , Unirea T\u0103rlungeni promoted for the first time in history in the Romanian Liga II . After coaching Unirea T\u0103rlungeni for a year in Romanian Liga II \u00een January 2015 was employed by FC Bra\u0219ov as assistant coach for the second part of the 2014-2015 Romanian Liga I , followed by an employment as head-coach at Academica Clinceni in the Romanian Liga II . In June 2017 , he was appointed as head-coach at T\u00e2rgu Mure\u0219 , team that has relegated from the Romanian Liga I to the Romanian Liga II , where he spent only 3 months , resigning after the 6th match in the league , when ASA 2013 T\u00e2rgu Mure\u0219 was sitting 3rd in the table . After his short spell at T\u00e2rgu Mure\u0219 he took over the management of FK Miercurea Ciuc , finishing second at the end of the 2017-2018 season of Liga III , highest ranking in the club history . In June 2018 , he accepted the offer from Sportul Snagov , team that finished 10th in the 2017-2018 season of Liga II , and under his command , the team becomes the biggest surprise of the competition , finishing the first part of the 2018-2019 season at the top of the table .",
    "/wiki/Ciprian_Rus": "Ciprian Rus ( born 1 March 1991 ) is a Romanian professional footballer who plays as a forward for Liga II side UTA Arad .",
    "/wiki/Sport-Saller": "Sport-Saller is a German sportswear company which focuses on football team sports products , and is based in Weikersheim , Baden-W\u00fcrttemberg .",
    "/wiki/Arad,_Romania": "Arad ( Romanian pronunciation : [ a\u02c8rad ] ( listen ) ; Hungarian : Arad ; Serbian : \u0410\u0440\u0430\u0434/Arad ) is the capital city of Arad County , historically situated in the region of Cri\u0219ana , and having extended into the neighboring Banat region in the 20th century . Arad is the third largest city in Western Romania , behind Timi\u0219oara and Oradea , and the 12th largest in Romania , with a population of 159,704 . A busy transportation hub on the Mure\u0219 River and an important cultural and industrial center , Arad has hosted one of the first music conservatories in Europe , one of the earliest normal schools in Europe , and the first car factory in Hungary and present-day Romania . Today , it is the seat of a Romanian Orthodox archbishop and features a Romanian Orthodox theological seminary and two universities . The city 's multicultural heritage is owed to the fact that it has been part of the Kingdom of Hungary , the Eastern Hungarian Kingdom , the Ottoman Teme\u015fvar Eyalet , Principality of Transylvania , Austro-Hungarian Empire , and since 1920 Romania , having had significant populations of Hungarians , Germans , Jews , Serbians , Bulgarians and Roma at various points in its history . During the second half of the 19th century and the beginning on the 20th century , the city has experienced rapid development . The most impressive displays of architecture that are still the popular sights of Arad today , such as the neoclassical Ioan Slavici Theater , the eclectic Administrative Palace and the neogothic Red Church , have been built in this period .",
    "/wiki/ACS_Viitorul_T\u00e2rgu_Jiu": "Asocia\u021bia Clubul Sportiv Viitorul Pandurii T\u00e2rgu Jiu , commonly known as Viitorul Pandurii T\u00e2rgu Jiu or Viitorul T\u00e2rgu Jiu , is a Romanian football club from T\u00e2rgu Jiu , Gorj County , currently playing in the Liga II . Established in 1998 , the team was known as \u0218irineasa in the first twenty years and originally based in \u0218irineasa , V\u00e2lcea County . In the summer of 2017 , the club was moved to Petro\u0219ani , but kept the old name . It was renamed as ACS Energeticianul in the following year and after a period of uncertainty it was decided that the team would continue in Petro\u0219ani . In the summer of 2019 the club was moved again , this time from Petro\u0219ani to T\u00e2rgu Jiu and renamed as Viitorul Pandurii T\u00e2rgu Jiu .",
    "/wiki/Cristian_Lupu\u021b": "Cristian Ciprian Lupu\u021b ( born 2 September 1977 ) is a Romanian former professional footballer and currently a manager .",
    "/wiki/Cristian_Oro\u0219": "Cristian Daniel Oro\u0219 ( born 15 October 1984 in Sighetu Marma\u021biei ) is a Romanian footballer who plays as centre back for Viitorul T\u00e2rgu Jiu ."
  }
}