{
  "2010\u201311_A-League_12": {
    "/wiki/Chris_Payne_(soccer)": "Christopher Chris Payne ( born 15 September 1990 ) is an Australian football ( soccer ) player who plays for APIA Leichhardt Tigers FC in the National Premier Leagues NSW",
    "/wiki/Northern_Fury_FC": "Northern Fury Football Club is an Australian semi-professional soccer club based in Townsville , Queensland . The club was founded in 2008 and competed in the A-League under the name North Queensland Fury . On 1 March 2011 , the club was removed from the league due to financial instability . On 3 October 2012 , the club officially re-formed after it was granted a licence to participate in the National Premier League Queensland . Northern Fury play their home fixtures at Townsville Sports Reserve .",
    "/wiki/Mathew_Leckie": "Mathew Allan Leckie ( born 4 February 1991 ) is an Australian footballer who plays for Hertha BSC and the Australia national team .",
    "/wiki/Adelaide_United_FC": "Adelaide United Football Club is a professional soccer club based in Adelaide , South Australia , Australia . The club participates in the A-League under licence from Football Federation Australia . The club was founded in 2003 to fill the place vacated by Adelaide City and West Adelaide in the former National Soccer League ( NSL ) , and is now the sole team from the state of South Australia in the A-League . Adelaide United 's home ground is Hindmarsh Stadium . Adelaide United were premiers in the inaugural 2005-06 A-League season , finishing 7 points clear of the rest of the competition , before finishing third in the finals . Adelaide United holds the record for the largest win in an A-League game . Adelaide defeated North Queensland Fury 8-1 at Hindmarsh Stadium on 21 January 2011 . It was also the first time - and , to date , remains the only time - a team had two players score hat-tricks in a single match : one to Marcos Flores and the other to Sergio van Dijk . In 2014 , Adelaide United were the winners of the first FFA Cup , beating Perth Glory 1-0 in the final , and in 2016 won their first ever A-League Grand Final , beating the Western Sydney Wanderers 3-1 with goals from Bruce Kamau , Isa\u00edas and Pablo Sanchez . In 2019 , Adelaide United became the first team to win three FFA Cup titles after defeating Melbourne City FC in the 2019 FFA Cup Final .",
    "/wiki/Luke_DeVere": "Luke DeVere ( born 5 November 1989 ) is an Australian Professional Footballer who plays for A-League side Wellington Phoenix . DeVere made his debut for Australia in 2015 , having previously played for the nation 's under-20 and under-23 sides .",
    "/wiki/Brisbane_Roar_FC": "Brisbane Roar Football Club is an Australian professional soccer club based in Brisbane , Queensland and has won the domestic title on three separate occasions , as well as holding the longest unbeaten record of 36 league matches without defeat . Brisbane competes in the country 's premier competition , the A-League , and has ex Liverpool and England international player Robbie Fowler as manager . The club has a shared history with Queensland Lions F.C . who competed in the inaugural A-League season as Queensland Roar . This shared history with Lions , dating back to Hollandia F.C . and 1957 , comfortably makes them the oldest club in the A-League .",
    "/wiki/Mustafa_Amini": "Mohammad Mustafa Castillo Amini , known as Mustafa Amini , ( Dari : \u0645\u062d\u0645\u062f \u0645\u0635\u0637\u0641\u06cc \u06a9\u0627\u0633\u062a\u06cc\u0644\u0648 \u0627\u0645\u06cc\u0646\u06cc , born 20 April 1993 ) is an Australian professional footballer who plays as a midfielder for Danish Superliga club AGF and the Australian national team . Born in Sydney , Amini played youth football with the Australian Institute of Sport before starting his professional career with Central Coast Mariners in the A-League . In 2011 , Amini signed for Bundesliga club Borussia Dortmund . After playing only for their second team , he transferred in 2015 to Randers FC . Amini has appeared numerous times for the Australian U-17 , U-20 and U-23 teams . He took part in the 2011 FIFA U-20 World Cup .",
    "/wiki/Central_Coast_Mariners_FC": "Central Coast Mariners Football Club is an Australian professional soccer club based in Gosford , on the Central Coast of New South Wales . It competes in the A-League , under licence from Football Federation Australia ( FFA ) . The Mariners were founded in 2004 and are one of the eight original A-League teams . It is the first professional sports club from the Gosford region to compete in a national competition . Despite being considered one of the smallest-market clubs in the league , the Central Coast Mariners have claimed one A-League Championship from four Grand Final appearances and topped the table to win the A-League Premiership twice . The club has also appeared in the AFC Champions League four times . The club plays matches at Central Coast Stadium , a 20,059-seat stadium in Gosford ; its purpose-built training facility , Mariners Centre of Excellence , is located in the suburb of Tuggerah . The facility is also home to a youth team that competes in the National Youth League . The English Premier League team Sheffield United has invested in the Central Coast-based club , and the Mariners has affiliation agreements with several international clubs . The Mariners ' main supporters ' group is known as the Yellow Army , for the colour of the club 's home kit . The club shares a rivalry with Newcastle Jets , known as the F3 Derby , after the previous name of the motorway that connects the cities of the teams . Matt Simon is the Mariners ' all-time leading goalscorer as of January 2020 , with 55 goals in all competitions .",
    "/wiki/Mathew_Ryan": "Mathew David Ryan ( born 8 April 1992 ) is an Australian professional footballer who plays as a goalkeeper for club Brighton & Hove Albion and the Australia national team . Born in Sydney , Ryan played youth football for Marconi Stallions , Blacktown City and Central Coast Mariners . He made his senior debut for Blacktown before moving to the Mariners ' senior squad in 2010 . In 2013 , Ryan moved to Club Brugge , where he played for two years before joining Valencia . He made his senior international debut in 2012 , and has since established himself as Australia 's first-choice goalkeeper , effectively succeeding his childhood idol Mark Schwarzer . He played at the 2014 and 2018 World Cups as well as the 2015 and 2019 Asian Cups , winning the Best Goalkeeper award at the 2015 tournament which his country won on home soil .",
    "/wiki/Aziz_Behich": "Aziz Eraltay Behich ( , ; born 16 December 1990 ) is an Australian professional footballer who plays as a left back and left winger for \u0130stanbul Ba\u015fak\u015fehir .",
    "/wiki/Melbourne_City_FC": "Melbourne City Football Club is an Australian professional soccer club based in the northern Melbourne suburb of Bundoora , Victoria . It competes in the country 's premier competition , the A-League , under licence from Football Federation Australia . Founded in 2009 as Melbourne Heart , the club competed under that name from its inaugural 2010-11 season until it was acquired and subsequently rebranded in mid-2014 by the City Football Group , in partnership with Holding M.S . Australia . In August 2015 , City Football Group bought out the Holding M.S . Australia consortium to acquire 100% ownership of the club . The club is run from the City Football Academy , a facility in the northern suburb of Bundoora near La Trobe University . The club plays home matches at Melbourne Rectangular Stadium , commercially known as AAMI Park , a 30,050 seat multi-use venue in Melbourne 's City Centre . The club also has an affiliated youth team which competes in the National Youth League , an NPL team which competes in the National Premier Leagues and a senior women 's team which competes in the W-League .",
    "/wiki/Marco_Rojas": "Marco Rodrigo Rojas ( born 5 November 1991 ) is a New Zealand professional footballer who plays as a winger or attacking midfielder for the New Zealand national team . Fans have dubbed Rojas as the Kiwi Messi during his stint in the A-League with Melbourne Victory FC .",
    "/wiki/Wellington_Phoenix_FC": "Wellington Phoenix Football Club is a professional football club based in Wellington , New Zealand . It competes in the Australian A-League , under licence from Football Federation Australia . Phoenix entered the competition in the 2007-08 season after its formation in March 2007 , by New Zealand Football to replace New Zealand Knights as a New Zealand-based club in the Australian A-League competition . The club is one of the few clubs in the world to compete in a league of a different confederation ( AFC ) from that of the country where it is based ( OFC ) . Ernie Merrick was the head coach following the resignation of founding coach Ricki Herbert late in the 2012-13 season , until his own resignation on 5 December 2016 . The current club captain is Steven Taylor , who took over in 2019 . Andrew Durante was club captain from the 2008-09 season until leaving the club in 2019 , succeeding from the inaugural captain , Ross Aloisi . The club 's highest achievement is reaching the A-League Preliminary Final in 2010 . The club plays matches at Sky Stadium ( formerly named Westpac Stadium ) , a 34,500-seat multi-purpose venue in Wellington . Their home kit consists of black and yellow stripes ."
  }
}