{
  "List_of_sovereign_states_and_dependent_territories_in_North_America_by_population_density_0": {
    "/wiki/Bermuda": "Bermuda ( /b\u0259r\u02c8mju\u02d0d\u0259/ ) ( in full , the Islands of Bermuda ) is a British Overseas Territory in the North Atlantic Ocean . It is approximately 1,070 km ( 665 mi ) east-southeast of Cape Hatteras , North Carolina ; 1,236 km ( 768 mi ) south of Cape Sable Island , Nova Scotia ; and 1,759 km ( 1,093 mi ) northeast of Cuba . Though it is typically referred to in the singular , Bermuda consists of 181 islands ; the largest of these islands is known as Main Island . The capital city of Bermuda is Hamilton . Bermuda is self-governing , with its own constitution and government and a Parliament which makes local laws . The United Kingdom retains responsibility for defence and foreign relations . As of July 2018 , it has a population of 71,176 , making it the most populous of the British overseas territories . Bermuda 's largest economic sectors are offshore insurance , reinsurance , and tourism . Bermuda had one of the world 's highest GDP per capita for most of the 20th century . It has a subtropical climate and lies in the hurricane belt and thus is prone to related severe weather ; however , it is somewhat protected by a coral reef and by its position at the north of the belt , which limits the direction and severity of approaching storms .",
    "/wiki/Barbados": "Barbados ( /b\u0251\u02d0r\u02c8be\u026ad\u0252s/ ( listen ) or /-do\u028as/ ) is an island country in the Lesser Antilles of the West Indies , in the Caribbean region of North America . It is 34 kilometres ( 21 miles ) in length and up to 23 km ( 14 mi ) in width , covering an area of 432 km2 ( 167 sq mi ) . It is situated in the western area of the North Atlantic and 100 km ( 62 mi ) east of the Windward Islands and the Caribbean Sea ; therein , Barbados is east of the Windwards , part of the Lesser Antilles , roughly at 13\u00b0N of the equator . It is about 168 km ( 104 mi ) east of both the countries of Saint Lucia and Saint Vincent and the Grenadines and 180 km ( 110 mi ) south-east of Martinique and 400 km ( 250 mi ) north-east of Trinidad and Tobago . Barbados is outside the principal Atlantic hurricane belt . Its capital and largest city is Bridgetown . Inhabited by Kalinago people since the 13th century , and prior to that by other Amerindians , Barbados was visited by Spanish navigators in the late 15th century and claimed for the Spanish Crown . It first appeared in a Spanish map in 1511 . The Portuguese Empire claimed the island between 1532 and 1536 , but later abandoned it in 1620 ; with their only remnants being an introduction of wild boars for a good supply of meat whenever the island was visited , and to replenish their water supply . An English ship , the Olive Blossom , arrived in Barbados on 14 May 1625 ; its men took possession of it in the name of King James I . In 1627 , the first permanent settlers arrived from England , and it became an English and later British colony . As a wealthy sugar colony , it became an English centre of the African slave trade until that trade was outlawed in 1807 , with final emancipation of slaves in Barbados occurring over a period of years from 1833 .",
    "/wiki/Puerto_Rico": "Puerto Rico [ a ] ( Spanish for Rich Port ; abbreviated PR ) , officially the Commonwealth of Puerto Rico ( Spanish : Estado Libre Asociado de Puerto Rico , lit . Free Associated State of Puerto Rico ) [ b ] and briefly called Porto Rico , [ c ] is an unincorporated territory of the United States located in the northeast Caribbean Sea , approximately 1,000 miles ( 1,600 km ) southeast of Miami , Florida . An archipelago among the Greater Antilles , located between the Dominican Republic and the US Virgin Islands , Puerto Rico includes the eponymous main island and several smaller islands , such as Mona , Culebra , and Vieques . The capital and most populous city is San Juan . The territory 's total population is approximately 3.4 million , more than 21 U.S. states . Spanish and English are the official languages of the executive branch of government , though Spanish predominates . Originally populated by the indigenous Ta\u00edno people , Puerto Rico was colonized by Spain following the arrival of Christopher Columbus in 1493 . It was contested by the French , Dutch , and British , but remained a Spanish possession for the next four centuries . The island 's cultural and demographic landscapes were shaped by the displacement and assimilation of the native population , the forced migration of African slaves , and settlement from the Canary Islands and Andalusia . In the Spanish Empire , Puerto Rico played a secondary but strategic role compared to wealthier colonies like Peru and New Spain . Spain 's distant administrative control continued up to the end of the 19th century , producing a distinctive creole Hispanic culture and language that combined indigenous , African , and European elements . On September 23 , 1868 , Ram\u00f3n Emeterio Betances unleashed a revolt against Spanish rule , declaring for the first time the idea of Puerto Ricans as a distinct people , with right to sovereignty .",
    "/wiki/Martinique": "Martinique ( /\u02ccm\u0251\u02d0rt\u026a\u02c8ni\u02d0k/ MAR-tin-EEK , French : [ ma\u0281tinik ] ( listen ) ; Martinican Creole : Matnik or Matinik ) is an insular region of France located in the Lesser Antilles of the West Indies in the eastern Caribbean Sea , with a land area of 1,128 square kilometres ( 436 sq mi ) and a population of 376,480 inhabitants as of January 2016 . Like Guadeloupe , it is an overseas region ( r\u00e9gion d'outre-mer ) of France , consisting of a single overseas department . One of the Windward Islands , it is directly north of Saint Lucia , northwest of Barbados and south of Dominica . As one of the eighteen regions of France , Martinique is part of the European Union , and its currency is the euro . Virtually the entire population speaks both French , the official language , and Antillean Creole ( Cr\u00e9ole Martiniquais ) .",
    "/wiki/Aruba": "Aruba ( /\u0259\u02c8ru\u02d0b\u0259/ \u0259-ROO-b\u0259 , Dutch : [ a\u02d0\u02c8ruba\u02d0 , -ryb- ] ( listen ) , Papiamento : [ a\u02c8ruba ] ) is an island and a constituent country of the Kingdom of the Netherlands in the southern Caribbean Sea , located about 1,000 kilometres ( 620 mi ) west of the main part of the Lesser Antilles and 29 kilometres ( 18 mi ) north of the coast of Venezuela . It measures 32 kilometres ( 20 mi ) long from its northwestern to its southeastern end and 10 kilometres ( 6 mi ) across at its widest point . Together with Bonaire and Cura\u00e7ao , Aruba forms a group referred to as the ABC islands . Collectively , Aruba and the other Dutch islands in the Caribbean are often called the Dutch Caribbean . Aruba is one of the four countries that form the Kingdom of the Netherlands , along with the Netherlands , Cura\u00e7ao , and Sint Maarten ; the citizens of these countries are all Dutch nationals . Aruba has no administrative subdivisions , but , for census purposes , is divided into eight regions . Its capital is Oranjestad . Unlike much of the Caribbean region , Aruba has a dry climate and an arid , cactus-strewn landscape . This climate has helped tourism as visitors to the island can reliably expect warm , sunny weather . It has a land area of 179 km2 ( 69.1 sq mi ) and is densely populated , with a total of 102,484 inhabitants at the 2010 Census . Current estimates of the population place it at 116,600 ( July 2018 est . ) It lies outside Hurricane Alley .",
    "/wiki/El_Salvador": "El Salvador ( /\u025bl \u02c8s\u00e6lv\u0259d\u0254\u02d0r/ ( listen ) ; Spanish : [ el sal\u03b2a\u02c8\u00f0o\u027e ] ( listen ) ) , officially the Republic of El Salvador ( Spanish : Rep\u00fablica de El Salvador , literally Republic of The Savior ) , is the smallest and the most densely populated country in Central America . It is bordered on the northeast by Honduras , on the northwest by Guatemala , and on the south by the Pacific Ocean . El Salvador 's capital and largest city is San Salvador . As of 2018 [ update ] , the country had a population of approximately 6.42 million . El Salvador was for centuries inhabited by several Mesoamerican nations , especially the Cuzcatlecs , as well as the Lenca and Maya . In the early 16th century , the Spanish Empire conquered the territory , incorporating it into the Viceroyalty of New Spain ruled from Mexico City . However the Viceroyalty of Mexico had little or no influence in the daily affairs of the Central American isthmus , which would be colonized in 1524 . In 1609 the area became the Captaincy General of Guatemala , from which El Salvador was part of until its independence from Spain , which took place in 1821 , as part of the First Mexican Empire , then further seceded , as part of the Federal Republic of Central America , in 1823 . When the Republic dissolved in 1841 , El Salvador became a sovereign nation , then formed a short-lived union with Honduras and Nicaragua called the Greater Republic of Central America , which lasted from 1895 to 1898 . From the late 19th to the mid-20th century , El Salvador endured chronic political and economic instability characterized by coups , revolts , and a succession of authoritarian rulers . Persistent socioeconomic inequality and civil unrest culminated in the devastating Salvadoran Civil War ( 1979-1992 ) , which was fought between the military-led government and a coalition of left-wing guerrilla groups . The conflict ended with the Chapultepec Peace Accords .",
    "/wiki/Virgin_Islands": "The Virgin Islands ( Spanish : Islas V\u00edrgenes ) are an archipelago in the Caribbean Sea . They are geologically and biogeographically the easternmost part of the Greater Antilles , the northern islands belonging to the Puerto Rican trench and St. Croix being a displaced part of the same geologic structure . Politically , the British Virgin Islands have been governed as the western island group of the Leeward Islands , which are the northern part of the Lesser Antilles , and form the border between the Caribbean Sea and the Atlantic Ocean . The archipelago is separated from the true Lesser Antilles by the Anegada Passage and from the main island of Puerto Rico by the Virgin Passage . The islands fall into three different political jurisdictions :",
    "/wiki/Saint_Vincent_and_the_Grenadines": "Saint Vincent and the Grenadines ( /\u02cc\u0261r\u025bn\u0259\u02c8di\u02d0nz/ ( listen ) ) is a multi island Anglo-Caribbean country in the Lesser Antilles island arc , in the southeast Windward Islands , which lies in the West Indies at the southern end of the eastern border of the Caribbean Sea where the latter meets the Atlantic Ocean . The sovereign state is also frequently known simply as Saint Vincent . Its 389 km2 ( 150 sq mi ) territory consists of the main island of Saint Vincent and the northern two-thirds of the Grenadines , a chain of 32 smaller islands . Some of the Grenadines are inhabited - Bequia , Mustique , Union Island , Canouan , Palm Island , Mayreau , Young Island - while others are not : Tobago Cays , Petit Saint Vincent , Baliceaux , Bettowia , Quatre , Petite Mustique , Savan and Petit Nevis . Most of Saint Vincent and the Grenadines lies within the Hurricane Alley . To the north of Saint Vincent lies Saint Lucia , to the east is Barbados , and Grenada lies to the south . Saint Vincent and the Grenadines is a densely populated country for its size ( over 300 inhabitants/km2 ) with approximately 110,211 inhabitants . Kingstown is the capital and main port . Saint Vincent has a British colonial history , and is now part of the Organisation of Eastern Caribbean States , CARICOM , the Commonwealth of Nations , the Bolivarian Alliance for the Americas and the Community of Latin American and Caribbean States ( CELAC ) .",
    "/wiki/Haiti": "Haiti ( /\u02c8he\u026ati/ ( listen ) ; French : Ha\u00efti [ a.iti ] ; Haitian Creole : Ayiti [ ajiti ] ) , officially the Republic of Haiti ( French : R\u00e9publique d'Ha\u00efti ; Haitian Creole : Repiblik D Ayiti ) and formerly called Hayti , [ note 1 ] is a country located on the island of Hispaniola in the Greater Antilles archipelago of the Caribbean Sea , to the east of Cuba and Jamaica and south of The Bahamas and the Turks and Caicos Islands . It occupies the western three-eighths of the island which it shares with the Dominican Republic . To its south-west lies the small island of Navassa Island , which is claimed by Haiti but is disputed as a United States territory under federal administration . Haiti is 27,750 square kilometers ( 10,714 sq mi ) in size and has an estimated population of 11.1 million , making it the most populous country in the Caribbean Community ( CARICOM ) and the second-most populous country in the Caribbean after Cuba . The island was originally inhabited by the indigenous Ta\u00edno people , who migrated from South America . The first Europeans arrived on 5 December 1492 during the first voyage of Christopher Columbus , who initially believed he had found India or China . Columbus subsequently founded the first European settlement in the Americas , La Navidad , on what is now the northeastern coast of Haiti . The island was claimed by Spain and named La Espa\u00f1ola , forming part of the Spanish Empire until the early 17th century . However , competing claims and settlements by the French led to the western portion of the island being ceded to France in 1697 , which was subsequently named Saint-Domingue . French colonists established lucrative sugarcane plantations , worked by vast numbers of slaves brought from Africa , which made the colony one of the richest in the world . In the midst of the French Revolution ( 1789-99 ) , slaves and free people of color launched the Haitian Revolution ( 1791-1804 ) , led by a former slave and the first black general of the French Army , Toussaint Louverture . After 12 years of conflict , Napoleon Bonaparte 's forces were defeated by Louverture 's successor , Jean-Jacques Dessalines ( later Emperor Jacques I ) , who declared Haiti 's sovereignty on 1 January 1804 - the first independent nation of Latin America and the Caribbean , the second republic in the Americas , the first country to abolish slavery , and the only state in history established by a successful slave revolt .",
    "/wiki/Saint_Lucia": "Saint Lucia ( /\u02c8lu\u02d0\u0283\u0259/ ( listen ) ; French : Sainte-Lucie ) is a sovereign island country in the West Indies in the eastern Caribbean Sea on the boundary with the Atlantic Ocean . The island was previously called Iyonola , the name given to the island by the native Amerindians and later , Hewanorra , the name given by the native Caribs . Part of the Lesser Antilles , it is located north/northeast of the island of Saint Vincent , northwest of Barbados and south of Martinique . It covers a land area of 617 km2 ( 238 square miles ) and reported a population of 165,595 in the 2010 census . Its capital is Castries . The French were the island 's first European settlers . They signed a treaty with the native Island Caribs in 1660 . England took control of the island from 1663 to 1667 . In ensuing years , it was at war with France fourteen times , and the rule of the island changed frequently ( it was ruled seven times each by the French and British ) . In 1814 , the British took definitive control of the island . Because it switched so often between British and French control , Saint Lucia was also known as the Helen of the West Indies after the Greek mythological character , Helen of Troy . Representative government came about in 1840 ( universal suffrage was established in 1953 ) .",
    "/wiki/Guadeloupe": "Guadeloupe ( /\u02cc\u0261w\u0251\u02d0d\u0259\u02c8lu\u02d0p/ , French : [ \u0261wad ( \u0259 ) lup ] ( listen ) ; Antillean Creole : Gwadloup ) is an archipelago forming an overseas region of France in the Caribbean . It consists of six inhabited islands , Basse-Terre , Grande-Terre , Marie-Galante , La D\u00e9sirade , and the \u00celes des Saintes , as well as many uninhabited islands and outcroppings . It lies south of Antigua and Barbuda and Montserrat , and north of Dominica . Its capital is Basse-Terre on the west coast ; however , the largest city is Pointe-\u00e0-Pitre . Like the other overseas departments , it is an integral part of France . As a constituent territory of the European Union and the Eurozone , the euro is its official currency and any European Union citizen is free to settle and work there indefinitely . As an overseas department , however , it is not part of the Schengen Area . The official language is French ; Antillean Creole is also spoken .",
    "/wiki/Jamaica": "Jamaica ( /d\u0292\u0259\u02c8me\u026ak\u0259/ ( listen ) ) is an island country situated in the Caribbean Sea . Spanning 10,990 square kilometres ( 4,240 sq mi ) in area , it is the third-largest island of the Greater Antilles and the Caribbean ( after Cuba and Hispaniola ) . Jamaica lies about 145 kilometres ( 90 mi ) south of Cuba , and 191 kilometres ( 119 mi ) west of Hispaniola ( the island containing the countries of Haiti and the Dominican Republic ) ; the British Overseas Territory of the Cayman Islands lies some 215 kilometres ( 134 mi ) to the north-west . Originally inhabited by the indigenous Arawak and Ta\u00edno peoples , the island came under Spanish rule following the arrival of Christopher Columbus in 1494 . Many of the indigenous people were either killed or died of diseases to which they had no immunity , and the Spanish thus forcibly transplanted large numbers of African slaves to Jamaica as labourers . The island remained a possession of Spain until 1655 , when England ( later Great Britain ) conquered it , renaming it Jamaica . Under British colonial rule Jamaica became a leading sugar exporter , with a plantation economy dependent on the African slaves and later their descendants . The British fully emancipated all slaves in 1838 , and many freedmen chose to have subsistence farms rather than to work on plantations . Beginning in the 1840s , the British began utilising Chinese and Indian indentured labour to work on plantations . The island achieved independence from the United Kingdom on 6 August 1962 . With 2.9 million people , Jamaica is the third-most populous Anglophone country in the Americas ( after the United States and Canada ) , and the fourth-most populous country in the Caribbean . Kingston is the country 's capital and largest city .",
    "/wiki/Netherlands_Antilles": "The Netherlands Antilles ( Dutch : Nederlandse Antillen , pronounced [ \u02ccne\u02d0d\u0259rl\u0251nts\u0259 \u0294\u0251n\u02c8t\u026al\u0259 ( n ) ] ( listen ) ; Papiamentu : Antia Hulandes ) was a constituent country of the Kingdom of the Netherlands . The country consisted of several island territories located in the Caribbean Sea . The islands were also informally known as the Dutch Antilles . The country came into being in 1954 as the autonomous successor of the Dutch colony of Cura\u00e7ao and Dependencies , and was dissolved in 2010 . The Dutch colony of Surinam , although it was relatively close by on the continent of South America , did not become part of the Netherlands Antilles but became a separate autonomous country in 1954 . All the island territories that belonged to the Netherlands Antilles remain part of the kingdom today , although the legal status of each differs . As a group they are still commonly called the Dutch Caribbean , regardless of their legal status .",
    "/wiki/Trinidad_and_Tobago": "The Republic of Trinidad and Tobago ( /\u02c8tr\u026an\u026ad\u00e6d . t\u0259\u02c8be\u026a\u0261o\u028a/ ( listen ) , /- to\u028a-/ ) is the southernmost island country in the Caribbean . Consisting of the main islands Trinidad and Tobago , and numerous much smaller islands , it is situated 130 kilometres ( 81 miles ) south of Grenada and 11 kilometres ( 6.8 miles ) off the coast of northeastern Venezuela . It shares maritime boundaries with Barbados to the northeast , Grenada to the northwest , Guyana to the southeast , and Venezuela to the south and west . The island of Trinidad was inhabited for centuries by native Amerindian peoples before becoming a colony in the Spanish Empire , following the arrival of Christopher Columbus in 1498 . Spanish governor Don Jos\u00e9 Mar\u00eda Chac\u00f3n surrendered the island to a British fleet under the command of Sir Ralph Abercromby in 1797 . During the same period , the island of Tobago changed hands among Spanish , British , French , Dutch and Courlander colonisers more times than any other island in the Caribbean . [ citation needed ] Trinidad and Tobago were ceded to Britain in 1802 under the Treaty of Amiens as separate states and unified in 1889 . Trinidad and Tobago obtained independence in 1962 , becoming a republic in 1976 . Trinidad and Tobago has the third highest GDP per capita based on purchasing power parity ( PPP ) in the Americas after the United States and Canada . It is recognised by the World Bank as a high-income economy . Unlike most Caribbean nations and territories , which rely heavily on tourism , the Trinidadian economy is primarily industrial with an emphasis on petroleum and petrochemicals ; much of the nation 's wealth is derived from its large reserves of oil and natural gas .",
    "/wiki/Dominican_Republic": "The Dominican Republic ( /d\u0259\u02c8m\u026an\u026ak\u0259n/ d\u0259-MIN-ik-\u0259n ; Spanish : Rep\u00fablica Dominicana , pronounced [ re\u02c8pu\u03b2lika \u00f0omini\u02c8kana ] ( listen ) ) is a country located on the island of Hispaniola in the Greater Antilles archipelago of the Caribbean region . It occupies the eastern five-eighths of the island , which it shares with the Republic of Haiti , making Hispaniola one of only two Caribbean islands , along with Saint Martin , that are shared by two sovereign states . The Dominican Republic is the second-largest nation in the Antilles by area ( after Cuba ) at 48,671 square kilometers ( 18,792 sq mi ) , and third by population with approximately 10.5 million people ( 2020 est . ) , of whom approximately 3.3 million live in the metropolitan area of Santo Domingo , the capital city . The native Ta\u00edno people had inhabited Hispaniola before the arrival of the Europeans , dividing it into five chiefdoms . The Ta\u00edno people had eventually moved north over many years , and lived around the Caribbean islands . The Ta\u00edno natives had done quite well for themselves and were on their way to being an organized civilization . Christopher Columbus explored and claimed the island , landing here on his first voyage in 1492 . The colony of Santo Domingo became the site of the first permanent European settlement in the Americas , the oldest continuously inhabited city , and the first seat of the Spanish colonial rule in the New World . Meanwhile , France occupied the western third of Hispaniola , naming their colony Saint-Domingue , which became the independent state of Haiti in 1804 . After more than three hundred years of Spanish rule the Dominican people declared independence in November 1821 . The leader of the independence movement Jos\u00e9 N\u00fa\u00f1ez de C\u00e1ceres , intended the Dominican nation to unite with the country of Gran Colombia , but the newly independent Dominicans were forcefully annexed by Haiti in February 1822 .",
    "/wiki/Cayman_Islands": "The Cayman Islands ( /\u02c8ke\u026am\u0259n/ or /ke\u026a\u02c8m\u00e6n/ ) is an autonomous British Overseas Territory in the western Caribbean Sea . The 264-square-kilometre ( 102-square-mile ) territory comprises the three islands of Grand Cayman , Cayman Brac and Little Cayman , which are located to the south of Cuba and northeast of Honduras , between Jamaica and Mexico 's Yucat\u00e1n Peninsula . The capital city is George Town , situated on Grand Cayman , the most populous of the three islands . The Cayman Islands is considered to be part of the geographic Western Caribbean Zone as well as the Greater Antilles . The territory is often considered a major world offshore financial haven for international businesses and many wealthy individuals , and has been placed on the EU 's blacklist of foreign tax havens .",
    "/wiki/Antigua_and_Barbuda": "Antigua and Barbuda ( /\u00e6n\u02c8ti\u02d0\u0261 ( w ) \u0259 . b\u0251\u02d0r\u02c8b ( j ) u\u02d0d\u0259/ ( listen ) ; an-TEE-g ( w ) \u0259 . bar-B ( Y ) OO-d\u0259 ) is an island sovereign state in the West Indies in the Americas , lying between the Caribbean Sea and the Atlantic Ocean . It consists of two major islands , Antigua and Barbuda , and a number of smaller islands ( including Great Bird , Green , Guiana , Long , Maiden and York Islands and further south , the island of Redonda ) . The permanent population numbers about 95,900 ( 2018 est . ) , with 97% being resident on Antigua . The capital and largest port and city is St. John 's on Antigua , with Codrington being the largest town on Barbuda . Lying near each other ( the main Barbuda airport is less than 0.5\u00b0 of latitude , or 56 kilometres ( 30 nautical miles ) , north of the main Antigua airport ) , Antigua and Barbuda are in the middle of the Leeward Islands , part of the Lesser Antilles , roughly at 17\u00b0N of the equator . The island of Antigua was explored by Christopher Columbus in 1493 and named for the Church of Santa Mar\u00eda La Antigua . Antigua was colonised by Britain in 1632 ; Barbuda island was first colonised in 1678 . Antigua and Barbuda joined the West Indies Federation in 1958 . With the breakup of the federation , it became one of the West Indies Associated States in 1967 .",
    "/wiki/Saint_Kitts_and_Nevis": "Saint Kitts and Nevis ( /-\u02c8k\u026ats . \u02c8ni\u02d0v\u026as/ ( listen ) ) , also known as the Federation of Saint Christopher and Nevis , is an island country in the West Indies . Located in the Leeward Islands chain of the Lesser Antilles , it is the smallest sovereign state in the Western Hemisphere , in both area and population . The country is a Commonwealth realm , with Elizabeth II as queen and head of state . The capital city is Basseterre on the larger island of Saint Kitts . The smaller island of Nevis lies approximately 3 km ( 2 mi ) to the southeast across a shallow channel called The Narrows . The British dependency of Anguilla was historically also a part of this union , which was then known collectively as Saint Christopher-Nevis-Anguilla . However , it chose to secede from the union and remains a British overseas territory . To the north-northwest lie the islands of Sint Eustatius , Saba , Saint Barth\u00e9lemy , Saint-Martin/Sint Maarten and Anguilla . To the east and northeast are Antigua and Barbuda , and to the southeast is the small uninhabited island of Redonda ( part of Antigua and Barbuda ) and the island of Montserrat . Saint Kitts and Nevis were among the first islands in the Caribbean to be colonized by Europeans . Saint Kitts was home to the first British and French colonies in the Caribbean , and thus has also been titled The Mother Colony of the West Indies .",
    "/wiki/British_Virgin_Islands": "The British Virgin Islands ( abbreviated BVI ) , officially simply the Virgin Islands , are a British Overseas Territory in the Caribbean , to the east of Puerto Rico and the US Virgin Islands and north-west of Anguilla . The islands are geographically part of the Virgin Islands archipelago and are located in the Leeward Islands of the Lesser Antilles and part of the West Indies . The British Virgin Islands consist of the main islands of Tortola , Virgin Gorda , Anegada , and Jost Van Dyke , along with over 50 other smaller islands and cays . About 16 of the islands are inhabited . The capital , Road Town , is on Tortola , the largest island , which is about 20 km ( 12 mi ) long and 5 km ( 3 mi ) wide . The islands had a population of about 28,000 at the 2010 Census , of whom approximately 23,500 lived on Tortola ; current estimates put the population at 35,802 ( July 2018 ) . British Virgin Islanders are British Overseas Territories citizens and since 2002 are British citizens as well .",
    "/wiki/Guatemala": "Guatemala ( /\u02cc\u0261w\u0251\u02d0t\u0259\u02c8m\u0251\u02d0l\u0259/ ( listen ) GWAH-t\u0259-MAH-l\u0259 ; Spanish : [ gwate\u02c8mala ] ( listen ) ) , officially the Republic of Guatemala ( Spanish : Rep\u00fablica de Guatemala ) , is a country in Central America bordered by Mexico to the north and west , Belize and the Caribbean to the northeast , Honduras to the east , El Salvador to the southeast and the Pacific Ocean to the south . With an estimated population of around 17.2 million , it is the most populous country in Central America . Guatemala is a representative democracy ; its capital and largest city is Nueva Guatemala de la Asunci\u00f3n , also known as Guatemala City . The territory of modern Guatemala once formed the core of the Maya civilization , which extended across Mesoamerica . Most of the country was conquered by the Spanish in the 16th century , becoming part of the viceroyalty of New Spain . Guatemala attained independence in 1821 as part of the Federal Republic of Central America , which dissolved by 1841 . From the mid- to late-19th century , Guatemala experienced chronic instability and civil strife . Beginning in the early 20th century , it was ruled by a series of dictators backed by the United Fruit Company and the United States government . In 1944 , the authoritarian leader Jorge Ubico was overthrown by a pro-democratic military coup , initiating a decade-long revolution that led to sweeping social and economic reforms . A U.S.-backed military coup in 1954 ended the revolution and installed a dictatorship . From 1960 to 1996 , Guatemala endured a bloody civil war fought between the US-backed government and leftist rebels , including genocidal massacres of the Maya population perpetrated by the military . Since a United Nations-negotiated peace accord , Guatemala has witnessed both economic growth and successful democratic elections , though it continues to struggle with high rates of poverty , crime , drug trade , and instability ."
  },
  "2015\u201316_Lega_Pro_1": {
    "/wiki/U.S._Ancona_1905": "Unione Sportiva Ancona 1905 , commonly referred to as Ancona , was an Italian football club based in Ancona , Marche . The club changed its name to U.S. Ancona 1905 from S.S . Piano San Lazzaro in 2010 , due to the bankruptcy of the main football team of the city , A.C. Ancona . However , after a relegation in 2017 , U.S. Ancona 1905 withdrew from the football pyramid .",
    "/wiki/Ancona": "Ancona ( /\u00e6\u014b\u02c8ko\u028an\u0259/ , also US : /\u00e6n\u02c8- , \u0251\u02d0n\u02c8-/ , Italian : [ a\u014b\u02c8ko\u02d0na ] ( listen ) ; Ancient Greek : \u1f08\u03b3\u03ba\u03ce\u03bd , romanized : Ank\u1e53n ) is a city and a seaport in the Marche region in central Italy , with a population of around 101,997 as of 2015 [ update ] . Ancona is the capital of the province of Ancona and of the region . The city is located 280 km ( 170 mi ) northeast of Rome , on the Adriatic Sea , between the slopes of the two extremities of the promontory of Monte Conero , Monte Astagno and Monte Guasco . Ancona is one of the main ports on the Adriatic Sea , especially for passenger traffic , and is the main economic and demographic centre of the region .",
    "/wiki/Stadio_del_Conero": "Stadio del Conero was the home field of the Italian football club A.C. Ancona until 2010 when the club was canceled by every league . Currently it is the home of U.S. Ancona A.S.D . It is an all seater built in 1992 with a capacity of 23,967 .",
    "/wiki/S.S._Arezzo": "Societ\u00e0 Sportiva Arezzo ( formerly Associazione Sportiva Dilettantistica Atletico Arezzo and Associazione Calcio Arezzo ) is an Italian association football club based in Arezzo , Tuscany . The club was formed in 1923 , refounded in 1993 after going bankrupt and refounded in 2010 after being unable to enroll in the tournament . The club currently plays in Serie C , the third tier of Italian football .",
    "/wiki/Arezzo": "Arezzo ( UK : /\u0259\u02c8r\u025btso\u028a/ , US : /\u0251\u02d0\u02c8r-/ , Italian : [ a\u02c8rettso ] ) is a city and comune in Italy and the capital of the province of the same name located in Tuscany . Arezzo is about 80 kilometres ( 50 miles ) southeast of Florence at an elevation of 296 metres ( 971 ft ) above sea level . It is also 30 km west of Citt\u00e0 di Castello . In 2013 the population was about 99,000 .",
    "/wiki/Stadio_Citt\u00e0_di_Arezzo": "Stadio Citt\u00e0 di Arezzo ( formerly Stadio Comunale ) is a multi-purpose stadium , located in Arezzo , Tuscany , Italy . It is used mostly for football matches and is the home of the U.S. Arezzo football club . It has a grass playing surface and a 13,128-seating capacity .",
    "/wiki/Carrarese_Calcio": "Carrarese Calcio 1908 , commonly referred to as Carrarese , is an Italian football club based in Carrara , Tuscany . It currently plays in Serie C , having last been in Serie B in 1948 .",
    "/wiki/Carrara": "Carrara ( /k\u0259\u02c8r\u0251\u02d0r\u0259/ k\u0259-RAR-\u0259 , Italian : [ kar\u02c8ra\u02d0ra ] ; Emilian : Carara ) is a city and comune in Tuscany , in central Italy , of the province of Massa and Carrara , and notable for the white or blue-grey marble quarried there . It is on the Carrione River , some 100 kilometres ( 62 mi ) west-northwest of Florence . Its motto is Fortitudo mea in rota ( Latin : My strength is in the wheel ) .",
    "/wiki/Stadio_dei_Marmi": "The Stadio dei Marmi ( Italian : Stadium of the Marbles ) is a sport stadium in the Foro Italico , a sport complex in Rome , Italy . It was designed in the 1920s as a complement to the annexed Fascist Academy of Physical Education ( now the seat of CONI , Italian Olympic Committee ) , to be used by its students for training . Originally designed by Enrico Del Debbio , construction was completed in 1928 . It has Carrara marble steps lined by 59 ( 60 in the original project ) marble statues in classical style portraying athletes that perform various sporting disciplines . Each statue was offered by the provinces of Italy . The stadium was inaugurated in 1932 . It hosted some of the field hockey preliminaries for the 1960 Summer Olympics . Stadio dei Marmi was also the host for the 2009 World Aquatics Championships opening ceremony .",
    "/wiki/L'Aquila_Calcio_1927": "L'Aquila Calcio 1927 is an Italian association football club located in L'Aquila , Abruzzo . They currently play in the Serie D .",
    "/wiki/L'Aquila": "L'Aquila ( /\u02c8l\u00e6kw\u026al\u0259/ LAK-wil-\u0259 , Italian : [ \u02c8la\u02d0kwila ] ( listen ) ; meaning The Eagle ) is a city and comune in Central Italy , both the capital city of the Abruzzo region and of the Province of L'Aquila . As of 2013 [ update ] , it has a population of 70,967 inhabitants . Laid out within medieval walls on a hill in the wide valley of the Aterno river , it is surrounded by the Apennine Mountains , with the Gran Sasso d'Italia to the north-east . L'Aquila sits upon a hillside in the middle of a narrow valley ; tall snow-capped mountains of the Gran Sasso massif flank the town . A maze of narrow streets , lined with Baroque and Renaissance buildings and churches , open onto elegant piazzas . Home to the University of L'Aquila , it is a lively college town and , as such , has many cultural institutions : a repertory theatre , a symphony orchestra , a fine-arts academy , a state conservatory , a film institute . There are several ski resorts in the surrounding province ( Campo Imperatore , Ovindoli , Pescasseroli , Roccaraso , Scanno ) .",
    "/wiki/Stadio_Tommaso_Fattori": "Stadio Tommaso Fattori is a multi-use stadium in L'Aquila , Italy . It is currently used mostly for football and rugby union matches and the home of L'Aquila Calcio and L'Aquila Rugby . Inaugurated in 1933 , the stadium holds 10,000 people . It hosted some of the football preliminaries for the 1960 Summer Olympics .",
    "/wiki/S.S.D._Lucchese_1905": "Societ\u00e0 Sportiva Dilettantistica Lucchese 1905 , or simply Lucchese , is an Italian football club , based in Lucca , Tuscany that plays in Serie D , the fourth tier of Italian football . The club was first founded in 1905 , having last been in Serie A in 1952 .",
    "/wiki/Lucca": "Lucca ( /\u02c8lu\u02d0k\u0259/ LOO-k\u0259 , Italian : [ \u02c8lukka ] ( listen ) ) is a city and comune in Tuscany , Central Italy , on the Serchio , in a fertile plain near the Tyrrhenian Sea . It is the capital of the Province of Lucca . It is famous for its intact Renaissance-era city walls .",
    "/wiki/Stadio_Porta_Elisa": "Stadio Porta Elisa is a multi-use stadium in Lucca , Italy . The authorized capacity is 7,386 , but it can hold about 12,000 ; 2,500 of them are covered . It is currently used mostly for football matches and is the home ground of A.S. Lucchese-Libertas .",
    "/wiki/Lupa_Roma_F.C.": "Lupa Roma F.C. , formerly known as A.S.D . Lupa Frascati , is an Italian former professional football club located in Rome . The club formerly headquartered in Frascati and than Tivoli . The club withdrew from Eccellenza Lazio , the fifth tier of national football in 2019 . As of 2019 , the club focus on youth sector only . The current club was founded in 2004 and named after the original LVPA Frascati , which known also as A.C. Lupa Frascati . However , the current club was renamed to the current name in 2013 . Another unrelated club was founded in 2015 , also named after the original Lupa as A.S.D . Lupa Frascati . That club was known as Lupa Frascati A.S.D . since 2018 .",
    "/wiki/Rome": "Rome ( Latin and Italian : Roma [ \u02c8ro\u02d0ma ] ( listen ) ) is the capital city and a special comune of Italy ( named Comune di Roma Capitale ) . Rome also serves as the capital of the Lazio region . With 2,879,728 residents in 1,285 km2 ( 496.1 sq mi ) , it is also the country 's most populated comune . It is the third most populous city in the European Union by population within city limits . It is the centre of the Metropolitan City of Rome , which has a population of 4,355,725 residents , thus making it the second or third most populous metropolitan city in Italy depending on definition . Rome is located in the central-western portion of the Italian Peninsula , within Lazio ( Latium ) , along the shores of the Tiber . Vatican City ( the smallest country in the world ) is an independent country inside the city boundaries of Rome , the only existing example of a country within a city ; for this reason Rome has sometimes been defined as the capital of two states . Rome 's history spans 28 centuries . While Roman mythology dates the founding of Rome at around 753 BC , the site has been inhabited for much longer , making it one of the oldest continuously occupied cities in Europe . The city 's early population originated from a mix of Latins , Etruscans , and Sabines . Eventually , the city successively became the capital of the Roman Kingdom , the Roman Republic and the Roman Empire , and is regarded by many as the first ever Imperial City and metropolis . It was first called The Eternal City ( Latin : Urbs Aeterna ; Italian : La Citt\u00e0 Eterna ) by the Roman poet Tibullus in the 1st century BC , and the expression was also taken up by Ovid , Virgil , and Livy .",
    "/wiki/Aprilia,_Lazio": "Aprilia is a city and comune ( municipality ) in the province of Latina , now incorporated in the conurbation of Rome , in the Lazio region of central Italy . It is the fifth town for population in the region and the tenth for its area .",
    "/wiki/S.S._Maceratese": "Societ\u00e0 Sportiva Maceratese S.r.l . ( formerly Associazione Calcio Maceratese S.r.l . and Fulgor Maceratese S.r.l . ) is an Italian football club located in Macerata in the Marche region .",
    "/wiki/Macerata": "Macerata ( Italian pronunciation : [ mat\u0283e\u02c8ra\u02d0ta ] ( listen ) ) is a city and comune in central Italy , the county seat of the province of Macerata in the Marche region . It has a population of about 41,564 .",
    "/wiki/A.C._Pisa_1909": "Associazione Calcio Pisa 1909 , commonly referred to as Pisa , is an Italian football club based in Pisa , Tuscany . The team currently plays in Serie B . The club was founded in 1909 as Pisa Sporting Club and refounded in 1994 as Pisa Calcio ( and registered in Eccellenza , the sixth football division in Italy ) , after the cancellation of the former because of economical troubles . It was excluded again from Italian football in 2009 , after the property failed to collect enough money to pay off the club 's debts . In summer 2009 it was refounded with the current denomination . Pisa won two Mitropa Cups , in 1986 and 1988 . They play their home matches at Arena Garibaldi - Stadio Romeo Anconetani , named after Romeo Anconetani , the chairman who brought and led the club in Serie A during the 1980s . In 2016 , Giuseppe Corrado bought the club and planned the new Pisa stadium . At the end of the 2008 season , Pisa lost to U.S. Lecce in a two-legged promotion playoff final to Serie A . At the end of 2016 season , managed by Gennaro Gattuso , Pisa secured the promotion to Serie B by winning the final match against Foggia at Zaccheria Stadium .",
    "/wiki/Pisa": "Pisa ( /\u02c8pi\u02d0z\u0259/ PEE-z\u0259 , Italian : [ \u02c8pi\u02d0za ] ( listen ) or [ \u02c8pi\u02d0sa ] ) is a city and comune in Tuscany , central Italy , straddling the Arno just before it empties into the Ligurian Sea . It is the capital city of the Province of Pisa . Although Pisa is known worldwide for its leaning tower ( the bell tower of the city 's cathedral ) , the city of over 91,104 residents ( around 200,000 with the metropolitan area ) contains more than 20 other historic churches , several medieval palaces , and various bridges across the Arno . Much of the city 's architecture was financed from its history as one of the Italian maritime republics . The city is also home of the University of Pisa , which has a history going back to the 12th century and also has the Scuola Normale Superiore di Pisa , founded by Napoleon in 1810 , and its offshoot , the Sant'Anna School of Advanced Studies , as the best-sanctioned Superior Graduate Schools in Italy .",
    "/wiki/Arena_Garibaldi_\u2013_Stadio_Romeo_Anconetani": "Arena Garibaldi - Stadio Romeo Anconetani ( usually referred to just as Arena Garibaldi ) is a multi-use stadium in Pisa , Italy . It is currently used mostly for football matches and is the home ground of A.C. Pisa 1909 . The stadium holds 25,000 ( 14,869 approved ) and was opened in 1919 . In 2001 , the stadium was entitled to Romeo Anconetani , Pisa chairman and owner during their Serie A tenure as well as colourful figure of Italian football in the 1980s , who died in 1999 .",
    "/wiki/U.S._Pistoiese_1921": "Unione Sportiva Pistoiese 1921 is an Italian association football club , based in Pistoia , Tuscany . Currently Pistoiese plays in Serie C. The singer-songwriter Francesco Guccini is probably the most famous tifoso of Pistoiese in Italy .",
    "/wiki/Pistoia": "Pistoia ( US : /p\u026a\u02c8st\u0254\u026a\u0259 , pi\u02d0\u02c8sto\u028aj\u0251\u02d0/ , Italian : [ pi\u02c8sto\u02d0ja ] ( listen ) ) is a city and comune in the Italian region of Tuscany , the capital of a province of the same name , located about 30 kilometres ( 19 mi ) west and north of Florence and is crossed by the Ombrone Pistoiese , a tributary of the River Arno . It is a typical Italian medieval city , and it attracts many tourists , especially in the summer . The city is famous throughout Europe for its plant nurseries .",
    "/wiki/Stadio_Marcello_Melani": "Stadio Marcello Melani is the main stadium in Pistoia , Italy . It is currently used mostly for football matches and is the home ground of U.S. Pistoiese 1921 . The stadium holds 13,195 .",
    "/wiki/U.S._Citt\u00e0_di_Pontedera": "Unione Sportiva Citt\u00e0 di Pontedera ( formerly Unione Sportiva Pontedera 1912 ) is an Italian association football club located in Pontedera , Tuscany . Currently it plays in Serie C , the third tier of Italian football .",
    "/wiki/Pontedera": "Pontedera ( Italian : [ ponte\u02c8d\u025b\u02d0ra ] ; Latin : Pons Herae ) is an industrial town in the province of Pisa , Tuscany , central Italy . It houses the headquarters of the Piaggio company , of the wine company Castellani and of chocolate factory Amedei . Pontedera is in the Arno valley at the confluence of the Era River and the Arno River . Its territory is also crossed by the Scolmatore dell'Arno canal , and by the Roglio , a tributary of the Era . There is also a small lake , in the frazione of La Rotta , known as Braccini lake . Pontedera was the seat of several historical battles . In 1369 , the Milanese army of Barnab\u00f2 Visconti , led by John Hawkwood , was defeated here by the Florentine troops . On 11 June 1554 , Pontedera was the scene of a pyrrhic victory in the last effort by the Republic of Siena to retain its independence , when Piero Strozzi won against the Florentines . Two months later he was decisively defeated at the Battle of Marciano , an event which marked the end of the Senese independence . The football team in the town is called U.S. Citt\u00e0 di Pontedera , and they are currently placed in Lega Pro Seconda Divisione .",
    "/wiki/A.C._Prato": "Associazione Calcio Prato is an Italian association football club , based in Prato , Tuscany . Prato currently plays in Serie D/E , having last been in Serie B in 1964 .",
    "/wiki/Prato": "Prato ( , ) is a city and comune in Tuscany , Italy , the capital of the Province of Prato . The city lies 17 kilometres north-west of Florence , at the foot of Monte Retaia , elevation , the last peak in the Calvana chain . With more than 193,000 inhabitants , Prato is Tuscany 's second largest city ( after Florence ) and the third largest in Central Italy ( after Rome and Florence ) . Historically , Prato 's economy has been based on the textile industry . The renowned Datini archives are a significant collection of late medieval documents concerning economic and trade history , produced between 1363 and 1410 . The city boasts important historical and artistic attractions , with a cultural span that started with the Etruscans and then expanded in the Middle Ages and reached its peak with the Renaissance , when artists such as Donatello , Filippo Lippi and Botticelli left their testimonies in the city . The famous cantucci , a type of biscotti invented in Prato during the Middle Ages , are still produced by local traditional bakers .",
    "/wiki/Stadio_Lungobisenzio": "Stadio Lungobisenzio is a municipal stadium in Prato , Italy . It is currently used mostly for football matches and is the home ground of A.C. Prato . The stadium holds 6.800 attendance . It is located in Via Firenze , 5 59100 Prato , along the Bisenzio river . The construction work began in 1939 and was finished in 1941 , year of the inauguration .",
    "/wiki/Rimini_F.C._1912": "Rimini Football Club 1912 is an Italian association football club based in Rimini , Emilia-Romagna . The club was founded in 1912 and in the 2019-20 season will play in Serie C. Their home ground is the 9786-seat Stadio Romeo Neri .",
    "/wiki/Rimini": "Rimini ( /\u02c8r\u026am\u026ani/ RIM-in-ee , Italian : [ \u02c8ri\u02d0mini ] ( listen ) ; Romagnol : R\u00e9min ; Latin : Ariminum ) is a city in the Emilia-Romagna region of northern Italy and capital city of the Province of Rimini . It sprawls along the Adriatic Sea , on the coast between the rivers Marecchia ( the ancient Ariminus ) and Ausa ( ancient Aprusa ) . It is one of the most notable seaside resorts in Europe with revenue from both internal and international tourism forming a significant portion of the city 's economy . The first bathing establishment opened in 1843 . An art city with ancient Roman and Renaissance monuments , Rimini is also the birthplace of the famous film director Federico Fellini . The city was founded by the Romans in 268 BC . Throughout Roman times , Rimini was a key communications link between the north and south of the peninsula . On its soil , Roman emperors erected monuments such as the Arch of Augustus and the Tiberius Bridge to mark the beginning and the end of the Decumanus of Rimini . During the Renaissance , the city benefited from the court of the House of Malatesta , which hosted artists like Leonardo da Vinci and produced works such as the Tempio Malatestiano . The main monuments in Rimini are the Tiberius Bridge and the Arch of Augustus . In the 19th century , Rimini was one of the most active cities on the revolutionary front , hosting many of the movements seeking to achieve Italian unification . In the course of World War II , the city was the scene of numerous clashes and bombings , but also of a fierce partisan resistance that earned it the honour of a gold medal for civic valour .",
    "/wiki/Stadio_Romeo_Neri": "Stadio Romeo Neri is a multi-use stadium in Rimini , Italy . The stadium has a capacity of 9,768 and is largely used for football as the home of A.C. Rimini 1912 . The stadium itself was named after Italian gymnast Romeo Neri , the first citizen of Rimini to participate in the Olympic Games - in both Amsterdam ( 1928 ) and Los Angeles ( 1932 ) .",
    "/wiki/Robur_Siena": "Robur Siena S.p.A. , commonly referred to as Siena , is an Italian football club based in Siena , Tuscany . The club was re-incorporated in 2014 after the bankruptcy of the previous legal person Associazione Calcio Siena S.p.A. A.C. Siena 's predecessor was founded in 1904 . Siena plays its home games at the Stadio Artemio Franchi . The ground 's capacity is 15,373 and is located in the centre of Siena . Robur Siena achieved 3,893 stadium subscribers in the 2014-15 season in Serie D , setting the all-time record for that league ( later surpassed by Parma in 2015-16 ) and achieved 3,293 subscriber in the season 2015-16 Lega Pro season , ranking first in Group B and fourth amongst the 60 teams playing in the league .",
    "/wiki/Siena": "Siena ( /si\u02c8\u025bn\u0259/ see-EN-\u0259 , Italian : [ \u02c8sj\u025b\u02d0na ] ( listen ) ; in English sometimes spelled Sienna ; Latin : Sena Iulia ) is a city in Tuscany , Italy . It is the capital of the province of Siena . The historic centre of Siena has been declared by UNESCO a World Heritage Site . It is one of the nation 's most visited tourist attractions , with over 163,000 international arrivals in 2008 . Siena is famous for its cuisine , art , museums , medieval cityscape and the Palio , a horse race held twice a year .",
    "/wiki/Stadio_Artemio_Franchi_\u2013_Montepaschi_Arena": "Stadio Artemio Franchi is a multi-purpose stadium in Siena , Italy . It is currently used mostly for football matches and the home of A.C. Siena . The stadium was built in 1923 and holds 15,373 . It is named after former Italian Football Federation president Artemio Franchi . In summer 2007 , A.C. Siena agreed to rename the stadium into Stadio Artemio Franchi - Montepaschi Arena , to include the name of their main sponsor , Banca Monte dei Paschi di Siena . The stadium hosted its first and so far only international match on 17 October 2010 , a 2-0 friendly win for Italy over South Africa . During March 2011 , A.C. Siena announced plans to build a new stadium on the southern outskirts of the city at Isola d'Arbia . The new stadium , with a capacity of 20,000 , features a revolutionary below ground design which was honored with an MIPIM AR Future Projects Award .",
    "/wiki/Santarcangelo_Calcio": "Santarcangelo Calcio is an Italian association football club , based in Santarcangelo di Romagna , Emilia-Romagna . The club currently plays in Serie D .",
    "/wiki/Santarcangelo_di_Romagna": "Santarcangelo di Romagna ( ) is a town and comune in the province of Rimini , Emilia-Romagna , Italy , on the Via Emilia . As of 2009 , it had a population of some 21,300 . It is crossed by two rivers , the Uso and the Marecchia .",
    "/wiki/Stadio_Valentino_Mazzola": "Stadio Valentino Mazzola is a multi-use stadium in Santarcangelo di Romagna , Italy . It is currently used mostly for football matches and is the home ground of Santarcangelo Calcio . The stadium holds 3,000 .",
    "/wiki/Savona_F.B.C.": "Savona Foot-Ball Club is an Italian football club located in Savona , Liguria . It currently plays in Serie D and the home matches are played at Stadio Valerio Bacigalupo .",
    "/wiki/Savona": "Savona ( Italian : [ sa\u02c8vo\u02d0na ] ( listen ) ; local Ligurian : Sann-a [ \u02c8sa\u014b\u02d1a ] , Genoese : Savonn-a ) is a seaport and comune in the west part of the northern Italian region of Liguria , capital of the Province of Savona , in the Riviera di Ponente on the Mediterranean Sea . Savona used to be one of the chief seats of the Italian iron industry , having iron-works and foundries , shipbuilding , railway workshops , engineering shops , and a brass foundry . One of the most celebrated former inhabitants of Savona was the navigator Christopher Columbus , who farmed land in the area while chronicling his journeys . 'Columbus 's house ' , a cottage situated in the Savona hills , lay between vegetable crops and fruit trees . It is one of several residences in Liguria associated with Columbus .",
    "/wiki/S.P.A.L.": "S.P.A.L . ( Italian pronunciation : [ spal ] ) , an acronym for Societ\u00e0 Polisportiva Ars et Labor , is a professional Italian football club , based in Ferrara , Emilia-Romagna . The team plays in Serie A , the highest level of the Italian football league system . Founded in 1907 , since 1928 they have played their home matches at Stadio Paolo Mazza , named after Paolo Mazza ( chairman of the club 1946-1977 ) . In total , SPAL have participated in 24 top-tier , 25 second-tier , 41 third-tier , 7 fourth-tier and 1 fifth-tier league seasons . The club 's best finish was when they came fifth in the 1959-60 Serie A ; they also reached the 1961-62 Coppa Italia final . The club is owned by Vetroresina S.p.A. and chaired by Walter Mattioli . The current manager is Luigi Di Biagio .",
    "/wiki/Ferrara": "Ferrara ( /f\u0259\u02c8r\u0251\u02d0r\u0259/ , Italian : [ fer\u02c8ra\u02d0ra ] ( listen ) ; Emilian : Fr\u00e0ra [ \u02c8fra\u02d0ra ] ) is a city and comune in Emilia-Romagna , northern Italy , capital of the Province of Ferrara . As of 2016 [ update ] it had 132,009 inhabitants . It is situated 44 kilometres ( 27 miles ) northeast of Bologna , on the Po di Volano , a branch channel of the main stream of the Po River , located 5 km ( 3 miles ) north . The town has broad streets and numerous palaces dating from the Renaissance , when it hosted the court of the House of Este . For its beauty and cultural importance , it has been designated by UNESCO as a World Heritage Site .",
    "/wiki/Stadio_Paolo_Mazza": "Stadio Paolo Mazza ( formerly Stadio Comunale ) is a multi-use stadium in Ferrara , Italy . It is currently used mostly for football matches and is the home ground of SPAL . Located in the Rione Giardino , west of Ferrara within the city walls , it was built in the immediate vicinity of the area where the former playground of SPAL , Campo di Piazza d'Armi , stood since 1919 . The municipal stadium of Ferrara is the fifth oldest Italian ground still in operation . It was opened in September 1928 as Stadio Comunale , initially it had a capacity of 4,000 . It assumed its current name in February 1982 , to honour the former president of the club Paolo Mazza , who died two months earlier . In concomitance with the access of SPAL to Serie A , in 1951 it was subjected to a heavy restructuring that brought capacity to 25,000 . Between 1960s and 1980s it was renovated again , stabilizing the number of possible spectators to 22,000 until mid-2000s . From 2005 to 2016 the capacity was limited to 7,500 due to safety reasons and cost containment . In 2016-17 , in conjunction with the club 's promotion to Serie B and then to Serie A , the stadium was restructured again to match the modern needs of comfort and safety . In the summer of 2018 a further remodeling took place , in order to bring the stadium capacity from 13,135 seats to 16,134 .",
    "/wiki/S.S._Teramo_Calcio": "Societ\u00e0 Sportiva Teramo Calcio is an Italian association football club based in Teramo , Abruzzo . Since the 2014-15 season , the club has played in Serie C , the 3rd tier of Italian football .",
    "/wiki/Teramo": "Teramo ( Italian pronunciation : [ \u02c8t\u025b\u02d0ramo ] ( listen ) ; Abruzzese : T\u00e8reme [ \u02c8t\u025b\u02d0r\u0259m\u0259 ] ) is a city and comune in the Italian region of Abruzzo , the capital of the province of Teramo . The city , 150 kilometres ( 93 miles ) from Rome , is situated between the highest mountains of the Apennines ( Gran Sasso d'Italia ) and the Adriatic coast . The town is located by the confluence of the Vezzola and Tordino rivers , on a hillside area where the terrain features along with the Mediterranean climate make the territory rich in vineyards and olive groves . The economy of the town is mostly based on activities connected with agriculture and commerce , as well as a sound industrial sector : textiles , foods , engineering , building materials and ceramics . Teramo can be reached from the A14 and the A24 motorways .",
    "/wiki/Stadio_Gaetano_Bonolis": "Stadio Gaetano Bonolis ( also known as Stadio di Piano d'Accio ) is a multi-use stadium in Teramo , Italy . It is currently used mostly for football matches and concerts . It is the home ground of Teramo Calcio . The stadium holds 7,498 .",
    "/wiki/A.C._Tuttocuoio_1957_San_Miniato": "Associazione Calcio Tuttocuoio 1957 San Miniato is an Italian association football club located in , a frazione of San Miniato , Tuscany , but playing in Santa Croce sull'Arno , Tuscany . It currently plays in Serie D .",
    "/wiki/San_Miniato": "San Miniato is a town and comune in the province of Pisa , in the region of Tuscany , Italy . San Miniato sits at an historically strategic location atop three small hills where it dominates the lower Arno valley , between the valleys of Egola and Elsa rivers . It used to carry the additional sobriquet al Tedesco ( to the German ) to distinguish it from the convent of San Miniato al Monte in Florence , which is about to the northeast ."
  }
}