{
  "Screen_Actors_Guild_Award_for_Outstanding_Performance_by_a_Female_Actor_in_a_Supporting_Role_2": {
    "/wiki/17th_Screen_Actors_Guild_Awards": "The 17th Annual Screen Actors Guild Awards , honoring the best achievements in film and television performances for the year 2010 , was presented on January 30 , 2011 at the Shrine Exposition Center in Los Angeles for the fifteenth consecutive year . It was broadcast live simultaneously by TNT and TBS . The nominees were announced on December 16 , 2010 by Rosario Dawson and Angie Harmon at Los Angeles ' Pacific Design Center 's Silver Screen Theater .",
    "/wiki/Melissa_Leo": "Melissa Leo ( born September 14 , 1960 ) is an American actress . She is the recipient of several accolades , including an Academy Award , a Primetime Emmy Award , a Golden Globe Award , two Critics ' Choice Awards and a Screen Actors Guild Award . After appearing on several television shows and films in the 1980s , Leo became a regular on the television shows All My Children , which won her a Daytime Emmy Award , and The Young Riders . Her breakthrough role came in 1993 as detective and later sergeant Kay Howard on the television series Homicide : Life on the Street ( 1993-1997 ) . Leo received critical acclaim for her performance as Ray Eddy in the 2008 film Frozen River , earning her several nominations and awards , including an Academy Award nomination for Best Actress . In 2010 , Leo won several awards for her performance as Alice Eklund-Ward in the film The Fighter , including the Academy Award for Best Supporting Actress . In 2013 , she won a Primetime Emmy Award for her guest role on the television series Louie . She starred in the 2015 Fox event series Wayward Pines as Nurse Pam . She then starred in the 2017 Netflix film The Most Hated Woman in America as American Atheists founder Madalyn Murray O'Hair .",
    "/wiki/The_Fighter": "The Fighter is a 2010 American biographical sports drama film directed by David O. Russell , and starring Mark Wahlberg ( who also co-produced ) , Christian Bale , Amy Adams , and Melissa Leo . The film centers on the lives of professional boxer Micky Ward ( Wahlberg ) and his older half-brother Dicky Eklund ( Bale ) . Adams plays Micky 's girlfriend Charlene Fleming , and Leo portrays Micky and Dicky 's mother , Alice Eklund-Ward . The film was inspired by the 1996 documentary that features the Eklund-Ward family , titled High on Crack Street : Lost Lives in Lowell . The film was released in select North American theaters on December 17 , 2010 , and in the United Kingdom on February 4 , 2011 . It was nominated for seven Academy Awards , including Best Picture and Best Director , winning the awards for Best Supporting Actor ( Bale ) and Best Supporting Actress ( Leo ) . It was the first film to win both awards since Hannah and Her Sisters in 1986 .",
    "/wiki/Amy_Adams": "Amy Lou Adams ( born August 20 , 1974 ) is an American actress . Known for both her comedic and dramatic performances , she has placed three times in annual rankings of the highest-paid actresses in the world . Her accolades include two Golden Globes , and nominations for six Academy Awards and seven British Academy Film Awards . Born in Vicenza , Italy , and raised in Castle Rock , Colorado , Adams is the fourth of seven siblings . She trained to be a ballerina , but at age 18 , she found musical theater a better fit , and from 1994 to 1998 , she worked in dinner theater . She made her feature film debut with a supporting part in the 1999 satire Drop Dead Gorgeous . After moving to Los Angeles , she made guest appearances in television and took on mean girl parts in small-scale features . Her first major role came in Steven Spielberg 's 2002 biopic Catch Me If You Can , opposite Leonardo DiCaprio , but she was unemployed for a year afterward . Her breakthrough came in the part of a loquacious pregnant woman in the 2005 independent film Junebug . The 2007 musical Enchanted , in which Adams played a cheerful princess , was her first major success as a leading lady . She followed it by playing na\u00efve , optimistic women in a series of films such as the 2008 drama Doubt . She subsequently played stronger parts to positive reviews in the sports film The Fighter ( 2010 ) and the psychological drama The Master ( 2012 ) .",
    "/wiki/Helena_Bonham_Carter": "Helena Bonham Carter CBE ( born 26 May 1966 ) is an English actress . She is known for her roles in both low-budget independent art films and large-scale blockbusters . She was nominated for the Academy Award for Best Actress for her role as Kate Croy in The Wings of the Dove ( 1997 ) and for Best Supporting Actress for her role as Queen Elizabeth in The King 's Speech ( 2010 ) ; she won the BAFTA Award for Best Actress in a Supporting Role . She also won the 2010 International Emmy Award for Best Actress for her role as author Enid Blyton in the television film Enid ( 2009 ) . Bonham Carter began her film career playing Lucy Honeychurch in A Room with a View ( 1985 ) and the title character in Lady Jane ( 1986 ) . Her other films include Hamlet ( 1990 ) , Howards End ( 1992 ) , Mary Shelley 's Frankenstein ( 1994 ) , Woody Allen 's Mighty Aphrodite ( 1995 ) , Fight Club ( 1999 ) , Bellatrix Lestrange in the Harry Potter series ( 2007-11 ) , Miss Havisham in Great Expectations ( 2012 ) , Madame Th\u00e9nardier in Les Mis\u00e9rables ( 2012 ) , the Fairy Godmother in Cinderella ( 2015 ) , and Rose Weil in Ocean 's 8 ( 2018 ) . She has frequently collaborated with director Tim Burton in Planet of the Apes ( 2001 ) , Big Fish ( 2003 ) , Corpse Bride ( 2005 ) , Charlie and the Chocolate Factory ( 2005 ) , Sweeney Todd : The Demon Barber of Fleet Street ( 2007 ) , Dark Shadows ( 2012 ) , Alice in Wonderland ( 2010 ) , and Alice Through the Looking Glass ( 2016 ) . Her television films include A Pattern of Roses ( 1983 ) , Fatal Deception : Mrs. Lee Harvey Oswald ( 1993 ) , Live from Baghdad ( 2002 ) , Toast ( 2010 ) , and Burton & Taylor ( 2013 ) . In 2018 , she was confirmed to play Princess Margaret on seasons three and four of The Crown . Bonham Carter was made a Commander of the Order of the British Empire ( CBE ) in the 2012 New Year Honours list for services to drama , and Prime Minister David Cameron announced that she had been appointed to Britain 's new national Holocaust Commission in January 2014 .",
    "/wiki/The_King's_Speech": "The King 's Speech is a 2010 historical drama film directed by Tom Hooper and written by David Seidler . Colin Firth plays the future King George VI who , to cope with a stammer , sees Lionel Logue , an Australian speech and language therapist played by Geoffrey Rush . The men become friends as they work together , and after his brother abdicates the throne , the new king relies on Logue to help him make his first wartime radio broadcast on Britain 's declaration of war on Germany in 1939 . Seidler read about George VI 's life after overcoming a stuttering condition he endured during his own youth . He started writing about the relationship between the therapist and his royal patient as early as the 1980s , but at the request of the King 's widow , Queen Elizabeth The Queen Mother , postponed work until her death in 2002 . He later rewrote his screenplay for the stage to focus on the essential relationship between the two protagonists . Nine weeks before filming began , Logue 's notebooks were discovered and quotations from them were incorporated into the script . Principal photography took place in London and around Britain from November 2009 to January 2010 . Hard light was used to give the story a greater resonance and wider than normal lenses were employed to recreate the Duke of York 's feelings of constriction . A third technique Hooper employed was the off-centre framing of characters . The King 's Speech was a major box office and critical success . It was widely praised by film critics for its visual style , art direction , screenplay , directing , score , and acting .",
    "/wiki/Queen_Elizabeth_The_Queen_Mother": "Elizabeth Angela Marguerite Bowes-Lyon ( 4 August 1900 - 30 March 2002 ) was the wife of King George VI , and the mother of Queen Elizabeth II and Princess Margaret , Countess of Snowdon . She was queen of the United Kingdom and the Dominions from her husband 's accession in 1936 until his death in 1952 , after which she was known as Queen Elizabeth The Queen Mother , to avoid confusion with her daughter . She was the last empress of India . Born into a family of British nobility , she came to prominence in 1923 when she married the Duke of York , the second son of King George V and Queen Mary . The couple and their daughters embodied traditional ideas of family and public service . She undertook a variety of public engagements and became known for her consistently cheerful countenance . In 1936 , her husband unexpectedly became king when his older brother , Edward VIII , abdicated in order to marry the American divorc\u00e9e Wallis Simpson . Elizabeth then became queen . She accompanied her husband on diplomatic tours to France and North America before the start of the Second World War . During the war , her seemingly indomitable spirit provided moral support to the British public . After the war , her husband 's health deteriorated and she was widowed at the age of 51 . Her elder daughter , aged 25 , became the new queen .",
    "/wiki/Mila_Kunis": "Milena Markovna Mila Kunis ( /\u02c8mi\u02d0l\u0259 \u02c8ku\u02d0n\u026as/ ; Ukrainian : \u041c\u0456\u043b\u0435\u043d\u0430 \u041c\u0430\u0440\u043a\u0456\u0432\u043d\u0430 \u041a\u0443\u043d\u0456\u0441 ; born August 14 , 1983 ) is an American actress . In 1991 , at the age of seven , she moved from Soviet Ukraine to the United States with her family . After being enrolled in acting classes as an after-school activity , she was soon discovered by an agent . She appeared in several television series and commercials , before landing her first significant role at age 14 , playing Jackie Burkhart on the television series That '70s Show ( 1998-2006 ) . Since 1999 , she has voiced Meg Griffin on the animated series Family Guy . Kunis 's breakout film role came in 2008 , playing Rachel in the romantic comedy Forgetting Sarah Marshall . She gained further critical acclaim and accolades for her performance in the psychological thriller Black Swan ( 2010 ) , for which she received the Marcello Mastroianni Award for Best Young Actor or Actress , and nominations for the SAG Award and the Golden Globe Award for Best Supporting Actress . Her other major films include the action films Max Payne ( 2008 ) and The Book of Eli ( 2010 ) , the romantic comedy Friends with Benefits ( 2011 ) , the fantasy film Oz the Great and Powerful ( 2013 ) as the Wicked Witch of the West , and the comedies Ted ( 2012 ) , Bad Moms ( 2016 ) and its sequel ( 2017 ) .",
    "/wiki/Black_Swan_(film)": "Black Swan is a 2010 American psychological horror film directed by Darren Aronofsky . The screenplay was written by Mark Heyman , John McLaughlin , and Andres Heinz , based on an original story by Heinz . The film stars Natalie Portman , Vincent Cassel , Mila Kunis , Barbara Hershey , and Winona Ryder . The plot revolves around a production of Tchaikovsky 's Swan Lake ballet by the prestigious New York City Ballet company . The production requires a ballerina to play the innocent and fragile White Swan , for which the committed dancer Nina ( Portman ) is a perfect fit , as well as the dark and sensual Black Swan , which are qualities better embodied by the new arrival Lily ( Kunis ) . Nina is overwhelmed by a feeling of immense pressure when she finds herself competing for the part , causing her to lose her tenuous grip on reality and descend into a nightmare . Usually described as a psychological horror thriller film , Black Swan can also be interpreted as a metaphor for achieving artistic perfection , with all of the psychological and physical challenges one might encounter , i.e . the film can be perceived as a poetic metaphor for the birth of an artist , that is , as a visual representation of Nina 's psychic odyssey toward achieving artistic perfection and of the price to be paid for it . Aronofsky conceived the premise by connecting his viewings of a production of Swan Lake with an unrealized screenplay about understudies and the notion of being haunted by a double , similar to the folklore surrounding doppelg\u00e4ngers . Aronofsky cites Fyodor Dostoevsky 's The Double as another inspiration for the film . The director also considered Black Swan a companion piece to his 2008 film The Wrestler , with both films involving demanding performances for different kinds of art . He and Portman first discussed the project in 2000 , and after a brief attachment to Universal Studios , Black Swan was produced in New York City in 2009 by Fox Searchlight Pictures .",
    "/wiki/Hailee_Steinfeld": "Hailee Steinfeld ( born December 11 , 1996 ) is an American actress , singer , and songwriter . Her breakthrough role was as Mattie Ross in the drama western film True Grit ( 2010 ) , for which she was nominated for the Academy Award for Best Supporting Actress . Thereafter , Steinfeld gained further prominence for roles in Ender 's Game ( 2013 ) , Romeo & Juliet ( 2013 ) , Begin Again ( 2013 ) , and 3 Days to Kill ( 2014 ) . She appeared as Emily Junk in the Pitch Perfect film series ( 2015-2017 ) , and received a Golden Globe Award nomination for Best Actress - Motion Picture Comedy or Musical for her role as Nadine Franklin in The Edge of Seventeen ( 2016 ) . In 2018 , she voiced Gwen Stacy / Spider-Woman in the animated film Spider-Man : Into the Spider-Verse and starred in the action film Bumblebee , contributing to the latter 's soundtrack . Steinfeld currently stars as Emily Dickinson in the Apple TV+ series Dickinson . Steinfeld made her breakthrough in music after performing Flashlight in Pitch Perfect 2 ( 2015 ) , signing with Republic Records soon after and releasing her debut single , Love Myself , followed by her debut extended play HAIZ ( 2015 ) . She has since released a series of singles , including Starving , a collaboration with both Grey and Zedd , which peaked at number 12 on the Billboard Hot 100 chart in the United States , and Let Me Go , a collaboration with Alesso , Florida Georgia Line and Watt , which peaked at number 14 on the Mainstream Top 40 chart .",
    "/wiki/True_Grit_(2010_film)": "True Grit is a 2010 American Revisionist Western film directed , written , produced , and edited by the Coen brothers and executively produced by Steven Spielberg . It is an adaptation of Charles Portis ' 1968 novel of the same name , and stars Hailee Steinfeld as Mattie Ross and Jeff Bridges as Deputy U.S . Marshal Reuben J. Rooster Cogburn , along with Matt Damon , Josh Brolin , and Barry Pepper . A previous film adaptation in 1969 starred John Wayne , Kim Darby and Glen Campbell . Feisty 14 year-old farm girl Mattie Ross ( Steinfeld ) hires Cogburn ( Bridges ) , a boozy , trigger-happy lawman after an outlaw named Tom Chaney ( Brolin ) murders her father . The bickering duo are accompanied on their quest by a Texas Ranger named LaBoeuf ( Damon ) who has been tracking Chaney for killing a State Senator . As the three embark on a dangerous adventure , they each have their grit tested in various ways . Filming began in March 2010 , and the film was officially released in the U.S. on December 22 , 2010 after advance screenings earlier that month . The film opened the 61st Berlin International Film Festival on February 10 , 2011 . It was well received by critics , garnering a 96% Rotten Tomatoes score . It was nominated for ten Academy Awards : Best Picture , Best Director , Best Adapted Screenplay , Best Actor in a Leading Role ( Bridges ) , Best Actress in a Supporting Role ( Steinfeld ) , Best Art Direction , Best Cinematography , Best Costume Design , Best Sound Mixing , and Best Sound Editing . However , it won none .",
    "/wiki/18th_Screen_Actors_Guild_Awards": "The 18th Annual Screen Actors Guild Awards , honoring the best achievements in film and television performances for the year 2011 , were presented on January 29 , 2012 at the Shrine Exposition Center in Los Angeles , California for the sixteenth consecutive year . It was broadcast simultaneously by TNT and TBS . The nominees were announced on December 14 , 2011 by actresses Regina King and Judy Greer at Los Angeles ' Pacific Design Center 's Silver Screen Theater .",
    "/wiki/Octavia_Spencer": "Octavia Lenora Spencer ( born May 25 , 1972 ) is an American actress , author , and producer . She is the recipient of several accolades , including an Academy Award and a Golden Globe Award . She is one of two black actresses to have received three Academy Award nominations and the first black actress to receive two consecutive nominations . Spencer made her film debut in the 1996 drama A Time to Kill . Following a decade of brief roles in film and television , her breakthrough came in 2011 , when she played a maid in 1960s America in The Help , for which she won several awards , including the Academy Award for Best Supporting Actress . For her performance in Ryan Coogler 's biopic Fruitvale Station ( 2013 ) , she won the National Board of Review Award for Best Supporting Actress . Spencer received further Academy Award nominations for Best Supporting Actress for playing other women in 1960s America , the mathematician Dorothy Vaughan in the biographical drama Hidden Figures ( 2016 ) , and a cleaning woman in the fantasy drama The Shape of Water ( 2017 ) . She also appeared in the films Smashed ( 2012 ) , Snowpiercer ( 2013 ) , Get on Up ( 2014 ) , The Divergent Series ( 2015-16 ) , The Shack ( 2017 ) , Gifted ( 2017 ) , Instant Family ( 2018 ) , Luce ( 2019 ) , and Ma ( 2019 ) . As an author , Spencer has created a children 's book series , titled Randi Rhodes , Ninja Detective . She has published two books in the series , titled The Case of the Time-Capsule Bandit ( 2013 ) and The Sweetest Heist in History ( 2015 ) .",
    "/wiki/The_Help_(film)": "The Help is a 2011 period drama film written and directed by Tate Taylor and adapted from Kathryn Stockett 's 2009 novel of the same name . The film features an ensemble cast , including Jessica Chastain , Viola Davis , Bryce Dallas Howard , Allison Janney , Octavia Spencer and Emma Stone . The film and novel recount the story of young white woman and aspiring journalist Eugenia Skeeter Phelan . The story focuses on her relationship with two black maids , Aibileen Clark and Minny Jackson , during the Civil Rights Movement in 1963 Jackson , Mississippi . In an attempt to become a legitimate journalist and writer , Skeeter decides to write a book from the point of view of the maids , exposing the racism they are faced with as they work for white families . Black domestic workers in 1960s America were referred to as the help , hence the title of the putative journalistic expose , the novel and the film . DreamWorks Pictures acquired the screen rights to Stockett 's novel in March 2010 and quickly commissioned the film with Chris Columbus , Michael Barnathan , and Brunson Green as producers . The film 's casting began later that month , with principal photography following four months after in Mississippi . The film is an international co-production between companies based in the United States , India , and the United Arab Emirates . Touchstone Pictures released The Help worldwide , with a general theatrical release in North America on August 10 , 2011 . The film was a critical and commercial success , receiving positive reviews and grossing $ 216 million in worldwide box office . The Help received four Academy Award nominations including Best Picture , Best Actress for Davis , and Best Supporting Actress for both Chastain and Spencer , with the latter winning the award .",
    "/wiki/B\u00e9r\u00e9nice_Bejo": "B\u00e9r\u00e9nice Bejo ( French pronunciation : \u200b [ be.\u0281e.nis be.\u0292o ] ; born 7 July 1976 ) is a French-Argentine actress best known for playing Christiana in A Knight 's Tale ( 2001 ) and Peppy Miller in The Artist ( 2011 ) . Her work in the latter received her a nomination for the Academy Award for Best Supporting Actress and won her the C\u00e9sar Award for Best Actress . She won Best Actress at the Cannes Film Festival in 2013 and was nominated for a C\u00e9sar for her performance in The Past .",
    "/wiki/The_Artist_(film)": "The Artist is a 2011 French [ nb 1 ] comedy-drama film [ nb 2 ] in the style of a black-and-white silent film or part-talkie . Written , directed , and co-edited by Michel Hazanavicius , and produced by Thomas Langmann , the film stars Jean Dujardin and B\u00e9r\u00e9nice Bejo . The story takes place in Hollywood , between 1927 and 1932 , and focuses on the relationship of an older silent film star and a rising young actress as silent cinema falls out of fashion and is replaced by the talkies . The Artist received widespread critical acclaim and won many accolades . Dujardin won Best Actor at the 2011 Cannes Film Festival , where the film premiered . The film was nominated for six Golden Globes , the most of any 2011 film , and won three : Best Motion Picture - Musical or Comedy , Best Original Score , and Best Actor - Motion Picture Musical or Comedy for Dujardin . In January 2012 , the film was nominated for twelve BAFTAs , the most of any film from 2011 , and won seven , including Best Film , Best Director , Best Actor for Dujardin , and Best Original Screenplay for Hazanavicius . It was nominated for ten Academy Awards and won five , including Best Picture , Best Director for Hazanavicius , and Best Actor for Dujardin , making him the first French actor ever to win in this category . It was also the first French-produced film to win Best Picture , and the first mainly silent film to win since 1927 's Wings won at the 1st Academy Awards in 1929 . It was also the first film presented in the 4:3 aspect ratio to win since 1953 's From Here to Eternity . Additionally , it was the first black-and-white film to win since 1993 's Schindler 's List , though the latter contained limited colour sequences ; it was the first 100% black-and-white film to win since 1960 's The Apartment . In France it was nominated for ten C\u00e9sar Awards , winning six , including Best Film , Best Director for Hazanavicius and Best Actress for Bejo .",
    "/wiki/Jessica_Chastain": "Jessica Michelle Chastain ( born March 24 , 1977 ) is an American actress and producer . Known for her roles in films with feminist themes , her accolades include a Golden Globe Award and two Academy Award nominations . Time named her one of the 100 most influential people in the world in 2012 . Born and raised in Sacramento , California , Chastain developed an interest in acting from a young age . In 1998 , she made her professional stage debut as Shakespeare 's Juliet . After studying acting at the Juilliard School , she was signed to a talent holding deal with the television producer John Wells . She was a recurring guest star in several television series , including Law & Order : Trial by Jury . She also took on roles in the stage productions of Anton Chekhov 's play The Cherry Orchard in 2004 and Oscar Wilde 's tragedy Salome in 2006 . Chastain made her film debut in the drama Jolene ( 2008 ) , and gained wide recognition in 2011 for starring roles in half a dozen films , including the dramas Take Shelter and The Tree of Life . Her performance as an aspiring socialite in The Help earned her a nomination for the Academy Award for Best Supporting Actress . In 2012 , she won a Golden Globe Award and received a nomination for the Academy Award for Best Actress for playing a CIA analyst in the thriller Zero Dark Thirty . Chastain made her Broadway debut in a revival of The Heiress in the same year .",
    "/wiki/Melissa_McCarthy": "Melissa Ann McCarthy ( born August 26 , 1970 ) is an American actress , comedian , writer , producer , and fashion designer . She is the recipient of numerous accolades , including two Primetime Emmy Awards and nominations for two Academy Awards and two Golden Globe Awards . McCarthy was named by Time as one of the 100 most influential people in the world in 2016 , and she has been featured multiple times in annual rankings of the highest-paid actresses in the world . McCarthy began appearing in television and film in the late 1990s , and first gained recognition for her role as Sookie St. James on the television series Gilmore Girls ( 2000-2007 ) . She played Dena on the ABC sitcom Samantha Who ? ( 2007-2009 ) before starring as Molly Flynn on the CBS sitcom Mike & Molly ( 2010-2016 ) , for which she received the Primetime Emmy Award for Outstanding Lead Actress in a Comedy Series in 2011 . McCarthy 's appearances as a host on Saturday Night Live led to a win for the Primetime Emmy Award for Outstanding Guest Actress in a Comedy Series in 2017 . McCarthy gained critical acclaim for her performance in the comedy film Bridesmaids ( 2011 ) , receiving a nomination for the Academy Award for Best Supporting Actress . She went on to star in several commercially successful comedies , including Identity Thief ( 2013 ) , The Heat ( 2013 ) , Tammy ( 2014 ) , St. Vincent ( 2014 ) , Spy ( 2015 ) , and The Boss ( 2016 ) . She also expanded into dramatic roles by portraying Lee Israel in the biographical drama film Can You Ever Forgive Me ? ( 2018 ) , for which she received a nomination for the Academy Award for Best Actress . McCarthy and her husband Ben Falcone are the founders of the production company On the Day Productions , under which they have collaborated on several comedy films .",
    "/wiki/Bridesmaids_(2011_film)": "Bridesmaids is a 2011 American comedy film directed by Paul Feig , written by Annie Mumolo and Kristen Wiig , and produced by Judd Apatow , Barry Mendel , and Clayton Townsend . The plot centers on Annie ( Wiig ) , who suffers a series of misfortunes after being asked to serve as maid of honor for her best friend , Lillian , played by Maya Rudolph . Rose Byrne , Melissa McCarthy , Ellie Kemper , and Wendi McLendon-Covey co-star as Lillian 's bridesmaids , with Chris O'Dowd , Rebel Wilson , Matt Lucas , Michael Hitchcock , Jon Hamm , and Jill Clayburgh , in her final film appearance , in supporting roles . Actresses Annie Mumolo and Kristen Wiig wrote the screenplay following Wiig 's casting in Apatow 's 2007 comedy film Knocked Up , and budgeted at $ 32.5 million . Upon its opening release in the United States and Canada on May 13 , 2011 , Bridesmaids was both critically and commercially successful . The film grossed $ 26 million in its opening weekend , eventually grossing over $ 288 million worldwide , and surpassed Knocked Up to become the top-grossing Apatow production to date , and served as a touchstone for discussion about women in comedy . The film was nominated for a Golden Globe Award for Best Motion Picture - Musical or Comedy . It received multiple other accolades . On January 24 , 2012 , the film was nominated for both the Academy Award for Best Supporting Actress for Melissa McCarthy and Best Original Screenplay for Wiig and Mumolo . This made it the first Apatow-produced film to be nominated for an Academy Award .",
    "/wiki/Janet_McTeer": "Janet McTeer OBE ( born 5 August 1961 ) is an English actress . In 1997 , she won the Tony Award for Best Actress in a Play , the Olivier Award for Best Actress , and the Drama Desk Award for Outstanding Actress in a Play for her role as Nora in A Doll 's House ( 1996-1997 ) . She also won a Golden Globe Award and was nominated for the Academy Award for Best Actress for her role as Mary Jo Walker in the 1999 film Tumbleweeds , and was nominated for the Academy Award for Best Supporting Actress for her role as Hubert Page in the 2011 film Albert Nobbs . She was made an OBE in the 2008 Queen 's Birthday Honours . McTeer made her professional stage debut in 1984 , and was nominated for the 1986 Olivier Award for Best Newcomer for The Grace of Mary Traverse . Other theatre roles include Yelena in Uncle Vanya ( London ) , Veronique in God of Carnage ( London & New York ) , and the title role in Mary Stuart ( London & New York ) , which won her a second Drama Desk Award in 2009 . On television , she starred in the title role of Lynda La Plante 's The Governor ( 1995-1996 ) , and received an Emmy Award nomination for Into the Storm ( 2009 ) and a Golden Globe nomination for The White Queen ( 2013 ) . She also appeared opposite Glenn Close in the final season of the drama series Damages ( 2012 ) . Her other film roles include Half Moon Street ( 1986 ) , Hawks ( 1988 ) , Wuthering Heights ( 1992 ) , Carrington ( 1995 ) , Velvet Goldmine ( 1998 ) , Songcatcher ( 2000 ) , The Intended ( 2002 ) , As You Like It ( 2006 ) , Tideland ( 2005 ) , Cat Run ( 2011 ) , The Woman in Black ( 2012 ) , Maleficent ( 2014 ) , The Divergent Series ( 2015-2016 ) , and Me Before You ( 2016 ) .",
    "/wiki/Albert_Nobbs": "Albert Nobbs is a 2011 British-Irish drama film directed by Rodrigo Garc\u00eda and starring Glenn Close . The screenplay , by Close , John Banville , and Gabriella Prekop , is based on a 1927 novella by George Moore . The film received mixed reviews , but the performances by Glenn Close and Janet McTeer were praised ; they were nominated for the Academy Award in the categories of Best Actress and Best Supporting Actress , respectively . They also received Golden Globe Award and Screen Actors Guild Award nominations . The film was also nominated for the Academy Award for Best Makeup . The novella had been earlier adapted as a play titled The Singular Life of Albert Nobbs in which Close starred Off-Broadway in 1982 and for which she won an Obie Award for Best Actress .",
    "/wiki/19th_Screen_Actors_Guild_Awards": "The 19th Annual Screen Actors Guild Awards , honoring the best achievements in film and television performances for the year 2012 , were presented on January 27 , 2013 , at the Shrine Exposition Center in Los Angeles for the seventeenth consecutive year . It was broadcast simultaneously by TNT and TBS , which collectively gained 5.2 million viewers , leading the two networks to sign a three-year television contract with SAG-AFTRA . The nominees were announced on December 12 , 2012 . Dick Van Dyke was announced as the 2012 SAG Life Achievement Award honoree on August 21 , 2012 .",
    "/wiki/Anne_Hathaway": "Anne Jacqueline Hathaway ( born November 12 , 1982 ) is an American actress . The recipient of multiple awards , including an Academy Award , a Primetime Emmy Award , and a Golden Globe , she was one of the highest-paid actresses in the world in 2015 . Her films have earned over $ 6.8 billion worldwide , and she appeared in the Forbes Celebrity 100 list in 2009 . Hathaway graduated from Millburn High School in New Jersey , where she acted in several plays . As a teenager , she was cast in the television series Get Real ( 1999-2000 ) and made her breakthrough as the protagonist in her debut film , the Disney comedy The Princess Diaries ( 2001 ) . Hathaway made a transition to adult roles with the 2005 dramas Havoc and Brokeback Mountain . The comedy film The Devil Wears Prada ( 2006 ) , in which she played an assistant to a fashion magazine editor , was her biggest commercial success to that point . She played a recovering alcoholic in the drama Rachel Getting Married ( 2008 ) , which earned her a nomination for the Academy Award for Best Actress . She followed this with roles in the commercially successful romantic films Bride Wars ( 2009 ) , Valentine 's Day ( 2010 ) , Love & Other Drugs ( 2010 ) , and the fantasy film Alice in Wonderland ( 2010 ) . In 2012 , Hathaway starred as Selina Kyle in her highest-grossing film The Dark Knight Rises , the final installment in The Dark Knight trilogy . That year , she also played Fantine , a prostitute dying of tuberculosis , in the musical romantic drama Les Mis\u00e9rables , for which she won the Academy Award for Best Supporting Actress . She went on to play a scientist in the science fiction film Interstellar ( 2014 ) , the owner of an online fashion site in the comedy The Intern ( 2015 ) , and a haughty actress in the heist film Ocean 's 8 ( 2018 ) .",
    "/wiki/Les_Mis\u00e9rables_(2012_film)": "Les Mis\u00e9rables is a 2012 epic historical period musical film directed by Tom Hooper and scripted by William Nicholson , Alain Boublil , who wrote the original French lyrics , Claude-Michel Sch\u00f6nberg , who wrote the music , and Herbert Kretzmer , who wrote the English lyrics , based on the 1862 French novel of the same name by Victor Hugo , which also inspired a 1980 musical by Boublil and Sch\u00f6nberg . The film is a British and American venture distributed by Universal Pictures . The film stars an ensemble cast led by Hugh Jackman , Russell Crowe , Anne Hathaway , Eddie Redmayne , Amanda Seyfried , Helena Bonham Carter , and Sacha Baron Cohen . The film takes place in France during the early 19th century and tells the story of Jean Valjean who , while being hunted for decades by the ruthless policeman Javert after breaking parole , agrees to care for a factory worker 's daughter . The story reaches resolution against the background of the June Rebellion . Following the release of the 1980 musical , a film adaptation was mired in development hell for over ten years , as the rights were passed on to several major studios , and various directors and actors considered . In 2011 , producer Cameron Mackintosh sold the film rights to Eric Fellner , who financed the film through his Working Title Films . In June 2011 , production of the film officially began , with Hooper and Mackintosh serving as director and producer , and the main characters were cast later that year . Principal photography commenced in March 2012 , with a budget of $ 61 million . Filming took place on locations in Greenwich , London , Chatham , Winchester , Bath , and Portsmouth , England ; in Gourdon , France ; and on soundstages in Pinewood Studios . Les Mis\u00e9rables held its world premiere at Leicester Square in London on 5 December 2012 , and was released 25 December 2012 in the United States and 11 January 2013 in the United Kingdom . It grossed over $ 441 million worldwide .",
    "/wiki/Fantine": "Fantine ( French pronunciation : [ f\u0251\u0303.tin ] ) is a fictional character in Victor Hugo 's 1862 novel Les Mis\u00e9rables . She is a young grisette in Paris who becomes pregnant by a rich student . After he abandons her , she is forced to look after their child , Cosette , on her own . Originally a pretty and na\u00efve girl , Fantine is eventually forced by circumstances to become a prostitute , selling her hair and front teeth , losing her beauty and health . The money she earns is sent to support her daughter . Fantine became an archetype of self-abnegation and devoted motherhood . She has been portrayed by many actresses in stage and screen versions of the story and has been depicted in works of art .",
    "/wiki/Sally_Field": "Sally Margaret Field ( born November 6 , 1946 ) is an American actress and director . She is the recipient of various accolades , including two Academy Awards , three Primetime Emmy Awards , two Golden Globe Awards , and a Screen Actors Guild Award , and she has been nominated for a Tony Award and two BAFTA Awards . Field began her professional career on television , starring in the short-lived comedies Gidget ( 1965-1966 ) , The Flying Nun ( 1967-1970 ) , and The Girl with Something Extra ( 1973-1974 ) . In 1976 , she garnered critical acclaim for her performance in the miniseries Sybil , for which she received the Primetime Emmy Award for Outstanding Lead Actress in a Limited Series or Movie . Her film debut was as an extra in Moon Pilot ( 1962 ) , and her movie career escalated during the 1970s with starring roles including Stay Hungry ( 1976 ) , Smokey and the Bandit ( 1977 ) , Heroes ( 1977 ) , The End ( 1978 ) , and Hooper ( 1978 ) . Her career further expanded during the 1980s , receiving the Academy Award for Best Actress for both Norma Rae ( 1979 ) and Places in the Heart ( 1984 ) , and she appeared in Smokey and the Bandit II ( 1980 ) , Absence of Malice ( 1981 ) , Kiss Me Goodbye ( 1982 ) , Murphy 's Romance ( 1985 ) , Steel Magnolias ( 1989 ) , Mrs. Doubtfire ( 1993 ) , and Forrest Gump ( 1994 ) . In the 2000s , she returned to television with a recurring role on the NBC medical drama ER , for which she won the Primetime Emmy Award for Outstanding Guest Actress in a Drama Series in 2001 and the following year made her stage debut with Edward Albee 's The Goat , or Who Is Sylvia ? . From 2006 to 2011 , she portrayed Nora Walker on the ABC television drama Brothers & Sisters , for which she received the Primetime Emmy Award for Outstanding Lead Actress in a Drama Series in 2007 . She starred as Mary Todd Lincoln in Lincoln ( 2012 ) , for which she received a nomination for the Academy Award for Best Supporting Actress , and she portrayed Aunt May in The Amazing Spider-Man ( 2012 ) and its 2014 sequel , with the first being her highest grossing release . In 2015 , she portrayed the title character in Hello , My Name Is Doris , for which she was nominated for the Critics ' Choice Movie Award for Best Actress in a Comedy . In 2017 , she returned to the stage after an absence of 15 years with the revival of Tennessee Williams ' The Glass Menagerie for which she received a nomination for the Tony Award for Best Actress in a Play . As a director , Field is known for the television film The Christmas Tree ( 1996 ) , an episode of the 1998 HBO miniseries From the Earth to the Moon , and the feature film Beautiful ( 2000 ) .",
    "/wiki/Lincoln_(film)": "Lincoln is a 2012 historical drama film directed and produced by Steven Spielberg , starring Daniel Day-Lewis as U.S. President Abraham Lincoln . The film also features Sally Field , David Strathairn , Joseph Gordon-Levitt , James Spader , Hal Holbrook , and Tommy Lee Jones in supporting roles . The screenplay by Tony Kushner was loosely based on Doris Kearns Goodwin 's biography Team of Rivals : The Political Genius of Abraham Lincoln , and covers the final four months of Lincoln 's life , focusing on his efforts in January 1865 to have the Thirteenth Amendment to the United States Constitution passed by the United States House of Representatives . The film was produced by Spielberg and frequent collaborator Kathleen Kennedy , through their respective production companies , Amblin Entertainment and the Kennedy/Marshall Company . Filming began October 17 , 2011 , and ended on December 19 , 2011 . Lincoln premiered on October 8 , 2012 at the New York Film Festival . The film was co-produced by American companies DreamWorks Pictures , 20th Century Fox , and Participant Media , with Indian company Reliance Entertainment , and released theatrically by Touchstone Pictures in North America on November 9 , 2012 . The film was distributed by Fox in international territories . Lincoln received significant praise for the acting , especially Day-Lewis 's performance , as well as Spielberg 's direction , and production values . In December 2012 , the film was nominated for seven Golden Globe Awards including Best Motion Picture - Drama , Best Director for Spielberg and winning Best Actor ( Motion Picture - Drama ) for Day-Lewis . At the 85th Academy Awards , the film was nominated for twelve Academy Awards including Best Picture and Best Director ; it won for Best Production Design and Best Actor for Day-Lewis . The film was also a commercial success , grossing over $ 275 million at the box office .",
    "/wiki/Mary_Todd_Lincoln": "Mary Todd Lincoln ( n\u00e9e Mary Ann Todd ; December 13 , 1818 - July 16 , 1882 ) was the wife of the 16th President of the United States , Abraham Lincoln , and as such the First Lady of the United States from 1861 to 1865 . She dropped the name Ann after her younger sister , Ann Todd ( Clark ) , was born , and did not use the name Todd after marrying . Mary was a member of a large , wealthy Kentucky family , and was well educated . After finishing school during her teens , she moved to Springfield , Illinois , where she lived with her married sister Elizabeth Edwards . Before she married Abraham Lincoln , Mary was courted by his long-time political opponent Stephen A. Douglas . She and Lincoln had four sons together , three of whom died in childhood . Their home of about 17 years still stands at Eighth and Jackson Streets in Springfield , Illinois . She staunchly supported her husband throughout his presidency , and was active in keeping national morale high during the Civil War . She acted as the White House social coordinator , throwing lavish balls and redecorating the White House at great expense ; her spending was the source of much consternation . She was seated next to Abraham when he was assassinated in the President 's Box at Ford 's Theatre on Tenth Street in Washington . His death weighed heavily on her , as did the death of her sons . Mary suffered from numerous physical and mental health issues during her life .",
    "/wiki/Helen_Hunt": "Helen Elizabeth Hunt ( born June 15 , 1963 ) is an American actress , director , and screenwriter . She rose to fame portraying Jamie Buchman in the sitcom Mad About You ( 1992-1999 , 2019-present ) , for which she won three Golden Globe Awards for Best Actress in a Television Series - Musical or Comedy and four Emmy Awards ( Primetime ) for Outstanding Lead Actress in a Comedy Series . Hunt won the Academy Award for Best Actress for starring as Carol Connelly in the romantic comedy As Good as It Gets ( 1997 ) , while her portrayal of Cheryl Cohen-Greene in The Sessions ( 2012 ) , gained her an additional Oscar nomination for Best Supporting Actress . Her other notable films include Twister ( 1996 ) , Cast Away ( 2000 ) , What Women Want ( 2000 ) , Pay It Forward ( 2000 ) , Bobby ( 2006 ) , Soul Surfer ( 2011 ) and The Miracle Season ( 2018 ) . Hunt made her directorial film debut with Then She Found Me ( 2007 ) , and has directed the film Ride ( 2014 ) and episodes of television series including House of Lies , This Is Us , Feud : Bette and Joan , American Housewife , and the premiere episode of the Mad About You revival .",
    "/wiki/The_Sessions_(film)": "The Sessions ( originally titled The Surrogate ) is a 2012 American independent erotic comedy drama film written and directed by Ben Lewin . It is based on the article On Seeing a Sex Surrogate by Mark O'Brien , a poet paralyzed from the neck down due to polio , who hired a sex surrogate to lose his virginity . John Hawkes and Helen Hunt star as O'Brien and sex surrogate Cheryl Cohen-Greene , respectively . The film debuted at the 2012 Sundance Film Festival , where it won the Audience Award ( U.S . Dramatic ) and a U.S . Dramatic Special Jury Prize for Ensemble Acting . Fox Searchlight Pictures acquired the film 's distribution rights and released the film in October 2012 . The Sessions received highly positive reviews from critics , in particular lauding the performances of Hawkes and Hunt . Hunt was nominated for an Oscar for Best Supporting Actress at the 85th Academy Awards .",
    "/wiki/Cheryl_Cohen-Greene": "Cheryl Cohen-Greene ( born September 9 , 1944 ) is an American sexual surrogate partner , speaker , and author , known for her work with American poet Mark O'Brien in 1986 , before his death in 1999 . She was portrayed in the film The Sessions by Helen Hunt , who received an Academy Award nomination for her performance . In 2012 , Cohen-Greene released her memoire , titled An Intimate Life : Sex , Love , and My Journey as a Surrogate Partner .",
    "/wiki/Nicole_Kidman": "Nicole Mary Kidman AC ( born 20 June 1967 ) is an Australian actress and producer . She has won many awards including an Academy Award , two Primetime Emmy Awards , five Golden Globe Awards , and a Screen Actors Guild Award . She was listed among the highest-paid actresses in the world in 2006 , 2018 , and 2019 . Time magazine twice named her one of the 100 most influential people in the world , in 2004 and 2018 . Kidman began her acting career in Australia with the 1983 films Bush Christmas and BMX Bandits . Her breakthrough came in 1989 with the thriller film Dead Calm and the miniseries Bangkok Hilton . In 1990 , she made her Hollywood debut in the racing film Days of Thunder , opposite Tom Cruise . She went on to achieve wider recognition with lead roles in Far and Away ( 1992 ) , Batman Forever ( 1995 ) , To Die For ( 1995 ) , and Eyes Wide Shut ( 1999 ) . Kidman won the Academy Award for Best Actress for portraying the writer Virginia Woolf in the drama The Hours ( 2002 ) . Her other Oscar-nominated roles were as a courtesan in the musical Moulin Rouge ! ( 2001 ) and emotionally troubled mothers in the dramas Rabbit Hole ( 2010 ) and Lion ( 2016 ) . Kidman 's other film credits include The Others ( 2001 ) , Cold Mountain ( 2003 ) , Dogville ( 2003 ) , Birth ( 2004 ) , Australia ( 2008 ) , The Paperboy ( 2012 ) , Paddington ( 2014 ) , Destroyer ( 2018 ) , Aquaman ( 2018 ) , and Bombshell ( 2019 ) .",
    "/wiki/The_Paperboy_(2012_film)": "The Paperboy is a 2012 American drama film directed by Lee Daniels and starring Matthew McConaughey , Zac Efron , John Cusack , Nicole Kidman and David Oyelowo . It is based on the 1995 novel of the same name by American author Pete Dexter . The film competed for the Palme d'Or at the 2012 Cannes Film Festival . It received mixed to negative reviews and was a box office bomb , grossing just $ 3.78 million against its $ 12.5 million budget . Despite this Kidman received nominations for the Golden Globe and Screen Actors Guild Award .",
    "/wiki/Maggie_Smith": "Dame Margaret Natalie Smith CH DBE ( born 28 December 1934 ) is an English actress . She has had an extensive , varied career on stage , film , and television , spanning over 68 years . Smith has appeared in more than 60 films , and is one of Britain 's most recognisable actresses . She was made a Dame by Queen Elizabeth II in 1990 for contributions to the performing arts , and a Companion of Honour in 2014 for services to drama . Smith began her career on stage as a student , performing at the Oxford Playhouse in 1952 , and made her professional debut on Broadway in New Faces of '56 . For her work on the London stage , she has won a record six Best Actress Evening Standard Awards : for The Private Ear , and The Public Eye ( both 1962 ) , Hedda Gabler ( 1970 ) , Virginia ( 1981 ) , The Way of the World ( 1984 ) , Three Tall Women ( 1994 ) and A German Life ( 2019 ) . She received Tony Award nominations for Private Lives ( 1975 ) and Night and Day ( 1979 ) , before winning the 1990 Tony Award for Best Actress in a Play for Lettice and Lovage . She appeared in Stratford Shakespeare Festival productions of Antony and Cleopatra ( 1976 ) and Macbeth ( 1978 ) , and West End productions of A Delicate Balance ( 1997 ) and The Breath of Life ( 2002 ) . She received the Society of London Theatre Special Award in 2010 . On screen , Smith first drew praise for the crime film Nowhere to Go ( 1958 ) , for which she received her first nomination for a British Academy of Film and Television Arts ( BAFTA ) Award . She has won two Academy Awards , winning Best Actress for The Prime of Miss Jean Brodie ( 1969 ) and Best Supporting Actress for California Suite ( 1978 ) . She is one of only seven actresses to have won in both categories .",
    "/wiki/The_Best_Exotic_Marigold_Hotel": "The Best Exotic Marigold Hotel is a 2011 British comedy-drama film directed by John Madden . The screenplay , written by Ol Parker , is based on the 2004 novel These Foolish Things , by Deborah Moggach , and features an ensemble cast consisting of Judi Dench , Celia Imrie , Bill Nighy , Ronald Pickup , Maggie Smith , Tom Wilkinson and Penelope Wilton , as a group of British pensioners moving to a retirement hotel in India , run by the young and eager Sonny , played by Dev Patel . The movie was produced by Participant Media and Blueprint Pictures on a budget of $ 10 million . Producers Graham Broadbent and Peter Czernin first saw the potential for a film in Deborah Moggach 's novel with the idea of exploring the lives of the elderly beyond what one would expect of their age group . With the assistance of screenwriter Ol Parker , they came up with a script in which they take the older characters completely out of their element and involve them in a romantic comedy . Principal photography began on 10 October 2010 in India , and most of the filming took place in the Indian state of Rajasthan , including the cities of Jaipur and Udaipur . Ravla Khempur , an equestrian hotel which was originally the palace of a tribal chieftain in the village of Khempur , was chosen as the site for the film hotel . The film was released in the United Kingdom on 24 February 2012 and received mild critical acclaim ; The Best Exotic Marigold Hotel opened to strong box-office business in the United Kingdom and continued to build worldwide . It became a surprise box-office hit following its international release , eventually grossing nearly $ 137 million worldwide . It was ranked among the highest-grossing 2012 releases in Australia , New Zealand and the United Kingdom , and as one of the highest-grossing speciality releases of the year . A sequel , The Second Best Exotic Marigold Hotel , began production in India in January 2014 , and was released on 26 February 2015 .",
    "/wiki/20th_Screen_Actors_Guild_Awards": "The 20th Annual Screen Actors Guild Awards , honoring the best achievements in film and television performances for the year 2013 , were presented on January 18 , 2014 at the Shrine Exposition Center in Los Angeles . The ceremony was broadcast simultaneously by TNT and TBS 8:00 p.m. EST / 5:00 p.m. PST and the nominees were announced on December 11 , 2013 . Rita Moreno was announced as the 2013 SAG Life Achievement Award honoree on July 22 , 2013 .",
    "/wiki/Lupita_Nyong'o": "Lupita Amondi Nyong ' o ( US : /lu\u02d0\u02c8pi\u02d0t\u0259 \u02c8nj\u0254\u02d0\u014bo\u028a/ , Kenyan English : [ lu\u02c8pita \u02c8\u0272o\u014bo ] ( listen ) ; Spanish : [ lu\u02c8pita \u02c8\u0272o\u014b\u0261o ] ; born 1 March 1983 ) is a Kenyan-Mexican actress . The daughter of Kenyan politician Peter Anyang ' Nyong ' o , Nyong ' o was born in Mexico City , where her father was teaching , and was raised in Kenya from the age of one . She attended college in the United States , earning a bachelor 's degree in film and theater studies from Hampshire College . Nyong ' o began her career in Hollywood as a production assistant . In 2008 , she made her acting debut with the short film East River and subsequently returned to Kenya to star in the television series Shuga ( 2009-2012 ) . Also in 2009 , she wrote , produced and directed the documentary In My Genes . She then pursued a master 's degree in acting from the Yale School of Drama . Soon after her graduation , she had her first feature film role as Patsey in Steve McQueen 's historical drama 12 Years a Slave ( 2013 ) , for which she received critical acclaim and won several awards , including the Academy Award for Best Supporting Actress . She became the first Kenyan and Mexican actress to win an Academy Award . Nyong ' o made her Broadway debut as a teenage orphan in the play Eclipsed ( 2015 ) , for which she was nominated for a Tony Award for Best Actress in a Play . She went on to perform a motion capture role as Maz Kanata in the Star Wars sequel trilogy ( 2015-2019 ) and a voice role as Raksha in The Jungle Book ( 2016 ) . Nyong ' o 's career progressed with her role as Nakia in the Marvel Cinematic Universe superhero film Black Panther ( 2018 ) and her starring role in Jordan Peele 's critically acclaimed horror film Us ( 2019 ) .",
    "/wiki/12_Years_a_Slave_(film)": "12 Years a Slave is a 2013 biographical period-drama film and an adaptation of the 1853 slave memoir Twelve Years a Slave by Solomon Northup , a New York State-born free African-American man who was kidnapped in Washington , D.C. by two conmen in 1841 and sold into slavery . Northup was put to work on plantations in the state of Louisiana for 12 years before being released . The first scholarly edition of Northup 's memoir , co-edited in 1968 by Sue Eakin and Joseph Logsdon , carefully retraced and validated the account and concluded it to be accurate . Other characters in the film were also real people , including Edwin and Mary Epps , and Patsey . The film was directed by Steve McQueen , and the screenplay was written by John Ridley . Chiwetel Ejiofor stars as Solomon Northup . Michael Fassbender , Benedict Cumberbatch , Paul Dano , Paul Giamatti , Lupita Nyong ' o , Sarah Paulson , Brad Pitt , and Alfre Woodard feature in supporting roles . Principal photography took place in New Orleans , Louisiana , from June 27 to August 13 , 2012 . The locations used were four historic antebellum plantations ; Felicity , Bocage , Destrehan , and Magnolia . Of the four , Magnolia is nearest to the actual plantation where Northup was held . 12 Years a Slave was named the best film of 2013 by several media outlets and critics , and earned over $ 187 million on a production budget of $ 22 million . The film received nine Academy Award nominations , winning three : Best Picture , Best Adapted Screenplay and Best Supporting Actress for Nyong ' o .",
    "/wiki/Patsey": "Patsey was an African-American slave who lived in the mid 19th century . Another slave , Solomon Northup ( who was later freed ) , wrote about her in his book Twelve Years a Slave . The book was later adapted into a film , in which she was portrayed by Lupita Nyong ' o , who won the Academy Award for Best Supporting Actress for her performance .",
    "/wiki/Jennifer_Lawrence": "Jennifer Shrader Lawrence ( born August 15 , 1990 ) is an American actress . The films she has acted in have grossed over $ 6 billion worldwide , and she was the highest-paid actress in the world in 2015 and 2016 . Lawrence appeared in Time 's 100 most influential people in the world list in 2013 and in the Forbes Celebrity 100 list in 2014 and 2016 . During her childhood , Lawrence performed in church plays and school musicals . At age 14 , she was spotted by a talent scout while vacationing in New York City with her family . Lawrence then moved to Los Angeles and began her acting career by playing guest roles in television shows . Her first major role came as a main cast member on the sitcom The Bill Engvall Show ( 2007-2009 ) . Lawrence made her film debut in a supporting role in the drama Garden Party ( 2008 ) , and had her breakthrough playing a poverty-stricken teenager in the independent drama Winter 's Bone ( 2010 ) . Her career progressed with her starring roles as the mutant Mystique in the X-Men film series ( 2011-2019 ) and Katniss Everdeen in the Hunger Games film series ( 2012-2015 ) . The latter established her as the highest-grossing action heroine of all time . Lawrence went on to earn accolades for her collaborations with director David O. Russell . Her performance as a depressed young widow in the romance film Silver Linings Playbook ( 2012 ) earned her the Academy Award for Best Actress , making her the second-youngest winner of the award .",
    "/wiki/American_Hustle": "American Hustle is a 2013 American black comedy crime film directed by David O. Russell . It was written by Eric Warren Singer and Russell , inspired by the FBI Abscam operation of the late 1970s and early 1980s . It stars Christian Bale and Amy Adams as two con artists who are forced by an FBI agent ( Bradley Cooper ) to set up an elaborate sting operation on corrupt politicians , including the mayor of Camden , New Jersey ( Jeremy Renner ) . Jennifer Lawrence plays the unpredictable wife of Bale 's character . Principal photography on the film began on March 8 , 2013 , in Boston and Worcester , Massachusetts , and New York City . American Hustle had its nationwide release in the United States on December 13 , 2013 . It opened to wide acclaim from critics , who praised its screenplay and ensemble cast . The film received ten nominations at the 86th Academy Awards , including Best Picture , Best Director , Best Original Screenplay , Best Actor ( Bale ) , Best Actress ( Adams ) , Best Supporting Actor ( Cooper ) , and Best Supporting Actress ( Lawrence ) , but did not win in any category . It received three BAFTA Awards , three Golden Globe Awards , including Best Motion Picture - Musical or Comedy , and the Screen Actors Guild Award for Outstanding Performance by a Cast in a Motion Picture .",
    "/wiki/Julia_Roberts": "Julia Fiona Roberts ( born October 28 , 1967 ) is an American actress and producer . She established herself as a leading lady in Hollywood after headlining the romantic comedy film Pretty Woman ( 1990 ) , which grossed $ 464 million worldwide . She has won three Golden Globe Awards , from eight nominations , and has been nominated for four Academy Awards for her film acting , winning the Academy Award for Best Actress for her performance in Erin Brockovich ( 2000 ) . Her films have collectively brought box office receipts of over US $ 2.8 billion , making her one of the most bankable actresses in Hollywood . Her most successful films include Mystic Pizza ( 1988 ) , Steel Magnolias ( 1989 ) , Pretty Woman ( 1990 ) , Sleeping with the Enemy ( 1991 ) , The Pelican Brief ( 1993 ) , My Best Friend 's Wedding ( 1997 ) , Notting Hill ( 1999 ) , Runaway Bride ( 1999 ) , Erin Brockovich ( 2000 ) , Ocean 's Eleven ( 2001 ) , Ocean 's Twelve ( 2004 ) , Charlie Wilson 's War ( 2007 ) , Valentine 's Day ( 2010 ) , Eat Pray Love ( 2010 ) , Money Monster ( 2016 ) , and Wonder ( 2017 ) . Roberts was nominated for the Primetime Emmy Award for Outstanding Supporting Actress in a Limited Series or Movie for her performance in the HBO television film The Normal Heart ( 2014 ) . In 2018 , she starred in the Prime Video psychological thriller series Homecoming . Roberts was the highest-paid actress in the world throughout most of the 1990s and in the first half of the 2000s . Her fee for 1990 's Pretty Woman was US $ 300,000 ; in 2003 , she was paid an unprecedented $ 25 million for her role in Mona Lisa Smile ( 2003 ) . As of 2017 [ update ] , Roberts 's net worth was estimated to be $ 170 million . People magazine has named her the most beautiful woman in the world a record five times .",
    "/wiki/August:_Osage_County_(film)": "August : Osage County is a 2013 American comedy-drama film directed by John Wells . It was written by Tracy Letts and based on his Pulitzer Prize-winning . It is produced by George Clooney , Grant Heslov , Jean Doumanian , and Steve Traxler . The film stars an ensemble cast consisting of Meryl Streep , Julia Roberts , Ewan McGregor , Chris Cooper , Abigail Breslin , Benedict Cumberbatch , Juliette Lewis , Margo Martindale , Dermot Mulroney , and Julianne Nicholson as a dysfunctional family that reunites into the familial house when their patriarch ( Sam Shepard ) suddenly disappears . August : Osage County premiered at the Toronto International Film Festival on September 9 , 2013 , and was released in the United States on December 27 , 2013 . A modest commercial success , the film received mixed reviews from critics . While much praise was given to the cast , the screenplay was praised by some and seen by others as too dark and lacking in humor . For their performances in the film , Streep and Roberts received Oscar nominations for Best Actress and Best Supporting Actress , respectively .",
    "/wiki/June_Squibb": "June Louise Squibb is an American stage and screen actress . She is best known for her supporting role in the film Nebraska ( 2013 ) , which earned her further critical acclaim and many accolades , including Oscar and Golden Globe nominations .",
    "/wiki/Nebraska_(film)": "Nebraska is a 2013 American black-and-white comedy-drama road film written by Bob Nelson and directed by Alexander Payne . It stars Bruce Dern , Will Forte , June Squibb , and Bob Odenkirk . The film follows an elderly Montana resident and his son as they try to claim a million-dollar sweepstakes prize on a long trip to Nebraska . Nebraska was nominated for the Palme d'Or ( Grand Prize ) at the 2013 Cannes Film Festival , where Dern won the Best Actor Award . It was also nominated for six Oscars , including Best Picture , Best Director , Best Actor for Dern , Best Supporting Actress for Squibb , Best Original Screenplay , and Best Cinematography . The film was acclaimed by critics and became a commercial success , bringing in $ 27.7 million from the box office on a $ 13.5 million budget . Nonetheless , the film marked the final project for Paramount Vantage before it closed in December 2013 .",
    "/wiki/Oprah_Winfrey": "Oprah Gail Winfrey ( born Orpah Gail Winfrey ; January 29 , 1954 ) is an American media executive , actress , talk show host , television producer , and philanthropist . She is best known for her talk show , The Oprah Winfrey Show , broadcast from Chicago , which was the highest-rated television program of its kind in history and ran in national syndication for 25 years from 1986 to 2011 . Dubbed the Queen of All Media , she was the richest African American of the 20th century and North America 's first black multi-billionaire , and she has been ranked the greatest black philanthropist in American history . By 2007 , she was sometimes ranked as the most influential woman in the world . Winfrey was born into poverty in rural Mississippi to a teenage single mother and later raised in inner-city Milwaukee . She has stated that she was molested during her childhood and early teens and became pregnant at 14 ; her son was born prematurely and died in infancy . Winfrey was then sent to live with the man she calls her father , Vernon Winfrey , a barber in Tennessee , and landed a job in radio while still in high school . By 19 , she was a co-anchor for the local evening news . Winfrey 's often emotional , extemporaneous delivery eventually led to her transfer to the daytime talk show arena , and after boosting a third-rated local Chicago talk show to first place , she launched her own production company and became internationally syndicated . Credited with creating a more intimate , confessional form of media communication , Winfrey popularized and revolutionized the tabloid talk show genre pioneered by Phil Donahue . Through this medium , Winfrey broke 20th-century taboos and allowed LGBT people to enter the mainstream through television appearances . In 1994 , she was inducted into the National Women 's Hall of Fame .",
    "/wiki/The_Butler": "The Butler ( full title Lee Daniels ' The Butler ) is a 2013 American historical drama film directed and co-produced by Lee Daniels and with a screenplay by Danny Strong . It is inspired by Wil Haygood 's Washington Post article A Butler Well Served by This Election . Loosely based on the real life of Eugene Allen , who worked in the White House for decades , the film stars Forest Whitaker as Cecil Gaines , an African-American who is a witness of notable political and social events of the 20th century during his 34-year tenure serving as a White House butler . In addition to Whitaker , the film 's all-star cast also features Oprah Winfrey , John Cusack , Jane Fonda , Alex Pettyfer , Cuba Gooding Jr. , Terrence Howard , Lenny Kravitz , James Marsden , David Oyelowo , Vanessa Redgrave , Alan Rickman , Liev Schreiber , Robin Williams , Minka Kelly , Mariah Carey , and Clarence Williams III . It was the last film produced by Laura Ziskin , who died on June 12 , 2011 . The film was theatrically released by The Weinstein Company on August 16 , 2013 , to mostly positive reviews from critics , with many praising the cast but criticized the historical accuracy , particularly the portrayal of President Reagan . The film grossed over $ 176 million worldwide against a budget of $ 30 million ."
  }
}