{
  "1999\u20132000_UEFA_Cup_0": {
    "/wiki/Italian_Football_Federation": "The Italian Football Federation ( Italian : Federazione Italiana Giuoco Calcio ; FIGC ) , also known as Federcalcio , is the governing body of football in Italy . It is based in Rome and the technical department is in Coverciano , Florence . It organises the Italian football league and Coppa Italia . It is also responsible for appointing the management of the Italy national football team ( men 's ) , women 's , and youth national football teams . The Italy national futsal team also belongs to the federation .",
    "/wiki/German_Football_Association": "The German Football Association ( German : Deutscher Fu\u00dfball-Bund [ \u02c8d\u0254\u028f\u032ft\u0361\u0283\u0250 \u02c8fu\u02d0sbalb\u028ant ] ; DFB [ de\u02d0\u0294\u025bf\u02c8be\u02d0 ] ) is the governing body of football in Germany . A founding member of both FIFA and UEFA , the DFB has jurisdiction for the German football league system and is in charge of the men 's and women 's national teams . The DFB headquarters are in Frankfurt am Main . Sole members of the DFB are the German Football League ( German : Deutsche Fu\u00dfball Liga ; DFL ) , organising the professional Bundesliga and the 2 . Bundesliga , along with five regional and 21 state associations , organising the semi-professional and amateur levels . The 21 state associations of the DFB have a combined number of more than 25,000 clubs with more than 6.8 million members , making the DFB the single largest sports federation in the world .",
    "/wiki/Royal_Spanish_Football_Federation": "The Royal Spanish Football Federation ( Spanish : Real Federaci\u00f3n Espa\u00f1ola de F\u00fatbol ; RFEF ) is the governing body of football in Spain . It is based in La Ciudad del F\u00fatbol of Las Rozas , a municipality near Madrid . It was founded on 14 October 1909 as Federaci\u00f3n Espa\u00f1ola de Clubs de Football , and officially founded on 29 September 1913 . It administers the competition committee ( including the handling of the trophy ) of the Campeonato Nacional de Liga : the Primera Divisi\u00f3n and the Segunda Divisi\u00f3n , even though they are organized by LaLiga . It organizes the Segunda Divisi\u00f3n B as well as the Tercera Divisi\u00f3n with the assistance of the regional football federations . It is also responsible for appointing the management of the Spanish national football team ( men 's ) , women 's , and youth national football teams . The Spain national futsal team , also belongs to the federation . As of May 2019 , the federation has 21,148 registered clubs and 1,063,090 federated football players .",
    "/wiki/French_Football_Federation": "The French Football Federation ( FFF ) ( French : F\u00e9d\u00e9ration Fran\u00e7aise de Football ) is the governing body of football in France . It also includes the overseas departments ( Guadeloupe , French Guiana , Martinique , Mayotte and R\u00e9union ) and the overseas collectivities ( New Caledonia , French Polynesia , Wallis and Futuna , Saint Pierre and Miquelon and Saint Barth\u00e9lemy-Saint Martin ) and also in Monaco . It was formed in 1919 and is based in the capital , Paris . The FFF was a founding member of FIFA and is responsible for overseeing all aspects of the game of football in France , both professional and amateur . The French Football Federation is a founding member of UEFA and joined FIFA in 1907 after replacing the USFSA , who were founding members .",
    "/wiki/Royal_Dutch_Football_Association": "The Royal Dutch Football Association ( Dutch : Koninklijke Nederlandse Voetbalbond , pronounced [ \u02ccko\u02d0n\u026a\u014bkl\u0259k\u0259 \u02ccne\u02d0d\u0259rl\u0251nts\u0259 \u02c8vudb\u0251lb\u0254nt ] , or KNVB [ \u02ccka\u02d0\u0294\u025bnve\u02d0\u02c8be\u02d0 ] ) is the governing body of football in Netherlands . It organises the main Dutch football leagues ( Eredivisie and Eerste Divisie ) , the amateur leagues , the KNVB Cup , and the Dutch men 's and women 's national teams . For three seasons in the 2010s , the KNVB and its Belgian counterpart operated a joint top-level women 's league , the BeNe League , until the two countries dissolved the league after the 2014-15 season and reestablished their own top-level leagues . The KNVB is based in the central municipality of Zeist . With over 1.2 million members the KNVB is the single largest sports association in the Netherlands .",
    "/wiki/The_Football_Association": "The Football Association ( FA ) is the governing body of association football in England and the Crown dependencies of Jersey , Guernsey , and the Isle of Man . Formed in 1863 , it is the oldest football association in the world and is responsible for overseeing all aspects of the amateur and professional game in its territory . The FA sanctions all competitive football matches within its remit at national level , and indirectly at local level through the county football associations . It runs numerous competitions , the most famous of which is the FA Cup . It is also responsible for appointing the management of the men 's , women 's , and youth national football teams . The FA is a member of both UEFA and FIFA and holds a permanent seat on the International Football Association Board ( IFAB ) which is responsible for the Laws of the Game . As the first football association , it does not use the national name English in its title . The FA is based at Wembley Stadium , London . The FA is a member of the British Olympic Association , meaning that the FA has control over the men 's and women 's Great Britain Olympic football team . All of England 's professional football teams are members of the Football Association . Although it does not run the day-to-day operations of the Premier League , it has veto power over the appointment of the League Chairman and Chief Executive and over any changes to league rules . The English Football League , made up of the three fully professional divisions below the Premier League , is self-governing , subject to the FA 's sanctions .",
    "/wiki/Portuguese_Football_Federation": "The Portuguese Football Federation ( FPF ) ( ; ) is the governing body of football in Portugal . The federation was formed in 1914 as Portuguese Football Union ( UPF ) by the three existing regional associations of Lisbon , Portalegre and Porto , before adopting its current name in 1926 , and is based in the city of Oeiras . The FPF joined FIFA in 1923 and is also a founding member of UEFA . The Portuguese Federation oversees all aspects of the game of football in Portugal , both professional , amateur and administers the competition committee ( including the handling of the trophy ) of the Campeonato de Portugal , the Ta\u00e7a de Portugal and the Superta\u00e7a C\u00e2ndido de Oliveira . It is also responsible for appointing the management of the Portugal national football team ( men 's ) , women 's , and youth national football teams . The Portugal national futsal team , also belongs to the federation .",
    "/wiki/Hellenic_Football_Federation": "The Hellenic Football Federation ( HFF ) , also known as the Greek Football Federation ( ) , is the governing body of football in Greece . It contributes in the organisation of Superleague Greece and organizes the Greek Cup and the Greece national team . It is based in Athens .",
    "/wiki/Football_Association_of_the_Czech_Republic": "The Football Association of the Czech Republic ( Czech : Fotbalov\u00e1 asociace \u010cesk\u00e9 republiky ; FA\u010cR ) or colloquially the Czech Football Association is the governing body of football in the Czech Republic , based in Prague . It organizes the lower-level league competitions in the country ( the professional Czech First League and Czech Second League are organized independently ) , the Czech Cup , and the Czech Republic national football team .",
    "/wiki/Norwegian_Football_Federation": "The Norwegian Football Federation ( Norwegian : Norges Fotballforbund ; NFF ) is the governing body of football in Norway . It was formed in 1902 and organises the men 's and women 's national teams , as well as the league systems for men and women ( whose top levels are respectively the Eliteserien and Toppserien ) . The current president of NFF is Terje Svendsen . By 1 January 2004 , there were 1,814 clubs organized in Norway and 373,532 registered players . It is the largest sports federation in Norway . The NFF joined FIFA in 1908 , and UEFA in 1954 . The NFF was part of an unsuccessful joint bid with the SvFF , the DBU and the SPL to host the UEFA Euro 2008 championship . The SvFF invited the NFF to join them in bidding for the UEFA Euro 2016 championship . The NFF and Norwegian politicians expressed support for such a proposal , but Euro 2016 was eventually awarded to France .",
    "/wiki/Austrian_Football_Association": "The Austrian Football Association ( ; \u00d6FB ) is the governing body of football in Austria . It organises the football league , Austrian Bundesliga , the Austrian Cup and the Austrian national team , as well as its female equivalent . It is based in the capital , Vienna . Since 1905 , it has been a FIFA member , and since 1954 , a UEFA member . Since 7 April 2002 , Friedrich Stickler ( Dipl . Eng . ) , the director of executive committee of the Austrian lottery , has been the President of the Austrian Football Association . Supporting him is its President , Kurt Ehrenberger , Frank Stronach , Dr. Gerhard Kapl , and Dr. Leo Windtner . In 2004 , it was announced there are 285,000 players ( both sexes ) in Austria playing for 2,309 teams in the federation , although many more players play informally or for non-recognised teams . Thus the federation is the largest sporting organisation the country . Football is , perhaps with the exception of skiing , the most popular sport in Austria . Football possesses a large value , and has a rich history and tradition in Austria .",
    "/wiki/Russian_Football_Union": "The Russian Football Union ( Russian : \u0420\u043e\u0441\u0441\u0438\u0439\u0441\u043a\u0438\u0439 \u0424\u0443\u0442\u0431\u043e\u043b\u044c\u043d\u044b\u0439 \u0421\u043e\u044e\u0437 , Rossiyskiy Futbolnyy Soyuz , or RFS ) is the official governing body of the sport of football in the Russian Federation . With headquarters in Moscow , it organizes Russian amateur and professional football , including the men 's , women 's , youth , beach football , futsal and Paralympic national teams . The RFS sanctions referees and football tournaments for Russian Football Premier League and most football leagues in Russia . RFU is currently headed by Aleksandr Dyukov , the CEO of Gazprom Neft .",
    "/wiki/Croatian_Football_Federation": "The Croatian Football Federation ( HNS ; , ) is the governing body of association football in Croatia . It was originally formed in 1912 and is based in the capital city of Zagreb . The organisation is a member of both FIFA and UEFA , and is responsible for overseeing all aspects of the game of football in Croatia . Its current president is Davor \u0160uker . The HNS sanctions all competitive football matches in Croatia , either directly , beginning with the 3 . HNL on down , or indirectly through the associations of professional football clubs , who manage 1 . HNL and 2 . HNL , the first and second divisions of Croatia , respectively , as well as the Croatian Cup . It is also responsible for appointing the management of the men 's , women 's and youth national football teams . As of 2009 , the HNS had 118,316 registered players ( 650 of them professionals ) and a total of 1,732 registered association football and futsal clubs .",
    "/wiki/Turkish_Football_Federation": "The Turkish Football Federation ( Turkish : T\u00fcrkiye Futbol Federasyonu ; TFF ) is the governing body of association football in Turkey . It was formed on 23 April 1923 , and joined FIFA the same year and UEFA in 1962 . It organizes the Turkish national teams , the Turkish Football League and the Turkish Cup .",
    "/wiki/Danish_Football_Union": "The Danish Football Association ( DBU ) is the governing body of football in Denmark . It is the organization of the Danish football clubs and runs the professional Danish football leagues and the men 's and women 's national teams . It is based in the city of Br\u00f8ndby and is a founding member of both FIFA and UEFA . The DBU has also been the governing body of futsal in Denmark since 2008 .",
    "/wiki/Swiss_Football_Association": "The Swiss Football Association ( , , , ) is the governing body of football in Switzerland . It organizes the football league , the Swiss Football League and the Switzerland national football team . It is based in Bern . It was formed in 1895 , was a founder member of FIFA in 1904 and joined UEFA during its foundation year , 1954 . FIFA is now based in Switzerland at Z\u00fcrich . Also UEFA is based in the Swiss city of Nyon . ASF-SFV is the abbreviation of the associations name in three of the national languages of Switzerland . ASF stands for both French ( Association Suisse de Football ) and Italian ( Associazione Svizzera di Football ) , while SFV is the German ( Schweizerischer Fussballverband ) .- Romansh - It is abbreviated as ASB ( Associaziun Svizra da Ballape ) .",
    "/wiki/Ukrainian_Association_of_Football": "The Ukrainian Association of Football ( UAF ) ( ) is the governing body of football in Ukraine . Before 2019 it was known as the Football Federation of Ukraine , FFU ( ) . As a subject of the International Olympic Movement , UAF is a member of the National Olympic Committee of Ukraine . UAF is also member of international football organizations such as UEFA and FIFA . Ukrainian Association of Football governs all sport events and organizations associated with the game of football including irregular competitions of beach football , mini-football , street football and others . Its main features include football competitions including the Ukrainian Professional League , the Ukrainian Cup , the Amatory , the competitions among the youth ( under-18 ) , and also the Ukraine national football team . It also sets the regulations to the Premier League and the Professional Football League . It is headquartered in the national capital , Kiev near the Olimpiyskiy National Sports Complex at the House of Football . The organization was established in 1991 . Between 1932-1991 with the Football Federation of the Soviet Union there existed its direct predecessor , Football Federation of Ukraine ( Ukrainian SSR ) . The Soviet federation of Ukraine also conducted own championship , cup competitions , competitions among amateur teams ( collectives of physical culture ) , as well as had own national team which participated exclusively in Soviet competitions such as the Spartakiad of Peoples of the USSR .",
    "/wiki/Polish_Football_Association": "The Polish Football Association ( Polish : Polski Zwi\u0105zek Pi\u0142ki No\u017cnej ; PZPN ) is the governing body of association football in Poland . It organizes the Polish football leagues ( without the Ekstraklasa ) , the Polish Cup and the Polish national football team . It is based in the Polish capital of Warsaw ."
  },
  "2010_Paris\u2013Nice_5": {
    "/wiki/Peter_Sagan": "Peter Sagan ( Slovak pronunciation : [ \u02c8p\u025bt\u025br \u02c8sa\u0261an ] ; born 26 January 1990 ) is a Slovak professional road bicycle racer , who currently rides for UCI WorldTeam Bora-Hansgrohe . Sagan had a successful junior cyclo-cross and mountain bike racing career , winning the Junior Mountain Bike World Championship in 2008 , before moving to road racing . Sagan is considered one of cycling 's greatest talents , having earned many prestigious victories , including three consecutive World Championships , one European Championship , two Paris-Nice stages , seven Tirreno-Adriatico stages , one in the Tour de Romandie , three and the overall classification in the Tour de Pologne , a record seventeen stages and the overall in the Tour of California , and another fifteen in the Tour de Suisse . He has won a number of classics , including the Monument races Paris-Roubaix and Tour of Flanders , three Gent-Wevelgem races and E3 Harelbeke , together with sixteen stages in Grand Tours : twelve at the Tour de France and four at the Vuelta a Espa\u00f1a . After having become the first rider to win the points classification of the Tour de France on his first five attempts , he went on to win it a record seven times , in 2012 , 2013 , 2014 , 2015 , 2016 , 2018 and 2019 . Following his win at the 2017 UCI World Road Race Championships , Sagan wore the rainbow jersey for the duration of 2018 for an unprecedented third consecutive season . He currently represents the German team Bora-Hansgrohe , which he joined in 2017 .",
    "/wiki/Liquigas": "Cannondale Pro Cycling Team ( UCI team code : CAN ) , previously known as Liquigas , was an Italian professional road bicycle racing team in the UCI ProTour .",
    "/wiki/Joaquim_Rodr\u00edguez": "Joaquim Rodr\u00edguez Oliver ( born 12 May 1979 ) is a former Spanish professional road racing cyclist , who competed between 2001 and 2016 for the ONCE-Eroski , Saunier Duval-Prodir , Caisse d'Epargne and Team Katusha teams . Rodr\u00edguez recorded notable results included fourteen Grand Tour stage victories , and five overall podium placings : second places at the 2012 Giro d'Italia and the 2015 Vuelta a Espa\u00f1a , and third place finishes at the 2010 Vuelta a Espa\u00f1a , the 2012 Vuelta a Espa\u00f1a and the 2013 Tour de France . He also finished first in the UCI world rankings in 2010 , 2012 and 2013 , and won classics such as the La Fl\u00e8che Wallonne and the Giro di Lombardia twice ( 2012 and 2013 ) . He also won stage races including the Volta a Catalunya twice ( 2010 and 2014 ) , the 2015 Tour of the Basque Country and the 2011 Vuelta a Burgos .",
    "/wiki/Katusha\u2013Alpecin": "Katusha-Alpecin ( Russian : \u041a\u0430\u0442\u044e\u0448\u0430 , UCI team code : TKA ) was a Swiss road bicycle racing team which competed at UCI WorldTeam level using Canyon bikes . The team was created in 2008 by Igor Makarov within the framework of the previously established Russian Global Cycling Project , which was intended to help cycling in Russia to move to a qualitatively new level . In 2017 the team took an international direction , still supported by Igor Makarov 's company ARETI International Group , clothing company Katusha Sports and German shampoo manufacturer Alpecin . The team competed as a UCI ProTeam/WorldTour team between 2009 and 2019 . Joaquim Rodr\u00edguez , Alexander Kristoff , Daniel Moreno , Simon \u0160pilak , Filippo Pozzato , Luca Paolini , Ilnur Zakarin , and Tony Martin are some of the most successful riders who rode for Katusha . In 2019 , the team was taken over by Israel Cycling Academy , along with its UCI World Tour license .",
    "/wiki/Nicolas_Roche": "Nicolas Roche ( born 3 July 1984 ) is an Irish professional road bicycle racer born in Conflans-Sainte-Honorine , Yvelines , France , who currently rides for UCI WorldTeam . He has twice been national champion and has twice finished in the top ten of the Vuelta a Espa\u00f1a , and won stages in 2013 and 2015 . He represented Ireland at the 2008 Summer Olympics in the road race . He has competed for Ireland 7 times at the road world championships .",
    "/wiki/AG2R_La_Mondiale_(cycling_team)": "AG2R La Mondiale ( UCI team code : ALM ) is a French cycling team with UCI WorldTeam status . Its title sponsor is AG2R La Mondiale , one of the biggest French insurance firms . The team is predominantly French .",
    "/wiki/Jens_Voigt": "Jens Voigt ( German : [ j\u025bns fo\u02d0kt ] ) ( born 17 September 1971 ) is a German former professional road bicycle racer and , upon retirement , became a cycling sports broadcast commentator . During his cycling career , Voigt raced for several teams , the last one being UCI ProTeam Trek Factory Racing . Voigt wore the yellow jersey of the Tour de France twice , though he was never a contender for the overall title owing to the mountainous nature of the stages of the race being better suited to climbing specialists . His career achievements include winning the Crit\u00e9rium International a record-tying 5 times and a number of one-week stage races , as well as two Tour de France stage victories . In September 2014 , he set a new hour record . The record was beaten by Matthias Br\u00e4ndle in October of the same year . [ A ] Among cycling fans , Voigt was generally popular , both for his aggressive riding style and his affable , forthright and articulate manners in dealing with the public and media . He speaks fluent French and English , in addition to his native German .",
    "/wiki/Tinkoff_(cycling_team)": "Tinkoff ( UCI team code : TNK ) was a Russian-registered professional cycling team from Russia . It competed in the UCI World Tour . The team was owned by Russian Oleg Tinkov and , from 1999 until March 2015 , was managed by former Tour de France winner Bjarne Riis . The team was sponsored by the Russian Tinkoff Bank , a credit systems company . Founded in 1998 as home-Jack & Jones , the team started in cycling 's second division . In 2000 it moved into the top division , now known as the UCI World Tour . Since 2000 , under differing sponsor names ( Memory Card-Jack & Jones and CSC-Tiscali ) , the team rode the Tour de France . It has won the overall classification in all three of the Grand Tours . In the 2008 Tour de France , Carlos Sastre won the general classification , Andy Schleck won the young rider classification , and the team won the overall team classification , and Ivan Basso won the 2006 Giro d'Italia , as well as finishing third and second in the 2004 and 2005 Tour de France . In addition , the team has won many major classics , including 6 Monuments . The team won the UCI ProTour 's team classification each year from 2005 through 2007 , and the team classification in the 2010 UCI World Ranking . In March 2015 the team confirmed that Riis had been removed from active duty due to differences between Riis and Tinkov .",
    "/wiki/Tony_Martin_(cyclist)": "Tony Hans-Joachim Martin ( born 23 April 1985 ) is a German professional road bicycle racer , who currently rides for UCI WorldTeam Team Jumbo-Visma . Martin is known as a time trial specialist , and is a four-time world champion in the discipline , having won the title in 2011 , 2012 , 2013 and 2016 . He also won a silver medal at the 2012 Summer Olympics in London , finishing runner-up to Bradley Wiggins in the event . Martin has also been a part of three world championship-winning team time trial squads with Omega Pharma-Quick-Step/Etixx-Quick-Step , in 2012 , 2013 and 2016 . Martin has also won seven Grand Tour stages , including five individual time trial stages - three at the Tour de France in 2011 , 2013 and 2014 , and two at the Vuelta a Espa\u00f1a in 2011 and in 2014 . He has also won several stage races , including the Eneco Tour ( 2010 ) , Paris-Nice ( 2011 ) and the first two editions of the Tour of Beijing in 2011 and 2012 .",
    "/wiki/HTC\u2013Highroad": "HTC-Highroad ( UCI team code : THR ) is a former professional cycling team competing in international road bicycle races . Their last title sponsor was HTC Corporation , a Taiwanese manufacturer of smartphones but dissolved at the end of the 2011 season from a failure to find a new sponsor . High Road Sports was the management company of team manager Bob Stapleton . Past title sponsors include Columbia Sportswear and Deutsche Telekom . The team was founded in 1991 as Team Telekom , sponsored by Deutsche Telekom . In 2004 their name changed to the T-Mobile Team . The team was under the management of Bob Stapleton and Rolf Aldag . Former leaders included Olaf Ludwig , Walter Godefroot and Eddy Vandenhecke ( managers ) , Luuc Eisenga ( spokesperson ) and Brian Holm , Valerio Piva ( sports directors ) .",
    "/wiki/Alberto_Contador": "Alberto Contador Velasco ( Spanish pronunciation : [ al\u02c8\u03b2e\u027eto konta\u02c8\u00f0o\u027e \u03b2e\u02c8lasko ] ; born 6 December 1982 ) is a Spanish former professional cyclist . He is one of the most successful riders of his era , winning the Tour de France twice ( 2007 , 2009 ) , the Giro d'Italia twice ( 2008 , 2015 ) , and the Vuelta a Espa\u00f1a three times ( 2008 , 2012 , 2014 ) . He is one of only seven riders to have won all three Grand Tours of cycling . He has also won the V\u00e9lo d'Or a record 4 times . He was regarded as the natural successor of Lance Armstrong and won the 2007 Tour de France with the Discovery Channel team . During his time at the Astana team , he won the 2008 Giro d'Italia , the 2008 Vuelta a Espa\u00f1a and the 2009 Tour de France . Between 2007 and 2011 he won six consecutive Grand Tours that he entered . This included winning the 2010 Tour de France with Astana , although it later emerged that he had tested positive for clenbuterol during the race . After a long battle in court , he was suspended by the Court of Arbitration for Sport and stripped of his 2010 Tour and 2011 Giro wins . Contador was known as an attacking rider who excelled as a climber , and on his best days was also an excellent time-trialist . He was also known for being able to turn races around to his favour , most notably during the Fuente D\u00e9 stage at the 2012 Vuelta a Espa\u00f1a . Following his return from suspension , he won the Vuelta twice and the Giro once more .",
    "/wiki/Astana_Pro_Team": "Astana Pro Team ( UCI team code : AST ) is a professional road bicycle racing team sponsored by the Samruk-Kazyna , a coalition of state-owned companies from Kazakhstan and named after its capital city Astana ( which has since been renamed 'Nur-Sultan ' ) . Astana attained UCI ProTeam status in its inaugural year , 2007 . Following a major doping scandal involving Kazakhstani rider Alexander Vinokourov , team management was terminated and new management brought in for the 2008 season . The team was then managed by Johan Bruyneel , former team manager of U.S. Postal/Discovery Channel team . Under Bruyneel the ethical nature of the team did not improve , although Astana in this period was very successful . With a lineup including Grand Tour winner Alberto Contador , as well as runner-up Andreas Kl\u00f6den the results were there , however the team was on the verge of financial collapse in May 2009 . A battle for control of the team led to the return of Vinokourov for the 2009 Vuelta a Espa\u00f1a caused Bruyneel and at least fourteen of its riders to leave at the end of the 2009 season , most for Team RadioShack . Only four Spanish riders , including Contador , and most of the Kazakhs remained with the rebuilt team for 2010 . Those four Spaniards all left the team for Saxo Bank-SunGard in 2011 .",
    "/wiki/Mirco_Lorenzetto": "Mirco Lorenzetto ( born 13 July 1981 in Vittorio Veneto ) is a former Italian racing cyclist , who competed as a professional between 2004 and 2011 . He has won victories in the Tour M\u00e9diterran\u00e9en 2007 , the Tour of Sardegna and Giro del Friuli in 2009 . Lorenzetto became a professional cyclist in 2004 . His first victory came in 2007 , when he won a stage in the Tour M\u00e9diterran\u00e9en , in a close sprint over Daniele Bennati . The year 2009 started good for Lorenzetto , as in March he already had three victories . In April 2009 , during the Tour of Flanders , Lorenzetto crashed and was taken to hospital , but a few days later he could leave the hospital without serious damage . Lorenzetto announced his retirement in December 2011 , at the age of 30 .",
    "/wiki/UAE_Team_Emirates": "UAE Team Emirates ( UCI team code : UAD ) is an Emirati road bicycle racing team . The team competes at UCI WorldTeam level and has done so since the UCI World Tour was formed as the top category of road cycling in 2005 . However the team was temporarily suspended from the ProTour in 2010 , missing one ProTour event . The general manager , Giuseppe Saronni , was himself a famous professional cyclist , a world champion and winner of two editions of the Giro d'Italia .",
    "/wiki/Samuel_Dumoulin": "Samuel Dumoulin ( born 20 August 1980 ) is a retired French professional road bicycle racer , who rode professionally between 2002 and 2019 for the Jean Delatour , Cofidis and AG2R La Mondiale teams .",
    "/wiki/Cofidis_(cycling_team)": "Cofidis Solutions Cr\u00e9dits ( UCI team code : COF ) is a French professional road bicycle racing team sponsored by a money-lending company , Cofidis . It was started in 1996 by Cyrille Guimard the former manager of Bernard Hinault , Greg LeMond and Laurent Fignon of the Renault-Elf-Gitane team of the 1980s . The team 's sponsor has supported the team despite repeated problems such as doping scandals . After it was part of the UCI ProTour for the ProTour 's first five seasons , from 2010 on the team competes as a UCI Professional Continental team . The team returned as part of the UCI World Tour for the 2020 season .",
    "/wiki/Xavier_Florencio": "Xavier Florencio Cabr\u00e9 ( born December 26 , 1979 in Tarragona , Catalonia ) is a Spanish former professional road bicycle racer , who competed as a professional between 2001 and 2013 . Over his career , Florencio competed for ONCE-Eroski , Relax-Fuenlabrada , Bouygues T\u00e9l\u00e9com , Cerv\u00e9lo TestTeam , Geox-TMC and Team Katusha .",
    "/wiki/Cerv\u00e9lo_TestTeam": "Cerv\u00e9lo TestTeam ( UCI team code : CTT ) is a former professional cycling team , whose license was held in Switzerland by the cycling management company Cycling United Racing . The team 's title sponsor was Cerv\u00e9lo , a Canadian manufacturer of bicycle frames that previously exclusively supplied CSC-Saxo Bank . They competed in 2010 as a UCI Professional Continental team , but folded after the season . The team formed in 2008 after Team CSC switched frames effective at the end of that season , to Specialized , after years of success with Cerv\u00e9lo . Their registration as a UCI Professional Continental Team was confirmed on December 2 . Earlier that year , Carlos Sastre , then a member of Team CSC Saxo Bank , rode a Cerv\u00e9lo bicycle to victory in the Tour de France . Probably the team 's most notable cyclist , Sastre said that being able to continually work with Cerv\u00e9lo to develop bicycle technology played a part in his decision to join the new team . The team 's first season was marked by success in one-day races , with several victories and podium finishes , and a rider in the top ten in nearly every race they entered . The team was prolific in winning individual stages in stage races , including in all three Grand Tours of the 2009 season .",
    "/wiki/Marco_Marcato": "Marco Marcato ( born 11 February 1984 , in San Don\u00e0 di Piave , Veneto ) is an Italian racing cyclist , who currently rides for UCI WorldTeam . He won the Tour de Vend\u00e9e in 2011 , and Paris-Tours in 2012 : in the latter of these he took the Ruban Jaune as the holder of the record for the fastest average speed in a race of over 200km . For the 2014 season , Marcato joined , after his previous team - - folded at the end of the 2013 season . Subsequently , signed Marcato on a two-year contract from 2015 , reuniting him with former Vacansoleil boss Hilaire Vanderschueren , and sharing leadership of the team in the Flemish classics with former Vacansoleil team-mate Bj\u00f6rn Leukemans . In September 2016 it was announced that Marcato would join for the 2017 season .",
    "/wiki/Vacansoleil\u2013DCM": "Vacansoleil-DCM Pro Cycling Team was a Dutch professional road race cycling team . They were a UCI ProTeam and competed in the UCI World Tour . The team was established in 2005 , as the successor of P3 Transfer-Batavus , while also taking over many of the riders and staff of Cycle Collstrop , the former team of manager Van der Schueren . Neither Vacansoleil or DCM renewed their sponsorship of the program after the 2013 season ."
  }
}