{
  "2004\u201305_FA_Women's_Cup_13": {
    "/wiki/Penalty_kick_(association_football)": "A penalty kick ( commonly known as a penalty or a PK ) is a method of restarting play in association football , in which a player is allowed to take a single shot on the goal while it is defended only by the opposing team 's goalkeeper . It is awarded when a foul punishable by a direct free kick is committed by a player in their own penalty area . The shot is taken from the penalty mark , which is 11 m ( 12 yards ) from the goal line and centred between the touch lines . In practice , penalty kicks result in goals more often than not , even against the best and most experienced goalkeepers . This means that penalty awards are game-changing decisions and often decisive , particularly in low-scoring games . Similar kicks are made in a penalty shootout in some tournaments to determine which team is victorious after a drawn match ; these are governed by slightly different rules .",
    "/wiki/West_Ham_United_F.C._Women": "West Ham United Women Football Club is an English women 's football club affiliated with West Ham United . They were formed in 1991 and play home games at Rush Green Stadium , at the West Ham United Training Ground in Romford .",
    "/wiki/Middlesbrough_W.F.C.": "Middlesbrough Women Football Club are the women 's side of Middlesbrough . Founded in 1976 , they currently play their matches in the , with home games being played at Bedford Terrace , the home of Billingham Town Middlesbrough WFC also have a reserve side competing in the FA Women 's National League Division One North . Their home games are played at Middlesbrough College .",
    "/wiki/Sheffield_Wednesday_L.F.C.": "Sheffield Wednesday F.C. , often abbreviated to SWLFC and nicknamed The Owls , are a women 's and girls football club based in South Yorkshire , England . They play home games at Sheffield Hallam University Sports park , Bawtry road , Sheffield S9 1UA and the First team play their games currently in the North East Regional League and are affiliated to the professional men 's club Sheffield Wednesday F.C . They also have a 2nd Reserve team and a 3rd senior Development team that play currently in the Sheffield & Hallamshire Women 's County League . The 10 teams that make up the junior section all play within the Sheffield & Hallamshire Girl 's County League ( SHGCL ) .",
    "/wiki/Curzon_Ashton_L.F.C.": "Curzon Ashton Ladies Football Club is an English women 's football club affiliated with Curzon Ashton F.C . The club were known as Oldham Curzon Ladies Football Club until June 2005 . They play in the . The club also has youth teams from U10s and a reserve team . They also host the Greater Manchester girl 's Centre of Excellence .",
    "/wiki/Fulham_L.F.C.": "WFC Fulham , previously known as Fulham LFC , was a Ladies Football Club ( LFC ) formerly associated with Fulham Football Club . The team were dissolved as of 16 May 2006 , but were later re-established with independence from Fulham F.C . The club dissolved for a second time in June 2010 when sponsors pulled out following a second successive relegation . Fulham became the first Ladies ' football team in Europe to turn full-time professional in April 2000 . However , club chairman Mohamed Al-Fayed reverted the club to semi-professional status three years later .",
    "/wiki/Portsmouth_F.C._Women": "Portsmouth Women , formerly known as Portsmouth Ladies , is a women 's football club for the south coast city of Portsmouth in Hampshire , England . The club currently plays in the . Their male counterparts are Portsmouth F.C .",
    "/wiki/Liverpool_L.F.C.": "Liverpool F.C . Women , formerly known as Liverpool Ladies Football Club , is a women 's football club affiliated with Liverpool Football Club . The team currently plays in the FA Women 's Super League , the highest division of women 's football in England . After being relegated from the FA Women 's Premier League National Division to the FA Women 's Premier League Northern Division for 2009-10 , Liverpool won the league after losing only one game all season . On 29 September 2013 Liverpool clinched their first FA WSL title , and retained the title in 2014 . The triumph completed a remarkable turnaround for Liverpool , who had finished bottom of the WSL table in 2011 and 2012 .",
    "/wiki/Hounslow_W.F.C.": "Hounslow Women Football Club is an English football club based in London . The club was founded from a merger of Wembley Mill Hill F.C . and QPR Women F.C . in May 2001 . The club is currently a member of the and play home matches at Uxbridge F.C . 's ground , Honeycroft in West Drayton . It was known as Queens Park Rangers Ladies Football Club from the merger until a name change in June 2018 to Queens Park Rangers Women Football Club . The club ceased its affiliation to Queens Park Rangers F.C . in the summer of 2019 after QPR 's Charity Foundation wanted to hold the manager accountable for performances , amid concerns of funding being misused with the team only managing 6 league wins in 3 years , but could not be sacked as he registered the club in his name . Subsequently Martino Chevannes renamed the club to Hounslow Women .",
    "/wiki/Sunderland_A.F.C._Ladies": "Sunderland Association Football Club Ladies , previously Sunderland Association Football Club Women , is an English women 's football club that plays in the . They play their home games at the Eppleton Colliery Welfare Ground . Sunderland won the FA Women 's Premier League Northern Division in 2004-05 to reach the top tier National Division . After relegation in 2007 , they returned to the National Division in 2009 and also lost that season 's FA Women 's Cup final , 2-1 to holders Arsenal at Pride Park Stadium . The club 's bid to join the FA WSL for the initial 2011 season was controversially rejected in favour of the relatively newly formed , but big spending , Manchester City . This decision led to the departure of many star players ( 3 of whom represented England in the 2015 World Cup ) and is thought to have damaged the development of the women 's game in the North East for years to come . Despite this they responded by winning the Premier League National Division , which had become the second tier , on three consecutive occasions and also collected the 2011-12 FA Women 's Premier League Cup . In 2014 Sunderland were accepted into the second division of a newly expanded FA WSL . They won the league on the final day of the season and were promoted into FA WSL 1 for 2015 . At the end of the 2017-18 season , Sunderland A.F.C . Ladies were unsuccessful with their application for a license in both FA Women 's Super League and FA Women 's Championship , meaning the Lady Black Cats , were demoted to the FA Women 's National League North , for the 2018-19 season .",
    "/wiki/Tranmere_Rovers_L.F.C.": "Tranmere Rovers Ladies Football Club are an English team founded in 1990 , based in the Wirral , and affiliated with Tranmere Rovers F.C . Between 1996 and 2004 they competed in the FA Premier League National Division , then the top tier of the English women 's football pyramid . They are currently members of the North West Women 's Regional League Premier Division and play their home games at Villa Park , the home of Ashville F.C . in Wallasey ."
  },
  "1992\u201393_Ukrainian_Cup_2": {
    "/wiki/Playoff_format": "There are a number of formats used in various levels of competition in sports and games to determine an overall champion . Some of the most common are the single elimination , the best-of- series , the total points series more commonly known as on aggregate , and the round-robin tournament .",
    "/wiki/SC_Odesa": "SC Odessa is a former Ukrainian football team that appeared in 1992 following the reorganization of the Soviet SKA Odessa . The new city municipal team was located in Odessa , Ukraine and previously at one point was part of the Soviet Army sport system .",
    "/wiki/FC_Karpaty_Lviv": "Football Club Karpaty Lviv ( Ukrainian : \u0424\u0443\u0442\u0431\u043e\u043b\u044c\u043d\u0438\u0439 \u043a\u043b\u0443\u0431 \u00ab \u041a\u0430\u0440\u043f\u0430\u0442\u0438 \u00bb \u041b\u044c\u0432\u0456\u0432 [ k\u0250r\u02c8p\u0251t\u026a \u02c8l\u02b2wiu\u032f ] ) is a Ukrainian professional football club based in Lviv .",
    "/wiki/FC_Metalist_Kharkiv": "Football Club Metalist Kharkiv ( Ukrainian : \u0424\u0443\u0442\u0431\u043e\u0301\u043b\u044c\u043d\u0438\u0439 \u041a\u043b\u0443\u0431 \u041c\u0435\u0442\u0430\u043b\u0456\u0301\u0441\u0442 \u0425\u0430\u0301\u0440\u043a\u0456\u0432 [ met\u0250\u02c8l\u207d\u02b2\u207eist \u02c8x\u0251rkiu\u032f ] ) was a Ukrainian football club based in Kharkiv . Founded in 1925 , FC Metalist Kharkiv had worked its way up the rungs of the Soviet football system , eventually being promoted to the Soviet Top League in 1960 . After a difficult period which included relegation , Metalist was promoted to the Top League again in 1982 , where it remained until the league 's dissolution . The club won the Soviet Cup once , and were also runners-up once . They have also won silver medals of the 2012-13 Ukrainian Premier League and six bronze medals of the Ukrainian Premier League , starting from the 2006-07 season . Their home was the Metalist Stadium , a multi-use facility with a capacity of 40,003 . The stadium was originally built in 1926 and was expanded to host Euro 2012 football matches . Metalist ceased operations in 2016 due to insolvency . It was removed from the Ukrainian Premier League after owner Serhiy Kurchenko absconded in February 2014 , following the 2014 Ukrainian revolution . Following the demise of Metalist Kharkiv in 2016 , two new clubs were created in Kharkiv with variations of the Metalist club name . Since July 2016 , a team named SK Metalist Kharkiv has been playing in the Kharkiv Oblast Championship , whose owner is former Metalist owner Serhiy Kurchenko . In August 2016 , another club named FC Metalist 1925 Kharkiv began to operate in the Ukrainian Amateur Football League with the stated intention of competing in the ( professional ) Ukrainian Second League as soon as possible .",
    "/wiki/FC_Temp_Shepetivka": "FC Temp Shepetivka was a former Ukrainian football club from Shepetivka . In the winter of 1996 the club was dissolved and replaced with artificial team based on the Kamianets-Podilskyi sports school to finish the season .",
    "/wiki/PFC_Nyva_Ternopil": "Ternopilsky Professional Football Club Nyva ( Ukrainian : \u0422\u0435\u0440\u043d\u043e\u043f\u0456\u043b\u044c\u0441\u044c\u043a\u0438\u0439 \u041f\u0440\u043e\u0444\u0435\u0441\u0456\u0439\u043d\u0438\u0439 \u0424\u0443\u0442\u0431\u043e\u043b\u044c\u043d\u0438\u0439 \u041a\u043b\u0443\u0431 \u00ab \u041d\u0438\u0432\u0430 \u00bb ) is a Ukrainian football club from the city of Ternopil , the administrative center of Ternopil Oblast . It is currently playing at amateur level after it was announced that it withdraws from professional competitions in 2016 . The same year it was reestablished as Ternopilsky PFC Nyva . Originally the club was formed as Nyva Pidhaitsi in the small town Pidhaitsi in 1978 , then moved to a district centre Berezhany chaning its name to Nyva Berezhany in 1982 , and finally moved to Ternopil becoming Nyva Ternopil in 1985 . Their home ground is the small stadium of former bird farm in village of Velyki Hayi near Ternopil , but all the major home league and cup matches they have played before in 15,150 seat Central City Stadium , which belongs to Community of the City of Ternopil .",
    "/wiki/FC_Dnipro_Dnipropetrovsk": "Football Club Dnipro ( Ukrainian : \u0424\u0443\u0442\u0431\u043e\u0301\u043b\u044c\u043d\u0438\u0439 \u041a\u043b\u0443\u0431 \u00ab \u0414\u043d\u0456\u043f\u0440\u043e\u0301 \u00bb , IPA : [ d\u207d\u02b2\u207en\u207d\u02b2\u207ei\u02c8pr\u0254 ] ( listen ) ) was [ a ] a Ukrainian football club based in Dnipro . Dnipro , named after the Dnieper river in Ukraine , is the name taken by a range of sports clubs in its city . Besides the association football club , there are also bandy and basketball teams , among others , with the same name . FC Dnipro , however , is not a multi-sports club . The club is owned by the Privat Group that also owns BC Dnipro and Budivelnyk Kyiv . During the Soviet era , the club was a member of the Soviet Volunteer Sports Society Metallurg ( therefore it carried names Metallurg/Metalurh and Stal ) and until 1961 was under sponsorship of the Petrovsky Dnipropetrovsk Metallurgical Plant . After that , the club was sponsored by the Southern Machine-building Plant Yuzhmash and carried both names Russian Dnepr and Ukrainian Dnipro , while Dnepr was also used for international competitions . During the Soviet era , the club was the second most successful club , based in Ukraine , that participated in the Soviet Top League , winning in 1983 and 1988 . After the fall of the Soviet Union , the club was privatized .",
    "/wiki/FC_Spartak_Ivano-Frankivsk": "FC Spartak Ivano-Frankivsk was a Ukrainian football team based in Ivano-Frankivsk , Ivano-Frankivsk Oblast , Ukraine , the unofficial capital of the Prykarpattia region .",
    "/wiki/FC_Dynamo_Kyiv": "Football Club Dynamo Kyiv ( Ukrainian : \u0424\u0443\u0442\u0431\u043e\u043b\u044c\u043d\u0438\u0439 \u043a\u043b\u0443\u0431 \u00ab \u0414\u0438\u043d\u0430\u043c\u043e \u00bb \u041a\u0438\u0457\u0432 , pronounced [ d\u026a\u02c8n\u0251mo \u02c8k\u026ajiu\u032f ] ) is a Ukrainian professional football club based in Kiev . Founded in 1927 as part of the Soviet Dynamo Sports Society , the club plays in the Ukrainian Premier League , and has never been relegated to a lower division . Their home is the 70,050 capacity Olimpiyskiy National Sports Complex . Since 1936 , Dynamo has spent its entire history in the top league of Soviet and later Ukrainian football . Its most successful periods are associated with Valeriy Lobanovskyi , who coached the team during three stints , leading them to numerous domestic and European titles . In 1961 , the club became first ever in the history of Soviet football that managed to overcome the total hegemony of Moscow-based clubs in the Soviet Top League . The Spartak Moscow-Dynamo Kyiv rivalry that began in the mid 1970s , is widely considered to have been one of the most exciting football rivalries in the Soviet Union . Since the late 1960s , the club has participated in the UEFA continental competitions almost every year . It was the first Soviet football club to participate in the UEFA European competitions , starting to do so in 1965 . Over its history , Dynamo Kyiv has won 15 Ukrainian national titles , 13 Soviet national titles , 11 Ukrainian national cup competitions , 9 Soviet national cup competitions , and three continental titles ( including two UEFA Cup Winners ' Cups ) . Along with Dinamo Tbilisi , they were the only two Soviet clubs that succeeded in the UEFA competitions . The first team of Dynamo became a base team for the Soviet Union national football team in the 1970-1980s and the Ukraine national football team in the 1990-2000s .",
    "/wiki/FC_Zorya_Luhansk": "FC Zorya Luhansk ( Ukrainian : \u0424\u041a \u00ab \u0417\u043e\u0440\u044f \u00bb \u041b\u0443\u0433\u0430\u043d\u0441\u044c\u043a [ zo\u02c8r\u02b2\u0251 l\u028a\u02c8\u0266\u0251n\u02b2s\u02b2k ] ) , formerly known as Zaria Voroshilovgrad and Zorya-MALS , is a Ukrainian football team . Zorya Luhansk is based in the city of Luhansk ( formerly known as Voroshilovgrad ) , Luhansk Oblast , Ukraine . However , because of the war in Eastern Ukraine , the team play their games at Slavutych-Arena in Zaporizhia . The modern club was created on 10 April 1964 on decision of the Football Federation of the Soviet Union merging the October Revolution factory ( Luhanskteplovoz ) sports club Zorya and the Luhansk regional branch of Trudovye Rezervy sports society . In 1972 as Zaria Voroshilovgrad the club became the first Soviet club from province that won the Soviet Top League title . Today , the modern club considers the factory team as its predecessor that was established back in 1923 . The name Zorya means dawn in Ukrainian .",
    "/wiki/FC_Volyn_Lutsk": "FC Volyn Lutsk ( ) is a professional Ukrainian football team of the Ukrainian Premier League playing in the city of Lutsk . Since its establishment in 1960 , the club became the only major ( professional ) football club within Volyn Oblast and uncontested leader of football in the region .",
    "/wiki/MFC_Kremin_Kremenchuk": "MFC Kremin Kremenchuk ( ; ) is a professional football club based in Kremenchuk , Ukraine . The current club is administered by the city of Kremenchuk and was established in 2003 , but it traces its heritage to the previously existing clubs of 1959-1970 and 1985-2001 . FC Dnipro Kremenchuk ( 1959-1970 ) became the first club from Kremenchuk that obtained the professional status ( team of masters ) . The club only played for six seasons in the Soviet lower leagues before it was dissolved . In 1985 there was created by Soviet truck manufacturer KrAZ FC Kremin which with dissolution of the Soviet Union played for several seasons at the top level in Ukraine . Soon after liquidation of the club , in 2003 the city council adopted a decision to revive similar club financed from a local budget . Since the 2005-06 season , the city 's club has taken part in the Ukrainian Second League replacing another team Vorskla-2 Poltava . The club has promoted to the Ukrainian First League after reaching the 3rd place in the 2016-17 season . After 2017-18 season MFC Kremin is the longest existing professional club in Kremenchuk .",
    "/wiki/Away_goals_rule": "The away goals rule is a method of breaking ties in association football and other sports when teams play each other twice , once at each team 's home ground . By the away goals rule , the team that has scored more goals away from home wins , if the total goals scored by each team are otherwise equal . This is sometimes expressed by saying that away goals count double in the event of a tie . The away goals rule is most often invoked in two-leg fixtures , where the initial result is determined by the aggregate score - i.e . the scores of both games are added together . In many competitions , the away goals rule is the first tie-breaker in such cases , with a penalty shootout as the second tie-breaker if each team has scored the same number of away goals . Rules vary as to whether the away goals rule applies only to the end of normal time of the second leg , or applies in extra time as well . It was first introduced by UEFA in the 1965-66 European Cup Winners ' Cup .",
    "/wiki/FC_Khimik_Sieverodonetsk": "FC Khimik Sieverodonetsk was a professional Ukrainian football club . The club was based in Sieverodonetsk , Ukraine .",
    "/wiki/FC_Torpedo_Zaporizhia": "FC Torpedo Zaporizhia is a former professional football team based in Zaporizhia , Ukraine .",
    "/wiki/NK_Veres_Rivne": "Narodnyy Klub Veres Rivne is a Ukrainian football club based in Rivne . The team ran into financial difficulties after the winter break of the 2010-11 season and was removed from the Ukrainian Second League . Between 1992-1995 , Veres Rivne took part in the Ukrainian Premier League , and achieved their best result of 12th place in 1993-94 . In that season they also reached the semi-finals of Ukrainian Cup . Their home stadium until 2017 was Avanhard Stadium . The home uniform consists of red shirt with black shorts ; the away uniform is all black .",
    "/wiki/SC_Tavriya_Simferopol": "Sports Club Tavriya ( Ukrainian : \u0421\u043f\u043e\u0440\u0442\u0438\u0432\u043d\u0438\u0439 \u043a\u043b\u0443\u0431 \u0422\u0430\u0432\u0440\u0456\u044f ) is a Ukrainian football club from Simferopol . The original Tavriya was a member of the Ukrainian Premier League from its founding , and won the very first Ukrainian Premier League , making them one of three teams that have ever held this title . After the annexation of Crimea by the Russian Federation , the club was forced to cease its existence as a Ukrainian club and a new club , composed of some of its staff and players joined the Russian Football Union under the new name FC TSK Simferopol . In June 2015 , the Football Federation of Ukraine announced it would re-establish the club and its new home would be Kherson . On 29 August 2016 , club was added to Group 2 of the 2016-17 Ukrainian Football Amateur League . The revamped club is based in Beryslav , Kherson oblast .",
    "/wiki/FC_Metalurh_Zaporizhya": "MFC Metalurh Zaporizhya ( ) is a Ukrainian professional football club based in Zaporizhya . In 2015 , the original club went bankrupt and in 2016 the Ukrainian Premier League finally removed it from its competitions . In 2016 , it was announced that another amateur club from Zaporizhia ( FC Rosso-Nero Zaporizhia ) has officially changed its name to FC Metalurh Zaporizhia and intends to start participation at the Ukrainian Amateur Football League the same year . In 2018 , the Rosso-Nero 's Metalurh was denied license for professional league competitions , while the city-sponsored club was admitted to the Second League ."
  },
  "2019\u201320_Women's_FA_Cup_10": {
    "/wiki/Overtime_(sports)": "Overtime or extra time is an additional period of play specified under the rules of a sport to bring a game to a decision and avoid declaring the match a tie or draw where the scores are the same . In some sports , this extra period is played only if the game is required to have a clear winner , as in single-elimination tournaments where only one team or players can advance to the next round or win the tournament . In other sports , particularly those prominently played in North America where ties are generally disfavored , some form of overtime is employed for all games . The rules of overtime or extra time vary between sports and even different competitions . Some may employ sudden death , where the first player or team who scores immediately wins the game . In others , play continues until a specified time has elapsed , and only then is the winner declared . If the contest remains tied after the extra session , depending on the rules , the match may immediately end as a draw , additional periods may be played , or a different tiebreaking procedure such as a penalty shootout may be used instead . The terms overtime and in overtime ( abbreviated OT or IOT ) are primarily used in North America , whereas the terms extra time and after extra time ( abbreviated a.e.t . ) are usually used in other continents . However , in basketball , the terms overtime and in overtime are used worldwide .",
    "/wiki/Barnsley_W.F.C.": "Barnsley Women 's Football Club is an English Women 's Football Club based in Barnsley , South Yorkshire , England . The Club currently plays in the FA Women 's National League Division One North . Barnsley Women 's Football Club was formed in 1982 , under the name Barnsley Ladies FC . The Club used the name Barnsley Ladies FC for 34 years until the end of the 2016/17 Season , when it changed its name to Barnsley FC Ladies for the following two Seasons until the end of 2018/19 . On 16 March 2018 , Barnsley Women 's Football Club Limited took over the Club and changed its name to Barnsley Womens Football Club . The Club 's Reserve Team currently plays in the FA Women 's National League Reserve North Division 2 . The Club 's Junior Teams play in the Sheffield & Hallamshire Women & Girls Leagues .",
    "/wiki/Liverpool_Feds_W.F.C.": "Liverpool Marshall Feds Women 's Football Club also known as Liverpool Feds W.F.C . is an English women 's association football club that plays in the . They were formed in 1991 and originated from the Liverpool Institute of Higher Education ( now known as Liverpool Hope University ) where they entered the North West Women 's Regional Football League . The name Feds originates from the Liverpool Institute of Higher Education College origins where the sports teams played as a Federation of the St Katherines and Christ Notre Dame Colleges . In 1993 , Liverpool Feds Reserves L.F.C . were formed , and currently play in the North West Women 's Regional Football League . Additionally , the girls youth sections were created , and play their football in the Liverpool County FA Girls Leagues . Subsequently , the Development Squad and Under 18 's soon followed . Liverpool Feds L.F.C . play their home games at the Jericho lane hub , South Liverpool Most recently , the season 2008-2009 saw the ladies win the North West Women 's Regional Football League and gain promotion to the FA Women 's Premier League Northern Division 1 . In March 2017 , Liverpool Feds W.F.C hired Fran Alonso as the first team manager . In October 2018 Leanne Duffy and Colin Lewis took over management of the 1st team .",
    "/wiki/The_New_Saints_L.F.C.": "The New Saints of Oswestry Town & Llansantffraid Ladies Football Club ( ) , also known as The New Saints or TNS is a Women 's semi professional football club representing Oswestry in Shropshire and Llansantffraid-ym-Mechain in Powys , Wales- the two places are apart . They play in the . The club are a part of The New Saints F.C . foundation and share close links with the other sections of the club . TNS play at Park Hall in Oswestry . Park Hall accommodates 2,034 spectators of which 1,000 are seated and there are plans to upgrade the ground to 3,000 capacity in the future .",
    "/wiki/Wolverhampton_Wanderers_W.F.C.": "Wolverhampton Wanderers Women 's Football Club is an English women 's football club affiliated with Wolverhampton Wanderers F.C . The club play in the .",
    "/wiki/Ipswich_Town_F.C._Women": "Ipswich Town Football Club Women are a ladies team affiliated with Ipswich Town Football Club . They currently compete in the FA Women 's Premier League South East Division One , the fourth tier of Women 's football in the country . They play their home games at The Goldstar Ground , home of Felixstowe & Walton United .",
    "/wiki/Leyton_Orient_W.F.C.": "Leyton Orient Women F.C . is a women 's football team based in Leyton , London in England . The team compete in the FA Women 's National League Division One South East . The club play home games at Mile End Stadium . Leyton Orient Women are nicknamed The O 's , and their supporters maintain rivalries with Crawley Wasps .",
    "/wiki/AFC_Wimbledon_Ladies": "AFC Wimbledon Ladies are a women 's football team from London . The team currently competes in the FA Women 's National League Division One South East . The club was founded after the ladies team representing Wimbledon F.C . decided to transfer to AFC Wimbledon , after the old club 's relocation . The ladies team of Fulham F.C. , known as Friends of Fulham , started its bonds with the name Wimbledon , when they voted yes on the decision to transfer to Wimbledon F.C. , as a new entity . The AFC Wimbledon Ladies are now owned by The Dons Trust . From 2003 to 2006 it was one of the few Women 's Premier League sides not to be affiliated with a club from the male Premiership or Football League .",
    "/wiki/Southampton_F.C._Women": "Southampton F.C . Women are an English women 's football club based in Southampton who play in the FA Women 's National League ( Division One South West ; Tier 4 of the English Women 's national league system ) . They are sponsored by Virgin Media and affiliated with Southampton F.C . who play in the Premier League .",
    "/wiki/Southampton_Women's_F.C.": "Southampton Women 's FC is a women 's football club based in Romsey , Hampshire , England . The club is affiliated to the Women 's Football League and is an FA Charter Standard club . They are currently members of the and also have an U16 Youth Squad ."
  }
}