{
  "List_of_American_Stanley_Cup_Finals_television_announcers_5": {
    "url": "https://en.wikipedia.org/wiki/List_of_American_Stanley_Cup_Finals_television_announcers",
    "title": "List of American Stanley Cup Finals television announcers",
    "header": [
      [
        "Announcer",
        [
          "/wiki/List_of_sports_announcers"
        ]
      ],
      [
        "Years",
        []
      ],
      [
        "Network ( s )",
        []
      ]
    ],
    "data": [
      [
        [
          "Al Albert",
          [
            "/wiki/Al_Albert_(sportscaster)"
          ]
        ],
        [
          "1983",
          [
            "/wiki/1983_Stanley_Cup_Finals"
          ]
        ],
        [
          "USA",
          [
            "/wiki/NHL_on_USA"
          ]
        ]
      ],
      [
        [
          "Chris Berman",
          [
            "/wiki/Chris_Berman"
          ]
        ],
        [
          "2003 - 2004",
          [
            "/wiki/2003_Stanley_Cup_Finals",
            "/wiki/2004_Stanley_Cup_Finals"
          ]
        ],
        [
          "ABC",
          [
            "/wiki/NHL_on_ABC"
          ]
        ]
      ],
      [
        [
          "James Brown",
          [
            "/wiki/James_Brown_(sportscaster)"
          ]
        ],
        [
          "1995 - 1998",
          [
            "/wiki/1995_Stanley_Cup_Finals",
            "/wiki/1998_Stanley_Cup_Finals"
          ]
        ],
        [
          "Fox",
          [
            "/wiki/NHL_on_Fox"
          ]
        ]
      ],
      [
        [
          "Bill Clement",
          [
            "/wiki/Bill_Clement"
          ]
        ],
        [
          "2006 - 2007",
          [
            "/wiki/2006_Stanley_Cup_Finals",
            "/wiki/2007_Stanley_Cup_Finals"
          ]
        ],
        [
          "OLN/Versus NBC",
          [
            "/wiki/NHL_on_Versus",
            "/wiki/NHL_on_NBC"
          ]
        ]
      ],
      [
        [
          "Bill Cullen",
          [
            "/wiki/Bill_Cullen"
          ]
        ],
        [
          "1966",
          [
            "/wiki/1966_Stanley_Cup_Finals"
          ]
        ],
        [
          "NBC",
          [
            "/wiki/NHL_on_NBC"
          ]
        ]
      ],
      [
        [
          "Mike Emrick",
          [
            "/wiki/Mike_Emrick"
          ]
        ],
        [
          "1989 - 1992",
          [
            "/wiki/1989_Stanley_Cup_Finals",
            "/wiki/1992_Stanley_Cup_Finals"
          ]
        ],
        [
          "SportsChannel America",
          [
            "/wiki/NHL_on_SportsChannel_America"
          ]
        ]
      ],
      [
        [
          "Jim Gordon",
          [
            "/wiki/Jim_Gordon_(sportscaster)"
          ]
        ],
        [
          "1971 - 1972",
          [
            "/wiki/1971_Stanley_Cup_Finals",
            "/wiki/1972_Stanley_Cup_Finals"
          ]
        ],
        [
          "CBS",
          [
            "/wiki/NHL_on_CBS"
          ]
        ]
      ],
      [
        [
          "Suzy Kolber",
          [
            "/wiki/Suzy_Kolber"
          ]
        ],
        [
          "1999",
          [
            "/wiki/1999_Stanley_Cup_Finals"
          ]
        ],
        [
          "Fox",
          [
            "/wiki/NHL_on_Fox"
          ]
        ]
      ],
      [
        [
          "Bill Mazer",
          [
            "/wiki/Bill_Mazer"
          ]
        ],
        [
          "1969 - 1970",
          [
            "/wiki/1969_Stanley_Cup_Finals",
            "/wiki/1970_Stanley_Cup_Finals"
          ]
        ],
        [
          "CBS",
          [
            "/wiki/NHL_on_CBS"
          ]
        ]
      ],
      [
        [
          "Brian McFarlane",
          [
            "/wiki/Brian_McFarlane"
          ]
        ],
        [
          "1973 - 1975",
          [
            "/wiki/1973_Stanley_Cup_Finals",
            "/wiki/1975_Stanley_Cup_Finals"
          ]
        ],
        [
          "NBC",
          [
            "/wiki/NHL_on_NBC"
          ]
        ]
      ],
      [
        [
          "Liam McHugh",
          [
            "/wiki/Liam_McHugh"
          ]
        ],
        [
          "2011 -present",
          [
            "/wiki/2011_Stanley_Cup_Finals"
          ]
        ],
        [
          "NBC / NBCSN",
          [
            "/wiki/NHL_on_NBC",
            "/wiki/NHL_on_NBC"
          ]
        ]
      ],
      [
        [
          "Tom Mees",
          [
            "/wiki/Tom_Mees"
          ]
        ],
        [
          "1986 - 1988",
          [
            "/wiki/1986_Stanley_Cup_Finals",
            "/wiki/1988_Stanley_Cup_Finals"
          ]
        ],
        [
          "ESPN",
          [
            "/wiki/ESPN_National_Hockey_Night"
          ]
        ]
      ],
      [
        [
          "Al Michaels",
          [
            "/wiki/Al_Michaels"
          ]
        ],
        [
          "2000 - 2002",
          [
            "/wiki/2000_Stanley_Cup_Finals",
            "/wiki/2002_Stanley_Cup_Finals"
          ]
        ],
        [
          "ABC",
          [
            "/wiki/NHL_on_ABC"
          ]
        ]
      ],
      [
        [
          "Bob Neumeier",
          [
            "/wiki/Bob_Neumeier"
          ]
        ],
        [
          "2008",
          [
            "/wiki/2008_Stanley_Cup_Finals"
          ]
        ],
        [
          "NBC",
          [
            "/wiki/NHL_on_NBC"
          ]
        ]
      ],
      [
        [
          "Darren Pang",
          [
            "/wiki/Darren_Pang"
          ]
        ],
        [
          "2009",
          [
            "/wiki/2009_Stanley_Cup_Finals"
          ]
        ],
        [
          "NBC",
          [
            "/wiki/NHL_on_NBC"
          ]
        ]
      ],
      [
        [
          "Bill Patrick",
          [
            "/wiki/Bill_Patrick_(sports_anchor)"
          ]
        ],
        [
          "2008 - 2011",
          [
            "/wiki/2008_Stanley_Cup_Finals",
            "/wiki/2011_Stanley_Cup_Finals"
          ]
        ],
        [
          "Versus",
          [
            "/wiki/NHL_on_Versus"
          ]
        ]
      ],
      [
        [
          "Dan Patrick",
          [
            "/wiki/Dan_Patrick"
          ]
        ],
        [
          "2010 - 2011",
          [
            "/wiki/2010_Stanley_Cup_Finals",
            "/wiki/2011_Stanley_Cup_Finals"
          ]
        ],
        [
          "NBC",
          [
            "/wiki/NHL_on_NBC"
          ]
        ]
      ],
      [
        [
          "Tim Ryan",
          [
            "/wiki/Tim_Ryan_(sportscaster)"
          ]
        ],
        [
          "1980",
          [
            "/wiki/1980_Stanley_Cup_Finals"
          ]
        ],
        [
          "CBS",
          [
            "/wiki/NHL_on_CBS"
          ]
        ]
      ],
      [
        [
          "John Saunders",
          [
            "/wiki/John_Saunders_(journalist)"
          ]
        ],
        [
          "1993 - 2004",
          [
            "/wiki/1993_Stanley_Cup_Finals",
            "/wiki/2004_Stanley_Cup_Finals"
          ]
        ],
        [
          "ESPN ABC",
          [
            "/wiki/ESPN_National_Hockey_Night",
            "/wiki/NHL_on_ABC"
          ]
        ]
      ],
      [
        [
          "Jim Simpson",
          [
            "/wiki/Jim_Simpson_(sportscaster)"
          ]
        ],
        [
          "1966",
          [
            "/wiki/1966_Stanley_Cup_Finals"
          ]
        ],
        [
          "NBC",
          [
            "/wiki/NHL_on_NBC"
          ]
        ]
      ]
    ],
    "section_title": "Studio hosts",
    "section_text": "",
    "uid": "List_of_American_Stanley_Cup_Finals_television_announcers_5",
    "intro": "This is a list of American Stanley Cup Finals television announcers."
  },
  "Alliance_of_Women_Film_Journalists_Award_for_Best_Director_0": {
    "url": "https://en.wikipedia.org/wiki/Alliance_of_Women_Film_Journalists_Award_for_Best_Director",
    "title": "Alliance of Women Film Journalists Award for Best Director",
    "header": [
      [
        "Year",
        []
      ],
      [
        "Director ( s )",
        []
      ],
      [
        "Film",
        []
      ]
    ],
    "data": [
      [
        [
          "2007",
          []
        ],
        [
          "Joel & Ethan Coen \u2020",
          [
            "/wiki/Coen_brothers"
          ]
        ],
        [
          "No Country for Old Men",
          [
            "/wiki/No_Country_for_Old_Men_(film)"
          ]
        ]
      ],
      [
        [
          "2007",
          []
        ],
        [
          "Sean Penn",
          [
            "/wiki/Sean_Penn"
          ]
        ],
        [
          "Into the Wild",
          [
            "/wiki/Into_the_Wild_(film)"
          ]
        ]
      ],
      [
        [
          "2007",
          []
        ],
        [
          "Sarah Polley",
          [
            "/wiki/Sarah_Polley"
          ]
        ],
        [
          "Away from Her",
          [
            "/wiki/Away_from_Her"
          ]
        ]
      ],
      [
        [
          "2007",
          []
        ],
        [
          "Julian Schnabel \u2021",
          [
            "/wiki/Julian_Schnabel"
          ]
        ],
        [
          "The Diving Bell and the Butterfly",
          [
            "/wiki/The_Diving_Bell_and_the_Butterfly_(film)"
          ]
        ]
      ],
      [
        [
          "2008",
          []
        ],
        [
          "Danny Boyle \u2020",
          [
            "/wiki/Danny_Boyle"
          ]
        ],
        [
          "Slumdog Millionaire",
          [
            "/wiki/Slumdog_Millionaire"
          ]
        ]
      ],
      [
        [
          "2008",
          []
        ],
        [
          "Mike Leigh",
          [
            "/wiki/Mike_Leigh"
          ]
        ],
        [
          "Happy-Go-Lucky",
          [
            "/wiki/Happy-Go-Lucky_(2008_film)"
          ]
        ]
      ],
      [
        [
          "2008",
          []
        ],
        [
          "Gus Van Sant \u2021",
          [
            "/wiki/Gus_Van_Sant"
          ]
        ],
        [
          "Milk",
          [
            "/wiki/Milk_(2008_American_film)"
          ]
        ]
      ],
      [
        [
          "2009",
          []
        ],
        [
          "Kathryn Bigelow \u2020",
          [
            "/wiki/Kathryn_Bigelow"
          ]
        ],
        [
          "The Hurt Locker",
          [
            "/wiki/The_Hurt_Locker"
          ]
        ]
      ],
      [
        [
          "2009",
          []
        ],
        [
          "Jason Reitman \u2021",
          [
            "/wiki/Jason_Reitman"
          ]
        ],
        [
          "Up in the Air",
          [
            "/wiki/Up_in_the_Air_(2009_film)"
          ]
        ]
      ],
      [
        [
          "2009",
          []
        ],
        [
          "Quentin Tarantino \u2021",
          [
            "/wiki/Quentin_Tarantino"
          ]
        ],
        [
          "Inglourious Basterds",
          [
            "/wiki/Inglourious_Basterds"
          ]
        ]
      ]
    ],
    "section_title": "Winners -- 2000s",
    "section_text": "",
    "uid": "Alliance_of_Women_Film_Journalists_Award_for_Best_Director_0",
    "intro": "The Alliance of Women Film Journalists Award for Best Picture is an annual award given by the Alliance of Women Film Journalists. The award is often referred to as an EDA as a tribute to AWFJ founder Jennifer Merin's mother, actress Eda Reiss Merin. EDA is also an acronym for Excellent Dynamic Activism."
  },
  "List_of_accolades_received_by_the_Austin_Powers_franchise_0": {
    "url": "https://en.wikipedia.org/wiki/List_of_accolades_received_by_the_Austin_Powers_film_series",
    "title": "List of accolades received by the Austin Powers film series",
    "header": [
      [
        "Award",
        []
      ],
      [
        "Category",
        []
      ],
      [
        "Recipients and nominees",
        []
      ],
      [
        "Outcome",
        []
      ]
    ],
    "data": [
      [
        [
          "Blockbuster Entertainment Awards",
          [
            "/wiki/Blockbuster_Entertainment_Awards"
          ]
        ],
        [
          "Favorite Actor - Comedy",
          []
        ],
        [
          "Mike Myers",
          [
            "/wiki/Mike_Myers"
          ]
        ],
        [
          "Nominated",
          []
        ]
      ],
      [
        [
          "Blockbuster Entertainment Awards",
          [
            "/wiki/Blockbuster_Entertainment_Awards"
          ]
        ],
        [
          "Favorite Actress - Comedy",
          []
        ],
        [
          "Elizabeth Hurley",
          [
            "/wiki/Elizabeth_Hurley"
          ]
        ],
        [
          "Nominated",
          []
        ]
      ],
      [
        [
          "Canadian Comedy Awards",
          [
            "/wiki/Canadian_Comedy_Awards"
          ]
        ],
        [
          "Best Original Screenplay",
          []
        ],
        [
          "Mike Myers",
          [
            "/wiki/Mike_Myers"
          ]
        ],
        [
          "Nominated",
          []
        ]
      ],
      [
        [
          "MTV Movie Awards",
          [
            "/wiki/MTV_Movie_&_TV_Awards"
          ]
        ],
        [
          "Best Dance Sequence - Some London Citizens",
          []
        ],
        [
          "Mike Myers",
          [
            "/wiki/Mike_Myers"
          ]
        ],
        [
          "Won",
          []
        ]
      ],
      [
        [
          "MTV Movie Awards",
          [
            "/wiki/MTV_Movie_&_TV_Awards"
          ]
        ],
        [
          "Best Villain",
          [
            "/wiki/MTV_Movie_Award_for_Best_Villain"
          ]
        ],
        [
          "Mike Myers",
          []
        ],
        [
          "Won",
          []
        ]
      ],
      [
        [
          "MTV Movie Awards",
          [
            "/wiki/MTV_Movie_&_TV_Awards"
          ]
        ],
        [
          "Best Comedic Performance",
          [
            "/wiki/MTV_Movie_Award_for_Best_Comedic_Performance"
          ]
        ],
        [
          "Mike Myers",
          []
        ],
        [
          "Nominated",
          []
        ]
      ],
      [
        [
          "MTV Movie Awards",
          [
            "/wiki/MTV_Movie_&_TV_Awards"
          ]
        ],
        [
          "Best Movie",
          [
            "/wiki/MTV_Movie_Award_for_Movie_of_the_Year"
          ]
        ],
        [
          "-",
          []
        ],
        [
          "Nominated",
          []
        ]
      ],
      [
        [
          "Saturn Awards",
          [
            "/wiki/Saturn_Awards"
          ]
        ],
        [
          "Best Fantasy Film",
          [
            "/wiki/Saturn_Award_for_Best_Fantasy_Film"
          ]
        ],
        [
          "-",
          []
        ],
        [
          "Won",
          []
        ]
      ],
      [
        [
          "Saturn Awards",
          [
            "/wiki/Saturn_Awards"
          ]
        ],
        [
          "Best Costume",
          [
            "/wiki/Saturn_Award_for_Best_Costume_Design"
          ]
        ],
        [
          "Deena Appel",
          []
        ],
        [
          "Nominated",
          []
        ]
      ]
    ],
    "section_title": "International Man of Mystery",
    "section_text": "Elizabeth Hurley was nominated for a Blockbuster Entertainment Award for her portrayal of Vanessa Kensington",
    "uid": "List_of_accolades_received_by_the_Austin_Powers_franchise_0",
    "intro": "The Austin Powers franchise is a series of action-comedy films consisting of (1997), (1999) and Austin Powers in Goldmember (2002). Each film starred and was written by Canadian-English actor Mike Myers, who portrayed the titular character along with several other roles, such as Dr. Evil, Fat Bastard and Goldmember. The series has also featured Basil Exposition (Michael York), Number 2 (Robert Wagner and Rob Lowe), Frau Farbissina (Mindy Sterling), Scott Evil (Seth Green) and Vanessa Kensington (Elizabeth Hurley). The franchise was directed by Jay Roach and distributed by New Line Cinema. The films have received mixed to positive reviews: International Man of Mystery earned a 70% fresh score on Rotten Tomatoes, The Spy Who Shagged Me gained 52%, and In Goldmember 55%. The films are parodies of the earlier features in the James Bond series as well as other 1960s spy films. Austin Powers has received over 40 award nominations and over 20 wins, with one Academy Award nomination for under the category of Best Makeup and one Grammy Award nomination for Best Soundtrack Album and one Grammy win for Best Song Written for a Motion Picture, Television or Other Visual Media for Madonna's 1999 song Beautiful Stranger. Other awards for the franchise include four MTV Movie Award wins (with eight nominations), two Teen Choice Awards (two nominations), one Saturn Award (four nominations), one Golden Globe Award nomination, three Satellite Award nominations and two Empire Award nominations."
  },
  "List_of_United_States_commemorative_coins_and_medals_(2000s)_9": {
    "url": "https://en.wikipedia.org/wiki/List_of_United_States_commemorative_coins_and_medals_(2000s)",
    "title": "List of United States commemorative coins and medals (2000s)",
    "header": [
      [
        "Face value",
        []
      ],
      [
        "Coin",
        []
      ],
      [
        "Obverse design",
        []
      ],
      [
        "Reverse design",
        []
      ],
      [
        "Mintage",
        []
      ]
    ],
    "data": [
      [
        [
          "5\u00a2",
          [
            "/wiki/Nickel_(United_States_coin)"
          ]
        ],
        [
          "Westward Journey Peace Medal nickel",
          [
            "/wiki/Nickel_(United_States_coin)"
          ]
        ],
        [
          "Thomas Jefferson",
          [
            "/wiki/Thomas_Jefferson"
          ]
        ],
        [
          "Based on the Indian Peace Medal",
          [
            "/wiki/Indian_Peace_Medal"
          ]
        ],
        [
          "Circulation : 361,440,000 P 372,000,000 D Proof : 2,992,069 S",
          []
        ]
      ],
      [
        [
          "5\u00a2",
          []
        ],
        [
          "Westward Journey Keelboat nickel",
          []
        ],
        [
          "Thomas Jefferson",
          []
        ],
        [
          "Keelboat",
          [
            "/wiki/Keelboat"
          ]
        ],
        [
          "Circulation : 366,720,000 P 344,880,000 D Proof : 2,992,069 S",
          []
        ]
      ],
      [
        [
          "25\u00a2",
          []
        ],
        [
          "Michigan quarter",
          []
        ],
        [
          "George Washington",
          []
        ],
        [
          "State outline , outline of Great Lakes system Caption : Great Lakes State",
          [
            "/wiki/Great_Lakes"
          ]
        ],
        [
          "Circulation : 233,800,000 P 225,800,000 D Proof : 2,740,684 S ( clad ) 1,769,786 S ( silver )",
          []
        ]
      ],
      [
        [
          "25\u00a2",
          []
        ],
        [
          "Florida quarter",
          []
        ],
        [
          "George Washington",
          []
        ],
        [
          "Spanish galleon , Sabal palmetto ( state tree ) , Space Shuttle Caption : Gateway to Discovery",
          [
            "/wiki/Galleon",
            "/wiki/Sabal_palmetto",
            "/wiki/Space_Shuttle"
          ]
        ],
        [
          "Circulation : 240,200,000 P 241,600,000 D Proof : 2,740,684 S ( clad ) 1,769,786 S ( silver )",
          []
        ]
      ],
      [
        [
          "25\u00a2",
          []
        ],
        [
          "Texas quarter",
          []
        ],
        [
          "George Washington",
          []
        ],
        [
          "State outline , star , lariat Caption : The Lone Star State",
          [
            "/wiki/Lasso"
          ]
        ],
        [
          "Circulation : 278,800,000 P 263,000,000 D Proof : 2,740,684 S ( clad ) 1,769,786 S ( silver )",
          []
        ]
      ],
      [
        [
          "25\u00a2",
          []
        ],
        [
          "Iowa quarter",
          []
        ],
        [
          "George Washington",
          []
        ],
        [
          "Schoolhouse , teacher and students planting a tree ; based on the Grant Wood painting Arbor Day Captions : Foundation in Education , Grant Wood",
          [
            "/wiki/Grant_Wood"
          ]
        ],
        [
          "Circulation : 213,800,000 P 251,400,000 D Proof : 2,740,684 S ( clad ) 1,769,786 S ( silver )",
          []
        ]
      ],
      [
        [
          "25\u00a2",
          []
        ],
        [
          "Wisconsin quarter",
          []
        ],
        [
          "George Washington",
          []
        ],
        [
          "Head of a cow , round of cheese and ear of corn ( state grain ) . Banner with text : Forward",
          [
            "/wiki/Cattle"
          ]
        ],
        [
          "Circulation : 226,400,000 P 226,800,000 D Proof : 2,740,684 S ( clad ) 1,769,786 S ( silver )",
          []
        ]
      ]
    ],
    "section_title": "2004 -- Circulating coins",
    "section_text": "",
    "uid": "List_of_United_States_commemorative_coins_and_medals_(2000s)_9",
    "intro": ""
  },
  "List_of_Cultural_Properties_of_Japan_-_paintings_(Yamagata)_1": {
    "url": "https://en.wikipedia.org/wiki/List_of_Cultural_Properties_of_Japan_-_paintings_(Yamagata)",
    "title": "List of Cultural Properties of Japan - paintings (Yamagata)",
    "header": [
      [
        "Property",
        []
      ],
      [
        "Date",
        []
      ],
      [
        "Municipality",
        []
      ],
      [
        "Ownership",
        []
      ],
      [
        "Dimensions",
        []
      ],
      [
        "Ref",
        []
      ]
    ],
    "data": [
      [
        [
          "Shellfish-gathering at Shinagawa Gotenyama Distant View of Nori -gathering at Okuyama near Nihon Kaian-ji light colours on silk , by And\u014d Hiroshige \u7d79\u672c\u6de1\u5f69 \u5fa1\u6bbf\u5c71 \u54c1\u5ddd\u6c50\u5e72\u72e9\u56f3 \u65e5\u672c \u6d77\u664f\u5bfa \u5965\u5c71\u6d77\u82d4\u53d6\u9060\u671b\u56f3 \u5b89\u85e4\u5e83\u91cd\u7b46 kenpon tansai Gotenyama Shinagawa shiohi gari zu Nihon Kaianji Okuyama nori-tori enb\u014d zu ( And\u014d Hiroshige hitsu )",
          [
            "/wiki/Shinagawa",
            "/wiki/Nori",
            "/wiki/Hiroshige"
          ]
        ],
        [
          "C19",
          []
        ],
        [
          "Tend\u014d",
          [
            "/wiki/Tend\u014d,_Yamagata"
          ]
        ],
        [
          "private",
          []
        ],
        [
          "90.4 centimetres ( 2 ft 11.6 in ) by 30.1 centimetres ( 11.9 in )",
          []
        ],
        [
          "[ 9 ]",
          []
        ]
      ],
      [
        [
          "Tsukuda-jima Sumiyoshi in T\u014dky\u014d Arashiyama in Ky\u014dto Beach by the Light of the Rising Moon at Naniwa Sumiyoshi light colours on silk , by And\u014d Hiroshige \u7d79\u672c\u6de1\u5f69 \u6771\u90fd\u4f43\u5cf6\u4f4f\u3088\u3057\u56f3 \u4eac\u90fd\u5d50\u5c71\u56f3 \u6d6a\u82b1\u4f4f\u5409\u6708\u51fa\u898b\u306e\u6d5c\u56f3 \u5b89\u85e4\u5e83\u91cd\u7b46 kenpon tansai T\u014d-to Tsukuda-jima Sumiyoshi zu Ky\u014dto Arashiyama zu Naniwa Sumiyoshi tsuki de mi no hama zu ( And\u014d Hiroshige hitsu )",
          [
            "/wiki/Arashiyama",
            "/wiki/Naniwa-ky\u014d",
            "/wiki/Hiroshige"
          ]
        ],
        [
          "C19",
          []
        ],
        [
          "Yamagata",
          [
            "/wiki/Yamagata,_Yamagata"
          ]
        ],
        [
          "Jik\u014dmy\u014d-in ( \u6148\u5149\u660e\u9662 )",
          []
        ],
        [
          "92.0 centimetres ( 3 ft 0.2 in ) by 28.9 centimetres ( 11.4 in )",
          []
        ],
        [
          "[ 10 ]",
          []
        ]
      ],
      [
        [
          "Landscape , light colours on silk , by Yo Shakuya \u7d79\u672c\u6de1\u5f69\u5c71\u6c34\u56f3 \u4f59\u5919\u591c\u7b46 kenpon tansai sansui zu Yo Shakuya hitsu",
          []
        ],
        [
          "1796",
          []
        ],
        [
          "Sakata",
          [
            "/wiki/Sakata,_Yamagata"
          ]
        ],
        [
          "Homma Museum of Art",
          [
            "/wiki/Homma_Museum_of_Art"
          ]
        ],
        [
          "114.0 centimetres ( 3 ft 8.9 in ) by 35.0 centimetres ( 1 ft 1.8 in )",
          []
        ],
        [
          "[ 11 ]",
          []
        ]
      ],
      [
        [
          "Aizen My\u014d\u014d , colours on silk \u7d79\u672c\u8457\u8272\u611b\u67d3\u660e\u738b\u50cf kenpon chakushoku Aizen My\u014d\u014d z\u014d",
          [
            "/wiki/Aizen_My\u014d\u014d"
          ]
        ],
        [
          "late Kamakura period",
          [
            "/wiki/Kamakura_period"
          ]
        ],
        [
          "Sagae",
          [
            "/wiki/Sagae,_Yamagata"
          ]
        ],
        [
          "H\u014dz\u014d-in ( \u5b9d\u8535\u9662 )",
          []
        ],
        [
          "82.9 centimetres ( 2 ft 8.6 in ) by 48.2 centimetres ( 1 ft 7.0 in )",
          []
        ],
        [
          "[ 12 ]",
          []
        ]
      ],
      [
        [
          "Farewell to Sonehara Rokei , ink on paper , by Fukuhara Gogaku \u7d19\u672c\u58a8\u753b\u66fd\u6839\u539f\u9b6f\u537f\u53d9\u5225\u56f3 \u798f\u539f\u4e94\u5cb3 \u7b46 shihon bokuga Sonehara Rokei jobetsu zu Fukuhara Gogaku hitsu",
          []
        ],
        [
          "C18",
          []
        ],
        [
          "Sakata",
          [
            "/wiki/Sakata,_Yamagata"
          ]
        ],
        [
          "Homma Museum of Art",
          [
            "/wiki/Homma_Museum_of_Art"
          ]
        ],
        [
          "75.8 centimetres ( 2 ft 5.8 in ) by 27.2 centimetres ( 10.7 in )",
          []
        ],
        [
          "[ 13 ]",
          []
        ]
      ],
      [
        [
          "Twin moons , ink on paper , by Sh\u014dkad\u014d Sh\u014dj\u014d \u7d19\u672c\u58a8\u753b\u5bfe\u6708\u56f3 \u677e\u82b1\u5802\u662d\u4e57\u7b46 \u6c5f\u6708\u8cdb shihon bokuga taigetsu no zu Sh\u014dkad\u014d Sh\u014dj\u014d hitsu K\u014dgestu san",
          [
            "/wiki/Sh\u014dkad\u014d_Sh\u014dj\u014d"
          ]
        ],
        [
          "early C17",
          []
        ],
        [
          "Yamagata",
          [
            "/wiki/Yamagata,_Yamagata"
          ]
        ],
        [
          "private",
          []
        ],
        [
          "111.0 centimetres ( 3 ft 7.7 in ) by 26.0 centimetres ( 10.2 in )",
          []
        ],
        [
          "[ 14 ]",
          []
        ]
      ],
      [
        [
          "Landscape with people , flowers , and fruit , light colours on paper , six-fold screen , by Ike no Taiga \u7d19\u672c\u58a8\u753b\u6de1\u5f69\u5c71\u6c34\u4eba\u7269\u82b1\u679c\u56f3 \u6c60\u5927\u96c5\u7b46 \u516d\u66f2\u5c4f\u98a8 shihon bokuga tansai sansui jinbutsu kaka zu Ike no Taiga hitsu rokkyoku by\u014dbu",
          [
            "/wiki/Ike_no_Taiga"
          ]
        ],
        [
          "1771",
          []
        ],
        [
          "Sagae",
          [
            "/wiki/Sagae,_Yamagata"
          ]
        ],
        [
          "private",
          []
        ],
        [
          "351 centimetres ( 11 ft 6 in ) by 147 centimetres ( 4 ft 10 in )",
          []
        ],
        [
          "[ 15 ]",
          []
        ]
      ],
      [
        [
          "Daruma , ink on paper \u7d19\u672c\u58a8\u753b\u9054\u78e8\u56f3 \u7121\u6b3e shihon bokuga Daruma zu mukan",
          [
            "/wiki/Bodhidharma"
          ]
        ],
        [
          "Muromachi period",
          []
        ],
        [
          "Kahoku",
          [
            "/wiki/Kahoku,_Yamagata"
          ]
        ],
        [
          "private",
          []
        ],
        [
          "66.0 centimetres ( 2 ft 2.0 in ) by 29.0 centimetres ( 11.4 in )",
          []
        ],
        [
          "[ 16 ]",
          []
        ]
      ],
      [
        [
          "Swallow in flight , ink on paper , by K\u014d Said\u014d \u7d19\u672c\u58a8\u753b\u98db\u71d5\u56f3 \u5eb7\u897f\u5802\u7b46 shihon bokuga hien zu K\u014d Said\u014d hitsu",
          []
        ],
        [
          "C15",
          []
        ],
        [
          "Sakata",
          [
            "/wiki/Sakata,_Yamagata"
          ]
        ],
        [
          "private",
          []
        ],
        [
          "42.6 centimetres ( 1 ft 4.8 in ) by 31.2 centimetres ( 1 ft 0.3 in )",
          []
        ],
        [
          "[ 17 ]",
          []
        ]
      ],
      [
        [
          "Fuke Zenji , ink on paper , by Seta Kamon \u7d19\u672c\u58a8\u753b\u666e\u5316\u7985\u5e2b\u50cf \u702c\u7530\u6383\u90e8 \u7b46 \u96f2\u5c45\u7985\u5e2b\u8cdb shihon bokuga Fuke Zenji z\u014d Seta Kamon hitsu Unkyo Zenji san",
          [
            "/wiki/Puhua"
          ]
        ],
        [
          "C16/17",
          []
        ],
        [
          "Sakata",
          [
            "/wiki/Sakata,_Yamagata"
          ]
        ],
        [
          "private",
          []
        ],
        [
          "75.7 centimetres ( 2 ft 5.8 in ) by 21.3 centimetres ( 8.4 in )",
          []
        ],
        [
          "[ 18 ]",
          []
        ]
      ],
      [
        [
          "Grapes and squirrel , ink on paper , by Miyamoto Musashi \u7d19\u672c\u58a8\u753b\u8461\u8404\u6817\u9f20\u56f3 \u5bae\u672c\u6b66\u8535\u7b46 shihon bokuga bud\u014d risu zu Miyamoto Musashi\u014d hitsu",
          [
            "/wiki/Miyamoto_Musashi"
          ]
        ],
        [
          "C17",
          []
        ],
        [
          "Tend\u014d",
          [
            "/wiki/Tend\u014d,_Yamagata"
          ]
        ],
        [
          "Dewazakura Museum of Art",
          [
            "/wiki/Dewazakura_Museum_of_Art"
          ]
        ],
        [
          "126.5 centimetres ( 4 ft 1.8 in ) by 46.5 centimetres ( 1 ft 6.3 in )",
          []
        ],
        [
          "[ 19 ]",
          []
        ]
      ],
      [
        [
          "Landscape in the beiten style , ink on paper , by Okada Hank\u014d \u7d19\u672c\u58a8\u753b\u7c73\u70b9\u5c71\u6c34\u56f3 \u5ca1\u7530\u534a\u6c5f\u7b46 shihon bokuga beiten sansui zu Okada Hank\u014d hitsu",
          [
            "/wiki/Okada_Hanko"
          ]
        ],
        [
          "1830",
          []
        ],
        [
          "Yamagata",
          [
            "/wiki/Yamagata,_Yamagata"
          ]
        ],
        [
          "Yamagata Museum of Art",
          [
            "/wiki/Yamagata_Museum_of_Art"
          ]
        ],
        [
          "134.8 centimetres ( 4 ft 5.1 in ) by 38.2 centimetres ( 1 ft 3.0 in )",
          []
        ],
        [
          "[ 20 ]",
          []
        ]
      ],
      [
        [
          "Landscape in the beih\u014d style , ink on paper , by Okada Hank\u014d \u7d19\u672c\u58a8\u753b \u7c73\u6cd5\u5c71\u6c34 \u56f3 \u5ca1\u7530\u534a\u6c5f\u7b46 shihon bokuga beih\u014d sansui zu Okada Hank\u014d hitsu",
          [
            "/wiki/Okada_Hanko"
          ]
        ],
        [
          "early C19",
          []
        ],
        [
          "Sakata",
          [
            "/wiki/Sakata,_Yamagata"
          ]
        ],
        [
          "Homma Museum of Art",
          [
            "/wiki/Homma_Museum_of_Art"
          ]
        ],
        [
          "227.0 centimetres ( 7 ft 5.4 in ) by 46.8 centimetres ( 1 ft 6.4 in )",
          []
        ],
        [
          "[ 21 ]",
          []
        ]
      ],
      [
        [
          "H\u014dnen , ink on paper , by Reizei Tamachika \u7d19\u672c\u58a8\u753b\u6cd5\u7136\u4e0a\u4eba\u50cf \u51b7\u6cc9\u70ba\u606d \u7b46 shihon bokuga H\u014dnen sh\u014dnin-z\u014d Reizei Tamachika hitsu",
          [
            "/wiki/H\u014dnen"
          ]
        ],
        [
          "mid-C19",
          []
        ],
        [
          "\u014cishida",
          [
            "/wiki/\u014cishida,_Yamagata"
          ]
        ],
        [
          "private",
          []
        ],
        [
          "92.3 centimetres ( 3 ft 0.3 in ) by 29.5 centimetres ( 11.6 in )",
          []
        ],
        [
          "[ 22 ]",
          []
        ]
      ],
      [
        [
          "Pasturing cattle , ink on paper \u7d19\u672c\u58a8\u753b\u7267\u725b\u56f3 \u7121\u6b3e shihon bokuga bokugy\u016b-zu mukan",
          []
        ],
        [
          "C14",
          []
        ],
        [
          "Sakata",
          [
            "/wiki/Sakata,_Yamagata"
          ]
        ],
        [
          "private",
          []
        ],
        [
          "50.0 centimetres ( 1 ft 7.7 in ) by 29.5 centimetres ( 11.6 in )",
          []
        ],
        [
          "[ 23 ]",
          []
        ]
      ],
      [
        [
          "Bamboo , ink on paper , by Yanagisawa Kien \u7d19\u672c\u58a8\u753b\u58a8\u7af9\u56f3 \u67f3\u91cc\u606d\u7b46 shihon bokuga bokuchiku-zu Ry\u016brik\u014d hitsu",
          [
            "/wiki/Yanagisawa_Kien"
          ]
        ],
        [
          "C18",
          []
        ],
        [
          "Sakata",
          [
            "/wiki/Sakata,_Yamagata"
          ]
        ],
        [
          "private",
          []
        ],
        [
          "111.5 centimetres ( 3 ft 7.9 in ) by 27.0 centimetres ( 10.6 in )",
          []
        ],
        [
          "[ 24 ]",
          []
        ]
      ],
      [
        [
          "Daruma , ink on paper , by Kaih\u014d Y\u016bsh\u014d \u7d19\u672c\u58a8\u753b\u9762\u58c1\u9054\u78e8\u56f3 \u6d77\u5317\u53cb\u677e\u7b46 shihon bokuga menpeki Daruma-zu Kaih\u014d Y\u016bsh\u014d hitsu",
          [
            "/wiki/Bodhidharma",
            "/wiki/Kaih\u014d_Y\u016bsh\u014d"
          ]
        ],
        [
          "C16/17",
          []
        ],
        [
          "Sakata",
          [
            "/wiki/Sakata,_Yamagata"
          ]
        ],
        [
          "private ( kept at Homma Museum of Art )",
          [
            "/wiki/Homma_Museum_of_Art"
          ]
        ],
        [
          "104.0 centimetres ( 3 ft 4.9 in ) by 39.0 centimetres ( 1 ft 3.4 in )",
          []
        ],
        [
          "[ 25 ]",
          []
        ]
      ],
      [
        [
          "Goose among reeds , ink on paper by K\u014dnome Sadashige \u7d19\u672c\u58a8\u753b\u82a6\u96c1\u56f3 \u90f7\u76ee\u8c9e\u7e41 \u7b46 shihon bokuga rogan-zu K\u014dnome Sadashige hitsu",
          []
        ],
        [
          "mid-C16",
          []
        ],
        [
          "Kahoku",
          [
            "/wiki/Kahoku,_Yamagata"
          ]
        ],
        [
          "private",
          []
        ],
        [
          "58.2 centimetres ( 1 ft 10.9 in ) by 44.5 centimetres ( 1 ft 5.5 in )",
          []
        ],
        [
          "[ 26 ]",
          []
        ]
      ],
      [
        [
          "Views of Yamagata City , oil painting by Takahashi Yuichi \u6cb9\u5f69\u5c71\u5f62\u5e02\u8857\u56f3 \u9ad8\u6a4b\u7531\u4e00\u7b46 yusai Yamagata-shi gai-zu ( Takahashi Yuichi hitsu )",
          [
            "/wiki/Takahashi_Yuichi"
          ]
        ],
        [
          "1885",
          []
        ],
        [
          "Yamagata",
          [
            "/wiki/Yamagata,_Yamagata"
          ]
        ],
        [
          "Yamagata Prefecture ( kept at Yamagata Museum of Art )",
          [
            "/wiki/Yamagata_Prefecture",
            "/wiki/Yamagata_Museum_of_Art"
          ]
        ],
        [
          "151.1 centimetres ( 4 ft 11.5 in ) by 104.4 centimetres ( 3 ft 5.1 in )",
          []
        ],
        [
          "[ 27 ]",
          []
        ]
      ]
    ],
    "section_title": "Prefectural Cultural Properties",
    "section_text": "As of 2 November 2018 , seventy-seven properties have been designated at a prefectural level . [ 4 ] [ 16 ]",
    "uid": "List_of_Cultural_Properties_of_Japan_-_paintings_(Yamagata)_1",
    "intro": "This list is of the Cultural Properties of Japan designated in the category of paintings (\u7d75\u753b, kaiga) for the Prefecture of Yamagata."
  },
  "Swimming_at_the_1998_World_Aquatics_Championships_\u2013_Women's_400_metre_freestyle_1": {
    "url": "https://en.wikipedia.org/wiki/Swimming_at_the_1998_World_Aquatics_Championships_\u2013_Women's_400_metre_freestyle",
    "title": "Swimming at the 1998 World Aquatics Championships \u2013 Women's 400 metre freestyle",
    "header": [
      [
        "Rank",
        []
      ],
      [
        "Name",
        []
      ],
      [
        "Time",
        []
      ]
    ],
    "data": [
      [
        [
          "9",
          []
        ],
        [
          "Shu-Min Tsai ( TPE )",
          []
        ],
        [
          "4:12.94",
          []
        ]
      ],
      [
        [
          "10",
          []
        ],
        [
          "Joanne Malar ( CAN )",
          [
            "/wiki/Joanne_Malar"
          ]
        ],
        [
          "4:14.31",
          []
        ]
      ],
      [
        [
          "11",
          []
        ],
        [
          "Carla Geurts ( NED )",
          [
            "/wiki/Carla_Geurts"
          ]
        ],
        [
          "4:14.61",
          []
        ]
      ],
      [
        [
          "12",
          []
        ],
        [
          "Simona P\u0103duraru ( ROM )",
          [
            "/wiki/Simona_P\u0103duraru"
          ]
        ],
        [
          "4:15.58",
          []
        ]
      ],
      [
        [
          "13",
          []
        ],
        [
          "Victoria Horner ( GBR )",
          [
            "/wiki/Vicky_Horner"
          ]
        ],
        [
          "4:15.79",
          []
        ]
      ],
      [
        [
          "14",
          []
        ],
        [
          "Nadezda Chemezova ( RUS )",
          []
        ],
        [
          "4:16.51",
          []
        ]
      ],
      [
        [
          "15",
          []
        ],
        [
          "Tatyana Mikhailova ( RUS )",
          [
            "/wiki/Tatsiana_Mikhailava"
          ]
        ],
        [
          "4:18.25",
          []
        ]
      ],
      [
        [
          "16",
          []
        ],
        [
          "Natasha Bowron ( AUS )",
          []
        ],
        [
          "4:20.50",
          []
        ]
      ]
    ],
    "section_title": "B Final",
    "section_text": "",
    "uid": "Swimming_at_the_1998_World_Aquatics_Championships_\u2013_Women's_400_metre_freestyle_1",
    "intro": "The finals and the qualifying heats of the women's 400 metre freestyle event at the 1998 World Aquatics Championships were held on Wednesday 14 January 1998 in Perth, Australia."
  },
  "International_Federation_of_Football_History_&_Statistics_22": {
    "url": "https://en.wikipedia.org/wiki/International_Federation_of_Football_History_&_Statistics",
    "title": "International Federation of Football History & Statistics",
    "header": [
      [
        "",
        []
      ],
      [
        "Player",
        []
      ],
      [
        "Nationality",
        []
      ],
      [
        "Votes",
        []
      ]
    ],
    "data": [
      [
        [
          "1",
          []
        ],
        [
          "Mia Hamm",
          [
            "/wiki/Mia_Hamm"
          ]
        ],
        [
          "United States",
          [
            "/wiki/United_States_men's_national_soccer_team"
          ]
        ],
        [
          "442",
          []
        ]
      ],
      [
        [
          "2",
          []
        ],
        [
          "Michelle Akers",
          [
            "/wiki/Michelle_Akers"
          ]
        ],
        [
          "United States",
          [
            "/wiki/United_States_men's_national_soccer_team"
          ]
        ],
        [
          "411",
          []
        ]
      ],
      [
        [
          "3",
          []
        ],
        [
          "Heidi Mohr",
          [
            "/wiki/Heidi_Mohr"
          ]
        ],
        [
          "Germany",
          [
            "/wiki/Germany_national_football_team"
          ]
        ],
        [
          "250",
          []
        ]
      ],
      [
        [
          "4",
          []
        ],
        [
          "Carolina Morace",
          [
            "/wiki/Carolina_Morace"
          ]
        ],
        [
          "Italy",
          [
            "/wiki/Italy_national_football_team"
          ]
        ],
        [
          "230",
          []
        ]
      ],
      [
        [
          "5",
          []
        ],
        [
          "Sissi",
          [
            "/wiki/Sissi_(footballer)"
          ]
        ],
        [
          "Brazil",
          [
            "/wiki/Brazil_national_football_team"
          ]
        ],
        [
          "212",
          []
        ]
      ],
      [
        [
          "6",
          []
        ],
        [
          "Linda Medalen",
          [
            "/wiki/Linda_Medalen"
          ]
        ],
        [
          "Norway",
          [
            "/wiki/Norway_national_football_team"
          ]
        ],
        [
          "181",
          []
        ]
      ],
      [
        [
          "7",
          []
        ],
        [
          "Liu Ailing",
          [
            "/wiki/Liu_Ailing"
          ]
        ],
        [
          "China PR",
          [
            "/wiki/China_national_football_team"
          ]
        ],
        [
          "165",
          []
        ]
      ],
      [
        [
          "8",
          []
        ],
        [
          "Kristine Lilly",
          [
            "/wiki/Kristine_Lilly"
          ]
        ],
        [
          "United States",
          [
            "/wiki/United_States_men's_national_soccer_team"
          ]
        ],
        [
          "160",
          []
        ]
      ],
      [
        [
          "9",
          []
        ],
        [
          "Heidi St\u00f8re",
          [
            "/wiki/Heidi_St\u00f8re"
          ]
        ],
        [
          "Norway",
          [
            "/wiki/Norway_national_football_team"
          ]
        ],
        [
          "141",
          []
        ]
      ],
      [
        [
          "10",
          []
        ],
        [
          "Pia Sundhage",
          [
            "/wiki/Pia_Sundhage"
          ]
        ],
        [
          "Sweden",
          [
            "/wiki/Sweden_national_football_team"
          ]
        ],
        [
          "129",
          []
        ]
      ]
    ],
    "section_title": "IFFHS Female Player of the Century",
    "section_text": "IFFHS gave out an award decided by votes which was conducted with the participation of journalists and former players ( no further details given ) . [ 74 ]",
    "uid": "International_Federation_of_Football_History_&_Statistics_22",
    "intro": "The International Federation of Football History & Statistics (IFFHS) is an organization that chronicles the history and records of association football. It was founded on 27 March 1984 in Leipzig by Alfredo P\u00f6ge with the blessings of general secretary of the FIFA at the time, Helmut K\u00e4ser. The IFFHS was based at Al-Muroor Street 147, Abu Dhabi for some time but, in 2010, relocated to Bonn, Germany. During its early stages, and until 2002, the IFFHS concentrated on publishing the quarterly magazines Fu\u00dfball-Weltzeitschrift, Libero spezial deutsch and Libero international. When these had to be discontinued for reasons which were not officially told, the organization published its material in a series of multi-lingual books in co-operation with sponsors. The statistical organization has now confined its publishing activities to its website, receiving support from FIFA, organization that recognise the IFFHS and its work although the latter has no affiliation with the football's governing body."
  },
  "List_of_awards_and_nominations_received_by_Morgan_Freeman_1": {
    "url": "https://en.wikipedia.org/wiki/List_of_awards_and_nominations_received_by_Morgan_Freeman",
    "title": "List of awards and nominations received by Morgan Freeman",
    "header": [
      [
        "Year",
        []
      ],
      [
        "Nominated work",
        []
      ],
      [
        "Category",
        []
      ],
      [
        "Result",
        []
      ]
    ],
    "data": [
      [
        [
          "2000",
          []
        ],
        [
          "Nurse Betty",
          [
            "/wiki/Nurse_Betty"
          ]
        ],
        [
          "Best Actor",
          [
            "/wiki/Black_Reel_Award_for_Best_Actor"
          ]
        ],
        [
          "Nominated",
          []
        ]
      ],
      [
        [
          "2002",
          []
        ],
        [
          "Sum of All Fears",
          [
            "/wiki/The_Sum_of_All_Fears"
          ]
        ],
        [
          "Best Supporting Actor",
          [
            "/wiki/Black_Reel_Award_for_Best_Supporting_Actor"
          ]
        ],
        [
          "Nominated",
          []
        ]
      ],
      [
        [
          "2003",
          []
        ],
        [
          "Bruce Almighty",
          [
            "/wiki/Bruce_Almighty"
          ]
        ],
        [
          "Best Supporting Actor",
          [
            "/wiki/Black_Reel_Award_for_Best_Supporting_Actor"
          ]
        ],
        [
          "Nominated",
          []
        ]
      ],
      [
        [
          "2004",
          []
        ],
        [
          "Million Dollar Baby",
          [
            "/wiki/Million_Dollar_Baby"
          ]
        ],
        [
          "Best Supporting Actor",
          [
            "/wiki/Black_Reel_Award_for_Best_Supporting_Actor"
          ]
        ],
        [
          "Nominated",
          []
        ]
      ],
      [
        [
          "2009",
          []
        ],
        [
          "Invictus",
          [
            "/wiki/Invictus_(film)"
          ]
        ],
        [
          "Best Actor",
          [
            "/wiki/Black_Reel_Award_for_Best_Actor"
          ]
        ],
        [
          "Won",
          []
        ]
      ],
      [
        [
          "2015",
          []
        ],
        [
          "The Lego Movie",
          [
            "/wiki/The_Lego_Movie"
          ]
        ],
        [
          "Best Voice Performance",
          [
            "/wiki/Black_Reel_Award_for_Outstanding_Voice_Performance"
          ]
        ],
        [
          "Won",
          []
        ]
      ]
    ],
    "section_title": "Major awards -- Black Reel Awards",
    "section_text": "",
    "uid": "List_of_awards_and_nominations_received_by_Morgan_Freeman_1",
    "intro": "The following is a list of awards and nominations received by Morgan Freeman. A five-time Academy Award nominee and five-time Golden Globe Award nominee, he won the Golden Globe Award for Best Actor (musical or comedy) for the 1989 film Driving Miss Daisy, and the Academy Award for Best Supporting Actor for the 2004 film Million Dollar Baby. He was a recipient of the Kennedy Center Honors in 2008. His other honorary awards include the AFI Life Achievement Award in 2011, the Cecil B. DeMille Award in 2012, and the Screen Actors Guild Life Achievement Award in 2018."
  },
  "List_of_Minnesota_Golden_Gophers_football_passing_leaders_1": {
    "url": "https://en.wikipedia.org/wiki/Minnesota_Golden_Gophers_football_statistical_leaders",
    "title": "Minnesota Golden Gophers football statistical leaders",
    "header": [
      [
        "Rank",
        []
      ],
      [
        "Player",
        []
      ],
      [
        "Yards",
        []
      ],
      [
        "Year",
        []
      ]
    ],
    "data": [
      [
        [
          "1",
          []
        ],
        [
          "Tanner Morgan",
          [
            "/wiki/Tanner_Morgan"
          ]
        ],
        [
          "3,253",
          []
        ],
        [
          "2019",
          [
            "/wiki/2019_Minnesota_Golden_Gophers_football_team"
          ]
        ]
      ],
      [
        [
          "2",
          []
        ],
        [
          "Adam Weber",
          [
            "/wiki/Adam_Weber"
          ]
        ],
        [
          "2,895",
          []
        ],
        [
          "2007",
          [
            "/wiki/2007_Minnesota_Golden_Gophers_football_team"
          ]
        ]
      ],
      [
        [
          "3",
          []
        ],
        [
          "Bryan Cupito",
          [
            "/wiki/Bryan_Cupito"
          ]
        ],
        [
          "2,819",
          []
        ],
        [
          "2006",
          [
            "/wiki/2006_Minnesota_Golden_Gophers_football_team"
          ]
        ]
      ],
      [
        [
          "4",
          []
        ],
        [
          "Adam Weber",
          [
            "/wiki/Adam_Weber"
          ]
        ],
        [
          "2,761",
          []
        ],
        [
          "2008",
          [
            "/wiki/2008_Minnesota_Golden_Gophers_football_team"
          ]
        ]
      ],
      [
        [
          "5",
          []
        ],
        [
          "Mitch Leidner",
          []
        ],
        [
          "2,701",
          []
        ],
        [
          "2015",
          [
            "/wiki/2015_Minnesota_Golden_Gophers_football_team"
          ]
        ]
      ],
      [
        [
          "6",
          []
        ],
        [
          "Adam Weber",
          [
            "/wiki/Adam_Weber"
          ]
        ],
        [
          "2,679",
          []
        ],
        [
          "2010",
          [
            "/wiki/2010_Minnesota_Golden_Gophers_football_team"
          ]
        ]
      ],
      [
        [
          "7",
          []
        ],
        [
          "Cory Sauter",
          [
            "/wiki/Cory_Sauter"
          ]
        ],
        [
          "2,600",
          []
        ],
        [
          "1995",
          [
            "/wiki/1995_Minnesota_Golden_Gophers_football_team"
          ]
        ]
      ],
      [
        [
          "8",
          []
        ],
        [
          "Adam Weber",
          [
            "/wiki/Adam_Weber"
          ]
        ],
        [
          "2,582",
          []
        ],
        [
          "2009",
          [
            "/wiki/2009_Minnesota_Golden_Gophers_football_team"
          ]
        ]
      ],
      [
        [
          "9",
          []
        ],
        [
          "Cory Sauter",
          [
            "/wiki/Cory_Sauter"
          ]
        ],
        [
          "2,578",
          []
        ],
        [
          "1996",
          [
            "/wiki/1996_Minnesota_Golden_Gophers_football_team"
          ]
        ]
      ],
      [
        [
          "10",
          []
        ],
        [
          "Bryan Cupito",
          [
            "/wiki/Bryan_Cupito"
          ]
        ],
        [
          "2,530",
          []
        ],
        [
          "2005",
          [
            "/wiki/2005_Minnesota_Golden_Gophers_football_team"
          ]
        ]
      ]
    ],
    "section_title": "",
    "section_text": "",
    "uid": "List_of_Minnesota_Golden_Gophers_football_passing_leaders_1",
    "intro": "The Minnesota Golden Gophers football statistical leaders are individual statistical leaders of the Minnesota Golden Gophers football program in various categories, including passing, rushing, receiving, total offense, defensive stats, and kicking. Within those areas, the lists identify single-game, single-season, and career leaders. The Golden Gophers represent the University of Minnesota in the NCAA's Big Ten Conference. Although Minnesota began competing in intercollegiate football in 1882, the school's official record book considers the modern era to have begun in 1945. Records from before this year are often incomplete and inconsistent, and they are sometimes not included in these lists. These lists are dominated by more recent players for several reasons:\nThese lists are updated through week 14 of the 2019 season."
  }
}