{
  "List_of_World_Championships_medalists_in_modern_pentathlon_1": {
    "url": "https://en.wikipedia.org/wiki/List_of_World_Championships_medalists_in_modern_pentathlon",
    "title": "List of World Championships medalists in modern pentathlon",
    "header": [
      [
        "Championships",
        []
      ],
      [
        "Gold",
        []
      ],
      [
        "Silver",
        []
      ],
      [
        "Bronze",
        []
      ]
    ],
    "data": [
      [
        [
          "1949 Stockholm",
          []
        ],
        [
          "Sweden",
          [
            "/wiki/Sweden"
          ]
        ],
        [
          "Finland",
          [
            "/wiki/Finland"
          ]
        ],
        [
          "Switzerland",
          [
            "/wiki/Switzerland"
          ]
        ]
      ],
      [
        [
          "1950 Bern",
          []
        ],
        [
          "Sweden",
          [
            "/wiki/Sweden"
          ]
        ],
        [
          "Finland",
          [
            "/wiki/Finland"
          ]
        ],
        [
          "Italy",
          [
            "/wiki/Italy"
          ]
        ]
      ],
      [
        [
          "1951 Helsingborg",
          []
        ],
        [
          "Sweden",
          [
            "/wiki/Sweden"
          ]
        ],
        [
          "Finland",
          [
            "/wiki/Finland"
          ]
        ],
        [
          "Brazil",
          [
            "/wiki/Brazil"
          ]
        ]
      ],
      [
        [
          "1953 Santo Domingo",
          []
        ],
        [
          "Sweden",
          [
            "/wiki/Sweden"
          ]
        ],
        [
          "Argentina",
          [
            "/wiki/Argentina"
          ]
        ],
        [
          "Chile",
          [
            "/wiki/Chile"
          ]
        ]
      ],
      [
        [
          "1954 Budapest",
          []
        ],
        [
          "Hungary",
          [
            "/wiki/Hungary"
          ]
        ],
        [
          "Switzerland",
          [
            "/wiki/Switzerland"
          ]
        ],
        [
          "Sweden",
          [
            "/wiki/Sweden"
          ]
        ]
      ],
      [
        [
          "1955 Zurich",
          [
            "/wiki/1955_World_Modern_Pentathlon_Championships"
          ]
        ],
        [
          "Hungary",
          [
            "/wiki/Hungary"
          ]
        ],
        [
          "Soviet Union",
          [
            "/wiki/Soviet_Union"
          ]
        ],
        [
          "Switzerland",
          [
            "/wiki/Switzerland"
          ]
        ]
      ],
      [
        [
          "1957 Stockholm",
          [
            "/wiki/1957_World_Modern_Pentathlon_Championships"
          ]
        ],
        [
          "Soviet Union",
          [
            "/wiki/Soviet_Union"
          ]
        ],
        [
          "Finland",
          [
            "/wiki/Finland"
          ]
        ],
        [
          "Hungary",
          [
            "/wiki/Hungary"
          ]
        ]
      ],
      [
        [
          "1958 Aldershot",
          [
            "/wiki/1958_World_Modern_Pentathlon_Championships"
          ]
        ],
        [
          "Soviet Union",
          [
            "/wiki/Soviet_Union"
          ]
        ],
        [
          "Hungary",
          [
            "/wiki/Hungary"
          ]
        ],
        [
          "Finland",
          [
            "/wiki/Finland"
          ]
        ]
      ],
      [
        [
          "1959 Hershey",
          [
            "/wiki/1959_World_Modern_Pentathlon_Championships"
          ]
        ],
        [
          "Soviet Union",
          [
            "/wiki/Soviet_Union"
          ]
        ],
        [
          "Finland",
          [
            "/wiki/Finland"
          ]
        ],
        [
          "United States",
          [
            "/wiki/United_States"
          ]
        ]
      ],
      [
        [
          "1961 Moscow",
          [
            "/wiki/1961_World_Modern_Pentathlon_Championships"
          ]
        ],
        [
          "Soviet Union",
          [
            "/wiki/Soviet_Union"
          ]
        ],
        [
          "Hungary",
          [
            "/wiki/Hungary"
          ]
        ],
        [
          "United States",
          [
            "/wiki/United_States"
          ]
        ]
      ],
      [
        [
          "1962 Mexico City",
          [
            "/wiki/1962_World_Modern_Pentathlon_Championships"
          ]
        ],
        [
          "Soviet Union",
          [
            "/wiki/Soviet_Union"
          ]
        ],
        [
          "Hungary",
          [
            "/wiki/Hungary"
          ]
        ],
        [
          "United States",
          [
            "/wiki/United_States"
          ]
        ]
      ],
      [
        [
          "1963 Magglingen",
          [
            "/wiki/1963_World_Modern_Pentathlon_Championships"
          ]
        ],
        [
          "Hungary",
          [
            "/wiki/Hungary"
          ]
        ],
        [
          "Soviet Union",
          [
            "/wiki/Soviet_Union"
          ]
        ],
        [
          "United States",
          [
            "/wiki/United_States"
          ]
        ]
      ],
      [
        [
          "1965 Leipzig",
          [
            "/wiki/1965_World_Modern_Pentathlon_Championships"
          ]
        ],
        [
          "Hungary",
          [
            "/wiki/Hungary"
          ]
        ],
        [
          "Soviet Union",
          [
            "/wiki/Soviet_Union"
          ]
        ],
        [
          "East Germany",
          [
            "/wiki/East_Germany"
          ]
        ]
      ],
      [
        [
          "1966 Melbourne",
          [
            "/wiki/1966_World_Modern_Pentathlon_Championships"
          ]
        ],
        [
          "Hungary",
          [
            "/wiki/Hungary"
          ]
        ],
        [
          "Soviet Union",
          [
            "/wiki/Soviet_Union"
          ]
        ],
        [
          "East Germany",
          [
            "/wiki/East_Germany"
          ]
        ]
      ],
      [
        [
          "1967 J\u00f6nk\u00f6ping",
          [
            "/wiki/1967_World_Modern_Pentathlon_Championships"
          ]
        ],
        [
          "Hungary",
          [
            "/wiki/Hungary"
          ]
        ],
        [
          "Sweden",
          [
            "/wiki/Sweden"
          ]
        ],
        [
          "Soviet Union",
          [
            "/wiki/Soviet_Union"
          ]
        ]
      ],
      [
        [
          "1969 Budapest",
          [
            "/wiki/1969_World_Modern_Pentathlon_Championships"
          ]
        ],
        [
          "Soviet Union",
          [
            "/wiki/Soviet_Union"
          ]
        ],
        [
          "Hungary",
          [
            "/wiki/Hungary"
          ]
        ],
        [
          "West Germany",
          [
            "/wiki/West_Germany"
          ]
        ]
      ],
      [
        [
          "1970 Warendorf",
          [
            "/wiki/1970_World_Modern_Pentathlon_Championships"
          ]
        ],
        [
          "Hungary",
          [
            "/wiki/Hungary"
          ]
        ],
        [
          "Soviet Union",
          [
            "/wiki/Soviet_Union"
          ]
        ],
        [
          "West Germany",
          [
            "/wiki/West_Germany"
          ]
        ]
      ],
      [
        [
          "1971 San Antonio",
          [
            "/wiki/1971_World_Modern_Pentathlon_Championships"
          ]
        ],
        [
          "Soviet Union",
          [
            "/wiki/Soviet_Union"
          ]
        ],
        [
          "Hungary",
          [
            "/wiki/Hungary"
          ]
        ],
        [
          "United States",
          [
            "/wiki/United_States"
          ]
        ]
      ],
      [
        [
          "1973 London",
          [
            "/wiki/1973_World_Modern_Pentathlon_Championships"
          ]
        ],
        [
          "Soviet Union",
          [
            "/wiki/Soviet_Union"
          ]
        ],
        [
          "West Germany",
          [
            "/wiki/West_Germany"
          ]
        ],
        [
          "Hungary",
          [
            "/wiki/Hungary"
          ]
        ]
      ],
      [
        [
          "1974 Moscow",
          [
            "/wiki/1974_World_Modern_Pentathlon_Championships"
          ]
        ],
        [
          "Soviet Union",
          [
            "/wiki/Soviet_Union"
          ]
        ],
        [
          "Hungary",
          [
            "/wiki/Hungary"
          ]
        ],
        [
          "Romania",
          [
            "/wiki/Romania"
          ]
        ]
      ]
    ],
    "section_title": "Men -- Team",
    "section_text": "",
    "uid": "List_of_World_Championships_medalists_in_modern_pentathlon_1",
    "intro": "This is a List of World Championships medalists in modern pentathlon. The World Modern Pentathlon Championships is the major modern pentathlon competition, along with the Olympic competition."
  },
  "List_of_city_and_municipality_nicknames_in_the_Philippines_5": {
    "url": "https://en.wikipedia.org/wiki/List_of_city_and_municipality_nicknames_in_the_Philippines",
    "title": "List of city and municipality nicknames in the Philippines",
    "header": [
      [
        "City/Municipality",
        []
      ],
      [
        "Province",
        []
      ],
      [
        "Nicknames",
        []
      ]
    ],
    "data": [
      [
        [
          "Alabat",
          [
            "/wiki/Alabat,_Quezon"
          ]
        ],
        [
          "Quezon",
          [
            "/wiki/Quezon"
          ]
        ],
        [
          "The Hidden Gem of Quezon Gateway to the Pacific Alabat , A Lost Paradise",
          []
        ]
      ],
      [
        [
          "Alaminos",
          [
            "/wiki/Alaminos,_Laguna"
          ]
        ],
        [
          "Laguna",
          [
            "/wiki/Laguna_(province)"
          ]
        ],
        [
          "The Home of the Coramblan Festival",
          []
        ]
      ],
      [
        [
          "Alfonso",
          [
            "/wiki/Alfonso,_Cavite"
          ]
        ],
        [
          "Cavite",
          [
            "/wiki/Cavite"
          ]
        ],
        [
          "Agro-Industrial Center of Upland Cavite",
          []
        ]
      ],
      [
        [
          "Alitagtag",
          [
            "/wiki/Alitagtag,_Batangas"
          ]
        ],
        [
          "Batangas",
          [
            "/wiki/Batangas"
          ]
        ],
        [
          "Float Capital of the Philippines",
          []
        ]
      ],
      [
        [
          "Amadeo",
          [
            "/wiki/Amadeo,_Cavite"
          ]
        ],
        [
          "Cavite",
          [
            "/wiki/Cavite"
          ]
        ],
        [
          "Coffee Capital of the Philippines",
          []
        ]
      ],
      [
        [
          "Angono",
          [
            "/wiki/Angono"
          ]
        ],
        [
          "Rizal",
          [
            "/wiki/Rizal"
          ]
        ],
        [
          "Arts Capital of the Philippines",
          []
        ]
      ],
      [
        [
          "Antipolo City",
          [
            "/wiki/Antipolo"
          ]
        ],
        [
          "Rizal",
          [
            "/wiki/Rizal"
          ]
        ],
        [
          "The Pilgrimage City of the Philippines The City in the Sky",
          []
        ]
      ],
      [
        [
          "Bacoor City",
          [
            "/wiki/Bacoor"
          ]
        ],
        [
          "Cavite",
          [
            "/wiki/Cavite"
          ]
        ],
        [
          "Cavite 's Gateway to the Metropolis Marching Band Capital of the Philippines City of Transformation",
          []
        ]
      ],
      [
        [
          "Balete",
          [
            "/wiki/Balete,_Batangas"
          ]
        ],
        [
          "Batangas",
          [
            "/wiki/Batangas"
          ]
        ],
        [
          "Land of Honeybees",
          []
        ]
      ],
      [
        [
          "Batangas City",
          [
            "/wiki/Batangas_City"
          ]
        ],
        [
          "Batangas",
          [
            "/wiki/Batangas"
          ]
        ],
        [
          "Industrial Port City of Calabarzon Tourist City of the Past , Present and Future",
          []
        ]
      ],
      [
        [
          "Bauan",
          [
            "/wiki/Bauan,_Batangas"
          ]
        ],
        [
          "Batangas",
          [
            "/wiki/Batangas"
          ]
        ],
        [
          "The Town that Refuses to Die",
          []
        ]
      ],
      [
        [
          "Bay",
          [
            "/wiki/Bay,_Laguna"
          ]
        ],
        [
          "Laguna",
          [
            "/wiki/Laguna_(province)"
          ]
        ],
        [
          "Flower Garden of Laguna The First Capital of Laguna",
          []
        ]
      ],
      [
        [
          "Cabuyao City",
          [
            "/wiki/Cabuyao"
          ]
        ],
        [
          "Laguna",
          [
            "/wiki/Laguna_(province)"
          ]
        ],
        [
          "Pamantasan ng Cabuyao",
          []
        ]
      ],
      [
        [
          "Cainta",
          [
            "/wiki/Cainta"
          ]
        ],
        [
          "Rizal",
          [
            "/wiki/Rizal"
          ]
        ],
        [
          "Your Gateway to the East Information Technology Capital of the Province of Rizal Bibingka Capital of the Philippines",
          []
        ]
      ],
      [
        [
          "Calamba City",
          [
            "/wiki/Calamba,_Laguna"
          ]
        ],
        [
          "Laguna",
          [
            "/wiki/Laguna_(province)"
          ]
        ],
        [
          "Hot spring capital of the Philippines",
          []
        ]
      ],
      [
        [
          "Calauan",
          [
            "/wiki/Calauan,_Laguna"
          ]
        ],
        [
          "Laguna",
          [
            "/wiki/Laguna_(province)"
          ]
        ],
        [
          "Home of the Sweetest Pineapple",
          []
        ]
      ],
      [
        [
          "Candelaria",
          [
            "/wiki/Candelaria,_Quezon"
          ]
        ],
        [
          "Quezon",
          [
            "/wiki/Quezon"
          ]
        ],
        [
          "Industrial Town of Quezon Desiccated Coconut Capital",
          []
        ]
      ],
      [
        [
          "Carmona",
          [
            "/wiki/Carmona,_Cavite"
          ]
        ],
        [
          "Cavite",
          [
            "/wiki/Cavite"
          ]
        ],
        [
          "Center for Investment & Sports of Cavite Industrial Corridor of Cavite",
          []
        ]
      ],
      [
        [
          "Catanauan",
          [
            "/wiki/Catanauan"
          ]
        ],
        [
          "Quezon",
          [
            "/wiki/Quezon"
          ]
        ],
        [
          "Heart of the Bondoc Peninsula",
          []
        ]
      ],
      [
        [
          "Cavinti",
          [
            "/wiki/Cavinti"
          ]
        ],
        [
          "Laguna",
          [
            "/wiki/Laguna_(province)"
          ]
        ],
        [
          "The Eventful , Adventure , Falls , Caves and Eco-Tourism Capital of Laguna",
          []
        ]
      ]
    ],
    "section_title": "Southern Tagalog Mainland or CALABARZON ( Region IV-A )",
    "section_text": "",
    "uid": "List_of_city_and_municipality_nicknames_in_the_Philippines_5",
    "intro": "This partial list of city and municipality nicknames in the Philippines compiles the aliases, sobriquets and slogans that cities and municipalities in the Philippines are known by (or have been known by historically), officially and unofficially, to municipal governments, local people, outsiders or their tourism boards or chambers of commerce. City nicknames can help in establishing a civic identity, helping outsiders recognize a community or attracting people to a community because of its nickname; promote civic pride; and build community unity. Nicknames and slogans that successfully create a new community ideology or myth are also believed to have economic value. Their economic value is difficult to measure, but there are anecdotal reports of cities that have achieved substantial economic benefits by branding themselves by adopting new slogans."
  },
  "General_Staff_of_the_Armed_Forces_of_the_Republic_of_Hungary_0": {
    "url": "https://en.wikipedia.org/wiki/General_Staff_of_the_Armed_Forces_of_the_Republic_of_Hungary",
    "title": "General Staff of the Armed Forces of the Republic of Hungary",
    "header": [
      [
        "No",
        []
      ],
      [
        "Chief of the General Staff",
        []
      ],
      [
        "Took office",
        []
      ],
      [
        "Left office",
        []
      ],
      [
        "Time in office",
        []
      ]
    ],
    "data": [
      [
        [
          "1",
          []
        ],
        [
          "Lorx , Viktor Lieutenant General Viktor Lorx [ hu ] ( 1873-1922 )",
          []
        ],
        [
          "4 January 1922",
          []
        ],
        [
          "29 June 1922 \u2020",
          []
        ],
        [
          "176 days",
          []
        ]
      ],
      [
        [
          "2",
          []
        ],
        [
          "Janky , Kocs\u00e1rd Cavalry General Kocs\u00e1rd Janky ( 1868-1954 )",
          [
            "/wiki/Kocs\u00e1rd_Janky"
          ]
        ],
        [
          "25 October 1922",
          []
        ],
        [
          "26 May 1930",
          []
        ],
        [
          "7 years , 331 days",
          []
        ]
      ],
      [
        [
          "3",
          []
        ],
        [
          "R\u0151der , Vilmos Infantry General Vilmos R\u0151der ( 1881-1969 )",
          [
            "/wiki/Vilmos_R\u0151der"
          ]
        ],
        [
          "26 May 1930",
          []
        ],
        [
          "16 January 1935",
          []
        ],
        [
          "4 years , 235 days",
          []
        ]
      ],
      [
        [
          "4",
          []
        ],
        [
          "Somkuthy , J\u00f3zsef Infantry General J\u00f3zsef Somkuthy ( 1883-1961 )",
          [
            "/wiki/J\u00f3zsef_Somkuthy"
          ]
        ],
        [
          "16 January 1935",
          []
        ],
        [
          "5 September 1936",
          []
        ],
        [
          "1 year , 233 days",
          []
        ]
      ],
      [
        [
          "5",
          []
        ],
        [
          "R\u00e1tz , Jen\u0151 Lieutenant General Jen\u0151 R\u00e1tz ( 1882-1949 )",
          [
            "/wiki/Jen\u0151_R\u00e1tz"
          ]
        ],
        [
          "5 September 1936",
          []
        ],
        [
          "24 May 1938",
          []
        ],
        [
          "1 year , 261 days",
          []
        ]
      ],
      [
        [
          "6",
          []
        ],
        [
          "Keresztes-Fischer , Lajos Lieutenant General Lajos Keresztes-Fischer ( 1884-1948 )",
          [
            "/wiki/Lajos_Keresztes-Fischer"
          ]
        ],
        [
          "24 May 1938",
          []
        ],
        [
          "29 September 1938",
          []
        ],
        [
          "128 days",
          []
        ]
      ],
      [
        [
          "7",
          []
        ],
        [
          "Werth , Henrik General Henrik Werth ( 1881-1952 )",
          [
            "/wiki/Henrik_Werth"
          ]
        ],
        [
          "29 September 1938",
          []
        ],
        [
          "4 September 1941",
          []
        ],
        [
          "2 years , 340 days",
          []
        ]
      ],
      [
        [
          "8",
          []
        ],
        [
          "Szombathelyi , Ferenc Colonel General Ferenc Szombathelyi ( 1887-1946 )",
          [
            "/wiki/Ferenc_Szombathelyi"
          ]
        ],
        [
          "4 September 1941",
          []
        ],
        [
          "19 April 1944",
          []
        ],
        [
          "2 years , 228 days",
          []
        ]
      ],
      [
        [
          "9",
          []
        ],
        [
          "V\u00f6r\u00f6s , J\u00e1nos Colonel General J\u00e1nos V\u00f6r\u00f6s ( 1891-1968 )",
          [
            "/wiki/J\u00e1nos_V\u00f6r\u00f6s"
          ]
        ],
        [
          "10 May 1944",
          []
        ],
        [
          "16 October 1944",
          []
        ],
        [
          "159 days",
          []
        ]
      ],
      [
        [
          "10",
          []
        ],
        [
          "Beregfy , K\u00e1roly Colonel General K\u00e1roly Beregfy ( 1888-1946 )",
          [
            "/wiki/K\u00e1roly_Beregfy"
          ]
        ],
        [
          "16 October 1944",
          []
        ],
        [
          "30 April 1945",
          []
        ],
        [
          "196 days",
          []
        ]
      ]
    ],
    "section_title": "Chief of General Staff -- Royal Hungarian Army ( 1922\u22121945 )",
    "section_text": "",
    "uid": "General_Staff_of_the_Armed_Forces_of_the_Republic_of_Hungary_0",
    "intro": "General Staff of the Armed Forces of Hungary () is a joint body organised within the Ministry of Defence. It is responsible for development, organisation, and equipping, training and functioning of the first strategic echelon (stand-by forces) and the other strategic echelon (reserve). The General Staff coordinates the tasks of the armed forces of the Republic of Hungary, develops recommendations for the planning, organisation and supervision of the Ministrys military duties, and for the development of combat capability. Since 2007, the Hungarian Defence Forces is under a unified command structure. The Ministry of Defence maintains the political and civilian control of the military. The military leadership is exercised by the Defence Staff of the Ministry of Defence. A subordinate Joint Forces Command is coordinating and commanding the HDF corps."
  },
  "List_of_champions_of_the_African_Championships_in_Athletics_5": {
    "url": "https://en.wikipedia.org/wiki/List_of_champions_of_the_African_Championships_in_Athletics",
    "title": "List of champions of the African Championships in Athletics",
    "header": [
      [
        "Year",
        []
      ],
      [
        "Athlete",
        []
      ],
      [
        "Country",
        []
      ]
    ],
    "data": [
      [
        [
          "1979",
          []
        ],
        [
          "Mike Boit",
          [
            "/wiki/Mike_Boit"
          ]
        ],
        [
          "Kenya",
          [
            "/wiki/Kenya"
          ]
        ]
      ],
      [
        [
          "1982",
          []
        ],
        [
          "Kip Cheruiyot",
          [
            "/wiki/Kipkoech_Cheruiyot"
          ]
        ],
        [
          "Kenya",
          [
            "/wiki/Kenya"
          ]
        ]
      ],
      [
        [
          "1984",
          []
        ],
        [
          "Sa\u00efd Aouita",
          [
            "/wiki/Sa\u00efd_Aouita"
          ]
        ],
        [
          "Morocco",
          [
            "/wiki/Morocco"
          ]
        ]
      ],
      [
        [
          "1985",
          []
        ],
        [
          "Omer Khalifa",
          [
            "/wiki/Omer_Khalifa"
          ]
        ],
        [
          "Sudan",
          [
            "/wiki/Sudan"
          ]
        ]
      ],
      [
        [
          "1988",
          []
        ],
        [
          "Getahun Ayana",
          []
        ],
        [
          "Ethiopia",
          [
            "/wiki/Ethiopia"
          ]
        ]
      ],
      [
        [
          "1989",
          []
        ],
        [
          "Joseph Chesire",
          [
            "/wiki/Joseph_Chesire"
          ]
        ],
        [
          "Kenya",
          [
            "/wiki/Kenya"
          ]
        ]
      ],
      [
        [
          "1990",
          []
        ],
        [
          "Moses Kiptanui",
          [
            "/wiki/Moses_Kiptanui"
          ]
        ],
        [
          "Kenya",
          [
            "/wiki/Kenya"
          ]
        ]
      ],
      [
        [
          "1992",
          []
        ],
        [
          "Nelson Chirchir",
          []
        ],
        [
          "Kenya",
          [
            "/wiki/Kenya"
          ]
        ]
      ],
      [
        [
          "1993",
          []
        ],
        [
          "David Kibet",
          [
            "/wiki/David_Kibet"
          ]
        ],
        [
          "Kenya",
          [
            "/wiki/Kenya"
          ]
        ]
      ],
      [
        [
          "1996",
          []
        ],
        [
          "Moses Kigen",
          []
        ],
        [
          "Kenya",
          [
            "/wiki/Kenya"
          ]
        ]
      ],
      [
        [
          "1998",
          []
        ],
        [
          "Laban Rotich",
          [
            "/wiki/Laban_Rotich"
          ]
        ],
        [
          "Kenya",
          [
            "/wiki/Kenya"
          ]
        ]
      ],
      [
        [
          "2000",
          []
        ],
        [
          "Youssef Baba",
          [
            "/wiki/Youssef_Baba"
          ]
        ],
        [
          "Morocco",
          [
            "/wiki/Morocco"
          ]
        ]
      ],
      [
        [
          "2002",
          []
        ],
        [
          "Bernard Lagat",
          [
            "/wiki/Bernard_Lagat"
          ]
        ],
        [
          "Kenya",
          [
            "/wiki/Kenya"
          ]
        ]
      ],
      [
        [
          "2004",
          []
        ],
        [
          "Paul Korir",
          [
            "/wiki/Paul_Korir"
          ]
        ],
        [
          "Kenya",
          [
            "/wiki/Kenya"
          ]
        ]
      ],
      [
        [
          "2006",
          []
        ],
        [
          "Alex Kipchirchir",
          [
            "/wiki/Alex_Kipchirchir"
          ]
        ],
        [
          "Kenya",
          [
            "/wiki/Kenya"
          ]
        ]
      ],
      [
        [
          "2008",
          []
        ],
        [
          "Haron Keitany",
          [
            "/wiki/Haron_Keitany"
          ]
        ],
        [
          "Kenya",
          [
            "/wiki/Kenya"
          ]
        ]
      ],
      [
        [
          "2010",
          []
        ],
        [
          "Asbel Kiprop",
          [
            "/wiki/Asbel_Kiprop"
          ]
        ],
        [
          "Kenya",
          [
            "/wiki/Kenya"
          ]
        ]
      ],
      [
        [
          "2012",
          []
        ],
        [
          "Caleb Mwangangi Ndiku",
          [
            "/wiki/Caleb_Ndiku"
          ]
        ],
        [
          "Kenya",
          [
            "/wiki/Kenya"
          ]
        ]
      ]
    ],
    "section_title": "Men -- 1500 m",
    "section_text": "",
    "uid": "List_of_champions_of_the_African_Championships_in_Athletics_5",
    "intro": "This is a list of champions, or event winners, of the African Championships in Athletics, a biennial athletics competition organized by the Confederation of African Athletics since 1979."
  },
  "United_States_District_Court_for_the_District_of_New_Jersey_2": {
    "url": "https://en.wikipedia.org/wiki/United_States_District_Court_for_the_District_of_New_Jersey",
    "title": "United States District Court for the District of New Jersey",
    "header": [
      [
        "Seat",
        []
      ],
      [
        "Prior Judge 's Duty Station",
        []
      ],
      [
        "Seat last held by",
        []
      ],
      [
        "Vacancy reason",
        []
      ],
      [
        "Date of vacancy",
        []
      ],
      [
        "Nominee",
        []
      ],
      [
        "Date of nomination",
        []
      ]
    ],
    "data": [
      [
        [
          "7",
          []
        ],
        [
          "Newark",
          [
            "/wiki/Newark,_New_Jersey"
          ]
        ],
        [
          "William J. Martini",
          [
            "/wiki/William_J._Martini"
          ]
        ],
        [
          "Senior Status",
          [
            "/wiki/Senior_status"
          ]
        ],
        [
          "February 10 , 2015",
          []
        ],
        [
          "-",
          []
        ],
        [
          "-",
          []
        ]
      ],
      [
        [
          "13",
          []
        ],
        [
          "Newark",
          [
            "/wiki/Newark,_New_Jersey"
          ]
        ],
        [
          "Faith S. Hochberg",
          [
            "/wiki/Faith_S._Hochberg"
          ]
        ],
        [
          "Retirement",
          []
        ],
        [
          "March 6 , 2015",
          []
        ],
        [
          "-",
          []
        ],
        [
          "-",
          []
        ]
      ],
      [
        [
          "18",
          []
        ],
        [
          "Camden",
          [
            "/wiki/Camden,_New_Jersey"
          ]
        ],
        [
          "Jerome B. Simandle",
          [
            "/wiki/Jerome_B._Simandle"
          ]
        ],
        [
          "Senior Status",
          [
            "/wiki/Senior_status"
          ]
        ],
        [
          "May 31 , 2017",
          []
        ],
        [
          "-",
          []
        ],
        [
          "-",
          []
        ]
      ],
      [
        [
          "11",
          []
        ],
        [
          "Trenton",
          [
            "/wiki/Trenton,_New_Jersey"
          ]
        ],
        [
          "Peter G. Sheridan",
          [
            "/wiki/Peter_G._Sheridan"
          ]
        ],
        [
          "Senior Status",
          [
            "/wiki/Senior_status"
          ]
        ],
        [
          "June 14 , 2018",
          []
        ],
        [
          "-",
          []
        ],
        [
          "-",
          []
        ]
      ],
      [
        [
          "17",
          []
        ],
        [
          "Camden",
          [
            "/wiki/Camden,_New_Jersey"
          ]
        ],
        [
          "Robert B. Kugler",
          [
            "/wiki/Robert_B._Kugler"
          ]
        ],
        [
          "Senior Status",
          [
            "/wiki/Senior_status"
          ]
        ],
        [
          "November 2 , 2018",
          []
        ],
        [
          "-",
          []
        ],
        [
          "-",
          []
        ]
      ],
      [
        [
          "10",
          []
        ],
        [
          "Newark",
          [
            "/wiki/Newark,_New_Jersey"
          ]
        ],
        [
          "Jose L. Linares",
          [
            "/wiki/Jose_L._Linares"
          ]
        ],
        [
          "Retirement",
          []
        ],
        [
          "May 16 , 2019",
          []
        ],
        [
          "-",
          []
        ],
        [
          "-",
          []
        ]
      ]
    ],
    "section_title": "Vacancies and pending nominations",
    "section_text": "",
    "uid": "United_States_District_Court_for_the_District_of_New_Jersey_2",
    "intro": "The United States District Court for the District of New Jersey (in case citations, D.N.J.) is a federal court in the Third Circuit (except for patent claims and claims against the U.S. government under the Tucker Act, which are appealed to the Federal Circuit). The Judiciary Act of 1789 established New Jersey as a single District on September 24, 1789. On February 13, 1801 the Judiciary Act of 1801 reorganized the federal court system, resulting in the state being divided into Eastern and Western districts. The Judiciary Act of 1801 was repealed on March 8, 1802 and New Jersey was re-established as a single district court. The United States Attorney's Office for the District of New Jersey represents the United States in civil and criminal litigation in the court. Craig Carpenito is the United States Attorney for the District of New Jersey. On January 5, 2018, Carpenito was appointed U.S. Attorney pursuant to 28 U.S.C. \u00a7 546 by US Attorney General Jeff Sessions. On April 27, 2018, the judges of the United States District Court for the District of New Jersey unanimously appointed Carpenito U.S. Attorney pursuant to its statutory powers."
  },
  "Alpine_skiing_at_the_1988_Winter_Paralympics_-_Men's_slalom_LW4_0": {
    "url": "https://en.wikipedia.org/wiki/Alpine_skiing_at_the_1988_Winter_Paralympics_-_Men's_slalom_LW4",
    "title": "Alpine skiing at the 1988 Winter Paralympics - Men's slalom LW4",
    "header": [
      [
        "Rank",
        []
      ],
      [
        "Athlete",
        []
      ],
      [
        "Time",
        []
      ]
    ],
    "data": [
      [
        [
          "1",
          []
        ],
        [
          "Paul Fournier ( SUI )",
          [
            "/wiki/Switzerland_at_the_1988_Winter_Paralympics"
          ]
        ],
        [
          "1:16.42",
          []
        ]
      ],
      [
        [
          "2",
          []
        ],
        [
          "Patrick Cooper ( NZL )",
          [
            "/wiki/Patrick_Cooper",
            "/wiki/New_Zealand_at_the_1988_Winter_Paralympics"
          ]
        ],
        [
          "1:18.23",
          []
        ]
      ],
      [
        [
          "3",
          []
        ],
        [
          "Rik Heid ( USA )",
          [
            "/wiki/Rik_Heid",
            "/wiki/United_States_at_the_1988_Winter_Paralympics"
          ]
        ],
        [
          "1:20.32",
          []
        ]
      ],
      [
        [
          "4",
          []
        ],
        [
          "Herbert Speiser ( FRG )",
          []
        ],
        [
          "1:21.12",
          []
        ]
      ],
      [
        [
          "5",
          []
        ],
        [
          "Jim Tulberg ( USA )",
          [
            "/wiki/United_States_at_the_1988_Winter_Paralympics"
          ]
        ],
        [
          "1:21.88",
          []
        ]
      ],
      [
        [
          "6",
          []
        ],
        [
          "Ryan Seibel ( CAN )",
          [
            "/wiki/Canada_at_the_1988_Winter_Paralympics"
          ]
        ],
        [
          "1:24.65",
          []
        ]
      ],
      [
        [
          "7",
          []
        ],
        [
          "Yoshimi Harada ( JPN )",
          [
            "/wiki/Japan_at_the_1988_Winter_Paralympics"
          ]
        ],
        [
          "1:36.93",
          []
        ]
      ],
      [
        [
          "8",
          []
        ],
        [
          "Al Heaver ( CAN )",
          [
            "/wiki/Canada_at_the_1988_Winter_Paralympics"
          ]
        ],
        [
          "1:39.96",
          []
        ]
      ],
      [
        [
          "9",
          []
        ],
        [
          "Markus Ramsauer ( AUT )",
          [
            "/wiki/Austria_at_the_1988_Winter_Paralympics"
          ]
        ],
        [
          "1:40.02",
          []
        ]
      ],
      [
        [
          "10",
          []
        ],
        [
          "Hans Burn ( SUI )",
          [
            "/wiki/Hans_Burn",
            "/wiki/Switzerland_at_the_1988_Winter_Paralympics"
          ]
        ],
        [
          "1:50.56",
          []
        ]
      ],
      [
        [
          "11",
          []
        ],
        [
          "Alessandro Malagnini ( ITA )",
          [
            "/wiki/Italy_at_the_1988_Winter_Paralympics"
          ]
        ],
        [
          "1:55.38",
          []
        ]
      ],
      [
        [
          "12",
          []
        ],
        [
          "Roberto Bondurri ( ITA )",
          [
            "/wiki/Italy_at_the_1988_Winter_Paralympics"
          ]
        ],
        [
          "2:00.12",
          []
        ]
      ],
      [
        [
          "13",
          []
        ],
        [
          "Javier Pascual ( ESP )",
          [
            "/wiki/Spain_at_the_1988_Winter_Paralympics"
          ]
        ],
        [
          "2:08.39",
          []
        ]
      ],
      [
        [
          "14",
          []
        ],
        [
          "Livio Morosi ( ITA )",
          [
            "/wiki/Italy_at_the_1988_Winter_Paralympics"
          ]
        ],
        [
          "DNS",
          []
        ]
      ],
      [
        [
          "15",
          []
        ],
        [
          "Kyrra Grunnsund ( AUS )",
          [
            "/wiki/Kyrra_Grunnsund",
            "/wiki/Australia_at_the_1988_Winter_Paralympics"
          ]
        ],
        [
          "DNF",
          []
        ]
      ],
      [
        [
          "16",
          []
        ],
        [
          "Ewald Vogl ( FRG )",
          []
        ],
        [
          "DNF",
          []
        ]
      ],
      [
        [
          "17",
          []
        ],
        [
          "Ove Joergensen ( NOR )",
          [
            "/wiki/Norway_at_the_1988_Winter_Paralympics"
          ]
        ],
        [
          "DNF",
          []
        ]
      ],
      [
        [
          "18",
          []
        ],
        [
          "Knut Krems ( AUT )",
          [
            "/wiki/Austria_at_the_1988_Winter_Paralympics"
          ]
        ],
        [
          "DNF",
          []
        ]
      ],
      [
        [
          "19",
          []
        ],
        [
          "Josef Meusberger ( AUT )",
          [
            "/wiki/Austria_at_the_1988_Winter_Paralympics"
          ]
        ],
        [
          "DSQ",
          []
        ]
      ],
      [
        [
          "20",
          []
        ],
        [
          "Bill Hovanic ( USA )",
          [
            "/wiki/United_States_at_the_1988_Winter_Paralympics"
          ]
        ],
        [
          "DSQ",
          []
        ]
      ]
    ],
    "section_title": "Results -- Final",
    "section_text": "",
    "uid": "Alpine_skiing_at_the_1988_Winter_Paralympics_-_Men's_slalom_LW4_0",
    "intro": "The Men's Slalom LW4 was one of the events held in Alpine skiing at the 1988 Winter Paralympics in Innsbruck. There were 20 competitors in the final. Switzerland's Paul Fournier set a time of 1:16.42, taking the gold medal."
  },
  "List_of_cities_and_towns_in_the_South_Island_by_population_6": {
    "url": "https://en.wikipedia.org/wiki/List_of_cities_and_towns_in_the_South_Island_by_population",
    "title": "List of cities and towns in the South Island by population",
    "header": [
      [
        "Suburb",
        []
      ],
      [
        "Population",
        []
      ],
      [
        "Region",
        []
      ],
      [
        "Territorial Authority",
        []
      ]
    ],
    "data": [
      [
        [
          "Stoke",
          [
            "/wiki/Stoke,_New_Zealand"
          ]
        ],
        [
          "~7,000",
          []
        ],
        [
          "Nelson",
          [
            "/wiki/Nelson,_New_Zealand"
          ]
        ],
        [
          "Nelson City Council",
          [
            "/wiki/Nelson_City_Council"
          ]
        ]
      ],
      [
        [
          "The Wood",
          [
            "/wiki/The_Wood,_New_Zealand"
          ]
        ],
        [
          "2,730",
          []
        ],
        [
          "Nelson",
          [
            "/wiki/Nelson,_New_Zealand"
          ]
        ],
        [
          "Nelson City Council",
          [
            "/wiki/Nelson_City_Council"
          ]
        ]
      ],
      [
        [
          "Maitlands",
          [
            "/wiki/Maitlands"
          ]
        ],
        [
          "2,412",
          []
        ],
        [
          "Nelson",
          [
            "/wiki/Nelson,_New_Zealand"
          ]
        ],
        [
          "Nelson City Council",
          [
            "/wiki/Nelson_City_Council"
          ]
        ]
      ],
      [
        [
          "Atawhai",
          [
            "/wiki/Atawhai"
          ]
        ],
        [
          "2,154",
          []
        ],
        [
          "Nelson",
          [
            "/wiki/Nelson,_New_Zealand"
          ]
        ],
        [
          "Nelson City Council",
          [
            "/wiki/Nelson_City_Council"
          ]
        ]
      ],
      [
        [
          "T\u0101hunanui",
          [
            "/wiki/T\u0101hunanui"
          ]
        ],
        [
          "~2,000",
          []
        ],
        [
          "Nelson",
          [
            "/wiki/Nelson,_New_Zealand"
          ]
        ],
        [
          "Nelson City Council",
          [
            "/wiki/Nelson_City_Council"
          ]
        ]
      ],
      [
        [
          "Annesbrook",
          [
            "/wiki/Annesbrook"
          ]
        ],
        [
          "",
          []
        ],
        [
          "Nelson",
          [
            "/wiki/Nelson,_New_Zealand"
          ]
        ],
        [
          "Nelson City Council",
          [
            "/wiki/Nelson_City_Council"
          ]
        ]
      ],
      [
        [
          "Britannia Heights",
          [
            "/wiki/Britannia_Heights"
          ]
        ],
        [
          "",
          []
        ],
        [
          "Nelson",
          [
            "/wiki/Nelson,_New_Zealand"
          ]
        ],
        [
          "Nelson City Council",
          [
            "/wiki/Nelson_City_Council"
          ]
        ]
      ],
      [
        [
          "Nelson South",
          [
            "/wiki/Nelson_South"
          ]
        ],
        [
          "",
          []
        ],
        [
          "Nelson",
          [
            "/wiki/Nelson,_New_Zealand"
          ]
        ],
        [
          "Nelson City Council",
          [
            "/wiki/Nelson_City_Council"
          ]
        ]
      ],
      [
        [
          "Washington Valley",
          [
            "/wiki/Washington_Valley,_New_Zealand"
          ]
        ],
        [
          "",
          []
        ],
        [
          "Nelson",
          [
            "/wiki/Nelson,_New_Zealand"
          ]
        ],
        [
          "Nelson City Council",
          [
            "/wiki/Nelson_City_Council"
          ]
        ]
      ]
    ],
    "section_title": "Major Suburbs -- Nelson",
    "section_text": "",
    "uid": "List_of_cities_and_towns_in_the_South_Island_by_population_6",
    "intro": "This is a list of cities and towns in the South Island of New Zealand by the size of their urban area. The populations given in the table below are provisional New Zealand usually resident populations, June 2018 estimates, and refer to the urban area defined under the Statistical Standard for Geographic Areas 2018 (SSGA) unless otherwise stated."
  },
  "Owned-and-operated_television_stations_in_the_United_States_4": {
    "url": "https://en.wikipedia.org/wiki/Owned-and-operated_television_stations_in_the_United_States",
    "title": "Owned-and-operated television stations in the United States",
    "header": [
      [
        "City of license/Market",
        []
      ],
      [
        "Station",
        []
      ],
      [
        "Owned since",
        []
      ]
    ],
    "data": [
      [
        [
          "Chicago , Illinois",
          [
            "/wiki/Chicago"
          ]
        ],
        [
          "WESV-LD 40",
          [
            "/wiki/WESV-LD"
          ]
        ],
        [
          "2010",
          []
        ]
      ],
      [
        [
          "Dallas - Fort Worth , Texas",
          [
            "/wiki/Dallas",
            "/wiki/Fort_Worth,_Texas"
          ]
        ],
        [
          "KMPX 29",
          [
            "/wiki/KMPX"
          ]
        ],
        [
          "2009",
          []
        ]
      ],
      [
        [
          "Denver , Colorado",
          [
            "/wiki/Denver"
          ]
        ],
        [
          "KETD 53",
          [
            "/wiki/KETD"
          ]
        ],
        [
          "2010",
          []
        ]
      ],
      [
        [
          "Houston , Texas",
          [
            "/wiki/Houston"
          ]
        ],
        [
          "KZJL 61",
          [
            "/wiki/KZJL"
          ]
        ],
        [
          "2009",
          []
        ]
      ],
      [
        [
          "Key West - Miami - Fort Lauderdale , Florida",
          [
            "/wiki/Key_West",
            "/wiki/Miami",
            "/wiki/Fort_Lauderdale,_Florida"
          ]
        ],
        [
          "WGEN-TV 8",
          [
            "/wiki/WGEN-TV"
          ]
        ],
        [
          "2018",
          []
        ]
      ],
      [
        [
          "Los Angeles , California",
          [
            "/wiki/Los_Angeles"
          ]
        ],
        [
          "KRCA 62",
          [
            "/wiki/KRCA"
          ]
        ],
        [
          "2009",
          []
        ]
      ],
      [
        [
          "Phoenix , Arizona",
          [
            "/wiki/Phoenix,_Arizona"
          ]
        ],
        [
          "KVPA-LD 42",
          [
            "/wiki/KVPA-LD"
          ]
        ],
        [
          "2009",
          []
        ]
      ],
      [
        [
          "Port Jervis - New York City , New York",
          [
            "/wiki/Port_Jervis,_New_York",
            "/wiki/New_York_City"
          ]
        ],
        [
          "WASA-LD 24",
          [
            "/wiki/WASA-LD"
          ]
        ],
        [
          "2012",
          []
        ]
      ],
      [
        [
          "Salt Lake City , Utah",
          [
            "/wiki/Salt_Lake_City"
          ]
        ],
        [
          "KPNZ 24",
          [
            "/wiki/KPNZ"
          ]
        ],
        [
          "2009",
          []
        ]
      ],
      [
        [
          "San Diego , California",
          [
            "/wiki/San_Diego"
          ]
        ],
        [
          "KSDX-LD 29",
          [
            "/wiki/KSDX-LD"
          ]
        ],
        [
          "2009",
          []
        ]
      ]
    ],
    "section_title": "O & O stations of U.S. broadcast television networks -- Estrella TV",
    "section_text": "",
    "uid": "Owned-and-operated_television_stations_in_the_United_States_4",
    "intro": "In the United States, owned-and-operated television stations (frequently abbreviated as O&Os) constitute only a portion of their parent television networks' station bodies, due to ownership limits imposed by the Federal Communications Commission (FCC). Currently, the total number of television stations owned by any company (including a television network) can only reach a maximum of 39% of the country; in the past, the ownership limit was much lower, and was determined by a specific number of television stations rather than basing the limits on total market coverage."
  },
  "List_of_musical_instruments_by_Hornbostel-Sachs_number:_322.11_0": {
    "url": "https://en.wikipedia.org/wiki/List_of_musical_instruments_by_Hornbostel\u2013Sachs_number:_322.11",
    "title": "List of musical instruments by Hornbostel\u2013Sachs number: 322.11",
    "header": [
      [
        "Instrument",
        []
      ],
      [
        "Tradition",
        []
      ],
      [
        "Hornbostel-Sachs classification",
        []
      ],
      [
        "Description",
        []
      ]
    ],
    "data": [
      [
        [
          "adeudeu",
          []
        ],
        [
          "Kenya",
          [
            "/wiki/Music_of_Kenya"
          ]
        ],
        [
          "322.11",
          []
        ],
        [
          "Arched harp",
          []
        ]
      ],
      [
        [
          "enanga",
          [
            "/wiki/Inanga_(instrument)"
          ]
        ],
        [
          "Uganda",
          [
            "/wiki/Music_of_Uganda"
          ]
        ],
        [
          "322.11",
          []
        ],
        [
          "Arched harp",
          []
        ]
      ],
      [
        [
          "Kafir Harp",
          [
            "/wiki/Kafir_harp"
          ]
        ],
        [
          "Music of northern Afghanistan , Nuristan Province",
          []
        ],
        [
          "322.11",
          []
        ],
        [
          "Arched harp",
          []
        ]
      ],
      [
        [
          "ladle harp",
          []
        ],
        [
          "Ancient Egypt",
          []
        ],
        [
          "322.11",
          []
        ],
        [
          "Ladle-shaped arched harp",
          []
        ]
      ],
      [
        [
          "Pagan harp",
          []
        ],
        [
          "Pagan Kingdom",
          [
            "/wiki/Pagan_Kingdom"
          ]
        ],
        [
          "322.11",
          []
        ],
        [
          "Arched harp with a thick and blunt neck , only slightly curved",
          []
        ]
      ],
      [
        [
          "Pardhan harp kidim-baja , gudum-baja ( both derogatory ) , bin-baja",
          []
        ],
        [
          "Pardhan of India",
          [
            "/wiki/Pardhan_language"
          ]
        ],
        [
          "322.11",
          []
        ],
        [
          "Arched harp made from a single stick , with five strings , played with a plectrum and attached to a sawtooth-shaped carrier , with one soundhole and a waisted body",
          []
        ]
      ],
      [
        [
          "Pyu harp",
          []
        ],
        [
          "Pyu city-states",
          [
            "/wiki/Pyu_city-states"
          ]
        ],
        [
          "322.11",
          []
        ],
        [
          "Fourteen-stringed arched harp with an outward curving neck and a bird or phoenix carved on the apex",
          [
            "/wiki/Phoenix_(mythology)"
          ]
        ]
      ],
      [
        [
          "saung-gauk",
          [
            "/wiki/Saung"
          ]
        ],
        [
          "Myanmar",
          [
            "/wiki/Music_of_Myanmar"
          ]
        ],
        [
          "322.11",
          []
        ],
        [
          "Arched harp with a curving neck and large soundholes , made from two sticks",
          []
        ]
      ],
      [
        [
          "shoulder harp",
          []
        ],
        [
          "Ancient Egypt",
          []
        ],
        [
          "322.11",
          []
        ],
        [
          "Arched harp with a boat-shaped hollow body surrounded by a skin membrane , with ten soundholes and traversed and punctured by one or two sticks to which the string is attached ;",
          []
        ]
      ],
      [
        [
          "shovel harp",
          []
        ],
        [
          "Ancient Egypt",
          []
        ],
        [
          "322.11",
          []
        ],
        [
          "Shovel-shaped arched harp",
          []
        ]
      ],
      [
        [
          "vina",
          [
            "/wiki/Ancient_veena"
          ]
        ],
        [
          "Ancient India",
          [
            "/wiki/Music_of_India"
          ]
        ],
        [
          "322.11",
          []
        ],
        [
          "Arched harp ( vina now refers to a stick zither , 311.222 )",
          [
            "/wiki/List_of_musical_instruments_by_Hornbostel\u2013Sachs_number:_311.222"
          ]
        ]
      ]
    ],
    "section_title": "List",
    "section_text": "",
    "uid": "List_of_musical_instruments_by_Hornbostel-Sachs_number:_322.11_0",
    "intro": "This is a list of instruments by Hornbostel-Sachs number, covering those instruments that are classified under 322.11 under that system. These instruments may be known as arched harps. These are instruments in which one or more strings produce sound by vibrating, and where the string carrier and resonator are physically united, with strings at right angles to the sound table, no pillar and a neck that curves away from the resonator. The arched harp is probably an evolution of the musical bow, distinguished by the addition of strings and the fusion of the string holder and the soundbox. Arched harps are found in Southeast Asia, East Africa, and elsewhere, and are historically strongly associated with Ancient Egypt and India. Two categories of arched harps exist, though are not distinguished in the Hornbostel-Sachs system: those in which only one stick constitutes both the neck and the string holder of the instrument and those in which two separate sticks are used. The oldest harps of Egypt used the one stick construction, but this later changed to two sticks, which is now also used in the Burmese saung gauk and many other forms. The arched harp saung gauk is seen as a national instrument of Myanmar, and its history there dates back centuries. In the music of India, arched harps are strongly associated with Buddhism, and are frequently depicted in images of Buddhist deities and were formerly played in the royal courts of Buddhist dynasties. The arched harp receded in prominence in India after the rise of Hinduism in that country, and the instrument's modern presence in India is apparently limited to the Pardhan people of Madhya Pradesh. The arched harps of Egypt, sub-Saharan Africa and Myanmar share a few features, including a stick to which each string is attached at one end and a piece of skin with a cavity underneath it, attached to the stick. However, it can not be conclusively determined that these instruments are related to each other."
  },
  "List_of_Deputy_Speakers_of_the_National_Assembly_of_Hungary_8": {
    "url": "https://en.wikipedia.org/wiki/List_of_Deputy_Speakers_of_the_National_Assembly_of_Hungary",
    "title": "List of Deputy Speakers of the National Assembly of Hungary",
    "header": [
      [
        "Name",
        []
      ],
      [
        "Period",
        []
      ],
      [
        "Party",
        []
      ]
    ],
    "data": [
      [
        [
          "Istv\u00e1n Jakab",
          [
            "/wiki/Istv\u00e1n_Jakab"
          ]
        ],
        [
          "May 8 , 2018 - Present",
          []
        ],
        [
          "Fidesz",
          [
            "/wiki/Fidesz"
          ]
        ]
      ],
      [
        [
          "S\u00e1ndor Lezs\u00e1k",
          [
            "/wiki/S\u00e1ndor_Lezs\u00e1k"
          ]
        ],
        [
          "May 8 , 2018 - Present",
          []
        ],
        [
          "Fidesz",
          [
            "/wiki/Fidesz"
          ]
        ]
      ],
      [
        [
          "Tam\u00e1s Sneider",
          [
            "/wiki/Tam\u00e1s_Sneider"
          ]
        ],
        [
          "May 8 , 2018 - May 27 , 2020",
          []
        ],
        [
          "Jobbik",
          [
            "/wiki/Jobbik"
          ]
        ]
      ],
      [
        [
          "Koloman Brenner",
          []
        ],
        [
          "July 3 , 2020 - Present",
          []
        ],
        [
          "Jobbik",
          [
            "/wiki/Jobbik"
          ]
        ]
      ],
      [
        [
          "J\u00e1nos Latorcai",
          [
            "/wiki/J\u00e1nos_Latorcai"
          ]
        ],
        [
          "May 8 , 2018 - Present",
          []
        ],
        [
          "KDNP",
          [
            "/wiki/Christian_Democratic_People's_Party_(Hungary)"
          ]
        ]
      ],
      [
        [
          "Istv\u00e1n Hiller",
          [
            "/wiki/Istv\u00e1n_Hiller"
          ]
        ],
        [
          "May 8 , 2018 - Present",
          []
        ],
        [
          "MSZP",
          [
            "/wiki/Hungarian_Socialist_Party"
          ]
        ]
      ]
    ],
    "section_title": "2018\u2013",
    "section_text": "",
    "uid": "List_of_Deputy_Speakers_of_the_National_Assembly_of_Hungary_8",
    "intro": "Deputy speakers of the National Assembly of Hungary"
  }
}