{
  "4th_Antiaircraft_Missile_Division_(People's_Republic_of_China)_0": {
    "url": "https://en.wikipedia.org/wiki/4th_Antiaircraft_Missile_Division_(People's_Republic_of_China)",
    "title": "4th Antiaircraft Missile Division (People's Republic of China)",
    "header": [
      [
        "Time",
        []
      ],
      [
        "Place",
        []
      ],
      [
        "SAM Unit",
        []
      ],
      [
        "SAM Type",
        []
      ],
      [
        "Victim",
        []
      ],
      [
        "Pilot ( s )",
        []
      ],
      [
        "Faction",
        []
      ],
      [
        "Unit",
        []
      ],
      [
        "Consequence",
        []
      ]
    ],
    "data": [
      [
        [
          "1959.10.7",
          []
        ],
        [
          "Tongzhou , Beijing",
          [
            "/wiki/Tongzhou_District,_Beijing"
          ]
        ],
        [
          "2nd Independent AAA Battalion",
          []
        ],
        [
          "SA-2",
          [
            "/wiki/S-75_Dvina"
          ]
        ],
        [
          "RB-57D 5643",
          [
            "/wiki/Martin_RB-57D_Canberra"
          ]
        ],
        [
          "Capt Ying-Chin Wang",
          []
        ],
        [
          "ROC Air Force",
          [
            "/wiki/Republic_of_China_Air_Force"
          ]
        ],
        [
          "4th Squadron",
          []
        ],
        [
          "Destroyed , pilot KIA",
          [
            "/wiki/Killed_in_action"
          ]
        ]
      ],
      [
        [
          "1962.9.9",
          []
        ],
        [
          "Nanchang , Jiangxi",
          [
            "/wiki/Nanchang"
          ]
        ],
        [
          "2nd Independent AAA Battalion",
          []
        ],
        [
          "SA-2",
          [
            "/wiki/S-75_Dvina"
          ]
        ],
        [
          "U-2C 178",
          [
            "/wiki/Lockheed_U-2"
          ]
        ],
        [
          "Lt.Col Huai-Sheng Chen",
          []
        ],
        [
          "ROC Air Force",
          [
            "/wiki/Republic_of_China_Air_Force"
          ]
        ],
        [
          "35th Squadron",
          [
            "/wiki/Black_Cat_Squadron"
          ]
        ],
        [
          "Destroyed , pilot KIA",
          [
            "/wiki/Killed_in_action"
          ]
        ]
      ],
      [
        [
          "1963.11.1",
          []
        ],
        [
          "Yingtan , Jiangxi",
          [
            "/wiki/Yingtan"
          ]
        ],
        [
          "2nd Independent AAA Battalion",
          []
        ],
        [
          "SA-2",
          [
            "/wiki/S-75_Dvina"
          ]
        ],
        [
          "U-2C 335",
          [
            "/wiki/Lockheed_U-2"
          ]
        ],
        [
          "Major Chang-Li Yeh",
          []
        ],
        [
          "ROC Air Force",
          [
            "/wiki/Republic_of_China_Air_Force"
          ]
        ],
        [
          "35th Squadron",
          [
            "/wiki/Black_Cat_Squadron"
          ]
        ],
        [
          "Destroyed , pilot POW",
          [
            "/wiki/Prisoner_of_war"
          ]
        ]
      ],
      [
        [
          "1964.7.7",
          []
        ],
        [
          "Chenghai , Fujian",
          [
            "/wiki/Chenghai_District"
          ]
        ],
        [
          "2nd Independent AAA Battalion",
          []
        ],
        [
          "SA-2",
          [
            "/wiki/S-75_Dvina"
          ]
        ],
        [
          "U-2G 362",
          [
            "/wiki/Lockheed_U-2"
          ]
        ],
        [
          "Lt.Col Nanping Lee",
          []
        ],
        [
          "ROC Air Force",
          [
            "/wiki/Republic_of_China_Air_Force"
          ]
        ],
        [
          "35th Squadron",
          [
            "/wiki/Black_Cat_Squadron"
          ]
        ],
        [
          "Destroyed , pilot KIA",
          [
            "/wiki/Killed_in_action"
          ]
        ]
      ],
      [
        [
          "1965.1.10",
          []
        ],
        [
          "Baotou , Inner Mongolia",
          [
            "/wiki/Baotou"
          ]
        ],
        [
          "1st Independent AAA Battalion",
          []
        ],
        [
          "SA-2",
          [
            "/wiki/S-75_Dvina"
          ]
        ],
        [
          "U-2C 358",
          [
            "/wiki/Lockheed_U-2"
          ]
        ],
        [
          "Major Liyi Chang",
          []
        ],
        [
          "ROC Air Force",
          [
            "/wiki/Republic_of_China_Air_Force"
          ]
        ],
        [
          "35th Squadron",
          [
            "/wiki/Black_Cat_Squadron"
          ]
        ],
        [
          "Destroyed , pilot POW",
          [
            "/wiki/Prisoner_of_war"
          ]
        ]
      ],
      [
        [
          "1967.9.17",
          []
        ],
        [
          "Dongxing , Guangxi",
          [
            "/wiki/Dongxing,_Guangxi"
          ]
        ],
        [
          "3rd Independent AAA Battalion",
          []
        ],
        [
          "SA-2",
          [
            "/wiki/S-75_Dvina"
          ]
        ],
        [
          "Ryan 147H/T",
          [
            "/wiki/Ryan_Model_147"
          ]
        ],
        [
          "W/O",
          []
        ],
        [
          "United States Air Force",
          [
            "/wiki/United_States_Air_Force"
          ]
        ],
        [
          "N/A",
          []
        ],
        [
          "Destroyed",
          []
        ]
      ],
      [
        [
          "1968.3.22",
          []
        ],
        [
          "Ningming , Guangxi",
          [
            "/wiki/Ningming_County"
          ]
        ],
        [
          "2nd Independent AAA Battalion",
          []
        ],
        [
          "SA-2",
          [
            "/wiki/S-75_Dvina"
          ]
        ],
        [
          "Ryan 147H/T",
          [
            "/wiki/Ryan_Model_147"
          ]
        ],
        [
          "W/O",
          []
        ],
        [
          "United States Air Force",
          [
            "/wiki/United_States_Air_Force"
          ]
        ],
        [
          "N/A",
          []
        ],
        [
          "Destroyed",
          []
        ]
      ],
      [
        [
          "1984.3.18",
          []
        ],
        [
          "Guangxi",
          [
            "/wiki/Guangxi"
          ]
        ],
        [
          "50th Battalion , 11th AA Missile Regiment",
          []
        ],
        [
          "HQ-2",
          [
            "/wiki/S-75_Dvina"
          ]
        ],
        [
          "MiG-21R",
          [
            "/wiki/Mikoyan-Gurevich_MiG-21"
          ]
        ],
        [
          "N/A",
          []
        ],
        [
          "Vietnam People 's Air Force",
          [
            "/wiki/Vietnam_People's_Air_Force"
          ]
        ],
        [
          "N/A",
          []
        ],
        [
          "Damaged",
          []
        ]
      ]
    ],
    "section_title": "Air defense victories",
    "section_text": "",
    "uid": "4th_Antiaircraft_Missile_Division_(People's_Republic_of_China)_0",
    "intro": "3rd Training Base of the Air Force() was a formation of the People's Liberation Army Air Force of People's Republic of China. It was activated in Daxing District, Beijing from Headquarters, 106th Anti-Aircraft Artillery Division and 1st Independent Anti-Aircraft Artillery Battalion which equipped with SA-2 Guideline missile. The training base was also attached by 2nd and 3rd Independent AAA Battalions, which also equipped with SA-2s. On March 1, 1964, the training base was reorganized into 4th Independent Anti-Aircraft Artillery Division of the Air Force (). The division was then composed of 1st, 2nd, 3rd, 4th and 5th independent AAA battalions, all equipped with SA-2. The division was subordinated to Air Force of Beijing Military Region. From April 7, 1965, to December 1967 the division was transferred to headquarters of PLAAF's control before it was returned to Air Force of Beijing MR.\nOn March 1, 1976, the division was renamed as 4th Anti-Aircraft Missile Division of the Air Force (). The division was then composed of 22nd, 23rd and 24th anti-aircraft missile regiments. On September 10, 1985, the division was reduced to 14th Anti-Aircraft Missile Brigade of the Air Force (). In 1994, the division was re-expanded to 4th Anti-Aircraft Missile Division of the Air Force ()."
  },
  "List_of_football_clubs_in_the_German_national_championship_19": {
    "url": "https://en.wikipedia.org/wiki/List_of_clubs_in_the_German_football_championship",
    "title": "List of clubs in the German football championship",
    "header": [
      [
        "Club",
        []
      ],
      [
        "Qualified",
        []
      ],
      [
        "Champions",
        []
      ],
      [
        "Runners-up",
        []
      ],
      [
        "Seasons",
        []
      ]
    ],
    "data": [
      [
        [
          "Warnsdorfer FK",
          [
            "/wiki/Warnsdorfer_FK"
          ]
        ],
        [
          "1",
          []
        ],
        [
          "0",
          []
        ],
        [
          "0",
          []
        ],
        [
          "1939",
          [
            "/wiki/1939_German_football_championship"
          ]
        ]
      ],
      [
        [
          "SG Warschau",
          []
        ],
        [
          "1",
          []
        ],
        [
          "0",
          []
        ],
        [
          "0",
          []
        ],
        [
          "1943",
          [
            "/wiki/1943_German_football_championship"
          ]
        ]
      ],
      [
        [
          "Admira Wien",
          [
            "/wiki/FC_Admira_Wacker_M\u00f6dling"
          ]
        ],
        [
          "1",
          []
        ],
        [
          "0",
          []
        ],
        [
          "1",
          []
        ],
        [
          "1939",
          [
            "/wiki/1939_German_football_championship"
          ]
        ]
      ],
      [
        [
          "First Vienna",
          [
            "/wiki/First_Vienna_FC"
          ]
        ],
        [
          "3",
          []
        ],
        [
          "0",
          []
        ],
        [
          "1",
          []
        ],
        [
          "1942 , 1943 , 1944",
          [
            "/wiki/1942_German_football_championship",
            "/wiki/1943_German_football_championship",
            "/wiki/1944_German_football_championship"
          ]
        ]
      ],
      [
        [
          "Rapid Wien",
          [
            "/wiki/SK_Rapid_Wien"
          ]
        ],
        [
          "2",
          []
        ],
        [
          "1",
          []
        ],
        [
          "0",
          []
        ],
        [
          "1940 , 1941",
          [
            "/wiki/1940_German_football_championship",
            "/wiki/1941_German_football_championship"
          ]
        ]
      ],
      [
        [
          "SV Wilhelmshaven",
          [
            "/wiki/SV_Wilhelmshaven"
          ]
        ],
        [
          "2",
          []
        ],
        [
          "0",
          []
        ],
        [
          "0",
          []
        ],
        [
          "1943 , 1944",
          [
            "/wiki/1943_German_football_championship",
            "/wiki/1944_German_football_championship"
          ]
        ]
      ],
      [
        [
          "Wormatia Worms",
          [
            "/wiki/Wormatia_Worms"
          ]
        ],
        [
          "5",
          []
        ],
        [
          "0",
          []
        ],
        [
          "0",
          []
        ],
        [
          "1936 , 1937 , 1939 , 1949 , 1955",
          [
            "/wiki/1936_German_football_championship",
            "/wiki/1937_German_football_championship",
            "/wiki/1939_German_football_championship",
            "/wiki/1949_German_football_championship",
            "/wiki/1955_German_football_championship"
          ]
        ]
      ]
    ],
    "section_title": "List -- W",
    "section_text": "",
    "uid": "List_of_football_clubs_in_the_German_national_championship_19",
    "intro": "This is a list of all clubs that have taken part in the German football championship from 1903 to 1963, in the era when the national championship was decided by a finals round with a national title game at the end. The German football championship was first held in 1903 and won by VfB Leipzig. In 1904, the championship was not completed due to a protest by Karlsruher FV about a technicality, with all games but the final played. The competition was held again in 1905 and, from then on, annually. The championship was interrupted by the World War I, and not held from 1915 to 1920, when football returned to more organised fashion after the disruptions caused by the war. In 1922, the final was inconclusive and Hamburger SV was declared champions but declined the honor. After this, a championship was held every season until 1944. With the expansion of Nazi Germany, clubs from occupied territories or annexed countries took part in the competition, including teams from Austria, France, Luxembourg, Poland, and Czechoslovakia."
  },
  "Atlantic_Coast_Conference_Men's_Basketball_Rookie_of_the_Year_1": {
    "url": "https://en.wikipedia.org/wiki/Atlantic_Coast_Conference_Men's_Basketball_Rookie_of_the_Year",
    "title": "Atlantic Coast Conference Men's Basketball Rookie of the Year",
    "header": [
      [
        "School ( year joined )",
        []
      ],
      [
        "Winners",
        []
      ],
      [
        "Years",
        []
      ]
    ],
    "data": [
      [
        [
          "Duke ( 1953 )",
          [
            "/wiki/Duke_Blue_Devils_men's_basketball"
          ]
        ],
        [
          "12",
          []
        ],
        [
          "1976 , 1977 , 1978 , 2001 , 2008 , 2012 , 2014 , 2015 , 2016 , 2018 , 2019 , 2020",
          []
        ]
      ],
      [
        [
          "Georgia Tech ( 1978 )",
          [
            "/wiki/Georgia_Tech_Yellow_Jackets_men's_basketball"
          ]
        ],
        [
          "11",
          []
        ],
        [
          "1983 , 1984 , 1985 , 1986 , 1988 , 1990 , 1993 , 1996 , 2002 , 2003 , 2010",
          []
        ]
      ],
      [
        [
          "North Carolina ( 1953 )",
          [
            "/wiki/North_Carolina_Tar_Heels_men's_basketball"
          ]
        ],
        [
          "9",
          []
        ],
        [
          "1981 , 1982 , 1987 , 1997 , 2000 , 2005 , 2006 , 2007 , 2011",
          []
        ]
      ],
      [
        [
          "Virginia ( 1953 )",
          [
            "/wiki/Virginia_Cavaliers_men's_basketball"
          ]
        ],
        [
          "4",
          []
        ],
        [
          "1980 , 1989 , 1999 , 2009",
          []
        ]
      ],
      [
        [
          "Wake Forest ( 1953 )",
          [
            "/wiki/Wake_Forest_Demon_Deacons_men's_basketball"
          ]
        ],
        [
          "3",
          []
        ],
        [
          "1991 , 1998 , 2004",
          []
        ]
      ],
      [
        [
          "NC State ( 1953 )",
          [
            "/wiki/NC_State_Wolfpack_men's_basketball"
          ]
        ],
        [
          "2",
          []
        ],
        [
          "1977 , 2017",
          []
        ]
      ],
      [
        [
          "Maryland ( 1953 )",
          [
            "/wiki/Maryland_Terrapins_men's_basketball"
          ]
        ],
        [
          "2",
          []
        ],
        [
          "1979 , 1994",
          []
        ]
      ],
      [
        [
          "Boston College ( 2005 )",
          [
            "/wiki/Boston_College_Eagles_men's_basketball"
          ]
        ],
        [
          "1",
          []
        ],
        [
          "2013",
          []
        ]
      ],
      [
        [
          "Clemson ( 1953 )",
          [
            "/wiki/Clemson_Tigers_men's_basketball"
          ]
        ],
        [
          "1",
          []
        ],
        [
          "1995",
          []
        ]
      ],
      [
        [
          "Florida State ( 1991 )",
          [
            "/wiki/Florida_State_Seminoles_men's_basketball"
          ]
        ],
        [
          "1",
          []
        ],
        [
          "1992",
          []
        ]
      ],
      [
        [
          "Miami ( 2004 )",
          [
            "/wiki/Miami_Hurricanes_men's_basketball"
          ]
        ],
        [
          "0",
          []
        ],
        [
          "-",
          []
        ]
      ],
      [
        [
          "Notre Dame ( 2013 )",
          [
            "/wiki/Notre_Dame_Fighting_Irish_men's_basketball"
          ]
        ],
        [
          "0",
          []
        ],
        [
          "-",
          []
        ]
      ],
      [
        [
          "Pittsburgh ( 2013 )",
          [
            "/wiki/Pittsburgh_Panthers_men's_basketball"
          ]
        ],
        [
          "0",
          []
        ],
        [
          "-",
          []
        ]
      ],
      [
        [
          "South Carolina ( 1953 )",
          [
            "/wiki/South_Carolina_Gamecocks_men's_basketball"
          ]
        ],
        [
          "0",
          []
        ],
        [
          "-",
          []
        ]
      ],
      [
        [
          "Syracuse ( 2013 )",
          [
            "/wiki/Syracuse_Orange_men's_basketball"
          ]
        ],
        [
          "0",
          []
        ],
        [
          "-",
          []
        ]
      ],
      [
        [
          "Virginia Tech ( 2004 )",
          [
            "/wiki/Virginia_Tech_Hokies_men's_basketball"
          ]
        ],
        [
          "0",
          []
        ],
        [
          "-",
          []
        ]
      ]
    ],
    "section_title": "Winners by school",
    "section_text": "",
    "uid": "Atlantic_Coast_Conference_Men's_Basketball_Rookie_of_the_Year_1",
    "intro": "The Atlantic Coast Conference (ACC) Men's Basketball Rookie of the Year is an award given to the freshman basketball player in the Atlantic Coast Conference voted by members of the Atlantic Coast Sports Media Association as the most outstanding freshman player."
  },
  "List_of_marquessates_in_the_peerages_of_Britain_and_Ireland_0": {
    "url": "https://en.wikipedia.org/wiki/List_of_marquessates_in_the_peerages_of_Britain_and_Ireland",
    "title": "List of marquessates in the peerages of Britain and Ireland",
    "header": [
      [
        "Title",
        []
      ],
      [
        "Date of creation",
        []
      ],
      [
        "Surname",
        []
      ],
      [
        "Current status",
        []
      ],
      [
        "Notes",
        []
      ]
    ],
    "data": [
      [
        [
          "Marquess of Dublin",
          [
            "/wiki/Marquess_of_Dublin"
          ]
        ],
        [
          "1 December 1385",
          []
        ],
        [
          "Vere",
          []
        ],
        [
          "Resigned 13 October 1386",
          []
        ],
        [
          "Created Duke of Ireland in 1386 . Might be considered an Irish peerage . Creation for life only",
          [
            "/wiki/Duke_of_Ireland"
          ]
        ]
      ],
      [
        [
          "Marquess of Dorset",
          [
            "/wiki/Marquess_of_Dorset"
          ]
        ],
        [
          "29 September 1397",
          []
        ],
        [
          "Beaufort",
          []
        ],
        [
          "Deprived 6 October 1399",
          []
        ],
        [
          "Also Marquess of Somerset",
          [
            "/wiki/Marquess_of_Somerset"
          ]
        ]
      ],
      [
        [
          "Marquess of Somerset",
          [
            "/wiki/Marquess_of_Somerset"
          ]
        ],
        [
          "29 September 1397",
          []
        ],
        [
          "Beaufort",
          []
        ],
        [
          "Deprived 6 October 1399",
          []
        ],
        [
          "Also Marquess of Dorset",
          [
            "/wiki/Marquess_of_Dorset"
          ]
        ]
      ],
      [
        [
          "Marquess of Dorset",
          [
            "/wiki/Marquess_of_Dorset"
          ]
        ],
        [
          "24 June 1442",
          []
        ],
        [
          "Beaufort",
          []
        ],
        [
          "Forfeit 3 April 1464",
          []
        ],
        [
          "Created Duke of Somerset in 1448 ; also forfeit 1461-1463",
          [
            "/wiki/Duke_of_Somerset"
          ]
        ]
      ],
      [
        [
          "Marquess of Suffolk",
          [
            "/wiki/Duke_of_Suffolk"
          ]
        ],
        [
          "14 September 1444",
          []
        ],
        [
          "de la Pole",
          []
        ],
        [
          "Surrendered title 26 February 1493",
          []
        ],
        [
          "Created Duke of Suffolk in 1448",
          [
            "/wiki/Duke_of_Suffolk"
          ]
        ]
      ],
      [
        [
          "Marquess of Montagu",
          [
            "/wiki/Marquess_of_Montagu"
          ]
        ],
        [
          "25 March 1470",
          []
        ],
        [
          "Neville",
          []
        ],
        [
          "Forfeit 14 April 1471",
          []
        ],
        [
          "",
          []
        ]
      ],
      [
        [
          "Marquess of Dorset",
          [
            "/wiki/Marquess_of_Dorset"
          ]
        ],
        [
          "18 April 1475",
          []
        ],
        [
          "Grey",
          []
        ],
        [
          "Forfeit 23 February 1554",
          []
        ],
        [
          "Forfeit between 1483 and 1485 ; created Duke of Suffolk in 1551",
          [
            "/wiki/Duke_of_Suffolk"
          ]
        ]
      ],
      [
        [
          "Marquess of Berkeley",
          [
            "/wiki/Marquess_of_Berkeley"
          ]
        ],
        [
          "28 January 1489",
          []
        ],
        [
          "Berkeley",
          []
        ],
        [
          "Extinct 14 February 1492",
          []
        ],
        [
          "",
          []
        ]
      ],
      [
        [
          "Marquess of Exeter",
          [
            "/wiki/Marquess_of_Exeter"
          ]
        ],
        [
          "18 June 1525",
          []
        ],
        [
          "Courtenay",
          []
        ],
        [
          "Forfeit 9 January 1539",
          []
        ],
        [
          "",
          []
        ]
      ],
      [
        [
          "Marquess of Pembroke",
          [
            "/wiki/Marquess_of_Pembroke"
          ]
        ],
        [
          "1 September 1532",
          []
        ],
        [
          "Boleyn",
          []
        ],
        [
          "Forfeit 19 May 1536",
          []
        ],
        [
          "holder was also queen consort from 1533 to 1536",
          [
            "/wiki/Anne_Boleyn"
          ]
        ]
      ],
      [
        [
          "Marquess of Northampton",
          [
            "/wiki/Marquess_of_Northampton"
          ]
        ],
        [
          "16 February 1547",
          []
        ],
        [
          "Parr",
          []
        ],
        [
          "Extinct 28 October 1571",
          []
        ],
        [
          "Forfeit 1554-13 January 1559",
          []
        ]
      ],
      [
        [
          "Marquess of Winchester",
          [
            "/wiki/Marquess_of_Winchester"
          ]
        ],
        [
          "11 October 1551",
          []
        ],
        [
          "Paulet",
          []
        ],
        [
          "Extant",
          []
        ],
        [
          "Created Duke of Bolton in 1689 , that title extinct 1794",
          [
            "/wiki/Duke_of_Bolton"
          ]
        ]
      ],
      [
        [
          "Marquess of Buckingham",
          []
        ],
        [
          "1 January 1618",
          []
        ],
        [
          "Villiers",
          []
        ],
        [
          "Extinct 16 April 1687",
          []
        ],
        [
          "Created Duke of Buckingham in 1623",
          [
            "/wiki/Duke_of_Buckingham"
          ]
        ]
      ],
      [
        [
          "Marquess of Hertford",
          [
            "/wiki/Marquess_of_Hertford"
          ]
        ],
        [
          "3 June 1641",
          []
        ],
        [
          "Seymour",
          []
        ],
        [
          "Extinct 29 April 1675",
          []
        ],
        [
          "Restored to Dukedom of Somerset in 1660",
          [
            "/wiki/Duke_of_Somerset"
          ]
        ]
      ],
      [
        [
          "Marquess of Worcester",
          [
            "/wiki/Marquess_of_Worcester"
          ]
        ],
        [
          "2 March 1643",
          []
        ],
        [
          "Somerset",
          []
        ],
        [
          "Extant",
          []
        ],
        [
          "Created Duke of Beaufort in 1682",
          [
            "/wiki/Duke_of_Beaufort"
          ]
        ]
      ],
      [
        [
          "Marquess of Newcastle-upon-Tyne",
          [
            "/wiki/Marquess_of_Newcastle-upon-Tyne"
          ]
        ],
        [
          "27 October 1643",
          []
        ],
        [
          "Cavendish",
          []
        ],
        [
          "Extinct 26 July 1691",
          []
        ],
        [
          "Created Duke of Newcastle-upon-Tyne in 1665",
          [
            "/wiki/Duke_of_Newcastle"
          ]
        ]
      ],
      [
        [
          "Marquess of Dorchester",
          [
            "/wiki/Marquess_of_Dorchester"
          ]
        ],
        [
          "25 March 1645",
          []
        ],
        [
          "Pierrepont",
          []
        ],
        [
          "Extinct 8 December 1680",
          []
        ],
        [
          "",
          []
        ]
      ],
      [
        [
          "Marquess of Halifax",
          [
            "/wiki/Marquess_of_Halifax"
          ]
        ],
        [
          "17 August 1682",
          []
        ],
        [
          "Saville",
          []
        ],
        [
          "Extinct 31 August 1700",
          []
        ],
        [
          "",
          []
        ]
      ],
      [
        [
          "Marquess of Powis",
          [
            "/wiki/Marquess_of_Powis"
          ]
        ],
        [
          "24 March 1687",
          []
        ],
        [
          "Herbert",
          []
        ],
        [
          "Extinct 8 March 1748",
          []
        ],
        [
          "",
          []
        ]
      ],
      [
        [
          "Marquess of Carmarthen",
          [
            "/wiki/Marquess_of_Carmarthen"
          ]
        ],
        [
          "9 April 1689",
          []
        ],
        [
          "Osborne",
          []
        ],
        [
          "Extinct 20 March 1964",
          []
        ],
        [
          "Created Duke of Leeds in 1694",
          [
            "/wiki/Duke_of_Leeds"
          ]
        ]
      ]
    ],
    "section_title": "Marquessates in the Peerage of England , 1385\u20131707",
    "section_text": "",
    "uid": "List_of_marquessates_in_the_peerages_of_Britain_and_Ireland_0",
    "intro": "This page lists all marquessates, extant, extinct, dormant, abeyant, or forfeit, in the peerages of England, Scotland, Great Britain, Ireland, and the United Kingdom. The title of Marquess of Dublin, which is perhaps best described as Anglo-Irish, was the first to be created, in 1385, but like the next few creations, the title was soon forfeit. The title of Marquess of Pembroke, created in 1532 by Henry VIII for Anne Boleyn, has the distinction of being the first English hereditary peerage granted to a woman in her own right (styled Marchioness in the patent). The English title Marquess of Winchester, created in 1551, is the earliest still extant, so is Premier Marquess of England. The title long remained less common, and on the evening of the Coronation of Queen Victoria in 1838, the Prime Minister Lord Melbourne explained to her (from her journals):"
  },
  "List_of_Pebble_Beach_Concours_d'Elegance_Best_of_Show_winners_0": {
    "url": "https://en.wikipedia.org/wiki/List_of_Pebble_Beach_Concours_d'Elegance_Best_of_Show_winners",
    "title": "List of Pebble Beach Concours d'Elegance Best of Show winners",
    "header": [
      [
        "Award year",
        []
      ],
      [
        "Vehicle year",
        []
      ],
      [
        "Make",
        []
      ],
      [
        "Model",
        []
      ],
      [
        "Owner",
        []
      ]
    ],
    "data": [
      [
        [
          "1950",
          []
        ],
        [
          "1950",
          []
        ],
        [
          "Edwards",
          []
        ],
        [
          "R-26 Special Sport Roadster",
          []
        ],
        [
          "Sterling Edwards",
          []
        ]
      ],
      [
        [
          "1951",
          []
        ],
        [
          "1951",
          []
        ],
        [
          "Jaguar",
          [
            "/wiki/Jaguar_Cars"
          ]
        ],
        [
          "Mark VII Saloon",
          [
            "/wiki/Jaguar_Mark_VII"
          ]
        ],
        [
          "Mrs. Charles H. Hornberg , Jr",
          []
        ]
      ],
      [
        [
          "1952",
          []
        ],
        [
          "1952",
          []
        ],
        [
          "Jaguar",
          []
        ],
        [
          "XK120 Fixed Head Coupe",
          [
            "/wiki/Jaguar_XK120"
          ]
        ],
        [
          "Glen Sorey",
          []
        ]
      ],
      [
        [
          "1953",
          []
        ],
        [
          "1953",
          []
        ],
        [
          "Austin-Healey",
          [
            "/wiki/Austin-Healey"
          ]
        ],
        [
          "100 Roadster",
          [
            "/wiki/Austin-Healey_100"
          ]
        ],
        [
          "Peter Clowes",
          []
        ]
      ],
      [
        [
          "1954",
          []
        ],
        [
          "1952",
          []
        ],
        [
          "Jaguar",
          []
        ],
        [
          "XK120 Fixed Head Coupe",
          []
        ],
        [
          "Barclay Cotter",
          []
        ]
      ],
      [
        [
          "1955",
          []
        ],
        [
          "1931",
          []
        ],
        [
          "Pierce-Arrow",
          [
            "/wiki/Pierce-Arrow_Motor_Car_Company"
          ]
        ],
        [
          "41 LeBaron Town Car Cabriolet",
          [
            "/wiki/LeBaron_Incorporated",
            "/wiki/Pierce-Arrow_Town_Car"
          ]
        ],
        [
          "Phil Hill",
          [
            "/wiki/Phil_Hill"
          ]
        ]
      ],
      [
        [
          "1956",
          []
        ],
        [
          "1930",
          []
        ],
        [
          "Bugatti",
          [
            "/wiki/Bugatti"
          ]
        ],
        [
          "Type 37 Grand Prix",
          [
            "/wiki/Bugatti_Type_35"
          ]
        ],
        [
          "Dr. Milton R. Roth",
          []
        ]
      ],
      [
        [
          "1957",
          []
        ],
        [
          "1937",
          []
        ],
        [
          "Rolls-Royce",
          [
            "/wiki/Rolls-Royce_Limited"
          ]
        ],
        [
          "Phantom III Mulliner Sedanca de Ville",
          [
            "/wiki/Rolls-Royce_Phantom_III",
            "/wiki/H._J._Mulliner_&_Co.",
            "/wiki/Coup\u00e9_de_Ville"
          ]
        ],
        [
          "Frank B. Cox",
          []
        ]
      ],
      [
        [
          "1958",
          []
        ],
        [
          "1930",
          []
        ],
        [
          "duPont",
          [
            "/wiki/Du_Pont_Motors"
          ]
        ],
        [
          "Model G Merrimac Town Car",
          []
        ],
        [
          "J . B. Nethercutt",
          [
            "/wiki/Nethercutt_Collection"
          ]
        ]
      ],
      [
        [
          "1959",
          []
        ],
        [
          "1939",
          []
        ],
        [
          "Bugatti",
          []
        ],
        [
          "Type 57C Gangloff Atalante Coupe",
          [
            "/wiki/Bugatti_Type_57"
          ]
        ],
        [
          "J . B. Nethercutt",
          [
            "/wiki/Nethercutt_Collection"
          ]
        ]
      ],
      [
        [
          "1960",
          []
        ],
        [
          "None",
          []
        ],
        [
          "None",
          []
        ],
        [
          "None",
          []
        ],
        [
          "",
          []
        ]
      ],
      [
        [
          "1961",
          []
        ],
        [
          "1930",
          []
        ],
        [
          "Packard",
          [
            "/wiki/Packard"
          ]
        ],
        [
          "740 Custom Eight Roadster",
          []
        ],
        [
          "Scott Newhall",
          [
            "/wiki/Scott_Newhall"
          ]
        ]
      ],
      [
        [
          "1962",
          []
        ],
        [
          "1913",
          []
        ],
        [
          "Rolls-Royce",
          []
        ],
        [
          "Silver Ghost London to Edinburgh Tourer",
          [
            "/wiki/Rolls-Royce_Silver_Ghost"
          ]
        ],
        [
          "Alton H. Walker",
          []
        ]
      ],
      [
        [
          "1963",
          []
        ],
        [
          "1931",
          []
        ],
        [
          "Pierce-Arrow",
          []
        ],
        [
          "41 LeBaron Sports Sedan",
          []
        ],
        [
          "William Harrah",
          [
            "/wiki/William_F._Harrah"
          ]
        ]
      ],
      [
        [
          "1964",
          []
        ],
        [
          "1932",
          []
        ],
        [
          "Bugatti",
          []
        ],
        [
          "Type 50 Coupe Profile",
          [
            "/wiki/Bugatti_Type_46"
          ]
        ],
        [
          "William Harrah",
          [
            "/wiki/William_F._Harrah"
          ]
        ]
      ],
      [
        [
          "1965",
          []
        ],
        [
          "1927",
          []
        ],
        [
          "Bentley",
          [
            "/wiki/Bentley"
          ]
        ],
        [
          "4\u00bd Litre Vanden Plas Tourer",
          [
            "/wiki/Bentley_4\u00bd_Litre"
          ]
        ],
        [
          "Christopher F. Coburn",
          []
        ]
      ],
      [
        [
          "1966",
          []
        ],
        [
          "1931",
          []
        ],
        [
          "Bugatti",
          []
        ],
        [
          "Type 41 Royale Binder Coupe de Ville",
          [
            "/wiki/Bugatti_Royale"
          ]
        ],
        [
          "William Harrah",
          [
            "/wiki/William_F._Harrah"
          ]
        ]
      ],
      [
        [
          "1967",
          []
        ],
        [
          "1937",
          []
        ],
        [
          "Rolls-Royce",
          []
        ],
        [
          "Phantom III Mulliner Sports Saloon",
          []
        ],
        [
          "Ralph C. Shermund",
          []
        ]
      ],
      [
        [
          "1968",
          []
        ],
        [
          "1964",
          []
        ],
        [
          "Maserati",
          [
            "/wiki/Maserati"
          ]
        ],
        [
          "Mistral Coupe",
          [
            "/wiki/Maserati_Mistral"
          ]
        ],
        [
          "Stanley W. Good , Jr",
          []
        ]
      ],
      [
        [
          "1969",
          []
        ],
        [
          "1934",
          []
        ],
        [
          "Duesenberg",
          [
            "/wiki/Duesenberg"
          ]
        ],
        [
          "J Murphy Dual Cowl Phaeton",
          []
        ],
        [
          "J . B. Nethercutt",
          [
            "/wiki/Nethercutt_Collection"
          ]
        ]
      ]
    ],
    "section_title": "",
    "section_text": "The Pebble Beach Concours d'Elegance is held annually in Monterey , California . Of the various awards given at the car show , the most significant is Best of Show . This article is a list of the Pebble Beach Concours d'Elegance Best of Show winners . [ 1 ]",
    "uid": "List_of_Pebble_Beach_Concours_d'Elegance_Best_of_Show_winners_0",
    "intro": "The Pebble Beach Concours d'Elegance is held annually in Monterey, California. Of the various awards given at the car show, the most significant is Best of Show. This article is a list of the Pebble Beach Concours d'Elegance Best of Show winners."
  }
}