{
  "List_of_United_States_tornadoes_from_January_to_February_2000_6": {
    "url": "https://en.wikipedia.org/wiki/List_of_United_States_tornadoes_from_January_to_February_2000",
    "title": "List of United States tornadoes from January to February 2000",
    "header": [
      [
        "F #",
        [
          "/wiki/Fujita_scale"
        ]
      ],
      [
        "Location",
        []
      ],
      [
        "County / Parish",
        []
      ],
      [
        "State",
        []
      ],
      [
        "Start Coord",
        []
      ],
      [
        "Time ( UTC )",
        []
      ],
      [
        "Path length",
        []
      ],
      [
        "Max width",
        []
      ],
      [
        "Damage",
        []
      ],
      [
        "Summary",
        []
      ]
    ],
    "data": [
      [
        [
          "F3",
          []
        ],
        [
          "SW of Spence to E of Meigs",
          [
            "/wiki/Meigs,_Georgia"
          ]
        ],
        [
          "Grady , Thomas , Mitchell",
          [
            "/wiki/Grady_County,_Georgia",
            "/wiki/Thomas_County,_Georgia",
            "/wiki/Mitchell_County,_Georgia"
          ]
        ],
        [
          "GA",
          [
            "/wiki/Georgia_(U.S._state)"
          ]
        ],
        [
          "31\u00b001\u2032N 84\u00b012\u2032W / 31.02\u00b0N 84.20\u00b0W / 31.02 ; -84.20 ( Spence ( Feb. 14 , F3 ) )",
          []
        ],
        [
          "05:49-06:02",
          []
        ],
        [
          "15 mi ( 24 km )",
          []
        ],
        [
          "300 yd ( 270 m )",
          []
        ],
        [
          "$ 8,000,000",
          []
        ],
        [
          "7 deaths - A strong tornado first started in northeast Grady County destroying 15 houses and damaging numerous others . 15 people were injured by flying debris and 6 were killed . Numerous pecan and pine trees were uprooted , while many power lines were downed . Large losses to farming equipment , trailers , and shelters amounted to $ 3 million . Eight chicken houses were flattened , killing half a million chickens . The tornado continued into Thomas County inciting more home , utility line , and tree damage . During the final leg of the track , the tornado killed a man in his mobile home in southeast Mitchell County . In response to the tornado in Grady county , the county was declared a federal disaster area",
          []
        ]
      ],
      [
        [
          "F1",
          []
        ],
        [
          "N of Moultrie",
          [
            "/wiki/Moultrie,_Georgia"
          ]
        ],
        [
          "Colquitt",
          [
            "/wiki/Colquitt_County,_Georgia"
          ]
        ],
        [
          "GA",
          [
            "/wiki/Georgia_(U.S._state)"
          ]
        ],
        [
          "31\u00b011\u2032N 83\u00b051\u2032W / 31.18\u00b0N 83.85\u00b0W / 31.18 ; -83.85 ( Moultrie ( Feb. 14 , F1 ) )",
          []
        ],
        [
          "06:21-06:27",
          []
        ],
        [
          "2 mi ( 3.2 km )",
          []
        ],
        [
          "50 yd ( 46 m )",
          []
        ],
        [
          "$ 75,000",
          []
        ],
        [
          "A house was damaged ; numerous trees and power lines were blown down",
          []
        ]
      ],
      [
        [
          "F2",
          []
        ],
        [
          "SE of Crosland",
          []
        ],
        [
          "Colquitt , Tift",
          [
            "/wiki/Colquitt_County,_Georgia",
            "/wiki/Tift_County,_Georgia"
          ]
        ],
        [
          "GA",
          [
            "/wiki/Georgia_(U.S._state)"
          ]
        ],
        [
          "31\u00b019\u2032N 83\u00b038\u2032W / 31.32\u00b0N 83.63\u00b0W / 31.32 ; -83.63 ( Crosland ( Feb. 14 , F2 ) )",
          []
        ],
        [
          "06:39-06:48",
          []
        ],
        [
          "6 mi ( 9.7 km )",
          []
        ],
        [
          "200 yd ( 180 m )",
          []
        ],
        [
          "$ 2,500,000",
          []
        ],
        [
          "1 death - This tornado began in far northeast Colquitt County , uprooting trees and downing power poles . Several mobile homes were damage and a woman was killed when a tree and another mobile home were thrown into her home . The tornado continued into Tift County where it destroyed 12 mobile and 8 pre-built houses . Frame homes were damaged , some of which were pushed from their foundations . Ten persons were injured . Many trees and power lines were downed , and a school bus was blown into a house . Both Colquitt and Tift Counties were declared federal disaster areas",
          []
        ]
      ],
      [
        [
          "F0",
          []
        ],
        [
          "Lenox",
          [
            "/wiki/Lenox,_Georgia"
          ]
        ],
        [
          "Cook",
          [
            "/wiki/Cook_County,_Georgia"
          ]
        ],
        [
          "GA",
          [
            "/wiki/Georgia_(U.S._state)"
          ]
        ],
        [
          "31\u00b016\u2032N 83\u00b028\u2032W / 31.27\u00b0N 83.47\u00b0W / 31.27 ; -83.47 ( Lenox ( Feb. 14 , F0 ) )",
          []
        ],
        [
          "07:30",
          []
        ],
        [
          "0 mi ( 0 km )",
          []
        ],
        [
          "Unknown",
          []
        ],
        [
          "None",
          []
        ],
        [
          "Brief tornado was reported by the Cook County Sheriff that resulted in no damage",
          []
        ]
      ],
      [
        [
          "F0",
          []
        ],
        [
          "S of Aiken",
          [
            "/wiki/Aiken,_South_Carolina"
          ]
        ],
        [
          "Aiken",
          [
            "/wiki/Aiken_County,_South_Carolina"
          ]
        ],
        [
          "SC",
          [
            "/wiki/South_Carolina"
          ]
        ],
        [
          "33\u00b029\u2032N 81\u00b025\u2032W / 33.48\u00b0N 81.41\u00b0W / 33.48 ; -81.41 ( Aiken ( Feb. 14 , F0 ) )",
          []
        ],
        [
          "10:10-10:12",
          []
        ],
        [
          "0.2 mi ( 0.32 km )",
          []
        ],
        [
          "50 yd ( 46 m )",
          []
        ],
        [
          "None",
          []
        ],
        [
          "The National Weather Service found tree damage caused by a weak tornado",
          []
        ]
      ],
      [
        [
          "F0",
          []
        ],
        [
          "Kinston",
          [
            "/wiki/Kinston,_North_Carolina"
          ]
        ],
        [
          "Lenoir",
          [
            "/wiki/Lenoir_County,_North_Carolina"
          ]
        ],
        [
          "NC",
          [
            "/wiki/North_Carolina"
          ]
        ],
        [
          "35\u00b016\u2032N 77\u00b035\u2032W / 35.27\u00b0N 77.58\u00b0W / 35.27 ; -77.58 ( Kinston ( Feb. 14 , F0 ) )",
          []
        ],
        [
          "11:00",
          []
        ],
        [
          "0.1 mi ( 0.16 km )",
          []
        ],
        [
          "5 yd ( 4.6 m )",
          []
        ],
        [
          "Unknown",
          []
        ],
        [
          "Tree damage was found near Highway 10",
          []
        ]
      ],
      [
        [
          "F0",
          []
        ],
        [
          "Williamston",
          [
            "/wiki/Williamston,_North_Carolina"
          ]
        ],
        [
          "Martin",
          [
            "/wiki/Martin_County,_North_Carolina"
          ]
        ],
        [
          "NC",
          [
            "/wiki/North_Carolina"
          ]
        ],
        [
          "35\u00b016\u2032N 77\u00b035\u2032W / 35.27\u00b0N 77.58\u00b0W / 35.27 ; -77.58 ( Williamston ( Feb. 14 , F0 ) )",
          []
        ],
        [
          "11:07",
          []
        ],
        [
          "0.1 mi ( 0.16 km )",
          []
        ],
        [
          "5 yd ( 4.6 m )",
          []
        ],
        [
          "Unknown",
          []
        ],
        [
          "A garage roof was torn off with the car inside destroyed",
          []
        ]
      ],
      [
        [
          "F0",
          []
        ],
        [
          "E of American Falls",
          [
            "/wiki/American_Falls,_Idaho"
          ]
        ],
        [
          "Power",
          [
            "/wiki/Power_County,_Idaho"
          ]
        ],
        [
          "ID",
          [
            "/wiki/Idaho"
          ]
        ],
        [
          "42\u00b047\u2032N 112\u00b050\u2032W / 42.78\u00b0N 112.83\u00b0W / 42.78 ; -112.83 ( American Falls ( Feb. 14 , F0 ) )",
          []
        ],
        [
          "22:40-22:48",
          []
        ],
        [
          "9 mi ( 14 km )",
          []
        ],
        [
          "100 yd ( 91 m )",
          []
        ],
        [
          "$ 375,000",
          []
        ],
        [
          "A large metal farm building had siding blown in and its roof partially peeled off . A potato storage building was destroyed and a large grain silo was severely damaged . Several large trees were downed and a building was destroyed at Willow Bay county park . Along the damage path , irrigation center pivots were flipped and wheel line systems twisted",
          []
        ]
      ],
      [
        [
          "F1",
          []
        ],
        [
          "E of Pingree",
          [
            "/wiki/Pingree,_Idaho"
          ]
        ],
        [
          "Bingham",
          [
            "/wiki/Bingham_County,_Idaho"
          ]
        ],
        [
          "ID",
          [
            "/wiki/Idaho"
          ]
        ],
        [
          "43\u00b007\u2032N 112\u00b033\u2032W / 43.12\u00b0N 112.55\u00b0W / 43.12 ; -112.55 ( Pingree ( Feb. 14 , F1 ) )",
          []
        ],
        [
          "22:47-23:08",
          []
        ],
        [
          "14 mi ( 23 km )",
          []
        ],
        [
          "300 yd ( 270 m )",
          []
        ],
        [
          "$ 2,200,000",
          []
        ],
        [
          "Near Riverside a mobile home and two connected garages were destroyed . Two silos were caved in near Pingree . Near Groveland a house and barn were destroyed . Three high tension towers were toppled . Throughout this tornado 's path numerous homes received roof damage , sheds and outbuildings were destroyed , and large tree were uprooted and some fell on houses . About 25 irrigation center pivots were damaged and many wheel line systems twisted",
          []
        ]
      ],
      [
        [
          "F0",
          []
        ],
        [
          "W of Chubbuck",
          [
            "/wiki/Chubbuck,_Idaho"
          ]
        ],
        [
          "Bannock",
          [
            "/wiki/Bannock_County,_Idaho"
          ]
        ],
        [
          "ID",
          [
            "/wiki/Idaho"
          ]
        ],
        [
          "42\u00b055\u2032N 112\u00b031\u2032W / 42.92\u00b0N 112.52\u00b0W / 42.92 ; -112.52 ( Chubbuck ( Feb. 14 , F0 ) )",
          []
        ],
        [
          "22:55-23:08",
          []
        ],
        [
          "5 mi ( 8.0 km )",
          []
        ],
        [
          "50 yd ( 46 m )",
          []
        ],
        [
          "$ 110,000",
          []
        ],
        [
          "A couple houses were damaged and trees knocked over . The main power line to Chubbuck was downed . Several irrigation pivots were twisted",
          []
        ]
      ],
      [
        [
          "F1",
          []
        ],
        [
          "S of Shelley",
          [
            "/wiki/Shelley,_Idaho"
          ]
        ],
        [
          "Bingham , Bonneville",
          [
            "/wiki/Bingham_County,_Idaho",
            "/wiki/Bonneville_County,_Idaho"
          ]
        ],
        [
          "ID",
          [
            "/wiki/Idaho"
          ]
        ],
        [
          "43\u00b021\u2032N 112\u00b007\u2032W / 43.35\u00b0N 112.12\u00b0W / 43.35 ; -112.12 ( Shelley ( Feb. 14 , F1 ) )",
          []
        ],
        [
          "23:15-23:30",
          []
        ],
        [
          "12 mi ( 19 km )",
          []
        ],
        [
          "200 yd ( 180 m )",
          []
        ],
        [
          "$ 500,000",
          []
        ],
        [
          "A garage was destroyed near the beginning of the tornado 's path . Shelley High School sustained roof damage . Ten houses , six pivots , and 12 wheel line irrigation systems received damage or were destroyed . Moving into Bonneville County the tornado removed the roof of a house . Several large electric transmission poles were snapped",
          []
        ]
      ],
      [
        [
          "F1",
          []
        ],
        [
          "S of Firth",
          [
            "/wiki/Firth,_Idaho"
          ]
        ],
        [
          "Bingham",
          [
            "/wiki/Bingham_County,_Idaho"
          ]
        ],
        [
          "ID",
          [
            "/wiki/Idaho"
          ]
        ],
        [
          "43\u00b017\u2032N 112\u00b011\u2032W / 43.28\u00b0N 112.18\u00b0W / 43.28 ; -112.18 ( Firth ( Feb. 14 , F1 ) )",
          []
        ],
        [
          "23:19-23:31",
          []
        ],
        [
          "9 mi ( 14 km )",
          []
        ],
        [
          "200 yd ( 180 m )",
          []
        ],
        [
          "$ 275,000",
          []
        ],
        [
          "A mobile house and garage were destroyed , a cinder block house collapsed , and three other houses had roof damage near Taylorsville . One person was injured . Several irrigation pivots and wheel line systems were damaged",
          []
        ]
      ]
    ],
    "section_title": "February -- February 14 event",
    "section_text": "",
    "uid": "List_of_United_States_tornadoes_from_January_to_February_2000_6",
    "intro": "This is a list of all tornadoes that were confirmed by local offices of the National Weather Service in the United States from January to February 2000."
  },
  "List_of_Virtual_Console_games_for_Nintendo_3DS_(North_America)_0": {
    "url": "https://en.wikipedia.org/wiki/List_of_Virtual_Console_games_for_Nintendo_3DS_(North_America)",
    "title": "List of Virtual Console games for Nintendo 3DS (North America)",
    "header": [
      [
        "Title",
        []
      ],
      [
        "Publisher",
        []
      ],
      [
        "Developer ( s )",
        []
      ],
      [
        "Release Date",
        []
      ],
      [
        "ESRB",
        [
          "/wiki/Entertainment_Software_Rating_Board"
        ]
      ]
    ],
    "data": [
      [
        [
          "Alleyway",
          [
            "/wiki/Alleyway_(video_game)"
          ]
        ],
        [
          "Nintendo",
          [
            "/wiki/Nintendo"
          ]
        ],
        [
          "Nintendo",
          []
        ],
        [
          "June 6 , 2011",
          []
        ],
        [
          "E",
          []
        ]
      ],
      [
        [
          "Radar Mission",
          [
            "/wiki/Radar_Mission"
          ]
        ],
        [
          "Nintendo",
          [
            "/wiki/Nintendo"
          ]
        ],
        [
          "Nintendo",
          []
        ],
        [
          "June 6 , 2011",
          []
        ],
        [
          "E",
          []
        ]
      ],
      [
        [
          "Super Mario Land",
          [
            "/wiki/Super_Mario_Land"
          ]
        ],
        [
          "Nintendo",
          [
            "/wiki/Nintendo"
          ]
        ],
        [
          "Nintendo",
          []
        ],
        [
          "June 6 , 2011",
          []
        ],
        [
          "E",
          []
        ]
      ],
      [
        [
          "Donkey Kong",
          [
            "/wiki/Donkey_Kong_(1994_video_game)"
          ]
        ],
        [
          "Nintendo",
          [
            "/wiki/Nintendo"
          ]
        ],
        [
          "Nintendo",
          []
        ],
        [
          "June 16 , 2011",
          []
        ],
        [
          "E",
          []
        ]
      ],
      [
        [
          "Tennis",
          [
            "/wiki/Tennis_(1984_video_game)"
          ]
        ],
        [
          "Nintendo",
          [
            "/wiki/Nintendo"
          ]
        ],
        [
          "Intelligent Systems",
          [
            "/wiki/Intelligent_Systems"
          ]
        ],
        [
          "June 23 , 2011",
          []
        ],
        [
          "E",
          []
        ]
      ],
      [
        [
          "Kirby 's Dream Land",
          [
            "/wiki/Kirby's_Dream_Land"
          ]
        ],
        [
          "Nintendo",
          [
            "/wiki/Nintendo"
          ]
        ],
        [
          "HAL Laboratory",
          [
            "/wiki/HAL_Laboratory"
          ]
        ],
        [
          "June 30 , 2011",
          []
        ],
        [
          "E",
          []
        ]
      ],
      [
        [
          "Fortified Zone",
          [
            "/wiki/Fortified_Zone"
          ]
        ],
        [
          "Jaleco",
          [
            "/wiki/Jaleco"
          ]
        ],
        [
          "Jaleco",
          []
        ],
        [
          "July 7 , 2011",
          []
        ],
        [
          "E",
          []
        ]
      ],
      [
        [
          "Qix",
          [
            "/wiki/Qix"
          ]
        ],
        [
          "Nintendo",
          [
            "/wiki/Nintendo"
          ]
        ],
        [
          "Nintendo R & D1",
          [
            "/wiki/Nintendo_Research_&_Development_1"
          ]
        ],
        [
          "July 7 , 2011",
          []
        ],
        [
          "E",
          []
        ]
      ],
      [
        [
          "Baseball",
          [
            "/wiki/Baseball_(1983_video_game)"
          ]
        ],
        [
          "Nintendo",
          [
            "/wiki/Nintendo"
          ]
        ],
        [
          "Nintendo R & D1",
          [
            "/wiki/Nintendo_Research_&_Development_1"
          ]
        ],
        [
          "July 14 , 2011",
          []
        ],
        [
          "E",
          []
        ]
      ],
      [
        [
          "Game & Watch Gallery",
          [
            "/wiki/Game_&_Watch_ports_and_remakes"
          ]
        ],
        [
          "Nintendo",
          [
            "/wiki/Nintendo"
          ]
        ],
        [
          "Nintendo R & D1",
          [
            "/wiki/Nintendo_Research_&_Development_1"
          ]
        ],
        [
          "July 14 , 2011",
          []
        ],
        [
          "E",
          []
        ]
      ],
      [
        [
          "Mario 's Picross",
          [
            "/wiki/Mario's_Picross"
          ]
        ],
        [
          "Nintendo",
          [
            "/wiki/Nintendo"
          ]
        ],
        [
          "Jupiter",
          [
            "/wiki/Jupiter_Corporation"
          ]
        ],
        [
          "August 4 , 2011",
          []
        ],
        [
          "E",
          []
        ]
      ],
      [
        [
          "Avenging Spirit",
          [
            "/wiki/Avenging_Spirit"
          ]
        ],
        [
          "Jaleco",
          [
            "/wiki/Jaleco"
          ]
        ],
        [
          "Jaleco",
          []
        ],
        [
          "August 11 , 2011",
          []
        ],
        [
          "E",
          []
        ]
      ],
      [
        [
          "Gargoyle 's Quest",
          [
            "/wiki/Gargoyle's_Quest"
          ]
        ],
        [
          "Capcom",
          [
            "/wiki/Capcom"
          ]
        ],
        [
          "Capcom",
          []
        ],
        [
          "August 25 , 2011",
          []
        ],
        [
          "E",
          []
        ]
      ],
      [
        [
          "Pac-Man",
          [
            "/wiki/Pac-Man"
          ]
        ],
        [
          "Bandai Namco",
          [
            "/wiki/Bandai_Namco_Entertainment"
          ]
        ],
        [
          "Namco",
          [
            "/wiki/Namco"
          ]
        ],
        [
          "September 1 , 2011",
          []
        ],
        [
          "E",
          []
        ]
      ],
      [
        [
          "Golf",
          [
            "/wiki/Golf_(1984_video_game)"
          ]
        ],
        [
          "Nintendo",
          [
            "/wiki/Nintendo"
          ]
        ],
        [
          "Nintendo , Intelligent Systems",
          [
            "/wiki/Nintendo",
            "/wiki/Intelligent_Systems"
          ]
        ],
        [
          "September 8 , 2011",
          []
        ],
        [
          "E",
          []
        ]
      ],
      [
        [
          "Mega Man : Dr. Wily 's Revenge",
          [
            "/wiki/Mega_Man:_Dr._Wily's_Revenge"
          ]
        ],
        [
          "Capcom",
          [
            "/wiki/Capcom"
          ]
        ],
        [
          "Minakuchi Engineering",
          []
        ],
        [
          "September 15 , 2011",
          []
        ],
        [
          "E",
          []
        ]
      ],
      [
        [
          "Super Mario Land 2 : 6 Golden Coins",
          [
            "/wiki/Super_Mario_Land_2:_6_Golden_Coins"
          ]
        ],
        [
          "Nintendo",
          [
            "/wiki/Nintendo"
          ]
        ],
        [
          "Nintendo R & D1",
          [
            "/wiki/Nintendo_Research_&_Development_1"
          ]
        ],
        [
          "September 29 , 2011",
          []
        ],
        [
          "E",
          []
        ]
      ],
      [
        [
          "Side Pocket",
          [
            "/wiki/Side_Pocket"
          ]
        ],
        [
          "G-Mode",
          [
            "/wiki/G-Mode"
          ]
        ],
        [
          "Data East",
          [
            "/wiki/Data_East"
          ]
        ],
        [
          "October 6 , 2011",
          []
        ],
        [
          "E",
          []
        ]
      ],
      [
        [
          "Catrap",
          [
            "/wiki/Catrap"
          ]
        ],
        [
          "Asmik",
          [
            "/wiki/Asmik_Ace"
          ]
        ],
        [
          "Asmik",
          []
        ],
        [
          "October 13 , 2011",
          []
        ],
        [
          "E",
          []
        ]
      ],
      [
        [
          "Double Dragon",
          [
            "/wiki/Double_Dragon_(video_game)"
          ]
        ],
        [
          "Nintendo",
          [
            "/wiki/Nintendo"
          ]
        ],
        [
          "Techn\u014ds Japan",
          [
            "/wiki/Techn\u014ds_Japan"
          ]
        ],
        [
          "October 20 , 2011",
          []
        ],
        [
          "E10+",
          []
        ]
      ]
    ],
    "section_title": "Available titles -- Nintendo Game Boy",
    "section_text": "These titles were originally released for use on the Game Boy system , which was launched in 1989 . The first three Nintendo 3DS Virtual Console titles were Game Boy games and debuted alongside the Nintendo 3DS eShop in June 2011 . [ 1 ] There are 50 games available to purchase .",
    "uid": "List_of_Virtual_Console_games_for_Nintendo_3DS_(North_America)_0",
    "intro": "This is a list of Virtual Console games that are available on the Nintendo 3DS in North America."
  },
  "North,_Central_America_and_Caribbean_Volleyball_Confederation_0": {
    "url": "https://en.wikipedia.org/wiki/North,_Central_America_and_Caribbean_Volleyball_Confederation",
    "title": "North, Central America and Caribbean Volleyball Confederation",
    "header": [
      [
        "Code",
        []
      ],
      [
        "Country",
        []
      ],
      [
        "Federation",
        []
      ]
    ],
    "data": [
      [
        [
          "CAN",
          []
        ],
        [
          "Canada",
          [
            "/wiki/Canada"
          ]
        ],
        [
          "Volleyball Canada",
          []
        ]
      ],
      [
        [
          "CUB",
          []
        ],
        [
          "Cuba",
          [
            "/wiki/Cuba"
          ]
        ],
        [
          "Federaci\u00f3n Cubana de Voleibol",
          []
        ]
      ],
      [
        [
          "DOM",
          []
        ],
        [
          "Dominican Republic",
          [
            "/wiki/Dominican_Republic"
          ]
        ],
        [
          "Confederaci\u00f3n Dominicana de Voleibol",
          [
            "/wiki/Dominican_Republic_Volleyball_Federation"
          ]
        ]
      ],
      [
        [
          "MEX",
          []
        ],
        [
          "Mexico",
          [
            "/wiki/Mexico"
          ]
        ],
        [
          "Federaci\u00f3n Mexicana de Voleibol",
          []
        ]
      ],
      [
        [
          "PUR",
          []
        ],
        [
          "Puerto Rico",
          [
            "/wiki/Puerto_Rico"
          ]
        ],
        [
          "Federaci\u00f3n Puertorrique\u00f1a de Voleibol",
          []
        ]
      ],
      [
        [
          "USA",
          []
        ],
        [
          "United States",
          [
            "/wiki/United_States"
          ]
        ],
        [
          "United States Volleyball Association",
          [
            "/wiki/USA_Volleyball"
          ]
        ]
      ]
    ],
    "section_title": "Affiliated Federations -- NCVA ( North Central Americas Volleyball Association )",
    "section_text": "",
    "uid": "North,_Central_America_and_Caribbean_Volleyball_Confederation_0",
    "intro": "The North, Central America and Caribbean Volleyball Confederation (NORCECA) is an incorporated, non-profit organization responsible for all volleyball activities that take place in its zone. NORCECA is the continental confederation that represents its thirty-five (35) member countries at the International Volleyball Federation (FIVB) level and also has 7 associate members (Bonaire, Cura\u00e7ao, Saba, Saint Martin, Sint Eustatius, Sint Maarten, Turks & Caicos Islands). The Confederation is responsible for, among other things, the staging of Olympic and World Championship zone qualification tournaments, as well as continental championships for both men and women in Indoor and Beach Volleyball. In 2003, NORCECA celebrated its thirty-fifth (35th) anniversary."
  },
  "Swimming_at_the_2004_Summer_Paralympics_\u2013_Men's_4_x_50_metre_freestyle_relay_20pts_2": {
    "url": "https://en.wikipedia.org/wiki/Swimming_at_the_2004_Summer_Paralympics_\u2013_Men's_4_\u00d7_50_metre_freestyle_relay_20pts",
    "title": "Swimming at the 2004 Summer Paralympics \u2013 Men's 4 \u00d7 50 metre freestyle relay 20pts",
    "header": [
      [
        "Rank",
        []
      ],
      [
        "Team",
        []
      ],
      [
        "Time",
        []
      ]
    ],
    "data": [
      [
        [
          "1",
          []
        ],
        [
          "Great Britain",
          [
            "/wiki/Great_Britain_at_the_2004_Summer_Paralympics"
          ]
        ],
        [
          "2:42.84",
          []
        ]
      ],
      [
        [
          "2",
          []
        ],
        [
          "Czech Republic",
          [
            "/wiki/Czech_Republic_at_the_2004_Summer_Paralympics"
          ]
        ],
        [
          "2:45.23",
          []
        ]
      ],
      [
        [
          "3",
          []
        ],
        [
          "Spain",
          [
            "/wiki/Spain_at_the_2004_Summer_Paralympics"
          ]
        ],
        [
          "2:46.77",
          []
        ]
      ],
      [
        [
          "4",
          []
        ],
        [
          "Mexico",
          [
            "/wiki/Mexico_at_the_2004_Summer_Paralympics"
          ]
        ],
        [
          "2:57.06",
          []
        ]
      ],
      [
        [
          "5",
          []
        ],
        [
          "United States",
          [
            "/wiki/United_States_at_the_2004_Summer_Paralympics"
          ]
        ],
        [
          "3:07.13",
          []
        ]
      ]
    ],
    "section_title": "1st round",
    "section_text": "Qualified for final round Heat 1 24 Sept. 2004 , morning session Heat 2 24 Sept. 2004 , morning session",
    "uid": "Swimming_at_the_2004_Summer_Paralympics_\u2013_Men's_4_x_50_metre_freestyle_relay_20pts_2",
    "intro": "N/A"
  },
  "Missouri_Valley_Conference_Men's_Basketball_Coach_of_the_Year_1": {
    "url": "https://en.wikipedia.org/wiki/Missouri_Valley_Conference_Men's_Basketball_Coach_of_the_Year",
    "title": "Missouri Valley Conference Men's Basketball Coach of the Year",
    "header": [
      [
        "School ( year joined )",
        []
      ],
      [
        "Winners",
        []
      ],
      [
        "Years",
        []
      ]
    ],
    "data": [
      [
        [
          "Bradley ( 1948/1955 )",
          [
            "/wiki/Bradley_Braves_men's_basketball"
          ]
        ],
        [
          "8",
          []
        ],
        [
          "1950 , 1960 , 1962 , 1974 , 1980 , 1986 , 1988 , 1996",
          []
        ]
      ],
      [
        [
          "Drake ( 1907/1956 )",
          [
            "/wiki/Drake_Bulldogs_men's_basketball"
          ]
        ],
        [
          "8",
          []
        ],
        [
          "1964 , 1968 , 1969 , 1970 , 1982 , 1993 , 2008 , 2019",
          []
        ]
      ],
      [
        [
          "Southern Illinois ( 1975 )",
          [
            "/wiki/Southern_Illinois_Salukis_men's_basketball"
          ]
        ],
        [
          "6",
          []
        ],
        [
          "1990 , 2003 , 2004 , 2005 , 2007 , 2016",
          []
        ]
      ],
      [
        [
          "Northern Iowa ( 1991 )",
          [
            "/wiki/Northern_Iowa_Panthers_men's_basketball"
          ]
        ],
        [
          "5",
          []
        ],
        [
          "1997 , 2009 , 2010 , 2015 , 2020",
          []
        ]
      ],
      [
        [
          "Illinois State ( 1981 )",
          [
            "/wiki/Illinois_State_Redbirds_men's_basketball"
          ]
        ],
        [
          "4",
          []
        ],
        [
          "1984 , 1992 , 1998 , 2017",
          []
        ]
      ],
      [
        [
          "Indiana State ( 1977 )",
          [
            "/wiki/Indiana_State_Sycamores_men's_basketball"
          ]
        ],
        [
          "3",
          []
        ],
        [
          "1979 , 1991 , 2000",
          []
        ]
      ],
      [
        [
          "Evansville ( 1994 )",
          [
            "/wiki/Evansville_Purple_Aces_men's_basketball"
          ]
        ],
        [
          "1",
          []
        ],
        [
          "1999",
          []
        ]
      ],
      [
        [
          "Loyola ( 2013 )",
          [
            "/wiki/Loyola_Ramblers_men's_basketball"
          ]
        ],
        [
          "1",
          []
        ],
        [
          "2018",
          []
        ]
      ],
      [
        [
          "Missouri State ( 1990 )",
          [
            "/wiki/Missouri_State_Bears_basketball"
          ]
        ],
        [
          "1",
          []
        ],
        [
          "2011",
          []
        ]
      ],
      [
        [
          "Valparaiso ( 2017 )",
          [
            "/wiki/Valparaiso_Crusaders_men's_basketball"
          ]
        ],
        [
          "0",
          []
        ],
        [
          "-",
          []
        ]
      ]
    ],
    "section_title": "Winners by current member schools",
    "section_text": "",
    "uid": "Missouri_Valley_Conference_Men's_Basketball_Coach_of_the_Year_1",
    "intro": "The Missouri Valley Conference Men's Basketball Coach of the Year is an annual basketball award given to the Missouri Valley Conference's most outstanding coach. The award was first given following the 1948-49 season. As of 2017, among current members, Bradley and Drake are tied for the most all-time winners with eight. There have been three ties for the coach of the year (1969, 1973 and 1987); there have been fourteen repeat winners in the award's history. Two coaches have won the award three consecutive times - Maury John of Drake in 1968-1970 and Gregg Marshall of Wichita State in 2012-2014. Every current MVC member has had at least one winner except for Valparaiso, which played its first conference season in 2017-18."
  },
  "List_of_United_States_tornadoes_from_January_to_February_2013_2": {
    "url": "https://en.wikipedia.org/wiki/List_of_United_States_tornadoes_from_January_to_February_2013",
    "title": "List of United States tornadoes from January to February 2013",
    "header": [
      [
        "EF #",
        [
          "/wiki/Enhanced_Fujita_scale"
        ]
      ],
      [
        "Location",
        []
      ],
      [
        "County / Parish",
        []
      ],
      [
        "State",
        []
      ],
      [
        "Start Coord",
        []
      ],
      [
        "Time ( UTC )",
        []
      ],
      [
        "Path length",
        []
      ],
      [
        "Max width",
        []
      ],
      [
        "Summary",
        []
      ]
    ],
    "data": [
      [
        [
          "EF1",
          []
        ],
        [
          "N of Parks",
          [
            "/wiki/Parks,_Louisiana"
          ]
        ],
        [
          "St. Martin",
          [
            "/wiki/St._Martin_Parish,_Louisiana"
          ]
        ],
        [
          "LA",
          [
            "/wiki/Louisiana"
          ]
        ],
        [
          "30\u00b015\u203218\u2033N 91\u00b049\u203241\u2033W / 30.255\u00b0N 91.828\u00b0W / 30.255 ; -91.828 ( Parks ( Jan. 13 , EF1 ) )",
          []
        ],
        [
          "18:15-18:16",
          []
        ],
        [
          "0.38 mi ( 0.61 km )",
          []
        ],
        [
          "25 yd ( 23 m )",
          []
        ],
        [
          "A small tornado destroyed a large barn , throwing debris from the barn that caused roof and siding damage to a house and two mobile homes",
          []
        ]
      ],
      [
        [
          "EF0",
          []
        ],
        [
          "Zachary to S of Clinton",
          [
            "/wiki/Zachary,_Louisiana",
            "/wiki/Clinton,_Louisiana"
          ]
        ],
        [
          "East Baton Rouge , East Feliciana",
          [
            "/wiki/East_Baton_Rouge_Parish,_Louisiana",
            "/wiki/East_Feliciana_Parish,_Louisiana"
          ]
        ],
        [
          "LA",
          [
            "/wiki/Louisiana"
          ]
        ],
        [
          "30\u00b038\u203259\u2033N 91\u00b011\u203250\u2033W / 30.6496\u00b0N 91.1972\u00b0W / 30.6496 ; -91.1972 ( Frierson ( Jan. 13 , EF0 ) )",
          []
        ],
        [
          "19:19-19:30",
          []
        ],
        [
          "12.46 mi ( 20.05 km )",
          []
        ],
        [
          "40 yd ( 37 m )",
          []
        ],
        [
          "The tornado touched down in East Baton Rouge Parish , downing trees and fences as well as toppling yard play equipment . It moved into East Feliciana Parish , where many trees were downed and a carport was destroyed before the tornado dissipated",
          []
        ]
      ],
      [
        [
          "EF0",
          []
        ],
        [
          "S of Eagleville",
          [
            "/wiki/Eagleville,_Tennessee"
          ]
        ],
        [
          "Rutherford",
          [
            "/wiki/Rutherford_County,_Tennessee"
          ]
        ],
        [
          "TN",
          [
            "/wiki/Tennessee"
          ]
        ],
        [
          "35\u00b042\u203259\u2033N 86\u00b040\u203209\u2033W / 35.7164\u00b0N 86.6692\u00b0W / 35.7164 ; -86.6692 ( Eagleville ( Jan. 13 , EF0 ) )",
          []
        ],
        [
          "21:36-21:37",
          []
        ],
        [
          "1.59 mi ( 2.56 km )",
          []
        ],
        [
          "100 yd ( 91 m )",
          []
        ],
        [
          "A house suffered partial roof loss , with a door and a window blown out as well . An older building was flattened and approximately 100 trees were downed",
          []
        ]
      ],
      [
        [
          "EF1",
          []
        ],
        [
          "SE of Poplarville",
          [
            "/wiki/Poplarville,_Mississippi"
          ]
        ],
        [
          "Pearl River",
          [
            "/wiki/Pearl_River_County,_Mississippi"
          ]
        ],
        [
          "MS",
          [
            "/wiki/Mississippi"
          ]
        ],
        [
          "30\u00b048\u203244\u2033N 89\u00b030\u203217\u2033W / 30.8123\u00b0N 89.5046\u00b0W / 30.8123 ; -89.5046 ( Poplarville ( Jan. 13 , EF1 ) )",
          []
        ],
        [
          "22:45-22:48",
          []
        ],
        [
          "1 mi ( 1.6 km )",
          []
        ],
        [
          "150 yd ( 140 m )",
          []
        ],
        [
          "Over a dozen trees were downed , one of which severely damaged a pickup truck . A metal building lost half of its roof , and a trampoline was thrown 200 yards ( 180 m )",
          []
        ]
      ],
      [
        [
          "EF1",
          []
        ],
        [
          "SE of Waynesboro",
          [
            "/wiki/Waynesboro,_Mississippi"
          ]
        ],
        [
          "Wayne",
          [
            "/wiki/Wayne_County,_Mississippi"
          ]
        ],
        [
          "MS",
          [
            "/wiki/Mississippi"
          ]
        ],
        [
          "31\u00b035\u203224\u2033N 88\u00b031\u203233\u2033W / 31.5899\u00b0N 88.5258\u00b0W / 31.5899 ; -88.5258 ( Waynesboro ( Jan. 13 , EF1 ) )",
          []
        ],
        [
          "00:15-00:20",
          []
        ],
        [
          "3.35 mi ( 5.39 km )",
          []
        ],
        [
          "200 yd ( 180 m )",
          []
        ],
        [
          "A modular home and a mobile home lost their roofs and dozens of large trees were downed . A chicken house was destroyed , with another sustaining major damage , before the tornado lifted",
          []
        ]
      ]
    ],
    "section_title": "January -- January 13 event",
    "section_text": "",
    "uid": "List_of_United_States_tornadoes_from_January_to_February_2013_2",
    "intro": "This page documents all tornadoes confirmed by various weather forecast offices of the National Weather Service in the United States from January to February 2013. Tornado counts are considered preliminary until final publication in the database of the National Centers for Environmental Information."
  },
  "4_\u00d7_100_metres_relay_at_the_World_Championships_in_Athletics_2": {
    "url": "https://en.wikipedia.org/wiki/4_\u00d7_100_metres_relay_at_the_World_Championships_in_Athletics",
    "title": "4 \u00d7 100 metres relay at the World Championships in Athletics",
    "header": [
      [
        "Rank",
        []
      ],
      [
        "Nation",
        []
      ],
      [
        "Gold",
        []
      ],
      [
        "Silver",
        []
      ],
      [
        "Bronze",
        []
      ],
      [
        "Total",
        []
      ]
    ],
    "data": [
      [
        [
          "1",
          []
        ],
        [
          "United States ( USA )",
          [
            "/wiki/United_States"
          ]
        ],
        [
          "8",
          []
        ],
        [
          "1",
          []
        ],
        [
          "0",
          []
        ],
        [
          "9",
          []
        ]
      ],
      [
        [
          "2",
          []
        ],
        [
          "Jamaica ( JAM )",
          [
            "/wiki/Jamaica"
          ]
        ],
        [
          "4",
          []
        ],
        [
          "1",
          []
        ],
        [
          "1",
          []
        ],
        [
          "6",
          []
        ]
      ],
      [
        [
          "3",
          []
        ],
        [
          "Canada ( CAN )",
          [
            "/wiki/Canada"
          ]
        ],
        [
          "2",
          []
        ],
        [
          "0",
          []
        ],
        [
          "3",
          []
        ],
        [
          "5",
          []
        ]
      ],
      [
        [
          "4",
          []
        ],
        [
          "Great Britain ( GBR )",
          [
            "/wiki/United_Kingdom"
          ]
        ],
        [
          "1",
          []
        ],
        [
          "3",
          []
        ],
        [
          "5",
          []
        ],
        [
          "9",
          []
        ]
      ],
      [
        [
          "5",
          []
        ],
        [
          "France ( FRA )",
          [
            "/wiki/France"
          ]
        ],
        [
          "1",
          []
        ],
        [
          "2",
          []
        ],
        [
          "0",
          []
        ],
        [
          "3",
          []
        ]
      ],
      [
        [
          "6",
          []
        ],
        [
          "South Africa ( RSA )",
          [
            "/wiki/South_Africa"
          ]
        ],
        [
          "1",
          []
        ],
        [
          "0",
          []
        ],
        [
          "0",
          []
        ],
        [
          "1",
          []
        ]
      ],
      [
        [
          "7",
          []
        ],
        [
          "Trinidad and Tobago ( TTO )",
          [
            "/wiki/Trinidad_and_Tobago"
          ]
        ],
        [
          "0",
          []
        ],
        [
          "3",
          []
        ],
        [
          "0",
          []
        ],
        [
          "3",
          []
        ]
      ],
      [
        [
          "8=",
          []
        ],
        [
          "Australia ( AUS )",
          [
            "/wiki/Australia"
          ]
        ],
        [
          "0",
          []
        ],
        [
          "1",
          []
        ],
        [
          "1",
          []
        ],
        [
          "2",
          []
        ]
      ],
      [
        [
          "8=",
          []
        ],
        [
          "Brazil ( BRA )",
          [
            "/wiki/Brazil"
          ]
        ],
        [
          "0",
          []
        ],
        [
          "1",
          []
        ],
        [
          "1",
          []
        ],
        [
          "2",
          []
        ]
      ],
      [
        [
          "8=",
          []
        ],
        [
          "Italy ( ITA )",
          [
            "/wiki/Italy"
          ]
        ],
        [
          "0",
          []
        ],
        [
          "1",
          []
        ],
        [
          "1",
          []
        ],
        [
          "2",
          []
        ]
      ],
      [
        [
          "8=",
          []
        ],
        [
          "Soviet Union ( URS )",
          [
            "/wiki/Soviet_Union"
          ]
        ],
        [
          "0",
          []
        ],
        [
          "1",
          []
        ],
        [
          "1",
          []
        ],
        [
          "2",
          []
        ]
      ],
      [
        [
          "12=",
          []
        ],
        [
          "Nigeria ( NGR )",
          [
            "/wiki/Nigeria"
          ]
        ],
        [
          "0",
          []
        ],
        [
          "1",
          []
        ],
        [
          "0",
          []
        ],
        [
          "1",
          []
        ]
      ],
      [
        [
          "12=",
          []
        ],
        [
          "China ( CHN )",
          [
            "/wiki/China"
          ]
        ],
        [
          "0",
          []
        ],
        [
          "1",
          []
        ],
        [
          "0",
          []
        ],
        [
          "1",
          []
        ]
      ],
      [
        [
          "14",
          []
        ],
        [
          "Japan ( JPN )",
          [
            "/wiki/Japan"
          ]
        ],
        [
          "0",
          []
        ],
        [
          "0",
          []
        ],
        [
          "2",
          []
        ],
        [
          "2",
          []
        ]
      ],
      [
        [
          "15=",
          []
        ],
        [
          "Netherlands ( NED )",
          [
            "/wiki/Netherlands"
          ]
        ],
        [
          "0",
          []
        ],
        [
          "0",
          []
        ],
        [
          "1",
          []
        ],
        [
          "1",
          []
        ]
      ],
      [
        [
          "15=",
          []
        ],
        [
          "Saint Kitts and Nevis ( SKN )",
          [
            "/wiki/Saint_Kitts_and_Nevis"
          ]
        ],
        [
          "0",
          []
        ],
        [
          "0",
          []
        ],
        [
          "1",
          []
        ],
        [
          "1",
          []
        ]
      ]
    ],
    "section_title": "Medalists -- Men",
    "section_text": "",
    "uid": "4_\u00d7_100_metres_relay_at_the_World_Championships_in_Athletics_2",
    "intro": "The 4\u00d7100 metres relay at the World Championships in Athletics has been contested by both men and women since the inaugural edition in 1983. It is the second most prestigious title in the discipline after the 4\u00d7100 metres relay at the Olympics. The competition format typically has one qualifying round leading to a final between eight teams. As of 2015, nations can qualify for the competition through a top eight finish at the previous IAAF World Relays event, with the remaining teams coming through the more traditional route of ranking highly on time in the seasonal lists. The championship records for the event are 37.04 seconds for men, set by Jamaica in 2011, and 41.07 seconds for women, set by Jamaica in 2015. The men's world record has been broken or equalled at the competition on four occasions. The women's world record has never been broken or equalled at the competition. The United States is the most successful nation in the discipline, with seven men's gold medals and six women's gold medals. The next most successful nation is Jamaica, which has won four gold medals in both the men's and women's events. Those two nations share the highest medal tally at eighteen. France and Canada, with two golds each, are the only other nations to have won multiple titles. Great Britain has the third highest medal tally in the event at nine medals."
  },
  "List_of_awards_and_nominations_received_by_Boardwalk_Empire_5": {
    "url": "https://en.wikipedia.org/wiki/List_of_awards_and_nominations_received_by_Boardwalk_Empire",
    "title": "List of awards and nominations received by Boardwalk Empire",
    "header": [
      [
        "Year",
        []
      ],
      [
        "Category",
        []
      ],
      [
        "Result",
        []
      ]
    ],
    "data": [
      [
        [
          "2011",
          [
            "/wiki/17th_Screen_Actors_Guild_Awards"
          ]
        ],
        [
          "Outstanding Performance by an Ensemble in a Drama Series",
          [
            "/wiki/Screen_Actors_Guild_Award_for_Outstanding_Performance_by_an_Ensemble_in_a_Drama_Series"
          ]
        ],
        [
          "Won",
          []
        ]
      ],
      [
        [
          "2011",
          [
            "/wiki/17th_Screen_Actors_Guild_Awards"
          ]
        ],
        [
          "Outstanding Performance by a Male Actor in a Drama Series",
          [
            "/wiki/Screen_Actors_Guild_Award_for_Outstanding_Performance_by_a_Male_Actor_in_a_Drama_Series"
          ]
        ],
        [
          "Won",
          []
        ]
      ],
      [
        [
          "2012",
          [
            "/wiki/18th_Screen_Actors_Guild_Awards"
          ]
        ],
        [
          "Outstanding Performance by an Ensemble in a Drama Series",
          [
            "/wiki/Screen_Actors_Guild_Award_for_Outstanding_Performance_by_an_Ensemble_in_a_Drama_Series"
          ]
        ],
        [
          "Won",
          []
        ]
      ],
      [
        [
          "2012",
          [
            "/wiki/18th_Screen_Actors_Guild_Awards"
          ]
        ],
        [
          "Outstanding Performance by a Male Actor in a Drama Series",
          [
            "/wiki/Screen_Actors_Guild_Award_for_Outstanding_Performance_by_a_Male_Actor_in_a_Drama_Series"
          ]
        ],
        [
          "Won",
          []
        ]
      ],
      [
        [
          "2013",
          [
            "/wiki/19th_Screen_Actors_Guild_Awards"
          ]
        ],
        [
          "Outstanding Performance by an Ensemble in a Drama Series",
          [
            "/wiki/Screen_Actors_Guild_Award_for_Outstanding_Performance_by_an_Ensemble_in_a_Drama_Series"
          ]
        ],
        [
          "Nominated",
          []
        ]
      ],
      [
        [
          "2013",
          [
            "/wiki/19th_Screen_Actors_Guild_Awards"
          ]
        ],
        [
          "Outstanding Performance by a Male Actor in a Drama Series",
          [
            "/wiki/Screen_Actors_Guild_Award_for_Outstanding_Performance_by_a_Male_Actor_in_a_Drama_Series"
          ]
        ],
        [
          "Nominated",
          []
        ]
      ],
      [
        [
          "2014",
          [
            "/wiki/20th_Screen_Actors_Guild_Awards"
          ]
        ],
        [
          "Outstanding Performance by an Ensemble in a Drama Series",
          [
            "/wiki/Screen_Actors_Guild_Award_for_Outstanding_Performance_by_an_Ensemble_in_a_Drama_Series"
          ]
        ],
        [
          "Nominated",
          []
        ]
      ],
      [
        [
          "2014",
          [
            "/wiki/20th_Screen_Actors_Guild_Awards"
          ]
        ],
        [
          "Outstanding Performance by a Male Actor in a Drama Series",
          [
            "/wiki/Screen_Actors_Guild_Award_for_Outstanding_Performance_by_a_Male_Actor_in_a_Drama_Series"
          ]
        ],
        [
          "Nominated",
          []
        ]
      ],
      [
        [
          "2014",
          [
            "/wiki/20th_Screen_Actors_Guild_Awards"
          ]
        ],
        [
          "Outstanding Performance by a Stunt Ensemble in a Television Series",
          [
            "/wiki/Screen_Actors_Guild_Award_for_Outstanding_Performance_by_a_Stunt_Ensemble_in_a_Television_Series"
          ]
        ],
        [
          "Nominated",
          []
        ]
      ]
    ],
    "section_title": "Screen Actors Guild Awards",
    "section_text": "",
    "uid": "List_of_awards_and_nominations_received_by_Boardwalk_Empire_5",
    "intro": "This is the list of awards and nominations received by the television series Boardwalk Empire."
  }
}