{
  "European_Cup_and_UEFA_Champions_League_records_and_statistics_5": {
    "url": "https://en.wikipedia.org/wiki/European_Cup_and_UEFA_Champions_League_records_and_statistics",
    "title": "European Cup and UEFA Champions League records and statistics",
    "header": [
      [
        "",
        []
      ],
      [
        "Player",
        []
      ],
      [
        "Nation",
        []
      ],
      [
        "Apps",
        []
      ],
      [
        "Years",
        []
      ],
      [
        "Club ( s )",
        []
      ]
    ],
    "data": [
      [
        [
          "1",
          []
        ],
        [
          "Iker Casillas",
          [
            "/wiki/Iker_Casillas"
          ]
        ],
        [
          "Spain",
          [
            "/wiki/Spain"
          ]
        ],
        [
          "177",
          []
        ],
        [
          "1999-",
          []
        ],
        [
          "Real Madrid ( 150 ) , Porto ( 27 )",
          [
            "/wiki/Real_Madrid_CF",
            "/wiki/FC_Porto"
          ]
        ]
      ],
      [
        [
          "2",
          []
        ],
        [
          "Cristiano Ronaldo",
          [
            "/wiki/Cristiano_Ronaldo"
          ]
        ],
        [
          "Portugal",
          [
            "/wiki/Portugal"
          ]
        ],
        [
          "168",
          []
        ],
        [
          "2003-",
          []
        ],
        [
          "Manchester United ( 52 ) , Real Madrid ( 101 ) , Juventus ( 15 )",
          [
            "/wiki/Manchester_United_F.C.",
            "/wiki/Real_Madrid_CF",
            "/wiki/Juventus_F.C."
          ]
        ]
      ],
      [
        [
          "3",
          []
        ],
        [
          "Xavi",
          [
            "/wiki/Xavi"
          ]
        ],
        [
          "Spain",
          [
            "/wiki/Spain"
          ]
        ],
        [
          "151",
          []
        ],
        [
          "1998-2015",
          []
        ],
        [
          "Barcelona",
          [
            "/wiki/FC_Barcelona"
          ]
        ]
      ],
      [
        [
          "4",
          []
        ],
        [
          "Ryan Giggs",
          [
            "/wiki/Ryan_Giggs"
          ]
        ],
        [
          "Wales",
          [
            "/wiki/Wales"
          ]
        ],
        [
          "145",
          []
        ],
        [
          "1993-2014",
          []
        ],
        [
          "Manchester United",
          [
            "/wiki/Manchester_United_F.C."
          ]
        ]
      ],
      [
        [
          "5",
          []
        ],
        [
          "Ra\u00fal",
          [
            "/wiki/Ra\u00fal_(footballer)"
          ]
        ],
        [
          "Spain",
          [
            "/wiki/Spain"
          ]
        ],
        [
          "142",
          []
        ],
        [
          "1995-2011",
          []
        ],
        [
          "Real Madrid ( 130 ) , Schalke 04 ( 12 )",
          [
            "/wiki/Real_Madrid_CF",
            "/wiki/FC_Schalke_04"
          ]
        ]
      ],
      [
        [
          "6",
          []
        ],
        [
          "Lionel Messi",
          [
            "/wiki/Lionel_Messi"
          ]
        ],
        [
          "Argentina",
          [
            "/wiki/Argentina"
          ]
        ],
        [
          "140",
          []
        ],
        [
          "2005-",
          []
        ],
        [
          "Barcelona",
          [
            "/wiki/FC_Barcelona"
          ]
        ]
      ],
      [
        [
          "7",
          []
        ],
        [
          "Paolo Maldini",
          [
            "/wiki/Paolo_Maldini"
          ]
        ],
        [
          "Italy",
          [
            "/wiki/Italy"
          ]
        ],
        [
          "135",
          []
        ],
        [
          "1988-2008",
          []
        ],
        [
          "Milan",
          [
            "/wiki/A.C._Milan"
          ]
        ]
      ],
      [
        [
          "8",
          []
        ],
        [
          "Andr\u00e9s Iniesta",
          [
            "/wiki/Andr\u00e9s_Iniesta"
          ]
        ],
        [
          "Spain",
          [
            "/wiki/Spain"
          ]
        ],
        [
          "130",
          []
        ],
        [
          "2002-2018",
          []
        ],
        [
          "Barcelona",
          [
            "/wiki/FC_Barcelona"
          ]
        ]
      ],
      [
        [
          "9",
          []
        ],
        [
          "Clarence Seedorf",
          [
            "/wiki/Clarence_Seedorf"
          ]
        ],
        [
          "Netherlands",
          [
            "/wiki/Netherlands"
          ]
        ],
        [
          "125",
          []
        ],
        [
          "1994-2012",
          []
        ],
        [
          "Ajax ( 11 ) , Real Madrid ( 25 ) , Milan ( 89 )",
          [
            "/wiki/AFC_Ajax",
            "/wiki/Real_Madrid_CF",
            "/wiki/A.C._Milan"
          ]
        ]
      ],
      [
        [
          "10",
          []
        ],
        [
          "Paul Scholes",
          [
            "/wiki/Paul_Scholes"
          ]
        ],
        [
          "England",
          [
            "/wiki/England"
          ]
        ],
        [
          "124",
          []
        ],
        [
          "1994-2013",
          []
        ],
        [
          "Manchester United",
          [
            "/wiki/Manchester_United_F.C."
          ]
        ]
      ]
    ],
    "section_title": "Players -- Appearances",
    "section_text": "Iker Casillas has made the most appearances in the competition . As of 11 December 2019 [ 24 ] This table does not include appearances made in the qualification stage .",
    "uid": "European_Cup_and_UEFA_Champions_League_records_and_statistics_5",
    "intro": "This page details statistics of the European Cup and Champions League. Unless notified these statistics concern all seasons since inception of the European Cup in the 1955-56 season, including qualifying rounds of the UEFA Champions League as per Competition facts; all goals scored before league phase(s) count as qualifying goals."
  },
  "List_of_Newfoundland_and_Labrador_communities_by_population_1": {
    "url": "https://en.wikipedia.org/wiki/List_of_Newfoundland_and_Labrador_communities_by_population",
    "title": "List of Newfoundland and Labrador communities by population",
    "header": [
      [
        "Name",
        []
      ],
      [
        "Population in 2011",
        []
      ],
      [
        "Population in 2006",
        []
      ],
      [
        "Area in 2011 ( km\u00b2 )",
        []
      ]
    ],
    "data": [
      [
        [
          "Conception Bay South",
          [
            "/wiki/Conception_Bay_South"
          ]
        ],
        [
          "24,848",
          []
        ],
        [
          "21,966",
          []
        ],
        [
          "59.27",
          []
        ]
      ],
      [
        [
          "Paradise",
          [
            "/wiki/Paradise,_Newfoundland_and_Labrador"
          ]
        ],
        [
          "17,695",
          []
        ],
        [
          "12,584",
          []
        ],
        [
          "29.24",
          []
        ]
      ],
      [
        [
          "Grand Falls-Windsor",
          [
            "/wiki/Grand_Falls-Windsor"
          ]
        ],
        [
          "13,725",
          []
        ],
        [
          "13,558",
          []
        ],
        [
          "54.67",
          []
        ]
      ],
      [
        [
          "Gander",
          [
            "/wiki/Gander,_Newfoundland_and_Labrador"
          ]
        ],
        [
          "11,054",
          []
        ],
        [
          "9,951",
          []
        ],
        [
          "104.25",
          []
        ]
      ],
      [
        [
          "Happy Valley-Goose Bay",
          [
            "/wiki/Happy_Valley-Goose_Bay"
          ]
        ],
        [
          "7,552",
          []
        ],
        [
          "7,572",
          []
        ],
        [
          "305.85",
          []
        ]
      ],
      [
        [
          "Torbay",
          [
            "/wiki/Torbay,_Newfoundland_and_Labrador"
          ]
        ],
        [
          "7,397",
          []
        ],
        [
          "6,281",
          []
        ],
        [
          "34.88",
          []
        ]
      ],
      [
        [
          "Labrador City",
          [
            "/wiki/Labrador_City"
          ]
        ],
        [
          "7,367",
          []
        ],
        [
          "7,240",
          []
        ],
        [
          "38.83",
          []
        ]
      ],
      [
        [
          "Portugal Cove-St. Philip 's",
          [
            "/wiki/Portugal_Cove\u2013St._Philip's"
          ]
        ],
        [
          "7,366",
          []
        ],
        [
          "6,575",
          []
        ],
        [
          "57.35",
          []
        ]
      ],
      [
        [
          "Stephenville",
          [
            "/wiki/Stephenville,_Newfoundland_and_Labrador"
          ]
        ],
        [
          "6,719",
          []
        ],
        [
          "6,588",
          []
        ],
        [
          "35.68",
          []
        ]
      ],
      [
        [
          "Clarenville",
          [
            "/wiki/Clarenville"
          ]
        ],
        [
          "6,036",
          []
        ],
        [
          "5,274",
          []
        ],
        [
          "140.79",
          []
        ]
      ],
      [
        [
          "Bay Roberts",
          [
            "/wiki/Bay_Roberts"
          ]
        ],
        [
          "5,818",
          []
        ],
        [
          "5,414",
          []
        ],
        [
          "23.92",
          []
        ]
      ],
      [
        [
          "Marystown",
          [
            "/wiki/Marystown"
          ]
        ],
        [
          "5,506",
          []
        ],
        [
          "5,436",
          []
        ],
        [
          "61.97",
          []
        ]
      ],
      [
        [
          "Deer Lake",
          [
            "/wiki/Deer_Lake,_Newfoundland_and_Labrador"
          ]
        ],
        [
          "4,995",
          []
        ],
        [
          "4,827",
          []
        ],
        [
          "73.23",
          []
        ]
      ],
      [
        [
          "Carbonear",
          [
            "/wiki/Carbonear"
          ]
        ],
        [
          "4,739",
          []
        ],
        [
          "4,723",
          []
        ],
        [
          "11.81",
          []
        ]
      ],
      [
        [
          "Channel-Port aux Basques",
          [
            "/wiki/Channel-Port_aux_Basques"
          ]
        ],
        [
          "4,170",
          []
        ],
        [
          "4,319",
          []
        ],
        [
          "38.77",
          []
        ]
      ],
      [
        [
          "Placentia",
          [
            "/wiki/Placentia,_Newfoundland_and_Labrador"
          ]
        ],
        [
          "3,643",
          []
        ],
        [
          "3,898",
          []
        ],
        [
          "58.05",
          []
        ]
      ],
      [
        [
          "Bonavista",
          [
            "/wiki/Bonavista,_Newfoundland_and_Labrador"
          ]
        ],
        [
          "3,589",
          []
        ],
        [
          "3,764",
          []
        ],
        [
          "31.5",
          []
        ]
      ],
      [
        [
          "Lewisporte",
          [
            "/wiki/Lewisporte"
          ]
        ],
        [
          "3,483",
          []
        ],
        [
          "3,308",
          []
        ],
        [
          "36.91",
          []
        ]
      ],
      [
        [
          "Pasadena",
          [
            "/wiki/Pasadena,_Newfoundland_and_Labrador"
          ]
        ],
        [
          "3,352",
          []
        ],
        [
          "3,180",
          []
        ],
        [
          "49.16",
          []
        ]
      ],
      [
        [
          "Bishop 's Falls",
          [
            "/wiki/Bishop's_Falls"
          ]
        ],
        [
          "3,341",
          []
        ],
        [
          "3,399",
          []
        ],
        [
          "28.12",
          []
        ]
      ]
    ],
    "section_title": "Towns",
    "section_text": "The following is a list of the incorporated towns in Newfoundland and Labrador as of the Canada 2011 Census by population .",
    "uid": "List_of_Newfoundland_and_Labrador_communities_by_population_1",
    "intro": "This page lists the incorporated cities and towns of the province of Newfoundland and Labrador, Canada by population."
  },
  "East_Coast_Conference_(Division_II)_Men's_Basketball_Tournament_1": {
    "url": "https://en.wikipedia.org/wiki/East_Coast_Conference_(Division_II)_Men's_Basketball_Tournament",
    "title": "East Coast Conference (Division II) Men's Basketball Tournament",
    "header": [
      [
        "School",
        []
      ],
      [
        "Finals Record",
        []
      ],
      [
        "Finals Appearances",
        []
      ],
      [
        "Years",
        []
      ]
    ],
    "data": [
      [
        [
          "LIU Post",
          [
            "/wiki/LIU_Post_Pioneers"
          ]
        ],
        [
          "7-4",
          []
        ],
        [
          "11",
          []
        ],
        [
          "1990 , 1991 , 2004 , 2008 , 2009 , 2011 , 2012",
          []
        ]
      ],
      [
        [
          "Adelphi",
          [
            "/wiki/Adelphi_Panthers"
          ]
        ],
        [
          "6-4",
          []
        ],
        [
          "10",
          []
        ],
        [
          "1996 , 1999 , 2001 , 2003 , 2006 , 2007",
          []
        ]
      ],
      [
        [
          "St. Thomas Aquinas",
          [
            "/wiki/St._Thomas_Aquinas_College"
          ]
        ],
        [
          "4-2",
          []
        ],
        [
          "6",
          []
        ],
        [
          "2016 , 2017 , 2018 , 2020",
          []
        ]
      ],
      [
        [
          "Saint Rose",
          [
            "/wiki/College_of_Saint_Rose"
          ]
        ],
        [
          "4-4",
          []
        ],
        [
          "8",
          []
        ],
        [
          "1995 , 1997 , 1998 , 2000",
          []
        ]
      ],
      [
        [
          "Bridgeport",
          [
            "/wiki/Bridgeport_Purple_Knights"
          ]
        ],
        [
          "4-7",
          []
        ],
        [
          "11",
          []
        ],
        [
          "2010 , 2013 , 2014 , 2015",
          []
        ]
      ],
      [
        [
          "Jefferson ( Philadelphia )",
          [
            "/wiki/Thomas_Jefferson_University"
          ]
        ],
        [
          "3-3",
          []
        ],
        [
          "6",
          []
        ],
        [
          "1992 , 1993 , 1994",
          []
        ]
      ],
      [
        [
          "Queens",
          [
            "/wiki/Queens_College,_City_University_of_New_York"
          ]
        ],
        [
          "2-0",
          []
        ],
        [
          "2",
          []
        ],
        [
          "2002 , 2005",
          []
        ]
      ],
      [
        [
          "Molloy",
          [
            "/wiki/Molloy_College"
          ]
        ],
        [
          "1-2",
          []
        ],
        [
          "3",
          []
        ],
        [
          "2019",
          []
        ]
      ],
      [
        [
          "Dowling",
          [
            "/wiki/Dowling_Golden_Lions"
          ]
        ],
        [
          "0-3",
          []
        ],
        [
          "3",
          []
        ],
        [
          "",
          []
        ]
      ],
      [
        [
          "NYIT",
          [
            "/wiki/NYIT_Bears"
          ]
        ],
        [
          "0-1",
          []
        ],
        [
          "1",
          []
        ],
        [
          "",
          []
        ]
      ],
      [
        [
          "Daemen",
          [
            "/wiki/Daemen_Wildcats"
          ]
        ],
        [
          "0-1",
          []
        ],
        [
          "1",
          []
        ],
        [
          "",
          []
        ]
      ]
    ],
    "section_title": "Championship records",
    "section_text": "",
    "uid": "East_Coast_Conference_(Division_II)_Men's_Basketball_Tournament_1",
    "intro": "The East Coast Conference Men's Basketball Tournament is the annual conference basketball championship tournament for the East Coast Conference. The tournament has been held annually since 1990. It is a single-elimination tournament and seeding is based on regular season records. The winner, declared conference champion, receives the EEC's automatic bid to the NCAA Men's Division II Basketball Championship."
  },
  "Category:Dames_Grand_Commander_of_the_Order_of_Chula_Chom_Klao_0": {
    "url": "https://en.wikipedia.org/wiki/Category:Dames_Grand_Commander_of_the_Order_of_Chula_Chom_Klao",
    "title": "Category:Dames Grand Commander of the Order of Chula Chom Klao",
    "header": [
      [
        "Class",
        []
      ],
      [
        "Gender",
        []
      ],
      [
        "Category",
        []
      ]
    ],
    "data": [
      [
        [
          "Special Class",
          []
        ],
        [
          "Males",
          []
        ],
        [
          "Category : Knights Grand Cordon of the Order of Chula Chom Klao",
          []
        ]
      ],
      [
        [
          "1st Class",
          []
        ],
        [
          "Males",
          []
        ],
        [
          "Category : Knights Grand Cross of the Order of Chula Chom Klao",
          []
        ]
      ],
      [
        [
          "1st Class",
          []
        ],
        [
          "Females",
          []
        ],
        [
          "Category : Dames Grand Cross of the Order of Chula Chom Klao",
          []
        ]
      ],
      [
        [
          "2nd Class , Higher Grade",
          []
        ],
        [
          "Males",
          []
        ],
        [
          "Category : Knights Grand Commander of the Order of Chula Chom Klao",
          [
            "/wiki/Category:Knights_Grand_Commander_of_the_Order_of_Chula_Chom_Klao"
          ]
        ]
      ],
      [
        [
          "2nd Class , Higher Grade",
          []
        ],
        [
          "Females",
          []
        ],
        [
          "Category : Dames Grand Commander of the Order of Chula Chom Klao",
          []
        ]
      ],
      [
        [
          "2nd Class , Lower Grade",
          []
        ],
        [
          "Males",
          []
        ],
        [
          "Category : Knights Commander of the Order of Chula Chom Klao",
          [
            "/wiki/Category:Knights_Commander_of_the_Order_of_Chula_Chom_Klao"
          ]
        ]
      ],
      [
        [
          "2nd Class , Lower Grade",
          []
        ],
        [
          "Females",
          []
        ],
        [
          "Category : Dames Commander of the Order of Chula Chom Klao",
          []
        ]
      ],
      [
        [
          "3rd Class , Higher Grade",
          []
        ],
        [
          "Males",
          []
        ],
        [
          "Category : Grand Companions of the Order of Chula Chom Klao",
          [
            "/wiki/Category:Grand_Companions_of_the_Order_of_Chula_Chom_Klao"
          ]
        ]
      ],
      [
        [
          "3rd Class , Lower Grade",
          []
        ],
        [
          "Males",
          []
        ],
        [
          "Category : Companions of the Order of Chula Chom Klao",
          []
        ]
      ],
      [
        [
          "3rd Class",
          []
        ],
        [
          "Females",
          []
        ],
        [
          "Category : Companions of the Order of Chula Chom Klao",
          []
        ]
      ],
      [
        [
          "3rd Class",
          []
        ],
        [
          "Males",
          []
        ],
        [
          "Category : Junior Companions of the Order of Chula Chom Klao",
          []
        ]
      ],
      [
        [
          "4th Class",
          []
        ],
        [
          "Females",
          []
        ],
        [
          "Category : Members of the Order of Chula Chom Klao",
          [
            "/wiki/Category:Members_of_the_Order_of_Chula_Chom_Klao"
          ]
        ]
      ]
    ],
    "section_title": "",
    "section_text": "The main article for this category is Order of Chula Chom Klao . This category is only for articles related to people who have been appointed as a Dames Grand Commander of the Order of Chula Chom Klao , a Thai chivalric order . For people appointed to other grades , please use the category applicable to their grade :",
    "uid": "Category:Dames_Grand_Commander_of_the_Order_of_Chula_Chom_Klao_0",
    "intro": "This category is only for articles related to people who have been appointed as a Dames Grand Commander of the Order of Chula Chom Klao , a Thai chivalric order. For people appointed to other grades, please use the category applicable to their grade:"
  },
  "List_of_tallest_twin_buildings_and_structures_in_the_world_2": {
    "url": "https://en.wikipedia.org/wiki/List_of_tallest_twin_buildings_and_structures",
    "title": "List of tallest twin buildings and structures",
    "header": [
      [
        "Name",
        []
      ],
      [
        "City",
        []
      ],
      [
        "Country",
        []
      ],
      [
        "Height ( max . )",
        []
      ],
      [
        "No . of columns",
        []
      ],
      [
        "Floors ( max./min . )",
        []
      ],
      [
        "Status",
        []
      ]
    ],
    "data": [
      [
        [
          "The One",
          [
            "/wiki/The_One_(Colombo)"
          ]
        ],
        [
          "Colombo",
          [
            "/wiki/Colombo"
          ]
        ],
        [
          "Sri Lanka",
          [
            "/wiki/Sri_Lanka"
          ]
        ],
        [
          "420 m ( 1,378 ft )",
          []
        ],
        [
          "3",
          []
        ],
        [
          "95/91/65",
          []
        ],
        [
          "Under construction",
          []
        ]
      ],
      [
        [
          "Haeundae LCT The Sharp",
          [
            "/wiki/Haeundae_LCT_The_Sharp"
          ]
        ],
        [
          "Busan",
          [
            "/wiki/Busan"
          ]
        ],
        [
          "South Korea",
          [
            "/wiki/South_Korea"
          ]
        ],
        [
          "411.6 m ( 1,350 ft )",
          []
        ],
        [
          "3",
          []
        ],
        [
          "101/85/85",
          []
        ],
        [
          "Topped-out",
          []
        ]
      ],
      [
        [
          "Rustomjee Crown",
          [
            "/wiki/DB_Crown"
          ]
        ],
        [
          "Mumbai",
          [
            "/wiki/Mumbai"
          ]
        ],
        [
          "India",
          [
            "/wiki/India"
          ]
        ],
        [
          "337 m ( 1,106 ft )",
          []
        ],
        [
          "3",
          []
        ],
        [
          "75/75",
          []
        ],
        [
          "Under construction",
          []
        ]
      ],
      [
        [
          "One Za'abeel",
          []
        ],
        [
          "Dubai",
          [
            "/wiki/Dubai"
          ]
        ],
        [
          "United Arab Emirates",
          [
            "/wiki/United_Arab_Emirates"
          ]
        ],
        [
          "330 m ( 1,083 ft )",
          []
        ],
        [
          "3",
          []
        ],
        [
          "90/70",
          []
        ],
        [
          "Under construction",
          []
        ]
      ],
      [
        [
          "Vietnam Financial Centre",
          []
        ],
        [
          "Ho Chi Minh City",
          [
            "/wiki/Ho_Chi_Minh_City"
          ]
        ],
        [
          "Vietnam",
          [
            "/wiki/Vietnam"
          ]
        ],
        [
          "285 m ( 935 ft )",
          []
        ],
        [
          "5",
          []
        ],
        [
          "48/48",
          []
        ],
        [
          "Proposed",
          []
        ]
      ],
      [
        [
          "Sorrento",
          [
            "/wiki/Union_Square_(Hong_Kong)"
          ]
        ],
        [
          "Hong Kong",
          [
            "/wiki/Hong_Kong"
          ]
        ],
        [
          "China",
          [
            "/wiki/China"
          ]
        ],
        [
          "256 m ( 840 ft )",
          []
        ],
        [
          "5",
          []
        ],
        [
          "81/73/71/69/67",
          []
        ],
        [
          "Completed",
          []
        ]
      ],
      [
        [
          "The Belcher 's",
          [
            "/wiki/The_Belcher's"
          ]
        ],
        [
          "Hong Kong",
          [
            "/wiki/Hong_Kong"
          ]
        ],
        [
          "China",
          [
            "/wiki/China"
          ]
        ],
        [
          "227 m ( 745 ft )",
          []
        ],
        [
          "6",
          []
        ],
        [
          "63/63/63/63/63/61",
          []
        ],
        [
          "Completed",
          []
        ]
      ],
      [
        [
          "CityPlex Towers",
          [
            "/wiki/CityPlex_Towers"
          ]
        ],
        [
          "Tulsa",
          [
            "/wiki/Tulsa,_Oklahoma"
          ]
        ],
        [
          "United States",
          [
            "/wiki/United_States"
          ]
        ],
        [
          "197.5 m ( 648 ft )",
          []
        ],
        [
          "3",
          []
        ],
        [
          "60/30/20",
          []
        ],
        [
          "Completed",
          []
        ]
      ],
      [
        [
          "Marina Bay Sands",
          [
            "/wiki/Marina_Bay_Sands"
          ]
        ],
        [
          "Singapore",
          [
            "/wiki/Singapore"
          ]
        ],
        [
          "Singapore",
          [
            "/wiki/Singapore"
          ]
        ],
        [
          "195 m ( 640 ft )",
          []
        ],
        [
          "3",
          []
        ],
        [
          "55/55/55",
          []
        ],
        [
          "Completed",
          []
        ]
      ],
      [
        [
          "Flame Towers",
          [
            "/wiki/Flame_Towers"
          ]
        ],
        [
          "Baku",
          [
            "/wiki/Baku"
          ]
        ],
        [
          "Azerbaijan",
          [
            "/wiki/Azerbaijan"
          ]
        ],
        [
          "182 m ( 597 ft )",
          []
        ],
        [
          "3",
          []
        ],
        [
          "33/30/28",
          []
        ],
        [
          "Completed",
          []
        ]
      ],
      [
        [
          "The Bridge",
          []
        ],
        [
          "Phnom Penh",
          [
            "/wiki/Phnom_Penh"
          ]
        ],
        [
          "Cambodia",
          [
            "/wiki/Cambodia"
          ]
        ],
        [
          "154 m ( 505 ft )",
          []
        ],
        [
          "4",
          []
        ],
        [
          "45/45/45/45",
          []
        ],
        [
          "Completed",
          []
        ]
      ],
      [
        [
          "Ren Cen Towers 100 , 200 , 300 and 400",
          [
            "/wiki/Renaissance_Center"
          ]
        ],
        [
          "Detroit",
          [
            "/wiki/Detroit"
          ]
        ],
        [
          "United States",
          [
            "/wiki/United_States"
          ]
        ],
        [
          "159 m ( 522 ft )",
          []
        ],
        [
          "4",
          []
        ],
        [
          "39/39/39/39",
          []
        ],
        [
          "Completed",
          []
        ]
      ],
      [
        [
          "Park Gate Residence ( Wasl1 )",
          []
        ],
        [
          "Dubai",
          [
            "/wiki/Dubai"
          ]
        ],
        [
          "United Arab Emirates",
          [
            "/wiki/United_Arab_Emirates"
          ]
        ],
        [
          "",
          []
        ],
        [
          "4",
          []
        ],
        [
          "55/50/40/31",
          []
        ],
        [
          "Under construction",
          []
        ]
      ],
      [
        [
          "Presidential Towers",
          [
            "/wiki/Presidential_Towers"
          ]
        ],
        [
          "Chicago",
          [
            "/wiki/Chicago"
          ]
        ],
        [
          "United States",
          [
            "/wiki/United_States"
          ]
        ],
        [
          "141 metres ( 463 ft )",
          []
        ],
        [
          "4",
          []
        ],
        [
          "49/49/49/49",
          []
        ],
        [
          "Completed",
          []
        ]
      ],
      [
        [
          "Keells OnThree20",
          []
        ],
        [
          "Colombo",
          [
            "/wiki/Colombo"
          ]
        ],
        [
          "Sri Lanka",
          [
            "/wiki/Sri_Lanka"
          ]
        ],
        [
          "",
          []
        ],
        [
          "3",
          []
        ],
        [
          "37/37/37",
          []
        ],
        [
          "Under construction",
          []
        ]
      ],
      [
        [
          "Malecon Center",
          [
            "/wiki/Malecon_Center"
          ]
        ],
        [
          "Santo Domingo",
          [
            "/wiki/Santo_Domingo"
          ]
        ],
        [
          "Dominican Republic",
          [
            "/wiki/Dominican_Republic"
          ]
        ],
        [
          "122 m ( 400 ft )",
          []
        ],
        [
          "3",
          []
        ],
        [
          "31/31",
          []
        ],
        [
          "Completed",
          []
        ]
      ],
      [
        [
          "The Centaurus",
          [
            "/wiki/The_Centaurus"
          ]
        ],
        [
          "Islamabad",
          [
            "/wiki/Islamabad"
          ]
        ],
        [
          "Pakistan",
          [
            "/wiki/Pakistan"
          ]
        ],
        [
          "110 m ( 361 ft )",
          []
        ],
        [
          "3",
          []
        ],
        [
          "32/32",
          []
        ],
        [
          "Completed",
          []
        ]
      ],
      [
        [
          "Oberoi Esquire Towers",
          []
        ],
        [
          "Mumbai",
          [
            "/wiki/Mumbai"
          ]
        ],
        [
          "India",
          [
            "/wiki/India"
          ]
        ],
        [
          "",
          []
        ],
        [
          "3",
          []
        ],
        [
          "50/50",
          []
        ],
        [
          "Under construction",
          []
        ]
      ],
      [
        [
          "Abraj Al Lulu",
          [
            "/wiki/Abraj_Al_Lulu"
          ]
        ],
        [
          "Seef",
          [
            "/wiki/Seef"
          ]
        ],
        [
          "Bahrain",
          [
            "/wiki/Bahrain"
          ]
        ],
        [
          "",
          []
        ],
        [
          "3",
          []
        ],
        [
          "50/40",
          []
        ],
        [
          "Completed",
          []
        ]
      ],
      [
        [
          "Havelock City Project",
          [
            "/wiki/Havelock_City"
          ]
        ],
        [
          "Colombo",
          [
            "/wiki/Colombo"
          ]
        ],
        [
          "Sri Lanka",
          [
            "/wiki/Sri_Lanka"
          ]
        ],
        [
          "",
          []
        ],
        [
          "9",
          []
        ],
        [
          "29/29/27/27/22/22/22/22/19",
          []
        ],
        [
          "Phase 1 complete , other phases Under construction",
          []
        ]
      ]
    ],
    "section_title": "Buildings and structures with more than two identical columns",
    "section_text": "",
    "uid": "List_of_tallest_twin_buildings_and_structures_in_the_world_2",
    "intro": "The term twin towers in architecture refers to two tall structures with nearly identical characteristics and similar height, usually constructed close to each other and part of a single complex. The charts below lists most twin and other multi-column structures with similar characteristics. Buildings and structures shorter than 100 m (330 ft) are not included."
  },
  "Swimming_at_the_2004_Summer_Paralympics_\u2013_Men's_4_x_100_metre_freestyle_relay_34pts_1": {
    "url": "https://en.wikipedia.org/wiki/Swimming_at_the_2004_Summer_Paralympics_\u2013_Men's_4_\u00d7_100_metre_freestyle_relay_34pts",
    "title": "Swimming at the 2004 Summer Paralympics \u2013 Men's 4 \u00d7 100 metre freestyle relay 34pts",
    "header": [
      [
        "Rank",
        []
      ],
      [
        "Team",
        []
      ],
      [
        "Time",
        []
      ]
    ],
    "data": [
      [
        [
          "1",
          []
        ],
        [
          "Brazil",
          [
            "/wiki/Brazil_at_the_2004_Summer_Paralympics"
          ]
        ],
        [
          "4:11.74",
          []
        ]
      ],
      [
        [
          "2",
          []
        ],
        [
          "China",
          [
            "/wiki/China_at_the_2004_Summer_Paralympics"
          ]
        ],
        [
          "4:12.15",
          []
        ]
      ],
      [
        [
          "3",
          []
        ],
        [
          "Spain",
          [
            "/wiki/Spain_at_the_2004_Summer_Paralympics"
          ]
        ],
        [
          "4:13.24",
          []
        ]
      ],
      [
        [
          "4",
          []
        ],
        [
          "Canada",
          [
            "/wiki/Canada_at_the_2004_Summer_Paralympics"
          ]
        ],
        [
          "4:21.64",
          []
        ]
      ],
      [
        [
          "5",
          []
        ],
        [
          "Japan",
          [
            "/wiki/Japan_at_the_2004_Summer_Paralympics"
          ]
        ],
        [
          "4:33.01",
          []
        ]
      ],
      [
        [
          "6",
          []
        ],
        [
          "Germany",
          [
            "/wiki/Germany_at_the_2004_Summer_Paralympics"
          ]
        ],
        [
          "4:39.96",
          []
        ]
      ]
    ],
    "section_title": "1st round",
    "section_text": "Qualified for final round Heat 1 22 Sept. 2004 , morning session",
    "uid": "Swimming_at_the_2004_Summer_Paralympics_\u2013_Men's_4_x_100_metre_freestyle_relay_34pts_1",
    "intro": "N/A"
  },
  "List_of_communes_of_the_Metropolitan_City_of_Reggio_Calabria_0": {
    "url": "https://en.wikipedia.org/wiki/List_of_communes_of_the_Metropolitan_City_of_Reggio_Calabria",
    "title": "List of communes of the Metropolitan City of Reggio Calabria",
    "header": [
      [
        "ISTAT Code",
        [
          "/wiki/Italian_National_Institute_of_Statistics"
        ]
      ],
      [
        "Comune",
        [
          "/wiki/Comune"
        ]
      ],
      [
        "Population ( 2005 )",
        []
      ]
    ],
    "data": [
      [
        [
          "080001",
          []
        ],
        [
          "Africo",
          [
            "/wiki/Africo"
          ]
        ],
        [
          "3,376",
          []
        ]
      ],
      [
        [
          "080002",
          []
        ],
        [
          "Agnana Calabra",
          [
            "/wiki/Agnana_Calabra"
          ]
        ],
        [
          "709",
          []
        ]
      ],
      [
        [
          "080003",
          []
        ],
        [
          "Anoia",
          [
            "/wiki/Anoia,_Calabria"
          ]
        ],
        [
          "2,313",
          []
        ]
      ],
      [
        [
          "080004",
          []
        ],
        [
          "Antonimina",
          [
            "/wiki/Antonimina"
          ]
        ],
        [
          "1,430",
          []
        ]
      ],
      [
        [
          "080005",
          []
        ],
        [
          "Ardore",
          [
            "/wiki/Ardore"
          ]
        ],
        [
          "4,822",
          []
        ]
      ],
      [
        [
          "080006",
          []
        ],
        [
          "Bagaladi",
          [
            "/wiki/Bagaladi"
          ]
        ],
        [
          "1,241",
          []
        ]
      ],
      [
        [
          "080007",
          []
        ],
        [
          "Bagnara Calabra",
          [
            "/wiki/Bagnara_Calabra"
          ]
        ],
        [
          "11,078",
          []
        ]
      ],
      [
        [
          "080008",
          []
        ],
        [
          "Benestare",
          [
            "/wiki/Benestare"
          ]
        ],
        [
          "2,442",
          []
        ]
      ],
      [
        [
          "080009",
          []
        ],
        [
          "Bianco",
          [
            "/wiki/Bianco"
          ]
        ],
        [
          "4,233",
          []
        ]
      ],
      [
        [
          "080010",
          []
        ],
        [
          "Bivongi",
          [
            "/wiki/Bivongi"
          ]
        ],
        [
          "1,540",
          []
        ]
      ],
      [
        [
          "080011",
          []
        ],
        [
          "Bova",
          [
            "/wiki/Bova,_Calabria"
          ]
        ],
        [
          "471",
          []
        ]
      ],
      [
        [
          "080012",
          []
        ],
        [
          "Bovalino",
          [
            "/wiki/Bovalino"
          ]
        ],
        [
          "8,406",
          []
        ]
      ],
      [
        [
          "080013",
          []
        ],
        [
          "Bova Marina",
          [
            "/wiki/Bova_Marina"
          ]
        ],
        [
          "3,870",
          []
        ]
      ],
      [
        [
          "080014",
          []
        ],
        [
          "Brancaleone",
          [
            "/wiki/Brancaleone,_Calabria"
          ]
        ],
        [
          "3,923",
          []
        ]
      ],
      [
        [
          "080015",
          []
        ],
        [
          "Bruzzano Zeffirio",
          [
            "/wiki/Bruzzano_Zeffirio"
          ]
        ],
        [
          "1,331",
          []
        ]
      ],
      [
        [
          "080016",
          []
        ],
        [
          "Calanna",
          [
            "/wiki/Calanna"
          ]
        ],
        [
          "1,095",
          []
        ]
      ],
      [
        [
          "080017",
          []
        ],
        [
          "Camini",
          [
            "/wiki/Camini"
          ]
        ],
        [
          "762",
          []
        ]
      ],
      [
        [
          "080018",
          []
        ],
        [
          "Campo Calabro",
          [
            "/wiki/Campo_Calabro"
          ]
        ],
        [
          "4,193",
          []
        ]
      ],
      [
        [
          "080019",
          []
        ],
        [
          "Candidoni",
          [
            "/wiki/Candidoni"
          ]
        ],
        [
          "399",
          []
        ]
      ],
      [
        [
          "080020",
          []
        ],
        [
          "Canolo",
          [
            "/wiki/Canolo"
          ]
        ],
        [
          "901",
          []
        ]
      ]
    ],
    "section_title": "",
    "section_text": "The following is a list of the 97 comuni of the Metropolitan City of Reggio Calabria , Calabria , in Italy .",
    "uid": "List_of_communes_of_the_Metropolitan_City_of_Reggio_Calabria_0",
    "intro": "The following is a list of the 97 comuni of the Metropolitan City of Reggio Calabria, Calabria, in Italy."
  },
  "2018_United_States_House_of_Representatives_elections_in_Iowa_21": {
    "url": "https://en.wikipedia.org/wiki/2018_United_States_House_of_Representatives_elections_in_Iowa",
    "title": "2018 United States House of Representatives elections in Iowa",
    "header": [
      [
        "Source",
        []
      ],
      [
        "Ranking",
        []
      ],
      [
        "As of",
        []
      ]
    ],
    "data": [
      [
        [
          "The Cook Political Report",
          [
            "/wiki/The_Cook_Political_Report"
          ]
        ],
        [
          "Lean R",
          []
        ],
        [
          "October 31 , 2018",
          []
        ]
      ],
      [
        [
          "Inside Elections",
          [
            "/wiki/Stuart_Rothenberg"
          ]
        ],
        [
          "Likely R",
          []
        ],
        [
          "September 28 , 2018",
          []
        ]
      ],
      [
        [
          "Sabato 's Crystal Ball",
          [
            "/wiki/Sabato's_Crystal_Ball"
          ]
        ],
        [
          "Likely R",
          []
        ],
        [
          "October 4 , 2018",
          []
        ]
      ],
      [
        [
          "Daily Kos",
          [
            "/wiki/Daily_Kos"
          ]
        ],
        [
          "Safe R",
          []
        ],
        [
          "October 5 , 2018",
          []
        ]
      ],
      [
        [
          "Fox News",
          [
            "/wiki/Fox_News"
          ]
        ],
        [
          "Lean R",
          []
        ],
        [
          "October 31 , 2018",
          []
        ]
      ],
      [
        [
          "CNN",
          [
            "/wiki/CNN"
          ]
        ],
        [
          "Likely R",
          []
        ],
        [
          "October 31 , 2018",
          []
        ]
      ],
      [
        [
          "RealClearPolitics",
          [
            "/wiki/RealClearPolitics"
          ]
        ],
        [
          "Safe R",
          []
        ],
        [
          "October 31 , 2018",
          []
        ]
      ],
      [
        [
          "The New York Times",
          [
            "/wiki/The_New_York_Times"
          ]
        ],
        [
          "Lean R",
          []
        ],
        [
          "October 31 , 2018",
          []
        ]
      ],
      [
        [
          "Politico",
          [
            "/wiki/Politico"
          ]
        ],
        [
          "Likely R",
          []
        ],
        [
          "October 31 , 2018",
          []
        ]
      ]
    ],
    "section_title": "District 4 -- General election",
    "section_text": "",
    "uid": "2018_United_States_House_of_Representatives_elections_in_Iowa_21",
    "intro": "The 2018 United States House of Representatives elections in Iowa were held on November 6, 2018, to elect the four U.S. Representatives from the state of Iowa, one from each of the state's four congressional districts. The elections coincided with the gubernatorial election, as well as other elections to the House of Representatives, elections to the United States Senate and various state and local elections. The state congressional delegation flipped from a 3-1 Republican majority to a 3-1 Democratic majority. The Democrats last won the majority of seats in the 2010 election."
  },
  "List_of_awards_and_nominations_received_by_Gillian_Anderson_22": {
    "url": "https://en.wikipedia.org/wiki/List_of_awards_and_nominations_received_by_Gillian_Anderson",
    "title": "List of awards and nominations received by Gillian Anderson",
    "header": [
      [
        "Year",
        []
      ],
      [
        "Nominated work",
        []
      ],
      [
        "Category",
        []
      ],
      [
        "Result",
        []
      ]
    ],
    "data": [
      [
        [
          "1996",
          [
            "/wiki/23rd_Saturn_Awards"
          ]
        ],
        [
          "The X-Files",
          [
            "/wiki/The_X-Files"
          ]
        ],
        [
          "Best Actress on Television",
          [
            "/wiki/Saturn_Award_for_Best_Actress_on_Television"
          ]
        ],
        [
          "Won",
          []
        ]
      ],
      [
        [
          "1997",
          [
            "/wiki/24th_Saturn_Awards"
          ]
        ],
        [
          "The X-Files",
          [
            "/wiki/The_X-Files"
          ]
        ],
        [
          "Best Actress on Television",
          [
            "/wiki/Saturn_Award_for_Best_Actress_on_Television"
          ]
        ],
        [
          "Nominated",
          []
        ]
      ],
      [
        [
          "1998",
          [
            "/wiki/25th_Saturn_Awards"
          ]
        ],
        [
          "The X-Files",
          [
            "/wiki/The_X-Files"
          ]
        ],
        [
          "Best Actress on Television",
          [
            "/wiki/Saturn_Award_for_Best_Actress_on_Television"
          ]
        ],
        [
          "Nominated",
          []
        ]
      ],
      [
        [
          "1999",
          [
            "/wiki/26th_Saturn_Awards"
          ]
        ],
        [
          "The X-Files",
          [
            "/wiki/The_X-Files"
          ]
        ],
        [
          "Best Actress on Television",
          [
            "/wiki/Saturn_Award_for_Best_Actress_on_Television"
          ]
        ],
        [
          "Nominated",
          []
        ]
      ],
      [
        [
          "2000",
          [
            "/wiki/27th_Saturn_Awards"
          ]
        ],
        [
          "The X-Files",
          [
            "/wiki/The_X-Files"
          ]
        ],
        [
          "Best Actress on Television",
          [
            "/wiki/Saturn_Award_for_Best_Actress_on_Television"
          ]
        ],
        [
          "Nominated",
          []
        ]
      ],
      [
        [
          "2001",
          [
            "/wiki/28th_Saturn_Awards"
          ]
        ],
        [
          "The X-Files",
          [
            "/wiki/The_X-Files"
          ]
        ],
        [
          "Best Actress on Television",
          [
            "/wiki/Saturn_Award_for_Best_Actress_on_Television"
          ]
        ],
        [
          "Nominated",
          []
        ]
      ],
      [
        [
          "2015",
          [
            "/wiki/42nd_Saturn_Awards"
          ]
        ],
        [
          "The X-Files",
          [
            "/wiki/The_X-Files"
          ]
        ],
        [
          "Best Actress on Television",
          [
            "/wiki/Saturn_Award_for_Best_Actress_on_Television"
          ]
        ],
        [
          "Nominated",
          []
        ]
      ],
      [
        [
          "2015",
          [
            "/wiki/42nd_Saturn_Awards"
          ]
        ],
        [
          "Hannibal",
          [
            "/wiki/Hannibal_(TV_series)"
          ]
        ],
        [
          "Best Supporting Actress on Television",
          [
            "/wiki/Saturn_Award_for_Best_Supporting_Actress_on_Television"
          ]
        ],
        [
          "Nominated",
          []
        ]
      ],
      [
        [
          "2018",
          [
            "/wiki/44th_Saturn_Awards"
          ]
        ],
        [
          "The X-Files",
          [
            "/wiki/The_X-Files"
          ]
        ],
        [
          "Best Actress on Television",
          [
            "/wiki/Saturn_Award_for_Best_Actress_on_Television"
          ]
        ],
        [
          "Nominated",
          []
        ]
      ]
    ],
    "section_title": "Television awards -- Saturn Awards",
    "section_text": "",
    "uid": "List_of_awards_and_nominations_received_by_Gillian_Anderson_22",
    "intro": "The following is a list of awards and nominations received by Gillian Anderson. Anderson, who achieved critical acclaim for starring as Dana Scully in The X-Files, is a Primetime Emmy Award winning actress. She won the Primetime Emmy Award for Outstanding Lead Actress in a Drama Series award in 1997. She was nominated another three times for this role and once more in 2006 in the Outstanding Lead Actress in a Miniseries or a Movie for her portrayal of Lady Dedlock in Bleak House. Anderson won the Golden Globe Award for Best Actress - Television Series Drama in 1997 for her role as FBI Special Agent Dana Scully in The X-Files. She was nominated another three times for the role and once more in the Best Actress - Miniseries or Television Film for Bleak House. She won two Screen Actors Guild Awards (in 1996 and 1997) and was nominated total of nine times. Anderson was nominated for the BAFTA TV Award twice: in 2006, as Best Actress on Television for Bleak House and in 2011, for Best Supporting Actress on Television for her portrayal of Wallis Simpson in Any Human Heart. For her portrayal of Lily Bart in The House of Mirth (2000) Anderson won the British Independent Film Award for Best Actress. Anderson has also received accolades for her stage performances. She won the Theatre World Award for Best Newcomer for Absent Friends (1991). She was nominated for a Laurence Olivier Award for Best Actress for her performance in Ibsen's A Doll's House (2009)."
  },
  "List_of_awards_and_nominations_received_by_Gillian_Anderson_13": {
    "url": "https://en.wikipedia.org/wiki/List_of_awards_and_nominations_received_by_Gillian_Anderson",
    "title": "List of awards and nominations received by Gillian Anderson",
    "header": [
      [
        "Year",
        []
      ],
      [
        "Nominated work",
        []
      ],
      [
        "Category",
        []
      ],
      [
        "Result",
        []
      ]
    ],
    "data": [
      [
        [
          "1996",
          []
        ],
        [
          "The X-Files",
          [
            "/wiki/The_X-Files"
          ]
        ],
        [
          "Best Actress - Television Series Drama",
          [
            "/wiki/Golden_Globe_Award_for_Best_Actress_\u2013_Television_Series_Drama"
          ]
        ],
        [
          "Nominated",
          []
        ]
      ],
      [
        [
          "1997",
          []
        ],
        [
          "The X-Files",
          [
            "/wiki/The_X-Files"
          ]
        ],
        [
          "Best Actress - Television Series Drama",
          [
            "/wiki/Golden_Globe_Award_for_Best_Actress_\u2013_Television_Series_Drama"
          ]
        ],
        [
          "Won",
          []
        ]
      ],
      [
        [
          "1998",
          []
        ],
        [
          "The X-Files",
          [
            "/wiki/The_X-Files"
          ]
        ],
        [
          "Best Actress - Television Series Drama",
          [
            "/wiki/Golden_Globe_Award_for_Best_Actress_\u2013_Television_Series_Drama"
          ]
        ],
        [
          "Nominated",
          []
        ]
      ],
      [
        [
          "1999",
          []
        ],
        [
          "The X-Files",
          [
            "/wiki/The_X-Files"
          ]
        ],
        [
          "Best Actress - Television Series Drama",
          [
            "/wiki/Golden_Globe_Award_for_Best_Actress_\u2013_Television_Series_Drama"
          ]
        ],
        [
          "Nominated",
          []
        ]
      ],
      [
        [
          "2007",
          []
        ],
        [
          "Bleak House",
          [
            "/wiki/Bleak_House_(2005_TV_serial)"
          ]
        ],
        [
          "Best Actress - Miniseries or Television Film",
          [
            "/wiki/Golden_Globe_Award_for_Best_Actress_\u2013_Miniseries_or_Television_Film"
          ]
        ],
        [
          "Nominated",
          []
        ]
      ]
    ],
    "section_title": "Television awards -- Golden Globe Awards",
    "section_text": "",
    "uid": "List_of_awards_and_nominations_received_by_Gillian_Anderson_13",
    "intro": "The following is a list of awards and nominations received by Gillian Anderson. Anderson, who achieved critical acclaim for starring as Dana Scully in The X-Files, is a Primetime Emmy Award winning actress. She won the Primetime Emmy Award for Outstanding Lead Actress in a Drama Series award in 1997. She was nominated another three times for this role and once more in 2006 in the Outstanding Lead Actress in a Miniseries or a Movie for her portrayal of Lady Dedlock in Bleak House. Anderson won the Golden Globe Award for Best Actress - Television Series Drama in 1997 for her role as FBI Special Agent Dana Scully in The X-Files. She was nominated another three times for the role and once more in the Best Actress - Miniseries or Television Film for Bleak House. She won two Screen Actors Guild Awards (in 1996 and 1997) and was nominated total of nine times. Anderson was nominated for the BAFTA TV Award twice: in 2006, as Best Actress on Television for Bleak House and in 2011, for Best Supporting Actress on Television for her portrayal of Wallis Simpson in Any Human Heart. For her portrayal of Lily Bart in The House of Mirth (2000) Anderson won the British Independent Film Award for Best Actress. Anderson has also received accolades for her stage performances. She won the Theatre World Award for Best Newcomer for Absent Friends (1991). She was nominated for a Laurence Olivier Award for Best Actress for her performance in Ibsen's A Doll's House (2009)."
  },
  "Cross-country_skiing_at_the_1988_Winter_Olympics_\u2013_Women's_10_kilometre_classical_0": {
    "url": "https://en.wikipedia.org/wiki/Cross-country_skiing_at_the_1988_Winter_Olympics_\u2013_Women's_10_kilometre_classical",
    "title": "Cross-country skiing at the 1988 Winter Olympics \u2013 Women's 10 kilometre classical",
    "header": [
      [
        "Rank",
        []
      ],
      [
        "Name",
        []
      ],
      [
        "Country",
        []
      ],
      [
        "Time",
        []
      ]
    ],
    "data": [
      [
        [
          "1",
          []
        ],
        [
          "Vida Vencien\u0117",
          [
            "/wiki/Vida_Vencien\u0117"
          ]
        ],
        [
          "Soviet Union",
          [
            "/wiki/Soviet_Union_at_the_1988_Winter_Olympics"
          ]
        ],
        [
          "30:08.3",
          []
        ]
      ],
      [
        [
          "2",
          []
        ],
        [
          "Raisa Smetanina",
          [
            "/wiki/Raisa_Smetanina"
          ]
        ],
        [
          "Soviet Union",
          [
            "/wiki/Soviet_Union_at_the_1988_Winter_Olympics"
          ]
        ],
        [
          "30:17.0",
          []
        ]
      ],
      [
        [
          "3",
          []
        ],
        [
          "Marjo Matikainen",
          [
            "/wiki/Marjo_Matikainen-Kallstr\u00f6m"
          ]
        ],
        [
          "Finland",
          [
            "/wiki/Finland_at_the_1988_Winter_Olympics"
          ]
        ],
        [
          "30:20.5",
          []
        ]
      ],
      [
        [
          "4",
          []
        ],
        [
          "Svetlana Nageykina",
          [
            "/wiki/Svetlana_Nageykina"
          ]
        ],
        [
          "Soviet Union",
          [
            "/wiki/Soviet_Union_at_the_1988_Winter_Olympics"
          ]
        ],
        [
          "30:26.5",
          []
        ]
      ],
      [
        [
          "5",
          []
        ],
        [
          "Tamara Tikhonova",
          [
            "/wiki/Tamara_Tikhonova"
          ]
        ],
        [
          "Soviet Union",
          [
            "/wiki/Soviet_Union_at_the_1988_Winter_Olympics"
          ]
        ],
        [
          "30:38.9",
          []
        ]
      ],
      [
        [
          "6",
          []
        ],
        [
          "Inger Helene Nybr\u00e5ten",
          [
            "/wiki/Inger_Helene_Nybr\u00e5ten"
          ]
        ],
        [
          "Norway",
          [
            "/wiki/Norway_at_the_1988_Winter_Olympics"
          ]
        ],
        [
          "30:51.7",
          []
        ]
      ],
      [
        [
          "7",
          []
        ],
        [
          "Pirkko M\u00e4\u00e4tt\u00e4",
          [
            "/wiki/Pirkko_M\u00e4\u00e4tt\u00e4"
          ]
        ],
        [
          "Finland",
          [
            "/wiki/Finland_at_the_1988_Winter_Olympics"
          ]
        ],
        [
          "30:52.4",
          []
        ]
      ],
      [
        [
          "8",
          []
        ],
        [
          "Marie-Helene Westin",
          [
            "/wiki/Marie-Helene_\u00d6stlund"
          ]
        ],
        [
          "Sweden",
          [
            "/wiki/Sweden_at_the_1988_Winter_Olympics"
          ]
        ],
        [
          "30:53.5",
          []
        ]
      ],
      [
        [
          "9",
          []
        ],
        [
          "Marja-Liisa Kirvesniemi",
          [
            "/wiki/Marja-Liisa_Kirvesniemi"
          ]
        ],
        [
          "Finland",
          [
            "/wiki/Finland_at_the_1988_Winter_Olympics"
          ]
        ],
        [
          "30:57.0",
          []
        ]
      ],
      [
        [
          "10",
          []
        ],
        [
          "Simone Opitz",
          [
            "/wiki/Simone_Opitz"
          ]
        ],
        [
          "East Germany",
          [
            "/wiki/East_Germany_at_the_1988_Winter_Olympics"
          ]
        ],
        [
          "31:14.3",
          []
        ]
      ],
      [
        [
          "11",
          []
        ],
        [
          "Evi Kratzer",
          [
            "/wiki/Evi_Kratzer"
          ]
        ],
        [
          "Switzerland",
          [
            "/wiki/Switzerland_at_the_1988_Winter_Olympics"
          ]
        ],
        [
          "31:16.7",
          []
        ]
      ],
      [
        [
          "12",
          []
        ],
        [
          "Guidina Dal Sasso",
          [
            "/wiki/Guidina_Dal_Sasso"
          ]
        ],
        [
          "Italy",
          [
            "/wiki/Italy_at_the_1988_Winter_Olympics"
          ]
        ],
        [
          "31:16.7",
          []
        ]
      ],
      [
        [
          "13",
          []
        ],
        [
          "Anna-Lena Fritzon",
          [
            "/wiki/Anna-Lena_Fritzon"
          ]
        ],
        [
          "Sweden",
          [
            "/wiki/Sweden_at_the_1988_Winter_Olympics"
          ]
        ],
        [
          "31:19.3",
          []
        ]
      ],
      [
        [
          "14",
          []
        ],
        [
          "Brit Pettersen",
          [
            "/wiki/Brit_Pettersen"
          ]
        ],
        [
          "Norway",
          [
            "/wiki/Norway_at_the_1988_Winter_Olympics"
          ]
        ],
        [
          "31:20.5",
          []
        ]
      ],
      [
        [
          "15",
          []
        ],
        [
          "Marit Wold",
          [
            "/wiki/Marit_Mikkelsplass"
          ]
        ],
        [
          "Norway",
          [
            "/wiki/Norway_at_the_1988_Winter_Olympics"
          ]
        ],
        [
          "31:31.6",
          []
        ]
      ],
      [
        [
          "16",
          []
        ],
        [
          "Anne Jahren",
          [
            "/wiki/Anne_Jahren"
          ]
        ],
        [
          "Norway",
          [
            "/wiki/Norway_at_the_1988_Winter_Olympics"
          ]
        ],
        [
          "31:34.1",
          []
        ]
      ],
      [
        [
          "17",
          []
        ],
        [
          "Bice Vanzetta",
          [
            "/wiki/Bice_Vanzetta"
          ]
        ],
        [
          "Italy",
          [
            "/wiki/Italy_at_the_1988_Winter_Olympics"
          ]
        ],
        [
          "31:34.5",
          []
        ]
      ],
      [
        [
          "18",
          []
        ],
        [
          "Christina Gilli-Br\u00fcgger",
          [
            "/wiki/Christina_Gilli-Br\u00fcgger"
          ]
        ],
        [
          "Switzerland",
          [
            "/wiki/Switzerland_at_the_1988_Winter_Olympics"
          ]
        ],
        [
          "31:37.4",
          []
        ]
      ],
      [
        [
          "19",
          []
        ],
        [
          "Stefania Belmondo",
          [
            "/wiki/Stefania_Belmondo"
          ]
        ],
        [
          "Italy",
          [
            "/wiki/Italy_at_the_1988_Winter_Olympics"
          ]
        ],
        [
          "31:47.2",
          []
        ]
      ],
      [
        [
          "20",
          []
        ],
        [
          "Manuela Di Centa",
          [
            "/wiki/Manuela_Di_Centa"
          ]
        ],
        [
          "Italy",
          [
            "/wiki/Italy_at_the_1988_Winter_Olympics"
          ]
        ],
        [
          "31:50.2",
          []
        ]
      ]
    ],
    "section_title": "Results",
    "section_text": "",
    "uid": "Cross-country_skiing_at_the_1988_Winter_Olympics_\u2013_Women's_10_kilometre_classical_0",
    "intro": "The Women's 10 kilometre cross-country skiing event was part of the cross-country skiing programme at the 1988 Winter Olympics, in Calgary, Canada. It was the tenth appearance of the event. The competition was held on 14 February 1988, at the Canmore Nordic Centre."
  }
}