{
  "Swimming_at_the_2014_European_Aquatics_Championships_\u2013_Men's_200_metre_breaststroke_1": {
    "url": "https://en.wikipedia.org/wiki/Swimming_at_the_2014_European_Aquatics_Championships_\u2013_Men's_200_metre_breaststroke",
    "title": "Swimming at the 2014 European Aquatics Championships \u2013 Men's 200 metre breaststroke",
    "header": [
      [
        "Rank",
        []
      ],
      [
        "Lane",
        []
      ],
      [
        "Name",
        []
      ],
      [
        "Nationality",
        []
      ],
      [
        "Time",
        []
      ],
      [
        "Notes",
        []
      ]
    ],
    "data": [
      [
        [
          "1",
          []
        ],
        [
          "5",
          []
        ],
        [
          "Ross Murdoch",
          [
            "/wiki/Ross_Murdoch"
          ]
        ],
        [
          "Great Britain",
          [
            "/wiki/United_Kingdom"
          ]
        ],
        [
          "2:08.65",
          []
        ],
        [
          "Q",
          []
        ]
      ],
      [
        [
          "2",
          []
        ],
        [
          "4",
          []
        ],
        [
          "Andrew Willis",
          [
            "/wiki/Andrew_Willis_(swimmer)"
          ]
        ],
        [
          "Great Britain",
          [
            "/wiki/United_Kingdom"
          ]
        ],
        [
          "2:08.93",
          []
        ],
        [
          "Q",
          []
        ]
      ],
      [
        [
          "3",
          []
        ],
        [
          "6",
          []
        ],
        [
          "Luca Pizzini",
          [
            "/wiki/Luca_Pizzini"
          ]
        ],
        [
          "Italy",
          [
            "/wiki/Italy"
          ]
        ],
        [
          "2:10.90",
          []
        ],
        [
          "Q",
          []
        ]
      ],
      [
        [
          "4",
          []
        ],
        [
          "3",
          []
        ],
        [
          "Kirill Prigoda",
          [
            "/wiki/Kirill_Prigoda"
          ]
        ],
        [
          "Russia",
          [
            "/wiki/Russia"
          ]
        ],
        [
          "2:11.26",
          []
        ],
        [
          "Q",
          []
        ]
      ],
      [
        [
          "5",
          []
        ],
        [
          "2",
          []
        ],
        [
          "Matti Mattsson",
          [
            "/wiki/Matti_Mattsson"
          ]
        ],
        [
          "Finland",
          [
            "/wiki/Finland"
          ]
        ],
        [
          "2:12.93",
          []
        ],
        [
          "",
          []
        ]
      ],
      [
        [
          "6",
          []
        ],
        [
          "1",
          []
        ],
        [
          "Erik Persson",
          [
            "/wiki/Erik_Persson_(swimmer)"
          ]
        ],
        [
          "Sweden",
          [
            "/wiki/Sweden"
          ]
        ],
        [
          "2:13.09",
          []
        ],
        [
          "",
          []
        ]
      ],
      [
        [
          "7",
          []
        ],
        [
          "7",
          []
        ],
        [
          "Thomas Dahlia",
          []
        ],
        [
          "France",
          [
            "/wiki/France"
          ]
        ],
        [
          "2:13.29",
          []
        ],
        [
          "",
          []
        ]
      ],
      [
        [
          "8",
          []
        ],
        [
          "8",
          []
        ],
        [
          "Quentin Coton",
          []
        ],
        [
          "France",
          [
            "/wiki/France"
          ]
        ],
        [
          "2:13.61",
          []
        ],
        [
          "",
          []
        ]
      ]
    ],
    "section_title": "Results -- Semifinals",
    "section_text": "",
    "uid": "Swimming_at_the_2014_European_Aquatics_Championships_\u2013_Men's_200_metre_breaststroke_1",
    "intro": "The Men's 200 metre breaststroke competition of the 2014 European Aquatics Championships was held on 20-21 August."
  },
  "Swimming_at_the_2016_European_Aquatics_Championships_\u2013_Men's_100_metre_breaststroke_0": {
    "url": "https://en.wikipedia.org/wiki/Swimming_at_the_2016_European_Aquatics_Championships_\u2013_Men's_100_metre_breaststroke",
    "title": "Swimming at the 2016 European Aquatics Championships \u2013 Men's 100 metre breaststroke",
    "header": [
      [
        "Rank",
        []
      ],
      [
        "Heat",
        []
      ],
      [
        "Lane",
        []
      ],
      [
        "Name",
        []
      ],
      [
        "Nationality",
        []
      ],
      [
        "Time",
        []
      ],
      [
        "Notes",
        []
      ]
    ],
    "data": [
      [
        [
          "1",
          []
        ],
        [
          "7",
          []
        ],
        [
          "4",
          []
        ],
        [
          "Adam Peaty",
          [
            "/wiki/Adam_Peaty"
          ]
        ],
        [
          "Great Britain",
          [
            "/wiki/United_Kingdom"
          ]
        ],
        [
          "58.94",
          []
        ],
        [
          "Q",
          []
        ]
      ],
      [
        [
          "2",
          []
        ],
        [
          "5",
          []
        ],
        [
          "4",
          []
        ],
        [
          "Ross Murdoch",
          [
            "/wiki/Ross_Murdoch"
          ]
        ],
        [
          "Great Britain",
          [
            "/wiki/United_Kingdom"
          ]
        ],
        [
          "59.91",
          []
        ],
        [
          "Q",
          []
        ]
      ],
      [
        [
          "3",
          []
        ],
        [
          "6",
          []
        ],
        [
          "4",
          []
        ],
        [
          "Giedrius Titenis",
          [
            "/wiki/Giedrius_Titenis"
          ]
        ],
        [
          "Lithuania",
          [
            "/wiki/Lithuania"
          ]
        ],
        [
          "59.95",
          []
        ],
        [
          "Q",
          []
        ]
      ],
      [
        [
          "4",
          []
        ],
        [
          "6",
          []
        ],
        [
          "3",
          []
        ],
        [
          "Damir Dugonji\u010d",
          [
            "/wiki/Damir_Dugonji\u010d"
          ]
        ],
        [
          "Slovenia",
          [
            "/wiki/Slovenia"
          ]
        ],
        [
          "1:00.33",
          []
        ],
        [
          "Q",
          []
        ]
      ],
      [
        [
          "5",
          []
        ],
        [
          "7",
          []
        ],
        [
          "2",
          []
        ],
        [
          "Andrea Toniato",
          [
            "/wiki/Andrea_Toniato"
          ]
        ],
        [
          "Italy",
          [
            "/wiki/Italy"
          ]
        ],
        [
          "1:00.41",
          []
        ],
        [
          "Q",
          []
        ]
      ],
      [
        [
          "6",
          []
        ],
        [
          "6",
          []
        ],
        [
          "5",
          []
        ],
        [
          "Craig Benson",
          [
            "/wiki/Craig_Benson_(swimmer)"
          ]
        ],
        [
          "Great Britain",
          [
            "/wiki/United_Kingdom"
          ]
        ],
        [
          "1:00.63",
          []
        ],
        [
          "",
          []
        ]
      ],
      [
        [
          "7",
          []
        ],
        [
          "5",
          []
        ],
        [
          "3",
          []
        ],
        [
          "Anton Sveinn McKee",
          [
            "/wiki/Anton_Sveinn_McKee"
          ]
        ],
        [
          "Iceland",
          [
            "/wiki/Iceland"
          ]
        ],
        [
          "1:00.79",
          []
        ],
        [
          "Q",
          []
        ]
      ],
      [
        [
          "8",
          []
        ],
        [
          "5",
          []
        ],
        [
          "5",
          []
        ],
        [
          "Panagiotis Samilidis",
          [
            "/wiki/Panagiotis_Samilidis"
          ]
        ],
        [
          "Greece",
          [
            "/wiki/Greece"
          ]
        ],
        [
          "1:00.86",
          []
        ],
        [
          "Q",
          []
        ]
      ],
      [
        [
          "9",
          []
        ],
        [
          "6",
          []
        ],
        [
          "2",
          []
        ],
        [
          "Fabio Scozzoli",
          [
            "/wiki/Fabio_Scozzoli"
          ]
        ],
        [
          "Italy",
          [
            "/wiki/Italy"
          ]
        ],
        [
          "1:01.13",
          []
        ],
        [
          "Q",
          []
        ]
      ],
      [
        [
          "10",
          []
        ],
        [
          "6",
          []
        ],
        [
          "8",
          []
        ],
        [
          "Peter Stevens",
          [
            "/wiki/Peter_John_Stevens"
          ]
        ],
        [
          "Slovenia",
          [
            "/wiki/Slovenia"
          ]
        ],
        [
          "1:01.27",
          []
        ],
        [
          "Q",
          []
        ]
      ],
      [
        [
          "11",
          []
        ],
        [
          "7",
          []
        ],
        [
          "3",
          []
        ],
        [
          "Giacomo Perez-Dortona",
          [
            "/wiki/Giacomo_Perez-Dortona"
          ]
        ],
        [
          "France",
          [
            "/wiki/France"
          ]
        ],
        [
          "1:01.29",
          []
        ],
        [
          "Q",
          []
        ]
      ],
      [
        [
          "12",
          []
        ],
        [
          "6",
          []
        ],
        [
          "1",
          []
        ],
        [
          "Valeriy Dymo",
          [
            "/wiki/Valeriy_Dymo"
          ]
        ],
        [
          "Ukraine",
          [
            "/wiki/Ukraine"
          ]
        ],
        [
          "1:01.30",
          []
        ],
        [
          "Q",
          []
        ]
      ],
      [
        [
          "13",
          []
        ],
        [
          "7",
          []
        ],
        [
          "5",
          []
        ],
        [
          "\u010caba Sila\u0111i",
          [
            "/wiki/\u010caba_Sila\u0111i"
          ]
        ],
        [
          "Serbia",
          [
            "/wiki/Serbia"
          ]
        ],
        [
          "1:01.44",
          []
        ],
        [
          "Q",
          []
        ]
      ],
      [
        [
          "14",
          []
        ],
        [
          "7",
          []
        ],
        [
          "1",
          []
        ],
        [
          "Matti Mattsson",
          [
            "/wiki/Matti_Mattsson"
          ]
        ],
        [
          "Finland",
          [
            "/wiki/Finland"
          ]
        ],
        [
          "1:01.49",
          []
        ],
        [
          "Q",
          []
        ]
      ],
      [
        [
          "15",
          []
        ],
        [
          "6",
          []
        ],
        [
          "0",
          []
        ],
        [
          "G\u00e1bor Financsek",
          [
            "/wiki/G\u00e1bor_Financsek"
          ]
        ],
        [
          "Hungary",
          [
            "/wiki/Hungary"
          ]
        ],
        [
          "1:01.51",
          []
        ],
        [
          "Q",
          []
        ]
      ],
      [
        [
          "16",
          []
        ],
        [
          "6",
          []
        ],
        [
          "6",
          []
        ],
        [
          "Charlie Attwood",
          []
        ],
        [
          "Great Britain",
          [
            "/wiki/United_Kingdom"
          ]
        ],
        [
          "1:01.56",
          []
        ],
        [
          "",
          []
        ]
      ],
      [
        [
          "17",
          []
        ],
        [
          "4",
          []
        ],
        [
          "4",
          []
        ],
        [
          "Johannes Dietrich",
          [
            "/wiki/Johannes_Dietrich"
          ]
        ],
        [
          "Austria",
          [
            "/wiki/Austria"
          ]
        ],
        [
          "1:01.57",
          []
        ],
        [
          "Q",
          []
        ]
      ],
      [
        [
          "18",
          []
        ],
        [
          "7",
          []
        ],
        [
          "6",
          []
        ],
        [
          "Yannick K\u00e4ser",
          [
            "/wiki/Yannick_K\u00e4ser"
          ]
        ],
        [
          "Switzerland",
          [
            "/wiki/Switzerland"
          ]
        ],
        [
          "1:01.59",
          []
        ],
        [
          "Q",
          []
        ]
      ],
      [
        [
          "19",
          []
        ],
        [
          "4",
          []
        ],
        [
          "0",
          []
        ],
        [
          "Martin Allikvee",
          [
            "/wiki/Martin_Allikvee"
          ]
        ],
        [
          "Estonia",
          [
            "/wiki/Estonia"
          ]
        ],
        [
          "1:01.60",
          []
        ],
        [
          "",
          []
        ]
      ],
      [
        [
          "20",
          []
        ],
        [
          "5",
          []
        ],
        [
          "6",
          []
        ],
        [
          "Andrius \u0160idlauskas",
          [
            "/wiki/Andrius_\u0160idlauskas_(swimmer)"
          ]
        ],
        [
          "Lithuania",
          [
            "/wiki/Lithuania"
          ]
        ],
        [
          "1:01.65",
          []
        ],
        [
          "",
          []
        ]
      ]
    ],
    "section_title": "Results -- Heats",
    "section_text": "The heats were held on 16 May at 11:11 . [ 3 ]",
    "uid": "Swimming_at_the_2016_European_Aquatics_Championships_\u2013_Men's_100_metre_breaststroke_0",
    "intro": "The Men's 100 metre breaststroke competition of the 2016 European Aquatics Championships was held on 16 and 17 May 2016."
  },
  "San_Diego_Film_Critics_Society_Award_for_Best_Supporting_Actor_1": {
    "url": "https://en.wikipedia.org/wiki/San_Diego_Film_Critics_Society_Award_for_Best_Supporting_Actor",
    "title": "San Diego Film Critics Society Award for Best Supporting Actor",
    "header": [
      [
        "Year",
        []
      ],
      [
        "Winner",
        []
      ],
      [
        "Film",
        []
      ],
      [
        "Role",
        []
      ]
    ],
    "data": [
      [
        [
          "2000",
          []
        ],
        [
          "Benicio del Toro",
          [
            "/wiki/Benicio_del_Toro"
          ]
        ],
        [
          "Traffic",
          [
            "/wiki/Traffic_(2000_film)"
          ]
        ],
        [
          "Javier Rodriguez",
          []
        ]
      ],
      [
        [
          "2001",
          []
        ],
        [
          "Ben Kingsley",
          [
            "/wiki/Ben_Kingsley"
          ]
        ],
        [
          "Sexy Beast",
          [
            "/wiki/Sexy_Beast"
          ]
        ],
        [
          "Don Logan",
          []
        ]
      ],
      [
        [
          "2002",
          []
        ],
        [
          "Chris Cooper",
          [
            "/wiki/Chris_Cooper"
          ]
        ],
        [
          "Adaptation",
          [
            "/wiki/Adaptation_(film)"
          ]
        ],
        [
          "John Laroche",
          [
            "/wiki/John_Laroche"
          ]
        ]
      ],
      [
        [
          "2003",
          []
        ],
        [
          "Djimon Hounsou",
          [
            "/wiki/Djimon_Hounsou"
          ]
        ],
        [
          "In America",
          [
            "/wiki/In_America_(film)"
          ]
        ],
        [
          "Mateo",
          []
        ]
      ],
      [
        [
          "2004",
          []
        ],
        [
          "Phil Davis",
          [
            "/wiki/Phil_Davis_(actor)"
          ]
        ],
        [
          "Vera Drake",
          [
            "/wiki/Vera_Drake"
          ]
        ],
        [
          "Stan",
          []
        ]
      ],
      [
        [
          "2005",
          []
        ],
        [
          "Jeffrey Wright",
          [
            "/wiki/Jeffrey_Wright"
          ]
        ],
        [
          "Broken Flowers",
          [
            "/wiki/Broken_Flowers"
          ]
        ],
        [
          "Winston",
          []
        ]
      ],
      [
        [
          "2006",
          []
        ],
        [
          "Ray Winstone",
          [
            "/wiki/Ray_Winstone"
          ]
        ],
        [
          "The Proposition",
          [
            "/wiki/The_Proposition_(2005_film)"
          ]
        ],
        [
          "Captain Stanley",
          []
        ]
      ],
      [
        [
          "2007",
          []
        ],
        [
          "Tommy Lee Jones",
          [
            "/wiki/Tommy_Lee_Jones"
          ]
        ],
        [
          "No Country for Old Men",
          [
            "/wiki/No_Country_for_Old_Men_(film)"
          ]
        ],
        [
          "Ed Tom Bell",
          []
        ]
      ],
      [
        [
          "2008",
          []
        ],
        [
          "Heath Ledger posthumously",
          [
            "/wiki/Heath_Ledger"
          ]
        ],
        [
          "The Dark Knight",
          [
            "/wiki/The_Dark_Knight_(film)"
          ]
        ],
        [
          "The Joker",
          [
            "/wiki/Joker_(The_Dark_Knight)"
          ]
        ]
      ],
      [
        [
          "2009",
          []
        ],
        [
          "Christoph Waltz",
          [
            "/wiki/Christoph_Waltz"
          ]
        ],
        [
          "Inglourious Basterds",
          [
            "/wiki/Inglourious_Basterds"
          ]
        ],
        [
          "Col. Hans Landa",
          [
            "/wiki/Hans_Landa"
          ]
        ]
      ]
    ],
    "section_title": "Winners -- 2000s",
    "section_text": "",
    "uid": "San_Diego_Film_Critics_Society_Award_for_Best_Supporting_Actor_1",
    "intro": "The San Diego Film Critics Society Award for Best Supporting Actor is an award given by the San Diego Film Critics Society to honor the finest male acting achievementes in filmmaking."
  },
  "1960_New_Zealand_rugby_union_tour_of_Australia_and_South_Africa_1": {
    "url": "https://en.wikipedia.org/wiki/1960_New_Zealand_rugby_union_tour_of_Australia_and_South_Africa",
    "title": "1960 New Zealand rugby union tour of Australia and South Africa",
    "header": [
      [
        "Opposing Team",
        []
      ],
      [
        "For",
        []
      ],
      [
        "Against",
        []
      ],
      [
        "Date",
        []
      ],
      [
        "Venue",
        []
      ],
      [
        "Status",
        []
      ]
    ],
    "data": [
      [
        [
          "Northern Universities",
          []
        ],
        [
          "45",
          []
        ],
        [
          "6",
          []
        ],
        [
          "28 May 1960",
          []
        ],
        [
          "Olen Park , Potchefstroom",
          [
            "/wiki/Ol\u00ebn_Park"
          ]
        ],
        [
          "Tour match",
          []
        ]
      ],
      [
        [
          "Natal",
          [
            "/wiki/Sharks_(Currie_Cup)"
          ]
        ],
        [
          "6",
          []
        ],
        [
          "6",
          []
        ],
        [
          "31 May 1960",
          []
        ],
        [
          "Kings Park , Durban",
          [
            "/wiki/Kings_Park_Stadium"
          ]
        ],
        [
          "Tour match",
          []
        ]
      ],
      [
        [
          "Griqualand West",
          [
            "/wiki/Griquas_(rugby)"
          ]
        ],
        [
          "21",
          []
        ],
        [
          "9",
          []
        ],
        [
          "4 June 1960",
          []
        ],
        [
          "De Beers Stadium , Kimberley",
          [
            "/wiki/De_Beers_Diamond_Oval"
          ]
        ],
        [
          "Tour match",
          []
        ]
      ],
      [
        [
          "SW Africa",
          [
            "/wiki/Namibia_national_rugby_union_team"
          ]
        ],
        [
          "27",
          []
        ],
        [
          "3",
          []
        ],
        [
          "8 June 1960",
          []
        ],
        [
          "Windhoek",
          [
            "/wiki/Windhoek"
          ]
        ],
        [
          "Tour match",
          []
        ]
      ],
      [
        [
          "Boland",
          [
            "/wiki/Boland_Cavaliers"
          ]
        ],
        [
          "16",
          []
        ],
        [
          "0",
          []
        ],
        [
          "11 June 1960",
          []
        ],
        [
          "Boland Stadium , Wellington",
          [
            "/wiki/Boland_Stadium"
          ]
        ],
        [
          "Tour match",
          []
        ]
      ],
      [
        [
          "West . Prov . Universities",
          []
        ],
        [
          "14",
          []
        ],
        [
          "3",
          []
        ],
        [
          "15 June 1960",
          []
        ],
        [
          "Newlands , Cape Town",
          [
            "/wiki/Newlands_Stadium"
          ]
        ],
        [
          "Tour match",
          []
        ]
      ],
      [
        [
          "Northern Transvaal",
          [
            "/wiki/Blue_Bulls"
          ]
        ],
        [
          "27",
          []
        ],
        [
          "3",
          []
        ],
        [
          "18 June 1960",
          []
        ],
        [
          "Loftus Versfeld , Pretoria",
          [
            "/wiki/Loftus_Versfeld_Stadium"
          ]
        ],
        [
          "Tour match",
          []
        ]
      ],
      [
        [
          "South Africa",
          [
            "/wiki/South_Africa_national_rugby_union_team"
          ]
        ],
        [
          "0",
          []
        ],
        [
          "13",
          []
        ],
        [
          "25 June 1960",
          []
        ],
        [
          "Ellis Park , Johannesburg",
          [
            "/wiki/Ellis_Park_Stadium",
            "/wiki/Johannesburg"
          ]
        ],
        [
          "Test Match",
          []
        ]
      ],
      [
        [
          "A Rhodesian XV",
          []
        ],
        [
          "13",
          []
        ],
        [
          "9",
          []
        ],
        [
          "29 June 1960",
          []
        ],
        [
          "Kitwe",
          [
            "/wiki/Kitwe"
          ]
        ],
        [
          "Tour match",
          []
        ]
      ],
      [
        [
          "Rhodesia",
          [
            "/wiki/Zimbabwe_national_rugby_union_team"
          ]
        ],
        [
          "29",
          []
        ],
        [
          "14",
          []
        ],
        [
          "2 July 1960",
          []
        ],
        [
          "Slamis Stadium , Salisbury",
          [
            "/wiki/Harare"
          ]
        ],
        [
          "Tour match",
          []
        ]
      ],
      [
        [
          "Orange Free State",
          [
            "/wiki/Free_State_Cheetahs"
          ]
        ],
        [
          "8",
          []
        ],
        [
          "9",
          []
        ],
        [
          "6 July 1960",
          []
        ],
        [
          "Free State Stadium , Bloemfontein",
          [
            "/wiki/Free_State_Stadium"
          ]
        ],
        [
          "Tour match",
          []
        ]
      ],
      [
        [
          "Junior Springboks",
          [
            "/wiki/South_Africa_A_national_rugby_union_team"
          ]
        ],
        [
          "20",
          []
        ],
        [
          "6",
          []
        ],
        [
          "9 July 1960",
          []
        ],
        [
          "Kings Park , Durban",
          [
            "/wiki/Kings_Park_Stadium"
          ]
        ],
        [
          "Tour match",
          []
        ]
      ],
      [
        [
          "Eastern Province",
          [
            "/wiki/Eastern_Province_Elephants"
          ]
        ],
        [
          "16",
          []
        ],
        [
          "3",
          []
        ],
        [
          "13 July 1960",
          []
        ],
        [
          "Boet Erasmus , Port Elizabeth",
          [
            "/wiki/EPRU_Stadium"
          ]
        ],
        [
          "Tour match",
          []
        ]
      ],
      [
        [
          "Western Province",
          [
            "/wiki/Western_Province_(rugby_team)"
          ]
        ],
        [
          "20",
          []
        ],
        [
          "8",
          []
        ],
        [
          "16 July 1960",
          []
        ],
        [
          "Newlands , Cape Town",
          [
            "/wiki/Newlands_Stadium"
          ]
        ],
        [
          "Tour match",
          []
        ]
      ],
      [
        [
          "SW District",
          []
        ],
        [
          "18",
          []
        ],
        [
          "6",
          []
        ],
        [
          "19 July 1960",
          []
        ],
        [
          "Oudtshoorn",
          [
            "/wiki/Oudtshoorn"
          ]
        ],
        [
          "Tour match",
          []
        ]
      ],
      [
        [
          "South Africa",
          [
            "/wiki/South_Africa_national_rugby_union_team"
          ]
        ],
        [
          "11",
          []
        ],
        [
          "3",
          []
        ],
        [
          "23 July 1960",
          []
        ],
        [
          "Newlands , Cape Town",
          [
            "/wiki/Newlands_Stadium",
            "/wiki/Cape_Town"
          ]
        ],
        [
          "Test Match",
          []
        ]
      ],
      [
        [
          "Central Universities",
          []
        ],
        [
          "21",
          []
        ],
        [
          "12",
          []
        ],
        [
          "27 July 1960",
          []
        ],
        [
          "Border RU Ground , East London",
          [
            "/wiki/Buffalo_City_Stadium"
          ]
        ],
        [
          "Tour match",
          []
        ]
      ],
      [
        [
          "Eastern Transvaal",
          [
            "/wiki/Falcons_(rugby_team)"
          ]
        ],
        [
          "11",
          []
        ],
        [
          "6",
          []
        ],
        [
          "30 July 1960",
          []
        ],
        [
          "PAM Brink , Springs",
          [
            "/wiki/PAM_Brink_Stadium"
          ]
        ],
        [
          "Tour match",
          []
        ]
      ],
      [
        [
          "SA Combined Services",
          []
        ],
        [
          "3",
          []
        ],
        [
          "8",
          []
        ],
        [
          "3 August 1960",
          []
        ],
        [
          "Loftus Versfeld , Pretoria",
          [
            "/wiki/Loftus_Versfeld_Stadium"
          ]
        ],
        [
          "Tour match",
          []
        ]
      ],
      [
        [
          "Transvaal",
          [
            "/wiki/Golden_Lions"
          ]
        ],
        [
          "19",
          []
        ],
        [
          "3",
          []
        ],
        [
          "6 August 1960",
          []
        ],
        [
          "Ellis Park , Johannesburg",
          [
            "/wiki/Ellis_Park_Stadium"
          ]
        ],
        [
          "Tour match",
          []
        ]
      ]
    ],
    "section_title": "In Africa",
    "section_text": "Scores and results list All Blacks ' points tally first .",
    "uid": "1960_New_Zealand_rugby_union_tour_of_Australia_and_South_Africa_1",
    "intro": "The 1960 New Zealand rugby union tour of South Africa, was a series of rugby union match played by New Zealand national rugby union team (the All Blacks) in South Africa and Rhodesia. It was a very discussed tour, due the fact that South African authorities, imposed the exclusion of Maori players from the team. This racist politics created a lot of controversy in New Zealand. (see Halt All Racist Tours)"
  },
  "List_of_high_school_students_who_have_run_a_four-minute_mile_0": {
    "url": "https://en.wikipedia.org/wiki/List_of_American_high_school_students_who_have_run_a_four-minute_mile",
    "title": "List of American high school students who have run a four-minute mile",
    "header": [
      [
        "Name",
        []
      ],
      [
        "Time",
        []
      ],
      [
        "Date",
        []
      ],
      [
        "Venue",
        []
      ],
      [
        "Location",
        []
      ]
    ],
    "data": [
      [
        [
          "Jim Ryun",
          [
            "/wiki/Jim_Ryun"
          ]
        ],
        [
          "3:59.0",
          []
        ],
        [
          "June 5 , 1964",
          []
        ],
        [
          "Compton Invitational",
          []
        ],
        [
          "Los Angeles , California",
          [
            "/wiki/Los_Angeles",
            "/wiki/California"
          ]
        ]
      ],
      [
        [
          "Jim Ryun",
          [
            "/wiki/Jim_Ryun"
          ]
        ],
        [
          "3:58.3",
          []
        ],
        [
          "May 22 , 1965",
          []
        ],
        [
          "KSHSAA Track and Field Championships",
          []
        ],
        [
          "Wichita , Kansas",
          [
            "/wiki/Wichita,_Kansas",
            "/wiki/Kansas"
          ]
        ]
      ],
      [
        [
          "Jim Ryun",
          [
            "/wiki/Jim_Ryun"
          ]
        ],
        [
          "3:55.3",
          []
        ],
        [
          "June 27 , 1965",
          []
        ],
        [
          "AAU Track and Field Championships",
          []
        ],
        [
          "San Diego , California",
          [
            "/wiki/San_Diego",
            "/wiki/California"
          ]
        ]
      ],
      [
        [
          "Tim Danielson",
          [
            "/wiki/Tim_Danielson"
          ]
        ],
        [
          "3:59.4",
          []
        ],
        [
          "June 11 , 1966",
          []
        ],
        [
          "San Diego Invitational",
          []
        ],
        [
          "San Diego , California",
          []
        ]
      ],
      [
        [
          "Marty Liquori",
          [
            "/wiki/Marty_Liquori"
          ]
        ],
        [
          "3:59.8",
          []
        ],
        [
          "June 23 , 1967",
          []
        ],
        [
          "AAU Track and Field Championships",
          []
        ],
        [
          "Bakersfield , California",
          [
            "/wiki/Bakersfield,_California"
          ]
        ]
      ],
      [
        [
          "Alan Webb",
          [
            "/wiki/Alan_Webb_(runner)"
          ]
        ],
        [
          "3:59.86 ( indoors )",
          []
        ],
        [
          "January 20 , 2001",
          []
        ],
        [
          "New Balance Games",
          [
            "/wiki/New_Balance_Games"
          ]
        ],
        [
          "New York City , New York",
          [
            "/wiki/New_York_City"
          ]
        ]
      ],
      [
        [
          "Alan Webb",
          [
            "/wiki/Alan_Webb_(runner)"
          ]
        ],
        [
          "3:53.43",
          []
        ],
        [
          "May 27 , 2001",
          []
        ],
        [
          "Prefontaine Classic",
          [
            "/wiki/Prefontaine_Classic"
          ]
        ],
        [
          "Eugene , Oregon",
          [
            "/wiki/Eugene,_Oregon"
          ]
        ]
      ],
      [
        [
          "Lukas Verzbicas",
          [
            "/wiki/Lukas_Verzbicas"
          ]
        ],
        [
          "3:59.71",
          []
        ],
        [
          "June 11 , 2011",
          []
        ],
        [
          "Adidas Grand Prix",
          [
            "/wiki/Adidas_Grand_Prix"
          ]
        ],
        [
          "New York City , New York",
          []
        ]
      ],
      [
        [
          "Matthew Maton",
          []
        ],
        [
          "3:59.38",
          []
        ],
        [
          "May 8 , 2015",
          []
        ],
        [
          "Oregon Twilight Meet",
          []
        ],
        [
          "Eugene , Oregon",
          [
            "/wiki/Eugene,_Oregon"
          ]
        ]
      ],
      [
        [
          "Grant Fisher",
          [
            "/wiki/Grant_Fisher"
          ]
        ],
        [
          "3:59.38",
          []
        ],
        [
          "June 4 , 2015",
          []
        ],
        [
          "Festival of Miles",
          []
        ],
        [
          "St. Louis , Missouri",
          [
            "/wiki/St._Louis"
          ]
        ]
      ],
      [
        [
          "Drew Hunter",
          [
            "/wiki/Drew_Hunter"
          ]
        ],
        [
          "3:58.25 ( indoors )",
          []
        ],
        [
          "February 6 , 2016",
          []
        ],
        [
          "Armory Track Invitational",
          []
        ],
        [
          "New York City , New York",
          []
        ]
      ],
      [
        [
          "Drew Hunter",
          [
            "/wiki/Drew_Hunter"
          ]
        ],
        [
          "3:57.81 ( indoors )",
          []
        ],
        [
          "February 20 , 2016",
          []
        ],
        [
          "NYRR Millrose Games",
          [
            "/wiki/Millrose_Games"
          ]
        ],
        [
          "New York City , New York",
          []
        ]
      ],
      [
        [
          "Michael Slagowski",
          []
        ],
        [
          "3:59.53",
          []
        ],
        [
          "April 29 , 2016",
          []
        ],
        [
          "Jesuit Twilight Invitational",
          []
        ],
        [
          "Portland , Oregon",
          [
            "/wiki/Portland,_Oregon"
          ]
        ]
      ],
      [
        [
          "Reed Brown",
          []
        ],
        [
          "3:59.30",
          []
        ],
        [
          "June 1 , 2017",
          []
        ],
        [
          "Festival of Miles",
          []
        ],
        [
          "St. Louis , Missouri",
          []
        ]
      ],
      [
        [
          "Leo Daschbach",
          []
        ],
        [
          "3:59.54",
          []
        ],
        [
          "May 23 , 2020",
          []
        ],
        [
          "The Quarantine Clasico",
          []
        ],
        [
          "El Dorado Hills , California",
          []
        ]
      ]
    ],
    "section_title": "Sub-four-minute mile runs by U.S. high school students",
    "section_text": "",
    "uid": "List_of_high_school_students_who_have_run_a_four-minute_mile_0",
    "intro": "This is a list of American high school students who have run a four-minute mile since the feat was first accomplished in 1964. The first person to run the mile (1,760 yards , or 1,609 metres) in under four minutes was Roger Bannister in 1954, in a time of 3:59.4. This barrier would not be broken by a high school student until 1964, when Jim Ryun ran the distance in a time of 3:59.0 at the Compton Relays. Ryun went on to set a national high school record of 3:55.3, which stood until 2001 when it was broken by Alan Webb . Eleven high school students have run the mile in less than four minutes since 1964. The youngest runner to ever run an official four-minute mile is Norwegian runner Jakob Ingebrigtsen , who ran 3:58.07 at the Prefontaine Classic in May 2017, when he was 16 years and 250 days old."
  },
  "Swimming_at_the_2014_European_Aquatics_Championships_\u2013_Men's_100_metre_breaststroke_2": {
    "url": "https://en.wikipedia.org/wiki/Swimming_at_the_2014_European_Aquatics_Championships_\u2013_Men's_100_metre_breaststroke",
    "title": "Swimming at the 2014 European Aquatics Championships \u2013 Men's 100 metre breaststroke",
    "header": [
      [
        "Rank",
        []
      ],
      [
        "Lane",
        []
      ],
      [
        "Name",
        []
      ],
      [
        "Nationality",
        []
      ],
      [
        "Time",
        []
      ]
    ],
    "data": [
      [
        [
          "1",
          []
        ],
        [
          "4",
          []
        ],
        [
          "Adam Peaty",
          [
            "/wiki/Adam_Peaty"
          ]
        ],
        [
          "Great Britain",
          [
            "/wiki/United_Kingdom"
          ]
        ],
        [
          "58.68",
          []
        ]
      ],
      [
        [
          "2",
          []
        ],
        [
          "5",
          []
        ],
        [
          "Ross Murdoch",
          [
            "/wiki/Ross_Murdoch"
          ]
        ],
        [
          "Great Britain",
          [
            "/wiki/United_Kingdom"
          ]
        ],
        [
          "59.33",
          []
        ]
      ],
      [
        [
          "3",
          []
        ],
        [
          "3",
          []
        ],
        [
          "Hendrik Feldwehr",
          [
            "/wiki/Hendrik_Feldwehr"
          ]
        ],
        [
          "Germany",
          [
            "/wiki/Germany"
          ]
        ],
        [
          "1:01.00",
          []
        ]
      ],
      [
        [
          "4",
          []
        ],
        [
          "6",
          []
        ],
        [
          "Grigory Falko",
          [
            "/wiki/Grigory_Falko"
          ]
        ],
        [
          "Russia",
          [
            "/wiki/Russia"
          ]
        ],
        [
          "1:01.20",
          []
        ]
      ],
      [
        [
          "5",
          []
        ],
        [
          "2",
          []
        ],
        [
          "Tom\u00e1\u0161 Klobu\u010dn\u00edk",
          [
            "/wiki/Tom\u00e1\u0161_Klobu\u010dn\u00edk"
          ]
        ],
        [
          "Slovakia",
          [
            "/wiki/Slovakia"
          ]
        ],
        [
          "1:01.23",
          []
        ]
      ],
      [
        [
          "6",
          []
        ],
        [
          "8",
          []
        ],
        [
          "Thomas Dahlia",
          []
        ],
        [
          "France",
          [
            "/wiki/France"
          ]
        ],
        [
          "1:01.53",
          []
        ]
      ],
      [
        [
          "7",
          []
        ],
        [
          "1",
          []
        ],
        [
          "Dmytro Oseledets",
          [
            "/wiki/Dmytro_Oseledets"
          ]
        ],
        [
          "Ukraine",
          [
            "/wiki/Ukraine"
          ]
        ],
        [
          "1:01.76",
          []
        ]
      ],
      [
        [
          "8",
          []
        ],
        [
          "7",
          []
        ],
        [
          "Laurent Carnol",
          [
            "/wiki/Laurent_Carnol"
          ]
        ],
        [
          "Luxembourg",
          [
            "/wiki/Luxembourg"
          ]
        ],
        [
          "1:01.92",
          []
        ]
      ]
    ],
    "section_title": "Results -- Semifinals",
    "section_text": "",
    "uid": "Swimming_at_the_2014_European_Aquatics_Championships_\u2013_Men's_100_metre_breaststroke_2",
    "intro": "The 100 metre breaststroke competition of the 2014 European Aquatics Championships was held on 18-19 August."
  },
  "List_of_baronetcies_in_the_Baronetage_of_the_United_Kingdom:_J_1": {
    "url": "https://en.wikipedia.org/wiki/List_of_baronetcies_in_the_Baronetage_of_the_United_Kingdom:_J",
    "title": "List of baronetcies in the Baronetage of the United Kingdom: J",
    "header": [
      [
        "Title",
        []
      ],
      [
        "Date of creation",
        []
      ],
      [
        "Surname",
        []
      ],
      [
        "Current status",
        []
      ]
    ],
    "data": [
      [
        [
          "Jackson of Arlsey",
          [
            "/wiki/Jackson_baronets"
          ]
        ],
        [
          "1815",
          []
        ],
        [
          "Jackson",
          []
        ],
        [
          "dormant",
          []
        ]
      ],
      [
        [
          "Jackson of Birkenhead",
          [
            "/wiki/Jackson_baronets"
          ]
        ],
        [
          "1869",
          []
        ],
        [
          "Jackson , Mather-Jackson",
          []
        ],
        [
          "extant",
          []
        ]
      ],
      [
        [
          "Jackson of Fort Hill",
          [
            "/wiki/Jackson_baronets"
          ]
        ],
        [
          "1813",
          []
        ],
        [
          "Jackson",
          []
        ],
        [
          "extinct 1851",
          []
        ]
      ],
      [
        [
          "Jackson of Stansted House",
          [
            "/wiki/Jackson_baronets"
          ]
        ],
        [
          "1902",
          []
        ],
        [
          "Jackson",
          []
        ],
        [
          "extant",
          []
        ]
      ],
      [
        [
          "Jackson of Wandsworth",
          [
            "/wiki/Jackson_baronets"
          ]
        ],
        [
          "1935",
          []
        ],
        [
          "Jackson",
          []
        ],
        [
          "extinct 1937",
          []
        ]
      ],
      [
        [
          "Jackson of Wimbledon",
          [
            "/wiki/Jackson_baronets"
          ]
        ],
        [
          "1913",
          []
        ],
        [
          "Jackson",
          []
        ],
        [
          "extant",
          []
        ]
      ],
      [
        [
          "Jaffray of Edgehill",
          [
            "/wiki/Jaffray_baronets"
          ]
        ],
        [
          "1931",
          []
        ],
        [
          "Jaffray",
          []
        ],
        [
          "extinct 1953",
          []
        ]
      ],
      [
        [
          "Jaffray of Skilts and Park Grove",
          [
            "/wiki/Jaffray_baronets"
          ]
        ],
        [
          "1892",
          []
        ],
        [
          "Jaffray",
          []
        ],
        [
          "extant",
          []
        ]
      ],
      [
        [
          "James of Dublin",
          [
            "/wiki/James_baronets"
          ]
        ],
        [
          "1823",
          []
        ],
        [
          "James",
          []
        ],
        [
          "extinct 1979",
          []
        ]
      ],
      [
        [
          "Jameson of Down Street",
          [
            "/wiki/Leander_Starr_Jameson"
          ]
        ],
        [
          "1911",
          []
        ],
        [
          "Jameson",
          []
        ],
        [
          "extinct 1917",
          []
        ]
      ],
      [
        [
          "Jardine of Castle Milk",
          [
            "/wiki/Jardine_baronets"
          ]
        ],
        [
          "1885",
          []
        ],
        [
          "Jardine , Buchanan-Jardine",
          []
        ],
        [
          "extant",
          []
        ]
      ],
      [
        [
          "Jardine of Godalming",
          [
            "/wiki/Jardine_baronets"
          ]
        ],
        [
          "1916",
          []
        ],
        [
          "Jardine",
          []
        ],
        [
          "extant",
          []
        ]
      ],
      [
        [
          "Jardine of Nottingham",
          [
            "/wiki/Jardine_baronets"
          ]
        ],
        [
          "1919",
          []
        ],
        [
          "Jardine",
          []
        ],
        [
          "extinct 1965",
          []
        ]
      ],
      [
        [
          "Jarvis of Hascombe",
          [
            "/wiki/Jarvis_baronets"
          ]
        ],
        [
          "1922",
          []
        ],
        [
          "Jarvis",
          []
        ],
        [
          "extinct 1965",
          []
        ]
      ],
      [
        [
          "Jehanghir of Bombay",
          [
            "/wiki/Jehangir_baronets"
          ]
        ],
        [
          "1908",
          []
        ],
        [
          "Jehanghir",
          []
        ],
        [
          "extant",
          []
        ]
      ],
      [
        [
          "Jejeebhoy of Bombay",
          [
            "/wiki/Jejeebhoy_baronets"
          ]
        ],
        [
          "1857",
          []
        ],
        [
          "Jejeebhoy",
          []
        ],
        [
          "extant",
          []
        ]
      ],
      [
        [
          "Jenks of Cheape",
          [
            "/wiki/Jenks_baronets"
          ]
        ],
        [
          "1932",
          []
        ],
        [
          "Jenks",
          []
        ],
        [
          "extant",
          []
        ]
      ],
      [
        [
          "Jenner of Harley Street",
          [
            "/wiki/Jenner_baronets"
          ]
        ],
        [
          "1868",
          []
        ],
        [
          "Jenner",
          []
        ],
        [
          "extinct 1954",
          []
        ]
      ],
      [
        [
          "Jephcott of East Portlemouth",
          [
            "/wiki/Jephcott_baronets"
          ]
        ],
        [
          "1962",
          []
        ],
        [
          "Jephcott",
          []
        ],
        [
          "extant",
          []
        ]
      ],
      [
        [
          "Jephson-Norreys of Mallow",
          [
            "/wiki/Denham_Jephson-Norreys"
          ]
        ],
        [
          "1838",
          []
        ],
        [
          "Jephson-Norreys",
          []
        ],
        [
          "extinct 1888",
          []
        ]
      ]
    ],
    "section_title": "",
    "section_text": "Peerages and baronetcies of Britain and Ireland Extant All Dukes Dukedoms Marquesses Marquessates Earls Earldoms Viscounts Viscountcies Barons Baronies Baronets Baronetcies En , Ir , NS , GB , UK ( extinct ) This is a list of baronetcies in the Baronetage of the United Kingdom . They have been created since 1801 , when they replaced the baronetages of Baronetage of Great Britain and Baronetage of Ireland . This list is not currently complete . List of baronetcies in the Baronetage of the United Kingdom A B C D E F G H I J K L M N O P Q R S T U V W X Y Z",
    "uid": "List_of_baronetcies_in_the_Baronetage_of_the_United_Kingdom:_J_1",
    "intro": ""
  },
  "List_of_National_Basketball_Association_career_steals_leaders_3": {
    "url": "https://en.wikipedia.org/wiki/List_of_National_Basketball_Association_career_steals_leaders",
    "title": "List of National Basketball Association career steals leaders",
    "header": [
      [
        "ATL",
        []
      ],
      [
        "Atlanta Hawks",
        [
          "/wiki/Atlanta_Hawks"
        ]
      ],
      [
        "GSW",
        []
      ],
      [
        "Golden State Warriors",
        [
          "/wiki/Golden_State_Warriors"
        ]
      ],
      [
        "MIL",
        []
      ],
      [
        "Milwaukee Bucks",
        [
          "/wiki/Milwaukee_Bucks"
        ]
      ],
      [
        "OKC",
        []
      ],
      [
        "Oklahoma City Thunder",
        [
          "/wiki/Oklahoma_City_Thunder"
        ]
      ],
      [
        "SDC",
        []
      ],
      [
        "San Diego Clippers",
        [
          "/wiki/Los_Angeles_Clippers"
        ]
      ]
    ],
    "data": [
      [
        [
          "BOS",
          []
        ],
        [
          "Boston Celtics",
          [
            "/wiki/Boston_Celtics"
          ]
        ],
        [
          "IND",
          []
        ],
        [
          "Indiana Pacers",
          [
            "/wiki/Indiana_Pacers"
          ]
        ],
        [
          "MIN",
          []
        ],
        [
          "Minnesota Timberwolves",
          [
            "/wiki/Minnesota_Timberwolves"
          ]
        ],
        [
          "PHI",
          []
        ],
        [
          "Philadelphia 76ers",
          [
            "/wiki/Philadelphia_76ers"
          ]
        ],
        [
          "SEA",
          []
        ],
        [
          "Seattle SuperSonics",
          [
            "/wiki/Seattle_SuperSonics"
          ]
        ]
      ],
      [
        [
          "CHH",
          []
        ],
        [
          "Charlotte Hornets",
          [
            "/wiki/Charlotte_Hornets"
          ]
        ],
        [
          "LAC",
          []
        ],
        [
          "Los Angeles Clippers",
          [
            "/wiki/Los_Angeles_Clippers"
          ]
        ],
        [
          "NJN",
          []
        ],
        [
          "New Jersey Nets",
          [
            "/wiki/Brooklyn_Nets"
          ]
        ],
        [
          "PHO",
          []
        ],
        [
          "Phoenix Suns",
          [
            "/wiki/Phoenix_Suns"
          ]
        ],
        [
          "TOR",
          []
        ],
        [
          "Toronto Raptors",
          [
            "/wiki/Toronto_Raptors"
          ]
        ]
      ],
      [
        [
          "CHI",
          []
        ],
        [
          "Chicago Bulls",
          [
            "/wiki/Chicago_Bulls"
          ]
        ],
        [
          "LAL",
          []
        ],
        [
          "Los Angeles Lakers",
          [
            "/wiki/Los_Angeles_Lakers"
          ]
        ],
        [
          "NOH",
          []
        ],
        [
          "New Orleans Hornets",
          [
            "/wiki/New_Orleans_Pelicans"
          ]
        ],
        [
          "POR",
          []
        ],
        [
          "Portland Trail Blazers",
          [
            "/wiki/Portland_Trail_Blazers"
          ]
        ],
        [
          "UTA",
          []
        ],
        [
          "Utah Jazz",
          [
            "/wiki/Utah_Jazz"
          ]
        ]
      ],
      [
        [
          "CLE",
          []
        ],
        [
          "Cleveland Cavaliers",
          [
            "/wiki/Cleveland_Cavaliers"
          ]
        ],
        [
          "MEM",
          []
        ],
        [
          "Memphis Grizzlies",
          [
            "/wiki/Memphis_Grizzlies"
          ]
        ],
        [
          "NOP",
          []
        ],
        [
          "New Orleans Pelicans",
          [
            "/wiki/New_Orleans_Pelicans"
          ]
        ],
        [
          "SAC",
          []
        ],
        [
          "Sacramento Kings",
          [
            "/wiki/Sacramento_Kings"
          ]
        ],
        [
          "WAS",
          []
        ],
        [
          "Washington Wizards",
          [
            "/wiki/Washington_Wizards"
          ]
        ]
      ],
      [
        [
          "DAL",
          []
        ],
        [
          "Dallas Mavericks",
          [
            "/wiki/Dallas_Mavericks"
          ]
        ],
        [
          "MIA",
          []
        ],
        [
          "Miami Heat",
          [
            "/wiki/Miami_Heat"
          ]
        ],
        [
          "NYK",
          []
        ],
        [
          "New York Knicks",
          [
            "/wiki/New_York_Knicks"
          ]
        ],
        [
          "SAS",
          []
        ],
        [
          "San Antonio Spurs",
          [
            "/wiki/San_Antonio_Spurs"
          ]
        ],
        [
          "WSB",
          []
        ],
        [
          "Washington Bullets",
          [
            "/wiki/Washington_Wizards"
          ]
        ]
      ]
    ],
    "section_title": "Progressive list of steals leaders",
    "section_text": "This is a progressive list of steals leaders showing how the record increased through the years . [ 2 ] Statistics accurate as of March 11 , 2020 . ^ Active NBA player * Inducted into the Naismith Memorial Basketball Hall of Fame",
    "uid": "List_of_National_Basketball_Association_career_steals_leaders_3",
    "intro": "This article provides two lists:"
  },
  "Swimming_at_the_2012_European_Aquatics_Championships_\u2013_Men's_200_metre_breaststroke_3": {
    "url": "https://en.wikipedia.org/wiki/Swimming_at_the_2012_European_Aquatics_Championships_\u2013_Men's_200_metre_breaststroke",
    "title": "Swimming at the 2012 European Aquatics Championships \u2013 Men's 200 metre breaststroke",
    "header": [
      [
        "Rank",
        []
      ],
      [
        "Lane",
        []
      ],
      [
        "Name",
        []
      ],
      [
        "Nationality",
        []
      ],
      [
        "Time",
        []
      ]
    ],
    "data": [
      [
        [
          "1",
          []
        ],
        [
          "4",
          []
        ],
        [
          "D\u00e1niel Gyurta",
          [
            "/wiki/D\u00e1niel_Gyurta"
          ]
        ],
        [
          "Hungary",
          [
            "/wiki/Hungary"
          ]
        ],
        [
          "2:08.60",
          []
        ]
      ],
      [
        [
          "2",
          []
        ],
        [
          "5",
          []
        ],
        [
          "Marco Koch",
          [
            "/wiki/Marco_Koch"
          ]
        ],
        [
          "Germany",
          [
            "/wiki/Germany"
          ]
        ],
        [
          "2:09.26",
          []
        ]
      ],
      [
        [
          "3",
          []
        ],
        [
          "3",
          []
        ],
        [
          "Panagiotis Samilidis",
          [
            "/wiki/Panagiotis_Samilidis"
          ]
        ],
        [
          "Greece",
          [
            "/wiki/Greece"
          ]
        ],
        [
          "2:09.72",
          []
        ]
      ],
      [
        [
          "4",
          []
        ],
        [
          "1",
          []
        ],
        [
          "Christian vom Lehn",
          [
            "/wiki/Christian_vom_Lehn"
          ]
        ],
        [
          "Germany",
          [
            "/wiki/Germany"
          ]
        ],
        [
          "2:10.61",
          []
        ]
      ],
      [
        [
          "5",
          []
        ],
        [
          "2",
          []
        ],
        [
          "Flavio Bizzarri",
          []
        ],
        [
          "Italy",
          [
            "/wiki/Italy"
          ]
        ],
        [
          "2.12.47",
          []
        ]
      ],
      [
        [
          "6",
          []
        ],
        [
          "6",
          []
        ],
        [
          "Igor Borysik",
          [
            "/wiki/Ihor_Borysyk"
          ]
        ],
        [
          "Ukraine",
          [
            "/wiki/Ukraine"
          ]
        ],
        [
          "2:12.51",
          []
        ]
      ],
      [
        [
          "7",
          []
        ],
        [
          "7",
          []
        ],
        [
          "Yannick Kaeser",
          [
            "/wiki/Yannick_K\u00e4ser"
          ]
        ],
        [
          "Switzerland",
          [
            "/wiki/Switzerland"
          ]
        ],
        [
          "2:13.23",
          []
        ]
      ],
      [
        [
          "8",
          []
        ],
        [
          "8",
          []
        ],
        [
          "\u00c1kos Moln\u00e1r",
          [
            "/wiki/\u00c1kos_Moln\u00e1r_(swimmer)"
          ]
        ],
        [
          "Hungary",
          [
            "/wiki/Hungary"
          ]
        ],
        [
          "2:13.33",
          []
        ]
      ]
    ],
    "section_title": "Results -- Final",
    "section_text": "The final was held at 17:41 . [ 4 ]",
    "uid": "Swimming_at_the_2012_European_Aquatics_Championships_\u2013_Men's_200_metre_breaststroke_3",
    "intro": "The men's 200 metre breaststroke competition of the swimming events at the 2012 European Aquatics Championships took place May 23 and 24. The heats and semifinals took place on May 23, the final on May 24."
  }
}