{
  "2006_FIVB_Women's_Volleyball_World_Championship_qualification_(CAVB)_2": {
    "url": "https://en.wikipedia.org/wiki/2006_FIVB_Volleyball_Women's_World_Championship_qualification_(CAVB)",
    "title": "2006 FIVB Volleyball Women's World Championship qualification (CAVB)",
    "header": [
      [
        "Date",
        []
      ],
      [
        "Time",
        []
      ],
      [
        "",
        []
      ],
      [
        "Score",
        []
      ],
      [
        "",
        []
      ],
      [
        "Set 1",
        []
      ],
      [
        "Set 2",
        []
      ],
      [
        "Set 3",
        []
      ],
      [
        "Total",
        []
      ],
      [
        "Report",
        []
      ]
    ],
    "data": [
      [
        [
          "17 Mar",
          []
        ],
        [
          "16:00",
          []
        ],
        [
          "South Africa",
          [
            "/wiki/South_Africa_women's_national_volleyball_team"
          ]
        ],
        [
          "1-3",
          []
        ],
        [
          "Nigeria",
          [
            "/wiki/Nigeria_women's_national_volleyball_team"
          ]
        ],
        [
          "25-21",
          []
        ],
        [
          "23-25",
          []
        ],
        [
          "19-25",
          []
        ],
        [
          "91-97",
          []
        ],
        [
          "Report",
          []
        ]
      ],
      [
        [
          "17 Mar",
          []
        ],
        [
          "19:00",
          []
        ],
        [
          "Egypt",
          [
            "/wiki/Egypt_women's_national_volleyball_team"
          ]
        ],
        [
          "3-0",
          []
        ],
        [
          "Botswana",
          [
            "/wiki/Botswana_women's_national_volleyball_team"
          ]
        ],
        [
          "25-2",
          []
        ],
        [
          "25-10",
          []
        ],
        [
          "25-5",
          []
        ],
        [
          "75-17",
          []
        ],
        [
          "Report",
          []
        ]
      ],
      [
        [
          "18 Mar",
          []
        ],
        [
          "16:00",
          []
        ],
        [
          "Botswana",
          [
            "/wiki/Botswana_women's_national_volleyball_team"
          ]
        ],
        [
          "0-3",
          []
        ],
        [
          "Nigeria",
          [
            "/wiki/Nigeria_women's_national_volleyball_team"
          ]
        ],
        [
          "13-25",
          []
        ],
        [
          "10-25",
          []
        ],
        [
          "22-25",
          []
        ],
        [
          "45-75",
          []
        ],
        [
          "Report",
          []
        ]
      ],
      [
        [
          "18 Mar",
          []
        ],
        [
          "18:00",
          []
        ],
        [
          "Egypt",
          [
            "/wiki/Egypt_women's_national_volleyball_team"
          ]
        ],
        [
          "3-0",
          []
        ],
        [
          "South Africa",
          [
            "/wiki/South_Africa_women's_national_volleyball_team"
          ]
        ],
        [
          "25-12",
          []
        ],
        [
          "25-12",
          []
        ],
        [
          "25-9",
          []
        ],
        [
          "75-33",
          []
        ],
        [
          "Report",
          []
        ]
      ],
      [
        [
          "19 Mar",
          []
        ],
        [
          "16:00",
          []
        ],
        [
          "South Africa",
          [
            "/wiki/South_Africa_women's_national_volleyball_team"
          ]
        ],
        [
          "3-0",
          []
        ],
        [
          "Botswana",
          [
            "/wiki/Botswana_women's_national_volleyball_team"
          ]
        ],
        [
          "25-15",
          []
        ],
        [
          "25-19",
          []
        ],
        [
          "25-7",
          []
        ],
        [
          "75-41",
          []
        ],
        [
          "Report",
          []
        ]
      ],
      [
        [
          "19 Mar",
          []
        ],
        [
          "18:00",
          []
        ],
        [
          "Nigeria",
          [
            "/wiki/Nigeria_women's_national_volleyball_team"
          ]
        ],
        [
          "0-3",
          []
        ],
        [
          "Egypt",
          [
            "/wiki/Egypt_women's_national_volleyball_team"
          ]
        ],
        [
          "15-25",
          []
        ],
        [
          "14-25",
          []
        ],
        [
          "14-25",
          []
        ],
        [
          "43-75",
          []
        ],
        [
          "Report",
          []
        ]
      ]
    ],
    "section_title": "First round -- Pool A",
    "section_text": "Venue : Abdullah Al-Faisal Hall , Cairo , Egypt Dates : March 17\u201319 , 2005 All times are Eastern European Time ( UTC+02:00 ) Pts Matches Sets Points Rank Team W L W L Ratio W L Ratio 1 Egypt 6 3 0 9 0 MAX 225 93 2.419 2 Nigeria 5 2 1 6 4 1.500 215 211 1.019 3 South Africa 4 1 2 4 6 0.667 199 213 0.934 4 Botswana 3 0 3 0 9 0.000 103 225 0.458",
    "uid": "2006_FIVB_Women's_Volleyball_World_Championship_qualification_(CAVB)_2",
    "intro": "The CAVB qualification for the 2006 FIVB Women's Volleyball World Championship saw member nations compete for three places at the finals in Japan."
  },
  "2010_FIVB_Women's_Volleyball_World_Championship_qualification_(CAVB)_7": {
    "url": "https://en.wikipedia.org/wiki/2010_FIVB_Volleyball_Women's_World_Championship_qualification_(CAVB)",
    "title": "2010 FIVB Volleyball Women's World Championship qualification (CAVB)",
    "header": [
      [
        "Date",
        []
      ],
      [
        "Time",
        []
      ],
      [
        "",
        []
      ],
      [
        "Score",
        []
      ],
      [
        "",
        []
      ],
      [
        "Set 1",
        []
      ],
      [
        "Set 2",
        []
      ],
      [
        "Set 3",
        []
      ],
      [
        "Total",
        []
      ],
      [
        "Report",
        []
      ]
    ],
    "data": [
      [
        [
          "10 Jul",
          []
        ],
        [
          "14:00",
          []
        ],
        [
          "Tunisia",
          [
            "/wiki/Tunisia_women's_national_volleyball_team"
          ]
        ],
        [
          "3-2",
          []
        ],
        [
          "Cameroon",
          [
            "/wiki/Cameroon_women's_national_volleyball_team"
          ]
        ],
        [
          "27-25",
          []
        ],
        [
          "18-25",
          []
        ],
        [
          "25-18",
          []
        ],
        [
          "104-107",
          []
        ],
        [
          "P2 P3",
          []
        ]
      ],
      [
        [
          "10 Jul",
          []
        ],
        [
          "16:00",
          []
        ],
        [
          "Kenya",
          [
            "/wiki/Kenya_women's_national_volleyball_team"
          ]
        ],
        [
          "3-0",
          []
        ],
        [
          "Senegal",
          [
            "/wiki/Senegal_women's_national_volleyball_team"
          ]
        ],
        [
          "25-19",
          []
        ],
        [
          "25-20",
          []
        ],
        [
          "25-14",
          []
        ],
        [
          "75-53",
          []
        ],
        [
          "P2 P3",
          []
        ]
      ],
      [
        [
          "11 Jul",
          []
        ],
        [
          "14:00",
          []
        ],
        [
          "Senegal",
          [
            "/wiki/Senegal_women's_national_volleyball_team"
          ]
        ],
        [
          "3-2",
          []
        ],
        [
          "Cameroon",
          [
            "/wiki/Cameroon_women's_national_volleyball_team"
          ]
        ],
        [
          "21-25",
          []
        ],
        [
          "25-22",
          []
        ],
        [
          "25-20",
          []
        ],
        [
          "108-105",
          []
        ],
        [
          "P2 P3",
          []
        ]
      ],
      [
        [
          "11 Jul",
          []
        ],
        [
          "16:00",
          []
        ],
        [
          "Kenya",
          [
            "/wiki/Kenya_women's_national_volleyball_team"
          ]
        ],
        [
          "3-0",
          []
        ],
        [
          "Tunisia",
          [
            "/wiki/Tunisia_women's_national_volleyball_team"
          ]
        ],
        [
          "25-18",
          []
        ],
        [
          "25-18",
          []
        ],
        [
          "25-16",
          []
        ],
        [
          "75-52",
          []
        ],
        [
          "P2 P3",
          []
        ]
      ],
      [
        [
          "12 Jul",
          []
        ],
        [
          "14:00",
          []
        ],
        [
          "Tunisia",
          [
            "/wiki/Tunisia_women's_national_volleyball_team"
          ]
        ],
        [
          "3-0",
          []
        ],
        [
          "Senegal",
          [
            "/wiki/Senegal_women's_national_volleyball_team"
          ]
        ],
        [
          "25-19",
          []
        ],
        [
          "25-17",
          []
        ],
        [
          "25-17",
          []
        ],
        [
          "75-53",
          []
        ],
        [
          "P2 P3",
          []
        ]
      ],
      [
        [
          "12 Jul",
          []
        ],
        [
          "16:00",
          []
        ],
        [
          "Cameroon",
          [
            "/wiki/Cameroon_women's_national_volleyball_team"
          ]
        ],
        [
          "0-3",
          []
        ],
        [
          "Kenya",
          [
            "/wiki/Kenya_women's_national_volleyball_team"
          ]
        ],
        [
          "16-25",
          []
        ],
        [
          "21-25",
          []
        ],
        [
          "19-25",
          []
        ],
        [
          "56-75",
          []
        ],
        [
          "P2 P3",
          []
        ]
      ]
    ],
    "section_title": "Third round -- Pool C",
    "section_text": "Venue : Kasarani Hall , Nairobi , Kenya Dates : July 10\u201312 , 2009 All times are East Africa Time ( UTC+03:00 ) Pts Matches Points Sets Rank Team W L W L Ratio W L Ratio 1 Kenya 6 3 0 225 161 1.398 9 0 MAX 2 Tunisia 5 2 1 231 235 0.983 6 5 1.200 3 Senegal 4 1 2 214 255 0.839 3 8 0.375 4 Cameroon 3 0 3 268 287 0.934 4 9 0.444",
    "uid": "2010_FIVB_Women's_Volleyball_World_Championship_qualification_(CAVB)_7",
    "intro": "The CAVB qualification for the 2010 FIVB Women's Volleyball World Championship saw member nations compete for two places at the finals in Japan."
  },
  "Yugoslav_order_of_battle_prior_to_the_invasion_of_Yugoslavia_12": {
    "url": "https://en.wikipedia.org/wiki/Yugoslav_order_of_battle_prior_to_the_invasion_of_Yugoslavia",
    "title": "Yugoslav order of battle prior to the invasion of Yugoslavia",
    "header": [
      [
        "Formation",
        []
      ],
      [
        "Unit",
        []
      ],
      [
        "Location",
        []
      ],
      [
        "Aircraft",
        []
      ]
    ],
    "data": [
      [
        [
          "1st Bomber Regiment HQ : Novi Sad",
          [
            "/wiki/Novi_Sad"
          ]
        ],
        [
          "61st Bomber Group",
          []
        ],
        [
          "Bijeljina",
          [
            "/wiki/Bijeljina"
          ]
        ],
        [
          "11 \u00d7 Bristol Blenheim Mk I light bombers",
          []
        ]
      ],
      [
        [
          "1st Bomber Regiment HQ : Novi Sad",
          [
            "/wiki/Novi_Sad"
          ]
        ],
        [
          "62nd Bomber Group",
          []
        ],
        [
          "Bijeljina",
          []
        ],
        [
          "12 \u00d7 Bristol Blenheim Mk I light bombers",
          []
        ]
      ],
      [
        [
          "7th Bomber Regiment HQ : Mostar",
          []
        ],
        [
          "66th Bomber Group",
          []
        ],
        [
          "Preljina",
          [
            "/wiki/Preljina"
          ]
        ],
        [
          "13 \u00d7 Savoia-Marchetti SM.79 medium bombers",
          []
        ]
      ],
      [
        [
          "7th Bomber Regiment HQ : Mostar",
          []
        ],
        [
          "67th Bomber Group",
          []
        ],
        [
          "Gorobilje",
          [
            "/wiki/Gorobilje"
          ]
        ],
        [
          "13 \u00d7 Savoia-Marchetti SM.79 medium bombers",
          []
        ]
      ],
      [
        [
          "-",
          []
        ],
        [
          "705th Liaison Squadron",
          []
        ],
        [
          "Ljubi\u0107",
          []
        ],
        [
          "Messerschmitt Bf 108 liaison aircraft Fieseler Fi 156 liaison aircraft",
          []
        ]
      ]
    ],
    "section_title": "Royal Yugoslav Army Air Force -- 4th Bomber Brigade",
    "section_text": "The 4th Bomber Brigade was commanded by Pukovnik Petar Vuk\u010devi\u0107 , whose headquarters was at Ljubi\u0107 . It consisted of the 1st and 7th Bomber Regiments and a liaison squadron . [ 40 ]",
    "uid": "Yugoslav_order_of_battle_prior_to_the_invasion_of_Yugoslavia_12",
    "intro": "The Yugoslav order of battle before the invasion of Yugoslavia includes a listing (or order of battle) of all operational formations of the Royal Yugoslav Army (, VKJ), Royal Yugoslav Army Air Force (, VVKJ) and Royal Yugoslav Navy (, KJRM) immediately prior to the World War II invasion of that country in April 1941. The VKJ consisted of 33 divisions and a significant number of smaller formations, but due to tentative and incomplete mobilisation, only seven divisions and four smaller formations are known to have been at close to fighting strength and in their planned deployment locations when the German-led Axis assault commenced on 6 April 1941. The Yugoslav defence plan involved placing the bulk of its land forces close to its borders, with very limited strategic reserves in depth. Almost all of the divisions that had been effectively mobilised were concentrated in the 3rd Army Group deployed in the east of the country along the Romanian and Bulgarian borders between the Iron Gates and the Greek border. Most of the heavy weapons and armoured vehicles available to the VKJ were obsolete, most formations were heavily reliant on animal-powered transport, and the VKJ had only 50 tanks that could engage front line German tanks on an equal basis. By 6 April 1941, the VVKJ had been almost completely mobilised, and consisted of four air brigades with more than 423 aircraft of Yugoslav, German, Italian, French, Czech and British design, including 107 modern fighter aircraft, and 100 modern medium bombers. Other than a small number of locally made Rogo\u017earski IK-3 fighters, almost all the modern aircraft available to the VVKJ were of German, Italian or British design for which limited spares and munitions were available. The KJRM consisted of a flotilla of river monitors based on the Danube and a small fleet based in several ports along the Adriatic coast. The blue-water navy centred on a flotilla leader, three smaller destroyers, four obsolescent submarines and a gunboat, supplemented by minelayers and torpedo boats. Some of the smaller vessels in the Yugoslav fleet had been inherited from the defeated Austro-Hungarian Empire following World War I and were obsolete."
  },
  "Template:2008_Summer_Olympics_Italy_men's_water_polo_team_roster_0": {
    "url": "https://en.wikipedia.org/wiki/Template:2008_Summer_Olympics_Italy_men's_water_polo_team_roster",
    "title": "Template:2008 Summer Olympics Italy men's water polo team roster",
    "header": [
      [
        "\u2116",
        []
      ],
      [
        "Name v t e",
        []
      ],
      [
        "Pos",
        []
      ],
      [
        "Height",
        []
      ],
      [
        "Weight",
        []
      ],
      [
        "Date of birth",
        []
      ],
      [
        "Club",
        []
      ]
    ],
    "data": [
      [
        [
          "1",
          []
        ],
        [
          "Stefano Tempesti",
          [
            "/wiki/Stefano_Tempesti"
          ]
        ],
        [
          "GK",
          []
        ],
        [
          "2.05 m ( 6 ft 9 in )",
          []
        ],
        [
          "97 kg ( 214 lb )",
          []
        ],
        [
          "9 June 1979",
          []
        ],
        [
          "Pro Recco",
          [
            "/wiki/Pro_Recco"
          ]
        ]
      ],
      [
        [
          "2",
          []
        ],
        [
          "Luigi Di Costanzo",
          [
            "/wiki/Luigi_Di_Costanzo"
          ]
        ],
        [
          "D",
          []
        ],
        [
          "1.85 m ( 6 ft 1 in )",
          []
        ],
        [
          "82 kg ( 181 lb )",
          []
        ],
        [
          "5 February 1982",
          []
        ],
        [
          "Posillipo Naples",
          []
        ]
      ],
      [
        [
          "3",
          []
        ],
        [
          "Leonardo Binchi",
          [
            "/wiki/Leonardo_Binchi"
          ]
        ],
        [
          "CB",
          []
        ],
        [
          "2.00 m ( 6 ft 7 in )",
          []
        ],
        [
          "100 kg ( 220 lb )",
          []
        ],
        [
          "27 August 1975",
          []
        ],
        [
          "Brescia",
          []
        ]
      ],
      [
        [
          "4",
          []
        ],
        [
          "Fabrizio Buonocore",
          [
            "/wiki/Fabrizio_Buonocore"
          ]
        ],
        [
          "CB",
          []
        ],
        [
          "1.86 m ( 6 ft 1 in )",
          []
        ],
        [
          "85 kg ( 187 lb )",
          []
        ],
        [
          "28 April 1977",
          []
        ],
        [
          "Posillipo Naples",
          []
        ]
      ],
      [
        [
          "5",
          []
        ],
        [
          "Valentino Gallo",
          [
            "/wiki/Valentino_Gallo"
          ]
        ],
        [
          "D",
          []
        ],
        [
          "1.93 m ( 6 ft 4 in )",
          []
        ],
        [
          "90 kg ( 200 lb )",
          []
        ],
        [
          "17 July 1985",
          []
        ],
        [
          "Posillipo Naples",
          []
        ]
      ],
      [
        [
          "6",
          []
        ],
        [
          "Maurizio Felugo",
          [
            "/wiki/Maurizio_Felugo"
          ]
        ],
        [
          "D",
          []
        ],
        [
          "1.89 m ( 6 ft 2 in )",
          []
        ],
        [
          "82 kg ( 181 lb )",
          []
        ],
        [
          "4 March 1981",
          []
        ],
        [
          "Pro Recco",
          [
            "/wiki/Pro_Recco"
          ]
        ]
      ],
      [
        [
          "7",
          []
        ],
        [
          "Andrea Mangiante",
          [
            "/wiki/Andrea_Mangiante"
          ]
        ],
        [
          "CB",
          []
        ],
        [
          "1.91 m ( 6 ft 3 in )",
          []
        ],
        [
          "92 kg ( 203 lb )",
          []
        ],
        [
          "1 July 1976",
          []
        ],
        [
          "Pro Recco",
          [
            "/wiki/Pro_Recco"
          ]
        ]
      ],
      [
        [
          "8",
          []
        ],
        [
          "Alberto Angelini",
          [
            "/wiki/Alberto_Angelini"
          ]
        ],
        [
          "D",
          []
        ],
        [
          "1.76 m ( 5 ft 9 in )",
          []
        ],
        [
          "85 kg ( 187 lb )",
          []
        ],
        [
          "28 September 1974",
          []
        ],
        [
          "Pro Recco",
          [
            "/wiki/Pro_Recco"
          ]
        ]
      ],
      [
        [
          "9",
          []
        ],
        [
          "Fabio Bencivenga",
          [
            "/wiki/Fabio_Bencivenga"
          ]
        ],
        [
          "CF",
          []
        ],
        [
          "2.01 m ( 6 ft 7 in )",
          []
        ],
        [
          "97 kg ( 214 lb )",
          []
        ],
        [
          "20 January 1976",
          []
        ],
        [
          "Posillipo Naples",
          []
        ]
      ],
      [
        [
          "10",
          []
        ],
        [
          "Alessandro Calcaterra",
          [
            "/wiki/Alessandro_Calcaterra"
          ]
        ],
        [
          "CF",
          []
        ],
        [
          "1.87 m ( 6 ft 2 in )",
          []
        ],
        [
          "102 kg ( 225 lb )",
          []
        ],
        [
          "26 May 1975",
          []
        ],
        [
          "Pro Recco",
          [
            "/wiki/Pro_Recco"
          ]
        ]
      ],
      [
        [
          "11",
          []
        ],
        [
          "Leonardo Sottani",
          [
            "/wiki/Leonardo_Sottani"
          ]
        ],
        [
          "D",
          []
        ],
        [
          "1.92 m ( 6 ft 4 in )",
          []
        ],
        [
          "86 kg ( 190 lb )",
          []
        ],
        [
          "1 November 1973",
          []
        ],
        [
          "Cremona",
          []
        ]
      ],
      [
        [
          "12",
          []
        ],
        [
          "Federico Mistrangelo",
          [
            "/wiki/Federico_Mistrangelo"
          ]
        ],
        [
          "D",
          []
        ],
        [
          "1.81 m ( 5 ft 11 in )",
          []
        ],
        [
          "80 kg ( 180 lb )",
          []
        ],
        [
          "11 May 1981",
          []
        ],
        [
          "Savona",
          []
        ]
      ],
      [
        [
          "13",
          []
        ],
        [
          "Fabio Violetti",
          []
        ],
        [
          "GK",
          []
        ],
        [
          "1.91 m ( 6 ft 3 in )",
          []
        ],
        [
          "85 kg ( 187 lb )",
          []
        ],
        [
          "1 February 1974",
          []
        ],
        [
          "Posillipo Naples",
          []
        ]
      ]
    ],
    "section_title": "",
    "section_text": "The following is the Italian roster in the men 's water polo tournament of the 2008 Summer Olympics . [ 1 ] viewtalk",
    "uid": "Template:2008_Summer_Olympics_Italy_men's_water_polo_team_roster_0",
    "intro": "The purpose of this template is to collect source text used in several articles in one place, in order to minimize maintenance and storage space. This is the Italian roster in the men's water polo tournament of the 2008 Summer Olympics . The template is typically used in two articles: the article covering Italy at the 2008 Summer Olympics , and the article covering the rosters of all participating teams of the tournament. The following is the Italian roster in the men's water polo tournament of the 2008 Summer Olympics."
  },
  "NCAA_Division_I_Men's_Ice_Hockey_Tournament_all-time_team_records_0": {
    "url": "https://en.wikipedia.org/wiki/NCAA_Division_I_Men's_Ice_Hockey_Tournament_all-time_team_records",
    "title": "NCAA Division I Men's Ice Hockey Tournament all-time team records",
    "header": [
      [
        "School",
        []
      ],
      [
        "Conference",
        []
      ],
      [
        "Games",
        []
      ],
      [
        "Wins",
        []
      ],
      [
        "Losses",
        []
      ],
      [
        "Ties",
        []
      ],
      [
        "Winning pct",
        []
      ],
      [
        "Championships",
        [
          "/wiki/List_of_NCAA_Division_I_men's_ice_hockey_champions"
        ]
      ]
    ],
    "data": [
      [
        [
          "Air Force",
          [
            "/wiki/Air_Force_Falcons_men's_ice_hockey"
          ]
        ],
        [
          "Atlantic Hockey",
          [
            "/wiki/Atlantic_Hockey"
          ]
        ],
        [
          "10",
          []
        ],
        [
          "3",
          []
        ],
        [
          "7",
          []
        ],
        [
          "0",
          []
        ],
        [
          ".300",
          []
        ],
        [
          "0",
          []
        ]
      ],
      [
        [
          "Alabama-Huntsville",
          [
            "/wiki/Alabama\u2013Huntsville_Chargers_men's_ice_hockey"
          ]
        ],
        [
          "WCHA",
          [
            "/wiki/Western_Collegiate_Hockey_Association"
          ]
        ],
        [
          "2",
          []
        ],
        [
          "0",
          []
        ],
        [
          "2",
          []
        ],
        [
          "0",
          []
        ],
        [
          ".000",
          []
        ],
        [
          "0",
          []
        ]
      ],
      [
        [
          "Alaska *",
          [
            "/wiki/Alaska_Nanooks_men's_ice_hockey"
          ]
        ],
        [
          "WCHA",
          [
            "/wiki/Western_Collegiate_Hockey_Association"
          ]
        ],
        [
          "0",
          []
        ],
        [
          "0",
          []
        ],
        [
          "0",
          []
        ],
        [
          "0",
          []
        ],
        [
          ".000",
          []
        ],
        [
          "0",
          []
        ]
      ],
      [
        [
          "Alaska Anchorage",
          [
            "/wiki/Alaska_Anchorage_Seawolves_men's_ice_hockey"
          ]
        ],
        [
          "WCHA",
          [
            "/wiki/Western_Collegiate_Hockey_Association"
          ]
        ],
        [
          "7",
          []
        ],
        [
          "2",
          []
        ],
        [
          "5",
          []
        ],
        [
          "0",
          []
        ],
        [
          ".286",
          []
        ],
        [
          "0",
          []
        ]
      ],
      [
        [
          "American International",
          [
            "/wiki/American_International_Yellow_Jackets_men's_ice_hockey"
          ]
        ],
        [
          "WCHA",
          [
            "/wiki/Western_Collegiate_Hockey_Association"
          ]
        ],
        [
          "2",
          []
        ],
        [
          "1",
          []
        ],
        [
          "1",
          []
        ],
        [
          "0",
          []
        ],
        [
          ".500",
          []
        ],
        [
          "0",
          []
        ]
      ],
      [
        [
          "Arizona State",
          [
            "/wiki/Arizona_State_Sun_Devils_men's_ice_hockey"
          ]
        ],
        [
          "Independent",
          []
        ],
        [
          "1",
          []
        ],
        [
          "0",
          []
        ],
        [
          "1",
          []
        ],
        [
          "0",
          []
        ],
        [
          ".000",
          []
        ],
        [
          "0",
          []
        ]
      ],
      [
        [
          "Bemidji State",
          [
            "/wiki/Bemidji_State_Beavers_men's_ice_hockey"
          ]
        ],
        [
          "Atlantic Hockey",
          [
            "/wiki/Atlantic_Hockey"
          ]
        ],
        [
          "6",
          []
        ],
        [
          "2",
          []
        ],
        [
          "4",
          []
        ],
        [
          "0",
          []
        ],
        [
          ".333",
          []
        ],
        [
          "0",
          []
        ]
      ],
      [
        [
          "Boston College",
          [
            "/wiki/Boston_College_Eagles_men's_ice_hockey"
          ]
        ],
        [
          "Hockey East",
          [
            "/wiki/Hockey_East"
          ]
        ],
        [
          "91",
          []
        ],
        [
          "49",
          []
        ],
        [
          "42",
          []
        ],
        [
          "0",
          []
        ],
        [
          ".538",
          []
        ],
        [
          "5",
          []
        ]
      ],
      [
        [
          "Boston University",
          [
            "/wiki/Boston_University_Terriers_men's_ice_hockey"
          ]
        ],
        [
          "Hockey East",
          [
            "/wiki/Hockey_East"
          ]
        ],
        [
          "80",
          []
        ],
        [
          "43",
          []
        ],
        [
          "37",
          []
        ],
        [
          "0",
          []
        ],
        [
          ".538",
          []
        ],
        [
          "5",
          []
        ]
      ],
      [
        [
          "Bowling Green",
          [
            "/wiki/Bowling_Green_Falcons_men's_ice_hockey"
          ]
        ],
        [
          "WCHA",
          [
            "/wiki/Western_Collegiate_Hockey_Association"
          ]
        ],
        [
          "22",
          []
        ],
        [
          "7",
          []
        ],
        [
          "14",
          []
        ],
        [
          "1",
          []
        ],
        [
          ".341",
          []
        ],
        [
          "1",
          []
        ]
      ],
      [
        [
          "Brown",
          [
            "/wiki/Brown_Bears_men's_ice_hockey"
          ]
        ],
        [
          "ECAC Hockey",
          [
            "/wiki/ECAC_Hockey"
          ]
        ],
        [
          "7",
          []
        ],
        [
          "2",
          []
        ],
        [
          "5",
          []
        ],
        [
          "0",
          []
        ],
        [
          ".286",
          []
        ],
        [
          "0",
          []
        ]
      ],
      [
        [
          "Canisius",
          [
            "/wiki/Canisius_Golden_Griffins_men's_ice_hockey"
          ]
        ],
        [
          "Atlantic Hockey",
          [
            "/wiki/Atlantic_Hockey"
          ]
        ],
        [
          "1",
          []
        ],
        [
          "0",
          []
        ],
        [
          "1",
          []
        ],
        [
          "0",
          []
        ],
        [
          ".000",
          []
        ],
        [
          "0",
          []
        ]
      ],
      [
        [
          "Clarkson",
          [
            "/wiki/Clarkson_Golden_Knights_men's_ice_hockey"
          ]
        ],
        [
          "ECAC Hockey",
          [
            "/wiki/ECAC_Hockey"
          ]
        ],
        [
          "38",
          []
        ],
        [
          "13",
          []
        ],
        [
          "25",
          []
        ],
        [
          "1",
          []
        ],
        [
          ".346",
          []
        ],
        [
          "0",
          []
        ]
      ],
      [
        [
          "Colgate",
          [
            "/wiki/Colgate_Raiders_men's_ice_hockey"
          ]
        ],
        [
          "ECAC Hockey",
          [
            "/wiki/ECAC_Hockey"
          ]
        ],
        [
          "9",
          []
        ],
        [
          "3",
          []
        ],
        [
          "6",
          []
        ],
        [
          "0",
          []
        ],
        [
          ".333",
          []
        ],
        [
          "0",
          []
        ]
      ],
      [
        [
          "Colorado College",
          [
            "/wiki/Colorado_College_Tigers_men's_ice_hockey"
          ]
        ],
        [
          "NCHC",
          [
            "/wiki/National_Collegiate_Hockey_Conference"
          ]
        ],
        [
          "38",
          []
        ],
        [
          "18",
          []
        ],
        [
          "20",
          []
        ],
        [
          "0",
          []
        ],
        [
          ".474",
          []
        ],
        [
          "2",
          []
        ]
      ],
      [
        [
          "Cornell",
          [
            "/wiki/Cornell_Big_Red_men's_ice_hockey"
          ]
        ],
        [
          "ECAC Hockey",
          [
            "/wiki/ECAC_Hockey"
          ]
        ],
        [
          "42",
          []
        ],
        [
          "19",
          []
        ],
        [
          "23",
          []
        ],
        [
          "0",
          []
        ],
        [
          ".452",
          []
        ],
        [
          "2",
          []
        ]
      ],
      [
        [
          "Dartmouth",
          [
            "/wiki/Dartmouth_Big_Green_men's_ice_hockey"
          ]
        ],
        [
          "ECAC Hockey",
          [
            "/wiki/ECAC_Hockey"
          ]
        ],
        [
          "8",
          []
        ],
        [
          "4",
          []
        ],
        [
          "4",
          []
        ],
        [
          "0",
          []
        ],
        [
          ".500",
          []
        ],
        [
          "0",
          []
        ]
      ],
      [
        [
          "Denver *",
          [
            "/wiki/Denver_Pioneers_men's_ice_hockey"
          ]
        ],
        [
          "NCHC",
          [
            "/wiki/National_Collegiate_Hockey_Conference"
          ]
        ],
        [
          "60",
          []
        ],
        [
          "36",
          []
        ],
        [
          "24",
          []
        ],
        [
          "0",
          []
        ],
        [
          ".600",
          []
        ],
        [
          "8",
          []
        ]
      ],
      [
        [
          "Ferris State",
          [
            "/wiki/Ferris_State_Bulldogs_men's_ice_hockey"
          ]
        ],
        [
          "WCHA",
          [
            "/wiki/Western_Collegiate_Hockey_Association"
          ]
        ],
        [
          "10",
          []
        ],
        [
          "6",
          []
        ],
        [
          "4",
          []
        ],
        [
          "0",
          []
        ],
        [
          ".600",
          []
        ],
        [
          "0",
          []
        ]
      ],
      [
        [
          "Harvard",
          [
            "/wiki/Harvard_Crimson_men's_ice_hockey"
          ]
        ],
        [
          "ECAC Hockey",
          [
            "/wiki/ECAC_Hockey"
          ]
        ],
        [
          "50",
          []
        ],
        [
          "16",
          []
        ],
        [
          "33",
          []
        ],
        [
          "1",
          []
        ],
        [
          ".330",
          []
        ],
        [
          "1",
          []
        ]
      ]
    ],
    "section_title": "",
    "section_text": "This is a list of NCAA Men 's Division I Ice Hockey Tournament all-time records , updated through the 2019 Tournament . [ 1 ]",
    "uid": "NCAA_Division_I_Men's_Ice_Hockey_Tournament_all-time_team_records_0",
    "intro": "This is a list of NCAA Men's Division I Ice Hockey Tournament all-time records, updated through the 2019 Tournament."
  },
  "List_of_fatal_alligator_attacks_in_the_United_States_by_decade_2": {
    "url": "https://en.wikipedia.org/wiki/List_of_fatal_alligator_attacks_in_the_United_States",
    "title": "List of fatal alligator attacks in the United States",
    "header": [
      [
        "Name , age , sex",
        []
      ],
      [
        "Date",
        []
      ],
      [
        "Location and comments",
        []
      ]
    ],
    "data": [
      [
        [
          "Justo Padron , 36 , male",
          []
        ],
        [
          "November 13 , 2007",
          []
        ],
        [
          "A man fleeing police by jumping into a retention pond adjacent to the Miccosukee Resort and Convention Center was killed by a 9-foot 3-inch ( 2.8 m ) alligator , according to the Miami-Dade County Medical Examiner 's office . Padron and an accomplice were suspected of breaking into cars in the parking lot of the resort , located at 500 SW 177th Avenue in southwest Miami-Dade County , when police closed in",
          [
            "/wiki/Miami-Dade_County,_Florida"
          ]
        ]
      ],
      [
        [
          "Gwen Williams , 83 , female",
          []
        ],
        [
          "October 5 , 2007",
          []
        ],
        [
          "The body of this Canadian woman , who had been house sitting for her daughter , was spotted floating in a lagoon 500 feet ( 200 m ) behind her daughter 's house by a couple riding by in a golf cart at The Landings on Skidaway Island , a development east of Savannah , Georgia . Autopsy results and an examination of the stomach contents during a necropsy of the animal suspected of killing her conclusively established that she had been attacked and killed by an 8-foot ( 2.5 m ) alligator",
          [
            "/wiki/Canadians",
            "/wiki/Skidaway_Island,_Georgia",
            "/wiki/Savannah,_Georgia"
          ]
        ]
      ],
      [
        [
          "Annemarie Campbell , 23 , female",
          []
        ],
        [
          "May 14 , 2006",
          []
        ],
        [
          "Her body was pulled out of an alligator 's mouth by friends and relatives in a springhead at Juniper Wayside Park in the Ocala National Forest near Lake George in Marion County , Florida . She had been attacked while snorkeling . Autopsy results confirmed that Campbell died from drowning and multiple blunt-force injuries including lacerations on her head , neck and upper torso , and multiple rib fractures . Officials later captured and killed an 11-foot 4-inch ( 3.5 m ) , 407 pound alligator that they were able to positively identify as the one that attacked Campbell due to scratches around its eyes that she inflicted while attempting to defend herself",
          [
            "/wiki/Ocala_National_Forest",
            "/wiki/Lake_George_(Florida)",
            "/wiki/Marion_County,_Florida",
            "/wiki/Blunt_trauma"
          ]
        ]
      ],
      [
        [
          "Judy W. Cooper , 43 , female",
          []
        ],
        [
          "May 14 , 2006",
          []
        ],
        [
          "Her body was found in a canal near Oldsmar in Pinellas County , Florida , 20 miles ( 30 km ) north of St. Petersburg . She had been in the water for about three days . Preliminary autopsy results indicated a fatal alligator attack . Her arm and hand were later recovered from an 8.5-foot ( 2.6 m ) alligator",
          [
            "/wiki/Oldsmar,_Florida",
            "/wiki/Pinellas_County,_Florida",
            "/wiki/St._Petersburg,_Florida"
          ]
        ]
      ],
      [
        [
          "Yovy Suarez Jim\u00e9nez , 28 , female",
          []
        ],
        [
          "May 10 , 2006",
          []
        ],
        [
          "Construction workers found her dismembered body on this date floating in a canal between Markham County Park and State Road 84 in Sunrise , Florida . Authorities later captured the 9 ' 6 ( 3 m ) alligator that killed her during her nightly jog on May 9 when she stopped to dangle her feet in the water of the canal . Officials were able to verify this because both her arms were found in the digestive tract of the animal during the necropsy . The Broward County medical examiner concluded that she was attacked on land and dragged into the canal",
          [
            "/wiki/Sunrise,_Florida",
            "/wiki/Broward_County,_Florida"
          ]
        ]
      ],
      [
        [
          "Kevin Albert Murray , 41 , male",
          []
        ],
        [
          "July 15 , 2005",
          []
        ],
        [
          "He was killed while swimming in the Apollo waterway in Port Charlotte , Florida by a 12 ' 2 ( 3.7 m ) alligator",
          [
            "/wiki/Port_Charlotte,_Florida"
          ]
        ]
      ],
      [
        [
          "Don Owen , 56 , male",
          []
        ],
        [
          "March 15 , 2005",
          []
        ],
        [
          "Fishermen discovered Owen 's body about 12 miles ( 19 km ) from his Lakeland , Florida home . He had been missing since March 9 . Trappers later caught an 8 ' 9 ( 2.7 m ) alligator and recovered some of Owen 's body parts",
          [
            "/wiki/Lakeland,_Florida"
          ]
        ]
      ],
      [
        [
          "Michelle Reeves , 20 , female",
          []
        ],
        [
          "September 26 , 2004",
          []
        ],
        [
          "She was killed by a 7 ' 11 ( 2.4 m ) alligator while swimming in a retention pond at Lee Memorial Health Park in Lee County , Florida",
          [
            "/wiki/Lee_County,_Florida"
          ]
        ]
      ],
      [
        [
          "Janie Melsek , 54 , female",
          []
        ],
        [
          "June 21 , 2004",
          []
        ],
        [
          "She was attacked by a 12 ' 3 ( 3.7 m ) alligator while working on landscaping along Poinciana Circle Sanibel , Florida . She later died in surgery from an infection acquired from being in the water with open wounds",
          [
            "/wiki/Sanibel,_Florida"
          ]
        ]
      ],
      [
        [
          "Brian Griffin , 12 , male",
          []
        ],
        [
          "June 18 , 2003",
          []
        ],
        [
          "He was killed by a 10 ' 4 ( 3.1 m ) alligator while swimming in the Dead River near a boat ramp ; the river connects Lakes Harris and Eustis in Lake County , Florida",
          [
            "/wiki/Dead_River_(Lake_County,_Florida)",
            "/wiki/Lake_County,_Florida"
          ]
        ]
      ],
      [
        [
          "Robert Steele , 81 , male",
          []
        ],
        [
          "September 11 , 2001",
          []
        ],
        [
          "He was attacked by an alligator while walking his dog on a trail between two wetland areas near the J.N . Ding Darling National Wildlife Refuge on Sanibel , Florida . Steele bled to death after his leg was bitten off below the knee",
          [
            "/wiki/J._N._\"Ding\"_Darling_National_Wildlife_Refuge",
            "/wiki/Sanibel,_Florida"
          ]
        ]
      ],
      [
        [
          "Alexandria Murphy , 2 , female",
          []
        ],
        [
          "June 23 , 2001",
          []
        ],
        [
          "She wandered away from her fenced back yard and was killed 700 feet from her home on Lake Cannon in Winter Haven , Florida",
          [
            "/wiki/Lake_Cannon",
            "/wiki/Winter_Haven,_Florida"
          ]
        ]
      ],
      [
        [
          "Samuel Wetmore , 70 , male",
          []
        ],
        [
          "May 4 , 2001",
          []
        ],
        [
          "He was killed in a pond near his residence in Venice , Sarasota County , Florida by an 8 ' 4 ( 2.5 m ) alligator . Wetmore suffered from dementia and had wandered from his home",
          [
            "/wiki/Venice,_Florida",
            "/wiki/Sarasota_County,_Florida"
          ]
        ]
      ]
    ],
    "section_title": "2000s",
    "section_text": "",
    "uid": "List_of_fatal_alligator_attacks_in_the_United_States_by_decade_2",
    "intro": "This is a list of fatal alligator attacks in the United States in reverse chronological order by decade. All occurred in the Southeast, where alligators are endemic to wetlands and tidal marshes."
  },
  "AACTA_Award_for_Best_Telefeature,_Mini_Series_or_Short_Run_Series_2": {
    "url": "https://en.wikipedia.org/wiki/AACTA_Award_for_Best_Telefeature,_Mini_Series_or_Short_Run_Series",
    "title": "AACTA Award for Best Telefeature, Mini Series or Short Run Series",
    "header": [
      [
        "Year",
        []
      ],
      [
        "Winner",
        []
      ],
      [
        "Recipient ( s )",
        []
      ],
      [
        "Network",
        []
      ],
      [
        "Other nominees",
        []
      ]
    ],
    "data": [
      [
        [
          "1990",
          []
        ],
        [
          "Come In Spinner",
          [
            "/wiki/Come_In_Spinner"
          ]
        ],
        [
          "Jan Chapman",
          [
            "/wiki/Jan_Chapman"
          ]
        ],
        [
          "ABC TV",
          [
            "/wiki/ABC_(Australian_TV_channel)"
          ]
        ],
        [
          "The Girl from Tomorrow ( Nine Network ) Ron Saunders , Noel Price Police Crop ( ABC ) Rod Allan The Magistrate ( ABC ) Kim Dalton , Chris Warner",
          [
            "/wiki/The_Girl_from_Tomorrow",
            "/wiki/Police_Crop:_The_Winchester_Conspiracy",
            "/wiki/The_Magistrate_(miniseries)"
          ]
        ]
      ],
      [
        [
          "1991",
          []
        ],
        [
          "The Paper Man",
          [
            "/wiki/The_Paper_Man_(miniseries)"
          ]
        ],
        [
          "Sue Masters Greg Ricketson",
          []
        ],
        [
          "ABC TV",
          [
            "/wiki/ABC_(Australian_TV_channel)"
          ]
        ],
        [
          "Ratbag Hero ( Seven Network ) Zelda Rosenbaum , Oscar Whitbread Ring of Scorpio ( Nine Network ) Errol Sullivan Shadows of the Heart ( Network Ten ) Jan Marnell",
          [
            "/wiki/Ratbag_Hero",
            "/wiki/Ring_of_Scorpio",
            "/wiki/Shadows_of_the_Heart"
          ]
        ]
      ],
      [
        [
          "1992",
          []
        ],
        [
          "Brides of Christ",
          [
            "/wiki/Brides_of_Christ"
          ]
        ],
        [
          "Sue Masters",
          []
        ],
        [
          "ABC TV",
          [
            "/wiki/ABC_(Australian_TV_channel)"
          ]
        ],
        [
          "Clowning Around ( ABC ) Paul D. Barron , Antonia Barnard Six Pack - 'Piccolo Mondo ' ( SBS ) Bob Weis The Girl from Tomorrow : Tomorrow 's End ( Nine Network ) Noel Price",
          [
            "/wiki/Clowning_Around",
            "/wiki/The_Girl_from_Tomorrow_Part_II:_Tomorrow's_End"
          ]
        ]
      ],
      [
        [
          "1993",
          []
        ],
        [
          "The Leaving of Liverpool",
          [
            "/wiki/The_Leaving_of_Liverpool_(miniseries)"
          ]
        ],
        [
          "Steve Knapman",
          [
            "/wiki/Steve_Knapman"
          ]
        ],
        [
          "ABC TV",
          [
            "/wiki/ABC_(Australian_TV_channel)"
          ]
        ],
        [
          "Seven Deadly Sins - 'Sloth ' ( ABC ) Hannie Rayson Round the Twist , Series 2 - Episode 3 , 'Little Squirt ' ( ABC ) Paul Jennings , Esben Storm Police Rescue , Series 3 - Episode 1 , 'Lifeline ' ( ABC ) Debra Oswald",
          [
            "/wiki/Seven_Deadly_Sins_(miniseries)",
            "/wiki/Hannie_Rayson",
            "/wiki/Round_the_Twist",
            "/wiki/Police_Rescue",
            "/wiki/Debra_Oswald"
          ]
        ]
      ],
      [
        [
          "1994",
          []
        ],
        [
          "Under the Skin : The Long Ride",
          [
            "/wiki/Under_the_Skin_(TV_series)"
          ]
        ],
        [
          "Franco di Chiera",
          []
        ],
        [
          "SBS",
          [
            "/wiki/Special_Broadcasting_Service"
          ]
        ],
        [
          "The Battlers ( Seven Network ) Gus Howard Under the Skin , Episode 'Grandma 's Teeth ' ( SBS ) Franco di Chiera Seventh Floor ( Network Ten ) John Sexton",
          [
            "/wiki/The_Battlers",
            "/wiki/Under_the_Skin_(TV_series)",
            "/wiki/The_Seventh_Floor_(1994_film)"
          ]
        ]
      ],
      [
        [
          "1995",
          []
        ],
        [
          "Halifax f.p . : The Feeding",
          [
            "/wiki/Halifax_f.p."
          ]
        ],
        [
          "Roger Le Mesurier Roger Simpson",
          []
        ],
        [
          "",
          []
        ],
        [
          "Cody - ' A Family Affair ' ( Seven Network ) Sandra Levy , John Edwards Halifax f.p . - 'Hard Corps ' ( Nine Network ) Roger Le Mesurier , Roger Simpson Halifax f.p . - 'Lies of the Mind ' ( Nine Network ) Roger Le Mesurier , Roger Simpson",
          [
            "/wiki/Cody_(TV_series)"
          ]
        ]
      ],
      [
        [
          "1996",
          []
        ],
        [
          "Blue Murder",
          [
            "/wiki/Blue_Murder_(miniseries)"
          ]
        ],
        [
          "Rod Allan",
          []
        ],
        [
          "ABC TV",
          []
        ],
        [
          "Halifax f.p . - 'Cradle and All ' ( Nine Network ) Roger Simpson , Roger Le Mesurier Naked - Episode 'The Fisherman 's Wake ' ( ABC ) Jan Chapman State Coroner ( Network Ten ) David Taft , John Kearney",
          [
            "/wiki/Naked:_Stories_of_Men",
            "/wiki/State_Coroner_(TV_series)"
          ]
        ]
      ],
      [
        [
          "1997",
          []
        ],
        [
          "Good Guys , Bad Guys",
          [
            "/wiki/Good_Guys,_Bad_Guys"
          ]
        ],
        [
          "Roger Le Mesurier Roger Simpson Ros Tatarka",
          []
        ],
        [
          "Nine Network",
          [
            "/wiki/Nine_Network"
          ]
        ],
        [
          "Kangaroo Palace - ( Seven Network ) Ewan Burnett Simone De Beauvoir 's Babies ( ABC ) Andrew Knight , Denise Patience , Deborah Cox The Last of the Ryans ( Nine Network ) Richard Brennan",
          [
            "/wiki/Kangaroo_Palace"
          ]
        ]
      ],
      [
        [
          "1998",
          []
        ],
        [
          "Wildside",
          [
            "/wiki/Wildside"
          ]
        ],
        [
          "Steve Knapman",
          []
        ],
        [
          "ABC TV",
          []
        ],
        [
          "The Violent Earth - Jock Blair , David Rouse , Bruce Gordon Halifax f.p . : Afraid of the Dark - Roger Le Mesurier , Roger Simpson , Terry Jennings Never Tell Me Never - David Elfick , Anne Bruning",
          [
            "/wiki/The_Violent_Earth",
            "/wiki/Halifax_f.p."
          ]
        ]
      ],
      [
        [
          "1999",
          []
        ],
        [
          "The Day of the Roses",
          [
            "/wiki/The_Day_of_the_Roses"
          ]
        ],
        [
          "Simone North Tony Cavanaugh",
          []
        ],
        [
          "",
          []
        ],
        [
          "The Potato Factory - Anthony Buckley , Des Monaghan Aftershocks - Julia Overton Halifax f.p . : Swimming with Sharks - Roger Le Mesurier , Roger Simpson , Robyn Sinclair",
          [
            "/wiki/The_Potato_Factory",
            "/wiki/Halifax_f.p."
          ]
        ]
      ],
      [
        [
          "2000",
          []
        ],
        [
          "On the Beach",
          [
            "/wiki/On_the_Beach_(2000_film)"
          ]
        ],
        [
          "John Edwards Errol Sullivan Jeff Hayes Greg Coote",
          [
            "/wiki/John_Edwards",
            "/wiki/Jeff_Hayes"
          ]
        ],
        [
          "Southern Star Sullivan ABC TV",
          []
        ],
        [
          "Halifax f.p . : A Person of Interest - Roger Le Mesurier , Roger Simpson , John Hugginson The Secret Life of Us - John Edwards , Amanda Higgs Waiting at the Royal - Andrew Wiseman , Richard Keddie",
          [
            "/wiki/Halifax_f.p.",
            "/wiki/The_Secret_Life_of_Us",
            "/wiki/Waiting_at_the_Royal"
          ]
        ]
      ],
      [
        [
          "2001",
          []
        ],
        [
          "My Brother Jack",
          [
            "/wiki/My_Brother_Jack"
          ]
        ],
        [
          "Sue Milliken Andrew Wiseman Richard Keddie",
          []
        ],
        [
          "ABC TV",
          []
        ],
        [
          "Changi - Bill Hughes Do or Die - John Edwards , Lavinia Warner My Husband My Killer - David Gould , Des Monaghan , Anthony Buckley",
          [
            "/wiki/Changi_(miniseries)"
          ]
        ]
      ],
      [
        [
          "2002",
          []
        ],
        [
          "The Road from Coorain",
          [
            "/wiki/Jill_Ker_Conway"
          ]
        ],
        [
          "Penny Chapman",
          [
            "/wiki/Penny_Chapman"
          ]
        ],
        [
          "",
          []
        ],
        [
          "Halifax f.p . : Takes Two - Roger Le Mesurier , Roger Simpson , Steve Jodrell Heroes ' Mountain - Anthony Buckley Secret Bridesmaids ' Business - Lynda House",
          [
            "/wiki/Halifax_f.p."
          ]
        ]
      ],
      [
        [
          "2003",
          []
        ],
        [
          "After the Deluge",
          [
            "/wiki/After_the_Deluge"
          ]
        ],
        [
          "Richard Keddie Andrew Knight Andrew Wiseman",
          [
            "/wiki/Andrew_Knight_(writer)"
          ]
        ],
        [
          "",
          []
        ],
        [
          "BlackJack - Nick Murray , Sally Ayre-Smith The Postcard Bandit - Matt Carroll The Shark Net - Sue Taylor",
          [
            "/wiki/BlackJack_(film_series)",
            "/wiki/The_Postcard_Bandit_(film)",
            "/wiki/Robert_Drewe"
          ]
        ]
      ],
      [
        [
          "2004",
          []
        ],
        [
          "Marking Time",
          [
            "/wiki/Marking_Time"
          ]
        ],
        [
          "John Edwards",
          []
        ],
        [
          "ABC TV",
          []
        ],
        [
          "Go Big - Ellie Beaumont , Rosemary Blight , Michael Miller Small Claims - Rosemary Blight , Kylie Du Fresne , Ben Grant The Brush-Off - Huntaway Films & Ruby Entertainment",
          [
            "/wiki/Rosemary_Blight",
            "/wiki/Small_Claims_(film)",
            "/wiki/The_Brush-Off"
          ]
        ]
      ],
      [
        [
          "2005",
          []
        ],
        [
          "The Incredible Journey of Mary Bryant",
          [
            "/wiki/The_Incredible_Journey_of_Mary_Bryant"
          ]
        ],
        [
          "Andrew Benson Greg Haddrick",
          [
            "/wiki/Andrew_Benson",
            "/wiki/Greg_Haddrick"
          ]
        ],
        [
          "Network Ten",
          [
            "/wiki/Network_10"
          ]
        ],
        [
          "Little Oberon - Susan Bower Hell Has Harbour Views - Ian Collie Through My Eyes - Simone North , Tony Cavanaugh",
          [
            "/wiki/Little_Oberon",
            "/wiki/Susan_Bower",
            "/wiki/Hell_Has_Harbour_Views",
            "/wiki/Through_My_Eyes_(miniseries)"
          ]
        ]
      ],
      [
        [
          "2006",
          []
        ],
        [
          "RAN",
          [
            "/wiki/RAN_Remote_Area_Nurse_(TV_series)"
          ]
        ],
        [
          "Penny Chapman",
          []
        ],
        [
          "SBS TV",
          [
            "/wiki/SBS_(Australian_TV_channel)"
          ]
        ],
        [
          "Answered by Fire - Roger Le Mesurier & Andrew Walker The Silence - Jan Chapman The Surgeon - John Edwards & Judi McCrossin",
          [
            "/wiki/Answered_by_Fire",
            "/wiki/The_Silence_(2006_film)",
            "/wiki/The_Surgeon"
          ]
        ]
      ],
      [
        [
          "2007",
          []
        ],
        [
          "The King",
          [
            "/wiki/The_King_(2007_film)"
          ]
        ],
        [
          "Jason Stephens",
          [
            "/wiki/Jason_Stephens_(television_producer)"
          ]
        ],
        [
          "TV1 / Nine Network",
          [
            "/wiki/TV1_(Australia)"
          ]
        ],
        [
          "Bastard Boys - Brett Popplewell & Ray Quint The Circuit - Ross Hutchens & Colin South",
          [
            "/wiki/Bastard_Boys",
            "/wiki/The_Circuit_(TV_series)"
          ]
        ]
      ],
      [
        [
          "2008",
          []
        ],
        [
          "East West 101",
          [
            "/wiki/East_West_101"
          ]
        ],
        [
          "Steve Knapman Kris Wyld",
          []
        ],
        [
          "SBS TV",
          []
        ],
        [
          "Bed of Roses - Stephen Luby & Mark Ruse Rain Shadow - Gus Howard Valentine 's Day - Tony Wright",
          [
            "/wiki/Bed_of_Roses_(TV_series)",
            "/wiki/Rain_Shadow_(TV_series)",
            "/wiki/Valentine's_Day_(2008_film)"
          ]
        ]
      ],
      [
        [
          "2009",
          []
        ],
        [
          "False Witness",
          [
            "/wiki/False_Witness"
          ]
        ],
        [
          "Greg Haddrick Peter Andrikidis",
          [
            "/wiki/Greg_Haddrick",
            "/wiki/Peter_Andrikidis"
          ]
        ],
        [
          "UKTV",
          [
            "/wiki/BBC_UKTV"
          ]
        ],
        [
          "3 Acts of Murder - Sue Taylor The Last Confession of Alexander Pearce - Nial Fulton Saved - Michael McMahon , Tony Ayres",
          [
            "/wiki/3_Acts_of_Murder",
            "/wiki/Sue_Taylor",
            "/wiki/The_Last_Confession_of_Alexander_Pearce",
            "/wiki/Nial_Fulton",
            "/wiki/Tony_Ayres"
          ]
        ]
      ]
    ],
    "section_title": "Best Telefeature , Mini Series or Short Run Series",
    "section_text": "",
    "uid": "AACTA_Award_for_Best_Telefeature,_Mini_Series_or_Short_Run_Series_2",
    "intro": "The Australian Film Institute Award for Best Telefeature, Mini Series or Short Run Series is an award that has been handed out to producers annually since 1986 by the Australian Film Institute. The Award was originally presented in two separate categories for Best Telefeature and Best Mini Series but in 1990 both categories were merged to form Best Television Mini Series or Telefeature. By 2008 the award name was changed again with the addition of Short Run Series to the title."
  },
  "American_Athletic_Conference_Men's_Basketball_Player_of_the_Year_0": {
    "url": "https://en.wikipedia.org/wiki/American_Athletic_Conference_Men's_Basketball_Player_of_the_Year",
    "title": "American Athletic Conference Men's Basketball Player of the Year",
    "header": [
      [
        "Season",
        []
      ],
      [
        "Player",
        []
      ],
      [
        "School",
        []
      ],
      [
        "Position",
        []
      ],
      [
        "Class",
        []
      ]
    ],
    "data": [
      [
        [
          "2013-14",
          [
            "/wiki/2013\u201314_NCAA_Division_I_men's_basketball_season"
          ]
        ],
        [
          "Shabazz Napier",
          [
            "/wiki/Shabazz_Napier"
          ]
        ],
        [
          "UConn",
          [
            "/wiki/2013\u201314_UConn_Huskies_men's_basketball_team"
          ]
        ],
        [
          "PG",
          [
            "/wiki/Point_guard"
          ]
        ],
        [
          "Senior",
          []
        ]
      ],
      [
        [
          "2014-15",
          [
            "/wiki/2014\u201315_NCAA_Division_I_men's_basketball_season"
          ]
        ],
        [
          "Nic Moore",
          [
            "/wiki/Nic_Moore"
          ]
        ],
        [
          "SMU",
          [
            "/wiki/2014\u201315_SMU_Mustangs_men's_basketball_team"
          ]
        ],
        [
          "PG",
          [
            "/wiki/Point_guard"
          ]
        ],
        [
          "Junior",
          []
        ]
      ],
      [
        [
          "2015-16",
          [
            "/wiki/2015\u201316_NCAA_Division_I_men's_basketball_season"
          ]
        ],
        [
          "Nic Moore ( 2 )",
          [
            "/wiki/Nic_Moore"
          ]
        ],
        [
          "SMU",
          [
            "/wiki/2015\u201316_SMU_Mustangs_men's_basketball_team"
          ]
        ],
        [
          "PG",
          [
            "/wiki/Point_guard"
          ]
        ],
        [
          "Senior",
          []
        ]
      ],
      [
        [
          "2016-17",
          [
            "/wiki/2016\u201317_NCAA_Division_I_men's_basketball_season"
          ]
        ],
        [
          "Semi Ojeleye",
          [
            "/wiki/Semi_Ojeleye"
          ]
        ],
        [
          "SMU",
          [
            "/wiki/2016\u201317_SMU_Mustangs_men's_basketball_team"
          ]
        ],
        [
          "PF",
          [
            "/wiki/Power_forward_(basketball)"
          ]
        ],
        [
          "Junior",
          []
        ]
      ],
      [
        [
          "2017-18",
          [
            "/wiki/2017\u201318_NCAA_Division_I_men's_basketball_season"
          ]
        ],
        [
          "Gary Clark",
          [
            "/wiki/Gary_Clark_(basketball)"
          ]
        ],
        [
          "Cincinnati",
          [
            "/wiki/2017\u201318_Cincinnati_Bearcats_men's_basketball_team"
          ]
        ],
        [
          "PF",
          [
            "/wiki/Power_forward_(basketball)"
          ]
        ],
        [
          "Senior",
          []
        ]
      ],
      [
        [
          "2018-19",
          [
            "/wiki/2018\u201319_NCAA_Division_I_men's_basketball_season"
          ]
        ],
        [
          "Jarron Cumberland",
          [
            "/wiki/Jarron_Cumberland"
          ]
        ],
        [
          "Cincinnati",
          [
            "/wiki/2018\u201319_Cincinnati_Bearcats_men's_basketball_team"
          ]
        ],
        [
          "SG",
          [
            "/wiki/Shooting_guard"
          ]
        ],
        [
          "Junior",
          []
        ]
      ],
      [
        [
          "2019-20",
          [
            "/wiki/2019\u201320_NCAA_Division_I_men's_basketball_season"
          ]
        ],
        [
          "Precious Achiuwa",
          [
            "/wiki/Precious_Achiuwa"
          ]
        ],
        [
          "Memphis",
          [
            "/wiki/2019\u201320_Memphis_Tigers_men's_basketball_team"
          ]
        ],
        [
          "PF",
          [
            "/wiki/Power_forward_(basketball)"
          ]
        ],
        [
          "Freshman",
          []
        ]
      ]
    ],
    "section_title": "Winners",
    "section_text": "Shabazz Napier was the first-ever AAC Player of the Year in 2014 . Nic Moore of SMU won in 2015 .",
    "uid": "American_Athletic_Conference_Men's_Basketball_Player_of_the_Year_0",
    "intro": "The American Athletic Conference Men's Basketball Player of the Year is a basketball award given to the American Athletic Conference's most outstanding player. The conference formed in 2013-14 after many schools departed from the original Big East Conference to form their own conference. Shabazz Napier of Connecticut was the first-ever winner."
  },
  "List_of_international_cricket_five-wicket_hauls_at_Seddon_Park_0": {
    "url": "https://en.wikipedia.org/wiki/List_of_international_cricket_five-wicket_hauls_at_Seddon_Park",
    "title": "List of international cricket five-wicket hauls at Seddon Park",
    "header": [
      [
        "No",
        []
      ],
      [
        "Bowler",
        []
      ],
      [
        "Date",
        []
      ],
      [
        "Team",
        []
      ],
      [
        "Opposing Team",
        []
      ],
      [
        "Inn",
        []
      ],
      [
        "O",
        []
      ],
      [
        "R",
        []
      ],
      [
        "W",
        []
      ],
      [
        "Result",
        []
      ]
    ],
    "data": [
      [
        [
          "1",
          []
        ],
        [
          "Rumesh Ratnayake",
          [
            "/wiki/Rumesh_Ratnayake"
          ]
        ],
        [
          "22 February 1991",
          []
        ],
        [
          "Sri Lanka",
          [
            "/wiki/Sri_Lanka_national_cricket_team"
          ]
        ],
        [
          "New Zealand",
          [
            "/wiki/New_Zealand_national_cricket_team"
          ]
        ],
        [
          "1",
          []
        ],
        [
          "30.4",
          []
        ],
        [
          "77",
          []
        ],
        [
          "5",
          []
        ],
        [
          "Drawn",
          []
        ]
      ],
      [
        [
          "2",
          []
        ],
        [
          "Murphy Su ' a",
          [
            "/wiki/Murphy_Su'a"
          ]
        ],
        [
          "2 January 1993",
          []
        ],
        [
          "New Zealand",
          [
            "/wiki/New_Zealand_national_cricket_team"
          ]
        ],
        [
          "Pakistan",
          [
            "/wiki/Pakistan_national_cricket_team"
          ]
        ],
        [
          "1",
          []
        ],
        [
          "24",
          []
        ],
        [
          "73",
          []
        ],
        [
          "5",
          []
        ],
        [
          "Pakistan won",
          []
        ]
      ],
      [
        [
          "3",
          []
        ],
        [
          "Danny Morrison",
          [
            "/wiki/Danny_Morrison_(cricketer)"
          ]
        ],
        [
          "2 January 1993",
          []
        ],
        [
          "New Zealand",
          [
            "/wiki/New_Zealand_national_cricket_team"
          ]
        ],
        [
          "Pakistan",
          [
            "/wiki/Pakistan_national_cricket_team"
          ]
        ],
        [
          "3",
          []
        ],
        [
          "15",
          []
        ],
        [
          "41",
          []
        ],
        [
          "5",
          []
        ],
        [
          "Pakistan won",
          []
        ]
      ],
      [
        [
          "4",
          []
        ],
        [
          "Wasim Akram",
          [
            "/wiki/Wasim_Akram"
          ]
        ],
        [
          "2 January 1993",
          []
        ],
        [
          "Pakistan",
          [
            "/wiki/Pakistan_national_cricket_team"
          ]
        ],
        [
          "New Zealand",
          [
            "/wiki/New_Zealand_national_cricket_team"
          ]
        ],
        [
          "4",
          []
        ],
        [
          "22",
          []
        ],
        [
          "45",
          []
        ],
        [
          "5",
          []
        ],
        [
          "Pakistan won",
          []
        ]
      ],
      [
        [
          "5",
          []
        ],
        [
          "Waqar Younis",
          [
            "/wiki/Waqar_Younis"
          ]
        ],
        [
          "2 January 1993",
          []
        ],
        [
          "Pakistan",
          [
            "/wiki/Pakistan_national_cricket_team"
          ]
        ],
        [
          "New Zealand",
          [
            "/wiki/New_Zealand_national_cricket_team"
          ]
        ],
        [
          "4",
          []
        ],
        [
          "13.3",
          []
        ],
        [
          "22",
          []
        ],
        [
          "5",
          []
        ],
        [
          "Pakistan won",
          []
        ]
      ],
      [
        [
          "6",
          []
        ],
        [
          "Heath Davis",
          [
            "/wiki/Heath_Davis"
          ]
        ],
        [
          "14 March 1997",
          []
        ],
        [
          "New Zealand",
          [
            "/wiki/New_Zealand_national_cricket_team"
          ]
        ],
        [
          "Sri Lanka",
          [
            "/wiki/Sri_Lanka_national_cricket_team"
          ]
        ],
        [
          "2",
          []
        ],
        [
          "20.2",
          []
        ],
        [
          "63",
          []
        ],
        [
          "5",
          []
        ],
        [
          "New Zealand won",
          []
        ]
      ],
      [
        [
          "7",
          []
        ],
        [
          "Daniel Vettori",
          [
            "/wiki/Daniel_Vettori"
          ]
        ],
        [
          "14 March 1997",
          []
        ],
        [
          "New Zealand",
          [
            "/wiki/New_Zealand_national_cricket_team"
          ]
        ],
        [
          "Sri Lanka",
          [
            "/wiki/Sri_Lanka_national_cricket_team"
          ]
        ],
        [
          "4",
          []
        ],
        [
          "29.2",
          []
        ],
        [
          "84",
          []
        ],
        [
          "5",
          []
        ],
        [
          "New Zealand won",
          []
        ]
      ],
      [
        [
          "8",
          []
        ],
        [
          "Javagal Srinath",
          [
            "/wiki/Javagal_Srinath"
          ]
        ],
        [
          "2 January 1999",
          []
        ],
        [
          "India",
          [
            "/wiki/India_national_cricket_team"
          ]
        ],
        [
          "New Zealand",
          [
            "/wiki/New_Zealand_national_cricket_team"
          ]
        ],
        [
          "1",
          []
        ],
        [
          "32.2",
          []
        ],
        [
          "95",
          []
        ],
        [
          "5",
          []
        ],
        [
          "Drawn",
          []
        ]
      ],
      [
        [
          "9",
          []
        ],
        [
          "Chris Cairns",
          [
            "/wiki/Chris_Cairns"
          ]
        ],
        [
          "16 December 1999",
          []
        ],
        [
          "New Zealand",
          [
            "/wiki/New_Zealand_national_cricket_team"
          ]
        ],
        [
          "West Indies",
          [
            "/wiki/West_Indies_cricket_team"
          ]
        ],
        [
          "3",
          []
        ],
        [
          "22.5",
          []
        ],
        [
          "27",
          []
        ],
        [
          "7",
          []
        ],
        [
          "New Zealand won",
          []
        ]
      ],
      [
        [
          "10",
          []
        ],
        [
          "Brett Lee",
          [
            "/wiki/Brett_Lee"
          ]
        ],
        [
          "31 March 2000",
          []
        ],
        [
          "Australia",
          [
            "/wiki/Australia_national_cricket_team"
          ]
        ],
        [
          "New Zealand",
          [
            "/wiki/New_Zealand_national_cricket_team"
          ]
        ],
        [
          "1",
          []
        ],
        [
          "23",
          []
        ],
        [
          "77",
          []
        ],
        [
          "5",
          []
        ],
        [
          "Australia won",
          []
        ]
      ],
      [
        [
          "11",
          []
        ],
        [
          "Shayne O'Connor",
          [
            "/wiki/Shayne_O'Connor"
          ]
        ],
        [
          "31 March 2000",
          []
        ],
        [
          "New Zealand",
          [
            "/wiki/New_Zealand_national_cricket_team"
          ]
        ],
        [
          "Australia",
          [
            "/wiki/Australia_national_cricket_team"
          ]
        ],
        [
          "2",
          []
        ],
        [
          "15.5",
          []
        ],
        [
          "51",
          []
        ],
        [
          "5",
          []
        ],
        [
          "Australia won",
          []
        ]
      ],
      [
        [
          "12",
          []
        ],
        [
          "Chris Cairns",
          [
            "/wiki/Chris_Cairns"
          ]
        ],
        [
          "18 December 2001",
          []
        ],
        [
          "New Zealand",
          [
            "/wiki/New_Zealand_national_cricket_team"
          ]
        ],
        [
          "Bangladesh",
          [
            "/wiki/Bangladesh_national_cricket_team"
          ]
        ],
        [
          "3",
          []
        ],
        [
          "18.2",
          []
        ],
        [
          "53",
          []
        ],
        [
          "7",
          []
        ],
        [
          "New Zealand won",
          []
        ]
      ],
      [
        [
          "13",
          []
        ],
        [
          "Zaheer Khan",
          [
            "/wiki/Zaheer_Khan"
          ]
        ],
        [
          "19 December 2002",
          []
        ],
        [
          "India",
          [
            "/wiki/India_national_cricket_team"
          ]
        ],
        [
          "New Zealand",
          [
            "/wiki/New_Zealand_national_cricket_team"
          ]
        ],
        [
          "2",
          []
        ],
        [
          "13.2",
          []
        ],
        [
          "29",
          []
        ],
        [
          "5",
          []
        ],
        [
          "New Zealand won",
          []
        ]
      ],
      [
        [
          "14",
          []
        ],
        [
          "Sabbir Ahmed",
          [
            "/wiki/Sabbir_Ahmed"
          ]
        ],
        [
          "19 December 2003",
          []
        ],
        [
          "Pakistan",
          [
            "/wiki/Pakistan_national_cricket_team"
          ]
        ],
        [
          "New Zealand",
          [
            "/wiki/New_Zealand_national_cricket_team"
          ]
        ],
        [
          "1",
          []
        ],
        [
          "43.2",
          []
        ],
        [
          "117",
          []
        ],
        [
          "5",
          []
        ],
        [
          "Drawn",
          []
        ]
      ],
      [
        [
          "15",
          []
        ],
        [
          "Daryl Tuffey",
          [
            "/wiki/Daryl_Tuffey"
          ]
        ],
        [
          "19 December 2003",
          []
        ],
        [
          "New Zealand",
          [
            "/wiki/New_Zealand_national_cricket_team"
          ]
        ],
        [
          "Pakistan",
          [
            "/wiki/Pakistan_national_cricket_team"
          ]
        ],
        [
          "2",
          []
        ],
        [
          "33",
          []
        ],
        [
          "87",
          []
        ],
        [
          "5",
          []
        ],
        [
          "Drawn",
          []
        ]
      ],
      [
        [
          "16",
          []
        ],
        [
          "Mohammad Sami",
          [
            "/wiki/Mohammad_Sami"
          ]
        ],
        [
          "19 December 2003",
          []
        ],
        [
          "Pakistan",
          [
            "/wiki/Pakistan_national_cricket_team"
          ]
        ],
        [
          "New Zealand",
          [
            "/wiki/New_Zealand_national_cricket_team"
          ]
        ],
        [
          "3",
          []
        ],
        [
          "44",
          []
        ],
        [
          "44",
          []
        ],
        [
          "5",
          []
        ],
        [
          "Drawn",
          []
        ]
      ],
      [
        [
          "17",
          []
        ],
        [
          "Ryan Sidebottom",
          [
            "/wiki/Ryan_Sidebottom"
          ]
        ],
        [
          "5 March 2008",
          []
        ],
        [
          "England",
          [
            "/wiki/England_cricket_team"
          ]
        ],
        [
          "New Zealand",
          [
            "/wiki/New_Zealand_national_cricket_team"
          ]
        ],
        [
          "3",
          []
        ],
        [
          "17",
          []
        ],
        [
          "49",
          []
        ],
        [
          "6",
          []
        ],
        [
          "New Zealand won",
          []
        ]
      ],
      [
        [
          "18",
          []
        ],
        [
          "Harbhajan Singh",
          [
            "/wiki/Harbhajan_Singh"
          ]
        ],
        [
          "18 March 2009",
          []
        ],
        [
          "India",
          [
            "/wiki/India_national_cricket_team"
          ]
        ],
        [
          "New Zealand",
          [
            "/wiki/New_Zealand_national_cricket_team"
          ]
        ],
        [
          "3",
          []
        ],
        [
          "28",
          []
        ],
        [
          "63",
          []
        ],
        [
          "5",
          []
        ],
        [
          "India won",
          []
        ]
      ],
      [
        [
          "19",
          []
        ],
        [
          "Rubel Hossain",
          [
            "/wiki/Rubel_Hossain"
          ]
        ],
        [
          "15 February 2010",
          []
        ],
        [
          "Bangladesh",
          [
            "/wiki/Bangladesh_national_cricket_team"
          ]
        ],
        [
          "New Zealand",
          [
            "/wiki/New_Zealand_national_cricket_team"
          ]
        ],
        [
          "1",
          []
        ],
        [
          "29",
          []
        ],
        [
          "166",
          []
        ],
        [
          "5",
          []
        ],
        [
          "New Zealand won",
          []
        ]
      ],
      [
        [
          "20",
          []
        ],
        [
          "Mitchell Johnson",
          [
            "/wiki/Mitchell_Johnson_(cricketer)"
          ]
        ],
        [
          "27 March 2010",
          []
        ],
        [
          "Australia",
          [
            "/wiki/Australia_national_cricket_team"
          ]
        ],
        [
          "New Zealand",
          [
            "/wiki/New_Zealand_national_cricket_team"
          ]
        ],
        [
          "4",
          []
        ],
        [
          "20.1",
          []
        ],
        [
          "73",
          []
        ],
        [
          "6",
          []
        ],
        [
          "Australia won",
          []
        ]
      ]
    ],
    "section_title": "Test match five-wicket hauls",
    "section_text": "As of 24 February 2020 Five-wicket hauls have been achieved a total of 28 times in Test matches on the ground .",
    "uid": "List_of_international_cricket_five-wicket_hauls_at_Seddon_Park_0",
    "intro": "Seddon Park is a cricket ground in Hamilton, New Zealand. It has been used for cricket matches since 1914 and has been used as a first-class cricket venue by Northern Districts since 1956 when the side were admitted into the Plunket Shield. The ground is located close to the centre of Hamilton, New Zealand's fifth largest city. It has a capacity of 10,000 and is named after a former Prime Minister of New Zealand, Richard Seddon. The ground was first used for international cricket in 1981 when a One Day International (ODI) between New Zealand and India was played. The first Test match on the ground was played in February 1991 between New Zealand and Sri Lanka, and the first Twenty20 International (T20I) was played in December 2008 with West Indies the opposition. The first Women's ODI was held on the ground in 1982 and it remains in use as an international venue for both New Zealand's men's and women's sides. A number of international matches not involving New Zealand teams have been played on the ground, and hosted three ODI matches during the 2015 Cricket World Cup. In cricket, a five-wicket haul (also known as a five-for or fifer) refers to a bowler taking five or more wickets in a single innings. This is regarded as a notable achievement. This list details the five-wicket hauls taken in international cricket at Seddon Park. The first bowler to take a five-wicket haul in an international match at Seddon Park was Sri Lanka's Rumesh Ratnayake took five wickets for 77 runs during the ground's first Test match in 1991."
  }
}