{
  "List_of_United_States_Supreme_Court_cases_by_the_Roberts_Court_5": {
    "url": "https://en.wikipedia.org/wiki/List_of_United_States_Supreme_Court_cases_by_the_Roberts_Court",
    "title": "List of United States Supreme Court cases by the Roberts Court",
    "header": [
      [
        "Case name",
        []
      ],
      [
        "Opinion",
        []
      ],
      [
        "Decided",
        []
      ],
      [
        "Summary",
        []
      ]
    ],
    "data": [
      [
        [
          "Citizens United v. FEC",
          [
            "/wiki/Citizens_United_v._FEC"
          ]
        ],
        [
          "08-205",
          []
        ],
        [
          "2010-01-21",
          []
        ],
        [
          "whether federal campaign finance laws apply to a critical film about Senator Hillary Clinton intended to be shown in theaters and on-demand to cable subscribers",
          []
        ]
      ],
      [
        [
          "Padilla v. Kentucky",
          [
            "/wiki/Padilla_v._Kentucky"
          ]
        ],
        [
          "08-651",
          []
        ],
        [
          "2010-03-31",
          []
        ],
        [
          "must a criminal defendant 's lawyer advise him of the immigration-related consequences of a criminal conviction ?",
          []
        ]
      ],
      [
        [
          "Salazar v. Buono",
          [
            "/wiki/Salazar_v._Buono"
          ]
        ],
        [
          "08-472",
          []
        ],
        [
          "2010-04-28",
          []
        ],
        [
          "First Amendment restrictions on displaying a cross on public property",
          [
            "/wiki/First_Amendment_to_the_United_States_Constitution",
            "/wiki/Christian_cross"
          ]
        ]
      ],
      [
        [
          "Reed Elsevier , Inc. v. Muchnick",
          [
            "/wiki/Reed_Elsevier,_Inc._v._Muchnick"
          ]
        ],
        [
          "08-103",
          []
        ],
        [
          "2010-03-02",
          []
        ],
        [
          "settlement of copyright infringement claims relating to an electronic database",
          [
            "/wiki/Bibliographic_database"
          ]
        ]
      ],
      [
        [
          "Graham v. Florida",
          [
            "/wiki/Graham_v._Florida"
          ]
        ],
        [
          "08-7412",
          []
        ],
        [
          "2010-05-17",
          []
        ],
        [
          "whether Roper v. Simmons should also apply to sentences of life without the possibility of parole",
          [
            "/wiki/Roper_v._Simmons"
          ]
        ]
      ],
      [
        [
          "Ontario v. Quon",
          [
            "/wiki/City_of_Ontario_v._Quon"
          ]
        ],
        [
          "08-1332",
          []
        ],
        [
          "2010-06-17",
          []
        ],
        [
          "Privacy rights of public employees over text messages on employer-issued pagers",
          []
        ]
      ],
      [
        [
          "McDonald v. Chicago",
          [
            "/wiki/McDonald_v._City_of_Chicago"
          ]
        ],
        [
          "08-1521",
          []
        ],
        [
          "2010-06-28",
          []
        ],
        [
          "whether the Second Amendment should also apply against state and local governments",
          [
            "/wiki/Second_Amendment_to_the_United_States_Constitution"
          ]
        ]
      ]
    ],
    "section_title": "Roberts Court 2009 term",
    "section_text": "Main article : 2009 term opinions of the Supreme Court of the United States",
    "uid": "List_of_United_States_Supreme_Court_cases_by_the_Roberts_Court_5",
    "intro": "This is a partial chronological list of cases decided by the United States Supreme Court during the Roberts Court, the tenure of Chief Justice John Roberts from September 29, 2005 to the present."
  },
  "List_of_World_Championships_medalists_in_wrestling_(freestyle)_8": {
    "url": "https://en.wikipedia.org/wiki/List_of_World_Championships_medalists_in_wrestling_(freestyle)",
    "title": "List of World Championships medalists in wrestling (freestyle)",
    "header": [
      [
        "Games",
        []
      ],
      [
        "Gold",
        []
      ],
      [
        "Silver",
        []
      ],
      [
        "Bronze",
        []
      ]
    ],
    "data": [
      [
        [
          "1951 Helsinki",
          [
            "/wiki/1951_World_Wrestling_Championships"
          ]
        ],
        [
          "Haydar Zafer ( TUR )",
          [
            "/wiki/Haydar_Zafer"
          ]
        ],
        [
          "Gholamreza Takhti ( IRI )",
          [
            "/wiki/Gholamreza_Takhti"
          ]
        ],
        [
          "G\u00f6te Ekstr\u00f6m ( SWE )",
          []
        ]
      ],
      [
        [
          "1954 Tokyo",
          [
            "/wiki/1954_World_Wrestling_Championships"
          ]
        ],
        [
          "Abbas Zandi ( IRI )",
          [
            "/wiki/Abbas_Zandi"
          ]
        ],
        [
          "\u0130smet Atl\u0131 ( TUR )",
          [
            "/wiki/\u0130smet_Atl\u0131"
          ]
        ],
        [
          "Kazuo Katsuramoto ( JPN )",
          [
            "/wiki/Kazuo_Katsuramoto"
          ]
        ]
      ],
      [
        [
          "1957 Istanbul",
          [
            "/wiki/1957_World_Wrestling_Championships"
          ]
        ],
        [
          "Nabi Sorouri ( IRI )",
          []
        ],
        [
          "Georgy Skhirtladze ( URS )",
          [
            "/wiki/Georgy_Skhirtladze"
          ]
        ],
        [
          "Hasan G\u00fcng\u00f6r ( TUR )",
          [
            "/wiki/Hasan_G\u00fcng\u00f6r"
          ]
        ]
      ],
      [
        [
          "1959 Tehran",
          [
            "/wiki/1959_World_Wrestling_Championships"
          ]
        ],
        [
          "Georgy Skhirtladze ( URS )",
          [
            "/wiki/Georgy_Skhirtladze"
          ]
        ],
        [
          "G\u00e9za Holl\u00f3si ( HUN )",
          [
            "/wiki/G\u00e9za_Holl\u00f3si"
          ]
        ],
        [
          "Lothar Lippa ( GDR )",
          []
        ]
      ],
      [
        [
          "1961 Yokohama",
          [
            "/wiki/1961_World_Wrestling_Championships"
          ]
        ],
        [
          "Mansour Mehdizadeh ( IRI )",
          [
            "/wiki/Mansour_Mehdizadeh"
          ]
        ],
        [
          "G\u00e9za Holl\u00f3si ( HUN )",
          [
            "/wiki/G\u00e9za_Holl\u00f3si"
          ]
        ],
        [
          "Hans Antonsson ( SWE )",
          [
            "/wiki/Hans_Antonsson"
          ]
        ]
      ],
      [
        [
          "1962 Toledo",
          [
            "/wiki/1962_World_Wrestling_Championships"
          ]
        ],
        [
          "Mansour Mehdizadeh ( IRI )",
          [
            "/wiki/Mansour_Mehdizadeh"
          ]
        ],
        [
          "Hasan G\u00fcng\u00f6r ( TUR )",
          [
            "/wiki/Hasan_G\u00fcng\u00f6r"
          ]
        ],
        [
          "Shunichi Kawano ( JPN )",
          [
            "/wiki/Shunichi_Kawano"
          ]
        ]
      ],
      [
        [
          "1963 Sofia",
          [
            "/wiki/1963_World_Wrestling_Championships"
          ]
        ],
        [
          "Prodan Gardzhev ( BUL )",
          [
            "/wiki/Prodan_Gardzhev"
          ]
        ],
        [
          "Anatoly Albul ( URS )",
          [
            "/wiki/Anatoly_Albul"
          ]
        ],
        [
          "Mansour Mehdizadeh ( IRI )",
          [
            "/wiki/Mansour_Mehdizadeh"
          ]
        ]
      ],
      [
        [
          "1965 Manchester",
          [
            "/wiki/1965_World_Wrestling_Championships"
          ]
        ],
        [
          "Mansour Mehdizadeh ( IRI )",
          [
            "/wiki/Mansour_Mehdizadeh"
          ]
        ],
        [
          "Francisc Balla ( ROU )",
          [
            "/wiki/Francisc_Balla"
          ]
        ],
        [
          "Prodan Gardzhev ( BUL )",
          [
            "/wiki/Prodan_Gardzhev"
          ]
        ]
      ],
      [
        [
          "1966 Toledo",
          [
            "/wiki/1966_World_Wrestling_Championships"
          ]
        ],
        [
          "Prodan Gardzhev ( BUL )",
          [
            "/wiki/Prodan_Gardzhev"
          ]
        ],
        [
          "Hasan G\u00fcng\u00f6r ( TUR )",
          [
            "/wiki/Hasan_G\u00fcng\u00f6r"
          ]
        ],
        [
          "Josef Urban ( TCH )",
          []
        ]
      ],
      [
        [
          "1967 New Delhi",
          [
            "/wiki/1967_World_Wrestling_Championships"
          ]
        ],
        [
          "Boris Gurevich ( URS )",
          [
            "/wiki/Boris_Gurevich_(wrestler,_born_1937)"
          ]
        ],
        [
          "Francisc Balla ( ROU )",
          [
            "/wiki/Francisc_Balla"
          ]
        ],
        [
          "Jigjidiin M\u00f6nkhbat ( MGL )",
          [
            "/wiki/Jigjidiin_M\u00f6nkhbat"
          ]
        ]
      ],
      [
        [
          "1969 Mar del Plata",
          [
            "/wiki/1969_World_Wrestling_Championships"
          ]
        ],
        [
          "Fred Fozzard ( USA )",
          []
        ],
        [
          "None awarded",
          []
        ],
        [
          "None awarded",
          []
        ]
      ],
      [
        [
          "1970 Edmonton",
          [
            "/wiki/1970_World_Wrestling_Championships"
          ]
        ],
        [
          "Yury Shakhmuradov ( URS )",
          [
            "/wiki/Yury_Shakhmuradov"
          ]
        ],
        [
          "Tatsuo Sasaki ( JPN )",
          []
        ],
        [
          "Vasile Iorga ( ROU )",
          [
            "/wiki/Vasile_Iorga"
          ]
        ]
      ],
      [
        [
          "1971 Sofia",
          [
            "/wiki/1971_World_Wrestling_Championships"
          ]
        ],
        [
          "Levan Tediashvili ( URS )",
          [
            "/wiki/Levan_Tediashvili"
          ]
        ],
        [
          "Horst Stottmeister ( GDR )",
          [
            "/wiki/Horst_Stottmeister"
          ]
        ],
        [
          "Vasile Iorga ( ROU )",
          [
            "/wiki/Vasile_Iorga"
          ]
        ]
      ],
      [
        [
          "1973 Tehran",
          [
            "/wiki/1973_World_Wrestling_Championships"
          ]
        ],
        [
          "Vasily Syulshin ( URS )",
          []
        ],
        [
          "Vasile Iorga ( ROU )",
          [
            "/wiki/Vasile_Iorga"
          ]
        ],
        [
          "Ismail Abilov ( BUL )",
          [
            "/wiki/Ismail_Abilov"
          ]
        ]
      ],
      [
        [
          "1974 Istanbul",
          [
            "/wiki/1974_World_Wrestling_Championships"
          ]
        ],
        [
          "Viktor Novozhilov ( URS )",
          [
            "/wiki/Viktor_Novozhilov"
          ]
        ],
        [
          "Mehmet Uzun ( TUR )",
          [
            "/wiki/Mehmet_Uzun"
          ]
        ],
        [
          "Vasile Iorga ( ROU )",
          [
            "/wiki/Vasile_Iorga"
          ]
        ]
      ],
      [
        [
          "1975 Minsk",
          [
            "/wiki/1975_World_Wrestling_Championships"
          ]
        ],
        [
          "Adolf Seger ( FRG )",
          [
            "/wiki/Adolf_Seger"
          ]
        ],
        [
          "Ismail Abilov ( BUL )",
          [
            "/wiki/Ismail_Abilov"
          ]
        ],
        [
          "Vasile Iorga ( ROU )",
          [
            "/wiki/Vasile_Iorga"
          ]
        ]
      ],
      [
        [
          "1977 Lausanne",
          [
            "/wiki/1977_World_Wrestling_Championships"
          ]
        ],
        [
          "Adolf Seger ( FRG )",
          [
            "/wiki/Adolf_Seger"
          ]
        ],
        [
          "Magomedkhan Aratsilov ( URS )",
          [
            "/wiki/Magomedkhan_Aratsilov"
          ]
        ],
        [
          "Istv\u00e1n Kov\u00e1cs ( HUN )",
          [
            "/wiki/Istv\u00e1n_Kov\u00e1cs_(wrestler)"
          ]
        ]
      ],
      [
        [
          "1978 Mexico City",
          [
            "/wiki/1978_World_Wrestling_Championships"
          ]
        ],
        [
          "Magomedkhan Aratsilov ( URS )",
          [
            "/wiki/Magomedkhan_Aratsilov"
          ]
        ],
        [
          "Adolf Seger ( FRG )",
          [
            "/wiki/Adolf_Seger"
          ]
        ],
        [
          "John Peterson ( USA )",
          [
            "/wiki/John_Peterson_(wrestler)"
          ]
        ]
      ],
      [
        [
          "1979 San Diego",
          [
            "/wiki/1979_World_Wrestling_Championships"
          ]
        ],
        [
          "Istv\u00e1n Kov\u00e1cs ( HUN )",
          [
            "/wiki/Istv\u00e1n_Kov\u00e1cs_(wrestler)"
          ]
        ],
        [
          "John Peterson ( USA )",
          [
            "/wiki/John_Peterson_(wrestler)"
          ]
        ],
        [
          "Magomedkhan Aratsilov ( URS )",
          [
            "/wiki/Magomedkhan_Aratsilov"
          ]
        ]
      ],
      [
        [
          "1981 Skopje",
          [
            "/wiki/1981_World_Wrestling_Championships"
          ]
        ],
        [
          "Chris Campbell ( USA )",
          [
            "/wiki/Chris_Campbell_(wrestler)"
          ]
        ],
        [
          "Efraim Kamberov ( BUL )",
          []
        ],
        [
          "Grigory Danko ( URS )",
          []
        ]
      ]
    ],
    "section_title": "Middleweight",
    "section_text": "79 kg : 1951\u20131961 87 kg : 1962\u20131967 82 kg : 1969\u20131995 85 kg : 1997\u20132001 84 kg : 2002\u20132013 86 kg : 2014\u2013",
    "uid": "List_of_World_Championships_medalists_in_wrestling_(freestyle)_8",
    "intro": "This is a List of World Championships medalists in men's freestyle wrestling."
  },
  "List_of_current_state_leaders_by_date_of_assumption_of_office_3": {
    "url": "https://en.wikipedia.org/wiki/List_of_current_state_leaders_by_date_of_assumption_of_office",
    "title": "List of current state leaders by date of assumption of office",
    "header": [
      [
        "Assumed Office",
        []
      ],
      [
        "Leader",
        []
      ],
      [
        "State",
        []
      ],
      [
        "Office",
        []
      ]
    ],
    "data": [
      [
        [
          "1 June 1990",
          []
        ],
        [
          "Harald V",
          [
            "/wiki/Harald_V_of_Norway"
          ]
        ],
        [
          "Norway",
          [
            "/wiki/Norway"
          ]
        ],
        [
          "Prince-regent : 1 June 1990 - 17 January 1991 King : 17 January 1991 - present",
          [
            "/wiki/Monarchy_of_Norway",
            "/wiki/Monarchy_of_Norway"
          ]
        ]
      ],
      [
        [
          "2 December 1990",
          []
        ],
        [
          "Idriss D\u00e9by",
          [
            "/wiki/Idriss_D\u00e9by"
          ]
        ],
        [
          "Chad",
          [
            "/wiki/Chad"
          ]
        ],
        [
          "President of the Patriotic Salvation Movement : 2 December 1990 - 4 December 1990 President of the Council of State : 4 December 1990 - 4 March 1991 President : 4 March 1991 - present",
          [
            "/wiki/List_of_heads_of_state_of_Chad",
            "/wiki/List_of_heads_of_state_of_Chad",
            "/wiki/List_of_heads_of_state_of_Chad"
          ]
        ]
      ],
      [
        [
          "27 April 1991",
          []
        ],
        [
          "Isaias Afwerki",
          [
            "/wiki/Isaias_Afwerki"
          ]
        ],
        [
          "Eritrea",
          [
            "/wiki/Eritrea"
          ]
        ],
        [
          "Secretary-General of the Provisional Government : 27 April 1991 - 23 May 1993 President : 23 May 1993 - present",
          [
            "/wiki/List_of_heads_of_state_of_Eritrea",
            "/wiki/List_of_heads_of_state_of_Eritrea"
          ]
        ]
      ],
      [
        [
          "19 November 1992",
          []
        ],
        [
          "Emomali Rahmon",
          [
            "/wiki/Emomali_Rahmon"
          ]
        ],
        [
          "Tajikistan",
          [
            "/wiki/Tajikistan"
          ]
        ],
        [
          "Acting Chairman of the Supreme Council : 19 November 1992 - 27 November 1992 Chairman of the Supreme Council : 27 November 1992 - 16 November 1994 President : 16 November 1994 - present",
          [
            "/wiki/List_of_Chairmen_of_the_Supreme_Soviet_of_the_Tajik_Soviet_Socialist_Republic",
            "/wiki/List_of_Chairmen_of_the_Supreme_Soviet_of_the_Tajik_Soviet_Socialist_Republic",
            "/wiki/President_of_Tajikistan"
          ]
        ]
      ],
      [
        [
          "17 November 1993",
          []
        ],
        [
          "Sir Colville Young",
          [
            "/wiki/Colville_Young"
          ]
        ],
        [
          "Belize",
          [
            "/wiki/Belize"
          ]
        ],
        [
          "Governor-General",
          [
            "/wiki/Governor-General_of_Belize"
          ]
        ]
      ],
      [
        [
          "19 July 1994",
          []
        ],
        [
          "Paul Kagame",
          [
            "/wiki/Paul_Kagame"
          ]
        ],
        [
          "Rwanda",
          [
            "/wiki/Rwanda"
          ]
        ],
        [
          "Vice-President and de facto leader : 19 July 1994 - 22 April 2000 Acting President : 24 March 2000 - 22 April 2000 President : 22 April 2000 - present",
          [
            "/wiki/Vice_President_of_Rwanda",
            "/wiki/List_of_presidents_of_Rwanda",
            "/wiki/List_of_presidents_of_Rwanda"
          ]
        ]
      ],
      [
        [
          "20 July 1994",
          []
        ],
        [
          "Alexander Lukashenko",
          [
            "/wiki/Alexander_Lukashenko"
          ]
        ],
        [
          "Belarus",
          [
            "/wiki/Belarus"
          ]
        ],
        [
          "President",
          [
            "/wiki/President_of_Belarus"
          ]
        ]
      ],
      [
        [
          "7 February 1996",
          []
        ],
        [
          "Letsie III",
          [
            "/wiki/Letsie_III_of_Lesotho"
          ]
        ],
        [
          "Lesotho",
          [
            "/wiki/Lesotho"
          ]
        ],
        [
          "King",
          [
            "/wiki/List_of_monarchs_of_Lesotho"
          ]
        ]
      ],
      [
        [
          "25 October 1997",
          []
        ],
        [
          "Denis Sassou Nguesso",
          [
            "/wiki/Denis_Sassou_Nguesso"
          ]
        ],
        [
          "Republic of the Congo",
          [
            "/wiki/Republic_of_the_Congo"
          ]
        ],
        [
          "President",
          [
            "/wiki/List_of_presidents_of_the_Republic_of_the_Congo"
          ]
        ]
      ],
      [
        [
          "3 March 1998",
          []
        ],
        [
          "Henri",
          [
            "/wiki/Henri,_Grand_Duke_of_Luxembourg"
          ]
        ],
        [
          "Luxembourg",
          [
            "/wiki/Luxembourg"
          ]
        ],
        [
          "Prince-regent : 3 March 1998 - 7 October 2000 Grand Duke : 7 October 2000 - present",
          [
            "/wiki/Monarchy_of_Luxembourg",
            "/wiki/Monarchy_of_Luxembourg"
          ]
        ]
      ],
      [
        [
          "23 November 1998",
          []
        ],
        [
          "Tuilaepa Aiono Sailele Malielegaoi",
          [
            "/wiki/Tuilaepa_Aiono_Sailele_Malielegaoi"
          ]
        ],
        [
          "Samoa",
          [
            "/wiki/Samoa"
          ]
        ],
        [
          "Prime Minister",
          [
            "/wiki/Prime_Minister_of_Samoa"
          ]
        ]
      ],
      [
        [
          "7 February 1999",
          []
        ],
        [
          "Abdullah II",
          [
            "/wiki/Abdullah_II_of_Jordan"
          ]
        ],
        [
          "Jordan",
          [
            "/wiki/Jordan"
          ]
        ],
        [
          "King",
          [
            "/wiki/List_of_kings_of_Jordan"
          ]
        ]
      ],
      [
        [
          "6 March 1999",
          []
        ],
        [
          "Sheikh Hamad bin Isa Al Khalifa",
          [
            "/wiki/Hamad_bin_Isa_Al_Khalifa"
          ]
        ],
        [
          "Bahrain",
          [
            "/wiki/Bahrain"
          ]
        ],
        [
          "Emir : 6 March 1999 - 14 February 2002 King : 14 February 2002 - present",
          [
            "/wiki/King_of_Bahrain",
            "/wiki/King_of_Bahrain"
          ]
        ]
      ],
      [
        [
          "8 May 1999",
          []
        ],
        [
          "Isma\u00efl Omar Guelleh",
          [
            "/wiki/Isma\u00efl_Omar_Guelleh"
          ]
        ],
        [
          "Djibouti",
          [
            "/wiki/Djibouti"
          ]
        ],
        [
          "President",
          [
            "/wiki/List_of_presidents_of_Djibouti"
          ]
        ]
      ],
      [
        [
          "23 July 1999",
          []
        ],
        [
          "Mohammed VI",
          [
            "/wiki/Mohammed_VI_of_Morocco"
          ]
        ],
        [
          "Morocco",
          [
            "/wiki/Morocco"
          ]
        ],
        [
          "King",
          [
            "/wiki/List_of_rulers_of_Morocco"
          ]
        ]
      ],
      [
        [
          "9 August 1999",
          []
        ],
        [
          "Vladimir Putin",
          [
            "/wiki/Vladimir_Putin"
          ]
        ],
        [
          "Russia",
          [
            "/wiki/Russia"
          ]
        ],
        [
          "Acting Prime Minister : 9 August 1999 - 16 August 1999 Prime Minister : 16 August 1999 - 7 May 2000 Acting President : 31 December 1999 - 7 May 2000 President : 7 May 2000 - 7 May 2008 Prime Minister : 8 May 2008 - 7 May 2012 President : 7 May 2012 - present",
          [
            "/wiki/Prime_Minister_of_Russia",
            "/wiki/Prime_Minister_of_Russia",
            "/wiki/President_of_Russia",
            "/wiki/President_of_Russia"
          ]
        ]
      ]
    ],
    "section_title": "List of state leaders by date of assuming office -- 1990s",
    "section_text": "",
    "uid": "List_of_current_state_leaders_by_date_of_assumption_of_office_3",
    "intro": "This is a list of current state leaders ordered by their continuous tenure in a position of national leadership. In countries with different heads of state and heads of government, both offices are listed. For leaders who held the same office prior to their state's independence, the start of their tenure is used, not independence. For a list of heads of state taking dates of independence into account, see List of heads of state by diplomatic precedence. Acting presidents are included in this list, but if a leader has non-consecutive terms, only the current period of service is listed. States where head of state differs from head of government are mainly parliamentary systems. Often a leader holds both positions in presidential systems or dictatorships. Some states have semi-presidential systems where the head of government role is fulfilled by both the listed head of government and the head of state."
  },
  "List_of_awards_and_nominations_received_by_Christopher_Walken_22": {
    "url": "https://en.wikipedia.org/wiki/List_of_awards_and_nominations_received_by_Christopher_Walken",
    "title": "List of awards and nominations received by Christopher Walken",
    "header": [
      [
        "Year",
        []
      ],
      [
        "Ceremony",
        []
      ],
      [
        "Award",
        []
      ]
    ],
    "data": [
      [
        [
          "1995",
          []
        ],
        [
          "Gotham Awards",
          [
            "/wiki/Gotham_Awards"
          ]
        ],
        [
          "Actor Award",
          []
        ]
      ],
      [
        [
          "1998",
          []
        ],
        [
          "USA Film Festival",
          []
        ],
        [
          "Master Screen Artist Tribute",
          []
        ]
      ],
      [
        [
          "1999",
          []
        ],
        [
          "Florida Film Festival",
          [
            "/wiki/Florida_Film_Festival"
          ]
        ],
        [
          "Artistic Achievement Award",
          []
        ]
      ],
      [
        [
          "2001",
          []
        ],
        [
          "Deauville Film Festival",
          [
            "/wiki/Deauville_American_Film_Festival"
          ]
        ],
        [
          "Special Tribute Award",
          []
        ]
      ],
      [
        [
          "2005",
          []
        ],
        [
          "CineVegas International Film Festival",
          []
        ],
        [
          "Marquee Award",
          []
        ]
      ],
      [
        [
          "2008",
          []
        ],
        [
          "Hasty Pudding Theatricals",
          [
            "/wiki/Hasty_Pudding_Theatricals"
          ]
        ],
        [
          "Man of the Year",
          []
        ]
      ],
      [
        [
          "2009",
          []
        ],
        [
          "Marrakech Film Festival",
          []
        ],
        [
          "Lifetime Achievement",
          []
        ]
      ]
    ],
    "section_title": "Awards and nominations -- Awards for film",
    "section_text": "",
    "uid": "List_of_awards_and_nominations_received_by_Christopher_Walken_22",
    "intro": "Christopher Walken (born March 31, 1943) is an American actor of stage and screen. He has appeared in more than 100 movies and television shows, including Annie Hall, The Deer Hunter, Sleepy Hollow, Brainstorm, The Dead Zone, A View to a Kill, At Close Range, King of New York, Batman Returns, True Romance, Catch Me If You Can, Wayne's World 2, Pulp Fiction, and Wedding Crashers, as well as music videos by recording artists such as Madonna and Fatboy Slim. Walken's films have grossed more than $1.8 billion in the United States, and he has received numerous awards for his performances and work. These include an Academy Award and Golden Globe for The Deer Hunter, an Oscar nomination for Catch Me If You Can, two BAFTA Awards, an Emmy Award, several Film Critic, and Screen Actors Guild Awards. Five films featuring Walken have won Oscars, and he has added to these with several prominent awards from the theatre."
  },
  "List_of_counties_of_the_Kingdom_of_Hungary_located_in_Slovakia_0": {
    "url": "https://en.wikipedia.org/wiki/List_of_counties_of_the_Kingdom_of_Hungary_located_in_Slovakia",
    "title": "List of counties of the Kingdom of Hungary located in Slovakia",
    "header": [
      [
        "Slovak",
        []
      ],
      [
        "Hungarian",
        []
      ],
      [
        "Territory note",
        []
      ]
    ],
    "data": [
      [
        [
          "Mo\u0161o\u0148",
          []
        ],
        [
          "Moson County",
          [
            "/wiki/Moson_County"
          ]
        ],
        [
          "almost wholly in present-day Hungary",
          []
        ]
      ],
      [
        [
          "Pre\u0161porok ( today 's Bratislava )",
          []
        ],
        [
          "Pozsony County",
          [
            "/wiki/Pozsony_County"
          ]
        ],
        [
          "almost wholly in Slovakia",
          []
        ]
      ],
      [
        [
          "Gemer -Malohont",
          [
            "/wiki/Gemer"
          ]
        ],
        [
          "G\u00f6m\u00f6r-Kishont County",
          [
            "/wiki/G\u00f6m\u00f6r_\u00e9s_Kishont_County"
          ]
        ],
        [
          "almost wholly in Slovakia",
          []
        ]
      ],
      [
        [
          "R\u00e1b",
          []
        ],
        [
          "Gy\u0151r County",
          [
            "/wiki/Gy\u0151r_County"
          ]
        ],
        [
          "almost wholly in present-day Hungary",
          []
        ]
      ],
      [
        [
          "Kom\u00e1rno",
          []
        ],
        [
          "Kom\u00e1rom County",
          [
            "/wiki/Kom\u00e1rom_County"
          ]
        ],
        [
          "southern part in present-day Hungary",
          []
        ]
      ],
      [
        [
          "Ostrihom",
          []
        ],
        [
          "Esztergom County",
          [
            "/wiki/Esztergom_County"
          ]
        ],
        [
          "southern part in present-day Hungary",
          []
        ]
      ],
      [
        [
          "Hont",
          []
        ],
        [
          "Hont County",
          [
            "/wiki/Hont_County"
          ]
        ],
        [
          "almost wholly in Slovakia",
          []
        ]
      ],
      [
        [
          "Novohrad",
          [
            "/wiki/N\u00f3gr\u00e1d_County_(former)"
          ]
        ],
        [
          "N\u00f3gr\u00e1d County",
          [
            "/wiki/N\u00f3gr\u00e1d_County_(former)"
          ]
        ],
        [
          "southern part in present-day Hungary",
          []
        ]
      ],
      [
        [
          "Abov - Tur\u0148a",
          [
            "/wiki/Abov",
            "/wiki/Torna_County"
          ]
        ],
        [
          "Aba\u00faj-Torna County",
          [
            "/wiki/Aba\u00faj-Torna_County"
          ]
        ],
        [
          "southern part in present-day Hungary",
          []
        ]
      ],
      [
        [
          "Zempl\u00edn",
          [
            "/wiki/Zempl\u00edn_(region)"
          ]
        ],
        [
          "Zempl\u00e9n County",
          [
            "/wiki/Zempl\u00e9n_County"
          ]
        ],
        [
          "southern part in Hungary",
          []
        ]
      ],
      [
        [
          "Uh",
          []
        ],
        [
          "Ung County",
          [
            "/wiki/Ung_County"
          ]
        ],
        [
          "eastern part in Ukraine",
          []
        ]
      ],
      [
        [
          "Orava",
          [
            "/wiki/Orava_(region)"
          ]
        ],
        [
          "\u00c1rva County",
          [
            "/wiki/\u00c1rva_County"
          ]
        ],
        [
          "northern part annexed by Poland in 1920",
          []
        ]
      ],
      [
        [
          "Spi\u0161",
          [
            "/wiki/Spi\u0161"
          ]
        ],
        [
          "Szepes County",
          [
            "/wiki/Szepes_County"
          ]
        ],
        [
          "northern part annexed by Poland in 1920",
          []
        ]
      ]
    ],
    "section_title": "Counties that are partly included in Slovakia",
    "section_text": "",
    "uid": "List_of_counties_of_the_Kingdom_of_Hungary_located_in_Slovakia_0",
    "intro": "This is a list of counties of the Kingdom of Hungary, which are fully or partially located in present-day Slovakia. The territory of present-day Slovakia was part of the Kingdom of Hungary until 1920. See History of Slovakia."
  }
}