{
  "List_of_decorated_Americans_from_the_Iraq_War_in_Anbar_Province_0": {
    "url": "https://en.wikipedia.org/wiki/List_of_decorated_Americans_from_the_Iraq_War_in_Al_Anbar_Governorate",
    "title": "List of decorated Americans from the Iraq War in Al Anbar Governorate",
    "header": [
      [
        "Name",
        []
      ],
      [
        "Rank",
        []
      ],
      [
        "Award",
        []
      ],
      [
        "Unit",
        []
      ],
      [
        "Date of action",
        []
      ],
      [
        "Location",
        []
      ],
      [
        "Notes",
        []
      ]
    ],
    "data": [
      [
        [
          "Jason Dunham *",
          [
            "/wiki/Jason_Dunham"
          ]
        ],
        [
          "Corporal",
          [
            "/wiki/Corporal"
          ]
        ],
        [
          "Medal of Honor",
          [
            "/wiki/Medal_of_Honor"
          ]
        ],
        [
          "3rd Battalion 7th Marines",
          [
            "/wiki/3rd_Battalion,_7th_Marines"
          ]
        ],
        [
          "April 22 , 2004",
          []
        ],
        [
          "Husaybah",
          [
            "/wiki/Husaybah"
          ]
        ],
        [
          "Falling on a grenade to save nearby Marines in Karabilah",
          [
            "/wiki/Falling_on_a_grenade",
            "/wiki/Al-Kar\u0101bilah"
          ]
        ]
      ],
      [
        [
          "Michael Monsoor *",
          [
            "/wiki/Michael_A._Monsoor"
          ]
        ],
        [
          "Master-at-Arms Second Class",
          [
            "/wiki/Master-at-arms",
            "/wiki/Petty_officer_second_class"
          ]
        ],
        [
          "Medal of Honor",
          [
            "/wiki/Medal_of_Honor"
          ]
        ],
        [
          "SEAL Team 3",
          [
            "/wiki/United_States_Navy_SEALs"
          ]
        ],
        [
          "September 29 , 2006",
          []
        ],
        [
          "Ramadi ( Second Battle )",
          [
            "/wiki/Ramadi",
            "/wiki/Battle_of_Ramadi_(2006)"
          ]
        ],
        [
          "Falling on a grenade to save nearby sailors",
          [
            "/wiki/Falling_on_a_grenade"
          ]
        ]
      ],
      [
        [
          "Rafael Peralta *",
          [
            "/wiki/Rafael_Peralta"
          ]
        ],
        [
          "Sergeant",
          [
            "/wiki/Sergeant"
          ]
        ],
        [
          "Navy Cross",
          [
            "/wiki/Navy_Cross"
          ]
        ],
        [
          "1st Battalion 3rd Marines",
          [
            "/wiki/1st_Battalion,_3rd_Marines"
          ]
        ],
        [
          "November 15 , 2004",
          []
        ],
        [
          "Fallujah ( Second Battle )",
          [
            "/wiki/Fallujah",
            "/wiki/Second_Battle_of_Fallujah"
          ]
        ],
        [
          "Falling on a grenade to save nearby Marines",
          [
            "/wiki/Falling_on_a_grenade"
          ]
        ]
      ],
      [
        [
          "Richard Adams",
          []
        ],
        [
          "Chief Warrant Officer Three",
          [
            "/wiki/Warrant_officer_(United_States)"
          ]
        ],
        [
          "Distinguished Flying Cross",
          [
            "/wiki/Distinguished_Flying_Cross_(United_States)"
          ]
        ],
        [
          "36th Combat Aviation Brigade",
          [
            "/wiki/Task_Force_Mustang"
          ]
        ],
        [
          "February 11 , 2007",
          []
        ],
        [
          "Ramadi",
          [
            "/wiki/Ramadi"
          ]
        ],
        [
          "Placed himself in the direct line of enemy fire in order to protect a disabled waterborne patrol in the Euphrates River",
          []
        ]
      ],
      [
        [
          "Daniel Briggs",
          []
        ],
        [
          "Staff Sergeant",
          [
            "/wiki/Staff_sergeant"
          ]
        ],
        [
          "Distinguished Service Cross",
          [
            "/wiki/Distinguished_Service_Cross_(United_States)"
          ]
        ],
        [
          "United States Army Special Operations Command",
          [
            "/wiki/United_States_Army_Special_Operations_Command"
          ]
        ],
        [
          "April 26 , 2004",
          []
        ],
        [
          "Fallujah ( First Battle )",
          [
            "/wiki/Fallujah",
            "/wiki/First_Battle_of_Fallujah"
          ]
        ],
        [
          "Provided medical attention to US Marines during a firefight , executed evacuation of injured Marines while under direct enemy fire preventing further casualties",
          []
        ]
      ],
      [
        [
          "Donald Hollenbaugh",
          []
        ],
        [
          "Master Sergeant",
          [
            "/wiki/Master_sergeant"
          ]
        ],
        [
          "Distinguished Service Cross",
          [
            "/wiki/Distinguished_Service_Cross_(United_States)"
          ]
        ],
        [
          "United States Army Special Operations Command",
          [
            "/wiki/United_States_Army_Special_Operations_Command"
          ]
        ],
        [
          "April 26 , 2004",
          []
        ],
        [
          "Fallujah ( First Battle )",
          [
            "/wiki/Fallujah",
            "/wiki/First_Battle_of_Fallujah"
          ]
        ],
        [
          "Defended position against enemy fighters during evacuation of wounded Marines in Fallujah",
          []
        ]
      ],
      [
        [
          "Walter Jackson",
          []
        ],
        [
          "Second Lieutenant",
          [
            "/wiki/Second_lieutenant"
          ]
        ],
        [
          "Distinguished Service Cross",
          [
            "/wiki/Distinguished_Service_Cross_(United_States)"
          ]
        ],
        [
          "1st Battalion , 36th Infantry Regiment",
          [
            "/wiki/36th_Infantry_Regiment_(United_States)"
          ]
        ],
        [
          "September 27 , 2006",
          []
        ],
        [
          "Ramadi ( Second Battle )",
          [
            "/wiki/Ramadi",
            "/wiki/Battle_of_Ramadi_(2006)"
          ]
        ],
        [
          "For extraordinary courage on September 27 , 2006 in H\u012bt , Iraq",
          [
            "/wiki/Hit,_Iraq"
          ]
        ]
      ],
      [
        [
          "Christopher Adlesperger",
          []
        ],
        [
          "Lance Corporal",
          [
            "/wiki/Lance_corporal"
          ]
        ],
        [
          "Navy Cross",
          [
            "/wiki/Navy_Cross"
          ]
        ],
        [
          "3rd Battalion 5th Marines",
          [
            "/wiki/3rd_Battalion,_5th_Marines"
          ]
        ],
        [
          "November 10 , 2004",
          []
        ],
        [
          "Fallujah ( Second Battle )",
          [
            "/wiki/Fallujah",
            "/wiki/Second_Battle_of_Fallujah"
          ]
        ],
        [
          "Conducted one-man attack against group of insurgents , despite being wounded in the process",
          []
        ]
      ],
      [
        [
          "Jason Clairday *",
          []
        ],
        [
          "Corporal",
          [
            "/wiki/Corporal"
          ]
        ],
        [
          "Navy Cross",
          [
            "/wiki/Navy_Cross"
          ]
        ],
        [
          "3rd Battalion 5th Marines",
          [
            "/wiki/3rd_Battalion,_5th_Marines"
          ]
        ],
        [
          "December 12 , 2004",
          []
        ],
        [
          "Fallujah ( Second Battle )",
          [
            "/wiki/Fallujah",
            "/wiki/Second_Battle_of_Fallujah"
          ]
        ],
        [
          "Aggressive engagement of a platoon-sized enemy in close-quarters combat",
          []
        ]
      ],
      [
        [
          "Willie Copeland",
          []
        ],
        [
          "Sergeant",
          [
            "/wiki/Sergeant"
          ]
        ],
        [
          "Navy Cross",
          [
            "/wiki/Navy_Cross"
          ]
        ],
        [
          "1st Reconnaissance Battalion",
          [
            "/wiki/1st_Reconnaissance_Battalion"
          ]
        ],
        [
          "April 7 , 2004",
          []
        ],
        [
          "Fallujah ( First Battle )",
          [
            "/wiki/Fallujah",
            "/wiki/First_Battle_of_Fallujah"
          ]
        ],
        [
          "Led five Marines in an attack through an open field to eliminate ten insurgents ; shielded a wounded Marine with his own body while applying first aid",
          []
        ]
      ],
      [
        [
          "Todd Corbin",
          []
        ],
        [
          "Lance Corporal",
          [
            "/wiki/Lance_corporal"
          ]
        ],
        [
          "Navy Cross",
          [
            "/wiki/Navy_Cross"
          ]
        ],
        [
          "3rd Battalion , 25th Marines",
          [
            "/wiki/3rd_Battalion,_25th_Marines"
          ]
        ],
        [
          "May 7 , 2005",
          []
        ],
        [
          "Haditha",
          [
            "/wiki/Haditha"
          ]
        ],
        [
          "Evacuated five dead or wounded Marines under heavy enemy fire during an ambush",
          []
        ]
      ],
      [
        [
          "Dominic Esquibel",
          []
        ],
        [
          "Lance Corporal",
          [
            "/wiki/Lance_corporal"
          ]
        ],
        [
          "Navy Cross",
          [
            "/wiki/Navy_Cross"
          ]
        ],
        [
          "1st Battalion 8th Marines",
          [
            "/wiki/1st_Battalion,_8th_Marines"
          ]
        ],
        [
          "November 25 , 2004",
          []
        ],
        [
          "Fallujah ( Second Battle )",
          [
            "/wiki/Fallujah",
            "/wiki/Second_Battle_of_Fallujah"
          ]
        ],
        [
          "Engaged insurgents while simultaneously evacuating three wounded Marines under fire",
          []
        ]
      ],
      [
        [
          "Benjamin Gonzalez",
          []
        ],
        [
          "Lance Corporal",
          [
            "/wiki/Lance_corporal"
          ]
        ],
        [
          "Navy Cross",
          [
            "/wiki/Navy_Cross"
          ]
        ],
        [
          "2nd Battalion 1st Marines",
          [
            "/wiki/2nd_Battalion,_1st_Marines"
          ]
        ],
        [
          "June 18 , 2004",
          []
        ],
        [
          "Fallujah",
          [
            "/wiki/Fallujah"
          ]
        ],
        [
          "Jumped on a fellow Marine to protect him from a grenade",
          []
        ]
      ],
      [
        [
          "Jordan Haerter *",
          [
            "/wiki/Jordan_C._Haerter"
          ]
        ],
        [
          "Lance Corporal",
          [
            "/wiki/Lance_corporal"
          ]
        ],
        [
          "Navy Cross",
          [
            "/wiki/Navy_Cross"
          ]
        ],
        [
          "1st Battalion 9th Marines",
          [
            "/wiki/1st_Battalion,_9th_Marines"
          ]
        ],
        [
          "April 22 , 2008",
          []
        ],
        [
          "Ramadi",
          [
            "/wiki/Ramadi"
          ]
        ],
        [
          "Died defending his post against a suicide truck bomb and undoubtedly helped save the lives of more than 50 Marines and Iraqi policemen",
          [
            "/wiki/Suicide_attack",
            "/wiki/Car_bomb"
          ]
        ]
      ],
      [
        [
          "Bradley Kasal",
          [
            "/wiki/Bradley_Kasal"
          ]
        ],
        [
          "First Sergeant",
          [
            "/wiki/First_sergeant"
          ]
        ],
        [
          "Navy Cross",
          [
            "/wiki/Navy_Cross"
          ]
        ],
        [
          "3rd Battalion 1st Marines",
          [
            "/wiki/3rd_Battalion,_1st_Marines"
          ]
        ],
        [
          "November 13 , 2004",
          []
        ],
        [
          "Fallujah ( Second Battle )",
          [
            "/wiki/Fallujah",
            "/wiki/Second_Battle_of_Fallujah"
          ]
        ],
        [
          "Directly led squad of Marines in heavy close-quarters urban combat , despite sustaining multiple wounds",
          []
        ]
      ],
      [
        [
          "Jarrett Kraft",
          []
        ],
        [
          "Sergeant",
          [
            "/wiki/Sergeant"
          ]
        ],
        [
          "Navy Cross",
          [
            "/wiki/Navy_Cross"
          ]
        ],
        [
          "3rd Battalion 5th Marines",
          [
            "/wiki/3rd_Battalion,_5th_Marines"
          ]
        ],
        [
          "December 23 , 2004",
          []
        ],
        [
          "Fallujah ( Second Battle )",
          [
            "/wiki/Fallujah",
            "/wiki/Second_Battle_of_Fallujah"
          ]
        ],
        [
          "Personally led three assaults against enemy forces during a two-hour battle",
          []
        ]
      ],
      [
        [
          "Aubrey McDade",
          [
            "/wiki/Aubrey_McDade"
          ]
        ],
        [
          "Sergeant",
          [
            "/wiki/Sergeant"
          ]
        ],
        [
          "Navy Cross",
          [
            "/wiki/Navy_Cross"
          ]
        ],
        [
          "1st Battalion 8th Marines",
          [
            "/wiki/1st_Battalion,_8th_Marines"
          ]
        ],
        [
          "November 11 , 2004",
          []
        ],
        [
          "Fallujah ( Second Battle )",
          [
            "/wiki/Fallujah",
            "/wiki/Second_Battle_of_Fallujah"
          ]
        ],
        [
          "For single-handedly evacuating three wounded Marines in a close-quarters engagement",
          []
        ]
      ],
      [
        [
          "Michael Mendoza",
          []
        ],
        [
          "Sergeant",
          [
            "/wiki/Sergeant"
          ]
        ],
        [
          "Navy Cross",
          [
            "/wiki/Navy_Cross"
          ]
        ],
        [
          "1st Reconnaissance Battalion",
          [
            "/wiki/1st_Reconnaissance_Battalion"
          ]
        ],
        [
          "April 7 , 2004",
          []
        ],
        [
          "Fallujah ( First Battle )",
          [
            "/wiki/Fallujah",
            "/wiki/First_Battle_of_Fallujah"
          ]
        ],
        [
          "Despite rocket and machine gun fire directed at him , knelt in the open , held his position and provided covering fire while a wounded Marine was being evacuated",
          []
        ]
      ],
      [
        [
          "Robert Mitchell",
          []
        ],
        [
          "Corporal",
          [
            "/wiki/Corporal"
          ]
        ],
        [
          "Navy Cross",
          [
            "/wiki/Navy_Cross"
          ]
        ],
        [
          "3rd Battalion 1st Marines",
          [
            "/wiki/3rd_Battalion,_1st_Marines"
          ]
        ],
        [
          "November 13 , 2004",
          []
        ],
        [
          "Fallujah ( Second Battle )",
          [
            "/wiki/Fallujah",
            "/wiki/Second_Battle_of_Fallujah"
          ]
        ],
        [
          "Fought off group of insurgents , including in hand-to-hand combat while simultaneously providing first aid for wounded Marines",
          []
        ]
      ],
      [
        [
          "Joshua Mooi",
          []
        ],
        [
          "Lance Corporal",
          [
            "/wiki/Lance_corporal"
          ]
        ],
        [
          "Navy Cross",
          [
            "/wiki/Navy_Cross"
          ]
        ],
        [
          "2nd Battalion 1st Marines",
          [
            "/wiki/2nd_Battalion,_1st_Marines"
          ]
        ],
        [
          "November 16 , 2005",
          []
        ],
        [
          "Ubaydi ( Steel Curtain )",
          [
            "/wiki/Al_Ubaidi",
            "/wiki/Operation_Steel_Curtain"
          ]
        ],
        [
          "Helped save the lives of a dozen Marines while killing four insurgents in heavy close-quarters urban combat",
          []
        ]
      ]
    ],
    "section_title": "",
    "section_text": "",
    "uid": "List_of_decorated_Americans_from_the_Iraq_War_in_Anbar_Province_0",
    "intro": "This is a complete list of United States Soldiers, Sailors, Airmen, and Marines who were awarded the Medal of Honor, Distinguished Flying Cross, Distinguished Service Cross, or Navy Cross in the Iraq War in Anbar Province. An asterisk after a recipient's name indicates that the award was given posthumously."
  },
  "List_of_United_States_Supreme_Court_cases_by_the_Roberts_Court_7": {
    "url": "https://en.wikipedia.org/wiki/List_of_United_States_Supreme_Court_cases_by_the_Roberts_Court",
    "title": "List of United States Supreme Court cases by the Roberts Court",
    "header": [
      [
        "Case name",
        []
      ],
      [
        "Opinion",
        []
      ],
      [
        "Decided",
        []
      ],
      [
        "Summary",
        []
      ]
    ],
    "data": [
      [
        [
          "Cavazos v. Smith",
          [
            "/wiki/2011_term_per_curiam_opinions_of_the_Supreme_Court_of_the_United_States"
          ]
        ],
        [
          "10-1115",
          []
        ],
        [
          "2011-10-31",
          []
        ],
        [
          "A jury found that a grandmother was guilty of assaulting her 7-week-old grandchild , which the jury found had died of shaken baby syndrome . The Supreme Court held that the Ninth Circuit exceeded its authority under 28 U.S.C . \u00a7 2254 ( d ) in reversing the verdict for insufficient evidence",
          [
            "/wiki/Abusive_head_trauma",
            "/wiki/United_States_Court_of_Appeals_for_the_Ninth_Circuit",
            "/wiki/Title_28_of_the_United_States_Code"
          ]
        ]
      ],
      [
        [
          "KPMG LLP v. Cocchi",
          [
            "/wiki/2011_term_per_curiam_opinions_of_the_Supreme_Court_of_the_United_States"
          ]
        ],
        [
          "10-1521",
          []
        ],
        [
          "2011-11-07",
          []
        ],
        [
          "Citing Dean Witter Reynolds Inc. v. Byrd , the Supreme Court remanded this case to a Florida appellate court for consideration of whether arbitration was required for some of the claims alleged",
          [
            "/wiki/Dean_Witter_Reynolds_Inc._v._Byrd",
            "/wiki/Appellate_court",
            "/wiki/Arbitration"
          ]
        ]
      ],
      [
        [
          "Bobby v. Dixon",
          [
            "/wiki/2011_term_per_curiam_opinions_of_the_Supreme_Court_of_the_United_States"
          ]
        ],
        [
          "10-1540",
          []
        ],
        [
          "2011-11-07",
          []
        ],
        [
          "Under the Antiterrorism and Effective Death Penalty Act ( 28 U.S.C . \u00a7 2254 ) and Harrington v. Richter , the Sixth Circuit had erred in granting a state prisoner 's petition for writ of habeas corpus . It was not clear the state court had erred at all , a prerequisite for granting a habeas petition",
          [
            "/wiki/Antiterrorism_and_Effective_Death_Penalty_Act_of_1996",
            "/wiki/Title_28_of_the_United_States_Code",
            "/wiki/United_States_Court_of_Appeals_for_the_Sixth_Circuit",
            "/wiki/Habeas_corpus"
          ]
        ]
      ],
      [
        [
          "Golan v. Holder",
          [
            "/wiki/Golan_v._Holder"
          ]
        ],
        [
          "",
          []
        ],
        [
          "2012-01-18",
          []
        ],
        [
          "Congress can restore copyright protection to works that were formerly in the public domain",
          []
        ]
      ],
      [
        [
          "Southern Union Co. v. United States",
          [
            "/wiki/Southern_Union_Co._v._United_States"
          ]
        ],
        [
          "11-94",
          []
        ],
        [
          "2012-06-21",
          []
        ],
        [
          "The rule of Apprendi v. New Jersey applies to the imposition of criminal fines",
          [
            "/wiki/Apprendi_v._New_Jersey"
          ]
        ]
      ]
    ],
    "section_title": "Roberts Court 2011 term",
    "section_text": "Main article : 2011 term opinions of the Supreme Court of the United States",
    "uid": "List_of_United_States_Supreme_Court_cases_by_the_Roberts_Court_7",
    "intro": "This is a partial chronological list of cases decided by the United States Supreme Court during the Roberts Court, the tenure of Chief Justice John Roberts from September 29, 2005 to the present."
  },
  "United_States_District_Court_for_the_Southern_District_of_Ohio_1": {
    "url": "https://en.wikipedia.org/wiki/United_States_District_Court_for_the_Southern_District_of_Ohio",
    "title": "United States District Court for the Southern District of Ohio",
    "header": [
      [
        "#",
        []
      ],
      [
        "Judge",
        []
      ],
      [
        "State",
        []
      ],
      [
        "Born-died",
        []
      ],
      [
        "Active service",
        []
      ],
      [
        "Chief Judge",
        [
          "/wiki/Chief_judge"
        ]
      ],
      [
        "Senior status",
        [
          "/wiki/Senior_status"
        ]
      ],
      [
        "Appointed by",
        []
      ],
      [
        "Reason for termination",
        []
      ]
    ],
    "data": [
      [
        [
          "1",
          []
        ],
        [
          "Humphrey H. Leavitt",
          [
            "/wiki/Humphrey_H._Leavitt"
          ]
        ],
        [
          "OH",
          [
            "/wiki/Ohio"
          ]
        ],
        [
          "1796-1873",
          []
        ],
        [
          "1855-1871",
          []
        ],
        [
          "-",
          []
        ],
        [
          "-",
          []
        ],
        [
          "Operation of law",
          [
            "/wiki/Operation_of_law"
          ]
        ],
        [
          "retirement",
          []
        ]
      ],
      [
        [
          "2",
          []
        ],
        [
          "Philip Bergen Swing",
          [
            "/wiki/Philip_Bergen_Swing"
          ]
        ],
        [
          "OH",
          [
            "/wiki/Ohio"
          ]
        ],
        [
          "1820-1882",
          []
        ],
        [
          "1871-1882",
          []
        ],
        [
          "-",
          []
        ],
        [
          "-",
          []
        ],
        [
          "Grant",
          [
            "/wiki/List_of_federal_judges_appointed_by_Ulysses_S._Grant"
          ]
        ],
        [
          "death",
          []
        ]
      ],
      [
        [
          "3",
          []
        ],
        [
          "William White",
          [
            "/wiki/William_White_(judge)"
          ]
        ],
        [
          "OH",
          [
            "/wiki/Ohio"
          ]
        ],
        [
          "1822-1883",
          []
        ],
        [
          "1883",
          []
        ],
        [
          "-",
          []
        ],
        [
          "-",
          []
        ],
        [
          "Arthur",
          [
            "/wiki/List_of_federal_judges_appointed_by_Chester_A._Arthur"
          ]
        ],
        [
          "death",
          []
        ]
      ],
      [
        [
          "4",
          []
        ],
        [
          "George Read Sage",
          [
            "/wiki/George_Read_Sage"
          ]
        ],
        [
          "OH",
          [
            "/wiki/Ohio"
          ]
        ],
        [
          "1828-1898",
          []
        ],
        [
          "1883-1898",
          []
        ],
        [
          "-",
          []
        ],
        [
          "-",
          []
        ],
        [
          "Arthur",
          [
            "/wiki/List_of_federal_judges_appointed_by_Chester_A._Arthur"
          ]
        ],
        [
          "retirement",
          []
        ]
      ],
      [
        [
          "5",
          []
        ],
        [
          "Albert C. Thompson",
          [
            "/wiki/Albert_C._Thompson"
          ]
        ],
        [
          "OH",
          [
            "/wiki/Ohio"
          ]
        ],
        [
          "1842-1910",
          []
        ],
        [
          "1898-1910",
          []
        ],
        [
          "-",
          []
        ],
        [
          "-",
          []
        ],
        [
          "McKinley",
          [
            "/wiki/List_of_federal_judges_appointed_by_William_McKinley"
          ]
        ],
        [
          "death",
          []
        ]
      ],
      [
        [
          "6",
          []
        ],
        [
          "John Elbert Sater",
          [
            "/wiki/John_Elbert_Sater"
          ]
        ],
        [
          "OH",
          [
            "/wiki/Ohio"
          ]
        ],
        [
          "1854-1937",
          []
        ],
        [
          "1907-1924",
          []
        ],
        [
          "-",
          []
        ],
        [
          "-",
          []
        ],
        [
          "T. Roosevelt",
          [
            "/wiki/List_of_federal_judges_appointed_by_Theodore_Roosevelt"
          ]
        ],
        [
          "retirement",
          []
        ]
      ],
      [
        [
          "7",
          []
        ],
        [
          "Howard Clark Hollister",
          [
            "/wiki/Howard_Clark_Hollister"
          ]
        ],
        [
          "OH",
          [
            "/wiki/Ohio"
          ]
        ],
        [
          "1856-1919",
          []
        ],
        [
          "1910-1919",
          []
        ],
        [
          "-",
          []
        ],
        [
          "-",
          []
        ],
        [
          "Taft",
          [
            "/wiki/List_of_federal_judges_appointed_by_William_Howard_Taft"
          ]
        ],
        [
          "death",
          []
        ]
      ],
      [
        [
          "8",
          []
        ],
        [
          "John Weld Peck",
          [
            "/wiki/John_Weld_Peck"
          ]
        ],
        [
          "OH",
          [
            "/wiki/Ohio"
          ]
        ],
        [
          "1874-1937",
          []
        ],
        [
          "1919-1923",
          []
        ],
        [
          "-",
          []
        ],
        [
          "-",
          []
        ],
        [
          "Wilson",
          [
            "/wiki/List_of_federal_judges_appointed_by_Woodrow_Wilson"
          ]
        ],
        [
          "resignation",
          []
        ]
      ],
      [
        [
          "9",
          []
        ],
        [
          "Smith Hickenlooper",
          [
            "/wiki/Smith_Hickenlooper"
          ]
        ],
        [
          "OH",
          [
            "/wiki/Ohio"
          ]
        ],
        [
          "1880-1933",
          []
        ],
        [
          "1923-1929",
          []
        ],
        [
          "-",
          []
        ],
        [
          "-",
          []
        ],
        [
          "Harding",
          [
            "/wiki/List_of_federal_judges_appointed_by_Warren_G._Harding"
          ]
        ],
        [
          "elevation to 6th Cir",
          [
            "/wiki/United_States_Court_of_Appeals_for_the_Sixth_Circuit"
          ]
        ]
      ],
      [
        [
          "10",
          []
        ],
        [
          "Benson W. Hough",
          [
            "/wiki/Benson_W._Hough"
          ]
        ],
        [
          "OH",
          [
            "/wiki/Ohio"
          ]
        ],
        [
          "1875-1935",
          []
        ],
        [
          "1925-1935",
          []
        ],
        [
          "-",
          []
        ],
        [
          "-",
          []
        ],
        [
          "Coolidge",
          [
            "/wiki/List_of_federal_judges_appointed_by_Calvin_Coolidge"
          ]
        ],
        [
          "death",
          []
        ]
      ],
      [
        [
          "11",
          []
        ],
        [
          "Robert Reasoner Nevin",
          [
            "/wiki/Robert_Reasoner_Nevin"
          ]
        ],
        [
          "OH",
          [
            "/wiki/Ohio"
          ]
        ],
        [
          "1875-1952",
          []
        ],
        [
          "1929-1952",
          []
        ],
        [
          "1948-1952",
          []
        ],
        [
          "-",
          []
        ],
        [
          "Coolidge",
          [
            "/wiki/List_of_federal_judges_appointed_by_Calvin_Coolidge"
          ]
        ],
        [
          "death",
          []
        ]
      ],
      [
        [
          "12",
          []
        ],
        [
          "Mell G. Underwood",
          [
            "/wiki/Mell_G._Underwood"
          ]
        ],
        [
          "OH",
          [
            "/wiki/Ohio"
          ]
        ],
        [
          "1892-1972",
          []
        ],
        [
          "1936-1965",
          []
        ],
        [
          "1953-1962",
          []
        ],
        [
          "1965-1972",
          []
        ],
        [
          "F. Roosevelt",
          [
            "/wiki/List_of_federal_judges_appointed_by_Franklin_D._Roosevelt"
          ]
        ],
        [
          "death",
          []
        ]
      ],
      [
        [
          "13",
          []
        ],
        [
          "John H. Druffel",
          [
            "/wiki/John_H._Druffel"
          ]
        ],
        [
          "OH",
          [
            "/wiki/Ohio"
          ]
        ],
        [
          "1886-1967",
          []
        ],
        [
          "1937-1961",
          []
        ],
        [
          "-",
          []
        ],
        [
          "1961-1967",
          []
        ],
        [
          "F. Roosevelt",
          [
            "/wiki/List_of_federal_judges_appointed_by_Franklin_D._Roosevelt"
          ]
        ],
        [
          "death",
          []
        ]
      ],
      [
        [
          "14",
          []
        ],
        [
          "Lester LeFevre Cecil",
          [
            "/wiki/Lester_LeFevre_Cecil"
          ]
        ],
        [
          "OH",
          [
            "/wiki/Ohio"
          ]
        ],
        [
          "1893-1982",
          []
        ],
        [
          "1953-1959",
          []
        ],
        [
          "-",
          []
        ],
        [
          "-",
          []
        ],
        [
          "Eisenhower",
          [
            "/wiki/List_of_federal_judges_appointed_by_Dwight_D._Eisenhower"
          ]
        ],
        [
          "elevation to 6th Cir",
          [
            "/wiki/United_States_Court_of_Appeals_for_the_Sixth_Circuit"
          ]
        ]
      ],
      [
        [
          "15",
          []
        ],
        [
          "Carl Andrew Weinman",
          [
            "/wiki/Carl_Andrew_Weinman"
          ]
        ],
        [
          "OH",
          [
            "/wiki/Ohio"
          ]
        ],
        [
          "1903-1979",
          []
        ],
        [
          "1959-1973",
          []
        ],
        [
          "1962-1973",
          []
        ],
        [
          "1973-1979",
          []
        ],
        [
          "Eisenhower",
          [
            "/wiki/List_of_federal_judges_appointed_by_Dwight_D._Eisenhower"
          ]
        ],
        [
          "death",
          []
        ]
      ],
      [
        [
          "16",
          []
        ],
        [
          "John Weld Peck II",
          [
            "/wiki/John_Weld_Peck_II"
          ]
        ],
        [
          "OH",
          [
            "/wiki/Ohio"
          ]
        ],
        [
          "1913-1993",
          []
        ],
        [
          "1961-1966",
          []
        ],
        [
          "-",
          []
        ],
        [
          "-",
          []
        ],
        [
          "Kennedy",
          [
            "/wiki/List_of_federal_judges_appointed_by_John_F._Kennedy"
          ]
        ],
        [
          "elevation to 6th Cir",
          [
            "/wiki/United_States_Court_of_Appeals_for_the_Sixth_Circuit"
          ]
        ]
      ],
      [
        [
          "17",
          []
        ],
        [
          "Joseph Peter Kinneary",
          [
            "/wiki/Joseph_Peter_Kinneary"
          ]
        ],
        [
          "OH",
          [
            "/wiki/Ohio"
          ]
        ],
        [
          "1905-2003",
          []
        ],
        [
          "1966-1986",
          []
        ],
        [
          "1973-1975",
          []
        ],
        [
          "1986-2003",
          []
        ],
        [
          "L. Johnson",
          [
            "/wiki/List_of_federal_judges_appointed_by_Lyndon_B._Johnson"
          ]
        ],
        [
          "death",
          []
        ]
      ],
      [
        [
          "18",
          []
        ],
        [
          "Timothy Sylvester Hogan",
          [
            "/wiki/Timothy_Sylvester_Hogan_(judge)"
          ]
        ],
        [
          "OH",
          [
            "/wiki/Ohio"
          ]
        ],
        [
          "1909-1989",
          []
        ],
        [
          "1966-1979",
          []
        ],
        [
          "1975-1977",
          []
        ],
        [
          "1979-1989",
          []
        ],
        [
          "L. Johnson",
          [
            "/wiki/List_of_federal_judges_appointed_by_Lyndon_B._Johnson"
          ]
        ],
        [
          "death",
          []
        ]
      ],
      [
        [
          "19",
          []
        ],
        [
          "David Stewart Porter",
          [
            "/wiki/David_Stewart_Porter"
          ]
        ],
        [
          "OH",
          [
            "/wiki/Ohio"
          ]
        ],
        [
          "1909-1989",
          []
        ],
        [
          "1966-1979",
          []
        ],
        [
          "1977-1979",
          []
        ],
        [
          "1979-1989",
          []
        ],
        [
          "L. Johnson",
          [
            "/wiki/List_of_federal_judges_appointed_by_Lyndon_B._Johnson"
          ]
        ],
        [
          "death",
          []
        ]
      ],
      [
        [
          "20",
          []
        ],
        [
          "Carl Bernard Rubin",
          [
            "/wiki/Carl_Bernard_Rubin"
          ]
        ],
        [
          "OH",
          [
            "/wiki/Ohio"
          ]
        ],
        [
          "1920-1995",
          []
        ],
        [
          "1971-1995",
          []
        ],
        [
          "1979-1990",
          []
        ],
        [
          "-",
          []
        ],
        [
          "Nixon",
          [
            "/wiki/List_of_federal_judges_appointed_by_Richard_Nixon"
          ]
        ],
        [
          "death",
          []
        ]
      ]
    ],
    "section_title": "Former judges",
    "section_text": "",
    "uid": "United_States_District_Court_for_the_Southern_District_of_Ohio_1",
    "intro": "The United States District Court for the Southern District of Ohio (in case citations, S.D. Ohio) is one of two United States district courts in Ohio and includes forty-eight of the state's eighty-eight counties. Appeals from the court are taken to the United States Court of Appeals for the Sixth Circuit at Cincinnati (except for patent claims and claims against the U.S. government under the Tucker Act, which are appealed to the Federal Circuit). The court is divided into two divisions. The Eastern Division, which sits in the Joseph P. Kinneary United States Courthouse at Columbus, serves the counties of Athens, Belmont, Coshocton, Delaware, Fairfield, Fayette, Franklin, Gallia, Guernsey, Harrison, Hocking, Jackson, Jefferson, Knox, Licking, Logan, Madison, Meigs, Monroe, Morgan, Morrow, Muskingum, Noble, Perry, Pickaway, Pike, Ross, Union, Vinton, and Washington\n The Western Division sits at both Cincinnati and Dayton. Cases from the counties of Adams, Brown, Butler, Clermont, Clinton, Hamilton, Highland, Lawrence, Scioto, and Warren are heard at Cincinnati in the Potter Stewart United States Courthouse. Cases from the counties of Champaign, Clark, Darke, Greene, Miami, Montgomery, Preble, and Shelby are heard at Dayton. The United States Attorney's Office of the Southern District of Ohio represents the United States in civil and criminal litigation in the court. As of October 28, 2019, the United States Attorney is David M. DeVillers. On February 12, 2014, Peter C. Tobin was confirmed to be the United States Marshal."
  },
  "List_of_Presidents_of_the_New_Progressive_Party_of_Puerto_Rico_0": {
    "url": "https://en.wikipedia.org/wiki/List_of_presidents_of_the_New_Progressive_Party_(Puerto_Rico)",
    "title": "List of presidents of the New Progressive Party (Puerto Rico)",
    "header": [
      [
        "#",
        []
      ],
      [
        "Name",
        []
      ],
      [
        "Term start",
        []
      ],
      [
        "Term end",
        []
      ],
      [
        "Previous public posts",
        []
      ]
    ],
    "data": [
      [
        [
          "1",
          []
        ],
        [
          "Luis A. Ferr\u00e9",
          [
            "/wiki/Luis_A._Ferr\u00e9"
          ]
        ],
        [
          "1967",
          []
        ],
        [
          "1974",
          []
        ],
        [
          "President of the Puerto Rico Senate Governor",
          [
            "/wiki/President_of_the_Senate_of_Puerto_Rico",
            "/wiki/Governor_of_Puerto_Rico"
          ]
        ]
      ],
      [
        [
          "2",
          []
        ],
        [
          "Carlos Romero Barcel\u00f3",
          [
            "/wiki/Carlos_Romero_Barcel\u00f3"
          ]
        ],
        [
          "1974",
          []
        ],
        [
          "1987",
          []
        ],
        [
          "Mayor of San Juan Governor Resident Commissioner",
          [
            "/wiki/List_of_mayors_of_San_Juan,_Puerto_Rico",
            "/wiki/Governor_of_Puerto_Rico",
            "/wiki/Resident_Commissioner_of_Puerto_Rico"
          ]
        ]
      ],
      [
        [
          "3",
          []
        ],
        [
          "Baltasar Corrada del R\u00edo",
          [
            "/wiki/Baltasar_Corrada_del_R\u00edo"
          ]
        ],
        [
          "1987",
          []
        ],
        [
          "1988",
          []
        ],
        [
          "Resident Commissioner of Puerto Rico Mayor of San Juan Secretary of State Associate Justice of the Puerto Rico Supreme Court",
          [
            "/wiki/Resident_Commissioner_of_Puerto_Rico",
            "/wiki/List_of_mayors_of_San_Juan,_Puerto_Rico",
            "/wiki/Secretary_of_State_of_Puerto_Rico",
            "/wiki/Supreme_Court_of_Puerto_Rico"
          ]
        ]
      ],
      [
        [
          "4",
          []
        ],
        [
          "Ram\u00f3n Luis Rivera",
          [
            "/wiki/Ram\u00f3n_Luis_Rivera"
          ]
        ],
        [
          "1988",
          []
        ],
        [
          "1989",
          []
        ],
        [
          "Puerto Rico House of Representatives Mayor of Bayam\u00f3n",
          [
            "/wiki/House_of_Representatives_of_Puerto_Rico",
            "/wiki/Bayam\u00f3n,_Puerto_Rico"
          ]
        ]
      ],
      [
        [
          "5",
          []
        ],
        [
          "Carlos Romero Barcel\u00f3",
          [
            "/wiki/Carlos_Romero_Barcel\u00f3"
          ]
        ],
        [
          "1989",
          []
        ],
        [
          "1991",
          []
        ],
        [
          "Mayor of San Juan Governor Resident Commissioner",
          [
            "/wiki/List_of_mayors_of_San_Juan,_Puerto_Rico",
            "/wiki/Governor_of_Puerto_Rico",
            "/wiki/Resident_Commissioner_of_Puerto_Rico"
          ]
        ]
      ],
      [
        [
          "6",
          []
        ],
        [
          "Pedro Rossell\u00f3",
          [
            "/wiki/Pedro_Rossell\u00f3"
          ]
        ],
        [
          "1991",
          []
        ],
        [
          "1999",
          []
        ],
        [
          "Governor Puerto Rico Senate",
          [
            "/wiki/Governor_of_Puerto_Rico",
            "/wiki/Senate_of_Puerto_Rico"
          ]
        ]
      ],
      [
        [
          "7",
          []
        ],
        [
          "Carlos Pesquera",
          [
            "/wiki/Carlos_Pesquera"
          ]
        ],
        [
          "1999",
          []
        ],
        [
          "2000",
          []
        ],
        [
          "Secretary of Transportation",
          [
            "/wiki/Secretary_of_Transportation_and_Public_Works_of_Puerto_Rico"
          ]
        ]
      ],
      [
        [
          "8",
          []
        ],
        [
          "Norma Burgos",
          [
            "/wiki/Norma_Burgos"
          ]
        ],
        [
          "2000",
          []
        ],
        [
          "2001",
          []
        ],
        [
          "Secretary of State Puerto Rico Senate",
          [
            "/wiki/Secretary_of_State_of_Puerto_Rico",
            "/wiki/Senate_of_Puerto_Rico"
          ]
        ]
      ],
      [
        [
          "9",
          []
        ],
        [
          "Leonides D\u00edaz Urbina",
          [
            "/wiki/Leo_D\u00edaz_Urbina"
          ]
        ],
        [
          "2001",
          []
        ],
        [
          "2001",
          []
        ],
        [
          "Puerto Rico House of Representatives",
          [
            "/wiki/House_of_Representatives_of_Puerto_Rico"
          ]
        ]
      ],
      [
        [
          "10",
          []
        ],
        [
          "Carlos Pesquera",
          [
            "/wiki/Carlos_Pesquera"
          ]
        ],
        [
          "2001",
          []
        ],
        [
          "2003",
          []
        ],
        [
          "Secretary of Transportation",
          [
            "/wiki/Secretary_of_Transportation_and_Public_Works_of_Puerto_Rico"
          ]
        ]
      ],
      [
        [
          "11",
          []
        ],
        [
          "Pedro Rossell\u00f3",
          [
            "/wiki/Pedro_Rossell\u00f3"
          ]
        ],
        [
          "2003",
          []
        ],
        [
          "2008",
          []
        ],
        [
          "Governor Puerto Rico Senate",
          [
            "/wiki/Governor_of_Puerto_Rico",
            "/wiki/Senate_of_Puerto_Rico"
          ]
        ]
      ],
      [
        [
          "12",
          []
        ],
        [
          "Luis Fortu\u00f1o",
          [
            "/wiki/Luis_Fortu\u00f1o"
          ]
        ],
        [
          "2008",
          []
        ],
        [
          "2013",
          []
        ],
        [
          "Resident Commissioner Governor",
          [
            "/wiki/Resident_Commissioner_of_Puerto_Rico",
            "/wiki/Governor_of_Puerto_Rico"
          ]
        ]
      ],
      [
        [
          "13",
          []
        ],
        [
          "Pedro Pierluisi",
          [
            "/wiki/Pedro_Pierluisi"
          ]
        ],
        [
          "2013",
          []
        ],
        [
          "2016",
          []
        ],
        [
          "Secretary of Justice Resident Commissioner",
          [
            "/wiki/Secretary_of_Justice_of_Puerto_Rico",
            "/wiki/Resident_Commissioner_of_Puerto_Rico"
          ]
        ]
      ],
      [
        [
          "14",
          []
        ],
        [
          "Ricardo Rossell\u00f3",
          [
            "/wiki/Ricardo_Rossell\u00f3"
          ]
        ],
        [
          "2016",
          []
        ],
        [
          "2019",
          []
        ],
        [
          "None",
          []
        ]
      ],
      [
        [
          "15",
          []
        ],
        [
          "Thomas Rivera Schatz",
          [
            "/wiki/Thomas_Rivera_Schatz"
          ]
        ],
        [
          "2019",
          []
        ],
        [
          "Present",
          []
        ],
        [
          "President Of The Puerto Rican Senate",
          [
            "/wiki/President_of_the_Senate_of_Puerto_Rico"
          ]
        ]
      ]
    ],
    "section_title": "List of presidents",
    "section_text": "",
    "uid": "List_of_Presidents_of_the_New_Progressive_Party_of_Puerto_Rico_0",
    "intro": "The New Progressive Party of Puerto Rico was founded in 1967. Since then, the party has been led by 10 different presidents in 13 terms of leadership. Every president of the political party has held a position in the Puerto Rican government. The first president was Luis A. Ferr\u00e9, who served from 1967 to 1974. The presidents who served twice are: Carlos Romero Barcel\u00f3, who served from 1974 to 1987 and again from 1989 to 1991, Pedro Rossell\u00f3, who served from 1991 to 1999 and again from 2003 to 2008 and Carlos Pesquera who served from 1999 to 2000 and again from 2001 to 2003. The current acting president of the New Progressive Party is Thomas Rivera Schatz."
  },
  "Swimming_at_the_2006_Central_American_and_Caribbean_Games_\u2013_Men's_200_metre_backstroke_1": {
    "url": "https://en.wikipedia.org/wiki/Swimming_at_the_2006_Central_American_and_Caribbean_Games_\u2013_Men's_200_metre_backstroke",
    "title": "Swimming at the 2006 Central American and Caribbean Games \u2013 Men's 200 metre backstroke",
    "header": [
      [
        "Place",
        []
      ],
      [
        "Swimmer",
        []
      ],
      [
        "Country",
        []
      ],
      [
        "Time",
        []
      ]
    ],
    "data": [
      [
        [
          "1",
          []
        ],
        [
          "Nicholas Neckles",
          [
            "/wiki/Nicholas_Neckles"
          ]
        ],
        [
          "Barbados",
          []
        ],
        [
          "2:00.85",
          []
        ]
      ],
      [
        [
          "2",
          []
        ],
        [
          "Omar Pinz\u00f3n",
          [
            "/wiki/Omar_Pinz\u00f3n"
          ]
        ],
        [
          "Colombia",
          []
        ],
        [
          "2:03.60",
          []
        ]
      ],
      [
        [
          "3",
          []
        ],
        [
          "David Rodriguez",
          []
        ],
        [
          "Cuba",
          []
        ],
        [
          "2:05.37",
          []
        ]
      ],
      [
        [
          "4",
          []
        ],
        [
          "Miguel Robles",
          [
            "/wiki/Miguel_Robles_(swimmer)"
          ]
        ],
        [
          "Mexico",
          []
        ],
        [
          "2:05.45",
          []
        ]
      ],
      [
        [
          "5",
          []
        ],
        [
          "Nicholas Bovell",
          [
            "/wiki/Nicholas_Bovell"
          ]
        ],
        [
          "Trinidad and Tobago",
          []
        ],
        [
          "2:06.62",
          []
        ]
      ],
      [
        [
          "6",
          []
        ],
        [
          "Guillermo Ram\u00edrez",
          []
        ],
        [
          "Colombia",
          []
        ],
        [
          "2:06.81",
          []
        ]
      ],
      [
        [
          "7",
          []
        ],
        [
          "Reymer Vezga",
          []
        ],
        [
          "Venezuela",
          []
        ],
        [
          "2:07.15",
          []
        ]
      ],
      [
        [
          "8",
          []
        ],
        [
          "Kieran Locke",
          [
            "/wiki/Kieran_Locke"
          ]
        ],
        [
          "Virgin Islands",
          []
        ],
        [
          "2:09.77",
          []
        ]
      ]
    ],
    "section_title": "Results -- Final",
    "section_text": "",
    "uid": "Swimming_at_the_2006_Central_American_and_Caribbean_Games_\u2013_Men's_200_metre_backstroke_1",
    "intro": "The men's 200m Backstroke event at the 2006 Central American and Caribbean Games occurred on Monday, July 17, 2006 at the S.U. Pedro de Heredia Aquatic Complex in Cartagena, Colombia."
  },
  "List_of_state_visits_received_by_King_Carl_XVI_Gustaf_of_Sweden_0": {
    "url": "https://en.wikipedia.org/wiki/List_of_state_visits_received_by_King_Carl_XVI_Gustaf_of_Sweden",
    "title": "List of state visits received by King Carl XVI Gustaf of Sweden",
    "header": [
      [
        "Date \u00b4",
        []
      ],
      [
        "Country",
        []
      ],
      [
        "Guests",
        []
      ]
    ],
    "data": [
      [
        [
          "21-24 October 1975",
          []
        ],
        [
          "Finland",
          [
            "/wiki/Finland"
          ]
        ],
        [
          "President Urho Kekkonen",
          [
            "/wiki/Urho_Kekkonen"
          ]
        ]
      ],
      [
        [
          "25-28 November 1975",
          []
        ],
        [
          "Norway",
          [
            "/wiki/Norway"
          ]
        ],
        [
          "King Olav V",
          [
            "/wiki/Olav_V_of_Norway"
          ]
        ]
      ],
      [
        [
          "29-30 March 1976",
          []
        ],
        [
          "Yugoslavia",
          [
            "/wiki/Socialist_Federal_Republic_of_Yugoslavia"
          ]
        ],
        [
          "President Tito",
          [
            "/wiki/Josip_Broz_Tito"
          ]
        ]
      ],
      [
        [
          "18-19 May 1976",
          []
        ],
        [
          "Austria",
          [
            "/wiki/Austria"
          ]
        ],
        [
          "President Rudolf Kirchschl\u00e4ger",
          [
            "/wiki/Rudolf_Kirchschl\u00e4ger"
          ]
        ]
      ],
      [
        [
          "16-19 October 1979",
          []
        ],
        [
          "Spain",
          [
            "/wiki/Spain"
          ]
        ],
        [
          "King Juan Carlos I and Queen Sofia",
          [
            "/wiki/Juan_Carlos_I_of_Spain",
            "/wiki/Queen_Sof\u00eda_of_Spain"
          ]
        ]
      ],
      [
        [
          "22-25 May 1980",
          []
        ],
        [
          "Mexico",
          [
            "/wiki/Mexico"
          ]
        ],
        [
          "President Jos\u00e9 L\u00f3pez Portillo",
          [
            "/wiki/Jos\u00e9_L\u00f3pez_Portillo"
          ]
        ]
      ],
      [
        [
          "6-9 November 1980",
          []
        ],
        [
          "Romania",
          [
            "/wiki/Romania"
          ]
        ],
        [
          "President Nicolae Ceausescu",
          [
            "/wiki/Nicolae_Ceau\u0219escu"
          ]
        ]
      ],
      [
        [
          "18-20 May 1981",
          []
        ],
        [
          "Canada",
          [
            "/wiki/Canada"
          ]
        ],
        [
          "Governor General Edward Schreyer",
          [
            "/wiki/Edward_Schreyer"
          ]
        ]
      ],
      [
        [
          "26-29 October 1981",
          []
        ],
        [
          "Iceland",
          [
            "/wiki/Iceland"
          ]
        ],
        [
          "President Vigd\u00eds Finnbogad\u00f3ttir",
          [
            "/wiki/Vigd\u00eds_Finnbogad\u00f3ttir"
          ]
        ]
      ],
      [
        [
          "27-29 April 1982",
          []
        ],
        [
          "Finland",
          [
            "/wiki/Finland"
          ]
        ],
        [
          "President Mauno Koivisto",
          [
            "/wiki/Mauno_Koivisto"
          ]
        ]
      ],
      [
        [
          "25-28 May 1983",
          []
        ],
        [
          "United Kingdom",
          [
            "/wiki/United_Kingdom"
          ]
        ],
        [
          "Queen Elizabeth II and Prince Philip , Duke of Edinburgh",
          [
            "/wiki/Elizabeth_II",
            "/wiki/Prince_Philip,_Duke_of_Edinburgh"
          ]
        ]
      ],
      [
        [
          "16-18 May 1984",
          []
        ],
        [
          "France",
          [
            "/wiki/France"
          ]
        ],
        [
          "President Francois Mitterrand",
          [
            "/wiki/Fran\u00e7ois_Mitterrand"
          ]
        ]
      ],
      [
        [
          "12-14 February 1985",
          []
        ],
        [
          "Zambia",
          [
            "/wiki/Zambia"
          ]
        ],
        [
          "President Kenneth Kaunda",
          [
            "/wiki/Kenneth_Kaunda"
          ]
        ]
      ],
      [
        [
          "22-24 April 1985",
          []
        ],
        [
          "Switzerland",
          [
            "/wiki/Switzerland"
          ]
        ],
        [
          "Swiss Federal Council",
          [
            "/wiki/Federal_Council_(Switzerland)"
          ]
        ]
      ],
      [
        [
          "4-6 June 1985",
          []
        ],
        [
          "Japan",
          [
            "/wiki/Japan"
          ]
        ],
        [
          "Crown Prince Akihito and Crown Princess Michiko",
          [
            "/wiki/Akihito",
            "/wiki/Empress_Michiko"
          ]
        ]
      ],
      [
        [
          "3-6 September 1985",
          []
        ],
        [
          "Denmark",
          [
            "/wiki/Denmark"
          ]
        ],
        [
          "Queen Margrethe II and Prince Henrik",
          [
            "/wiki/Margrethe_II_of_Denmark",
            "/wiki/Henrik,_Prince_Consort_of_Denmark"
          ]
        ]
      ],
      [
        [
          "22-24 April 1986",
          []
        ],
        [
          "Algeria",
          [
            "/wiki/Algeria"
          ]
        ],
        [
          "President Chadli Bendjedid",
          [
            "/wiki/Chadli_Bendjedid"
          ]
        ]
      ],
      [
        [
          "29 September-5 October 1986",
          []
        ],
        [
          "Portugal",
          [
            "/wiki/Portugal"
          ]
        ],
        [
          "President M\u00e1rio Soares",
          [
            "/wiki/M\u00e1rio_Soares"
          ]
        ]
      ],
      [
        [
          "1-6 November 1986",
          []
        ],
        [
          "Egypt",
          [
            "/wiki/Egypt"
          ]
        ],
        [
          "President Hosni Mubarak",
          [
            "/wiki/Hosni_Mubarak"
          ]
        ]
      ],
      [
        [
          "21-23 May 1987",
          []
        ],
        [
          "Netherlands",
          [
            "/wiki/Netherlands"
          ]
        ],
        [
          "Queen Beatrix and Prince Claus",
          [
            "/wiki/Beatrix_of_the_Netherlands",
            "/wiki/Prince_Claus_of_the_Netherlands"
          ]
        ]
      ]
    ],
    "section_title": "Visits",
    "section_text": "",
    "uid": "List_of_state_visits_received_by_King_Carl_XVI_Gustaf_of_Sweden_0",
    "intro": "Since acceding to the throne of Sweden in 1973, King Carl XVI Gustaf of Sweden has received a number of state and official visits. He usually hosts one or two visiting heads of state each year."
  },
  "Progression_of_Latvia_association_football_goalscoring_record_0": {
    "url": "https://en.wikipedia.org/wiki/Progression_of_Latvia_association_football_goalscoring_record",
    "title": "Progression of Latvia association football goalscoring record",
    "header": [
      [
        "Player",
        []
      ],
      [
        "Goals",
        []
      ],
      [
        "Date",
        []
      ],
      [
        "Opponent",
        []
      ],
      [
        "Score",
        []
      ]
    ],
    "data": [
      [
        [
          "Edv\u012bns B\u0101rda",
          [
            "/wiki/Edv\u012bns_B\u0101rda"
          ]
        ],
        [
          "1",
          []
        ],
        [
          "1922-09-24",
          []
        ],
        [
          "Estonia",
          [
            "/wiki/Estonia_national_football_team"
          ]
        ],
        [
          "1-1",
          []
        ]
      ],
      [
        [
          "Arv\u012bds B\u0101rda",
          [
            "/wiki/Arv\u012bds_B\u0101rda"
          ]
        ],
        [
          "1",
          []
        ],
        [
          "1923-07-24",
          []
        ],
        [
          "Estonia",
          [
            "/wiki/Estonia_national_football_team"
          ]
        ],
        [
          "1-1",
          []
        ]
      ],
      [
        [
          "Edv\u012bns B\u0101rda",
          [
            "/wiki/Edv\u012bns_B\u0101rda"
          ]
        ],
        [
          "2",
          []
        ],
        [
          "1924-06-22",
          []
        ],
        [
          "Turkey",
          [
            "/wiki/Turkey_national_football_team"
          ]
        ],
        [
          "1-3",
          []
        ]
      ],
      [
        [
          "Arv\u012bds B\u0101rda",
          [
            "/wiki/Arv\u012bds_B\u0101rda"
          ]
        ],
        [
          "2",
          []
        ],
        [
          "1924-08-16",
          []
        ],
        [
          "Lithuania",
          [
            "/wiki/Lithuania_national_football_team"
          ]
        ],
        [
          "4-2",
          []
        ]
      ],
      [
        [
          "Aleksandrs \u0100brams",
          [
            "/wiki/Aleksandrs_\u0100brams"
          ]
        ],
        [
          "2",
          []
        ],
        [
          "1924-10-18",
          []
        ],
        [
          "Estonia",
          [
            "/wiki/Estonia_national_football_team"
          ]
        ],
        [
          "2-0",
          []
        ]
      ],
      [
        [
          "Edv\u012bns B\u0101rda",
          [
            "/wiki/Edv\u012bns_B\u0101rda"
          ]
        ],
        [
          "3",
          []
        ],
        [
          "1924-10-18",
          []
        ],
        [
          "Estonia",
          [
            "/wiki/Estonia_national_football_team"
          ]
        ],
        [
          "2-0",
          []
        ]
      ],
      [
        [
          "Arnolds Tauri\u0146\u0161",
          [
            "/wiki/Arnolds_Tauri\u0146\u0161"
          ]
        ],
        [
          "3",
          []
        ],
        [
          "1925-08-26",
          []
        ],
        [
          "Estonia",
          [
            "/wiki/Estonia_national_football_team"
          ]
        ],
        [
          "2-2",
          []
        ]
      ],
      [
        [
          "Edv\u012bns B\u0101rda",
          [
            "/wiki/Edv\u012bns_B\u0101rda"
          ]
        ],
        [
          "4",
          []
        ],
        [
          "1925-09-20",
          []
        ],
        [
          "Lithuania",
          [
            "/wiki/Lithuania_national_football_team"
          ]
        ],
        [
          "2-2",
          []
        ]
      ],
      [
        [
          "Edv\u012bns B\u0101rda",
          [
            "/wiki/Edv\u012bns_B\u0101rda"
          ]
        ],
        [
          "5",
          []
        ],
        [
          "1925-09-20",
          []
        ],
        [
          "Lithuania",
          [
            "/wiki/Lithuania_national_football_team"
          ]
        ],
        [
          "2-2",
          []
        ]
      ],
      [
        [
          "Voldem\u0101rs Plade",
          [
            "/wiki/Voldem\u0101rs_Plade"
          ]
        ],
        [
          "5",
          []
        ],
        [
          "1927-09-25",
          []
        ],
        [
          "Estonia",
          [
            "/wiki/Estonia_national_football_team"
          ]
        ],
        [
          "4-1",
          []
        ]
      ],
      [
        [
          "Arnolds Tauri\u0146\u0161",
          [
            "/wiki/Arnolds_Tauri\u0146\u0161"
          ]
        ],
        [
          "5",
          []
        ],
        [
          "1928-07-27",
          []
        ],
        [
          "Estonia",
          [
            "/wiki/Estonia_national_football_team"
          ]
        ],
        [
          "1-0",
          []
        ]
      ],
      [
        [
          "Ark\u0101dijs Pavlovs",
          [
            "/wiki/Ark\u0101dijs_Pavlovs"
          ]
        ],
        [
          "5",
          []
        ],
        [
          "1928-08-19",
          []
        ],
        [
          "Finland",
          [
            "/wiki/Finland_national_football_team"
          ]
        ],
        [
          "2-1",
          []
        ]
      ],
      [
        [
          "Ark\u0101dijs Pavlovs",
          [
            "/wiki/Ark\u0101dijs_Pavlovs"
          ]
        ],
        [
          "6",
          []
        ],
        [
          "1928-08-19",
          []
        ],
        [
          "Finland",
          [
            "/wiki/Finland_national_football_team"
          ]
        ],
        [
          "2-1",
          []
        ]
      ],
      [
        [
          "Voldem\u0101rs Plade",
          [
            "/wiki/Voldem\u0101rs_Plade"
          ]
        ],
        [
          "6",
          []
        ],
        [
          "1928-09-23",
          []
        ],
        [
          "Estonia",
          [
            "/wiki/Estonia_national_football_team"
          ]
        ],
        [
          "1-1",
          []
        ]
      ],
      [
        [
          "Voldem\u0101rs Plade",
          [
            "/wiki/Voldem\u0101rs_Plade"
          ]
        ],
        [
          "7",
          []
        ],
        [
          "1929-08-14",
          []
        ],
        [
          "Lithuania",
          [
            "/wiki/Lithuania_national_football_team"
          ]
        ],
        [
          "3-1",
          []
        ]
      ],
      [
        [
          "Voldem\u0101rs Plade",
          [
            "/wiki/Voldem\u0101rs_Plade"
          ]
        ],
        [
          "8",
          []
        ],
        [
          "1929-08-14",
          []
        ],
        [
          "Lithuania",
          [
            "/wiki/Lithuania_national_football_team"
          ]
        ],
        [
          "3-1",
          []
        ]
      ],
      [
        [
          "Voldem\u0101rs Plade",
          [
            "/wiki/Voldem\u0101rs_Plade"
          ]
        ],
        [
          "9",
          []
        ],
        [
          "1929-08-14",
          []
        ],
        [
          "Lithuania",
          [
            "/wiki/Lithuania_national_football_team"
          ]
        ],
        [
          "3-1",
          []
        ]
      ],
      [
        [
          "\u0112riks P\u0113tersons",
          [
            "/wiki/\u0112riks_P\u0113tersons"
          ]
        ],
        [
          "9",
          []
        ],
        [
          "1931-06-30",
          []
        ],
        [
          "Lithuania",
          [
            "/wiki/Lithuania_national_football_team"
          ]
        ],
        [
          "5-2",
          []
        ]
      ],
      [
        [
          "\u0112riks P\u0113tersons",
          [
            "/wiki/\u0112riks_P\u0113tersons"
          ]
        ],
        [
          "10",
          []
        ],
        [
          "1931-06-30",
          []
        ],
        [
          "Lithuania",
          [
            "/wiki/Lithuania_national_football_team"
          ]
        ],
        [
          "5-2",
          []
        ]
      ],
      [
        [
          "\u0112riks P\u0113tersons",
          [
            "/wiki/\u0112riks_P\u0113tersons"
          ]
        ],
        [
          "11",
          []
        ],
        [
          "1931-08-31",
          []
        ],
        [
          "Lithuania",
          [
            "/wiki/Lithuania_national_football_team"
          ]
        ],
        [
          "1-0",
          []
        ]
      ]
    ],
    "section_title": "Latvia record",
    "section_text": "",
    "uid": "Progression_of_Latvia_association_football_goalscoring_record_0",
    "intro": "This is a progressive list of association footballers who have held or co-held the record for international goals for the Latvia national football team, beginning with Edv\u012bns B\u0101rda who scored the first goal."
  },
  "Liberal_Party_of_Canada_candidates,_2008_Canadian_federal_election_7": {
    "url": "https://en.wikipedia.org/wiki/Liberal_Party_of_Canada_candidates_in_the_2008_Canadian_federal_election",
    "title": "Liberal Party of Canada candidates in the 2008 Canadian federal election",
    "header": [
      [
        "Riding",
        []
      ],
      [
        "Candidate 's Name",
        []
      ],
      [
        "Gender",
        []
      ],
      [
        "Residence",
        []
      ],
      [
        "Occupation",
        []
      ],
      [
        "Votes",
        []
      ],
      [
        "%",
        []
      ],
      [
        "Rank",
        []
      ]
    ],
    "data": [
      [
        [
          "Battlefords - Lloydminster",
          [
            "/wiki/Battlefords\u2014Lloydminster"
          ]
        ],
        [
          "Greg Nyholt",
          []
        ],
        [
          "M",
          []
        ],
        [
          "North Battleford",
          [
            "/wiki/North_Battleford"
          ]
        ],
        [
          "Farmer",
          []
        ],
        [
          "2,140",
          []
        ],
        [
          "8.2%",
          []
        ],
        [
          "3rd",
          []
        ]
      ],
      [
        [
          "Blackstrap",
          [
            "/wiki/Blackstrap_(electoral_district)"
          ]
        ],
        [
          "Deb Ehmann",
          []
        ],
        [
          "F",
          []
        ],
        [
          "Saskatoon",
          [
            "/wiki/Saskatoon"
          ]
        ],
        [
          "Human Resource Manager",
          []
        ],
        [
          "5,509",
          []
        ],
        [
          "14.3%",
          []
        ],
        [
          "3rd",
          []
        ]
      ],
      [
        [
          "Cypress Hills - Grasslands",
          [
            "/wiki/Cypress_Hills\u2014Grasslands"
          ]
        ],
        [
          "Duane Filson",
          []
        ],
        [
          "M",
          []
        ],
        [
          "Woodrow",
          [
            "/wiki/Woodrow,_Saskatchewan"
          ]
        ],
        [
          "Farmer",
          []
        ],
        [
          "3,691",
          []
        ],
        [
          "13.3%",
          []
        ],
        [
          "3rd",
          []
        ]
      ],
      [
        [
          "Desneth\u00e9 - Missinippi - Churchill River",
          [
            "/wiki/Desneth\u00e9\u2014Missinippi\u2014Churchill_River"
          ]
        ],
        [
          "David Orchard",
          [
            "/wiki/David_Orchard"
          ]
        ],
        [
          "M",
          []
        ],
        [
          "Borden",
          [
            "/wiki/Borden,_Saskatchewan"
          ]
        ],
        [
          "Farmer",
          []
        ],
        [
          "5,816",
          []
        ],
        [
          "30.3%",
          []
        ],
        [
          "2nd",
          []
        ]
      ],
      [
        [
          "Palliser",
          [
            "/wiki/Palliser_(Saskatchewan_electoral_district)"
          ]
        ],
        [
          "Calvin Johnston",
          []
        ],
        [
          "M",
          []
        ],
        [
          "Regina",
          [
            "/wiki/Regina,_Saskatchewan"
          ]
        ],
        [
          "Former Police Chief",
          []
        ],
        [
          "5,489",
          []
        ],
        [
          "17.1%",
          []
        ],
        [
          "3rd",
          []
        ]
      ],
      [
        [
          "Prince Albert",
          [
            "/wiki/Prince_Albert_(electoral_district)"
          ]
        ],
        [
          "Lou Doderai",
          []
        ],
        [
          "M",
          []
        ],
        [
          "Prince Albert",
          [
            "/wiki/Prince_Albert,_Saskatchewan"
          ]
        ],
        [
          "Realtor",
          []
        ],
        [
          "2,289",
          []
        ],
        [
          "8.0%",
          []
        ],
        [
          "3rd",
          []
        ]
      ],
      [
        [
          "Regina - Lumsden - Lake Centre",
          [
            "/wiki/Regina\u2014Lumsden\u2014Lake_Centre"
          ]
        ],
        [
          "Monica Lysack",
          []
        ],
        [
          "F",
          []
        ],
        [
          "Regina",
          [
            "/wiki/Regina,_Saskatchewan"
          ]
        ],
        [
          "Early Childhood Educator",
          []
        ],
        [
          "4,668",
          []
        ],
        [
          "14.9%",
          []
        ],
        [
          "3rd",
          []
        ]
      ],
      [
        [
          "Regina - Qu'Appelle",
          [
            "/wiki/Regina\u2014Qu'Appelle"
          ]
        ],
        [
          "Rod Flaman",
          []
        ],
        [
          "M",
          []
        ],
        [
          "Edenwold",
          [
            "/wiki/Edenwold"
          ]
        ],
        [
          "Farmer",
          []
        ],
        [
          "2,809",
          []
        ],
        [
          "10.4%",
          []
        ],
        [
          "3rd",
          []
        ]
      ],
      [
        [
          "Saskatoon - Humboldt",
          [
            "/wiki/Saskatoon\u2014Humboldt"
          ]
        ],
        [
          "Karen Parhar",
          []
        ],
        [
          "F",
          []
        ],
        [
          "Saskatoon",
          [
            "/wiki/Saskatoon"
          ]
        ],
        [
          "Sessional Lecturer",
          []
        ],
        [
          "4,135",
          []
        ],
        [
          "12.0%",
          []
        ],
        [
          "3rd",
          []
        ]
      ],
      [
        [
          "Saskatoon - Rosetown - Biggar",
          [
            "/wiki/Saskatoon\u2014Rosetown\u2014Biggar"
          ]
        ],
        [
          "Roy Bluehorn",
          []
        ],
        [
          "M",
          []
        ],
        [
          "Saskatoon",
          [
            "/wiki/Saskatoon"
          ]
        ],
        [
          "Case Review Officer",
          []
        ],
        [
          "1,188",
          []
        ],
        [
          "4.4%",
          []
        ],
        [
          "4th",
          []
        ]
      ],
      [
        [
          "Saskatoon - Wanuskewin",
          [
            "/wiki/Saskatoon\u2014Wanuskewin"
          ]
        ],
        [
          "Patricia Zipchen",
          []
        ],
        [
          "F",
          []
        ],
        [
          "Saskatoon",
          [
            "/wiki/Saskatoon"
          ]
        ],
        [
          "Nurse",
          []
        ],
        [
          "4,020",
          []
        ],
        [
          "12.4%",
          []
        ],
        [
          "3rd",
          []
        ]
      ],
      [
        [
          "Souris - Moose Mountain",
          [
            "/wiki/Souris\u2014Moose_Mountain"
          ]
        ],
        [
          "Marlin Belt",
          []
        ],
        [
          "M",
          []
        ],
        [
          "Regina",
          [
            "/wiki/Regina,_Saskatchewan"
          ]
        ],
        [
          "Project Manager",
          []
        ],
        [
          "1,834",
          []
        ],
        [
          "6.7%",
          []
        ],
        [
          "3rd",
          []
        ]
      ],
      [
        [
          "Wascana",
          [
            "/wiki/Regina\u2014Wascana"
          ]
        ],
        [
          "Ralph Goodale",
          [
            "/wiki/Ralph_Goodale"
          ]
        ],
        [
          "M",
          []
        ],
        [
          "Regina",
          [
            "/wiki/Regina,_Saskatchewan"
          ]
        ],
        [
          "Business Person",
          []
        ],
        [
          "17,028",
          []
        ],
        [
          "46.1%",
          []
        ],
        [
          "1st",
          []
        ]
      ],
      [
        [
          "Yorkton - Melville",
          [
            "/wiki/Yorkton\u2014Melville"
          ]
        ],
        [
          "Bryan Bell",
          []
        ],
        [
          "M",
          []
        ],
        [
          "Regina",
          [
            "/wiki/Regina,_Saskatchewan"
          ]
        ],
        [
          "Manager",
          []
        ],
        [
          "1,578",
          []
        ],
        [
          "5.4%",
          []
        ],
        [
          "4th",
          []
        ]
      ]
    ],
    "section_title": "Saskatchewan - 14 seats",
    "section_text": "",
    "uid": "Liberal_Party_of_Canada_candidates,_2008_Canadian_federal_election_7",
    "intro": "This is a list of nominated candidates for the Liberal Party of Canada in the 40th Canadian federal election."
  },
  "World_heavyweight_boxing_championship_records_and_statistics_10": {
    "url": "https://en.wikipedia.org/wiki/World_heavyweight_boxing_championship_records_and_statistics",
    "title": "World heavyweight boxing championship records and statistics",
    "header": [
      [
        "Pos",
        []
      ],
      [
        "Name",
        []
      ],
      [
        "Combined reign",
        []
      ],
      [
        "Days as champion",
        []
      ],
      [
        "Number of reigns",
        []
      ],
      [
        "Title recognition",
        []
      ]
    ],
    "data": [
      [
        [
          "1",
          []
        ],
        [
          "Wladimir Klitschko",
          [
            "/wiki/Wladimir_Klitschko"
          ]
        ],
        [
          "12 years , 0 months , 0 days",
          []
        ],
        [
          "4 382",
          []
        ],
        [
          "2",
          []
        ],
        [
          "WBA , IBF , WBO",
          []
        ]
      ],
      [
        [
          "2",
          []
        ],
        [
          "Joe Louis",
          [
            "/wiki/Joe_Louis"
          ]
        ],
        [
          "11 years , 8 months , 8 days",
          []
        ],
        [
          "4 270",
          []
        ],
        [
          "1",
          []
        ],
        [
          "NYSAC , NBA",
          []
        ]
      ],
      [
        [
          "3",
          []
        ],
        [
          "Muhammad Ali",
          [
            "/wiki/Muhammad_Ali"
          ]
        ],
        [
          "9 years , 5 months , 5 days",
          []
        ],
        [
          "3 443",
          []
        ],
        [
          "3",
          []
        ],
        [
          "NYSAC , WBA , WBC",
          []
        ]
      ],
      [
        [
          "4",
          []
        ],
        [
          "Lennox Lewis",
          [
            "/wiki/Lennox_Lewis"
          ]
        ],
        [
          "8 years , 5 months , 13 days",
          []
        ],
        [
          "3 086",
          []
        ],
        [
          "3",
          []
        ],
        [
          "WBA , WBC , IBF",
          []
        ]
      ],
      [
        [
          "5",
          []
        ],
        [
          "Vitali Klitschko",
          [
            "/wiki/Vitali_Klitschko"
          ]
        ],
        [
          "7 years , 5 months , 28 days",
          []
        ],
        [
          "2 735",
          []
        ],
        [
          "3",
          []
        ],
        [
          "WBC , WBO",
          []
        ]
      ],
      [
        [
          "6",
          []
        ],
        [
          "Larry Holmes",
          [
            "/wiki/Larry_Holmes"
          ]
        ],
        [
          "7 years , 3 months , 12 days",
          []
        ],
        [
          "2 661",
          []
        ],
        [
          "1",
          []
        ],
        [
          "WBC , IBF",
          []
        ]
      ],
      [
        [
          "7",
          []
        ],
        [
          "Jack Dempsey",
          [
            "/wiki/Jack_Dempsey"
          ]
        ],
        [
          "7 years , 2 months , 19 days",
          []
        ],
        [
          "2 638",
          []
        ],
        [
          "1",
          []
        ],
        [
          "NYSAC , NBA",
          []
        ]
      ],
      [
        [
          "8",
          []
        ],
        [
          "John L. Sullivan",
          [
            "/wiki/John_L._Sullivan"
          ]
        ],
        [
          "7 years , 0 months , 10 days",
          []
        ],
        [
          "2 566",
          []
        ],
        [
          "1",
          []
        ],
        [
          "lineal",
          []
        ]
      ],
      [
        [
          "9",
          []
        ],
        [
          "Jack Johnson",
          [
            "/wiki/Jack_Johnson_(boxer)"
          ]
        ],
        [
          "6 years , 3 months , 11 days",
          []
        ],
        [
          "2 292",
          []
        ],
        [
          "1",
          []
        ],
        [
          "lineal",
          []
        ]
      ],
      [
        [
          "10",
          []
        ],
        [
          "Evander Holyfield",
          [
            "/wiki/Evander_Holyfield"
          ]
        ],
        [
          "6 years , 1 month , 1 day",
          []
        ],
        [
          "2 223",
          []
        ],
        [
          "4",
          []
        ],
        [
          "WBA , WBC , IBF",
          []
        ]
      ],
      [
        [
          "11",
          []
        ],
        [
          "James J. Jeffries",
          [
            "/wiki/James_J._Jeffries"
          ]
        ],
        [
          "5 years , 11 months , 4 days",
          []
        ],
        [
          "2 156",
          []
        ],
        [
          "1",
          []
        ],
        [
          "lineal",
          []
        ]
      ],
      [
        [
          "12",
          []
        ],
        [
          "Deontay Wilder",
          [
            "/wiki/Deontay_Wilder"
          ]
        ],
        [
          "5 years , 1 months , 5 days",
          []
        ],
        [
          "1 859",
          []
        ],
        [
          "1",
          []
        ],
        [
          "WBC",
          []
        ]
      ],
      [
        [
          "13",
          []
        ],
        [
          "Joe Frazier",
          [
            "/wiki/Joe_Frazier"
          ]
        ],
        [
          "4 years , 10 months , 18 days",
          []
        ],
        [
          "1 785",
          []
        ],
        [
          "1",
          []
        ],
        [
          "NYSAC , WBA , WBC",
          []
        ]
      ],
      [
        [
          "14",
          []
        ],
        [
          "Floyd Patterson",
          [
            "/wiki/Floyd_Patterson"
          ]
        ],
        [
          "4 years , 10 months , 0 days",
          []
        ],
        [
          "1 765",
          []
        ],
        [
          "2",
          []
        ],
        [
          "NYSAC , NBA",
          []
        ]
      ],
      [
        [
          "15",
          []
        ],
        [
          "James J. Corbett",
          [
            "/wiki/James_J._Corbett"
          ]
        ],
        [
          "4 years , 6 months , 10 days",
          []
        ],
        [
          "1 652",
          []
        ],
        [
          "1",
          []
        ],
        [
          "lineal",
          []
        ]
      ]
    ],
    "section_title": "Longest title reigns -- Combined reigns",
    "section_text": "The list does not include The Ring and lineal championship fights after 1921 . As of 22 February 2020 .",
    "uid": "World_heavyweight_boxing_championship_records_and_statistics_10",
    "intro": "At the beginnings of boxing, the heavyweight division had no weight limit and the category historically has been vaguely defined. In the 19th century, for example, many heavyweight champions weighed 170 pounds (12 st 2 lb, 77 kg) or less (although others weighed 200 pounds). The first heavyweight champion under the Marquess of Queensberry rules was John L. Sullivan, known as The Boston Strong Boy. He weighed around 200 pounds when in shape and was a bare-knuckle champion. He was defeated by Jim Corbett on September 7, 1892, in 21 rounds. In 1920, the minimum weight for a heavyweight was set at 175 pounds (12 st 7 lb, 79 kg), which today is the light heavyweight division maximum. Since 1980, for most boxing organizations, the maximum weight for a cruiserweight has been 200 pounds. Boxers who weigh 200 pounds and over (14 st 3 lb, 90 kg) are considered heavyweights by the major professional boxing organizations: the International Boxing Federation, the World Boxing Association, the World Boxing Council, and the World Boxing Organization. Since the 1960s, the heavyweight title has become fractured amongst various sanctioning organizations, and so what was once known as the single Heavyweight Champion, is now referred to as the Undisputed Champion as the one fighter that has defeated all the other titlists. However, there is no officially declared definition of the term, as major boxing organizations refer to all boxers holding at least two world titles in their respective division as Unified champions. Some title reigns are not recognized as official reigns due to long periods of inactivity, legitimacy of title, false billing and promotion. In March 1967, Muhammad Ali was systematically denied a boxing license in every state and stripped of his passport because of his refusal to be inducted into the armed forces."
  },
  "List_of_current_state_leaders_by_date_of_assumption_of_office_5": {
    "url": "https://en.wikipedia.org/wiki/List_of_current_state_leaders_by_date_of_assumption_of_office",
    "title": "List of current state leaders by date of assumption of office",
    "header": [
      [
        "Assumed Office",
        []
      ],
      [
        "Leader",
        []
      ],
      [
        "State",
        []
      ],
      [
        "Office",
        []
      ]
    ],
    "data": [
      [
        [
          "16 April 2010",
          []
        ],
        [
          "Sir Iakoba Italeli",
          [
            "/wiki/Iakoba_Italeli"
          ]
        ],
        [
          "Tuvalu",
          [
            "/wiki/Tuvalu"
          ]
        ],
        [
          "Governor-General",
          [
            "/wiki/Governor-General_of_Tuvalu"
          ]
        ]
      ],
      [
        [
          "29 May 2010",
          []
        ],
        [
          "Viktor Orb\u00e1n",
          [
            "/wiki/Viktor_Orb\u00e1n"
          ]
        ],
        [
          "Hungary",
          [
            "/wiki/Hungary"
          ]
        ],
        [
          "Prime Minister",
          [
            "/wiki/Prime_Minister_of_Hungary"
          ]
        ]
      ],
      [
        [
          "12 August 2010",
          []
        ],
        [
          "D\u00e9si Bouterse",
          [
            "/wiki/D\u00e9si_Bouterse"
          ]
        ],
        [
          "Suriname",
          [
            "/wiki/Suriname"
          ]
        ],
        [
          "President",
          [
            "/wiki/President_of_Suriname"
          ]
        ]
      ],
      [
        [
          "14 October 2010",
          []
        ],
        [
          "Mark Rutte",
          [
            "/wiki/Mark_Rutte"
          ]
        ],
        [
          "Netherlands",
          [
            "/wiki/Kingdom_of_the_Netherlands"
          ]
        ],
        [
          "Prime Minister",
          [
            "/wiki/Prime_Minister_of_the_Netherlands"
          ]
        ]
      ],
      [
        [
          "1 November 2010",
          []
        ],
        [
          "Simonetta Sommaruga",
          [
            "/wiki/Simonetta_Sommaruga"
          ]
        ],
        [
          "Switzerland",
          [
            "/wiki/Switzerland"
          ]
        ],
        [
          "Federal Councilor : 1 November 2010 - present President : 1 January 2015 - 31 December 2015 President : 1 January 2020 - present",
          [
            "/wiki/Federal_Council_(Switzerland)",
            "/wiki/President_of_the_Swiss_Confederation"
          ]
        ]
      ],
      [
        [
          "4 December 2010",
          []
        ],
        [
          "Alassane Ouattara",
          [
            "/wiki/Alassane_Ouattara"
          ]
        ],
        [
          "Ivory Coast",
          [
            "/wiki/Ivory_Coast"
          ]
        ],
        [
          "President",
          [
            "/wiki/List_of_heads_of_state_of_Ivory_Coast"
          ]
        ]
      ],
      [
        [
          "21 December 2010",
          []
        ],
        [
          "Alpha Cond\u00e9",
          [
            "/wiki/Alpha_Cond\u00e9"
          ]
        ],
        [
          "Guinea",
          [
            "/wiki/Guinea"
          ]
        ],
        [
          "President",
          [
            "/wiki/List_of_presidents_of_Guinea"
          ]
        ]
      ],
      [
        [
          "19 January 2011",
          []
        ],
        [
          "Nguy\u1ec5n Ph\u00fa Tr\u1ecdng",
          [
            "/wiki/Nguy\u1ec5n_Ph\u00fa_Tr\u1ecdng"
          ]
        ],
        [
          "Vietnam",
          [
            "/wiki/Vietnam"
          ]
        ],
        [
          "General Secretary of the Communist Party : 19 January 2011 - present President : 23 October 2018 - present",
          [
            "/wiki/General_Secretary_of_the_Communist_Party_of_Vietnam",
            "/wiki/President_of_Vietnam"
          ]
        ]
      ],
      [
        [
          "7 April 2011",
          []
        ],
        [
          "Mahamadou Issoufou",
          [
            "/wiki/Mahamadou_Issoufou"
          ]
        ],
        [
          "Niger",
          [
            "/wiki/Niger"
          ]
        ],
        [
          "President",
          [
            "/wiki/List_of_heads_of_state_of_Niger"
          ]
        ]
      ],
      [
        [
          "7 April 2011",
          []
        ],
        [
          "Brigi Rafini",
          [
            "/wiki/Brigi_Rafini"
          ]
        ],
        [
          "Niger",
          [
            "/wiki/Niger"
          ]
        ],
        [
          "Prime Minister",
          [
            "/wiki/List_of_prime_ministers_of_Niger"
          ]
        ]
      ],
      [
        [
          "9 September 2011",
          []
        ],
        [
          "Jorge Carlos Fonseca",
          [
            "/wiki/Jorge_Carlos_Fonseca"
          ]
        ],
        [
          "Cape Verde",
          [
            "/wiki/Cape_Verde"
          ]
        ],
        [
          "President",
          [
            "/wiki/List_of_presidents_of_Cape_Verde"
          ]
        ]
      ],
      [
        [
          "1 October 2011",
          []
        ],
        [
          "Cardinal Giuseppe Bertello",
          [
            "/wiki/Giuseppe_Bertello"
          ]
        ],
        [
          "Vatican City",
          [
            "/wiki/Vatican_City"
          ]
        ],
        [
          "President of the Governorate",
          [
            "/wiki/Pontifical_Commission_for_Vatican_City_State"
          ]
        ]
      ],
      [
        [
          "11 November 2011",
          []
        ],
        [
          "Michael D. Higgins",
          [
            "/wiki/Michael_D._Higgins"
          ]
        ],
        [
          "Ireland",
          [
            "/wiki/Republic_of_Ireland"
          ]
        ],
        [
          "President",
          [
            "/wiki/President_of_Ireland"
          ]
        ]
      ],
      [
        [
          "23 November 2011",
          []
        ],
        [
          "Abdrabbuh Mansur Hadi",
          [
            "/wiki/Abdrabbuh_Mansur_Hadi"
          ]
        ],
        [
          "Yemen",
          [
            "/wiki/Yemen"
          ]
        ],
        [
          "Acting President : 23 November 2011 - 25 February 2012 President : 25 February 2012 - present",
          [
            "/wiki/President_of_Yemen",
            "/wiki/President_of_Yemen"
          ]
        ]
      ],
      [
        [
          "17 December 2011",
          []
        ],
        [
          "Kim Jong-un",
          [
            "/wiki/Kim_Jong-un"
          ]
        ],
        [
          "North Korea",
          [
            "/wiki/North_Korea"
          ]
        ],
        [
          "Supreme Leader",
          [
            "/wiki/List_of_leaders_of_North_Korea"
          ]
        ]
      ],
      [
        [
          "1 January 2012",
          []
        ],
        [
          "Alain Berset",
          [
            "/wiki/Alain_Berset"
          ]
        ],
        [
          "Switzerland",
          [
            "/wiki/Switzerland"
          ]
        ],
        [
          "Federal Councilor : 1 January 2012 - present President : 1 January 2018 - 31 December 2018",
          [
            "/wiki/Federal_Council_(Switzerland)",
            "/wiki/President_of_the_Swiss_Confederation"
          ]
        ]
      ],
      [
        [
          "1 March 2012",
          []
        ],
        [
          "Sauli Niinist\u00f6",
          [
            "/wiki/Sauli_Niinist\u00f6"
          ]
        ],
        [
          "Finland",
          [
            "/wiki/Finland"
          ]
        ],
        [
          "President",
          [
            "/wiki/President_of_Finland"
          ]
        ]
      ],
      [
        [
          "18 March 2012",
          []
        ],
        [
          "Tupou VI",
          [
            "/wiki/Tupou_VI"
          ]
        ],
        [
          "Tonga",
          [
            "/wiki/Tonga"
          ]
        ],
        [
          "King",
          [
            "/wiki/List_of_monarchs_of_Tonga"
          ]
        ]
      ],
      [
        [
          "2 April 2012",
          []
        ],
        [
          "Macky Sall",
          [
            "/wiki/Macky_Sall"
          ]
        ],
        [
          "Senegal",
          [
            "/wiki/Senegal"
          ]
        ],
        [
          "President",
          [
            "/wiki/President_of_Senegal"
          ]
        ]
      ],
      [
        [
          "10 May 2012",
          []
        ],
        [
          "J\u00e1nos \u00c1der",
          [
            "/wiki/J\u00e1nos_\u00c1der"
          ]
        ],
        [
          "Hungary",
          [
            "/wiki/Hungary"
          ]
        ],
        [
          "President",
          [
            "/wiki/List_of_heads_of_state_of_Hungary"
          ]
        ]
      ]
    ],
    "section_title": "List of state leaders by date of assuming office -- 2010\u20132013",
    "section_text": "",
    "uid": "List_of_current_state_leaders_by_date_of_assumption_of_office_5",
    "intro": "This is a list of current state leaders ordered by their continuous tenure in a position of national leadership. In countries with different heads of state and heads of government, both offices are listed. For leaders who held the same office prior to their state's independence, the start of their tenure is used, not independence. For a list of heads of state taking dates of independence into account, see List of heads of state by diplomatic precedence. Acting presidents are included in this list, but if a leader has non-consecutive terms, only the current period of service is listed. States where head of state differs from head of government are mainly parliamentary systems. Often a leader holds both positions in presidential systems or dictatorships. Some states have semi-presidential systems where the head of government role is fulfilled by both the listed head of government and the head of state."
  }
}