{
  "National_team_appearances_in_the_Ice_Hockey_World_Championships_0": {
    "url": "https://en.wikipedia.org/wiki/National_team_appearances_in_the_Ice_Hockey_World_Championships",
    "title": "National team appearances in the Ice Hockey World Championships",
    "header": [
      [
        "Team",
        []
      ],
      [
        "Number of appearances",
        []
      ],
      [
        "Debut",
        []
      ],
      [
        "Most recent",
        []
      ],
      [
        "Best result",
        []
      ]
    ],
    "data": [
      [
        [
          "Sweden",
          [
            "/wiki/Sweden_men's_national_ice_hockey_team"
          ]
        ],
        [
          "78",
          []
        ],
        [
          "1920",
          [
            "/wiki/Ice_hockey_at_the_1920_Summer_Olympics"
          ]
        ],
        [
          "2019",
          [
            "/wiki/2019_Men's_Ice_Hockey_World_Championships"
          ]
        ],
        [
          "Champions ( \u00d711 )",
          []
        ]
      ],
      [
        [
          "Canada",
          [
            "/wiki/Canada_men's_national_ice_hockey_team"
          ]
        ],
        [
          "73",
          []
        ],
        [
          "1920",
          [
            "/wiki/Ice_hockey_at_the_1920_Summer_Olympics"
          ]
        ],
        [
          "2019",
          [
            "/wiki/2019_Men's_Ice_Hockey_World_Championships"
          ]
        ],
        [
          "Champions ( \u00d726 )",
          []
        ]
      ],
      [
        [
          "United States",
          [
            "/wiki/United_States_men's_national_ice_hockey_team"
          ]
        ],
        [
          "71 ( 5 in lower divisions )",
          []
        ],
        [
          "1920",
          [
            "/wiki/Ice_hockey_at_the_1920_Summer_Olympics"
          ]
        ],
        [
          "2019",
          [
            "/wiki/2019_Men's_Ice_Hockey_World_Championships"
          ]
        ],
        [
          "Champions ( 1933 , 1960 )",
          []
        ]
      ],
      [
        [
          "Finland",
          [
            "/wiki/Finland_men's_national_ice_hockey_team"
          ]
        ],
        [
          "66",
          []
        ],
        [
          "1939",
          [
            "/wiki/1939_Ice_Hockey_World_Championships"
          ]
        ],
        [
          "2019",
          [
            "/wiki/2019_Men's_Ice_Hockey_World_Championships"
          ]
        ],
        [
          "Champions ( 1995 , 2011 , 2019 )",
          []
        ]
      ],
      [
        [
          "Switzerland",
          [
            "/wiki/Switzerland_men's_national_ice_hockey_team"
          ]
        ],
        [
          "52 ( 25 in lower divisions )",
          []
        ],
        [
          "1920",
          [
            "/wiki/Ice_hockey_at_the_1920_Summer_Olympics"
          ]
        ],
        [
          "2019",
          [
            "/wiki/2019_Men's_Ice_Hockey_World_Championships"
          ]
        ],
        [
          "Runners-up ( 1935 , 2013 , 2018 )",
          []
        ]
      ],
      [
        [
          "Norway",
          [
            "/wiki/Norway_men's_national_ice_hockey_team"
          ]
        ],
        [
          "34 ( 32 in lower divisions )",
          []
        ],
        [
          "1937",
          [
            "/wiki/1937_Ice_Hockey_World_Championships"
          ]
        ],
        [
          "2019",
          [
            "/wiki/2019_Men's_Ice_Hockey_World_Championships"
          ]
        ],
        [
          "4th place ( 1951 )",
          []
        ]
      ],
      [
        [
          "France",
          [
            "/wiki/France_men's_national_ice_hockey_team"
          ]
        ],
        [
          "33 ( 34 in lower divisions )",
          []
        ],
        [
          "1920",
          [
            "/wiki/Ice_hockey_at_the_1920_Summer_Olympics"
          ]
        ],
        [
          "2019",
          [
            "/wiki/2019_Men's_Ice_Hockey_World_Championships"
          ]
        ],
        [
          "6th place ( 1920 , 1924 , 1928 , 1930 )",
          []
        ]
      ],
      [
        [
          "Italy",
          [
            "/wiki/Italy_men's_national_ice_hockey_team"
          ]
        ],
        [
          "31 ( 35 in lower divisions )",
          []
        ],
        [
          "1930",
          [
            "/wiki/1930_Ice_Hockey_World_Championships"
          ]
        ],
        [
          "2019",
          [
            "/wiki/2019_Men's_Ice_Hockey_World_Championships"
          ]
        ],
        [
          "4th place ( 1953 )",
          []
        ]
      ],
      [
        [
          "Poland",
          [
            "/wiki/Poland_men's_national_ice_hockey_team"
          ]
        ],
        [
          "30 ( 42 in lower divisions )",
          []
        ],
        [
          "1928",
          [
            "/wiki/Ice_hockey_at_the_1928_Winter_Olympics"
          ]
        ],
        [
          "2019",
          [
            "/wiki/2019_Men's_Ice_Hockey_World_Championships"
          ]
        ],
        [
          "4th place ( 1931 )",
          []
        ]
      ],
      [
        [
          "Austria",
          [
            "/wiki/Austria_men's_national_ice_hockey_team"
          ]
        ],
        [
          "29 ( 45 in lower divisions )",
          []
        ],
        [
          "1928",
          [
            "/wiki/Ice_hockey_at_the_1928_Winter_Olympics"
          ]
        ],
        [
          "2019",
          [
            "/wiki/2019_Men's_Ice_Hockey_World_Championships"
          ]
        ],
        [
          "3rd place ( 1931 , 1947 )",
          []
        ]
      ],
      [
        [
          "Latvia",
          [
            "/wiki/Latvia_men's_national_ice_hockey_team"
          ]
        ],
        [
          "28 ( 4 in lower divisions )",
          []
        ],
        [
          "1933",
          [
            "/wiki/1933_Ice_Hockey_World_Championships"
          ]
        ],
        [
          "2019",
          [
            "/wiki/2019_Men's_Ice_Hockey_World_Championships"
          ]
        ],
        [
          "7th place ( 1997 , 2004 , 2009 )",
          []
        ]
      ],
      [
        [
          "Slovakia",
          [
            "/wiki/Slovakia_men's_national_ice_hockey_team"
          ]
        ],
        [
          "24 ( 2 in lower divisions )",
          []
        ],
        [
          "1994",
          [
            "/wiki/1994_Men's_Ice_Hockey_World_Championships"
          ]
        ],
        [
          "2019",
          [
            "/wiki/2019_Men's_Ice_Hockey_World_Championships"
          ]
        ],
        [
          "Champions ( 2002 )",
          []
        ]
      ],
      [
        [
          "Denmark",
          [
            "/wiki/Denmark_men's_national_ice_hockey_team"
          ]
        ],
        [
          "18 ( 34 in lower divisions )",
          []
        ],
        [
          "1949",
          [
            "/wiki/1949_Ice_Hockey_World_Championships"
          ]
        ],
        [
          "2019",
          [
            "/wiki/2019_Men's_Ice_Hockey_World_Championships"
          ]
        ],
        [
          "8th place ( 2010 , 2016 )",
          []
        ]
      ],
      [
        [
          "Belarus",
          [
            "/wiki/Belarus_men's_national_ice_hockey_team"
          ]
        ],
        [
          "18 ( 9 in lower divisions )",
          []
        ],
        [
          "1993",
          [
            "/wiki/1993_Men's_Ice_Hockey_World_Championships"
          ]
        ],
        [
          "2019",
          [
            "/wiki/2019_Men's_Ice_Hockey_World_Championships"
          ]
        ],
        [
          "6th place ( 2006 )",
          []
        ]
      ],
      [
        [
          "Hungary",
          [
            "/wiki/Hungary_men's_national_ice_hockey_team"
          ]
        ],
        [
          "13 ( 52 in lower divisions )",
          []
        ],
        [
          "1928",
          [
            "/wiki/Ice_hockey_at_the_1928_Winter_Olympics"
          ]
        ],
        [
          "2019",
          [
            "/wiki/2019_Men's_Ice_Hockey_World_Championships"
          ]
        ],
        [
          "5th place ( 1937 )",
          []
        ]
      ],
      [
        [
          "Japan",
          [
            "/wiki/Japan_men's_national_ice_hockey_team"
          ]
        ],
        [
          "13 ( 42 in lower divisions )",
          []
        ],
        [
          "1930",
          [
            "/wiki/1930_Ice_Hockey_World_Championships"
          ]
        ],
        [
          "2019",
          [
            "/wiki/2019_Men's_Ice_Hockey_World_Championships"
          ]
        ],
        [
          "6th place ( 1930 )",
          []
        ]
      ],
      [
        [
          "Belgium",
          [
            "/wiki/Belgium_men's_national_ice_hockey_team"
          ]
        ],
        [
          "12 ( 43 in lower divisions )",
          []
        ],
        [
          "1920",
          [
            "/wiki/Ice_hockey_at_the_1920_Summer_Olympics"
          ]
        ],
        [
          "2019",
          [
            "/wiki/2019_Men's_Ice_Hockey_World_Championships"
          ]
        ],
        [
          "7th place ( 1920 , 1924 , 1950 )",
          []
        ]
      ],
      [
        [
          "Great Britain",
          [
            "/wiki/Great_Britain_men's_national_ice_hockey_team"
          ]
        ],
        [
          "11 ( 46 in lower divisions )",
          []
        ],
        [
          "1924",
          [
            "/wiki/Ice_hockey_at_the_1924_Winter_Olympics"
          ]
        ],
        [
          "2019",
          [
            "/wiki/2019_Men's_Ice_Hockey_World_Championships"
          ]
        ],
        [
          "Champions ( 1936 )",
          []
        ]
      ],
      [
        [
          "Romania",
          [
            "/wiki/Romania_men's_national_ice_hockey_team"
          ]
        ],
        [
          "10 ( 52 in lower divisions )",
          []
        ],
        [
          "1931",
          [
            "/wiki/1931_Ice_Hockey_World_Championships"
          ]
        ],
        [
          "2019",
          [
            "/wiki/2019_Men's_Ice_Hockey_World_Championships"
          ]
        ],
        [
          "7th place ( 1947 )",
          []
        ]
      ],
      [
        [
          "Slovenia",
          [
            "/wiki/Slovenia_men's_national_ice_hockey_team"
          ]
        ],
        [
          "9 ( 18 in lower divisions )",
          []
        ],
        [
          "1993",
          [
            "/wiki/1993_Men's_Ice_Hockey_World_Championships"
          ]
        ],
        [
          "2019",
          [
            "/wiki/2019_Men's_Ice_Hockey_World_Championships"
          ]
        ],
        [
          "13th place ( 2002 , 2005 )",
          []
        ]
      ]
    ],
    "section_title": "Ranking of teams by number of appearances",
    "section_text": "",
    "uid": "National_team_appearances_in_the_Ice_Hockey_World_Championships_0",
    "intro": "This article lists the performances of each of the 56 national teams which have made at least one appearance in the Ice Hockey World Championships, an annual international men's ice hockey tournament organized by the International Ice Hockey Federation (IIHF), including the Olympic ice hockey tournament was also considered the World Championship for that year, and was held before the first Ice Hockey World Championship as an individual event in 1930. With the exception between 1940 and 1946, when no championships were held due to World War II, nor were held during the Olympic years 1980, 1984, and 1988. Sweden have appeared in 78 out of 83 tournaments to date, with Canada, having participated in 73, and Finland in 66. Although the United States have appeared in 71 top division tournaments and five in lower divisions. This was in the 1969 event, when the U.S. were unsuccessful at the tournament, finished in last place in Group A after losing all ten games. This marks the first time in Men's Worlds history, the United States were relegated out of the top division until the 1970 event, the U.S. finished in first place in Group B (7th overall) after winning all seven games and were promoted back to Group A.\nFinland is the current World Champion, defeating Canada in the gold medal game at the 2019 IIHF World Championship. Since the IIHF introduced a playoff system in 1992, Switzerland is the only team to have appeared the IIHF World Championship final as the runners-up, having lost to Sweden twice in 2013 and 2018. The United States is the only Big Six team to have never appeared in the IIHF World Championship final, having lost in the semifinals nine times."
  },
  "List_of_Indiana_state_historical_markers_in_Bartholomew_County_0": {
    "url": "https://en.wikipedia.org/wiki/List_of_Indiana_state_historical_markers_in_Bartholomew_County",
    "title": "List of Indiana state historical markers in Bartholomew County",
    "header": [
      [
        "Marker title",
        []
      ],
      [
        "Year placed",
        []
      ],
      [
        "Location",
        []
      ],
      [
        "Topics",
        []
      ]
    ],
    "data": [
      [
        [
          "Lowell Mills",
          []
        ],
        [
          "1988",
          []
        ],
        [
          "Junction of County Road 325W and Driftwood Road at a Driftwood River public access site , west of Columbus and Interstate 65 39\u00b014\u203223\u2033N 85\u00b058\u203222\u2033W / 39.23972\u00b0N 85.97278\u00b0W / 39.23972 ; -85.97278 ( Lowell Mills )",
          [
            "/wiki/Driftwood_River",
            "/wiki/Columbus,_Indiana",
            "/wiki/Interstate_65"
          ]
        ],
        [
          "Business , Industry , and Labor , Historic District , Neighborhoods , and Towns",
          []
        ]
      ],
      [
        [
          "Private Barton W. Mitchell",
          [
            "/wiki/Special_Order_191"
          ]
        ],
        [
          "1992",
          []
        ],
        [
          "Southwestern corner of the town square at the junction of State Road 46 ( E. Harrison Street ) and N. Washington Street in Hartsville 39\u00b016\u20324\u2033N 85\u00b041\u203256\u2033W / 39.26778\u00b0N 85.69889\u00b0W / 39.26778 ; -85.69889 ( Private Barton W. Mitchell )",
          [
            "/wiki/Indiana_State_Road_46",
            "/wiki/Hartsville,_Indiana"
          ]
        ],
        [
          "Military",
          []
        ]
      ],
      [
        [
          "Hartsville College",
          [
            "/wiki/Hartsville_College"
          ]
        ],
        [
          "1995",
          []
        ],
        [
          "Southeastern corner of the town square at the junction of State Road 46 ( E. Harrison Street ) and N. Jackson Street in Hartsville 39\u00b016\u20324\u2033N 85\u00b041\u203253\u2033W / 39.26778\u00b0N 85.69806\u00b0W / 39.26778 ; -85.69806 ( Hartsville College )",
          [
            "/wiki/Indiana_State_Road_46",
            "/wiki/Hartsville,_Indiana"
          ]
        ],
        [
          "Education , Religion",
          []
        ]
      ],
      [
        [
          "Booker T. Washington School",
          []
        ],
        [
          "1998",
          []
        ],
        [
          "Southeastern corner of the town square at the junction of State Road 46 ( E. Harrison Street ) and N. Jackson Street in Hartsville 39\u00b016\u20324\u2033N 85\u00b041\u203253.1\u2033W / 39.26778\u00b0N 85.698083\u00b0W / 39.26778 ; -85.698083 ( Booker T. Washington School )",
          [
            "/wiki/Indiana_State_Road_46",
            "/wiki/Hartsville,_Indiana"
          ]
        ],
        [
          "African American , Education",
          []
        ]
      ],
      [
        [
          "Second Baptist Church",
          []
        ],
        [
          "1998",
          []
        ],
        [
          "1328 9th Street at the Reed Street junction in Columbus 39\u00b012\u203229\u2033N 85\u00b054\u203235\u2033W / 39.20806\u00b0N 85.90972\u00b0W / 39.20806 ; -85.90972 ( Second Baptist Church )",
          [
            "/wiki/Columbus,_Indiana"
          ]
        ],
        [
          "African American , Religion",
          []
        ]
      ],
      [
        [
          "Madison and Indianapolis Railroad",
          [
            "/wiki/Jeffersonville,_Madison_and_Indianapolis_Railroad"
          ]
        ],
        [
          "1999",
          []
        ],
        [
          "204 Railroad Road between 2nd and 3rd Streets on a grassy median in Elizabethtown 39\u00b08\u20328\u2033N 85\u00b048\u203246\u2033W / 39.13556\u00b0N 85.81278\u00b0W / 39.13556 ; -85.81278 ( Madison and Indianapolis Railroad )",
          [
            "/wiki/Elizabethtown,_Bartholomew_County,_Indiana"
          ]
        ],
        [
          "Transportation , Business , Industry , and Labor",
          []
        ]
      ],
      [
        [
          "Bartholomew County Courthouse",
          [
            "/wiki/Bartholomew_County_Courthouse"
          ]
        ],
        [
          "2000",
          []
        ],
        [
          "Southeastern corner of the courthouse at 234 Washington Street in Columbus 39\u00b012\u20324\u2033N 85\u00b055\u203217\u2033W / 39.20111\u00b0N 85.92139\u00b0W / 39.20111 ; -85.92139 ( Bartholomew County Courthouse )",
          [
            "/wiki/Columbus,_Indiana"
          ]
        ],
        [
          "Government Institutions , Buildings and Architecture",
          []
        ]
      ],
      [
        [
          "Orinoco Furniture Company",
          []
        ],
        [
          "2007",
          []
        ],
        [
          "1720 17th Street in Columbus 39\u00b012\u203257\u2033N 85\u00b054\u203224\u2033W / 39.21583\u00b0N 85.90667\u00b0W / 39.21583 ; -85.90667 ( Orinoco Furniture Company )",
          [
            "/wiki/Columbus,_Indiana"
          ]
        ],
        [
          "Business , Industry , and Labor",
          []
        ]
      ],
      [
        [
          "Atterbury Army Air Field",
          [
            "/wiki/Bakalar_Air_Force_Base"
          ]
        ],
        [
          "2007",
          []
        ],
        [
          "In front of the chapel at the junction of Middle Road and Grissom Avenue on Atterbury Army Air Field near Columbus 39\u00b015\u203243\u2033N 85\u00b053\u203247\u2033W / 39.26194\u00b0N 85.89639\u00b0W / 39.26194 ; -85.89639 ( Atterbury Army Air Field )",
          [
            "/wiki/Columbus,_Indiana"
          ]
        ],
        [
          "Military",
          []
        ]
      ]
    ],
    "section_title": "Historical markers",
    "section_text": "",
    "uid": "List_of_Indiana_state_historical_markers_in_Bartholomew_County_0",
    "intro": "This is a list of the Indiana state historical markers in Bartholomew County. This is intended to be a complete list of the official state historical markers placed in Bartholomew County, Indiana, United States by the Indiana Historical Bureau. The locations of the historical markers and their latitude and longitude coordinates are included below when available, along with their names, years of placement, and topics as recorded by the Historical Bureau. There are 9 historical markers located in Bartholomew County."
  },
  "List_of_stations_owned_or_operated_by_Sinclair_Broadcast_Group_3": {
    "url": "https://en.wikipedia.org/wiki/List_of_stations_owned_or_operated_by_Sinclair_Broadcast_Group",
    "title": "List of stations owned or operated by Sinclair Broadcast Group",
    "header": [
      [
        "City of license / Market",
        [
          "/wiki/City_of_license",
          "/wiki/Media_market"
        ]
      ],
      [
        "Station",
        []
      ],
      [
        "Channel TV ( RF )",
        [
          "/wiki/Virtual_channel",
          "/wiki/Digital_terrestrial_television"
        ]
      ],
      [
        "Years owned",
        []
      ],
      [
        "Current ownership status",
        []
      ]
    ],
    "data": [
      [
        [
          "Anniston , AL",
          [
            "/wiki/Anniston,_Alabama"
          ]
        ],
        [
          "WJSU-TV",
          []
        ],
        [
          "40 ( 9 )",
          []
        ],
        [
          "2014-2015",
          []
        ],
        [
          "Heroes & Icons affiliate , WGWW , owned by Howard Stirk Holdings",
          [
            "/wiki/Heroes_&_Icons",
            "/wiki/WGWW",
            "/wiki/Armstrong_Williams"
          ]
        ]
      ],
      [
        [
          "Tuscaloosa , AL",
          [
            "/wiki/Tuscaloosa,_Alabama"
          ]
        ],
        [
          "WCFT-TV",
          []
        ],
        [
          "33 ( 33 )",
          []
        ],
        [
          "2014-2015",
          []
        ],
        [
          "Heroes & Icons affiliate , WSES , owned by Howard Stirk Holdings",
          [
            "/wiki/WSES"
          ]
        ]
      ],
      [
        [
          "Stockton - Sacramento , CA",
          [
            "/wiki/Stockton,_California",
            "/wiki/Sacramento,_California"
          ]
        ],
        [
          "KOVR",
          [
            "/wiki/KOVR"
          ]
        ],
        [
          "13 ( 25 )",
          []
        ],
        [
          "1997-2005",
          []
        ],
        [
          "CBS owned-and-operated station , owned by CBS Television Stations",
          [
            "/wiki/CBS",
            "/wiki/Owned-and-operated_station",
            "/wiki/CBS_Television_Stations"
          ]
        ]
      ],
      [
        [
          "Colorado Springs - Pueblo , CO",
          [
            "/wiki/Colorado_Springs,_Colorado",
            "/wiki/Pueblo,_Colorado"
          ]
        ],
        [
          "KXRM-TV",
          [
            "/wiki/KXRM-TV"
          ]
        ],
        [
          "21 ( 22 )",
          []
        ],
        [
          "2013-2014",
          []
        ],
        [
          "Fox affiliate , owned by Nexstar Media Group",
          [
            "/wiki/Fox_Broadcasting_Company",
            "/wiki/Nexstar_Media_Group"
          ]
        ]
      ],
      [
        [
          "Colorado Springs - Pueblo , CO",
          [
            "/wiki/Colorado_Springs,_Colorado",
            "/wiki/Pueblo,_Colorado"
          ]
        ],
        [
          "KXTU-LD",
          [
            "/wiki/KXTU-LD"
          ]
        ],
        [
          "57 ( 20 )",
          []
        ],
        [
          "2013-2014",
          []
        ],
        [
          "The CW affiliate , owned by Nexstar Media Group",
          [
            "/wiki/The_CW"
          ]
        ]
      ],
      [
        [
          "St. Petersburg - Tampa , FL",
          [
            "/wiki/St._Petersburg,_Florida",
            "/wiki/Tampa,_Florida"
          ]
        ],
        [
          "WTTA",
          [
            "/wiki/WTTA"
          ]
        ],
        [
          "38 ( 32 )",
          []
        ],
        [
          "1991-2014",
          []
        ],
        [
          "MyNetworkTV affiliate , owned by Nexstar Media Group",
          [
            "/wiki/MyNetworkTV"
          ]
        ]
      ],
      [
        [
          "Tallahassee , FL - Thomasville , GA",
          [
            "/wiki/Tallahassee,_Florida",
            "/wiki/Thomasville,_Georgia"
          ]
        ],
        [
          "WTXL-TV",
          [
            "/wiki/WTXL-TV"
          ]
        ],
        [
          "27 ( 27 )",
          []
        ],
        [
          "2001-2006",
          []
        ],
        [
          "ABC affiliate , owned by E. W. Scripps Company",
          [
            "/wiki/American_Broadcasting_Company",
            "/wiki/E._W._Scripps_Company"
          ]
        ]
      ],
      [
        [
          "Idaho Falls - Pocatello , ID",
          [
            "/wiki/Idaho_Falls,_Idaho",
            "/wiki/Pocatello,_Idaho"
          ]
        ],
        [
          "KIDK",
          [
            "/wiki/KIDK"
          ]
        ],
        [
          "3 ( 36 )",
          []
        ],
        [
          "2013",
          []
        ],
        [
          "CBS affiliate , owned by VistaWest Media , LLC",
          []
        ]
      ],
      [
        [
          "Idaho Falls - Pocatello , ID",
          [
            "/wiki/Idaho_Falls,_Idaho",
            "/wiki/Pocatello,_Idaho"
          ]
        ],
        [
          "KXPI-LD",
          [
            "/wiki/KXPI-LD"
          ]
        ],
        [
          "34 ( 34 )",
          []
        ],
        [
          "2013",
          []
        ],
        [
          "Fox affiliate , owned by VistaWest Media , LLC",
          []
        ]
      ],
      [
        [
          "Bloomington - Indianapolis , IN",
          [
            "/wiki/Bloomington,_Indiana",
            "/wiki/Indianapolis"
          ]
        ],
        [
          "WIIB",
          []
        ],
        [
          "63 ( 27 )",
          []
        ],
        [
          "1988-1997",
          []
        ],
        [
          "Ion owned-and-operated station , WIPX-TV , owned by Ion Media Networks",
          [
            "/wiki/Ion_Television",
            "/wiki/WIPX-TV",
            "/wiki/Ion_Media"
          ]
        ]
      ],
      [
        [
          "Bloomington - Indianapolis , IN",
          [
            "/wiki/Bloomington,_Indiana",
            "/wiki/Indianapolis"
          ]
        ],
        [
          "WTTV",
          [
            "/wiki/WTTV"
          ]
        ],
        [
          "4 ( 48 )",
          []
        ],
        [
          "1997-2002",
          []
        ],
        [
          "CBS affiliate , owned by Nexstar Media Group",
          []
        ]
      ],
      [
        [
          "Kokomo , IN",
          [
            "/wiki/Kokomo,_Indiana"
          ]
        ],
        [
          "WTTK ( satellite of WTTV )",
          []
        ],
        [
          "29 ( 29 )",
          []
        ],
        [
          "1997-2002",
          []
        ],
        [
          "CBS affiliate , owned by Nexstar Media Group",
          []
        ]
      ],
      [
        [
          "Springfield - Holyoke , MA",
          [
            "/wiki/Springfield,_Massachusetts",
            "/wiki/Holyoke,_Massachusetts"
          ]
        ],
        [
          "WGGB-TV",
          [
            "/wiki/WGGB-TV"
          ]
        ],
        [
          "40 ( 40 )",
          []
        ],
        [
          "1998-2007",
          []
        ],
        [
          "ABC affiliate , owned by Meredith Corporation",
          [
            "/wiki/Meredith_Corporation"
          ]
        ]
      ],
      [
        [
          "New Bedford , MA - Providence , RI",
          [
            "/wiki/New_Bedford,_Massachusetts",
            "/wiki/Providence,_Rhode_Island"
          ]
        ],
        [
          "WLWC",
          [
            "/wiki/WLWC"
          ]
        ],
        [
          "28 ( 22 )",
          []
        ],
        [
          "2012-2013",
          []
        ],
        [
          "Ion Life owned-and-operated station , owned by Ion Media Networks",
          [
            "/wiki/Ion_Plus"
          ]
        ]
      ],
      [
        [
          "Lansing , MI",
          [
            "/wiki/Lansing,_Michigan"
          ]
        ],
        [
          "WLAJ",
          [
            "/wiki/WLAJ"
          ]
        ],
        [
          "53 ( 51 )",
          []
        ],
        [
          "2012-2013",
          []
        ],
        [
          "ABC affiliate , owned by Shield Media",
          [
            "/wiki/Shield_Media"
          ]
        ]
      ],
      [
        [
          "Marquette , MI",
          [
            "/wiki/Marquette,_Michigan"
          ]
        ],
        [
          "WLUC-TV",
          [
            "/wiki/WLUC-TV"
          ]
        ],
        [
          "6 ( 35 )",
          []
        ],
        [
          "2013-2016",
          []
        ],
        [
          "NBC affiliate , owned by Gray Television",
          [
            "/wiki/Gray_Television"
          ]
        ]
      ],
      [
        [
          "Kansas City , MO",
          [
            "/wiki/Kansas_City,_Missouri"
          ]
        ],
        [
          "KSMO-TV",
          [
            "/wiki/KSMO-TV"
          ]
        ],
        [
          "62 ( 47 )",
          []
        ],
        [
          "1996-2005",
          []
        ],
        [
          "MyNetworkTV affiliate , owned by Meredith Corporation",
          []
        ]
      ],
      [
        [
          "Plattsburgh , NY - Burlington , VT",
          [
            "/wiki/Plattsburgh_(city),_New_York",
            "/wiki/Burlington,_Vermont"
          ]
        ],
        [
          "WPTZ",
          [
            "/wiki/WPTZ"
          ]
        ],
        [
          "5 ( 14 )",
          []
        ],
        [
          "1997-1998",
          []
        ],
        [
          "NBC affiliate , owned by Hearst Television",
          [
            "/wiki/NBC",
            "/wiki/Hearst_Television"
          ]
        ]
      ],
      [
        [
          "Syracuse , NY",
          [
            "/wiki/Syracuse,_New_York"
          ]
        ],
        [
          "WNYS-TV",
          [
            "/wiki/WSYT-DT3"
          ]
        ],
        [
          "43 ( 44 )",
          []
        ],
        [
          "",
          []
        ],
        [
          "MyNetworkTV affiliate , owned by Cox Media Group",
          [
            "/wiki/Cox_Media_Group"
          ]
        ]
      ],
      [
        [
          "Syracuse , NY",
          [
            "/wiki/Syracuse,_New_York"
          ]
        ],
        [
          "WSYT",
          [
            "/wiki/WSYT"
          ]
        ],
        [
          "68 ( 19 )",
          []
        ],
        [
          "1998-2013",
          []
        ],
        [
          "Fox affiliate , owned by Cox Media Group",
          []
        ]
      ]
    ],
    "section_title": "Former Sinclair-owned stations",
    "section_text": "",
    "uid": "List_of_stations_owned_or_operated_by_Sinclair_Broadcast_Group_3",
    "intro": "Sinclair Broadcast Group owns or operates 193 television stations across the United States in 89 markets ranging in size from as large as Washington, D.C. to as small as Ottumwa, Iowa-Kirksville, Missouri. The stations are affiliates of various television networks, including ABC, CBS, NBC, Fox and The CW as well as numerous specialty channels. Many stations are owned outright by the company, while others are owned by legally distinct companies but operated by Sinclair through a local marketing agreement, a concept Sinclair pioneered in Pittsburgh in 1991 when the Federal Communications Commission (FCC) forbade duopolies. (The stations involved in the initial deal, WPGH-TV and WPTT - now WPNT - are now both owned by Sinclair outright.) Sinclair has established local marketing agreements with various companies, most notably Cunningham Broadcasting and Deerfield Media."
  },
  "List_of_people_from_the_London_Borough_of_Richmond_upon_Thames_13": {
    "url": "https://en.wikipedia.org/wiki/List_of_people_from_the_London_Borough_of_Richmond_upon_Thames",
    "title": "List of people from the London Borough of Richmond upon Thames",
    "header": [
      [
        "Name",
        []
      ],
      [
        "Dates",
        []
      ],
      [
        "Notability",
        []
      ]
    ],
    "data": [
      [
        [
          "Sir Richard Burton",
          [
            "/wiki/Richard_Francis_Burton"
          ]
        ],
        [
          "1821-1890",
          []
        ],
        [
          "Explorer , translator and writer who lived at Maids of Honour Row in Richmond while attending the Richmond Academy , which was situated in a mansion at the corner of Little Green and Duke Street . He and his wife are buried in a remarkable tomb in the shape of a Bedouin tent in the churchyard of St Mary Magdalens Roman Catholic Church Mortlake , where there is also a memorial window to him",
          [
            "/wiki/Mausoleum_of_Sir_Richard_and_Lady_Burton",
            "/wiki/St_Mary_Magdalen_Roman_Catholic_Church,_Mortlake"
          ]
        ]
      ],
      [
        [
          "Frederick Jeremiah Edwards",
          [
            "/wiki/Frederick_Jeremiah_Edwards"
          ]
        ],
        [
          "1894-1964",
          []
        ],
        [
          "Irish recipient of the Victoria Cross , who died at the Royal Star and Garter Home in Richmond and is buried in Richmond Cemetery",
          [
            "/wiki/Victoria_Cross",
            "/wiki/Royal_Star_and_Garter_Home,_Richmond",
            "/wiki/Richmond_Cemetery"
          ]
        ]
      ],
      [
        [
          "Lieutenant General Bernard Cyril Freyberg , 1st Baron Freyberg",
          [
            "/wiki/Bernard_Freyberg,_1st_Baron_Freyberg"
          ]
        ],
        [
          "1889-1963",
          []
        ],
        [
          "Born on Richmond Hill and moved with his parents at the age of two to New Zealand , where he served as the 7th Governor-General of New Zealand from 1946 to 1952",
          [
            "/wiki/Richmond_Hill,_London",
            "/wiki/Governor-General_of_New_Zealand"
          ]
        ]
      ],
      [
        [
          "Young Bingham Hutchinson",
          [
            "/wiki/Young_Bingham_Hutchinson"
          ]
        ],
        [
          "1806-1870",
          []
        ],
        [
          "Royal Navy officer and settler in South Australia , who was born in Richmond",
          [
            "/wiki/South_Australia"
          ]
        ]
      ],
      [
        [
          "General Sir Harry North Dalrymple Prendergast",
          [
            "/wiki/Harry_Prendergast"
          ]
        ],
        [
          "1834-1913",
          []
        ],
        [
          "Awarded a VC for conspicuous bravery in the Indian Rebellion of 1857 , he died at Heron Court , Richmond and is buried in Richmond Cemetery",
          [
            "/wiki/Indian_Rebellion_of_1857"
          ]
        ]
      ],
      [
        [
          "Brigadier Raymond Sandover",
          [
            "/wiki/Raymond_Sandover"
          ]
        ],
        [
          "1910-1995",
          []
        ],
        [
          "British Army Officer , born in Richmond , served in the Australian Army . Awarded the DSO , ED and Mentioned in Despatches . Commanded the 2/11th Battalion ( Australia ) and 6th Brigade",
          [
            "/wiki/Distinguished_Service_Order",
            "/wiki/Efficiency_Decoration",
            "/wiki/Mentioned_in_dispatches",
            "/wiki/2/11th_Battalion_(Australia)",
            "/wiki/6th_Brigade_(Australia)"
          ]
        ]
      ],
      [
        [
          "Walter Leigh Rayfield",
          [
            "/wiki/Walter_Leigh_Rayfield"
          ]
        ],
        [
          "1881-1949",
          []
        ],
        [
          "Canadian recipient of the Victoria Cross , he was born in Richmond",
          []
        ]
      ],
      [
        [
          "Nancy Wake",
          [
            "/wiki/Nancy_Wake"
          ]
        ],
        [
          "1912-2011",
          []
        ],
        [
          "Fought with the French Resistance in World War II and lived in Richmond 's Royal Star and Garter Home from 2003 until her death",
          [
            "/wiki/French_Resistance",
            "/wiki/World_War_II",
            "/wiki/Royal_Star_and_Garter_Home,_Richmond"
          ]
        ]
      ]
    ],
    "section_title": "People in Richmond town and Richmond Park -- Historical figures",
    "section_text": "Spencer Gore 's painting of Cambrian Road , Richmond , where he lived Wick House , home of Sir Joshua Reynolds and , later , Algernon Tollemache Hogarth House , 34 Paradise Road , Richmond , where Virginia Woolf and her husband Leonard lived",
    "uid": "List_of_people_from_the_London_Borough_of_Richmond_upon_Thames_13",
    "intro": "The London Borough of Richmond upon Thames was created in 1965 when, under the London Government Act 1963, the Municipal Borough of Richmond (Surrey), the Municipal Borough of Barnes (also in Surrey) and the Municipal Borough of Twickenham (in Middlesex) were merged to become a new London borough within Greater London. This is a categorised list of notable people who were born or have lived within the borders of the modern borough (which covers Barnes, East Sheen, Ham, Hampton, Kew, Hampton Hill, Hampton Wick, Mortlake, Petersham, Richmond, St Margarets, Teddington, Twickenham and Whitton). Only people who are sufficiently notable to have individual entries on Wikipedia have been included in the list and, in each instance, their birth or residence has been verified by citations. The list is divided into two main categories - Living people and Historical figures."
  },
  "List_of_oldest_and_youngest_Academy_Award_winners_and_nominees_4": {
    "url": "https://en.wikipedia.org/wiki/List_of_oldest_and_youngest_Academy_Award_winners_and_nominees",
    "title": "List of oldest and youngest Academy Award winners and nominees",
    "header": [
      [
        "Rank",
        []
      ],
      [
        "Age",
        []
      ],
      [
        "Name",
        []
      ],
      [
        "Film",
        []
      ],
      [
        "Year in Film",
        []
      ],
      [
        "Date of Birth",
        []
      ],
      [
        "Date of Nomination",
        []
      ]
    ],
    "data": [
      [
        [
          "1",
          []
        ],
        [
          "24 years , 44 days",
          []
        ],
        [
          "John Singleton",
          [
            "/wiki/John_Singleton"
          ]
        ],
        [
          "Boyz n the Hood",
          [
            "/wiki/Boyz_n_the_Hood"
          ]
        ],
        [
          "1991",
          [
            "/wiki/64th_Academy_Awards"
          ]
        ],
        [
          "January 6 , 1968",
          []
        ],
        [
          "February 19 , 1992",
          []
        ]
      ],
      [
        [
          "2",
          []
        ],
        [
          "26 years , 279 days",
          []
        ],
        [
          "Orson Welles",
          [
            "/wiki/Orson_Welles"
          ]
        ],
        [
          "Citizen Kane",
          [
            "/wiki/Citizen_Kane"
          ]
        ],
        [
          "1941",
          [
            "/wiki/14th_Academy_Awards"
          ]
        ],
        [
          "May 6 , 1915",
          []
        ],
        [
          "February 9 , 1942",
          []
        ]
      ],
      [
        [
          "3",
          []
        ],
        [
          "29 years , 66 days",
          []
        ],
        [
          "Kenneth Branagh",
          [
            "/wiki/Kenneth_Branagh"
          ]
        ],
        [
          "Henry V",
          [
            "/wiki/Henry_V_(1989_film)"
          ]
        ],
        [
          "1989",
          [
            "/wiki/62nd_Academy_Awards"
          ]
        ],
        [
          "December 10 , 1960",
          []
        ],
        [
          "February 14 , 1990",
          []
        ]
      ],
      [
        [
          "4",
          []
        ],
        [
          "29 years , 113 days",
          []
        ],
        [
          "Claude Lelouch",
          [
            "/wiki/Claude_Lelouch"
          ]
        ],
        [
          "A Man and a Woman",
          [
            "/wiki/A_Man_and_a_Woman"
          ]
        ],
        [
          "1966",
          [
            "/wiki/39th_Academy_Awards"
          ]
        ],
        [
          "October 30 , 1937",
          []
        ],
        [
          "February 20 , 1967",
          []
        ]
      ],
      [
        [
          "5",
          []
        ],
        [
          "29 years , 193 days",
          []
        ],
        [
          "M. Night Shyamalan",
          [
            "/wiki/M._Night_Shyamalan"
          ]
        ],
        [
          "The Sixth Sense",
          [
            "/wiki/The_Sixth_Sense"
          ]
        ],
        [
          "1999",
          [
            "/wiki/72nd_Academy_Awards"
          ]
        ],
        [
          "August 6 , 1970",
          []
        ],
        [
          "February 15 , 2000",
          []
        ]
      ],
      [
        [
          "6",
          []
        ],
        [
          "29 years , 281 days",
          []
        ],
        [
          "George Lucas",
          [
            "/wiki/George_Lucas"
          ]
        ],
        [
          "American Graffiti",
          [
            "/wiki/American_Graffiti"
          ]
        ],
        [
          "1973",
          [
            "/wiki/46th_Academy_Awards"
          ]
        ],
        [
          "May 14 , 1944",
          []
        ],
        [
          "February 19 , 1974",
          []
        ]
      ],
      [
        [
          "7",
          []
        ],
        [
          "30 years , 88 days",
          []
        ],
        [
          "Benh Zeitlin",
          [
            "/wiki/Benh_Zeitlin"
          ]
        ],
        [
          "Beasts of the Southern Wild",
          [
            "/wiki/Beasts_of_the_Southern_Wild"
          ]
        ],
        [
          "2012",
          [
            "/wiki/85th_Academy_Awards"
          ]
        ],
        [
          "October 14 , 1982",
          []
        ],
        [
          "January 10 , 2013",
          []
        ]
      ],
      [
        [
          "8",
          []
        ],
        [
          "30 years , 95 days",
          []
        ],
        [
          "Jason Reitman",
          [
            "/wiki/Jason_Reitman"
          ]
        ],
        [
          "Juno",
          [
            "/wiki/Juno_(film)"
          ]
        ],
        [
          "2007",
          [
            "/wiki/80th_Academy_Awards"
          ]
        ],
        [
          "October 19 , 1977",
          []
        ],
        [
          "January 22 , 2008",
          []
        ]
      ],
      [
        [
          "9",
          []
        ],
        [
          "30 years , 116 days",
          []
        ],
        [
          "Spike Jonze",
          [
            "/wiki/Spike_Jonze"
          ]
        ],
        [
          "Being John Malkovich",
          [
            "/wiki/Being_John_Malkovich"
          ]
        ],
        [
          "1999",
          [
            "/wiki/72nd_Academy_Awards"
          ]
        ],
        [
          "October 22 , 1969",
          []
        ],
        [
          "February 15 , 2000",
          []
        ]
      ],
      [
        [
          "10",
          []
        ],
        [
          "31 years , 65 days",
          []
        ],
        [
          "Steven Spielberg",
          [
            "/wiki/Steven_Spielberg"
          ]
        ],
        [
          "Close Encounters of the Third Kind",
          [
            "/wiki/Close_Encounters_of_the_Third_Kind"
          ]
        ],
        [
          "1977",
          [
            "/wiki/50th_Academy_Awards"
          ]
        ],
        [
          "December 18 , 1946",
          []
        ],
        [
          "February 21 , 1978",
          []
        ]
      ]
    ],
    "section_title": "Best Director -- Youngest nominees",
    "section_text": "",
    "uid": "List_of_oldest_and_youngest_Academy_Award_winners_and_nominees_4",
    "intro": "This is a list of oldest and youngest Academy Award winners and nominees in the award categories acting and directing. This list is based on statistics valid through the nomination announcement for the 2015 (88th Academy Awards), announced on January 14, 2016, as documented in The Official Academy Awards Database. At the 90th Academy Awards, James Ivory became the oldest ever Oscar winner in any category at the age of 89 after receiving the award for Best Adapted Screenplay for his work on Call Me by Your Name. [circular reference] There are only two people in Oscar history to have won two Oscars before the age of 30; Luise Rainer and Jodie Foster."
  },
  "List_of_Speakers_of_the_Massachusetts_House_of_Representatives_0": {
    "url": "https://en.wikipedia.org/wiki/List_of_Speakers_of_the_Massachusetts_House_of_Representatives",
    "title": "List of Speakers of the Massachusetts House of Representatives",
    "header": [
      [
        "Speaker",
        []
      ],
      [
        "Years \u2191",
        []
      ],
      [
        "Town",
        []
      ]
    ],
    "data": [
      [
        [
          "William Hathorne",
          [
            "/wiki/William_Hathorne"
          ]
        ],
        [
          "1644-1645",
          []
        ],
        [
          "Salem",
          [
            "/wiki/Salem,_Massachusetts"
          ]
        ]
      ],
      [
        [
          "George Cooke",
          [
            "/wiki/George_Cooke_(Massachusetts)"
          ]
        ],
        [
          "1645",
          []
        ],
        [
          "Cambridge",
          [
            "/wiki/Cambridge,_Massachusetts"
          ]
        ]
      ],
      [
        [
          "William Hathorne",
          []
        ],
        [
          "1646",
          []
        ],
        [
          "Salem",
          []
        ]
      ],
      [
        [
          "Robert Bridges",
          []
        ],
        [
          "1646",
          []
        ],
        [
          "Lynn",
          [
            "/wiki/Lynn,_Massachusetts"
          ]
        ]
      ],
      [
        [
          "Joseph Hills",
          []
        ],
        [
          "1647",
          []
        ],
        [
          "Mistick Side",
          [
            "/wiki/Medford,_Massachusetts"
          ]
        ]
      ],
      [
        [
          "William Hathorne",
          []
        ],
        [
          "1648",
          []
        ],
        [
          "Salem",
          []
        ]
      ],
      [
        [
          "Richard Russell",
          []
        ],
        [
          "1648",
          []
        ],
        [
          "Charlestown",
          [
            "/wiki/Charlestown,_Boston"
          ]
        ]
      ],
      [
        [
          "Daniel Denison",
          [
            "/wiki/Daniel_Denison_(colonist)"
          ]
        ],
        [
          "1649",
          []
        ],
        [
          "Ipswich",
          [
            "/wiki/Ipswich,_Massachusetts"
          ]
        ]
      ],
      [
        [
          "William Hathorne",
          []
        ],
        [
          "1650",
          []
        ],
        [
          "Salem",
          []
        ]
      ],
      [
        [
          "Daniel Gookin",
          [
            "/wiki/Daniel_Gookin"
          ]
        ],
        [
          "1651",
          []
        ],
        [
          "Cambridge",
          [
            "/wiki/Cambridge,_Massachusetts"
          ]
        ]
      ],
      [
        [
          "Daniel Denison",
          []
        ],
        [
          "1651-1652",
          []
        ],
        [
          "Ipswich",
          [
            "/wiki/Ipswich,_Massachusetts"
          ]
        ]
      ],
      [
        [
          "Humphrey Atherton",
          [
            "/wiki/Humphrey_Atherton"
          ]
        ],
        [
          "1653",
          []
        ],
        [
          "Springfield",
          [
            "/wiki/Springfield,_Massachusetts"
          ]
        ]
      ],
      [
        [
          "Richard Russell",
          []
        ],
        [
          "1654",
          []
        ],
        [
          "Charlestown",
          []
        ]
      ],
      [
        [
          "Edward Johnson",
          []
        ],
        [
          "1655",
          []
        ],
        [
          "",
          []
        ]
      ],
      [
        [
          "Richard Russell",
          []
        ],
        [
          "1656",
          []
        ],
        [
          "Charlestown",
          []
        ]
      ],
      [
        [
          "William Hathorne",
          [
            "/wiki/William_Hathorne"
          ]
        ],
        [
          "1657",
          []
        ],
        [
          "Salem",
          []
        ]
      ],
      [
        [
          "Richard Russell",
          []
        ],
        [
          "1658",
          []
        ],
        [
          "Charlestown",
          []
        ]
      ],
      [
        [
          "Thomas Savage",
          []
        ],
        [
          "1659-1660",
          []
        ],
        [
          "",
          []
        ]
      ],
      [
        [
          "William Hathorne",
          []
        ],
        [
          "1660-1661",
          []
        ],
        [
          "Salem",
          []
        ]
      ],
      [
        [
          "Thomas Clarke",
          []
        ],
        [
          "1662",
          []
        ],
        [
          "",
          []
        ]
      ]
    ],
    "section_title": "House of Deputies of the Massachusetts Bay Colony",
    "section_text": "",
    "uid": "List_of_Speakers_of_the_Massachusetts_House_of_Representatives_0",
    "intro": "This is a list of Speakers of the Massachusetts House of Representatives."
  },
  "List_of_AM_radio_stations_in_the_United_States_by_call_sign_(initial_letters_KG\u2013KM)_5": {
    "url": "https://en.wikipedia.org/wiki/List_of_AM_radio_stations_in_the_United_States_by_call_sign_(initial_letters_KG\u2013KM)",
    "title": "List of AM radio stations in the United States by call sign (initial letters KG\u2013KM)",
    "header": [
      [
        "Callsign",
        []
      ],
      [
        "Frequency",
        []
      ],
      [
        "City of License",
        []
      ]
    ],
    "data": [
      [
        [
          "KLAA",
          [
            "/wiki/KLAA_(AM)"
          ]
        ],
        [
          "830 AM",
          []
        ],
        [
          "Orange , California",
          [
            "/wiki/Orange,_California"
          ]
        ]
      ],
      [
        [
          "KLAC",
          [
            "/wiki/KLAC"
          ]
        ],
        [
          "570 AM",
          []
        ],
        [
          "Los Angeles",
          [
            "/wiki/Los_Angeles"
          ]
        ]
      ],
      [
        [
          "KLAD",
          [
            "/wiki/KLAD_(AM)"
          ]
        ],
        [
          "960 AM",
          []
        ],
        [
          "Klamath Falls , Oregon",
          [
            "/wiki/Klamath_Falls,_Oregon"
          ]
        ]
      ],
      [
        [
          "KLAM",
          [
            "/wiki/KLAM"
          ]
        ],
        [
          "1450 AM",
          []
        ],
        [
          "Cordova , Alaska",
          [
            "/wiki/Cordova,_Alaska"
          ]
        ]
      ],
      [
        [
          "KLAR",
          [
            "/wiki/KLAR"
          ]
        ],
        [
          "1300 AM",
          []
        ],
        [
          "Laredo , Texas",
          [
            "/wiki/Laredo,_Texas"
          ]
        ]
      ],
      [
        [
          "KLAT",
          [
            "/wiki/KLAT"
          ]
        ],
        [
          "1010 AM",
          []
        ],
        [
          "Houston , Texas",
          [
            "/wiki/Houston"
          ]
        ]
      ],
      [
        [
          "KLAV",
          [
            "/wiki/KLAV"
          ]
        ],
        [
          "1230 AM",
          []
        ],
        [
          "Las Vegas , Nevada",
          [
            "/wiki/Las_Vegas"
          ]
        ]
      ],
      [
        [
          "KLAY",
          [
            "/wiki/KLAY"
          ]
        ],
        [
          "1180 AM",
          []
        ],
        [
          "Lakewood , Washington",
          [
            "/wiki/Lakewood,_Washington"
          ]
        ]
      ],
      [
        [
          "KLBB",
          [
            "/wiki/KLBB_(AM)"
          ]
        ],
        [
          "1220 AM",
          []
        ],
        [
          "Stillwater , Minnesota",
          [
            "/wiki/Stillwater,_Minnesota"
          ]
        ]
      ],
      [
        [
          "KLBJ",
          [
            "/wiki/KLBJ_(AM)"
          ]
        ],
        [
          "590 AM",
          []
        ],
        [
          "Austin , Texas",
          [
            "/wiki/Austin,_Texas"
          ]
        ]
      ],
      [
        [
          "KLBM",
          [
            "/wiki/KLBM"
          ]
        ],
        [
          "1450 AM",
          []
        ],
        [
          "La Grande , Oregon",
          [
            "/wiki/La_Grande,_Oregon"
          ]
        ]
      ],
      [
        [
          "KLBS",
          [
            "/wiki/KLBS"
          ]
        ],
        [
          "1330 AM",
          []
        ],
        [
          "Los Banos , California",
          [
            "/wiki/Los_Banos,_California"
          ]
        ]
      ],
      [
        [
          "KLBW",
          [
            "/wiki/KLBW"
          ]
        ],
        [
          "1530 AM",
          []
        ],
        [
          "New Boston , Texas",
          [
            "/wiki/New_Boston,_Texas"
          ]
        ]
      ],
      [
        [
          "KLCB",
          [
            "/wiki/KLCB"
          ]
        ],
        [
          "1230 AM",
          []
        ],
        [
          "Libby , Montana",
          [
            "/wiki/Libby,_Montana"
          ]
        ]
      ],
      [
        [
          "KLCK",
          [
            "/wiki/KLCK_(AM)"
          ]
        ],
        [
          "1400 AM",
          []
        ],
        [
          "Goldendale , Washington",
          [
            "/wiki/Goldendale,_Washington"
          ]
        ]
      ],
      [
        [
          "KLCL",
          [
            "/wiki/KLCL"
          ]
        ],
        [
          "1470 AM",
          []
        ],
        [
          "Lake Charles , Louisiana",
          [
            "/wiki/Lake_Charles,_Louisiana"
          ]
        ]
      ],
      [
        [
          "KLDC",
          [
            "/wiki/KLDC"
          ]
        ],
        [
          "1220 AM",
          []
        ],
        [
          "Denver , Colorado",
          [
            "/wiki/Denver"
          ]
        ]
      ],
      [
        [
          "KLDS",
          [
            "/wiki/KLDS"
          ]
        ],
        [
          "1260 AM",
          []
        ],
        [
          "Falfurrias , Texas",
          [
            "/wiki/Falfurrias,_Texas"
          ]
        ]
      ],
      [
        [
          "KLDY",
          [
            "/wiki/KLDY"
          ]
        ],
        [
          "1280 AM",
          []
        ],
        [
          "Lacey , Washington",
          [
            "/wiki/Lacey,_Washington"
          ]
        ]
      ],
      [
        [
          "KLEB",
          [
            "/wiki/KLEB"
          ]
        ],
        [
          "1600 AM",
          []
        ],
        [
          "Golden Meadow , Louisiana",
          [
            "/wiki/Golden_Meadow,_Louisiana"
          ]
        ]
      ]
    ],
    "section_title": "KL --",
    "section_text": "",
    "uid": "List_of_AM_radio_stations_in_the_United_States_by_call_sign_(initial_letters_KG\u2013KM)_5",
    "intro": "This is a list of AM radio stations in the United States having call signs beginning with the letters KG to KM."
  },
  "List_of_historical_markers_of_the_Philippines_in_Central_Luzon_0": {
    "url": "https://en.wikipedia.org/wiki/List_of_historical_markers_of_the_Philippines_in_Central_Luzon",
    "title": "List of historical markers of the Philippines in Central Luzon",
    "header": [
      [
        "Marker title",
        []
      ],
      [
        "Category",
        []
      ],
      [
        "Type",
        []
      ],
      [
        "Description",
        []
      ],
      [
        "Location",
        []
      ],
      [
        "Language",
        []
      ],
      [
        "Date Issued",
        []
      ]
    ],
    "data": [
      [
        [
          "Aurora Aragon Quezon ( 1888-1949 )",
          [
            "/wiki/Aurora_Quezon"
          ]
        ],
        [
          "Building",
          []
        ],
        [
          "House",
          []
        ],
        [
          "First Lady of Manuel Quezon and became the first head of the Philippine Red Cross",
          [
            "/wiki/Manuel_L._Quezon",
            "/wiki/Philippine_Red_Cross"
          ]
        ],
        [
          "Aurora Aragon Quezon Ancestral House , Rizal St. , Baler",
          [
            "/wiki/Baler,_Aurora"
          ]
        ],
        [
          "Filipino",
          []
        ],
        [
          "February 19 , 1985",
          []
        ]
      ],
      [
        [
          "Bayan ng Baler",
          [
            "/wiki/Baler,_Aurora"
          ]
        ],
        [
          "",
          []
        ],
        [
          "",
          []
        ],
        [
          "An old community of Barrio Sabang before the arrival of the Spaniards , established as a Franciscan mission in 1609",
          []
        ],
        [
          "Baler Plaza , Baler",
          [
            "/wiki/Baler,_Aurora"
          ]
        ],
        [
          "Filipino",
          []
        ],
        [
          "2009",
          []
        ]
      ],
      [
        [
          "Birthplace of Manuel Luis Quezon",
          [
            "/wiki/Manuel_L._Quezon"
          ]
        ],
        [
          "Structure",
          []
        ],
        [
          "Monument",
          []
        ],
        [
          "Site of the house where Manuel Quezon was born on August 19 , 1878",
          []
        ],
        [
          "Museo Baler , Quezon St. , Baler",
          [
            "/wiki/Baler,_Aurora"
          ]
        ],
        [
          "English",
          []
        ],
        [
          "1948",
          []
        ]
      ],
      [
        [
          "Dikaloyungan",
          []
        ],
        [
          "Site",
          []
        ],
        [
          "Site",
          []
        ],
        [
          "Site of declaration of defiance against the Spaniards in Aurora . Katipuneros tore their cedula here on September 3 , 1897",
          [
            "/wiki/Community_Tax_Certificate"
          ]
        ],
        [
          "Recto St. , Brgy . Zabali , Baler",
          [
            "/wiki/Baler,_Aurora"
          ]
        ],
        [
          "Filipino",
          []
        ],
        [
          "June 30 , 2005",
          []
        ]
      ],
      [
        [
          "Lt. Gilmore Rescue Party",
          []
        ],
        [
          "Site",
          []
        ],
        [
          "Site",
          []
        ],
        [
          "Site of a rescue party of Lt. James C. Gilmore to rescue the Spanish garrison against Philippine revolutionaries",
          []
        ],
        [
          "Baler Plaza , San Luis St. , Baler",
          [
            "/wiki/Baler,_Aurora"
          ]
        ],
        [
          "English",
          []
        ],
        [
          "1939",
          []
        ]
      ],
      [
        [
          "Siege of the Church of Baler",
          [
            "/wiki/Siege_of_Baler"
          ]
        ],
        [
          "Building",
          []
        ],
        [
          "House of Worship",
          []
        ],
        [
          "The Spanish garrison was besieged in Baler Church from June 27 , 1898 to June 2 , 1899",
          []
        ],
        [
          "Baler Church , Baler",
          [
            "/wiki/Baler,_Aurora"
          ]
        ],
        [
          "English",
          []
        ],
        [
          "1939",
          []
        ]
      ],
      [
        [
          "Simbahan ng Baler",
          []
        ],
        [
          "Building",
          []
        ],
        [
          "House of Worship",
          []
        ],
        [
          "First built by Franciscans in 1611 , site of the Siege of the Church of Baler",
          []
        ],
        [
          "Baler Church , Baler",
          [
            "/wiki/Baler,_Aurora"
          ]
        ],
        [
          "English",
          []
        ],
        [
          "April 12 , 2000",
          []
        ]
      ]
    ],
    "section_title": "Aurora",
    "section_text": "",
    "uid": "List_of_historical_markers_of_the_Philippines_in_Central_Luzon_0",
    "intro": "This list of historical markers installed by the National Historical Commission of the Philippines (NHCP) in Central Luzon is an annotated list of people, places, or events in the region that have been commemorated by cast-iron plaques issued by the said commission. The plaques themselves are permanent signs installed in publicly visible locations on buildings, monuments, or in special locations. While many Cultural Properties have historical markers installed, not all places marked with historical markers are designated into one of the particular categories of Cultural Properties. A marker on the site of the assassination of Aurora Aragon Quezon in Bongabon was rededicated on the site on April 28, 2013 after the original marker dated February 13, 1991 went missing. There has been an issue regarding the possible relocation of a historical marker dedicated to Francisco Soc Rodrigo in Bulakan over ownership issues of the heritage house. On June 3, 2016, it was the first time for the NHCP to unveil a marker for a nameless personality. A marker was installed in Macabebe, commemorating the leader of the Battle of Bangkusay Channel, the first native to give up his life for independence. The first historical marker in the Kapampangan language was unveiled on August 17, 2017 for the Holy Rosary Parish Church of Angeles City. This also served as a rectification for the earlier marker of the Pamintuan Mansion saying that the said house was the site of the first anniversary celebration of the independence of the Philippines. Thus, replacement markers were also installed for the said house."
  }
}