{
  "Straw_polls_for_the_Republican_Party_presidential_primaries,_2012_59": {
    "url": "https://en.wikipedia.org/wiki/Straw_polls_for_the_2012_Republican_Party_presidential_primaries",
    "title": "Straw polls for the 2012 Republican Party presidential primaries",
    "header": [
      [
        "Finish",
        []
      ],
      [
        "Candidate",
        []
      ],
      [
        "Percentage",
        []
      ],
      [
        "Votes",
        []
      ]
    ],
    "data": [
      [
        [
          "1",
          []
        ],
        [
          "Ron Paul",
          [
            "/wiki/Ron_Paul"
          ]
        ],
        [
          "85%",
          []
        ],
        [
          "256",
          []
        ]
      ],
      [
        [
          "2",
          []
        ],
        [
          "Newt Gingrich",
          [
            "/wiki/Newt_Gingrich"
          ]
        ],
        [
          "6.6%",
          []
        ],
        [
          "20",
          []
        ]
      ],
      [
        [
          "3",
          []
        ],
        [
          "Mitt Romney",
          [
            "/wiki/Mitt_Romney"
          ]
        ],
        [
          "5.6%",
          []
        ],
        [
          "17",
          []
        ]
      ],
      [
        [
          "4",
          []
        ],
        [
          "Rick Santorum",
          [
            "/wiki/Rick_Santorum"
          ]
        ],
        [
          "2.7%",
          []
        ],
        [
          "8",
          []
        ]
      ],
      [
        [
          "",
          []
        ],
        [
          "Total",
          []
        ],
        [
          "100%",
          []
        ],
        [
          "301",
          []
        ]
      ]
    ],
    "section_title": "January 28 , 2012 , Arizona Republican Party Presidential Straw Poll",
    "section_text": "Results : [ 72 ]",
    "uid": "Straw_polls_for_the_Republican_Party_presidential_primaries,_2012_59",
    "intro": "This is a list of straw polls that have been conducted relating to the Republican presidential primaries, 2012."
  },
  "List_of_Intangible_Cultural_Heritage_elements_in_Northern_Europe_0": {
    "url": "https://en.wikipedia.org/wiki/List_of_Intangible_Cultural_Heritage_elements_in_Northern_Europe",
    "title": "List of Intangible Cultural Heritage elements in Northern Europe",
    "header": [
      [
        "Name",
        []
      ],
      [
        "Region",
        []
      ],
      [
        "Country",
        []
      ],
      [
        "Year",
        []
      ],
      [
        "Session",
        []
      ],
      [
        "Description",
        []
      ],
      [
        "Site",
        []
      ]
    ],
    "data": [
      [
        [
          "Baltic song and dance celebrations",
          []
        ],
        [
          "Baltic states",
          [
            "/wiki/Baltic_states"
          ]
        ],
        [
          "Estonia Latvia Lithuania",
          [
            "/wiki/Estonia",
            "/wiki/Latvia",
            "/wiki/Lithuania"
          ]
        ],
        [
          "2008",
          []
        ],
        [
          "3.COM",
          []
        ],
        [
          "UNESCO has inscribed the folk festivals of the Baltic countries , which celebrate the region 's heritage of dancing and musical performances . Three events are directly mentioned . The first is the Estonian Song Festival , held once every five years . The event was first held in 1869 , when the region was still under the control of Tsarist Russia . The second , the Latvian song festival , is also held every five years , beginning in 1873 . The third is the Lithuanian Song and Dance Celebration , held once every four years . The festival originates in Kaunas , and was first celebrated in 1924 . The Baltic celebrations attract participants and visitors from around the world . All three events served as a celebration of national pride , and continued , even under the rule of the Soviet Union . During the fall of Communism , revolutions in the region were dubbed Singing Revolutions , a name derived from the influence of folk festivals on the drive for independence",
          [
            "/wiki/Tsardom_of_Russia",
            "/wiki/Revolutions_of_1989"
          ]
        ],
        [
          "",
          []
        ]
      ],
      [
        [
          "Kihnu cultural space",
          [
            "/wiki/Kihnu"
          ]
        ],
        [
          "Kihnu island and Manilaid island in the Baltic Sea",
          [
            "/wiki/Kihnu",
            "/wiki/Manilaid",
            "/wiki/Baltic_Sea"
          ]
        ],
        [
          "Estonia",
          [
            "/wiki/Estonia"
          ]
        ],
        [
          "2008",
          []
        ],
        [
          "3.COM",
          []
        ],
        [
          "UNESCO has inscribed the cultural practices of the Kihnu people . This includes the sealing and fishing traditionally performed by the men , the farming traditionally performed by the women , and the musical performances , celebrations , and handicrafts of the community . The Kihnu people have retained the tradition of performing runic songs , a form of song that predates Christianity . Kihnu clothing , made of wool , are covered with colourful decorations , which serve as representations of the mythology of the community",
          [
            "/wiki/Seal_hunting"
          ]
        ],
        [
          "",
          []
        ]
      ],
      [
        [
          "Seto Leelo , Seto polyphonic singing tradition",
          [
            "/wiki/Setos"
          ]
        ],
        [
          "Southeastern Estonia and the Pechorsky District of Pskov Oblast , Russia",
          [
            "/wiki/Pechorsky_District",
            "/wiki/Pskov_Oblast",
            "/wiki/Russia"
          ]
        ],
        [
          "Estonia",
          [
            "/wiki/Estonia"
          ]
        ],
        [
          "2009",
          []
        ],
        [
          "4.COM 13.38",
          []
        ],
        [
          "The performance of leelo , a tradition practiced by the Seto people , has been inscribed as an intangible cultural heritage . Leelo is a form of polyphonic singing performed by participants , usually women , dressed in traditional clothing . During the Seto Kingdom Day celebration , the winning lead singer of a leelo group is awarded the title of Mother of Song",
          [
            "/wiki/Polyphony"
          ]
        ],
        [
          "",
          []
        ]
      ],
      [
        [
          "Suiti cultural space",
          [
            "/wiki/Alsunga"
          ]
        ],
        [
          "Western Latvia",
          []
        ],
        [
          "Latvia",
          [
            "/wiki/Latvia"
          ]
        ],
        [
          "2009",
          []
        ],
        [
          "4.COM 14.07",
          []
        ],
        [
          "The culture and traditions of the Suiti people are inscribed as an intangible cultural heritage . This includes the community 's festivals , celebrations , food , folk clothing , religious practices , language , and dance and musical performances . Living in a region that is largely Protestant , the Suiti people are followers of Catholicism , a belief system that survived the Latvian Soviet Socialist Republic era",
          [
            "/wiki/Latvian_Soviet_Socialist_Republic"
          ]
        ],
        [
          "",
          []
        ]
      ],
      [
        [
          "Cross-crafting and its symbolism",
          [
            "/wiki/Lithuanian_cross_crafting"
          ]
        ],
        [
          "National",
          []
        ],
        [
          "Lithuania",
          [
            "/wiki/Lithuania"
          ]
        ],
        [
          "2008",
          []
        ],
        [
          "3.COM",
          []
        ],
        [
          "Cross-crafting , the art of creating crosses , is a tradition in Lithuania . The practice is part of the Roman Catholic tradition in the region",
          [
            "/wiki/Cross",
            "/wiki/Catholic_Church"
          ]
        ],
        [
          "",
          []
        ]
      ],
      [
        [
          "Sutartin\u0117s , Lithuanian multipart songs",
          [
            "/wiki/Music_of_Lithuania"
          ]
        ],
        [
          "Northeastern Lithuania",
          []
        ],
        [
          "Lithuania",
          [
            "/wiki/Lithuania"
          ]
        ],
        [
          "2010",
          []
        ],
        [
          "5.COM 6.26",
          []
        ],
        [
          "Sutartin\u0117s is a form of Lithuanian folk music . The polyphonic songs are performed during celebrations",
          []
        ],
        [
          "",
          []
        ]
      ],
      [
        [
          "Uilleann piping",
          [
            "/wiki/Uilleann_pipes"
          ]
        ],
        [
          "Ireland",
          []
        ],
        [
          "Ireland",
          [
            "/wiki/Republic_of_Ireland"
          ]
        ],
        [
          "2017",
          []
        ],
        [
          "12.COM 11.b.16",
          []
        ],
        [
          "The practice of playing the uilleann pipes , a highly developed form of bagpipes for playing Irish traditional music",
          [
            "/wiki/Uilleann_pipes",
            "/wiki/Irish_traditional_music"
          ]
        ],
        [
          "",
          []
        ]
      ],
      [
        [
          "Hurling & Camogie",
          [
            "/wiki/Hurling",
            "/wiki/Camogie"
          ]
        ],
        [
          "Ireland",
          []
        ],
        [
          "Ireland",
          [
            "/wiki/Republic_of_Ireland"
          ]
        ],
        [
          "2018",
          []
        ],
        [
          "13.COM",
          []
        ],
        [
          "The bat and ball sports originating in Gaelic culture",
          []
        ],
        [
          "",
          []
        ]
      ]
    ],
    "section_title": "Cultural elements from Northern Europe on the Representative List",
    "section_text": "Six intangible cultural heritage elements on UNESCO 's representative list originate from the region . Three have been inscribed as elements of Estonia and Lithuania , two as elements of Latvia , one for Ireland , and none for Denmark , Finland , Iceland , Norway , Sweden , and the United Kingdom . Estonia , Lithuania , and Latvia share one cultural heritage element . [ 8 ] The table lists information about each International Cultural Heritage element : Name : official name , worded as inscribed on the list Region : region within or outside a country where a heritage is still practiced Country : country , as inscribed on the list Year : the year the site was inscribed on the Intangible Cultural Heritage List Session : the session and decision in which a heritage is inscribed by the committee [ nb 1 ] Description : brief description of the heritage Site : official UNESCO page",
    "uid": "List_of_Intangible_Cultural_Heritage_elements_in_Northern_Europe_0",
    "intro": "Northern Europe comprises Denmark, Estonia, Finland, Iceland, Ireland, Latvia, Lithuania, Norway, Sweden, and the United Kingdom, and the following dependent territories: the Faroe Islands controlled by Denmark, the \u00c5land Islands controlled by Finland, Svalbard and Jan Mayen controlled by Norway, and the British Crown dependencies, Guernsey and Jersey, and the Isle of Man. Out of these, the United Kingdom is not yet party to the Convention for the Safeguarding of the Intangible Cultural Heritage by The United Nations Educational, Scientific and Cultural Organization (UNESCO). The convention was drafted in 2003, and taking effect in 2006. According to the convention, intangible cultural heritage elements are components of the cultural heritage within a territory that are equally as important as physical cultural elements, like World Heritage Sites. The elements are abstract and must be learned, encompassing traditional knowledge which includes festivals, music, performances, celebrations, handicrafts, and oral traditions. Intangible cultural heritage is based on the opinions of local communities, as according to the convention there needs to be stakeholders viewing the elements as their heritage. The member states undertake to create one or several inventories of the intangible cultural heritage within their territory. This work is ongoing in Northern Europe. UNESCO upholds two international lists of intangible cultural heritage, the Representative List of the Intangible Cultural Heritage of Humanity and the List of Intangible Cultural Heritage in Need of Urgent Safeguarding. The member states apply for cultural elements to be added to the international lists. The Intergovernmental Committee for the Safeguarding of Intangible Cultural Heritage, which approves new inscription requests, and a definition of intangible cultural heritage. As part of the convention, the UNESCO also upholds the Register of Good Safeguarding Practices that contains that reflect the principles of the convention - that is to uphold living traditions."
  },
  "Cross-country_skiing_at_the_FIS_Nordic_World_Ski_Championships_2007_3": {
    "url": "https://en.wikipedia.org/wiki/Cross-country_skiing_at_the_FIS_Nordic_World_Ski_Championships_2007",
    "title": "Cross-country skiing at the FIS Nordic World Ski Championships 2007",
    "header": [
      [
        "Medal",
        []
      ],
      [
        "Athlete",
        []
      ],
      [
        "Time",
        []
      ]
    ],
    "data": [
      [
        [
          "Gold",
          []
        ],
        [
          "Axel Teichmann ( GER )",
          [
            "/wiki/Axel_Teichmann"
          ]
        ],
        [
          "1:11:35.8",
          []
        ]
      ],
      [
        [
          "Silver",
          []
        ],
        [
          "Tobias Angerer ( GER )",
          [
            "/wiki/Tobias_Angerer"
          ]
        ],
        [
          "1:11:36.3",
          []
        ]
      ],
      [
        [
          "Bronze",
          []
        ],
        [
          "Pietro Piller Cottrer ( ITA )",
          [
            "/wiki/Pietro_Piller_Cottrer"
          ]
        ],
        [
          "1:11:36.7",
          []
        ]
      ],
      [
        [
          "4",
          []
        ],
        [
          "Jens Filbrich ( GER )",
          [
            "/wiki/Jens_Filbrich"
          ]
        ],
        [
          "1:11:39.0",
          []
        ]
      ],
      [
        [
          "5",
          []
        ],
        [
          "Petter Northug ( NOR )",
          [
            "/wiki/Petter_Northug"
          ]
        ],
        [
          "1:11:44.0",
          []
        ]
      ],
      [
        [
          "6",
          []
        ],
        [
          "Alexander Legkov ( RUS )",
          [
            "/wiki/Alexander_Legkov"
          ]
        ],
        [
          "1:11:45.3",
          []
        ]
      ],
      [
        [
          "7",
          []
        ],
        [
          "Luk\u00e1\u0161 Bauer ( CZE )",
          [
            "/wiki/Luk\u00e1\u0161_Bauer"
          ]
        ],
        [
          "1:11:51.3",
          []
        ]
      ],
      [
        [
          "8",
          []
        ],
        [
          "Anders S\u00f6dergren ( SWE )",
          [
            "/wiki/Anders_S\u00f6dergren"
          ]
        ],
        [
          "1:11:51.6",
          []
        ]
      ],
      [
        [
          "9",
          []
        ],
        [
          "Toni Livers ( SUI )",
          [
            "/wiki/Toni_Livers"
          ]
        ],
        [
          "1:11:51.7",
          []
        ]
      ],
      [
        [
          "10",
          []
        ],
        [
          "Vincent Vittoz ( FRA )",
          [
            "/wiki/Vincent_Vittoz"
          ]
        ],
        [
          "1:11:52.4",
          []
        ]
      ]
    ],
    "section_title": "Men 's events -- 15 km + 15 km double pursuit",
    "section_text": "February 24 , 2007 at the Shirahatayama Open Stadium . France 's Vincent Vittoz was the defending champion , but the Frenchman lost contact at the end of the classical section , never recovered , and finished tenth . The top three positions at the end of the classical part were Germany 's Jens Filbrich ( who finished fourth ) , Sweden 's Mathias Fredriksson ( who finished 14th ) , and Angerer . A peloton of 15\u201320 skiers entered the last lap in the lead , but Angerer blew the field apart in the final climb , reducing the field to six in the last 500 metres . Norway 's Petter Northug , at his first individual World Championship appearance , advanced through the six-man group in the final 500 m stretch , but stuck a pole between his skis and took a tumble with approximately 300 metres to the finish , eventually finishing fifth . Teichmann beat Angerer in a dash to the finish , while Piller Cottrer settled for bronze . Teichmann and Angerer are the first Germans to win gold and silver at the same distance in the cross-country portion of the World Championships . [ 8 ] [ 9 ]",
    "uid": "Cross-country_skiing_at_the_FIS_Nordic_World_Ski_Championships_2007_3",
    "intro": "Cross-country skiing was one of the three disciplines of the FIS Nordic World Ski Championships 2007, held between February 22 and March 4, 2007 in Sapporo, Japan. The sprint events were held at the Sapporo Dome and the distance races were held at the Shirahatayama Open Stadium. The distances and skiing styles were unchanged from Oberstdorf, and as in 2005, nine different nations won medals. However, France and Canada were without medals this time around, replaced by Belarus, who won their first medal ever through 19-year-old Leanid Karneyenka, and Slovenia, for whom Petra Majdi\u010d won silver on the very first day of the Championships. Norway took the most medals: twelve medals of a possible 36, with five of twelve golds, despite falling in the men's team sprint where the Norwegians were defending champions. However, compared to 2005 Norway had one less gold medal and two fewer medals, largely due to the less than stellar performance of Marit Bj\u00f8rgen, who won five medals in Oberstdorf, but earned her best individual finish of ninth in the 30 km event in Sapporo. However, Norwegian skiers won both the sprint and 15 km for men, events they had not taken in 2005, as well as dominating the 50 km with gold and silver. Finland took three golds and a bronze, all by Virpi Kuitunen, who won the most medals at the games, while Germany won six medals but only one gold with Tobias Angerer in the 15 km + 15 km double pursuit where German skiers finished first, second and fourth. Russia won four medals, earned by the men's team (sprint and relay: both silvers) and Olga Zavyalova, but also had to suffer with a doping controversy with newcomer Sergey Shiryayev being disqualified for EPO doping and serving a two-year ban as a result. The Czech Republic won three medals, with Kate\u0159ina Neumannov\u00e1 winning a gold and a silver medal at her final World Championships to retire with five medals, as did Italy, where 35-year-old Cristian Zorzi won his first gold medal at the World Championships with a team sprint win along with Renato Pasini. Finally, Sweden won two medals, with substitute Mats Larsson winning silver in the individual sprint, and the relay team winning bronze."
  },
  "Straw_polls_for_the_Republican_Party_presidential_primaries,_2012_68": {
    "url": "https://en.wikipedia.org/wiki/Straw_polls_for_the_2012_Republican_Party_presidential_primaries",
    "title": "Straw polls for the 2012 Republican Party presidential primaries",
    "header": [
      [
        "Place",
        []
      ],
      [
        "Candidate",
        []
      ],
      [
        "Percentage",
        []
      ]
    ],
    "data": [
      [
        [
          "1",
          []
        ],
        [
          "Rick Perry",
          [
            "/wiki/Rick_Perry"
          ]
        ],
        [
          "36%",
          []
        ]
      ],
      [
        [
          "2",
          []
        ],
        [
          "Ron Paul",
          [
            "/wiki/Ron_Paul"
          ]
        ],
        [
          "23%",
          []
        ]
      ],
      [
        [
          "3",
          []
        ],
        [
          "Michele Bachmann",
          [
            "/wiki/Michele_Bachmann"
          ]
        ],
        [
          "18%",
          []
        ]
      ],
      [
        [
          "4",
          []
        ],
        [
          "Sarah Palin",
          [
            "/wiki/Sarah_Palin"
          ]
        ],
        [
          "13%",
          []
        ]
      ],
      [
        [
          "5",
          []
        ],
        [
          "Herman Cain",
          [
            "/wiki/Herman_Cain"
          ]
        ],
        [
          "8%",
          []
        ]
      ],
      [
        [
          "6",
          []
        ],
        [
          "Mitt Romney",
          [
            "/wiki/Mitt_Romney"
          ]
        ],
        [
          "2%",
          []
        ]
      ],
      [
        [
          "7",
          []
        ],
        [
          "Jon Huntsman",
          [
            "/wiki/Jon_Huntsman_Jr."
          ]
        ],
        [
          "0%",
          []
        ]
      ],
      [
        [
          "8",
          []
        ],
        [
          "Rick Santorum",
          [
            "/wiki/Rick_Santorum"
          ]
        ],
        [
          "0%",
          []
        ]
      ],
      [
        [
          "Total",
          []
        ],
        [
          "",
          []
        ],
        [
          "100%",
          []
        ]
      ]
    ],
    "section_title": "August 15 , 2011 , Milwaukee , Wisconsin - Wisconsin State Fair straw poll",
    "section_text": "",
    "uid": "Straw_polls_for_the_Republican_Party_presidential_primaries,_2012_68",
    "intro": "This is a list of straw polls that have been conducted relating to the Republican presidential primaries, 2012."
  },
  "List_of_United_States_senators_in_the_53rd_Congress_by_seniority_1": {
    "url": "https://en.wikipedia.org/wiki/List_of_United_States_senators_in_the_53rd_Congress_by_seniority",
    "title": "List of United States senators in the 53rd Congress by seniority",
    "header": [
      [
        "Rank",
        []
      ],
      [
        "Senator ( party-state )",
        []
      ],
      [
        "Seniority date",
        []
      ]
    ],
    "data": [
      [
        [
          "1",
          []
        ],
        [
          "Justin Smith Morrill ( R - VT )",
          [
            "/wiki/Justin_Smith_Morrill",
            "/wiki/Republican_Party_(United_States)",
            "/wiki/List_of_United_States_senators_from_Vermont"
          ]
        ],
        [
          "March 4 , 1867",
          []
        ]
      ],
      [
        [
          "2",
          []
        ],
        [
          "Matt W. Ransom ( D - NC )",
          [
            "/wiki/Matt_Whitaker_Ransom",
            "/wiki/Democratic_Party_(United_States)",
            "/wiki/List_of_United_States_senators_from_North_Carolina"
          ]
        ],
        [
          "January 30 , 1872",
          []
        ]
      ],
      [
        [
          "3",
          []
        ],
        [
          "William B. Allison ( R - IA )",
          [
            "/wiki/William_B._Allison",
            "/wiki/Republican_Party_(United_States)",
            "/wiki/List_of_United_States_senators_from_Iowa"
          ]
        ],
        [
          "March 4 , 1873",
          []
        ]
      ],
      [
        [
          "4",
          []
        ],
        [
          "John P. Jones ( R - NV )",
          [
            "/wiki/John_P._Jones",
            "/wiki/Republican_Party_(United_States)",
            "/wiki/List_of_United_States_senators_from_Nevada"
          ]
        ],
        [
          "March 4 , 1873",
          []
        ]
      ],
      [
        [
          "5",
          []
        ],
        [
          "Francis Cockrell ( D - MO )",
          [
            "/wiki/Francis_Cockrell",
            "/wiki/Democratic_Party_(United_States)",
            "/wiki/List_of_United_States_senators_from_Missouri"
          ]
        ],
        [
          "March 4 , 1875",
          []
        ]
      ],
      [
        [
          "6",
          []
        ],
        [
          "George F. Hoar ( R - MA )",
          [
            "/wiki/George_Frisbie_Hoar",
            "/wiki/Republican_Party_(United_States)",
            "/wiki/List_of_United_States_senators_from_Massachusetts"
          ]
        ],
        [
          "March 4 , 1877",
          []
        ]
      ],
      [
        [
          "7",
          []
        ],
        [
          "Isham G. Harris ( D - TN )",
          [
            "/wiki/Isham_G._Harris",
            "/wiki/Democratic_Party_(United_States)",
            "/wiki/List_of_United_States_senators_from_Tennessee"
          ]
        ],
        [
          "March 4 , 1877",
          []
        ]
      ],
      [
        [
          "8",
          []
        ],
        [
          "John Tyler Morgan ( D - AL )",
          [
            "/wiki/John_Tyler_Morgan",
            "/wiki/Democratic_Party_(United_States)",
            "/wiki/List_of_United_States_senators_from_Alabama"
          ]
        ],
        [
          "March 4 , 1877",
          []
        ]
      ],
      [
        [
          "9",
          []
        ],
        [
          "John R. McPherson ( D - NJ )",
          [
            "/wiki/John_R._McPherson",
            "/wiki/Democratic_Party_(United_States)",
            "/wiki/List_of_United_States_senators_from_New_Jersey"
          ]
        ],
        [
          "March 4 , 1877",
          []
        ]
      ],
      [
        [
          "10",
          []
        ],
        [
          "Matthew Butler ( D - SC )",
          [
            "/wiki/Matthew_Butler",
            "/wiki/Democratic_Party_(United_States)",
            "/wiki/List_of_United_States_senators_from_South_Carolina"
          ]
        ],
        [
          "March 4 , 1877",
          []
        ]
      ],
      [
        [
          "11",
          []
        ],
        [
          "Richard Coke ( D - TX )",
          [
            "/wiki/Richard_Coke",
            "/wiki/Democratic_Party_(United_States)",
            "/wiki/List_of_United_States_senators_from_Texas"
          ]
        ],
        [
          "March 4 , 1877",
          []
        ]
      ],
      [
        [
          "12",
          []
        ],
        [
          "J. Donald Cameron ( R - PA )",
          [
            "/wiki/J._Donald_Cameron",
            "/wiki/Republican_Party_(United_States)",
            "/wiki/List_of_United_States_senators_from_Pennsylvania"
          ]
        ],
        [
          "March 20 , 1877",
          []
        ]
      ],
      [
        [
          "13",
          []
        ],
        [
          "Daniel W. Voorhees ( D - IN )",
          [
            "/wiki/Daniel_W._Voorhees",
            "/wiki/Democratic_Party_(United_States)",
            "/wiki/List_of_United_States_senators_from_Indiana"
          ]
        ],
        [
          "November 6 , 1877",
          []
        ]
      ],
      [
        [
          "14",
          []
        ],
        [
          "George G. Vest ( D - MO )",
          [
            "/wiki/George_Graham_Vest",
            "/wiki/Democratic_Party_(United_States)",
            "/wiki/List_of_United_States_senators_from_Missouri"
          ]
        ],
        [
          "March 4 , 1879",
          []
        ]
      ],
      [
        [
          "15",
          []
        ],
        [
          "Orville H. Platt ( R - CT )",
          [
            "/wiki/Orville_H._Platt",
            "/wiki/Republican_Party_(United_States)",
            "/wiki/List_of_United_States_senators_from_Connecticut"
          ]
        ],
        [
          "March 4 , 1879",
          []
        ]
      ],
      [
        [
          "16",
          []
        ],
        [
          "Wilkinson Call ( D - FL )",
          [
            "/wiki/Wilkinson_Call",
            "/wiki/Democratic_Party_(United_States)",
            "/wiki/List_of_United_States_senators_from_Florida"
          ]
        ],
        [
          "March 4 , 1879",
          []
        ]
      ],
      [
        [
          "17",
          []
        ],
        [
          "Zebulon Baird Vance ( D - NC )",
          [
            "/wiki/Zebulon_Baird_Vance",
            "/wiki/Democratic_Party_(United_States)",
            "/wiki/List_of_United_States_senators_from_North_Carolina"
          ]
        ],
        [
          "March 4 , 1879",
          []
        ]
      ],
      [
        [
          "18",
          []
        ],
        [
          "James L. Pugh ( D - AL )",
          [
            "/wiki/James_L._Pugh",
            "/wiki/Democratic_Party_(United_States)",
            "/wiki/List_of_United_States_senators_from_Alabama"
          ]
        ],
        [
          "November 24 , 1880",
          []
        ]
      ],
      [
        [
          "19",
          []
        ],
        [
          "John Sherman ( R - OH )",
          [
            "/wiki/John_Sherman",
            "/wiki/Republican_Party_(United_States)",
            "/wiki/List_of_United_States_senators_from_Ohio"
          ]
        ],
        [
          "March 4 , 1881",
          []
        ]
      ],
      [
        [
          "20",
          []
        ],
        [
          "Eugene Hale ( R - ME )",
          [
            "/wiki/Eugene_Hale",
            "/wiki/Republican_Party_(United_States)",
            "/wiki/List_of_United_States_senators_from_Maine"
          ]
        ],
        [
          "March 4 , 1881",
          []
        ]
      ]
    ],
    "section_title": "U.S. Senate seniority list",
    "section_text": "",
    "uid": "List_of_United_States_senators_in_the_53rd_Congress_by_seniority_1",
    "intro": "This is a complete list of members of the United States Senate during the 53rd United States Congress listed by seniority, from March 4, 1893, to March 3, 1895. Order of service is based on the commencement of the senator's first term. Behind this is former service as a senator (only giving the senator seniority within his or her new incoming class), service as vice president, a House member, a cabinet secretary, or a governor of a state. The final factor is the population of the senator's state. Senators who were sworn in during the middle of the Congress (up until the last senator who was not sworn in early after winning the November 1894 election) are listed at the end of the list with no number."
  }
}