{
  "2009_Regions_Morgan_Keegan_Championships_and_the_Cellular_South_Cup_0": {
    "url": "https://en.wikipedia.org/wiki/2009_Regions_Morgan_Keegan_Championships_and_the_Cellular_South_Cup",
    "title": "2009 Regions Morgan Keegan Championships and the Cellular South Cup",
    "header": [
      [
        "Athlete",
        []
      ],
      [
        "Nationality",
        []
      ],
      [
        "Ranking*",
        []
      ],
      [
        "Seeding",
        []
      ]
    ],
    "data": [
      [
        [
          "Caroline Wozniacki",
          [
            "/wiki/Caroline_Wozniacki"
          ]
        ],
        [
          "Denmark",
          []
        ],
        [
          "12",
          []
        ],
        [
          "1",
          []
        ]
      ],
      [
        [
          "Victoria Azarenka",
          [
            "/wiki/Victoria_Azarenka"
          ]
        ],
        [
          "Belarus",
          [
            "/wiki/Belarus"
          ]
        ],
        [
          "14",
          []
        ],
        [
          "2",
          []
        ]
      ],
      [
        [
          "Lucie \u0160af\u00e1\u0159ov\u00e1",
          [
            "/wiki/Lucie_\u0160af\u00e1\u0159ov\u00e1"
          ]
        ],
        [
          "Czech Republic",
          [
            "/wiki/Czech_Republic"
          ]
        ],
        [
          "50",
          []
        ],
        [
          "3",
          []
        ]
      ],
      [
        [
          "Anne Keothavong",
          [
            "/wiki/Anne_Keothavong"
          ]
        ],
        [
          "Great Britain",
          []
        ],
        [
          "52",
          []
        ],
        [
          "4",
          []
        ]
      ],
      [
        [
          "Marina Erakovic",
          [
            "/wiki/Marina_Erakovic"
          ]
        ],
        [
          "New Zealand",
          []
        ],
        [
          "57",
          []
        ],
        [
          "5",
          []
        ]
      ],
      [
        [
          "Sabine Lisicki",
          [
            "/wiki/Sabine_Lisicki"
          ]
        ],
        [
          "Germany",
          []
        ],
        [
          "59",
          []
        ],
        [
          "6",
          []
        ]
      ],
      [
        [
          "Alla Kudryavtseva",
          [
            "/wiki/Alla_Kudryavtseva"
          ]
        ],
        [
          "Russia",
          []
        ],
        [
          "62",
          []
        ],
        [
          "7",
          []
        ]
      ],
      [
        [
          "Pauline Parmentier",
          [
            "/wiki/Pauline_Parmentier"
          ]
        ],
        [
          "France",
          []
        ],
        [
          "86",
          []
        ],
        [
          "8",
          []
        ]
      ]
    ],
    "section_title": "WTA Entrants -- Seeds",
    "section_text": "",
    "uid": "2009_Regions_Morgan_Keegan_Championships_and_the_Cellular_South_Cup_0",
    "intro": "The 2009 Regions Morgan Keegan Championships and the Cellular South Cup was an ATP World Tour and WTA Tour event held at the hardcourts of the Racquet Club of Memphis in Memphis, Tennessee. It was the 34th edition of the Regions Morgan Keegan Championships and the 24th edition of the Cellular South Cup. The Regions Morgan Keegan Championships was part of the ATP World Tour 500 series on the 2009 ATP World Tour, and the Cellular South Cup was an International-level tournament on the 2009 WTA Tour. Both of the events took place from February 15 to February 22, 2009. The men's draw was led by Australian Open & San Jose semifinalist plus 2002 champion Andy Roddick, Auckland champion Juan Mart\u00edn del Potro, San Jose semifinalist plus 2002 runner-up James Blake, Auckland semifinalist and 2006 and 2008 runner-up Robin S\u00f6derling, Brisbane titlist Radek \u0160t\u011bp\u00e1nek, Igor Andreev, Mardy Fish and Auckland runner-up Sam Querrey. The women's draw was headed by WTA #12 Caroline Wozniacki, Brisbane winner Victoria Azarenka, Lucie \u0160af\u00e1\u0159ov\u00e1, Auckland semifinalist Anne Keothavong, Marina Erakovic, Sabine Lisicki, Alla Kudryavtseva and Pauline Parmentier."
  },
  "MuchMusic_Video_Award_for_Peoples_Choice:_Favourite_Canadian_Group_0": {
    "url": "https://en.wikipedia.org/wiki/MuchMusic_Video_Award_for_Peoples_Choice:_Favourite_Canadian_Group",
    "title": "MuchMusic Video Award for Peoples Choice: Favourite Canadian Group",
    "header": [
      [
        "Year",
        []
      ],
      [
        "Artist",
        []
      ],
      [
        "Video",
        []
      ]
    ],
    "data": [
      [
        [
          "1990",
          []
        ],
        [
          "Jeff Healey Band",
          [
            "/wiki/Jeff_Healey"
          ]
        ],
        [
          "Angel Eyes",
          [
            "/wiki/Angel_Eyes_(The_Jeff_Healey_Band_song)"
          ]
        ]
      ],
      [
        [
          "1991",
          []
        ],
        [
          "The Grapes of Wrath",
          [
            "/wiki/The_Grapes_of_Wrath_(band)"
          ]
        ],
        [
          "I Am Here",
          []
        ]
      ],
      [
        [
          "1992",
          []
        ],
        [
          "Barenaked Ladies",
          [
            "/wiki/Barenaked_Ladies"
          ]
        ],
        [
          "Lovers In A Dangerous Time",
          []
        ]
      ],
      [
        [
          "1993",
          []
        ],
        [
          "Barenaked Ladies",
          []
        ],
        [
          "Brian Wilson",
          [
            "/wiki/Brian_Wilson_(song)"
          ]
        ]
      ],
      [
        [
          "1994",
          []
        ],
        [
          "N/A",
          []
        ],
        [
          "N/A",
          []
        ]
      ],
      [
        [
          "1995",
          []
        ],
        [
          "Moist",
          [
            "/wiki/Moist_(band)"
          ]
        ],
        [
          "Believe Me",
          []
        ]
      ],
      [
        [
          "1996",
          []
        ],
        [
          "I Mother Earth",
          [
            "/wiki/I_Mother_Earth"
          ]
        ],
        [
          "One More Astronaut",
          [
            "/wiki/One_More_Astronaut"
          ]
        ]
      ],
      [
        [
          "1997",
          []
        ],
        [
          "Our Lady Peace",
          [
            "/wiki/Our_Lady_Peace"
          ]
        ],
        [
          "Superman 's Dead",
          [
            "/wiki/Superman's_Dead"
          ]
        ]
      ],
      [
        [
          "1998",
          []
        ],
        [
          "Our Lady Peace",
          []
        ],
        [
          "4 A.M",
          [
            "/wiki/4am_(Our_Lady_Peace_song)"
          ]
        ]
      ],
      [
        [
          "1999",
          []
        ],
        [
          "The Moffatts",
          [
            "/wiki/The_Moffatts"
          ]
        ],
        [
          "Miss You Like Crazy",
          []
        ]
      ],
      [
        [
          "2000",
          []
        ],
        [
          "Our Lady Peace",
          []
        ],
        [
          "One Man Army",
          [
            "/wiki/One_Man_Army_(song)"
          ]
        ]
      ],
      [
        [
          "2001",
          []
        ],
        [
          "Sum 41",
          [
            "/wiki/Sum_41"
          ]
        ],
        [
          "Makes No Difference",
          [
            "/wiki/Makes_No_Difference"
          ]
        ]
      ],
      [
        [
          "2002",
          []
        ],
        [
          "Sum 41",
          [
            "/wiki/Sum_41"
          ]
        ],
        [
          "In Too Deep",
          [
            "/wiki/In_Too_Deep_(Sum_41_song)"
          ]
        ]
      ],
      [
        [
          "2003",
          [
            "/wiki/2003_MuchMusic_Video_Awards"
          ]
        ],
        [
          "Simple Plan",
          [
            "/wiki/Simple_Plan"
          ]
        ],
        [
          "Addicted",
          [
            "/wiki/Addicted_(Simple_Plan_song)"
          ]
        ]
      ],
      [
        [
          "2004",
          []
        ],
        [
          "Simple Plan",
          [
            "/wiki/Simple_Plan"
          ]
        ],
        [
          "Perfect",
          [
            "/wiki/Perfect_(Simple_Plan_song)"
          ]
        ]
      ],
      [
        [
          "2005",
          []
        ],
        [
          "Simple Plan",
          [
            "/wiki/Simple_Plan"
          ]
        ],
        [
          "Welcome To My Life",
          [
            "/wiki/Welcome_to_My_Life"
          ]
        ]
      ],
      [
        [
          "2006",
          []
        ],
        [
          "Simple Plan",
          [
            "/wiki/Simple_Plan"
          ]
        ],
        [
          "Crazy",
          [
            "/wiki/Crazy_(Simple_Plan_song)"
          ]
        ]
      ],
      [
        [
          "2007",
          [
            "/wiki/2007_MuchMusic_Video_Awards"
          ]
        ],
        [
          "Billy Talent",
          [
            "/wiki/Billy_Talent"
          ]
        ],
        [
          "Devil In A Midnight Mass",
          [
            "/wiki/Devil_in_a_Midnight_Mass"
          ]
        ]
      ],
      [
        [
          "2008",
          [
            "/wiki/2008_MuchMusic_Video_Awards"
          ]
        ],
        [
          "Simple Plan",
          [
            "/wiki/Simple_Plan"
          ]
        ],
        [
          "When I 'm Gone",
          [
            "/wiki/When_I'm_Gone_(Simple_Plan_song)"
          ]
        ]
      ]
    ],
    "section_title": "Winners",
    "section_text": "",
    "uid": "MuchMusic_Video_Award_for_Peoples_Choice:_Favourite_Canadian_Group_0",
    "intro": "The Award for Peoples Choice: Favorite Canadian Group is an award presented at the MuchMusic Video Awards. It must be given to a Canadian duo or group."
  },
  "List_of_2008_Indian_Premier_League_auctions_and_personnel_signings_4": {
    "url": "https://en.wikipedia.org/wiki/List_of_2008_Indian_Premier_League_auctions_and_personnel_signings",
    "title": "List of 2008 Indian Premier League auctions and personnel signings",
    "header": [
      [
        "No",
        []
      ],
      [
        "Name",
        []
      ],
      [
        "Nationality",
        []
      ],
      [
        "Speciality",
        []
      ],
      [
        "Team",
        []
      ]
    ],
    "data": [
      [
        [
          "1",
          []
        ],
        [
          "Mohammed Yousuf",
          [
            "/wiki/Mohammad_Yousuf_(cricketer)"
          ]
        ],
        [
          "Pakistan",
          []
        ],
        [
          "Batsman",
          []
        ],
        [
          "Unsold",
          []
        ]
      ],
      [
        [
          "2",
          []
        ],
        [
          "Morne Morkel",
          [
            "/wiki/Morn\u00e9_Morkel"
          ]
        ],
        [
          "South Africa",
          []
        ],
        [
          "Bowler",
          []
        ],
        [
          "Rajasthan Royals",
          [
            "/wiki/Rajasthan_Royals"
          ]
        ]
      ],
      [
        [
          "3",
          []
        ],
        [
          "Ashwell Prince",
          [
            "/wiki/Ashwell_Prince"
          ]
        ],
        [
          "South Africa",
          []
        ],
        [
          "Batsman",
          []
        ],
        [
          "Mumbai Indians",
          [
            "/wiki/Mumbai_Indians"
          ]
        ]
      ],
      [
        [
          "4",
          []
        ],
        [
          "Kyle Mills",
          [
            "/wiki/Kyle_Mills"
          ]
        ],
        [
          "New Zealand",
          []
        ],
        [
          "Bowler",
          []
        ],
        [
          "Kings XI Punjab",
          [
            "/wiki/Kings_XI_Punjab"
          ]
        ]
      ],
      [
        [
          "5",
          []
        ],
        [
          "Mohammad Hafeez",
          [
            "/wiki/Mohammad_Hafeez"
          ]
        ],
        [
          "Pakistan",
          []
        ],
        [
          "All-rounder",
          []
        ],
        [
          "Kolkata Knight Riders",
          [
            "/wiki/Kolkata_Knight_Riders"
          ]
        ]
      ],
      [
        [
          "6",
          []
        ],
        [
          "Ross Taylor",
          [
            "/wiki/Ross_Taylor"
          ]
        ],
        [
          "New Zealand",
          []
        ],
        [
          "Batsman",
          []
        ],
        [
          "Royal Challengers Bangalore",
          [
            "/wiki/Royal_Challengers_Bangalore"
          ]
        ]
      ],
      [
        [
          "7",
          []
        ],
        [
          "Peter Fulton",
          [
            "/wiki/Peter_Fulton"
          ]
        ],
        [
          "New Zealand",
          []
        ],
        [
          "Batsman",
          []
        ],
        [
          "Unsold",
          []
        ]
      ],
      [
        [
          "8",
          []
        ],
        [
          "Jamie How",
          [
            "/wiki/Jamie_How"
          ]
        ],
        [
          "New Zealand",
          []
        ],
        [
          "Batsman",
          []
        ],
        [
          "Unsold",
          []
        ]
      ],
      [
        [
          "9",
          []
        ],
        [
          "Jeetan Patel",
          [
            "/wiki/Jeetan_Patel"
          ]
        ],
        [
          "New Zealand",
          []
        ],
        [
          "Allrounder",
          []
        ],
        [
          "Unsold",
          []
        ]
      ],
      [
        [
          "10",
          []
        ],
        [
          "Chris Martin",
          [
            "/wiki/Chris_Martin"
          ]
        ],
        [
          "New Zealand",
          []
        ],
        [
          "Bowler",
          []
        ],
        [
          "Unsold",
          []
        ]
      ],
      [
        [
          "11",
          []
        ],
        [
          "James Franklin",
          [
            "/wiki/James_Franklin_(cricketer)"
          ]
        ],
        [
          "New Zealand",
          []
        ],
        [
          "Allrounder",
          []
        ],
        [
          "Unsold",
          []
        ]
      ],
      [
        [
          "12",
          []
        ],
        [
          "Brad Hodge",
          [
            "/wiki/Brad_Hodge"
          ]
        ],
        [
          "Australia",
          []
        ],
        [
          "Allrounder",
          []
        ],
        [
          "Unsold",
          []
        ]
      ],
      [
        [
          "13",
          []
        ],
        [
          "Shane Watson",
          [
            "/wiki/Shane_Watson"
          ]
        ],
        [
          "Australia",
          []
        ],
        [
          "Allrounder",
          []
        ],
        [
          "Rajasthan Royals",
          [
            "/wiki/Rajasthan_Royals"
          ]
        ]
      ],
      [
        [
          "14",
          []
        ],
        [
          "Phil Jaques",
          [
            "/wiki/Phil_Jaques"
          ]
        ],
        [
          "Australia",
          []
        ],
        [
          "Batsman",
          []
        ],
        [
          "Unsold",
          []
        ]
      ],
      [
        [
          "15",
          []
        ],
        [
          "James Hopes",
          [
            "/wiki/James_Hopes"
          ]
        ],
        [
          "Australia",
          []
        ],
        [
          "Allrounder",
          []
        ],
        [
          "Kings XI Punjab",
          [
            "/wiki/Kings_XI_Punjab"
          ]
        ]
      ],
      [
        [
          "16",
          []
        ],
        [
          "Brett Geeves",
          [
            "/wiki/Brett_Geeves"
          ]
        ],
        [
          "Australia",
          []
        ],
        [
          "Bowler",
          []
        ],
        [
          "Delhi Daredevils",
          [
            "/wiki/Delhi_Capitals"
          ]
        ]
      ],
      [
        [
          "17",
          []
        ],
        [
          "Luke Pomersbach",
          [
            "/wiki/Luke_Pomersbach"
          ]
        ],
        [
          "Australia",
          []
        ],
        [
          "Batsman",
          []
        ],
        [
          "Kings XI Punjab",
          [
            "/wiki/Kings_XI_Punjab"
          ]
        ]
      ],
      [
        [
          "18",
          []
        ],
        [
          "Prasanna Jayawardene",
          [
            "/wiki/Prasanna_Jayawardene"
          ]
        ],
        [
          "Sri Lanka",
          []
        ],
        [
          "Wicketkeeper",
          []
        ],
        [
          "Unsold",
          []
        ]
      ],
      [
        [
          "19",
          []
        ],
        [
          "Mohammad Ashraful",
          [
            "/wiki/Mohammad_Ashraful"
          ]
        ],
        [
          "Bangladesh",
          []
        ],
        [
          "Batsman",
          []
        ],
        [
          "Unsold",
          []
        ]
      ],
      [
        [
          "20",
          []
        ],
        [
          "Mashrafe Mortaza",
          [
            "/wiki/Mashrafe_Mortaza"
          ]
        ],
        [
          "Bangladesh",
          []
        ],
        [
          "Allrounder",
          []
        ],
        [
          "Unsold",
          []
        ]
      ]
    ],
    "section_title": "Player 's Auction -- Auction-2",
    "section_text": "The second IPL auction for foreign players took place in Mumbai on 11 March 2008 . 26 players including unsold players from auction-1 signed up for the auction . The base price was set at US $ 50,000 . [ 10 ] [ 11 ] 14 players were sold in the auction . James Hopes was the costliest player at US $ 300,000 . Dimitri Mascarenhas became the first English player to sign up for IPL . Mohammed Yousuf again remained unsold in 2nd auction due to continuing dispute with Indian Cricket League . [ 12 ] [ 13 ] IPL allowed teams to cross 8 foreign players limit . Players sold lower than their signed up price were paid remaining amount by IPL . [ 14 ] [ 15 ] [ 16 ]",
    "uid": "List_of_2008_Indian_Premier_League_auctions_and_personnel_signings_4",
    "intro": "This is a list of all auctions and personnel signings for the 2008 Indian Premier League."
  },
  "Template:2008_Summer_Olympics_Italy_women's_volleyball_team_roster_0": {
    "url": "https://en.wikipedia.org/wiki/Template:2008_Summer_Olympics_Italy_women's_volleyball_team_roster",
    "title": "Template:2008 Summer Olympics Italy women's volleyball team roster",
    "header": [
      [
        "\u2116",
        []
      ],
      [
        "Name",
        []
      ],
      [
        "Date of birth",
        []
      ],
      [
        "Height",
        []
      ],
      [
        "Weight",
        []
      ],
      [
        "Spike",
        []
      ],
      [
        "Block",
        []
      ],
      [
        "2008 club",
        []
      ]
    ],
    "data": [
      [
        [
          "1",
          []
        ],
        [
          "Paola Croce",
          [
            "/wiki/Paola_Croce"
          ]
        ],
        [
          "6 March 1978",
          []
        ],
        [
          "1.67 m ( 5 ft 6 in )",
          []
        ],
        [
          "52 kg ( 115 lb )",
          []
        ],
        [
          "290 cm ( 110 in )",
          []
        ],
        [
          "265 cm ( 104 in )",
          []
        ],
        [
          "Volley Bergamo",
          [
            "/wiki/Volley_Bergamo"
          ]
        ]
      ],
      [
        [
          "3",
          []
        ],
        [
          "Nadia Centoni",
          [
            "/wiki/Nadia_Centoni"
          ]
        ],
        [
          "19 June 1981",
          []
        ],
        [
          "1.84 m ( 6 ft 0 in )",
          []
        ],
        [
          "63 kg ( 139 lb )",
          []
        ],
        [
          "307 cm ( 121 in )",
          []
        ],
        [
          "291 cm ( 115 in )",
          []
        ],
        [
          "RC Cannes",
          [
            "/wiki/RC_Cannes"
          ]
        ]
      ],
      [
        [
          "5",
          []
        ],
        [
          "Martina Guiggi",
          [
            "/wiki/Martina_Guiggi"
          ]
        ],
        [
          "1 May 1984",
          []
        ],
        [
          "1.87 m ( 6 ft 2 in )",
          []
        ],
        [
          "69 kg ( 152 lb )",
          []
        ],
        [
          "315 cm ( 124 in )",
          []
        ],
        [
          "290 cm ( 110 in )",
          []
        ],
        [
          "Scavolini Pesaro",
          [
            "/wiki/Volley_Pesaro"
          ]
        ]
      ],
      [
        [
          "6",
          []
        ],
        [
          "Jenny Barazza",
          [
            "/wiki/Jenny_Barazza"
          ]
        ],
        [
          "24 July 1981",
          []
        ],
        [
          "1.88 m ( 6 ft 2 in )",
          []
        ],
        [
          "77 kg ( 170 lb )",
          []
        ],
        [
          "300 cm ( 120 in )",
          []
        ],
        [
          "285 cm ( 112 in )",
          []
        ],
        [
          "Volley Bergamo",
          [
            "/wiki/Volley_Bergamo"
          ]
        ]
      ],
      [
        [
          "7",
          []
        ],
        [
          "Manuela Secolo",
          [
            "/wiki/Manuela_Secolo"
          ]
        ],
        [
          "22 February 1977",
          []
        ],
        [
          "1.80 m ( 5 ft 11 in )",
          []
        ],
        [
          "70 kg ( 150 lb )",
          []
        ],
        [
          "302 cm ( 119 in )",
          []
        ],
        [
          "279 cm ( 110 in )",
          []
        ],
        [
          "Famila Chieri",
          []
        ]
      ],
      [
        [
          "8",
          []
        ],
        [
          "Paola Cardullo",
          [
            "/wiki/Paola_Cardullo"
          ]
        ],
        [
          "18 March 1982",
          []
        ],
        [
          "1.62 m ( 5 ft 4 in )",
          []
        ],
        [
          "56 kg ( 123 lb )",
          []
        ],
        [
          "275 cm ( 108 in )",
          []
        ],
        [
          "268 cm ( 106 in )",
          []
        ],
        [
          "Asystel Novara",
          [
            "/wiki/Asystel_Volley"
          ]
        ]
      ],
      [
        [
          "9",
          []
        ],
        [
          "Serena Ortolani",
          [
            "/wiki/Serena_Ortolani"
          ]
        ],
        [
          "7 January 1987",
          []
        ],
        [
          "1.86 m ( 6 ft 1 in )",
          []
        ],
        [
          "63 kg ( 139 lb )",
          []
        ],
        [
          "308 cm ( 121 in )",
          []
        ],
        [
          "288 cm ( 113 in )",
          []
        ],
        [
          "Yamamay Busto Arsizio",
          [
            "/wiki/Futura_Volley_Busto_Arsizio"
          ]
        ]
      ],
      [
        [
          "11",
          []
        ],
        [
          "Francesca Piccinini",
          [
            "/wiki/Francesca_Piccinini"
          ]
        ],
        [
          "10 January 1979",
          []
        ],
        [
          "1.84 m ( 6 ft 0 in )",
          []
        ],
        [
          "75 kg ( 165 lb )",
          []
        ],
        [
          "304 cm ( 120 in )",
          []
        ],
        [
          "279 cm ( 110 in )",
          []
        ],
        [
          "Volley Bergamo",
          [
            "/wiki/Volley_Bergamo"
          ]
        ]
      ],
      [
        [
          "12",
          []
        ],
        [
          "Francesca Ferretti",
          [
            "/wiki/Francesca_Ferretti"
          ]
        ],
        [
          "15 February 1984",
          []
        ],
        [
          "1.80 m ( 5 ft 11 in )",
          []
        ],
        [
          "70 kg ( 150 lb )",
          []
        ],
        [
          "296 cm ( 117 in )",
          []
        ],
        [
          "280 cm ( 110 in )",
          []
        ],
        [
          "Scavolini Pesaro",
          [
            "/wiki/Volley_Pesaro"
          ]
        ]
      ],
      [
        [
          "14",
          []
        ],
        [
          "Eleonora Lo Bianco",
          [
            "/wiki/Eleonora_Lo_Bianco"
          ]
        ],
        [
          "22 December 1979",
          []
        ],
        [
          "1.71 m ( 5 ft 7 in )",
          []
        ],
        [
          "70 kg ( 150 lb )",
          []
        ],
        [
          "287 cm ( 113 in )",
          []
        ],
        [
          "273 cm ( 107 in )",
          []
        ],
        [
          "Volley Bergamo",
          [
            "/wiki/Volley_Bergamo"
          ]
        ]
      ],
      [
        [
          "15",
          []
        ],
        [
          "Taismary Ag\u00fcero",
          [
            "/wiki/Taismary_Ag\u00fcero"
          ]
        ],
        [
          "5 March 1977",
          []
        ],
        [
          "1.78 m ( 5 ft 10 in )",
          []
        ],
        [
          "69 kg ( 152 lb )",
          []
        ],
        [
          "322 cm ( 127 in )",
          []
        ],
        [
          "300 cm ( 120 in )",
          []
        ],
        [
          "T\u00fcrk Telekom Ankara",
          [
            "/wiki/T\u00fcrk_Telekom_Ankara"
          ]
        ]
      ],
      [
        [
          "16",
          []
        ],
        [
          "Simona Gioli",
          [
            "/wiki/Simona_Gioli"
          ]
        ],
        [
          "17 September 1977",
          []
        ],
        [
          "1.84 m ( 6 ft 0 in )",
          []
        ],
        [
          "72 kg ( 159 lb )",
          []
        ],
        [
          "307 cm ( 121 in )",
          []
        ],
        [
          "283 cm ( 111 in )",
          []
        ],
        [
          "Despar Sirio Perugia",
          [
            "/wiki/Pallavolo_Sirio_Perugia"
          ]
        ]
      ]
    ],
    "section_title": "",
    "section_text": "The following is the Italian roster in the women 's volleyball tournament of the 2008 Summer Olympics . [ 1 ] viewtalk",
    "uid": "Template:2008_Summer_Olympics_Italy_women's_volleyball_team_roster_0",
    "intro": "The purpose of this template is to collect source text used in several articles in one place, in order to minimize maintenance and storage space. This is the Italian roster in the women's volleyball tournament of the 2008 Summer Olympics . The template is typically used in two articles: the article covering Italy at the 2008 Summer Olympics , and the article covering the rosters of all participating teams of the tournament. The following is the Italian roster in the women's volleyball tournament of the 2008 Summer Olympics."
  }
}