{
  "List_of_individual_match_awards_in_the_Australian_Football_League_0": {
    "url": "https://en.wikipedia.org/wiki/List_of_individual_match_awards_in_the_Australian_Football_League",
    "title": "List of individual match awards in the Australian Football League",
    "header": [
      [
        "First awarded",
        []
      ],
      [
        "Club A",
        []
      ],
      [
        "Club B",
        []
      ],
      [
        "Team award",
        []
      ],
      [
        "Individual award",
        []
      ],
      [
        "Details",
        []
      ]
    ],
    "data": [
      [
        [
          "1965",
          []
        ],
        [
          "Carlton",
          [
            "/wiki/Carlton_Football_Club"
          ]
        ],
        [
          "Melbourne",
          [
            "/wiki/Melbourne_Football_Club"
          ]
        ],
        [
          "R. D. Barassi Trophy",
          []
        ],
        [
          "-",
          []
        ],
        [
          "Named in honour of Ron Barassi , Jr. , who played with both clubs . The trophy was first presented in 1965 , the year after Barassi transferred from Melbourne to Carlton",
          [
            "/wiki/Ron_Barassi"
          ]
        ]
      ],
      [
        [
          "1986",
          []
        ],
        [
          "Melbourne",
          [
            "/wiki/Melbourne_Football_Club"
          ]
        ],
        [
          "Richmond",
          [
            "/wiki/Richmond_Football_Club"
          ]
        ],
        [
          "Berry Street Cup",
          []
        ],
        [
          "-",
          []
        ],
        [
          "Contested in support of Berry Street , a children and family welfare organisation",
          [
            "/wiki/Berry_Street"
          ]
        ]
      ],
      [
        [
          "1993",
          []
        ],
        [
          "Collingwood",
          [
            "/wiki/Collingwood_Football_Club"
          ]
        ],
        [
          "Carlton",
          [
            "/wiki/Carlton_Football_Club"
          ]
        ],
        [
          "Peter Mac Cup",
          []
        ],
        [
          "-",
          []
        ],
        [
          "Played in support of the Peter MacCallum Cancer Centre . Once shared between the two clubs ' home matches , but since 2009 always contested at Collingwood home games against Carlton",
          [
            "/wiki/Peter_MacCallum_Cancer_Centre"
          ]
        ]
      ],
      [
        [
          "1995",
          []
        ],
        [
          "Essendon",
          [
            "/wiki/Essendon_Football_Club"
          ]
        ],
        [
          "Western Bulldogs",
          [
            "/wiki/Western_Bulldogs"
          ]
        ],
        [
          "EJ Whitten Cup",
          []
        ],
        [
          "-",
          []
        ],
        [
          "Contested at each match between the teams . Named in honour of Footscray legend Ted Whitten",
          [
            "/wiki/Western_Bulldogs",
            "/wiki/Ted_Whitten"
          ]
        ]
      ],
      [
        [
          "1996",
          []
        ],
        [
          "Fremantle",
          [
            "/wiki/Fremantle_Football_Club"
          ]
        ],
        [
          "various",
          []
        ],
        [
          "-",
          []
        ],
        [
          "Len Hall Anzac Medal",
          []
        ],
        [
          "Len Hall Tribute game : Awarded to the player displaying the most courage , teamwork and self-sacrifice in Fremantle 's match during the Anzac Day Round . The match is named in honour of Western Australia 's last surviving Gallipoli veteran , Len Hall ( 1897-1999 ) , and the game is known as the Len Hall Tribute Game",
          [
            "/wiki/Anzac_Day_match"
          ]
        ]
      ],
      [
        [
          "1997",
          []
        ],
        [
          "Adelaide",
          [
            "/wiki/Adelaide_Football_Club"
          ]
        ],
        [
          "Port Adelaide",
          [
            "/wiki/Port_Adelaide_Football_Club"
          ]
        ],
        [
          "Showdown Trophy",
          []
        ],
        [
          "Showdown Medal",
          [
            "/wiki/Showdown_Medal"
          ]
        ],
        [
          "Showdown : The best on ground award has been presented since 2000 to the best on ground Showdown matches . For Showdown XXXIX only , the medal was renamed the Phil Walsh Medal in honour of the late Adelaide coach Phil Walsh , who was murdered earlier in the month in which this particular Showdown took place",
          [
            "/wiki/Showdown_(AFL)",
            "/wiki/Phil_Walsh_(Australian_footballer)"
          ]
        ]
      ],
      [
        [
          "1997",
          []
        ],
        [
          "St Kilda",
          [
            "/wiki/St_Kilda_Football_Club"
          ]
        ],
        [
          "Western Bulldogs",
          [
            "/wiki/Western_Bulldogs"
          ]
        ],
        [
          "Barker-Whitten Challenge Plate",
          []
        ],
        [
          "-",
          []
        ],
        [
          "Named in honour of club legends Trevor Barker ( St Kilda ) and Ted Whitten ( Footscray ) and established in 1997 , shortly after the deaths from cancer of both men . The match is played in support of the Trevor Barker Foundation , the EJ Whitten Foundation and Challenge , all three of which are foundations supporting cancer research and patients",
          [
            "/wiki/Trevor_Barker",
            "/wiki/St_Kilda_Football_Club",
            "/wiki/Ted_Whitten",
            "/wiki/Western_Bulldogs"
          ]
        ]
      ],
      [
        [
          "1998",
          []
        ],
        [
          "Carlton",
          [
            "/wiki/Carlton_Football_Club"
          ]
        ],
        [
          "Essendon",
          [
            "/wiki/Essendon_Football_Club"
          ]
        ],
        [
          "Madden Cup",
          []
        ],
        [
          "-",
          []
        ],
        [
          "Named in honour of brothers Simon Madden ( 378 games for Essendon ) and Justin Madden ( 45 games for Essendon and 287 games for Carlton ) . Contested once per year , with home team alternating",
          [
            "/wiki/Simon_Madden",
            "/wiki/Essendon_Football_Club",
            "/wiki/Justin_Madden",
            "/wiki/Carlton_Football_Club"
          ]
        ]
      ],
      [
        [
          "1999",
          []
        ],
        [
          "Hawthorn",
          [
            "/wiki/Hawthorn_Football_Club"
          ]
        ],
        [
          "St Kilda",
          [
            "/wiki/St_Kilda_Football_Club"
          ]
        ],
        [
          "Blue Ribbon Cup",
          []
        ],
        [
          "Silk-Miller Medal",
          []
        ],
        [
          "Played in support of the Victorian Police Blue Ribbon Foundation . The matches are played , and the best on ground medal is named , in honour of police officers Gary Silk and Rodney Miller , who were killed in the line of duty in August 1998",
          [
            "/wiki/Silk\u2013Miller_police_murders",
            "/wiki/Silk\u2013Miller_police_murders"
          ]
        ]
      ],
      [
        [
          "2000",
          []
        ],
        [
          "Collingwood",
          [
            "/wiki/Collingwood_Football_Club"
          ]
        ],
        [
          "Essendon",
          [
            "/wiki/Essendon_Football_Club"
          ]
        ],
        [
          "Perpetual ANZAC Day Trophy",
          []
        ],
        [
          "Anzac Medal",
          [
            "/wiki/Anzac_Day_clash"
          ]
        ],
        [
          "Anzac Day clash : Awarded to the player displaying the most courage , skill , self-sacrifice and teamwork in the match between Essendon and Collingwood . First awarded in 2000 , then later awarded retrospectively back to 1995 . The Perpetual ANZAC Day Trophy has been awarded since 2000",
          [
            "/wiki/Anzac_Day_clash"
          ]
        ]
      ],
      [
        [
          "2000",
          []
        ],
        [
          "Collingwood",
          [
            "/wiki/Collingwood_Football_Club"
          ]
        ],
        [
          "Western Bulldogs",
          [
            "/wiki/Western_Bulldogs"
          ]
        ],
        [
          "Robert Rose Cup",
          []
        ],
        [
          "Bob Rose-Charlie Sutton Medal",
          []
        ],
        [
          "Played in support of the Robert Rose Foundation , which supports Victorians with spinal cord injuries , and named in honour of former Collingwood and Footscray player Robert Rose , who was paralysed in a car accident . Since 2007 , the Rose-Sutton medal is awarded to the player who displays the most courage , skill , leadership and sportsmanship in the match ; this is named after Bob Rose ( Robert 's father , of Collingwood ) and Charlie Sutton ( Footscray ) , who were both known for these attributes",
          [
            "/wiki/Robert_Rose_(sportsman)",
            "/wiki/Bob_Rose_(footballer)",
            "/wiki/Collingwood_Football_Club",
            "/wiki/Charlie_Sutton",
            "/wiki/Western_Bulldogs"
          ]
        ]
      ],
      [
        [
          "2001",
          []
        ],
        [
          "Fremantle",
          [
            "/wiki/Fremantle_Football_Club"
          ]
        ],
        [
          "West Coast",
          [
            "/wiki/West_Coast_Eagles"
          ]
        ],
        [
          "Western Derby Trophy",
          []
        ],
        [
          "Glendinning-Allan Medal",
          [
            "/wiki/Glendinning\u2013Allan_Medal"
          ]
        ],
        [
          "Western Derby : Best on ground medal has been presented since 2001 and was originally named the Ross Glendinning Medal , named solely after Western Australian footballer Ross Glendinning . In 2018 the medal was renamed the Glendinning-Allan Medal to recognise the inaugural captains of both clubs . The winner 's trophy was known as the Carlton Mid Derby Trophy under a sponsorship deal from 2001 to 2017",
          [
            "/wiki/Western_Derby",
            "/wiki/Ross_Glendinning",
            "/wiki/Carlton_Midstrength"
          ]
        ]
      ],
      [
        [
          "2002",
          []
        ],
        [
          "Essendon",
          [
            "/wiki/Essendon_Football_Club"
          ]
        ],
        [
          "Sydney",
          [
            "/wiki/Sydney_Swans"
          ]
        ],
        [
          "Marn Grook Trophy",
          []
        ],
        [
          "-",
          []
        ],
        [
          "Named in honour of the historical Aboriginal game Marn Grook , often considered to be an ancestor of modern Australian rules football",
          [
            "/wiki/Marn_Grook"
          ]
        ]
      ],
      [
        [
          "2003",
          []
        ],
        [
          "Carlton",
          [
            "/wiki/Carlton_Football_Club"
          ]
        ],
        [
          "Hawthorn",
          [
            "/wiki/Hawthorn_Football_Club"
          ]
        ],
        [
          "-",
          []
        ],
        [
          "David Parkin Medal",
          []
        ],
        [
          "Awarded to the best on ground in an annual match between the teams each season . Named in honour of former Hawthorn premiership player and premiership coach of both clubs David Parkin",
          [
            "/wiki/David_Parkin"
          ]
        ]
      ],
      [
        [
          "2003",
          []
        ],
        [
          "Collingwood",
          [
            "/wiki/Collingwood_Football_Club"
          ]
        ],
        [
          "North Melbourne",
          [
            "/wiki/North_Melbourne_Football_Club"
          ]
        ],
        [
          "-",
          []
        ],
        [
          "Jason McCartney Medal",
          []
        ],
        [
          "Awarded to the player displaying the most courage and determination in a match between the teams each season . Named in honour of North Melbourne and Collingwood player Jason McCartney , who survived the 2002 Bali bombings . . - Not awarded since 2013",
          [
            "/wiki/Jason_McCartney_(footballer)",
            "/wiki/2002_Bali_bombings"
          ]
        ]
      ],
      [
        [
          "2004",
          []
        ],
        [
          "Collingwood",
          [
            "/wiki/Collingwood_Football_Club"
          ]
        ],
        [
          "Richmond",
          [
            "/wiki/Richmond_Football_Club"
          ]
        ],
        [
          "Jack Dyer-Lou Richards Trophy",
          []
        ],
        [
          "-",
          []
        ],
        [
          "Named in honour of club legends Jack Dyer ( Richmond ) and Lou Richards ( Collingwood )",
          [
            "/wiki/Jack_Dyer",
            "/wiki/Richmond_Football_Club",
            "/wiki/Lou_Richards",
            "/wiki/Collingwood_Football_Club"
          ]
        ]
      ],
      [
        [
          "2004",
          []
        ],
        [
          "Geelong",
          [
            "/wiki/Geelong_Football_Club"
          ]
        ],
        [
          "Western Bulldogs",
          [
            "/wiki/Western_Bulldogs"
          ]
        ],
        [
          "Western Victoria Cup",
          []
        ],
        [
          "-",
          []
        ],
        [
          "Sponsored by Origin Energy",
          [
            "/wiki/Origin_Energy"
          ]
        ]
      ],
      [
        [
          "2004",
          []
        ],
        [
          "Port Adelaide",
          [
            "/wiki/Port_Adelaide_Football_Club"
          ]
        ],
        [
          "various",
          []
        ],
        [
          "-",
          []
        ],
        [
          "Peter Badcoe VC Medal",
          []
        ],
        [
          "Awarded to the player displaying the most courage , teamwork and self-sacrifice in Port Adelaide 's match during the Anzac Day Round . Named in honour of South Australian Vietnam War hero Major Peter Badcoe",
          [
            "/wiki/Peter_Badcoe"
          ]
        ]
      ],
      [
        [
          "2004",
          []
        ],
        [
          "Richmond",
          [
            "/wiki/Richmond_Football_Club"
          ]
        ],
        [
          "St Kilda",
          [
            "/wiki/St_Kilda_Football_Club"
          ]
        ],
        [
          "-",
          []
        ],
        [
          "Ian Stewart Medal",
          []
        ],
        [
          "Awarded to the best on ground in an annual match between the teams each season . Named in honour of former St Kilda and Richmond player Ian Stewart , who won Brownlow Medals and premierships with both clubs",
          [
            "/wiki/Ian_Stewart_(Australian_rules_footballer)"
          ]
        ]
      ],
      [
        [
          "2005",
          []
        ],
        [
          "Essendon",
          [
            "/wiki/Essendon_Football_Club"
          ]
        ],
        [
          "Richmond",
          [
            "/wiki/Richmond_Football_Club"
          ]
        ],
        [
          "Kevin Sheedy Cup",
          []
        ],
        [
          "Yiooken Award",
          [
            "/wiki/Dreamtime_at_the_'G"
          ]
        ],
        [
          "Dreamtime at the ' G : Named in honour of former Richmond player and then-Essendon coach Kevin Sheedy . The best on ground award , awarded since 2006 , is named for the Woiwurrung word for 'dreaming '",
          [
            "/wiki/Dreamtime_at_the_'G",
            "/wiki/Kevin_Sheedy_(Australian_footballer)"
          ]
        ]
      ]
    ],
    "section_title": "Australian Football League",
    "section_text": "",
    "uid": "List_of_individual_match_awards_in_the_Australian_Football_League_0",
    "intro": "In the Australian Football League, many teams contest trophies or individual awards on an annual or regular basis in individual premiership matches during the home-and-away season. Many of these awards honour a legend or legends of the competing clubs, or are used as part of events to support a charitable cause. This list covers recurring trophies or awards in home-and-away matches of the AFL season. Not included are once-off awards, or awards presented in representative or finals matches."
  },
  "1911_Southern_Intercollegiate_Athletic_Association_football_season_11": {
    "url": "https://en.wikipedia.org/wiki/1911_Southern_Intercollegiate_Athletic_Association_football_season",
    "title": "1911 Southern Intercollegiate Athletic Association football season",
    "header": [
      [
        "Date",
        []
      ],
      [
        "Visiting team",
        []
      ],
      [
        "Home team",
        []
      ],
      [
        "Site",
        []
      ],
      [
        "Result",
        []
      ]
    ],
    "data": [
      [
        [
          "November 29",
          []
        ],
        [
          "Auburn",
          []
        ],
        [
          "Georgia",
          []
        ],
        [
          "Savannah , GA",
          [
            "/wiki/Savannah,_Georgia"
          ]
        ],
        [
          "T 0-0",
          []
        ]
      ],
      [
        [
          "November 30",
          []
        ],
        [
          "Davidson",
          [
            "/wiki/Davidson_Wildcats_football"
          ]
        ],
        [
          "Alabama",
          []
        ],
        [
          "State Fairgrounds \u2022 Birmingham , AL",
          [
            "/wiki/Alabama_State_Fairgrounds",
            "/wiki/Birmingham,_Alabama"
          ]
        ],
        [
          "W 16-0",
          []
        ]
      ],
      [
        [
          "November 30",
          []
        ],
        [
          "Clemson",
          []
        ],
        [
          "Georgia Tech",
          []
        ],
        [
          "Atlanta , GA",
          [
            "/wiki/Atlanta"
          ]
        ],
        [
          "GT 32-0",
          []
        ]
      ],
      [
        [
          "November 30",
          []
        ],
        [
          "Tennessee",
          []
        ],
        [
          "Kentucky State",
          []
        ],
        [
          "Lexington , KY",
          [
            "/wiki/Lexington,_Kentucky"
          ]
        ],
        [
          "KEN 12-0",
          []
        ]
      ],
      [
        [
          "November 30",
          []
        ],
        [
          "Howard",
          []
        ],
        [
          "Mercer",
          []
        ],
        [
          "",
          []
        ],
        [
          "MERC 29-0",
          []
        ]
      ],
      [
        [
          "November 30",
          []
        ],
        [
          "Ole Miss",
          []
        ],
        [
          "Mississippi A & M",
          []
        ],
        [
          "Jackson , MS",
          [
            "/wiki/Jackson,_Mississippi"
          ]
        ],
        [
          "MSA & M 6-0",
          []
        ]
      ],
      [
        [
          "November 30",
          []
        ],
        [
          "Centre",
          []
        ],
        [
          "Transylvania",
          [
            "/wiki/Transylvania_Pioneers_football"
          ]
        ],
        [
          "Lexington , KY",
          []
        ],
        [
          "W 13-7",
          []
        ]
      ],
      [
        [
          "November 30",
          []
        ],
        [
          "South Carolina",
          [
            "/wiki/South_Carolina_Gamecocks_football"
          ]
        ],
        [
          "The Citadel",
          []
        ],
        [
          "College Park Stadium \u2022 Charleston , SC",
          [
            "/wiki/Charleston,_South_Carolina"
          ]
        ],
        [
          "T 0-0",
          []
        ]
      ],
      [
        [
          "November 30",
          []
        ],
        [
          "Sewanee",
          []
        ],
        [
          "Vanderbilt",
          []
        ],
        [
          "Dudley Field \u2022 Nashville , TN",
          [
            "/wiki/Vanderbilt_Stadium",
            "/wiki/Nashville,_Tennessee"
          ]
        ],
        [
          "VAN 31-0",
          []
        ]
      ],
      [
        [
          "December 2",
          []
        ],
        [
          "Charleston Navy",
          []
        ],
        [
          "The Citadel",
          []
        ],
        [
          "College Park Stadium \u2022 Charleston , SC",
          [
            "/wiki/Charleston,_South_Carolina"
          ]
        ],
        [
          "T 0-0",
          []
        ]
      ]
    ],
    "section_title": "Regular season -- Week Eleven",
    "section_text": "",
    "uid": "1911_Southern_Intercollegiate_Athletic_Association_football_season_11",
    "intro": "The 1911 Southern Intercollegiate Athletic Association football season was the college football games played by the member schools of the Southern Intercollegiate Athletic Association as part of the 1911 college football season. The season began on September 23. Edwin Pope's Football's Greatest Coaches notes: A lightning-swift backfield of Lew Hardage, Wilson Collins, Ammie Sikes, and Ray Morrison pushed Vandy through 1911 with only a 9-8 loss to Michigan. The Atlanta Constitution voted Vanderbilt's the best backfield in the South. Morrison is considered one of the best quarterbacks in Vanderbilt's long history"
  },
  "Swimming_at_the_2013_World_Aquatics_Championships_\u2013_Women's_200_metre_individual_medley_3": {
    "url": "https://en.wikipedia.org/wiki/Swimming_at_the_2013_World_Aquatics_Championships_\u2013_Women's_200_metre_individual_medley",
    "title": "Swimming at the 2013 World Aquatics Championships \u2013 Women's 200 metre individual medley",
    "header": [
      [
        "Rank",
        []
      ],
      [
        "Lane",
        []
      ],
      [
        "Name",
        []
      ],
      [
        "Nationality",
        []
      ],
      [
        "Time",
        []
      ]
    ],
    "data": [
      [
        [
          "1",
          []
        ],
        [
          "4",
          []
        ],
        [
          "Katinka Hossz\u00fa",
          [
            "/wiki/Katinka_Hossz\u00fa"
          ]
        ],
        [
          "Hungary",
          [
            "/wiki/Hungary_at_the_2013_World_Aquatics_Championships"
          ]
        ],
        [
          "2:07.92",
          []
        ]
      ],
      [
        [
          "2",
          []
        ],
        [
          "3",
          []
        ],
        [
          "Alicia Coutts",
          [
            "/wiki/Alicia_Coutts"
          ]
        ],
        [
          "Australia",
          [
            "/wiki/Australia_at_the_2013_World_Aquatics_Championships"
          ]
        ],
        [
          "2:09.39",
          []
        ]
      ],
      [
        [
          "3",
          []
        ],
        [
          "2",
          []
        ],
        [
          "Mireia Belmonte",
          [
            "/wiki/Mireia_Belmonte"
          ]
        ],
        [
          "Spain",
          [
            "/wiki/Spain_at_the_2013_World_Aquatics_Championships"
          ]
        ],
        [
          "2:09.45",
          []
        ]
      ],
      [
        [
          "4",
          []
        ],
        [
          "5",
          []
        ],
        [
          "Ye Shiwen",
          [
            "/wiki/Ye_Shiwen"
          ]
        ],
        [
          "China",
          [
            "/wiki/China_at_the_2013_World_Aquatics_Championships"
          ]
        ],
        [
          "2:10.48",
          []
        ]
      ],
      [
        [
          "5",
          []
        ],
        [
          "7",
          []
        ],
        [
          "Caitlin Leverenz",
          [
            "/wiki/Caitlin_Leverenz"
          ]
        ],
        [
          "United States",
          [
            "/wiki/United_States_at_the_2013_World_Aquatics_Championships"
          ]
        ],
        [
          "2:10.73",
          []
        ]
      ],
      [
        [
          "6",
          []
        ],
        [
          "1",
          []
        ],
        [
          "Zsuzsanna Jakabos",
          [
            "/wiki/Zsuzsanna_Jakabos"
          ]
        ],
        [
          "Hungary",
          [
            "/wiki/Hungary_at_the_2013_World_Aquatics_Championships"
          ]
        ],
        [
          "2:10.95",
          []
        ]
      ],
      [
        [
          "7",
          []
        ],
        [
          "6",
          []
        ],
        [
          "Sophie Allen",
          [
            "/wiki/Sophie_Allen"
          ]
        ],
        [
          "Great Britain",
          [
            "/wiki/Great_Britain_at_the_2013_World_Aquatics_Championships"
          ]
        ],
        [
          "2:11.32",
          []
        ]
      ],
      [
        [
          "8",
          []
        ],
        [
          "8",
          []
        ],
        [
          "Siobhan-Marie O'Connor",
          [
            "/wiki/Siobhan-Marie_O'Connor"
          ]
        ],
        [
          "Great Britain",
          [
            "/wiki/Great_Britain_at_the_2013_World_Aquatics_Championships"
          ]
        ],
        [
          "2:12.03",
          []
        ]
      ]
    ],
    "section_title": "Results -- Final",
    "section_text": "The final was held at 19:26 . [ 7 ]",
    "uid": "Swimming_at_the_2013_World_Aquatics_Championships_\u2013_Women's_200_metre_individual_medley_3",
    "intro": "The women's 200 metre individual medley event in swimming at the 2013 World Aquatics Championships took place on 28-29 July at the Palau Sant Jordi in Barcelona, Spain."
  },
  "1921_Southern_Intercollegiate_Athletic_Association_football_season_10": {
    "url": "https://en.wikipedia.org/wiki/1921_Southern_Intercollegiate_Athletic_Association_football_season",
    "title": "1921 Southern Intercollegiate Athletic Association football season",
    "header": [
      [
        "Date",
        []
      ],
      [
        "Visiting team",
        []
      ],
      [
        "Home team",
        []
      ],
      [
        "Site",
        []
      ],
      [
        "Result",
        []
      ]
    ],
    "data": [
      [
        [
          "November 24",
          []
        ],
        [
          "Centre",
          []
        ],
        [
          "Tulane",
          []
        ],
        [
          "Second Tulane Stadium \u2022 New Orleans",
          [
            "/wiki/New_Orleans"
          ]
        ],
        [
          "L 21-0",
          []
        ]
      ],
      [
        [
          "November 24",
          []
        ],
        [
          "Mississippi A & M",
          []
        ],
        [
          "Alabama",
          []
        ],
        [
          "Rickwood Field \u2022 Birmingham , Alabama",
          [
            "/wiki/Rickwood_Field",
            "/wiki/Birmingham,_Alabama"
          ]
        ],
        [
          "T 7-7",
          []
        ]
      ],
      [
        [
          "November 24",
          []
        ],
        [
          "The Citadel",
          []
        ],
        [
          "South Carolina",
          []
        ],
        [
          "Columbia , South Carolina",
          [
            "/wiki/Columbia,_South_Carolina"
          ]
        ],
        [
          "SC 13-0",
          []
        ]
      ],
      [
        [
          "November 24",
          []
        ],
        [
          "Auburn",
          []
        ],
        [
          "Georgia Tech",
          []
        ],
        [
          "Grant Field \u2022 Atlanta",
          [
            "/wiki/Bobby_Dodd_Stadium",
            "/wiki/Atlanta"
          ]
        ],
        [
          "GT 14-0",
          []
        ]
      ],
      [
        [
          "November 24",
          []
        ],
        [
          "Mississippi A & M",
          []
        ],
        [
          "Alabama",
          []
        ],
        [
          "Rickwood Field \u2022 Birmingham , Alabama",
          [
            "/wiki/Rickwood_Field",
            "/wiki/Birmingham,_Alabama"
          ]
        ],
        [
          "T 7-7",
          []
        ]
      ],
      [
        [
          "November 24",
          []
        ],
        [
          "Davidson",
          [
            "/wiki/Davidson_Wildcats_football"
          ]
        ],
        [
          "Furman",
          []
        ],
        [
          "Manly Field \u2022 Greenville , South Carolina",
          [
            "/wiki/Greenville,_South_Carolina"
          ]
        ],
        [
          "W 28-0",
          []
        ]
      ],
      [
        [
          "November 24",
          []
        ],
        [
          "Chattanooga",
          []
        ],
        [
          "Maryville",
          []
        ],
        [
          "Maryville , Tennessee",
          [
            "/wiki/Maryville,_Tennessee"
          ]
        ],
        [
          "L 34-0",
          []
        ]
      ],
      [
        [
          "November 24",
          []
        ],
        [
          "Howard",
          []
        ],
        [
          "Millsaps",
          []
        ],
        [
          "Jackson , Mississippi",
          [
            "/wiki/Jackson,_Mississippi"
          ]
        ],
        [
          "HOW 45-0",
          []
        ]
      ],
      [
        [
          "November 24",
          []
        ],
        [
          "Kentucky",
          []
        ],
        [
          "Tennessee",
          []
        ],
        [
          "Shields-Watkins Field \u2022 Knoxville , Tennessee",
          [
            "/wiki/Neyland_Stadium",
            "/wiki/Knoxville,_Tennessee"
          ]
        ],
        [
          "T 0-0",
          []
        ]
      ],
      [
        [
          "November 24",
          []
        ],
        [
          "Sewanee",
          []
        ],
        [
          "Vanderbilt",
          []
        ],
        [
          "Dudley Field \u2022 Nashville , Tennessee",
          [
            "/wiki/Vanderbilt_Stadium",
            "/wiki/Nashville,_Tennessee"
          ]
        ],
        [
          "VAN 9-0",
          []
        ]
      ],
      [
        [
          "November 25",
          []
        ],
        [
          "Clemson",
          []
        ],
        [
          "Georgia",
          []
        ],
        [
          "Sanford Field \u2022 Athens , Georgia",
          [
            "/wiki/Sanford_Field",
            "/wiki/Athens,_Georgia"
          ]
        ],
        [
          "UGA 28-0",
          []
        ]
      ],
      [
        [
          "November 25",
          []
        ],
        [
          "Duke",
          [
            "/wiki/Duke_Blue_Devils_football"
          ]
        ],
        [
          "Wofford",
          []
        ],
        [
          "Spartanburg , South Carolina",
          [
            "/wiki/Spartanburg,_South_Carolina"
          ]
        ],
        [
          "L 68-0",
          []
        ]
      ],
      [
        [
          "November 25",
          []
        ],
        [
          "Translyvania",
          []
        ],
        [
          "Georgetown",
          []
        ],
        [
          "Georgetown , Kentucky",
          [
            "/wiki/Georgetown,_Kentucky"
          ]
        ],
        [
          "TRANS 14-6",
          []
        ]
      ],
      [
        [
          "November 26",
          []
        ],
        [
          "Mississippi College",
          []
        ],
        [
          "Spring Hill",
          [
            "/wiki/Spring_Hill_Badgers_football"
          ]
        ],
        [
          "Mobile , Alabama",
          [
            "/wiki/Mobile,_Alabama"
          ]
        ],
        [
          "W 28-7",
          []
        ]
      ],
      [
        [
          "November 26",
          []
        ],
        [
          "Louisville",
          []
        ],
        [
          "Marshall",
          [
            "/wiki/Marshall_Thundering_Herd_football"
          ]
        ],
        [
          "Huntington , West Virginia",
          [
            "/wiki/Huntington,_West_Virginia"
          ]
        ],
        [
          "L 13-0",
          []
        ]
      ],
      [
        [
          "November 27",
          []
        ],
        [
          "Dartmouth",
          [
            "/wiki/Dartmouth_Big_Green_football"
          ]
        ],
        [
          "Georgia",
          []
        ],
        [
          "Atlanta",
          [
            "/wiki/Atlanta"
          ]
        ],
        [
          "L 7-0",
          []
        ]
      ]
    ],
    "section_title": "Regular season -- Week Ten",
    "section_text": "",
    "uid": "1921_Southern_Intercollegiate_Athletic_Association_football_season_10",
    "intro": "The 1921 Southern Intercollegiate Athletic Association football season was the college football games played by the member schools of the Southern Intercollegiate Athletic Association as part of the 1921 college football season. The season began on September 23 with conference member Chattanooga visiting Athens. Conference play began on September 24 with Alabama defeating Howard. Centre, Georgia Tech, Georgia, and Vanderbilt can all claim Southern championships. Centre and Georgia Tech both posted unblemished conference records. Georgia and Vanderbilt tied each other in their contest deciding a champion. This is the last year before many major programs move to the Southern Conference."
  },
  "Swimming_at_the_2007_World_Aquatics_Championships_\u2013_Women's_200_metre_individual_medley_0": {
    "url": "https://en.wikipedia.org/wiki/Swimming_at_the_2007_World_Aquatics_Championships_\u2013_Women's_200_metre_individual_medley",
    "title": "Swimming at the 2007 World Aquatics Championships \u2013 Women's 200 metre individual medley",
    "header": [
      [
        "Rank",
        []
      ],
      [
        "Heat / Lane",
        []
      ],
      [
        "Name",
        []
      ],
      [
        "Nationality",
        []
      ],
      [
        "50m Split",
        []
      ],
      [
        "100m Split",
        []
      ],
      [
        "150m Split",
        []
      ],
      [
        "Time",
        []
      ],
      [
        "Notes",
        []
      ]
    ],
    "data": [
      [
        [
          "1",
          []
        ],
        [
          "H2-L4",
          []
        ],
        [
          "Katie Hoff",
          [
            "/wiki/Katie_Hoff"
          ]
        ],
        [
          "USA",
          [
            "/wiki/United_States"
          ]
        ],
        [
          "28.83",
          []
        ],
        [
          "1:02.68",
          []
        ],
        [
          "1:40.14",
          []
        ],
        [
          "2:11.75",
          []
        ],
        [
          "Q",
          []
        ]
      ],
      [
        [
          "2",
          []
        ],
        [
          "H1-L4",
          []
        ],
        [
          "Kirsty Coventry",
          [
            "/wiki/Kirsty_Coventry"
          ]
        ],
        [
          "Zimbabwe",
          [
            "/wiki/Zimbabwe"
          ]
        ],
        [
          "29.29",
          []
        ],
        [
          "1:02.79",
          []
        ],
        [
          "1:40.95",
          []
        ],
        [
          "2:12.50",
          []
        ],
        [
          "Q",
          []
        ]
      ],
      [
        [
          "3",
          []
        ],
        [
          "H2-L3",
          []
        ],
        [
          "Stephanie Rice",
          [
            "/wiki/Stephanie_Rice"
          ]
        ],
        [
          "Australia",
          [
            "/wiki/Australia"
          ]
        ],
        [
          "28.66",
          []
        ],
        [
          "1:02.83",
          []
        ],
        [
          "1:41.40",
          []
        ],
        [
          "2:12.54",
          []
        ],
        [
          "Q",
          []
        ]
      ],
      [
        [
          "4",
          []
        ],
        [
          "H2-L5",
          []
        ],
        [
          "Julie Hjorth-Hansen",
          [
            "/wiki/Julie_Hjorth-Hansen"
          ]
        ],
        [
          "Denmark",
          [
            "/wiki/Denmark"
          ]
        ],
        [
          "28.88",
          []
        ],
        [
          "1:03.70",
          []
        ],
        [
          "1:41.58",
          []
        ],
        [
          "2:13.14",
          []
        ],
        [
          "Q",
          []
        ]
      ],
      [
        [
          "5",
          []
        ],
        [
          "H1-L6",
          []
        ],
        [
          "Whitney Myers",
          [
            "/wiki/Whitney_Myers"
          ]
        ],
        [
          "USA",
          [
            "/wiki/United_States"
          ]
        ],
        [
          "28.31",
          []
        ],
        [
          "1:02.90",
          []
        ],
        [
          "1:42.27",
          []
        ],
        [
          "2:13.69",
          []
        ],
        [
          "Q",
          []
        ]
      ],
      [
        [
          "6",
          []
        ],
        [
          "H1-L5",
          []
        ],
        [
          "Shayne Reese",
          [
            "/wiki/Shayne_Reese"
          ]
        ],
        [
          "Australia",
          [
            "/wiki/Australia"
          ]
        ],
        [
          "28.21",
          []
        ],
        [
          "1:03.56",
          []
        ],
        [
          "1:42.14",
          []
        ],
        [
          "2:14.10",
          []
        ],
        [
          "Q",
          []
        ]
      ],
      [
        [
          "7",
          []
        ],
        [
          "H2-L2",
          []
        ],
        [
          "Julia Wilkinson",
          [
            "/wiki/Julia_Wilkinson"
          ]
        ],
        [
          "Canada",
          [
            "/wiki/Canada"
          ]
        ],
        [
          "29.75",
          []
        ],
        [
          "1:04.64",
          []
        ],
        [
          "1:43.72",
          []
        ],
        [
          "2:14.94",
          []
        ],
        [
          "Q",
          []
        ]
      ],
      [
        [
          "8",
          []
        ],
        [
          "H2-L7",
          []
        ],
        [
          "Georgina Bardach",
          [
            "/wiki/Georgina_Bardach"
          ]
        ],
        [
          "Argentina",
          [
            "/wiki/Argentina"
          ]
        ],
        [
          "29.84",
          []
        ],
        [
          "1:04.81",
          []
        ],
        [
          "1:43.39",
          []
        ],
        [
          "2:15.08",
          []
        ],
        [
          "Q",
          []
        ]
      ],
      [
        [
          "9",
          []
        ],
        [
          "H2-L1",
          []
        ],
        [
          "Nicole Hetzer",
          [
            "/wiki/Nicole_Hetzer"
          ]
        ],
        [
          "Germany",
          [
            "/wiki/Germany"
          ]
        ],
        [
          "29.78",
          []
        ],
        [
          "1:04.05",
          []
        ],
        [
          "1:44.28",
          []
        ],
        [
          "2:15.69",
          []
        ],
        [
          "",
          []
        ]
      ],
      [
        [
          "10",
          []
        ],
        [
          "H1-L2",
          []
        ],
        [
          "Asami Kitagawa",
          []
        ],
        [
          "Japan",
          [
            "/wiki/Japan"
          ]
        ],
        [
          "29.56",
          []
        ],
        [
          "1:05.84",
          []
        ],
        [
          "1:43.89",
          []
        ],
        [
          "2:15.79",
          []
        ],
        [
          "",
          []
        ]
      ],
      [
        [
          "11",
          []
        ],
        [
          "H1-L8",
          []
        ],
        [
          "Olga Shulgina",
          []
        ],
        [
          "Russia",
          [
            "/wiki/Russia"
          ]
        ],
        [
          "29.97",
          []
        ],
        [
          "1:05.29",
          []
        ],
        [
          "1:43.94",
          []
        ],
        [
          "2:16.07",
          []
        ],
        [
          "",
          []
        ]
      ],
      [
        [
          "12",
          []
        ],
        [
          "H1-L7",
          []
        ],
        [
          "Katinka Hossz\u00fa",
          [
            "/wiki/Katinka_Hossz\u00fa"
          ]
        ],
        [
          "Hungary",
          [
            "/wiki/Hungary"
          ]
        ],
        [
          "29.22",
          []
        ],
        [
          "1:03.94",
          []
        ],
        [
          "1:44.62",
          []
        ],
        [
          "2:16.12",
          []
        ],
        [
          "",
          []
        ]
      ],
      [
        [
          "13",
          []
        ],
        [
          "H2-L6",
          []
        ],
        [
          "Evelyn Verraszt\u00f3",
          [
            "/wiki/Evelyn_Verraszt\u00f3"
          ]
        ],
        [
          "Hungary",
          [
            "/wiki/Hungary"
          ]
        ],
        [
          "29.18",
          []
        ],
        [
          "1:03.03",
          []
        ],
        [
          "1:45.16",
          []
        ],
        [
          "2:16.26",
          []
        ],
        [
          "",
          []
        ]
      ],
      [
        [
          "14",
          []
        ],
        [
          "H1-L3",
          []
        ],
        [
          "Sophie de Ronchi",
          [
            "/wiki/Sophie_de_Ronchi"
          ]
        ],
        [
          "France",
          [
            "/wiki/France"
          ]
        ],
        [
          "29.06",
          []
        ],
        [
          "1:05.17",
          []
        ],
        [
          "1:43.85",
          []
        ],
        [
          "2:16.89",
          []
        ],
        [
          "",
          []
        ]
      ],
      [
        [
          "15",
          []
        ],
        [
          "H2-L8",
          []
        ],
        [
          "Hye Ra Choi",
          []
        ],
        [
          "South Korea",
          [
            "/wiki/South_Korea"
          ]
        ],
        [
          "29.35",
          []
        ],
        [
          "1:04.30",
          []
        ],
        [
          "1:44.88",
          []
        ],
        [
          "2:17.10",
          []
        ],
        [
          "",
          []
        ]
      ],
      [
        [
          "16",
          []
        ],
        [
          "H1-L1",
          []
        ],
        [
          "Anja Klinar",
          [
            "/wiki/Anja_Klinar"
          ]
        ],
        [
          "Slovenia",
          [
            "/wiki/Slovenia"
          ]
        ],
        [
          "29.83",
          []
        ],
        [
          "1:05.06",
          []
        ],
        [
          "1:45.21",
          []
        ],
        [
          "2:17.69",
          []
        ],
        [
          "",
          []
        ]
      ]
    ],
    "section_title": "Results -- Semifinals",
    "section_text": "",
    "uid": "Swimming_at_the_2007_World_Aquatics_Championships_\u2013_Women's_200_metre_individual_medley_0",
    "intro": "The Women's 200m Individual Medley at the 2007 World Aquatics Championships took place on 25 March (prelims & semifinals) and the evening of 26 March (finals) at the Rod Laver Arena in Melbourne, Australia. 50 swimmers were entered in the event, of which 49 swam. Existing records at the start of the event were:"
  },
  "Swimming_at_the_2013_World_Aquatics_Championships_\u2013_Women's_400_metre_individual_medley_1": {
    "url": "https://en.wikipedia.org/wiki/Swimming_at_the_2013_World_Aquatics_Championships_\u2013_Women's_400_metre_individual_medley",
    "title": "Swimming at the 2013 World Aquatics Championships \u2013 Women's 400 metre individual medley",
    "header": [
      [
        "Rank",
        []
      ],
      [
        "Lane",
        []
      ],
      [
        "Name",
        []
      ],
      [
        "Nationality",
        []
      ],
      [
        "Time",
        []
      ]
    ],
    "data": [
      [
        [
          "1",
          []
        ],
        [
          "4",
          []
        ],
        [
          "Katinka Hossz\u00fa",
          [
            "/wiki/Katinka_Hossz\u00fa"
          ]
        ],
        [
          "Hungary",
          [
            "/wiki/Hungary_at_the_2013_World_Aquatics_Championships"
          ]
        ],
        [
          "4:30.41",
          []
        ]
      ],
      [
        [
          "2",
          []
        ],
        [
          "5",
          []
        ],
        [
          "Mireia Belmonte",
          [
            "/wiki/Mireia_Belmonte"
          ]
        ],
        [
          "Spain",
          [
            "/wiki/Spain_at_the_2013_World_Aquatics_Championships"
          ]
        ],
        [
          "4:31.21",
          []
        ]
      ],
      [
        [
          "3",
          []
        ],
        [
          "7",
          []
        ],
        [
          "Elizabeth Beisel",
          [
            "/wiki/Elizabeth_Beisel"
          ]
        ],
        [
          "United States",
          [
            "/wiki/United_States_at_the_2013_World_Aquatics_Championships"
          ]
        ],
        [
          "4:31.69",
          []
        ]
      ],
      [
        [
          "4",
          []
        ],
        [
          "1",
          []
        ],
        [
          "Madeline Dirado",
          [
            "/wiki/Maya_DiRado"
          ]
        ],
        [
          "United States",
          [
            "/wiki/United_States_at_the_2013_World_Aquatics_Championships"
          ]
        ],
        [
          "4:32.70",
          []
        ]
      ],
      [
        [
          "5",
          []
        ],
        [
          "2",
          []
        ],
        [
          "Hannah Miley",
          [
            "/wiki/Hannah_Miley"
          ]
        ],
        [
          "Great Britain",
          [
            "/wiki/Great_Britain_at_the_2013_World_Aquatics_Championships"
          ]
        ],
        [
          "4:34.16",
          []
        ]
      ],
      [
        [
          "6",
          []
        ],
        [
          "6",
          []
        ],
        [
          "Zsuzsanna Jakabos",
          [
            "/wiki/Zsuzsanna_Jakabos"
          ]
        ],
        [
          "Hungary",
          [
            "/wiki/Hungary_at_the_2013_World_Aquatics_Championships"
          ]
        ],
        [
          "4:34.50",
          []
        ]
      ],
      [
        [
          "7",
          []
        ],
        [
          "3",
          []
        ],
        [
          "Ye Shiwen",
          [
            "/wiki/Ye_Shiwen"
          ]
        ],
        [
          "China",
          [
            "/wiki/China_at_the_2013_World_Aquatics_Championships"
          ]
        ],
        [
          "4:38.51",
          []
        ]
      ],
      [
        [
          "8",
          []
        ],
        [
          "8",
          []
        ],
        [
          "Miyu Otsuka",
          []
        ],
        [
          "Japan",
          [
            "/wiki/Japan_at_the_2013_World_Aquatics_Championships"
          ]
        ],
        [
          "4:39.21",
          []
        ]
      ]
    ],
    "section_title": "Results -- Final",
    "section_text": "The final was held at 19:14 . [ 7 ]",
    "uid": "Swimming_at_the_2013_World_Aquatics_Championships_\u2013_Women's_400_metre_individual_medley_1",
    "intro": "The women's 400 metre individual medley event in swimming at the 2013 World Aquatics Championships took place on 4 August at the Palau Sant Jordi in Barcelona, Spain."
  },
  "1912_Southern_Intercollegiate_Athletic_Association_football_season_10": {
    "url": "https://en.wikipedia.org/wiki/1912_Southern_Intercollegiate_Athletic_Association_football_season",
    "title": "1912 Southern Intercollegiate Athletic Association football season",
    "header": [
      [
        "Date",
        []
      ],
      [
        "Visiting team",
        []
      ],
      [
        "Home team",
        []
      ],
      [
        "Site",
        []
      ],
      [
        "Result",
        []
      ]
    ],
    "data": [
      [
        [
          "November 28",
          []
        ],
        [
          "Tennessee",
          []
        ],
        [
          "Alabama",
          []
        ],
        [
          "Rickwood Field \u2022 Birmingham , AL",
          [
            "/wiki/Rickwood_Field",
            "/wiki/Birmingham,_Alabama"
          ]
        ],
        [
          "ALA 7-0",
          []
        ]
      ],
      [
        [
          "November 28",
          []
        ],
        [
          "Auburn",
          []
        ],
        [
          "Georgia",
          []
        ],
        [
          "Sanford Field \u2022 Athens , GA",
          [
            "/wiki/Sanford_Field",
            "/wiki/Athens,_Georgia"
          ]
        ],
        [
          "UGA 12-6",
          []
        ]
      ],
      [
        [
          "November 28",
          []
        ],
        [
          "Centre",
          []
        ],
        [
          "Transylvania",
          [
            "/wiki/Transylvania_Pioneers_football"
          ]
        ],
        [
          "Lexington , KY",
          [
            "/wiki/Lexington,_Kentucky"
          ]
        ],
        [
          "W 13-7",
          []
        ]
      ],
      [
        [
          "November 28",
          []
        ],
        [
          "Clemson",
          []
        ],
        [
          "Georgia Tech",
          []
        ],
        [
          "Grant Field \u2022 Atlanta , GA",
          [
            "/wiki/Bobby_Dodd_Stadium",
            "/wiki/Atlanta"
          ]
        ],
        [
          "GT 23-0",
          []
        ]
      ],
      [
        [
          "November 28",
          []
        ],
        [
          "Kentucky State",
          []
        ],
        [
          "Cincinnati YMI",
          []
        ],
        [
          "Cincinnati , OH",
          [
            "/wiki/Cincinnati"
          ]
        ],
        [
          "W 56-0",
          []
        ]
      ],
      [
        [
          "November 28",
          []
        ],
        [
          "LSU",
          []
        ],
        [
          "Tulane",
          []
        ],
        [
          "First Tulane Stadium \u2022 New Orleans , LA",
          [
            "/wiki/New_Orleans"
          ]
        ],
        [
          "LSU 21-3",
          []
        ]
      ],
      [
        [
          "November 28",
          []
        ],
        [
          "Mercer",
          []
        ],
        [
          "Florida",
          []
        ],
        [
          "Jacksonville , FL",
          [
            "/wiki/Jacksonville,_Florida"
          ]
        ],
        [
          "T 0-0",
          []
        ]
      ],
      [
        [
          "November 28",
          []
        ],
        [
          "The Citadel",
          []
        ],
        [
          "South Carolina",
          [
            "/wiki/South_Carolina_Gamecocks_football"
          ]
        ],
        [
          "Columbia , SC",
          [
            "/wiki/Columbia,_South_Carolina"
          ]
        ],
        [
          "L 26-2",
          []
        ]
      ],
      [
        [
          "November 28",
          []
        ],
        [
          "Sewanee",
          []
        ],
        [
          "Vanderbilt",
          []
        ],
        [
          "Dudley Field \u2022 Nashville , TN",
          [
            "/wiki/Vanderbilt_Stadium",
            "/wiki/Nashville,_Tennessee"
          ]
        ],
        [
          "VAN 16-0",
          []
        ]
      ],
      [
        [
          "November 29",
          []
        ],
        [
          "Howard",
          []
        ],
        [
          "Mississippi College",
          []
        ],
        [
          "Hattiesburg , MS",
          [
            "/wiki/Hattiesburg,_Mississippi"
          ]
        ],
        [
          "MSCOLL 20-0",
          []
        ]
      ]
    ],
    "section_title": "Regular season -- Week Ten",
    "section_text": "",
    "uid": "1912_Southern_Intercollegiate_Athletic_Association_football_season_10",
    "intro": "The 1912 Southern Intercollegiate Athletic Association football season was the college football games played by the member schools of the Southern Intercollegiate Athletic Association as part of the 1912 college football season. The season began on September 28. Ole Miss was suspended at year's end. Conference champion Vanderbilt suffered its only loss to national champion Harvard. The 1912 season saw the NCAA implement several rule changes to increase scoring. These included: the value of a touchdown increased from 5 points to 6, the length of the field was reduced to 100 yards, 10-yard end zones were added, the onside kick was eliminated, and unlimited use of the forward pass was introduced."
  },
  "1903_Southern_Intercollegiate_Athletic_Association_football_season_10": {
    "url": "https://en.wikipedia.org/wiki/1903_Southern_Intercollegiate_Athletic_Association_football_season",
    "title": "1903 Southern Intercollegiate Athletic Association football season",
    "header": [
      [
        "Date",
        []
      ],
      [
        "Visiting team",
        []
      ],
      [
        "Home team",
        []
      ],
      [
        "Site",
        []
      ],
      [
        "Result",
        []
      ]
    ],
    "data": [
      [
        [
          "November 11",
          []
        ],
        [
          "LSU",
          []
        ],
        [
          "Auburn",
          []
        ],
        [
          "Auburn , AL",
          [
            "/wiki/Auburn,_Alabama"
          ]
        ],
        [
          "AUB 12-0",
          []
        ]
      ],
      [
        [
          "November 13",
          []
        ],
        [
          "Texas",
          []
        ],
        [
          "Oklahoma",
          [
            "/wiki/1903_Oklahoma_Sooners_football_team"
          ]
        ],
        [
          "Norman , OK",
          [
            "/wiki/Norman,_Oklahoma"
          ]
        ],
        [
          "W 11-5",
          []
        ]
      ],
      [
        [
          "November 13",
          []
        ],
        [
          "Tennessee Medical",
          []
        ],
        [
          "Nashville",
          []
        ],
        [
          "Nashville , TN",
          []
        ],
        [
          "W 26-0",
          []
        ]
      ],
      [
        [
          "November 14",
          []
        ],
        [
          "Auburn",
          []
        ],
        [
          "Georgia Tech",
          []
        ],
        [
          "Atlanta , GA",
          [
            "/wiki/Atlanta"
          ]
        ],
        [
          "AUB 10-5",
          []
        ]
      ],
      [
        [
          "November 14",
          []
        ],
        [
          "Cumberland",
          []
        ],
        [
          "Alabama",
          []
        ],
        [
          "The Quad \u2022 Tuscaloosa , AL",
          [
            "/wiki/University_of_Alabama_Quad",
            "/wiki/Tuscaloosa,_Alabama"
          ]
        ],
        [
          "CUM 44-0",
          []
        ]
      ],
      [
        [
          "November 14",
          []
        ],
        [
          "Clemson",
          []
        ],
        [
          "North Carolina",
          [
            "/wiki/North_Carolina_Tar_Heels_football"
          ]
        ],
        [
          "Chapel Hill , NC",
          [
            "/wiki/Chapel_Hill,_North_Carolina"
          ]
        ],
        [
          "L 11-6",
          []
        ]
      ],
      [
        [
          "November 14",
          []
        ],
        [
          "Sewanee",
          []
        ],
        [
          "Tennessee",
          []
        ],
        [
          "Waite Field \u2022 Knoxville , TN",
          [
            "/wiki/Waite_Field",
            "/wiki/Knoxville,_Tennessee"
          ]
        ],
        [
          "SEW 17-0",
          []
        ]
      ],
      [
        [
          "November 14",
          []
        ],
        [
          "Washington ( MO )",
          [
            "/wiki/Washington_University_Bears_football"
          ]
        ],
        [
          "Vanderbilt",
          []
        ],
        [
          "Dudley Field Nashville , TN",
          [
            "/wiki/Vanderbilt_Stadium",
            "/wiki/Nashville,_Tennessee"
          ]
        ],
        [
          "W 41-0",
          []
        ]
      ],
      [
        [
          "November 14",
          []
        ],
        [
          "Georgia",
          []
        ],
        [
          "Savannah",
          []
        ],
        [
          "Savannah , GA",
          [
            "/wiki/Savannah,_Georgia"
          ]
        ],
        [
          "L 6-0",
          []
        ]
      ],
      [
        [
          "November 14",
          []
        ],
        [
          "Mississippi A & M",
          []
        ],
        [
          "Ole Miss",
          []
        ],
        [
          "University Park \u2022 Oxford , MS",
          [
            "/wiki/Oxford,_Mississippi"
          ]
        ],
        [
          "T 6-6",
          []
        ]
      ],
      [
        [
          "November 16",
          []
        ],
        [
          "Cumberland",
          []
        ],
        [
          "LSU",
          []
        ],
        [
          "State Field \u2022 Baton Rouge , LA",
          [
            "/wiki/State_Field",
            "/wiki/Baton_Rouge,_Louisiana"
          ]
        ],
        [
          "CUM 41-0",
          []
        ]
      ]
    ],
    "section_title": "Season overview -- Regular season",
    "section_text": "",
    "uid": "1903_Southern_Intercollegiate_Athletic_Association_football_season_10",
    "intro": "The 1903 Southern Intercollegiate Athletic Association football season was the college football games played by the member schools of the Southern Intercollegiate Athletic Association as part of the 1903 college football season. The season began on September 25. 1903 met difficulty in determining an SIAA champion. Clemson had the best record, but lost to an inferior North Carolina team; and in the game to secure the SIAA title were tied by Cumberland. Clemson's John Heisman pushed strongly for Cumberland to share the SIAA title. Cumberland's strongest victory was its win over Vanderbilt. However, Sewanee beat Cumberland, yet suffered its only loss to Vanderbilt. Heisman originally challenged the winner of the Vanderbilt-Sewanee game. John J. Tigert was a star player for Vanderbilt. Nash Buckingham rated Kentucky University and Vanderbilt as best in the south."
  },
  "Swimming_at_the_2005_World_Aquatics_Championships_\u2013_Women's_400_metre_individual_medley_0": {
    "url": "https://en.wikipedia.org/wiki/Swimming_at_the_2005_World_Aquatics_Championships_\u2013_Women's_400_metre_individual_medley",
    "title": "Swimming at the 2005 World Aquatics Championships \u2013 Women's 400 metre individual medley",
    "header": [
      [
        "Place",
        []
      ],
      [
        "Swimmer",
        []
      ],
      [
        "Nation",
        []
      ],
      [
        "Time",
        []
      ]
    ],
    "data": [
      [
        [
          "1",
          []
        ],
        [
          "Katie Hoff",
          [
            "/wiki/Katie_Hoff"
          ]
        ],
        [
          "USA",
          []
        ],
        [
          "4:36.07",
          []
        ]
      ],
      [
        [
          "2",
          []
        ],
        [
          "Kirsty Coventry",
          [
            "/wiki/Kirsty_Coventry"
          ]
        ],
        [
          "Zimbabwe",
          []
        ],
        [
          "4:39.72",
          []
        ]
      ],
      [
        [
          "3",
          []
        ],
        [
          "Kaitlin Sandeno",
          [
            "/wiki/Kaitlin_Sandeno"
          ]
        ],
        [
          "USA",
          []
        ],
        [
          "4:40.85",
          []
        ]
      ],
      [
        [
          "4",
          []
        ],
        [
          "Lara Carroll",
          [
            "/wiki/Lara_Carroll"
          ]
        ],
        [
          "Australia",
          []
        ],
        [
          "4:42.25",
          []
        ]
      ],
      [
        [
          "5",
          []
        ],
        [
          "Maiko Fujino",
          [
            "/wiki/Maiko_Fujino"
          ]
        ],
        [
          "Japan",
          []
        ],
        [
          "4:42.68",
          []
        ]
      ],
      [
        [
          "6",
          []
        ],
        [
          "Georgina Bardach",
          [
            "/wiki/Georgina_Bardach"
          ]
        ],
        [
          "Argentina",
          []
        ],
        [
          "4:43.60",
          []
        ]
      ],
      [
        [
          "7",
          []
        ],
        [
          "\u00c9va Risztov",
          [
            "/wiki/\u00c9va_Risztov"
          ]
        ],
        [
          "Hungary",
          []
        ],
        [
          "4:43.68",
          []
        ]
      ],
      [
        [
          "8",
          []
        ],
        [
          "Zsuzsanna Jakabos",
          [
            "/wiki/Zsuzsanna_Jakabos"
          ]
        ],
        [
          "Hungary",
          []
        ],
        [
          "4:44.65",
          []
        ]
      ]
    ],
    "section_title": "Results -- Final",
    "section_text": "",
    "uid": "Swimming_at_the_2005_World_Aquatics_Championships_\u2013_Women's_400_metre_individual_medley_0",
    "intro": "The Women's 400m Individual Medley event at the 11th FINA World Aquatics Championships swam on 31 July 2005 in Montreal, Canada. At the start of the event, the existing World (WR) and Championships (CR) records were:"
  }
}