{
  "List_of_judges_of_the_Federal_Administrative_Court_of_Switzerland_2": {
    "url": "https://en.wikipedia.org/wiki/List_of_judges_of_the_Federal_Administrative_Court_of_Switzerland",
    "title": "List of judges of the Federal Administrative Court of Switzerland",
    "header": [
      [
        "Name",
        []
      ],
      [
        "Term of office",
        []
      ],
      [
        "Party",
        []
      ]
    ],
    "data": [
      [
        [
          "Alberto Meuli",
          []
        ],
        [
          "2007-2012",
          []
        ],
        [
          "SVP/UDC",
          [
            "/wiki/Swiss_People's_Party"
          ]
        ]
      ],
      [
        [
          "Eduard Achermann",
          []
        ],
        [
          "2007-2012",
          []
        ],
        [
          "SVP/UDC",
          [
            "/wiki/Swiss_People's_Party"
          ]
        ]
      ],
      [
        [
          "Elena Avenati-Carpani",
          []
        ],
        [
          "2007-2012",
          []
        ],
        [
          "CVP/PDC",
          [
            "/wiki/Christian_Democratic_People's_Party_of_Switzerland"
          ]
        ]
      ],
      [
        [
          "Ruth Beutler",
          []
        ],
        [
          "2007-2012",
          []
        ],
        [
          "SPS/PSS",
          [
            "/wiki/Social_Democratic_Party_of_Switzerland"
          ]
        ]
      ],
      [
        [
          "Johannes Fr\u00f6licher",
          []
        ],
        [
          "2007-2012",
          []
        ],
        [
          "SPS/PSS",
          [
            "/wiki/Social_Democratic_Party_of_Switzerland"
          ]
        ]
      ],
      [
        [
          "Antonio Imoberdorf",
          []
        ],
        [
          "2007-2012",
          []
        ],
        [
          "SPS/PSS",
          [
            "/wiki/Social_Democratic_Party_of_Switzerland"
          ]
        ]
      ],
      [
        [
          "Stefan Mesmer",
          []
        ],
        [
          "2007-2012",
          []
        ],
        [
          "SPS/PSS",
          [
            "/wiki/Social_Democratic_Party_of_Switzerland"
          ]
        ]
      ],
      [
        [
          "Francesco Parrino",
          []
        ],
        [
          "2007-2012",
          []
        ],
        [
          "SPS/PSS",
          [
            "/wiki/Social_Democratic_Party_of_Switzerland"
          ]
        ]
      ],
      [
        [
          "Michael Peterli",
          []
        ],
        [
          "2007-2012",
          []
        ],
        [
          "GPS/PES",
          [
            "/wiki/Green_Party_of_Switzerland"
          ]
        ]
      ],
      [
        [
          "Franziska Schneider",
          []
        ],
        [
          "2007-2012",
          []
        ],
        [
          "GPS/PES",
          [
            "/wiki/Green_Party_of_Switzerland"
          ]
        ]
      ],
      [
        [
          "Andreas Trommer",
          []
        ],
        [
          "2007-2012",
          []
        ],
        [
          "FDP/PRD",
          [
            "/wiki/Free_Democratic_Party_of_Switzerland"
          ]
        ]
      ],
      [
        [
          "Bernard Vaudan",
          []
        ],
        [
          "2007-2012",
          []
        ],
        [
          "CVP/PDC",
          [
            "/wiki/Christian_Democratic_People's_Party_of_Switzerland"
          ]
        ]
      ],
      [
        [
          "Blaise Vuille",
          []
        ],
        [
          "2007-2012",
          []
        ],
        [
          "FDP/PRD",
          [
            "/wiki/Free_Democratic_Party_of_Switzerland"
          ]
        ]
      ]
    ],
    "section_title": "Division III : Foreigners , Health and Social Security",
    "section_text": "",
    "uid": "List_of_judges_of_the_Federal_Administrative_Court_of_Switzerland_2",
    "intro": "This is a list of judges of the Federal Administrative Court of Switzerland."
  },
  "Chicago_Film_Critics_Association_Award_for_Best_Supporting_Actress_2": {
    "url": "https://en.wikipedia.org/wiki/Chicago_Film_Critics_Association_Award_for_Best_Supporting_Actress",
    "title": "Chicago Film Critics Association Award for Best Supporting Actress",
    "header": [
      [
        "Year",
        []
      ],
      [
        "Winner and nominees",
        []
      ],
      [
        "Film",
        []
      ],
      [
        "Role",
        []
      ]
    ],
    "data": [
      [
        [
          "2000",
          []
        ],
        [
          "Frances McDormand",
          [
            "/wiki/Frances_McDormand"
          ]
        ],
        [
          "Almost Famous",
          [
            "/wiki/Almost_Famous"
          ]
        ],
        [
          "Elaine Miller",
          []
        ]
      ],
      [
        [
          "2000",
          []
        ],
        [
          "Kate Hudson",
          [
            "/wiki/Kate_Hudson"
          ]
        ],
        [
          "Almost Famous",
          [
            "/wiki/Almost_Famous"
          ]
        ],
        [
          "Penny Lane",
          []
        ]
      ],
      [
        [
          "2000",
          []
        ],
        [
          "Julie Walters",
          [
            "/wiki/Julie_Walters"
          ]
        ],
        [
          "Billy Elliot",
          [
            "/wiki/Billy_Elliot"
          ]
        ],
        [
          "Mrs. Georgia Wilkinson",
          []
        ]
      ],
      [
        [
          "2000",
          []
        ],
        [
          "Catherine Zeta-Jones",
          [
            "/wiki/Catherine_Zeta-Jones"
          ]
        ],
        [
          "Traffic",
          [
            "/wiki/Traffic_(2000_film)"
          ]
        ],
        [
          "Helena Ayala",
          []
        ]
      ],
      [
        [
          "2000",
          []
        ],
        [
          "Zhang Ziyi",
          [
            "/wiki/Zhang_Ziyi"
          ]
        ],
        [
          "Crouching Tiger , Hidden Dragon",
          [
            "/wiki/Crouching_Tiger,_Hidden_Dragon"
          ]
        ],
        [
          "Jen Yu",
          []
        ]
      ],
      [
        [
          "2001",
          []
        ],
        [
          "Cameron Diaz",
          [
            "/wiki/Cameron_Diaz"
          ]
        ],
        [
          "Vanilla Sky",
          [
            "/wiki/Vanilla_Sky"
          ]
        ],
        [
          "Julianna Gianni",
          []
        ]
      ],
      [
        [
          "2001",
          []
        ],
        [
          "Jennifer Connelly",
          [
            "/wiki/Jennifer_Connelly"
          ]
        ],
        [
          "A Beautiful Mind",
          [
            "/wiki/A_Beautiful_Mind_(film)"
          ]
        ],
        [
          "Alicia Nash",
          []
        ]
      ],
      [
        [
          "2001",
          []
        ],
        [
          "Helen Mirren",
          [
            "/wiki/Helen_Mirren"
          ]
        ],
        [
          "Gosford Park",
          [
            "/wiki/Gosford_Park"
          ]
        ],
        [
          "Mrs. Wilson",
          []
        ]
      ],
      [
        [
          "2001",
          []
        ],
        [
          "Maggie Smith",
          [
            "/wiki/Maggie_Smith"
          ]
        ],
        [
          "Gosford Park",
          [
            "/wiki/Gosford_Park"
          ]
        ],
        [
          "Constance , Countess of Trentham",
          []
        ]
      ],
      [
        [
          "2001",
          []
        ],
        [
          "Marisa Tomei",
          [
            "/wiki/Marisa_Tomei"
          ]
        ],
        [
          "In the Bedroom",
          [
            "/wiki/In_the_Bedroom"
          ]
        ],
        [
          "Natalie Strout",
          []
        ]
      ],
      [
        [
          "2002",
          []
        ],
        [
          "Meryl Streep",
          [
            "/wiki/Meryl_Streep"
          ]
        ],
        [
          "Adaptation",
          [
            "/wiki/Adaptation_(film)"
          ]
        ],
        [
          "Susan Orlean",
          [
            "/wiki/Susan_Orlean"
          ]
        ]
      ],
      [
        [
          "2002",
          []
        ],
        [
          "Kathy Bates",
          [
            "/wiki/Kathy_Bates"
          ]
        ],
        [
          "About Schmidt",
          [
            "/wiki/About_Schmidt"
          ]
        ],
        [
          "Roberta Hertzel",
          []
        ]
      ],
      [
        [
          "2002",
          []
        ],
        [
          "Patricia Clarkson",
          [
            "/wiki/Patricia_Clarkson"
          ]
        ],
        [
          "Far from Heaven",
          [
            "/wiki/Far_from_Heaven"
          ]
        ],
        [
          "Eleanor Fine",
          []
        ]
      ],
      [
        [
          "2002",
          []
        ],
        [
          "Julianne Moore",
          [
            "/wiki/Julianne_Moore"
          ]
        ],
        [
          "The Hours",
          [
            "/wiki/The_Hours_(film)"
          ]
        ],
        [
          "Laura Brown",
          []
        ]
      ],
      [
        [
          "2002",
          []
        ],
        [
          "Emily Mortimer",
          [
            "/wiki/Emily_Mortimer"
          ]
        ],
        [
          "Lovely & Amazing",
          [
            "/wiki/Lovely_&_Amazing"
          ]
        ],
        [
          "Elizabeth Marks",
          []
        ]
      ],
      [
        [
          "2003",
          []
        ],
        [
          "Patricia Clarkson",
          [
            "/wiki/Patricia_Clarkson"
          ]
        ],
        [
          "Pieces of April",
          [
            "/wiki/Pieces_of_April"
          ]
        ],
        [
          "Joy Burns",
          []
        ]
      ],
      [
        [
          "2003",
          []
        ],
        [
          "Ellen DeGeneres",
          [
            "/wiki/Ellen_DeGeneres"
          ]
        ],
        [
          "Finding Nemo",
          [
            "/wiki/Finding_Nemo"
          ]
        ],
        [
          "Dory",
          []
        ]
      ],
      [
        [
          "2003",
          []
        ],
        [
          "Marcia Gay Harden",
          [
            "/wiki/Marcia_Gay_Harden"
          ]
        ],
        [
          "Mystic River",
          [
            "/wiki/Mystic_River_(film)"
          ]
        ],
        [
          "Celeste Boyle",
          []
        ]
      ],
      [
        [
          "2003",
          []
        ],
        [
          "Holly Hunter",
          [
            "/wiki/Holly_Hunter"
          ]
        ],
        [
          "Thirteen",
          [
            "/wiki/Thirteen_(2003_film)"
          ]
        ],
        [
          "Melanie Freeland",
          []
        ]
      ],
      [
        [
          "2003",
          []
        ],
        [
          "Miranda Richardson",
          [
            "/wiki/Miranda_Richardson"
          ]
        ],
        [
          "Spider",
          [
            "/wiki/Spider_(2002_film)"
          ]
        ],
        [
          "Yvonne / Mrs. Cleg",
          []
        ]
      ]
    ],
    "section_title": "Winners -- 2000s",
    "section_text": "",
    "uid": "Chicago_Film_Critics_Association_Award_for_Best_Supporting_Actress_2",
    "intro": "The Chicago Film Critics Association Award for Best Supporting Actress is an annual award given by the Chicago Film Critics Association."
  },
  "Comparison_of_embedded_computer_systems_on_board_the_Mars_rovers_0": {
    "url": "https://en.wikipedia.org/wiki/Comparison_of_embedded_computer_systems_on_board_the_Mars_rovers",
    "title": "Comparison of embedded computer systems on board the Mars rovers",
    "header": [
      [
        "Rover ( mission , organization , year )",
        []
      ],
      [
        "CPUs",
        [
          "/wiki/Central_processing_unit"
        ]
      ],
      [
        "RAM",
        [
          "/wiki/Random-access_memory"
        ]
      ],
      [
        "Flash",
        [
          "/wiki/Flash_memory"
        ]
      ],
      [
        "EEPROM",
        [
          "/wiki/EEPROM"
        ]
      ],
      [
        "Operating system",
        [
          "/wiki/Operating_system"
        ]
      ],
      [
        "CPU time available for the autonomy software",
        [
          "/wiki/CPU_time"
        ]
      ]
    ],
    "data": [
      [
        [
          "Sojourner Rover ( Pathfinder , NASA , 1997 )",
          [
            "/wiki/Mars_Pathfinder",
            "/wiki/Mars_Pathfinder"
          ]
        ],
        [
          "2 MHz Intel 80C85",
          [
            "/wiki/Intel_8085"
          ]
        ],
        [
          "512 KB",
          [
            "/wiki/Kilobyte"
          ]
        ],
        [
          "176 KB",
          []
        ],
        [
          "None",
          []
        ],
        [
          "Custom cyclic executive",
          [
            "/wiki/Cyclic_executive"
          ]
        ],
        [
          "Not applicable to Cyclic Executives",
          []
        ]
      ],
      [
        [
          "Pathfinder Lander ( NASA , 1997 ) ( Base station for Sojourner rover )",
          [
            "/wiki/Mars_Pathfinder"
          ]
        ],
        [
          "20 MHz MFC",
          []
        ],
        [
          "128 MB",
          [
            "/wiki/Megabyte"
          ]
        ],
        [
          "None",
          []
        ],
        [
          "6 MB",
          []
        ],
        [
          "VxWorks ( multitasking )",
          [
            "/wiki/VxWorks",
            "/wiki/Computer_multitasking"
          ]
        ],
        [
          "less than 75%",
          []
        ]
      ],
      [
        [
          "Spirit and Opportunity ( Mars Exploration Rover ( MER ) , NASA , 2004 )",
          [
            "/wiki/Spirit_(rover)",
            "/wiki/Opportunity_(rover)",
            "/wiki/Mars_Exploration_Rover"
          ]
        ],
        [
          "20 MHz BAE RAD6000",
          [
            "/wiki/IBM_RAD6000"
          ]
        ],
        [
          "128 MB",
          []
        ],
        [
          "256 MB",
          []
        ],
        [
          "3 MB",
          []
        ],
        [
          "VxWorks ( multitasking )",
          []
        ],
        [
          "less than 75%",
          []
        ]
      ],
      [
        [
          "Curiosity ( Mars Science Laboratory ( MSL ) , NASA , 2011 )",
          [
            "/wiki/Curiosity_rover",
            "/wiki/Mars_Science_Laboratory"
          ]
        ],
        [
          "200 MHz BAE RAD750",
          [
            "/wiki/RAD750"
          ]
        ],
        [
          "256 MB",
          []
        ],
        [
          "2 GB",
          [
            "/wiki/Gigabyte"
          ]
        ],
        [
          "256 KB",
          []
        ],
        [
          "VxWorks ( multitasking )",
          []
        ],
        [
          "less than 75%",
          []
        ]
      ],
      [
        [
          "Mars 2020",
          [
            "/wiki/Mars_2020"
          ]
        ],
        [
          "200 MHz BAE RAD750",
          []
        ],
        [
          "256 MB",
          []
        ],
        [
          "2 GB",
          []
        ],
        [
          "256 KB",
          []
        ],
        [
          "?",
          []
        ],
        [
          "?",
          []
        ]
      ]
    ],
    "section_title": "Performance comparisons",
    "section_text": "With the exception of Curiosity , each Mars rover has only one on-board computer . There are two identical on-board computers on Curiosity , which , as of February 2013 , is operating on its redundant computer , while its primary computer is being investigated for the reasons why it started to fail . [ 2 ]",
    "uid": "Comparison_of_embedded_computer_systems_on_board_the_Mars_rovers_0",
    "intro": "The embedded computer systems on board the Mars rovers sent by NASA must withstand the high radiation levels and large temperature changes in space. For this reason their computational resources are limited compared to systems commonly used on Earth."
  }
}