{
  "Swimming_at_the_2019_World_Aquatics_Championships_\u2013_Men's_4_\u00d7_100_metre_freestyle_relay_0": {
    "url": "https://en.wikipedia.org/wiki/Swimming_at_the_2019_World_Aquatics_Championships_\u2013_Men's_4_\u00d7_100_metre_freestyle_relay",
    "title": "Swimming at the 2019 World Aquatics Championships \u2013 Men's 4 \u00d7 100 metre freestyle relay",
    "header": [
      [
        "Rank",
        []
      ],
      [
        "Heat",
        []
      ],
      [
        "Lane",
        []
      ],
      [
        "Nation",
        []
      ],
      [
        "Swimmers",
        []
      ],
      [
        "Time",
        []
      ],
      [
        "Notes",
        []
      ]
    ],
    "data": [
      [
        [
          "1",
          []
        ],
        [
          "1",
          []
        ],
        [
          "5",
          []
        ],
        [
          "United States",
          [
            "/wiki/United_States_at_the_2019_World_Aquatics_Championships"
          ]
        ],
        [
          "Townley Haas ( 48.60 ) Blake Pieroni ( 47.32 ) Michael Chadwick ( 47.92 ) Zach Apple ( 47.47 )",
          [
            "/wiki/Townley_Haas",
            "/wiki/Blake_Pieroni",
            "/wiki/Michael_Chadwick_(swimmer)",
            "/wiki/Zach_Apple"
          ]
        ],
        [
          "3:11.31",
          []
        ],
        [
          "Q",
          []
        ]
      ],
      [
        [
          "2",
          []
        ],
        [
          "2",
          []
        ],
        [
          "1",
          []
        ],
        [
          "Great Britain",
          [
            "/wiki/Great_Britain_at_the_2019_World_Aquatics_Championships"
          ]
        ],
        [
          "Duncan Scott ( 48.18 ) James Guy ( 47.77 ) Ben Proud ( 48.43 ) Scott McLay ( 48.04 )",
          [
            "/wiki/Duncan_Scott_(swimmer)",
            "/wiki/James_Guy_(swimmer)",
            "/wiki/Ben_Proud"
          ]
        ],
        [
          "3:12.42",
          []
        ],
        [
          "Q",
          []
        ]
      ],
      [
        [
          "3",
          []
        ],
        [
          "2",
          []
        ],
        [
          "4",
          []
        ],
        [
          "Russia",
          [
            "/wiki/Russia_at_the_2019_World_Aquatics_Championships"
          ]
        ],
        [
          "Evgeny Rylov ( 48.31 ) Andrey Minakov ( 48.94 ) Kliment Kolesnikov ( 47.96 ) Vladislav Grinev ( 47.43 )",
          [
            "/wiki/Evgeny_Rylov",
            "/wiki/Andrey_Minakov",
            "/wiki/Kliment_Kolesnikov",
            "/wiki/Vladislav_Grinev"
          ]
        ],
        [
          "3:12.64",
          []
        ],
        [
          "Q",
          []
        ]
      ],
      [
        [
          "4",
          []
        ],
        [
          "3",
          []
        ],
        [
          "5",
          []
        ],
        [
          "Australia",
          [
            "/wiki/Australia_at_the_2019_World_Aquatics_Championships"
          ]
        ],
        [
          "Cameron McEvoy ( 48.29 ) Clyde Lewis ( 47.99 ) Alexander Graham ( 48.39 ) Kyle Chalmers ( 47.98 )",
          [
            "/wiki/Cameron_McEvoy",
            "/wiki/Clyde_Lewis",
            "/wiki/Alexander_Graham_(swimmer)",
            "/wiki/Kyle_Chalmers"
          ]
        ],
        [
          "3:12.65",
          []
        ],
        [
          "Q",
          []
        ]
      ],
      [
        [
          "5",
          []
        ],
        [
          "3",
          []
        ],
        [
          "3",
          []
        ],
        [
          "Italy",
          [
            "/wiki/Italy_at_the_2019_World_Aquatics_Championships"
          ]
        ],
        [
          "Santo Condorelli ( 48.67 ) Manuel Frigo ( 47.90 ) Alessandro Bori ( 48.49 ) Alessandro Miressi ( 47.60 )",
          [
            "/wiki/Santo_Condorelli",
            "/wiki/Alessandro_Miressi"
          ]
        ],
        [
          "3:12.66",
          []
        ],
        [
          "Q",
          []
        ]
      ],
      [
        [
          "6",
          []
        ],
        [
          "3",
          []
        ],
        [
          "4",
          []
        ],
        [
          "Brazil",
          [
            "/wiki/Brazil_at_the_2019_World_Aquatics_Championships"
          ]
        ],
        [
          "Marcelo Chierighini ( 48.20 ) Pedro Spajari ( 48.14 ) Andr\u00e9 Calvelo ( 48.44 ) Breno Correia ( 48.19 )",
          [
            "/wiki/Marcelo_Chierighini",
            "/wiki/Pedro_Spajari",
            "/wiki/Breno_Correia"
          ]
        ],
        [
          "3:12.97",
          []
        ],
        [
          "Q",
          []
        ]
      ],
      [
        [
          "7",
          []
        ],
        [
          "3",
          []
        ],
        [
          "8",
          []
        ],
        [
          "France",
          [
            "/wiki/France_at_the_2019_World_Aquatics_Championships"
          ]
        ],
        [
          "Cl\u00e9ment Mignon ( 48.26 ) J\u00e9r\u00e9my Stravius ( 48.21 ) Tom Paco Pedroni ( 48.41 ) Mehdy Metella ( 48.16 )",
          [
            "/wiki/Cl\u00e9ment_Mignon",
            "/wiki/J\u00e9r\u00e9my_Stravius",
            "/wiki/Mehdy_Metella"
          ]
        ],
        [
          "3:13.04",
          []
        ],
        [
          "Q",
          []
        ]
      ],
      [
        [
          "8",
          []
        ],
        [
          "3",
          []
        ],
        [
          "2",
          []
        ],
        [
          "Hungary",
          [
            "/wiki/Hungary_at_the_2019_World_Aquatics_Championships"
          ]
        ],
        [
          "Dominik Kozma ( 48.92 ) N\u00e1ndor N\u00e9meth ( 48.36 ) Rich\u00e1rd Bohus ( 48.79 ) Szebaszti\u00e1n Szab\u00f3 ( 47.83 )",
          [
            "/wiki/Dominik_Kozma",
            "/wiki/N\u00e1ndor_N\u00e9meth",
            "/wiki/Rich\u00e1rd_Bohus",
            "/wiki/Szebaszti\u00e1n_Szab\u00f3"
          ]
        ],
        [
          "3:13.90",
          []
        ],
        [
          "Q",
          []
        ]
      ],
      [
        [
          "9",
          []
        ],
        [
          "2",
          []
        ],
        [
          "5",
          []
        ],
        [
          "Japan",
          [
            "/wiki/Japan_at_the_2019_World_Aquatics_Championships"
          ]
        ],
        [
          "Katsumi Nakamura ( 48.48 ) Shinri Shioura ( 48.92 ) Katsuhiro Matsumoto ( 47.95 ) Akira Namba ( 48.81 )",
          []
        ],
        [
          "3:14.16",
          []
        ],
        [
          "",
          []
        ]
      ],
      [
        [
          "10",
          []
        ],
        [
          "2",
          []
        ],
        [
          "2",
          []
        ],
        [
          "Greece",
          [
            "/wiki/Greece_at_the_2019_World_Aquatics_Championships"
          ]
        ],
        [
          "Andreas Vazaios ( 49.22 ) Kristian Golomeev ( 47.60 ) Ioannis Georgarakis ( 49.50 ) Apostolos Christou ( 48.12 )",
          [
            "/wiki/Andreas_Vazaios",
            "/wiki/Kristian_Golomeev",
            "/wiki/Apostolos_Christou"
          ]
        ],
        [
          "3:14.44",
          []
        ],
        [
          "",
          []
        ]
      ],
      [
        [
          "11",
          []
        ],
        [
          "2",
          []
        ],
        [
          "7",
          []
        ],
        [
          "Germany",
          [
            "/wiki/Germany_at_the_2019_World_Aquatics_Championships"
          ]
        ],
        [
          "Damian Wierling ( 48.80 ) Marius Kusch ( 48.64 ) Josha Salchow ( 48.46 ) Christoph Fildebrandt ( 48.68 )",
          [
            "/wiki/Damian_Wierling",
            "/wiki/Marius_Kusch",
            "/wiki/Christoph_Fildebrandt"
          ]
        ],
        [
          "3:14.58",
          []
        ],
        [
          "",
          []
        ]
      ],
      [
        [
          "12",
          []
        ],
        [
          "3",
          []
        ],
        [
          "6",
          []
        ],
        [
          "Poland",
          [
            "/wiki/Poland_at_the_2019_World_Aquatics_Championships"
          ]
        ],
        [
          "Kacper Majchrzak ( 48.95 ) Przemys\u0142aw Gawrysiak ( 49.64 ) Jan Ho\u0142ub ( 48.13 ) Jakub Kraska ( 48.06 )",
          [
            "/wiki/Kacper_Majchrzak",
            "/wiki/Jan_Ho\u0142ub",
            "/wiki/Jakub_Kraska"
          ]
        ],
        [
          "3:14.78",
          []
        ],
        [
          "",
          []
        ]
      ],
      [
        [
          "13",
          []
        ],
        [
          "2",
          []
        ],
        [
          "6",
          []
        ],
        [
          "Canada",
          [
            "/wiki/Canada_at_the_2019_World_Aquatics_Championships"
          ]
        ],
        [
          "Markus Thormeyer ( 48.80 ) Yuri Kisil ( 48.32 ) William Pisani ( 49.21 ) Carson Olafson ( 48.73 )",
          [
            "/wiki/Markus_Thormeyer",
            "/wiki/Yuri_Kisil"
          ]
        ],
        [
          "3:15.06",
          []
        ],
        [
          "",
          []
        ]
      ],
      [
        [
          "14",
          []
        ],
        [
          "3",
          []
        ],
        [
          "9",
          []
        ],
        [
          "Belgium",
          [
            "/wiki/Belgium_at_the_2019_World_Aquatics_Championships"
          ]
        ],
        [
          "Sebastien De Meulemeester ( 49.29 ) Jasper Aerents ( 48.81 ) Thomas Thijs ( 48.49 ) Pieter Timmers ( 48.75 )",
          [
            "/wiki/Jasper_Aerents",
            "/wiki/Pieter_Timmers"
          ]
        ],
        [
          "3:15.34",
          []
        ],
        [
          "",
          []
        ]
      ],
      [
        [
          "15",
          []
        ],
        [
          "3",
          []
        ],
        [
          "1",
          []
        ],
        [
          "Serbia",
          [
            "/wiki/Serbia_at_the_2019_World_Aquatics_Championships"
          ]
        ],
        [
          "Velimir Stjepanovi\u0107 ( 49.59 ) Uro\u0161 Nikoli\u0107 ( 48.48 ) Andrej Barna ( 48.29 ) Nikola A\u0107in ( 49.36 )",
          [
            "/wiki/Velimir_Stjepanovi\u0107"
          ]
        ],
        [
          "3:15.72",
          []
        ],
        [
          "",
          []
        ]
      ],
      [
        [
          "16",
          []
        ],
        [
          "3",
          []
        ],
        [
          "7",
          []
        ],
        [
          "Netherlands",
          [
            "/wiki/Netherlands_at_the_2019_World_Aquatics_Championships"
          ]
        ],
        [
          "Jesse Puts ( 49.15 ) Nyls Korstanje ( 49.06 ) Kyle Stolk ( 48.34 ) Stan Pijnenburg ( 49.22 )",
          [
            "/wiki/Jesse_Puts",
            "/wiki/Nyls_Korstanje",
            "/wiki/Kyle_Stolk",
            "/wiki/Stan_Pijnenburg"
          ]
        ],
        [
          "3:15.77",
          []
        ],
        [
          "",
          []
        ]
      ],
      [
        [
          "17",
          []
        ],
        [
          "2",
          []
        ],
        [
          "3",
          []
        ],
        [
          "China",
          [
            "/wiki/China_at_the_2019_World_Aquatics_Championships"
          ]
        ],
        [
          "Yu Hexin ( 49.80 ) Yang Jintong ( 49.00 ) Cao Jiwen ( 48.87 ) He Junyi ( 48.56 )",
          [
            "/wiki/Yu_Hexin",
            "/wiki/Yang_Jintong",
            "/wiki/He_Junyi"
          ]
        ],
        [
          "3:16.23",
          []
        ],
        [
          "",
          []
        ]
      ],
      [
        [
          "18",
          []
        ],
        [
          "2",
          []
        ],
        [
          "8",
          []
        ],
        [
          "Singapore",
          [
            "/wiki/Singapore_at_the_2019_World_Aquatics_Championships"
          ]
        ],
        [
          "Joseph Schooling ( 49.32 ) Quah Zheng Wen ( 48.76 ) Jonathan Tan Eu Jin ( 49.63 ) Darren Chua Yi Shou ( 48.95 )",
          [
            "/wiki/Joseph_Schooling",
            "/wiki/Quah_Zheng_Wen"
          ]
        ],
        [
          "3:16.66",
          []
        ],
        [
          "NR",
          [
            "/wiki/List_of_Singaporean_records_in_swimming"
          ]
        ]
      ],
      [
        [
          "19",
          []
        ],
        [
          "1",
          []
        ],
        [
          "1",
          []
        ],
        [
          "Switzerland",
          [
            "/wiki/Switzerland_at_the_2019_World_Aquatics_Championships"
          ]
        ],
        [
          "Roman Mityukov ( 49.42 ) Nils Liess ( 48.81 ) Antonio Djakovic ( 49.03 ) Aleksi Schmid ( 49.59 )",
          [
            "/wiki/Roman_Mityukov",
            "/wiki/Nils_Liess",
            "/wiki/Antonio_Djakovic"
          ]
        ],
        [
          "3:16.85",
          []
        ],
        [
          "",
          []
        ]
      ],
      [
        [
          "20",
          []
        ],
        [
          "3",
          []
        ],
        [
          "0",
          []
        ],
        [
          "Ireland",
          [
            "/wiki/Ireland_at_the_2019_World_Aquatics_Championships"
          ]
        ],
        [
          "Shane Ryan ( 49.40 ) Robert Powell ( 49.63 ) Jordan Sloan ( 48.72 ) Jack McMillan ( 49.63 )",
          [
            "/wiki/Shane_Ryan_(swimmer)",
            "/wiki/Jordan_Sloan"
          ]
        ],
        [
          "3:17.38",
          []
        ],
        [
          "NR",
          [
            "/wiki/List_of_Irish_records_in_swimming"
          ]
        ]
      ]
    ],
    "section_title": "Results -- Heats",
    "section_text": "The heats were held at 12:32 . [ 3 ]",
    "uid": "Swimming_at_the_2019_World_Aquatics_Championships_\u2013_Men's_4_\u00d7_100_metre_freestyle_relay_0",
    "intro": "The Men's 4 \u00d7 100 metre freestyle relay competition at the 2019 World Championships was held on 21 July 2019."
  },
  "Swimming_at_the_2017_World_Aquatics_Championships_\u2013_Men's_4_\u00d7_200_metre_freestyle_relay_1": {
    "url": "https://en.wikipedia.org/wiki/Swimming_at_the_2017_World_Aquatics_Championships_\u2013_Men's_4_\u00d7_200_metre_freestyle_relay",
    "title": "Swimming at the 2017 World Aquatics Championships \u2013 Men's 4 \u00d7 200 metre freestyle relay",
    "header": [
      [
        "Rank",
        []
      ],
      [
        "Lane",
        []
      ],
      [
        "Nation",
        []
      ],
      [
        "Swimmers",
        []
      ],
      [
        "Time",
        []
      ]
    ],
    "data": [
      [
        [
          "1",
          []
        ],
        [
          "5",
          []
        ],
        [
          "Great Britain",
          [
            "/wiki/Great_Britain_at_the_2017_World_Aquatics_Championships"
          ]
        ],
        [
          "Stephen Milne ( 1:47.25 ) Nicholas Grainger ( 1:46.05 ) Duncan Scott ( 1:44.60 ) James Guy ( 1:43.80 )",
          [
            "/wiki/Stephen_Milne",
            "/wiki/Nicholas_Grainger",
            "/wiki/Duncan_Scott_(swimmer)",
            "/wiki/James_Guy_(swimmer)"
          ]
        ],
        [
          "7:01.70",
          []
        ]
      ],
      [
        [
          "2",
          []
        ],
        [
          "3",
          []
        ],
        [
          "Russia",
          [
            "/wiki/Russia_at_the_2017_World_Aquatics_Championships"
          ]
        ],
        [
          "Mikhail Dovgalyuk ( 1:46.00 ) Mikhail Vekovishchev ( 1:45.91 ) Danila Izotov ( 1:45.97 ) Aleksandr Krasnykh ( 1:44.80 )",
          [
            "/wiki/Mikhail_Dovgalyuk",
            "/wiki/Mikhail_Vekovishchev",
            "/wiki/Danila_Izotov",
            "/wiki/Aleksandr_Krasnykh"
          ]
        ],
        [
          "7:02.68",
          []
        ]
      ],
      [
        [
          "3",
          []
        ],
        [
          "1",
          []
        ],
        [
          "United States",
          [
            "/wiki/United_States_at_the_2017_World_Aquatics_Championships"
          ]
        ],
        [
          "Blake Pieroni ( 1:46.33 ) Townley Haas ( 1:44.58 ) Jack Conger ( 1:45.37 ) Zane Grothe ( 1:46.90 )",
          [
            "/wiki/Blake_Pieroni",
            "/wiki/Townley_Haas",
            "/wiki/Jack_Conger",
            "/wiki/Zane_Grothe"
          ]
        ],
        [
          "7:03.18",
          []
        ]
      ],
      [
        [
          "4",
          []
        ],
        [
          "4",
          []
        ],
        [
          "Australia",
          [
            "/wiki/Australia_at_the_2017_World_Aquatics_Championships"
          ]
        ],
        [
          "Clyde Lewis ( 1:46.81 ) Mack Horton ( 1:46.25 ) Alexander Graham ( 1:46.59 ) Jack Cartwright ( 1:46.33 )",
          [
            "/wiki/Clyde_Lewis",
            "/wiki/Mack_Horton",
            "/wiki/Alexander_Graham_(swimmer)",
            "/wiki/Jack_Cartwright"
          ]
        ],
        [
          "7:05.98",
          []
        ]
      ],
      [
        [
          "5",
          []
        ],
        [
          "7",
          []
        ],
        [
          "Japan",
          [
            "/wiki/Japan_at_the_2017_World_Aquatics_Championships"
          ]
        ],
        [
          "Kosuke Hagino ( 1:47.32 ) Naito Ehara ( 1:46.60 ) Tsubasa Amai ( 1:47.30 ) Katsuhiro Matsumoto ( 1:46.46 )",
          [
            "/wiki/Kosuke_Hagino"
          ]
        ],
        [
          "7:07.68",
          []
        ]
      ],
      [
        [
          "6",
          []
        ],
        [
          "2",
          []
        ],
        [
          "Italy",
          [
            "/wiki/Italy_at_the_2017_World_Aquatics_Championships"
          ]
        ],
        [
          "Filippo Megli ( 1:47.34 ) Gabriele Detti ( 1:46.08 ) Filippo Magnini ( 1:49.09 ) Luca Dotto ( 1:46.93 )",
          [
            "/wiki/Filippo_Megli",
            "/wiki/Gabriele_Detti",
            "/wiki/Filippo_Magnini",
            "/wiki/Luca_Dotto"
          ]
        ],
        [
          "7:09.44",
          []
        ]
      ],
      [
        [
          "7",
          []
        ],
        [
          "8",
          []
        ],
        [
          "Poland",
          [
            "/wiki/Poland_at_the_2017_World_Aquatics_Championships"
          ]
        ],
        [
          "Kacper Majchrzak ( 1:46.46 ) Filip Zaborowski ( 1:47.58 ) Antoni Ka\u0142u\u017cy\u0144ski ( 1:48.12 ) Jan \u015awitkowski ( 1:47.46 )",
          [
            "/wiki/Kacper_Majchrzak",
            "/wiki/Filip_Zaborowski",
            "/wiki/Jan_\u015awitkowski"
          ]
        ],
        [
          "7:09.62",
          []
        ]
      ],
      [
        [
          "8",
          []
        ],
        [
          "6",
          []
        ],
        [
          "Netherlands",
          [
            "/wiki/Netherlands_at_the_2017_World_Aquatics_Championships"
          ]
        ],
        [
          "Kyle Stolk ( 1:47.73 ) Ferry Weertman ( 1:48.23 ) Stan Pijnenburg ( 1:47.60 ) Maarten Brzoskowski ( 1:49.20 )",
          [
            "/wiki/Kyle_Stolk",
            "/wiki/Ferry_Weertman",
            "/wiki/Stan_Pijnenburg",
            "/wiki/Maarten_Brzoskowski"
          ]
        ],
        [
          "7:12.76",
          []
        ]
      ]
    ],
    "section_title": "Results -- Final",
    "section_text": "The final was held on 28 July at 19:12 . [ 4 ]",
    "uid": "Swimming_at_the_2017_World_Aquatics_Championships_\u2013_Men's_4_\u00d7_200_metre_freestyle_relay_1",
    "intro": "The Men's 4 \u00d7 200 metre freestyle relay competition at the 2017 World Championships was held on 28 July 2017. ."
  },
  "Swimming_at_the_2009_World_Aquatics_Championships_\u2013_Men's_4_\u00d7_200_metre_freestyle_relay_0": {
    "url": "https://en.wikipedia.org/wiki/Swimming_at_the_2009_World_Aquatics_Championships_\u2013_Men's_4_\u00d7_200_metre_freestyle_relay",
    "title": "Swimming at the 2009 World Aquatics Championships \u2013 Men's 4 \u00d7 200 metre freestyle relay",
    "header": [
      [
        "Rank",
        []
      ],
      [
        "Heat",
        []
      ],
      [
        "Lane",
        []
      ],
      [
        "Nation",
        []
      ],
      [
        "Swimmers",
        []
      ],
      [
        "Time",
        []
      ]
    ],
    "data": [
      [
        [
          "1",
          []
        ],
        [
          "3",
          []
        ],
        [
          "4",
          []
        ],
        [
          "United States",
          [
            "/wiki/United_States"
          ]
        ],
        [
          "Ricky Berens ( 1:44.95 ) Daniel Madwed ( 1:45.63 ) Davis Tarwater ( 1:47.94 ) Peter Vanderkaay ( 1:44.78 )",
          [
            "/wiki/Ricky_Berens",
            "/wiki/Daniel_Madwed",
            "/wiki/Davis_Tarwater",
            "/wiki/Peter_Vanderkaay"
          ]
        ],
        [
          "7:03.30",
          []
        ]
      ],
      [
        [
          "2",
          []
        ],
        [
          "3",
          []
        ],
        [
          "3",
          []
        ],
        [
          "Japan",
          [
            "/wiki/Japan"
          ]
        ],
        [
          "Shogo Hihara ( 1:46.75 ) Yoshihiro Okumura ( 1:44.73 ) Shunsuke Kuzuhara ( 1:46.41 ) Takeshi Matsuda ( 1:45.41 )",
          []
        ],
        [
          "7:03.30",
          []
        ]
      ],
      [
        [
          "3",
          []
        ],
        [
          "1",
          []
        ],
        [
          "4",
          []
        ],
        [
          "Australia",
          [
            "/wiki/Australia"
          ]
        ],
        [
          "Nic Ffrost ( 1:46.93 ) Robert Hurley ( 1:45.96 ) Kirk Palmer ( 1:46.65 ) Tommaso D'Orsogna ( 1:46.02 )",
          [
            "/wiki/Nick_Ffrost",
            "/wiki/Robert_Hurley_(swimmer)",
            "/wiki/Kirk_Palmer",
            "/wiki/Tommaso_D'Orsogna"
          ]
        ],
        [
          "7:05.56",
          []
        ]
      ],
      [
        [
          "4",
          []
        ],
        [
          "3",
          []
        ],
        [
          "6",
          []
        ],
        [
          "Germany",
          [
            "/wiki/Germany"
          ]
        ],
        [
          "Paul Biedermann ( 1:44.02 ) Felix Wolf ( 1:48.25 ) Yannick Lebherz ( 1:47.54 ) Clemens Rapp ( 1:45.81 )",
          [
            "/wiki/Paul_Biedermann",
            "/wiki/Yannick_Lebherz",
            "/wiki/Clemens_Rapp"
          ]
        ],
        [
          "7:05.62",
          []
        ]
      ],
      [
        [
          "5",
          []
        ],
        [
          "1",
          []
        ],
        [
          "5",
          []
        ],
        [
          "Great Britain",
          [
            "/wiki/United_Kingdom"
          ]
        ],
        [
          "Robert Renwick ( 1:46.11 ) NR Andrew Hunter ( 1:46.85 ) David Davies ( 1:46.77 ) David Carry ( 1:46.38 )",
          [
            "/wiki/Robert_Renwick",
            "/wiki/List_of_British_records_in_swimming",
            "/wiki/Andrew_Hunter_(British_swimmer)",
            "/wiki/David_Davies_(swimmer)",
            "/wiki/David_Carry"
          ]
        ],
        [
          "7:06.11",
          []
        ]
      ],
      [
        [
          "6",
          []
        ],
        [
          "2",
          []
        ],
        [
          "4",
          []
        ],
        [
          "Russia",
          [
            "/wiki/Russia"
          ]
        ],
        [
          "Yevgeny Lagunov ( 1:48.30 ) Mikhail Polischuk ( 1:44.93 ) Sergei Perunin ( 1:46.53 ) Alexander Sukhorukov ( 1:46.68 )",
          [
            "/wiki/Yevgeny_Lagunov",
            "/wiki/Mikhail_Polischuk",
            "/wiki/Sergey_Perunin",
            "/wiki/Alexandr_Sukhorukov"
          ]
        ],
        [
          "7:06.44",
          []
        ]
      ],
      [
        [
          "7",
          []
        ],
        [
          "2",
          []
        ],
        [
          "3",
          []
        ],
        [
          "South Africa",
          [
            "/wiki/South_Africa"
          ]
        ],
        [
          "Jean Basson ( 1:45.99 ) Darian Townsend ( 1:46.22 ) Jan Albert Venter ( 1:47.78 ) Sebastien Rousseau ( 1:48.02 )",
          [
            "/wiki/Jean_Basson",
            "/wiki/Darian_Townsend",
            "/wiki/Jan_Venter",
            "/wiki/Sebastien_Rousseau"
          ]
        ],
        [
          "7:08.01",
          []
        ]
      ],
      [
        [
          "8",
          []
        ],
        [
          "3",
          []
        ],
        [
          "5",
          []
        ],
        [
          "Italy",
          [
            "/wiki/Italy"
          ]
        ],
        [
          "Cesare Sciocchetti ( 1:47.81 ) Massimiliano Rosolino ( 1:48.26 ) Gianluca Maglia ( 1:45.60 ) Damiano Lestingi ( 1:46.40 )",
          [
            "/wiki/Massimiliano_Rosolino",
            "/wiki/Gianluca_Maglia",
            "/wiki/Damiano_Lestingi"
          ]
        ],
        [
          "7:08.07",
          []
        ]
      ],
      [
        [
          "9",
          []
        ],
        [
          "2",
          []
        ],
        [
          "6",
          []
        ],
        [
          "Hungary",
          [
            "/wiki/Hungary"
          ]
        ],
        [
          "L\u00e1szl\u00f3 Cseh ( 1:45.78 ) NR P\u00e9ter Bernek ( 1:47.88 ) Zolt\u00e1n Pov\u00e1zsay ( 1:47.99 ) Gerg\u0151 Kis ( 1:46.59 )",
          [
            "/wiki/L\u00e1szl\u00f3_Cseh",
            "/wiki/List_of_Hungarian_records_in_swimming",
            "/wiki/P\u00e9ter_Bernek",
            "/wiki/Gerg\u0151_Kis"
          ]
        ],
        [
          "7:08.24",
          []
        ]
      ],
      [
        [
          "10",
          []
        ],
        [
          "3",
          []
        ],
        [
          "2",
          []
        ],
        [
          "Brazil",
          [
            "/wiki/Brazil"
          ]
        ],
        [
          "Thiago Pereira ( 1:46.57 ) SA Rodrigo Castro ( 1:48.23 ) Lucas Salatta ( 1:48.48 ) Nicolas Oliveira ( 1:46.43 )",
          [
            "/wiki/Thiago_Pereira",
            "/wiki/List_of_South_American_records_in_swimming",
            "/wiki/Rodrigo_Castro",
            "/wiki/Lucas_Salatta",
            "/wiki/Nicolas_Oliveira"
          ]
        ],
        [
          "7:09.71",
          []
        ]
      ],
      [
        [
          "11",
          []
        ],
        [
          "2",
          []
        ],
        [
          "5",
          []
        ],
        [
          "Canada",
          [
            "/wiki/Canada"
          ]
        ],
        [
          "Colin Russell ( 1:47.81 ) Stefan Hirniak ( 1:45.62 ) Blake Worsley ( 1:48.71 ) Joel Greenshields ( 1:47.77 )",
          [
            "/wiki/Colin_Russell_(swimmer)",
            "/wiki/Stefan_Hirniak",
            "/wiki/Blake_Worsley",
            "/wiki/Joel_Greenshields"
          ]
        ],
        [
          "7:09.91",
          []
        ]
      ],
      [
        [
          "12",
          []
        ],
        [
          "1",
          []
        ],
        [
          "6",
          []
        ],
        [
          "Poland",
          [
            "/wiki/Poland"
          ]
        ],
        [
          "Pawe\u0142 Korzeniowski ( 1:46.59 ) Konrad Czerniak ( 1:47.49 ) Lukasz Wojt ( 1:48.25 ) Pawel Rupak ( 1:49.77 )",
          [
            "/wiki/Pawe\u0142_Korzeniowski",
            "/wiki/Konrad_Czerniak",
            "/wiki/\u0141ukasz_W\u00f3jt"
          ]
        ],
        [
          "7:12.10",
          []
        ]
      ],
      [
        [
          "13",
          []
        ],
        [
          "2",
          []
        ],
        [
          "2",
          []
        ],
        [
          "Portugal",
          [
            "/wiki/Portugal"
          ]
        ],
        [
          "Cesar Faria ( 1:49.30 ) Jorge Maia ( 1:49.67 ) Diogo Carvalho ( 1:48.83 ) Fabio Pereira ( 1:48.68 )",
          [
            "/wiki/Diogo_Carvalho"
          ]
        ],
        [
          "7:16.48",
          []
        ]
      ],
      [
        [
          "14",
          []
        ],
        [
          "2",
          []
        ],
        [
          "0",
          []
        ],
        [
          "Belgium",
          [
            "/wiki/Belgium"
          ]
        ],
        [
          "Glenn Surgeloose ( 1:49.66 ) Pholien Systermans ( 1:48.94 ) Stef Verachten ( 1:49.48 ) Yoris Grandjean ( 1:49.35 )",
          [
            "/wiki/Glenn_Surgeloose",
            "/wiki/Pholien_Systermans",
            "/wiki/Yoris_Grandjean"
          ]
        ],
        [
          "7:17.43",
          []
        ]
      ],
      [
        [
          "15",
          []
        ],
        [
          "1",
          []
        ],
        [
          "3",
          []
        ],
        [
          "China",
          [
            "/wiki/China"
          ]
        ],
        [
          "Sun Yang ( 1:51.30 ) Xin Tong ( 1:50.27 ) Shi Tengfei ( 1:49.54 ) Chen Zuo ( 1:49.39 )",
          [
            "/wiki/Sun_Yang",
            "/wiki/Xin_Tong",
            "/wiki/Shi_Tengfei",
            "/wiki/Chen_Zuo"
          ]
        ],
        [
          "7:20.50",
          []
        ]
      ],
      [
        [
          "16",
          []
        ],
        [
          "1",
          []
        ],
        [
          "2",
          []
        ],
        [
          "Venezuela",
          [
            "/wiki/Venezuela"
          ]
        ],
        [
          "Daniele Tirabassi ( 1:49.77 ) Roberto Gomez ( 1:51.31 ) Alejandro G\u00f3mez ( 1:51.03 ) Crox Acuna ( 1:48.45 )",
          [
            "/wiki/Daniele_Tirabassi",
            "/wiki/Roberto_Gom\u00e9z_(swimmer)",
            "/wiki/Alejandro_G\u00f3mez_(swimmer)",
            "/wiki/Crox_Acu\u00f1a"
          ]
        ],
        [
          "7:20.56",
          []
        ]
      ],
      [
        [
          "17",
          []
        ],
        [
          "1",
          []
        ],
        [
          "9",
          []
        ],
        [
          "Switzerland",
          [
            "/wiki/Switzerland"
          ]
        ],
        [
          "David Karasek ( 1:49.46 ) Dominik Meichtry ( 1:48.67 ) Duncan Furrer ( 1:53.00 ) Simon Rabold ( 1:51.50 )",
          [
            "/wiki/David_Karasek",
            "/wiki/Dominik_Meichtry"
          ]
        ],
        [
          "7:22.63",
          []
        ]
      ],
      [
        [
          "18",
          []
        ],
        [
          "3",
          []
        ],
        [
          "7",
          []
        ],
        [
          "Kazakhstan",
          [
            "/wiki/Kazakhstan"
          ]
        ],
        [
          "Artur Dilman ( 1:54.76 ) Oleg Rabota ( 1:51.64 ) Stanislav Kuzmin ( 1:53.70 ) Dmitriy Gordiyenko ( 1:52.98 )",
          [
            "/wiki/Artur_Dilman",
            "/wiki/Oleg_Rabota",
            "/wiki/Stanislav_Kuzmin",
            "/wiki/Dmitriy_Gordiyenko"
          ]
        ],
        [
          "7:33.08",
          []
        ]
      ],
      [
        [
          "19",
          []
        ],
        [
          "1",
          []
        ],
        [
          "7",
          []
        ],
        [
          "Uzbekistan",
          [
            "/wiki/Uzbekistan"
          ]
        ],
        [
          "Petr Romashkin ( 1:53.01 ) Danil Bugakov ( 1:53.47 ) Sobitjon Amilov ( 1:54.29 ) Daniil Tulupov ( 1:53.94 )",
          [
            "/wiki/Petr_Romashkin",
            "/wiki/Danil_Bugakov"
          ]
        ],
        [
          "7:34.71",
          []
        ]
      ],
      [
        [
          "20",
          []
        ],
        [
          "2",
          []
        ],
        [
          "1",
          []
        ],
        [
          "Chinese Taipei",
          [
            "/wiki/Chinese_Taipei"
          ]
        ],
        [
          "Hsu Chi-Chieh ( 1:52.70 ) Chien Jui-Ting ( 1:53.37 ) Pan Kai-Wen ( 1:55.63 ) Lin Kuan-Ting ( 1:55.13 )",
          [
            "/wiki/Hsu_Chi-chieh"
          ]
        ],
        [
          "7:36.83",
          []
        ]
      ]
    ],
    "section_title": "Results -- Heats",
    "section_text": "[ 1 ]",
    "uid": "Swimming_at_the_2009_World_Aquatics_Championships_\u2013_Men's_4_\u00d7_200_metre_freestyle_relay_0",
    "intro": "The men's 4\u00d7200 metre freestyle relay at the 2009 World Championships took place on July 31, 2009 at the Foro Italico in Rome, Italy. 30 countries entered the event, of which 27 swam."
  },
  "Bharatiya_Janata_Party_campaign_for_the_2014_Indian_general_election_0": {
    "url": "https://en.wikipedia.org/wiki/Bharatiya_Janata_Party_campaign_for_the_2014_Indian_general_election",
    "title": "Bharatiya Janata Party campaign for the 2014 Indian general election",
    "header": [
      [
        "Party",
        []
      ],
      [
        "Base State",
        []
      ],
      [
        "Seats Contesting",
        []
      ]
    ],
    "data": [
      [
        [
          "Bharatiya Janata Party",
          [
            "/wiki/Bharatiya_Janata_Party"
          ]
        ],
        [
          "National Party",
          [
            "/wiki/List_of_political_parties_in_India"
          ]
        ],
        [
          "428",
          []
        ]
      ],
      [
        [
          "Shiv Sena",
          [
            "/wiki/Shiv_Sena"
          ]
        ],
        [
          "Maharashtra",
          [
            "/wiki/Maharashtra"
          ]
        ],
        [
          "20",
          []
        ]
      ],
      [
        [
          "Swabhimani Paksha",
          [
            "/wiki/Swabhimani_Paksha"
          ]
        ],
        [
          "Maharashtra",
          [
            "/wiki/Maharashtra"
          ]
        ],
        [
          "2",
          []
        ]
      ],
      [
        [
          "Republican Party of India ( Athvale )",
          [
            "/wiki/Republican_Party_of_India_(Athawale)"
          ]
        ],
        [
          "Maharashtra",
          [
            "/wiki/Maharashtra"
          ]
        ],
        [
          "1",
          []
        ]
      ],
      [
        [
          "Rashtriya Samaj Paksha",
          [
            "/wiki/Rashtriya_Samaj_Paksha"
          ]
        ],
        [
          "Maharashtra",
          [
            "/wiki/Maharashtra"
          ]
        ],
        [
          "1",
          []
        ]
      ],
      [
        [
          "Desiya Murpokku Dravida Kazhagam",
          [
            "/wiki/Desiya_Murpokku_Dravida_Kazhagam"
          ]
        ],
        [
          "Tamil Nadu",
          [
            "/wiki/Tamil_Nadu"
          ]
        ],
        [
          "14",
          []
        ]
      ],
      [
        [
          "Pattali Makkal Katchi",
          [
            "/wiki/Pattali_Makkal_Katchi"
          ]
        ],
        [
          "Tamil Nadu",
          [
            "/wiki/Tamil_Nadu"
          ]
        ],
        [
          "8",
          []
        ]
      ],
      [
        [
          "Marumalarchi Dravida Munnetra Kazhagam",
          [
            "/wiki/Marumalarchi_Dravida_Munnetra_Kazhagam"
          ]
        ],
        [
          "Tamil Nadu",
          [
            "/wiki/Tamil_Nadu"
          ]
        ],
        [
          "7",
          []
        ]
      ],
      [
        [
          "Kongunadu Makkal Desia Katchi",
          [
            "/wiki/Kongunadu_Makkal_Desia_Katchi"
          ]
        ],
        [
          "Tamil Nadu",
          [
            "/wiki/Tamil_Nadu"
          ]
        ],
        [
          "1",
          []
        ]
      ],
      [
        [
          "Indhiya Jananayaga Katchi",
          [
            "/wiki/Indhiya_Jananayaga_Katchi"
          ]
        ],
        [
          "Tamil Nadu",
          [
            "/wiki/Tamil_Nadu"
          ]
        ],
        [
          "1",
          []
        ]
      ],
      [
        [
          "All India N.R . Congress",
          [
            "/wiki/All_India_N.R._Congress"
          ]
        ],
        [
          "Puducherry",
          [
            "/wiki/Puducherry"
          ]
        ],
        [
          "1",
          []
        ]
      ],
      [
        [
          "Telugu Desam Party",
          [
            "/wiki/Telugu_Desam_Party"
          ]
        ],
        [
          "Andhra Pradesh",
          [
            "/wiki/Andhra_Pradesh"
          ]
        ],
        [
          "30",
          []
        ]
      ],
      [
        [
          "Jana Sena Party",
          [
            "/wiki/Jana_Sena_Party"
          ]
        ],
        [
          "Andhra Pradesh",
          [
            "/wiki/Andhra_Pradesh"
          ]
        ],
        [
          "0",
          []
        ]
      ],
      [
        [
          "Lok Janshakti Party",
          [
            "/wiki/Lok_Janshakti_Party"
          ]
        ],
        [
          "Bihar",
          [
            "/wiki/Bihar"
          ]
        ],
        [
          "7",
          []
        ]
      ],
      [
        [
          "Rashtriya Lok Samata Party",
          [
            "/wiki/Rashtriya_Lok_Samta_Party"
          ]
        ],
        [
          "Bihar",
          [
            "/wiki/Bihar"
          ]
        ],
        [
          "3",
          []
        ]
      ],
      [
        [
          "Kerala Congress ( Nationalist )",
          [
            "/wiki/Kerala_Congress_(Nationalist)"
          ]
        ],
        [
          "Kerala",
          [
            "/wiki/Kerala"
          ]
        ],
        [
          "1",
          []
        ]
      ],
      [
        [
          "Revolutionary Socialist Party ( Bolshevik )",
          [
            "/wiki/Revolutionary_Socialist_Party_of_Kerala_(Bolshevik)"
          ]
        ],
        [
          "Kerala",
          [
            "/wiki/Kerala"
          ]
        ],
        [
          "1",
          []
        ]
      ],
      [
        [
          "Shiromani Akali Dal",
          [
            "/wiki/Shiromani_Akali_Dal"
          ]
        ],
        [
          "Punjab",
          [
            "/wiki/Punjab,_India"
          ]
        ],
        [
          "10",
          []
        ]
      ],
      [
        [
          "Haryana Janhit Congress",
          [
            "/wiki/Haryana_Janhit_Congress_(BL)"
          ]
        ],
        [
          "Haryana",
          [
            "/wiki/Haryana"
          ]
        ],
        [
          "2",
          []
        ]
      ],
      [
        [
          "Apna Dal",
          [
            "/wiki/Apna_Dal"
          ]
        ],
        [
          "Uttar Pradesh",
          [
            "/wiki/Uttar_Pradesh"
          ]
        ],
        [
          "2",
          []
        ]
      ]
    ],
    "section_title": "Expansion of Alliance",
    "section_text": "Following the declaration of Modi as the head of the BJP 's election campaign , Janata Dal ( United ) which had been a key ally of NDA for 17 years had walked out of the coalition as it feared Modi 's elevation would wean away its Muslim voters . [ 12 ] The parties in and supporting the NDA are listed below with the number of parliamentary constituencies being contested by them :",
    "uid": "Bharatiya_Janata_Party_campaign_for_the_2014_Indian_general_election_0",
    "intro": "The Bharatiya Janata Party (BJP) is one of the major political parties in India and is the main opposition party during the 15th Lok Sabha. It contested the 2014 parliamentary election along with their supportive parties ,to form National Democratic Alliance with Narendra Modi as its Prime Ministerial candidate and party president Rajnath Singh as the chief-of-election of campaign. The important issues during the campaign included price hike, corruption, economy, national security, basic infrastructure such as roads ,railways and to supply basic needs such as electricity and water. The party promised a vibrant and participatory democracy, inclusive and sustainable development, quality life, productive youth, globally competitive economy, open and transparent government, pro-active and pro-people good governance in its manifesto."
  },
  "Swimming_at_the_2009_World_Aquatics_Championships_\u2013_Men's_4_\u00d7_100_metre_freestyle_relay_1": {
    "url": "https://en.wikipedia.org/wiki/Swimming_at_the_2009_World_Aquatics_Championships_\u2013_Men's_4_\u00d7_100_metre_freestyle_relay",
    "title": "Swimming at the 2009 World Aquatics Championships \u2013 Men's 4 \u00d7 100 metre freestyle relay",
    "header": [
      [
        "Rank",
        []
      ],
      [
        "Lane",
        []
      ],
      [
        "Nation",
        []
      ],
      [
        "Swimmers",
        []
      ],
      [
        "Time",
        []
      ],
      [
        "Note",
        []
      ]
    ],
    "data": [
      [
        [
          "1",
          []
        ],
        [
          "6",
          []
        ],
        [
          "United States",
          [
            "/wiki/United_States"
          ]
        ],
        [
          "Michael Phelps ( 47.78 ) Ryan Lochte ( 47.03 ) Matt Grevers ( 47.61 ) Nathan Adrian ( 46.79 )",
          [
            "/wiki/Michael_Phelps",
            "/wiki/Ryan_Lochte",
            "/wiki/Matt_Grevers",
            "/wiki/Nathan_Adrian"
          ]
        ],
        [
          "3:09.21",
          []
        ],
        [
          "CR",
          [
            "/wiki/List_of_World_Championships_records_in_swimming"
          ]
        ]
      ],
      [
        [
          "2",
          []
        ],
        [
          "8",
          []
        ],
        [
          "Russia",
          [
            "/wiki/Russia"
          ]
        ],
        [
          "Yevgeny Lagunov ( 47.90 ) Andrey Grechin ( 47.00 ) Danila Izotov ( 47.23 ) Alexander Sukhorukov ( 47.39 )",
          [
            "/wiki/Yevgeny_Lagunov",
            "/wiki/Andrey_Grechin",
            "/wiki/Danila_Izotov",
            "/wiki/Alexandr_Sukhorukov"
          ]
        ],
        [
          "3:09.52",
          []
        ],
        [
          "NR",
          [
            "/wiki/List_of_Russian_records_in_swimming"
          ]
        ]
      ],
      [
        [
          "3",
          []
        ],
        [
          "5",
          []
        ],
        [
          "France",
          [
            "/wiki/France"
          ]
        ],
        [
          "Fabien Gilot ( 47.73 ) Alain Bernard ( 46.46 ) Gr\u00e9gory Mallet ( 48.28 ) Fr\u00e9d\u00e9rick Bousquet ( 47.42 )",
          [
            "/wiki/Fabien_Gilot",
            "/wiki/Alain_Bernard",
            "/wiki/Gr\u00e9gory_Mallet",
            "/wiki/Fr\u00e9d\u00e9rick_Bousquet"
          ]
        ],
        [
          "3:09.89",
          []
        ],
        [
          "",
          []
        ]
      ],
      [
        [
          "4",
          []
        ],
        [
          "4",
          []
        ],
        [
          "Brazil",
          [
            "/wiki/Brazil"
          ]
        ],
        [
          "C\u00e9sar Cielo Filho ( 47.09 ) CR , AM Nicolas Oliveira ( 47.39 ) Guilherme Roth ( 48.15 ) Fernando Silva ( 48.17 )",
          [
            "/wiki/C\u00e9sar_Cielo",
            "/wiki/List_of_World_Championships_records_in_swimming",
            "/wiki/List_of_Americas_records_in_swimming",
            "/wiki/Nicolas_Oliveira",
            "/wiki/Guilherme_Roth",
            "/wiki/Fernando_Silva_(swimmer)"
          ]
        ],
        [
          "3:10.80",
          []
        ],
        [
          "SA",
          [
            "/wiki/List_of_South_American_records_in_swimming"
          ]
        ]
      ],
      [
        [
          "5",
          []
        ],
        [
          "2",
          []
        ],
        [
          "Italy",
          [
            "/wiki/Italy"
          ]
        ],
        [
          "Alessandro Calvi ( 49.03 ) Christian Galenda ( 47.60 ) Marco Orsi ( 47.91 ) Filippo Magnini ( 47.39 )",
          [
            "/wiki/Alessandro_Calvi",
            "/wiki/Christian_Galenda",
            "/wiki/Marco_Orsi",
            "/wiki/Filippo_Magnini"
          ]
        ],
        [
          "3:11.93",
          []
        ],
        [
          "",
          []
        ]
      ],
      [
        [
          "5",
          []
        ],
        [
          "7",
          []
        ],
        [
          "South Africa",
          [
            "/wiki/South_Africa"
          ]
        ],
        [
          "Lyndon Ferns ( 48.32 ) Graeme Moore ( 48.05 ) Darian Townsend ( 48.05 ) Roland Mark Schoeman ( 47.51 )",
          [
            "/wiki/Lyndon_Ferns",
            "/wiki/Graeme_Moore",
            "/wiki/Darian_Townsend",
            "/wiki/Roland_Schoeman"
          ]
        ],
        [
          "3:11.93",
          []
        ],
        [
          "AF",
          [
            "/wiki/List_of_African_records_in_swimming"
          ]
        ]
      ],
      [
        [
          "7",
          []
        ],
        [
          "3",
          []
        ],
        [
          "Great Britain",
          [
            "/wiki/United_Kingdom"
          ]
        ],
        [
          "Adam Brown ( 48.66 ) Simon Burnett ( 47.50 ) Liam Tancock ( 47.81 ) Ross Davenport ( 48.12 )",
          [
            "/wiki/Adam_Brown_(swimmer)",
            "/wiki/Simon_Burnett",
            "/wiki/Liam_Tancock",
            "/wiki/Ross_Davenport"
          ]
        ],
        [
          "3:12.09",
          []
        ],
        [
          "",
          []
        ]
      ],
      [
        [
          "8",
          []
        ],
        [
          "1",
          []
        ],
        [
          "Australia",
          [
            "/wiki/Australia"
          ]
        ],
        [
          "Matthew Abood ( 48.79 ) Matt Targett ( 47.49 ) Andrew Lauterstein ( 48.41 ) Tommaso D'Orsogna ( 47.71 )",
          [
            "/wiki/Matthew_Abood",
            "/wiki/Matt_Targett_(swimmer)",
            "/wiki/Andrew_Lauterstein",
            "/wiki/Tommaso_D'Orsogna"
          ]
        ],
        [
          "3:12.40",
          []
        ],
        [
          "",
          []
        ]
      ]
    ],
    "section_title": "Results -- Final",
    "section_text": "",
    "uid": "Swimming_at_the_2009_World_Aquatics_Championships_\u2013_Men's_4_\u00d7_100_metre_freestyle_relay_1",
    "intro": "The men's 4\u00d7100 m freestyle relay at the 2009 World Aquatics Championships took place on 26 July 2009 at the Foro Italico in Rome, Italy."
  }
}