{
  "List_of_Vice_Presidents_of_the_United_States_by_other_offices_held_0": {
    "url": "https://en.wikipedia.org/wiki/List_of_vice_presidents_of_the_United_States_by_other_offices_held",
    "title": "List of vice presidents of the United States by other offices held",
    "header": [
      [
        "President",
        []
      ],
      [
        "Year ( s ) served",
        []
      ],
      [
        "Notes",
        []
      ]
    ],
    "data": [
      [
        [
          "John Adams",
          [
            "/wiki/John_Adams"
          ]
        ],
        [
          "1797-1801",
          []
        ],
        [
          "First sitting vice president elected president",
          []
        ]
      ],
      [
        [
          "Thomas Jefferson",
          [
            "/wiki/Thomas_Jefferson"
          ]
        ],
        [
          "1801-1809",
          []
        ],
        [
          "Second sitting vice president elected president",
          []
        ]
      ],
      [
        [
          "Martin Van Buren",
          [
            "/wiki/Martin_Van_Buren"
          ]
        ],
        [
          "1837-1841",
          []
        ],
        [
          "Third sitting vice president elected president",
          []
        ]
      ],
      [
        [
          "John Tyler",
          [
            "/wiki/John_Tyler"
          ]
        ],
        [
          "1841-1845",
          []
        ],
        [
          "Became president after Harrison 's death",
          [
            "/wiki/William_Henry_Harrison"
          ]
        ]
      ],
      [
        [
          "Millard Fillmore",
          [
            "/wiki/Millard_Fillmore"
          ]
        ],
        [
          "1850-1853",
          []
        ],
        [
          "Became president after Taylor 's death",
          [
            "/wiki/Zachary_Taylor"
          ]
        ]
      ],
      [
        [
          "Andrew Johnson",
          [
            "/wiki/Andrew_Johnson"
          ]
        ],
        [
          "1865-1869",
          []
        ],
        [
          "Became president after Lincoln 's assassination",
          [
            "/wiki/Abraham_Lincoln"
          ]
        ]
      ],
      [
        [
          "Chester A. Arthur",
          [
            "/wiki/Chester_A._Arthur"
          ]
        ],
        [
          "1881-1885",
          []
        ],
        [
          "Became president after Garfield 's assassination",
          [
            "/wiki/James_A._Garfield"
          ]
        ]
      ],
      [
        [
          "Theodore Roosevelt",
          [
            "/wiki/Theodore_Roosevelt"
          ]
        ],
        [
          "1901-1909",
          []
        ],
        [
          "Became president after McKinley 's assassination",
          [
            "/wiki/William_McKinley"
          ]
        ]
      ],
      [
        [
          "Calvin Coolidge",
          [
            "/wiki/Calvin_Coolidge"
          ]
        ],
        [
          "1923-1929",
          []
        ],
        [
          "Became president after Harding 's death",
          [
            "/wiki/Warren_G._Harding"
          ]
        ]
      ],
      [
        [
          "Harry S. Truman",
          [
            "/wiki/Harry_S._Truman"
          ]
        ],
        [
          "1945-1953",
          []
        ],
        [
          "Became president after Roosevelt 's death",
          [
            "/wiki/Franklin_D._Roosevelt"
          ]
        ]
      ],
      [
        [
          "Lyndon B. Johnson",
          [
            "/wiki/Lyndon_B._Johnson"
          ]
        ],
        [
          "1963-1969",
          []
        ],
        [
          "Became president after Kennedy 's assassination",
          [
            "/wiki/John_F._Kennedy"
          ]
        ]
      ],
      [
        [
          "Richard Nixon",
          [
            "/wiki/Richard_Nixon"
          ]
        ],
        [
          "1969-1974",
          []
        ],
        [
          "Only former vice president to become president in a non-immediate fashion",
          []
        ]
      ],
      [
        [
          "Gerald Ford",
          [
            "/wiki/Gerald_Ford"
          ]
        ],
        [
          "1974-1977",
          []
        ],
        [
          "Became president after Nixon 's resignation",
          []
        ]
      ],
      [
        [
          "George H. W. Bush",
          [
            "/wiki/George_H._W._Bush"
          ]
        ],
        [
          "1989-1993",
          []
        ],
        [
          "Fourth sitting vice president elected president",
          []
        ]
      ]
    ],
    "section_title": "Federal Government -- Executive Branch",
    "section_text": "",
    "uid": "List_of_Vice_Presidents_of_the_United_States_by_other_offices_held_0",
    "intro": "This is a list of vice presidents of the United States by other offices (either elected or appointive) held, either before or after service as the vice president."
  },
  "List_of_New_York_State_Historic_Markers_in_Steuben_County,_New_York_0": {
    "url": "https://en.wikipedia.org/wiki/List_of_New_York_State_Historic_Markers_in_Steuben_County,_New_York",
    "title": "List of New York State Historic Markers in Steuben County, New York",
    "header": [
      [
        "",
        []
      ],
      [
        "Marker name",
        []
      ],
      [
        "Location",
        []
      ],
      [
        "City or Town",
        []
      ],
      [
        "Marker text",
        []
      ]
    ],
    "data": [
      [
        [
          "1",
          []
        ],
        [
          "Pulteney Square",
          []
        ],
        [
          "On Morris St. , Bath",
          []
        ],
        [
          "Bath , New York",
          [
            "/wiki/Bath_(village),_New_York"
          ]
        ],
        [
          "here in 1793 was made the first clearing in Steuben County by Col. Charles Williamson",
          []
        ]
      ],
      [
        [
          "2",
          []
        ],
        [
          "Site of Bath Soldiers ' and Sailors ' Home",
          []
        ],
        [
          "On US 15 north of Bath",
          []
        ],
        [
          "Bath , New York",
          [
            "/wiki/Bath_(village),_New_York"
          ]
        ],
        [
          "U.S. Veterans Administration Facility , site of Bath Soldiers ' and Sailors ' Home , built in 1877",
          []
        ]
      ],
      [
        [
          "3",
          []
        ],
        [
          "Averell Hill",
          []
        ],
        [
          "Civon Co. Rd . at W. Ameronil",
          []
        ],
        [
          "Cameron , New York",
          [
            "/wiki/Cameron,_New_York"
          ]
        ],
        [
          "Birthplace of William Woods Averell , Major General , U.S.A . Noted cavalry leader of the War",
          []
        ]
      ],
      [
        [
          "4",
          []
        ],
        [
          "French Occupation",
          []
        ],
        [
          "On NYS 36 near Junction with NYS 248",
          []
        ],
        [
          "Canisteo , New York",
          [
            "/wiki/Canisteo,_New_York"
          ]
        ],
        [
          "Here in 1690 Sieur de Villiers and Abbe Fenelon discovered a settlement , erected a cross , and",
          []
        ]
      ],
      [
        [
          "5",
          []
        ],
        [
          "Kanestio Castle",
          []
        ],
        [
          "On NYS 36 near Junction with NYS 248",
          []
        ],
        [
          "Canisteo , New York",
          [
            "/wiki/Canisteo,_New_York"
          ]
        ],
        [
          "Indian village burned 1764 by Capt . Andrew Montour and a provincial force",
          [
            "/wiki/Pontiac's_Rebellion",
            "/wiki/Andrew_Montour"
          ]
        ]
      ],
      [
        [
          "6",
          []
        ],
        [
          "Kanestio Castle",
          []
        ],
        [
          "On NYS 36 near Junction with NYS 248",
          []
        ],
        [
          "Canisteo , New York",
          [
            "/wiki/Canisteo,_New_York"
          ]
        ],
        [
          "Indian village burned 1764 by Capt . Andrew Montour and a provincial force",
          [
            "/wiki/Pontiac's_Rebellion",
            "/wiki/Andrew_Montour"
          ]
        ]
      ],
      [
        [
          "7",
          []
        ],
        [
          "Wyoming Massacre",
          [
            "/wiki/Wyoming_Massacre"
          ]
        ],
        [
          "On Co. Rd . about 1/2 mile north of Hornell",
          []
        ],
        [
          "Hornellsville , New York",
          [
            "/wiki/Hornellsville,_New_York"
          ]
        ],
        [
          "Here Indians & Tories used pine trees to build canoes for transport to Wyoming - Wyoming Massacre , July 3 , 1778",
          []
        ]
      ],
      [
        [
          "8",
          []
        ],
        [
          "Oldest House",
          []
        ],
        [
          "On NYS 21 at Canisteo-Hornellsville Town Line",
          []
        ],
        [
          "Hornellsville , New York",
          [
            "/wiki/Hornellsville,_New_York"
          ]
        ],
        [
          "Oldest House in Steuben County erected 1797 by Col. James McBurney a probable station of",
          []
        ]
      ],
      [
        [
          "9",
          []
        ],
        [
          "Old Inn Site",
          []
        ],
        [
          "On NYS 70 at Howard",
          []
        ],
        [
          "Howard , New York",
          [
            "/wiki/Howard,_New_York"
          ]
        ],
        [
          "Dr. Marcus Whitman , Rev . and Mrs. H.H . Spalding met here Feb. 14 , 1836 and decided to go",
          []
        ]
      ],
      [
        [
          "10",
          []
        ],
        [
          "Marcus Whitman",
          [
            "/wiki/Marcus_Whitman"
          ]
        ],
        [
          "On NYS 53 at Wheeler",
          []
        ],
        [
          "Wheeler , New York",
          [
            "/wiki/Wheeler,_New_York"
          ]
        ],
        [
          "150 feet ( Arrow ) formerly the office of Marcus Whitman , Missionary & physician . lived at Wheeler 1828-35",
          []
        ]
      ],
      [
        [
          "11",
          []
        ],
        [
          "Henry Harmon Spalding",
          [
            "/wiki/Henry_Harmon_Spalding"
          ]
        ],
        [
          "On NYS 53 2 miles south of Wheeler",
          []
        ],
        [
          "Wheeler , New York",
          [
            "/wiki/Wheeler,_New_York"
          ]
        ],
        [
          "Missionary to Indians of North-West Territory and pioneer to State of Idaho born here , Nov. 26 , 1803",
          []
        ]
      ]
    ],
    "section_title": "Listings county-wide",
    "section_text": "",
    "uid": "List_of_New_York_State_Historic_Markers_in_Steuben_County,_New_York_0",
    "intro": "This is a complete list of New York State Historic Markers in Steuben County, New York."
  },
  "List_of_political_parties_in_the_United_Kingdom_by_representation_1": {
    "url": "https://en.wikipedia.org/wiki/List_of_political_parties_in_the_United_Kingdom_by_representation",
    "title": "List of political parties in the United Kingdom by representation",
    "header": [
      [
        "Party",
        []
      ],
      [
        "Founded",
        []
      ],
      [
        "First represented",
        []
      ],
      [
        "Last represented",
        []
      ],
      [
        "Dissolved",
        []
      ]
    ],
    "data": [
      [
        [
          "Communist Party of Great Britain",
          [
            "/wiki/Communist_Party_of_Great_Britain"
          ]
        ],
        [
          "1920",
          []
        ],
        [
          "1962",
          []
        ],
        [
          "1991",
          []
        ],
        [
          "1991",
          []
        ]
      ],
      [
        [
          "Conservative Party",
          [
            "/wiki/Conservative_Party_(UK)"
          ]
        ],
        [
          "1835",
          []
        ],
        [
          "1835",
          []
        ],
        [
          "Present",
          []
        ],
        [
          "N/A",
          []
        ]
      ],
      [
        [
          "Green Party of England and Wales",
          [
            "/wiki/Green_Party_of_England_and_Wales"
          ]
        ],
        [
          "1973",
          []
        ],
        [
          "1980s",
          []
        ],
        [
          "Present",
          []
        ],
        [
          "N/A",
          []
        ]
      ],
      [
        [
          "Labour Party",
          [
            "/wiki/Labour_Party_(UK)"
          ]
        ],
        [
          "1906",
          []
        ],
        [
          "1924",
          []
        ],
        [
          "Present",
          []
        ],
        [
          "N/A",
          []
        ]
      ],
      [
        [
          "Liberal Democrats",
          [
            "/wiki/Liberal_Democrats_(UK)"
          ]
        ],
        [
          "1988",
          []
        ],
        [
          "1988",
          []
        ],
        [
          "Present",
          []
        ],
        [
          "N/A",
          []
        ]
      ],
      [
        [
          "Liberal Party",
          [
            "/wiki/Liberal_Party_(UK)"
          ]
        ],
        [
          "1859",
          []
        ],
        [
          "1859",
          []
        ],
        [
          "1988",
          []
        ],
        [
          "1988",
          []
        ]
      ],
      [
        [
          "Social Democratic Party",
          [
            "/wiki/Social_Democratic_Party_(UK)"
          ]
        ],
        [
          "1981",
          []
        ],
        [
          "1981",
          []
        ],
        [
          "1988",
          []
        ],
        [
          "1988",
          []
        ]
      ],
      [
        [
          "Social Democratic Party ( 1988 )",
          [
            "/wiki/Social_Democratic_Party_(UK,_1988)"
          ]
        ],
        [
          "1988",
          []
        ],
        [
          "1988",
          []
        ],
        [
          "1990",
          []
        ],
        [
          "1990",
          []
        ]
      ],
      [
        [
          "United Kingdom Independence Party",
          [
            "/wiki/UK_Independence_Party"
          ]
        ],
        [
          "1993",
          []
        ],
        [
          "1990s",
          []
        ],
        [
          "Present",
          []
        ],
        [
          "N/A",
          []
        ]
      ]
    ],
    "section_title": "British House of Lords",
    "section_text": "",
    "uid": "List_of_political_parties_in_the_United_Kingdom_by_representation_1",
    "intro": "This is a list of political parties in the United Kingdom, by their historic representation in elected bodies."
  },
  "List_of_Vice-Presidents_of_the_Federation_of_Bosnia_and_Herzegovina_0": {
    "url": "https://en.wikipedia.org/wiki/Vice-President_of_the_Federation_of_Bosnia_and_Herzegovina",
    "title": "Vice-President of the Federation of Bosnia and Herzegovina",
    "header": [
      [
        "Name",
        []
      ],
      [
        "Entered office",
        []
      ],
      [
        "Left office",
        []
      ],
      [
        "Party",
        []
      ]
    ],
    "data": [
      [
        [
          "Ejup Gani\u0107",
          [
            "/wiki/Ejup_Gani\u0107"
          ]
        ],
        [
          "31 May 1994",
          []
        ],
        [
          "29 December 1997",
          []
        ],
        [
          "SDA",
          [
            "/wiki/Party_of_Democratic_Action"
          ]
        ]
      ],
      [
        [
          "Vladimir \u0160olji\u0107",
          [
            "/wiki/Vladimir_\u0160olji\u0107"
          ]
        ],
        [
          "29 December 1997",
          []
        ],
        [
          "1 January 1999",
          []
        ],
        [
          "HDZ BiH",
          [
            "/wiki/Croatian_Democratic_Union_of_Bosnia_and_Herzegovina"
          ]
        ]
      ],
      [
        [
          "Ejup Gani\u0107",
          [
            "/wiki/Ejup_Gani\u0107"
          ]
        ],
        [
          "1 January 1999",
          []
        ],
        [
          "1 January 2000",
          []
        ],
        [
          "SDA",
          [
            "/wiki/Party_of_Democratic_Action"
          ]
        ]
      ],
      [
        [
          "Ivo Andri\u0107-Lu\u017eanski",
          [
            "/wiki/Ivo_Andri\u0107-Lu\u017eanski"
          ]
        ],
        [
          "1 January 2000",
          []
        ],
        [
          "1 January 2001",
          []
        ],
        [
          "HDZ BiH",
          [
            "/wiki/Croatian_Democratic_Union_of_Bosnia_and_Herzegovina"
          ]
        ]
      ],
      [
        [
          "Ejup Gani\u0107",
          [
            "/wiki/Ejup_Gani\u0107"
          ]
        ],
        [
          "1 January 2001",
          []
        ],
        [
          "27 February 2001",
          []
        ],
        [
          "SDA",
          [
            "/wiki/Party_of_Democratic_Action"
          ]
        ]
      ],
      [
        [
          "Safet Halilovi\u0107",
          [
            "/wiki/Safet_Halilovi\u0107"
          ]
        ],
        [
          "27 February 2001",
          []
        ],
        [
          "1 January 2002",
          []
        ],
        [
          "SDA",
          [
            "/wiki/Party_of_Democratic_Action"
          ]
        ]
      ],
      [
        [
          "Karlo Filipovi\u0107",
          [
            "/wiki/Karlo_Filipovi\u0107"
          ]
        ],
        [
          "1 January 2002",
          []
        ],
        [
          "27 January 2003",
          []
        ],
        [
          "SDP BiH",
          [
            "/wiki/Social_Democratic_Party_of_Bosnia_and_Herzegovina"
          ]
        ]
      ],
      [
        [
          "\u0160ahbaz D\u017eihanovi\u0107 Desnica Radivojevi\u0107",
          [
            "/wiki/\u0160ahbaz_D\u017eihanovi\u0107",
            "/wiki/Desnica_Radivojevi\u0107"
          ]
        ],
        [
          "27 January 2003",
          []
        ],
        [
          "22 February 2007",
          []
        ],
        [
          "SDA SDA",
          [
            "/wiki/Party_of_Democratic_Action",
            "/wiki/Party_of_Democratic_Action"
          ]
        ]
      ],
      [
        [
          "Spomenka Mi\u010di\u0107 Mirsad Kebo",
          []
        ],
        [
          "22 February 2007",
          []
        ],
        [
          "17 March 2011",
          []
        ],
        [
          "SBiH SDA",
          [
            "/wiki/Party_for_Bosnia_and_Herzegovina",
            "/wiki/Party_of_Democratic_Action"
          ]
        ]
      ],
      [
        [
          "Svetozar Pudari\u0107 Mirsad Kebo",
          []
        ],
        [
          "17 March 2011",
          []
        ],
        [
          "9 February 2015",
          []
        ],
        [
          "SDP BiH SDA",
          [
            "/wiki/Social_Democratic_Party_of_Bosnia_and_Herzegovina",
            "/wiki/Party_of_Democratic_Action"
          ]
        ]
      ],
      [
        [
          "Milan Dunovi\u0107 Melika Mahmutbegovi\u0107",
          []
        ],
        [
          "9 February 2015",
          []
        ],
        [
          "Incumbent",
          []
        ],
        [
          "DF SDA",
          [
            "/wiki/Democratic_Front_(Bosnia_and_Herzegovina)",
            "/wiki/Party_of_Democratic_Action"
          ]
        ]
      ]
    ],
    "section_title": "",
    "section_text": "Vice-President of the Federation of Bosnia and Herzegovina Potpredsjednik Federacije Bosne i Hercegovine / Potpredsjednica Federacije Bosne i HercegovineIncumbentMilan Dunovi\u0107 and Melika Mahmutbegovi\u0107since 9 February 2015NominatorHouse of Peoples of the Federation of Bosnia and HerzegovinaAppointerParliament of the Federation of Bosnia and HerzegovinaTerm length4 years , renewable onceInaugural holderEjup Gani\u0107Formation31 May 1994Websitehttp : //www.fbihpotpredsjednik.gov.ba/ http : //potpredsjednikfbih.gov.ba/ Bosnia and Herzegovina This article is part of a series on thepolitics and government ofBosnia and Herzegovina Constitution Dayton Agreement Peace Implementation Council High Representative : V. Inzko Presidency Bosniak member \u0160efik D\u017eaferovi\u0107 Croat member \u017deljko Kom\u0161i\u0107 ( Chairman ) Serb member Milorad Dodik ParliamentExecutive Parliament House of Peoples House of Representatives Council of Ministers Chairman : Denis Zvizdi\u0107 Recent elections General : 201020142018 Political parties Foreign relations Ministry of Foreign Affairs Minister : Bisera Turkovi\u0107 Diplomatic missions of / in Bosnia and Herzegovina Nationality law Passport Visa requirements Visa policy EU accession NATO accession Political divisions Federation of Bosnia and Herzegovina President ( list ) : Marinko \u010cavara Government Prime Minister : Fadil Novali\u0107 Parliament House of Representatives House of Peoples Cantons Assemblies Republika Srpska President ( list ) : \u017deljka Cvijanovi\u0107 Government Prime Minister : Radovan Vi\u0161kovi\u0107 National Assembly Speaker : Nedeljko \u010cubrilovi\u0107 Br\u010dko District International Supervisor : B. Berton ( Suspended ) Mayor : Sini\u0161a Mili\u0107 Bosnia and Herzegovina portal Other countries Atlas vte This article lists the Vice-Presidents of the Federation of Bosnia and Herzegovina . Below is a list of office-holders :",
    "uid": "List_of_Vice-Presidents_of_the_Federation_of_Bosnia_and_Herzegovina_0",
    "intro": "This article lists the Vice-Presidents of the Federation of Bosnia and Herzegovina. Below is a list of office-holders:"
  },
  "Primetime_Emmy_Award_for_Outstanding_Lead_Actress_in_a_Drama_Series_7": {
    "url": "https://en.wikipedia.org/wiki/Primetime_Emmy_Award_for_Outstanding_Lead_Actress_in_a_Drama_Series",
    "title": "Primetime Emmy Award for Outstanding Lead Actress in a Drama Series",
    "header": [
      [
        "Year",
        []
      ],
      [
        "Actress",
        []
      ],
      [
        "Role",
        []
      ],
      [
        "Program",
        []
      ],
      [
        "Network",
        []
      ]
    ],
    "data": [
      [
        [
          "2010 ( 62nd )",
          [
            "/wiki/62nd_Primetime_Emmy_Awards"
          ]
        ],
        [
          "Kyra Sedgwick",
          [
            "/wiki/Kyra_Sedgwick"
          ]
        ],
        [
          "Brenda Leigh Johnson",
          [
            "/wiki/Brenda_Leigh_Johnson"
          ]
        ],
        [
          "The Closer",
          [
            "/wiki/The_Closer"
          ]
        ],
        [
          "TNT",
          [
            "/wiki/TNT_(American_TV_network)"
          ]
        ]
      ],
      [
        [
          "2010 ( 62nd )",
          [
            "/wiki/62nd_Primetime_Emmy_Awards"
          ]
        ],
        [
          "Connie Britton",
          [
            "/wiki/Connie_Britton"
          ]
        ],
        [
          "Tami Taylor",
          [
            "/wiki/Tami_Taylor"
          ]
        ],
        [
          "Friday Night Lights",
          [
            "/wiki/Friday_Night_Lights_(TV_series)"
          ]
        ],
        [
          "DirecTV",
          [
            "/wiki/Audience_(TV_network)"
          ]
        ]
      ],
      [
        [
          "2010 ( 62nd )",
          [
            "/wiki/62nd_Primetime_Emmy_Awards"
          ]
        ],
        [
          "Glenn Close",
          [
            "/wiki/Glenn_Close"
          ]
        ],
        [
          "Patty Hewes",
          [
            "/wiki/Patty_Hewes"
          ]
        ],
        [
          "Damages",
          [
            "/wiki/Damages_(TV_series)"
          ]
        ],
        [
          "FX",
          [
            "/wiki/FX_(TV_channel)"
          ]
        ]
      ],
      [
        [
          "2010 ( 62nd )",
          [
            "/wiki/62nd_Primetime_Emmy_Awards"
          ]
        ],
        [
          "Mariska Hargitay",
          [
            "/wiki/Mariska_Hargitay"
          ]
        ],
        [
          "Olivia Benson",
          [
            "/wiki/Olivia_Benson"
          ]
        ],
        [
          "Law & Order : Special Victims Unit",
          [
            "/wiki/Law_&_Order:_Special_Victims_Unit"
          ]
        ],
        [
          "NBC",
          [
            "/wiki/NBC"
          ]
        ]
      ],
      [
        [
          "2010 ( 62nd )",
          [
            "/wiki/62nd_Primetime_Emmy_Awards"
          ]
        ],
        [
          "January Jones",
          [
            "/wiki/January_Jones"
          ]
        ],
        [
          "Betty Draper",
          [
            "/wiki/Betty_Draper"
          ]
        ],
        [
          "Mad Men",
          [
            "/wiki/Mad_Men"
          ]
        ],
        [
          "AMC",
          [
            "/wiki/AMC_(TV_channel)"
          ]
        ]
      ],
      [
        [
          "2010 ( 62nd )",
          [
            "/wiki/62nd_Primetime_Emmy_Awards"
          ]
        ],
        [
          "Julianna Margulies",
          [
            "/wiki/Julianna_Margulies"
          ]
        ],
        [
          "Alicia Florrick",
          [
            "/wiki/Alicia_Florrick"
          ]
        ],
        [
          "The Good Wife",
          [
            "/wiki/The_Good_Wife"
          ]
        ],
        [
          "CBS",
          [
            "/wiki/CBS"
          ]
        ]
      ],
      [
        [
          "2011 ( 63rd )",
          [
            "/wiki/63rd_Primetime_Emmy_Awards"
          ]
        ],
        [
          "Julianna Margulies",
          [
            "/wiki/Julianna_Margulies"
          ]
        ],
        [
          "Alicia Florrick",
          [
            "/wiki/Alicia_Florrick"
          ]
        ],
        [
          "The Good Wife",
          [
            "/wiki/The_Good_Wife"
          ]
        ],
        [
          "CBS",
          []
        ]
      ],
      [
        [
          "2011 ( 63rd )",
          [
            "/wiki/63rd_Primetime_Emmy_Awards"
          ]
        ],
        [
          "Kathy Bates",
          [
            "/wiki/Kathy_Bates"
          ]
        ],
        [
          "Harriet Korn",
          []
        ],
        [
          "Harry 's Law",
          [
            "/wiki/Harry's_Law"
          ]
        ],
        [
          "NBC",
          []
        ]
      ],
      [
        [
          "2011 ( 63rd )",
          [
            "/wiki/63rd_Primetime_Emmy_Awards"
          ]
        ],
        [
          "Connie Britton",
          [
            "/wiki/Connie_Britton"
          ]
        ],
        [
          "Tami Taylor",
          [
            "/wiki/Tami_Taylor"
          ]
        ],
        [
          "Friday Night Lights",
          [
            "/wiki/Friday_Night_Lights_(TV_series)"
          ]
        ],
        [
          "DirecTV",
          []
        ]
      ],
      [
        [
          "2011 ( 63rd )",
          [
            "/wiki/63rd_Primetime_Emmy_Awards"
          ]
        ],
        [
          "Mireille Enos",
          [
            "/wiki/Mireille_Enos"
          ]
        ],
        [
          "Sarah Linden",
          []
        ],
        [
          "The Killing",
          [
            "/wiki/The_Killing_(American_TV_series)"
          ]
        ],
        [
          "AMC",
          []
        ]
      ],
      [
        [
          "2011 ( 63rd )",
          [
            "/wiki/63rd_Primetime_Emmy_Awards"
          ]
        ],
        [
          "Mariska Hargitay",
          [
            "/wiki/Mariska_Hargitay"
          ]
        ],
        [
          "Olivia Benson",
          [
            "/wiki/Olivia_Benson"
          ]
        ],
        [
          "Law & Order : Special Victims Unit",
          [
            "/wiki/Law_&_Order:_Special_Victims_Unit"
          ]
        ],
        [
          "NBC",
          []
        ]
      ],
      [
        [
          "2011 ( 63rd )",
          [
            "/wiki/63rd_Primetime_Emmy_Awards"
          ]
        ],
        [
          "Elisabeth Moss",
          [
            "/wiki/Elisabeth_Moss"
          ]
        ],
        [
          "Peggy Olson",
          [
            "/wiki/Peggy_Olson"
          ]
        ],
        [
          "Mad Men",
          [
            "/wiki/Mad_Men"
          ]
        ],
        [
          "AMC",
          []
        ]
      ],
      [
        [
          "2012 ( 64th )",
          [
            "/wiki/64th_Primetime_Emmy_Awards"
          ]
        ],
        [
          "Claire Danes",
          [
            "/wiki/Claire_Danes"
          ]
        ],
        [
          "Carrie Mathison",
          [
            "/wiki/Carrie_Mathison"
          ]
        ],
        [
          "Homeland",
          [
            "/wiki/Homeland_(TV_series)"
          ]
        ],
        [
          "Showtime",
          [
            "/wiki/Showtime_(TV_network)"
          ]
        ]
      ],
      [
        [
          "2012 ( 64th )",
          [
            "/wiki/64th_Primetime_Emmy_Awards"
          ]
        ],
        [
          "Kathy Bates",
          [
            "/wiki/Kathy_Bates"
          ]
        ],
        [
          "Harriet Korn",
          []
        ],
        [
          "Harry 's Law",
          [
            "/wiki/Harry's_Law"
          ]
        ],
        [
          "NBC",
          []
        ]
      ],
      [
        [
          "2012 ( 64th )",
          [
            "/wiki/64th_Primetime_Emmy_Awards"
          ]
        ],
        [
          "Glenn Close",
          [
            "/wiki/Glenn_Close"
          ]
        ],
        [
          "Patty Hewes",
          [
            "/wiki/Patty_Hewes"
          ]
        ],
        [
          "Damages",
          [
            "/wiki/Damages_(TV_series)"
          ]
        ],
        [
          "DirecTV",
          []
        ]
      ],
      [
        [
          "2012 ( 64th )",
          [
            "/wiki/64th_Primetime_Emmy_Awards"
          ]
        ],
        [
          "Michelle Dockery",
          [
            "/wiki/Michelle_Dockery"
          ]
        ],
        [
          "Lady Mary Crawley",
          [
            "/wiki/List_of_Downton_Abbey_characters"
          ]
        ],
        [
          "Downton Abbey",
          [
            "/wiki/Downton_Abbey"
          ]
        ],
        [
          "PBS",
          [
            "/wiki/PBS"
          ]
        ]
      ],
      [
        [
          "2012 ( 64th )",
          [
            "/wiki/64th_Primetime_Emmy_Awards"
          ]
        ],
        [
          "Julianna Margulies",
          [
            "/wiki/Julianna_Margulies"
          ]
        ],
        [
          "Alicia Florrick",
          [
            "/wiki/Alicia_Florrick"
          ]
        ],
        [
          "The Good Wife",
          [
            "/wiki/The_Good_Wife"
          ]
        ],
        [
          "CBS",
          []
        ]
      ],
      [
        [
          "2012 ( 64th )",
          [
            "/wiki/64th_Primetime_Emmy_Awards"
          ]
        ],
        [
          "Elisabeth Moss",
          [
            "/wiki/Elisabeth_Moss"
          ]
        ],
        [
          "Peggy Olson",
          [
            "/wiki/Peggy_Olson"
          ]
        ],
        [
          "Mad Men",
          [
            "/wiki/Mad_Men"
          ]
        ],
        [
          "AMC",
          []
        ]
      ],
      [
        [
          "2013 ( 65th )",
          [
            "/wiki/65th_Primetime_Emmy_Awards"
          ]
        ],
        [
          "Claire Danes",
          [
            "/wiki/Claire_Danes"
          ]
        ],
        [
          "Carrie Mathison",
          [
            "/wiki/Carrie_Mathison"
          ]
        ],
        [
          "Homeland",
          [
            "/wiki/Homeland_(TV_series)"
          ]
        ],
        [
          "Showtime",
          []
        ]
      ],
      [
        [
          "2013 ( 65th )",
          [
            "/wiki/65th_Primetime_Emmy_Awards"
          ]
        ],
        [
          "Connie Britton",
          [
            "/wiki/Connie_Britton"
          ]
        ],
        [
          "Rayna Jaymes",
          [
            "/wiki/Rayna_Jaymes"
          ]
        ],
        [
          "Nashville",
          [
            "/wiki/Nashville_(2012_TV_series)"
          ]
        ],
        [
          "ABC",
          []
        ]
      ]
    ],
    "section_title": "Winners and nominations -- 2010s",
    "section_text": "",
    "uid": "Primetime_Emmy_Award_for_Outstanding_Lead_Actress_in_a_Drama_Series_7",
    "intro": "The Primetime Emmy Award for Outstanding Lead Actress in a Drama Series is an award presented annually by the Academy of Television Arts & Sciences (ATAS). It is given in honor of an actress who has delivered an outstanding performance in a leading role on a television drama series for the primetime network season. The award was first presented at the 6th Primetime Emmy Awards on February 11, 1954. The acting awards presented during the inaugural years were not genre specific, with actresses in either drama or comedy series receiving nominations and awards. While Eve Arden was the first winner in the female acting category, Loretta Young was the first actress to win for a lead performance in a drama series. By 1966, the acting awards were split into drama and comedy categories, undergoing several name changes until settling with the current title. Since its inception, the award has been given to 36 actresses, with 31 winning for performances in a drama series. At four awards, Tyne Daly and Michael Learned hold the record for most wins in the category. Angela Lansbury is the most nominated actress in the category with twelve nominations, though she has never won the award. Jodie Comer is the current recipient of the award for her work on Killing Eve."
  },
  "List_of_professional_sports_teams_in_the_United_States_and_Canada_18": {
    "url": "https://en.wikipedia.org/wiki/List_of_professional_sports_teams_in_the_United_States_and_Canada",
    "title": "List of professional sports teams in the United States and Canada",
    "header": [
      [
        "Team",
        []
      ],
      [
        "City",
        []
      ],
      [
        "Stadium",
        []
      ]
    ],
    "data": [
      [
        [
          "Napa Silverados",
          [
            "/wiki/Napa_Silverados"
          ]
        ],
        [
          "Napa , California",
          [
            "/wiki/Napa,_California"
          ]
        ],
        [
          "NVC Storm Field",
          [
            "/wiki/Napa_Valley_College"
          ]
        ]
      ],
      [
        [
          "Salina Stockade",
          [
            "/wiki/Salina_Stockade"
          ]
        ],
        [
          "Travel team",
          []
        ],
        [
          "none",
          []
        ]
      ],
      [
        [
          "San Rafael Pacifics",
          [
            "/wiki/San_Rafael_Pacifics"
          ]
        ],
        [
          "San Rafael , California",
          [
            "/wiki/San_Rafael,_California"
          ]
        ],
        [
          "Albert Park",
          []
        ]
      ],
      [
        [
          "Sonoma Stompers",
          [
            "/wiki/Sonoma_Stompers"
          ]
        ],
        [
          "Sonoma , California",
          [
            "/wiki/Sonoma,_California"
          ]
        ],
        [
          "Arnold Field",
          []
        ]
      ],
      [
        [
          "Vallejo Admirals",
          [
            "/wiki/Vallejo_Admirals"
          ]
        ],
        [
          "Vallejo , California",
          [
            "/wiki/Vallejo,_California"
          ]
        ],
        [
          "Wilson Park",
          []
        ]
      ]
    ],
    "section_title": "Baseball -- Pacific Association of Professional Baseball Clubs",
    "section_text": "",
    "uid": "List_of_professional_sports_teams_in_the_United_States_and_Canada_18",
    "intro": "This article features a listing of all professional sports teams based in the United States and Canada, in addition to teams from other countries that compete in professional leagues based in the two countries."
  },
  "List_of_professional_sports_teams_in_the_United_States_and_Canada_27": {
    "url": "https://en.wikipedia.org/wiki/List_of_professional_sports_teams_in_the_United_States_and_Canada",
    "title": "List of professional sports teams in the United States and Canada",
    "header": [
      [
        "Conference",
        []
      ],
      [
        "Team",
        []
      ],
      [
        "City",
        []
      ],
      [
        "Home Stadium",
        []
      ]
    ],
    "data": [
      [
        [
          "Eastern",
          []
        ],
        [
          "DC Defenders",
          [
            "/wiki/DC_Defenders"
          ]
        ],
        [
          "Washington , D.C",
          [
            "/wiki/Washington,_D.C."
          ]
        ],
        [
          "Audi Field",
          [
            "/wiki/Audi_Field"
          ]
        ]
      ],
      [
        [
          "Eastern",
          []
        ],
        [
          "New York Guardians",
          [
            "/wiki/New_York_Guardians"
          ]
        ],
        [
          "East Rutherford , New Jersey",
          [
            "/wiki/East_Rutherford,_New_Jersey"
          ]
        ],
        [
          "MetLife Stadium",
          [
            "/wiki/MetLife_Stadium"
          ]
        ]
      ],
      [
        [
          "Eastern",
          []
        ],
        [
          "St. Louis BattleHawks",
          [
            "/wiki/St._Louis_BattleHawks"
          ]
        ],
        [
          "St. Louis , Missouri",
          [
            "/wiki/St._Louis"
          ]
        ],
        [
          "The Dome at America 's Center",
          [
            "/wiki/The_Dome_at_America's_Center"
          ]
        ]
      ],
      [
        [
          "Eastern",
          []
        ],
        [
          "Tampa Bay Vipers",
          [
            "/wiki/Tampa_Bay_Vipers"
          ]
        ],
        [
          "Tampa , Florida",
          [
            "/wiki/Tampa,_Florida"
          ]
        ],
        [
          "Raymond James Stadium",
          [
            "/wiki/Raymond_James_Stadium"
          ]
        ]
      ],
      [
        [
          "Western",
          []
        ],
        [
          "Dallas Renegades",
          [
            "/wiki/Dallas_Renegades"
          ]
        ],
        [
          "Arlington , Texas",
          [
            "/wiki/Arlington,_Texas"
          ]
        ],
        [
          "Globe Life Park in Arlington",
          [
            "/wiki/Globe_Life_Park_in_Arlington"
          ]
        ]
      ],
      [
        [
          "Western",
          []
        ],
        [
          "Houston Roughnecks",
          [
            "/wiki/Houston_Roughnecks"
          ]
        ],
        [
          "Houston , Texas",
          [
            "/wiki/Houston"
          ]
        ],
        [
          "TDECU Stadium",
          [
            "/wiki/TDECU_Stadium"
          ]
        ]
      ],
      [
        [
          "Western",
          []
        ],
        [
          "Los Angeles Wildcats",
          [
            "/wiki/Los_Angeles_Wildcats_(XFL)"
          ]
        ],
        [
          "Carson , California",
          [
            "/wiki/Carson,_California"
          ]
        ],
        [
          "Dignity Health Sports Park",
          [
            "/wiki/Dignity_Health_Sports_Park"
          ]
        ]
      ],
      [
        [
          "Western",
          []
        ],
        [
          "Seattle Dragons",
          [
            "/wiki/Seattle_Dragons"
          ]
        ],
        [
          "Seattle , Washington",
          [
            "/wiki/Seattle"
          ]
        ],
        [
          "CenturyLink Field",
          [
            "/wiki/CenturyLink_Field"
          ]
        ]
      ]
    ],
    "section_title": "Football -- XFL",
    "section_text": "Begins play in February 2020 .",
    "uid": "List_of_professional_sports_teams_in_the_United_States_and_Canada_27",
    "intro": "This article features a listing of all professional sports teams based in the United States and Canada, in addition to teams from other countries that compete in professional leagues based in the two countries."
  },
  "List_of_professional_sports_teams_in_the_United_States_and_Canada_36": {
    "url": "https://en.wikipedia.org/wiki/List_of_professional_sports_teams_in_the_United_States_and_Canada",
    "title": "List of professional sports teams in the United States and Canada",
    "header": [
      [
        "Team",
        []
      ],
      [
        "City",
        []
      ],
      [
        "Arena",
        []
      ]
    ],
    "data": [
      [
        [
          "Birmingham Bulls",
          [
            "/wiki/Birmingham_Bulls_(SPHL)"
          ]
        ],
        [
          "Pelham , Alabama",
          [
            "/wiki/Pelham,_Alabama"
          ]
        ],
        [
          "Pelham Civic Center",
          [
            "/wiki/Pelham_Civic_Center"
          ]
        ]
      ],
      [
        [
          "Evansville Thunderbolts",
          [
            "/wiki/Evansville_Thunderbolts"
          ]
        ],
        [
          "Evansville , Indiana",
          [
            "/wiki/Evansville,_Indiana"
          ]
        ],
        [
          "Ford Center",
          [
            "/wiki/Ford_Center_(Evansville)"
          ]
        ]
      ],
      [
        [
          "Fayetteville Marksmen",
          [
            "/wiki/Fayetteville_Marksmen"
          ]
        ],
        [
          "Fayetteville , North Carolina",
          [
            "/wiki/Fayetteville,_North_Carolina"
          ]
        ],
        [
          "Crown Coliseum",
          [
            "/wiki/Crown_Coliseum"
          ]
        ]
      ],
      [
        [
          "Huntsville Havoc",
          [
            "/wiki/Huntsville_Havoc"
          ]
        ],
        [
          "Huntsville , Alabama",
          [
            "/wiki/Huntsville,_Alabama"
          ]
        ],
        [
          "Von Braun Center",
          [
            "/wiki/Von_Braun_Center"
          ]
        ]
      ],
      [
        [
          "Knoxville Ice Bears",
          [
            "/wiki/Knoxville_Ice_Bears"
          ]
        ],
        [
          "Knoxville , Tennessee",
          [
            "/wiki/Knoxville,_Tennessee"
          ]
        ],
        [
          "Knoxville Civic Coliseum",
          [
            "/wiki/Knoxville_Civic_Coliseum"
          ]
        ]
      ],
      [
        [
          "Macon Mayhem",
          [
            "/wiki/Macon_Mayhem"
          ]
        ],
        [
          "Macon , Georgia",
          [
            "/wiki/Macon,_Georgia"
          ]
        ],
        [
          "Macon Coliseum",
          [
            "/wiki/Macon_Coliseum"
          ]
        ]
      ],
      [
        [
          "Pensacola Ice Flyers",
          [
            "/wiki/Pensacola_Ice_Flyers"
          ]
        ],
        [
          "Pensacola , Florida",
          [
            "/wiki/Pensacola,_Florida"
          ]
        ],
        [
          "Pensacola Bay Center",
          [
            "/wiki/Pensacola_Bay_Center"
          ]
        ]
      ],
      [
        [
          "Peoria Rivermen",
          [
            "/wiki/Peoria_Rivermen_(SPHL)"
          ]
        ],
        [
          "Peoria , Illinois",
          [
            "/wiki/Peoria,_Illinois"
          ]
        ],
        [
          "Carver Arena",
          [
            "/wiki/Peoria_Civic_Center"
          ]
        ]
      ],
      [
        [
          "Quad City Storm",
          [
            "/wiki/Quad_City_Storm"
          ]
        ],
        [
          "Moline , Illinois",
          [
            "/wiki/Moline,_Illinois"
          ]
        ],
        [
          "TaxSlayer Center",
          [
            "/wiki/TaxSlayer_Center"
          ]
        ]
      ],
      [
        [
          "Roanoke Rail Yard Dawgs",
          [
            "/wiki/Roanoke_Rail_Yard_Dawgs"
          ]
        ],
        [
          "Roanoke , Virginia",
          [
            "/wiki/Roanoke,_Virginia"
          ]
        ],
        [
          "Berglund Center",
          [
            "/wiki/Berglund_Center"
          ]
        ]
      ]
    ],
    "section_title": "Ice hockey -- Southern Professional Hockey League",
    "section_text": "",
    "uid": "List_of_professional_sports_teams_in_the_United_States_and_Canada_36",
    "intro": "This article features a listing of all professional sports teams based in the United States and Canada, in addition to teams from other countries that compete in professional leagues based in the two countries."
  },
  "List_of_professional_sports_teams_in_the_United_States_and_Canada_45": {
    "url": "https://en.wikipedia.org/wiki/List_of_professional_sports_teams_in_the_United_States_and_Canada",
    "title": "List of professional sports teams in the United States and Canada",
    "header": [
      [
        "Conference",
        []
      ],
      [
        "Club",
        []
      ],
      [
        "City",
        []
      ],
      [
        "Ground",
        []
      ]
    ],
    "data": [
      [
        [
          "Eastern",
          []
        ],
        [
          "New England Free Jacks",
          [
            "/wiki/New_England_Free_Jacks"
          ]
        ],
        [
          "Weymouth , Massachusetts ( Boston )",
          [
            "/wiki/Weymouth,_Massachusetts",
            "/wiki/Boston"
          ]
        ],
        [
          "Union Point Sports Complex",
          [
            "/wiki/Union_Point_Sports_Complex"
          ]
        ]
      ],
      [
        [
          "Eastern",
          []
        ],
        [
          "New Orleans Gold",
          [
            "/wiki/New_Orleans_Gold"
          ]
        ],
        [
          "Metairie , Louisiana ( New Orleans )",
          [
            "/wiki/Metairie,_Louisiana",
            "/wiki/New_Orleans"
          ]
        ],
        [
          "Gold Mine",
          [
            "/wiki/Shrine_on_Airline"
          ]
        ]
      ],
      [
        [
          "Eastern",
          []
        ],
        [
          "Old Glory DC",
          [
            "/wiki/Old_Glory_DC"
          ]
        ],
        [
          "Washington , D.C",
          [
            "/wiki/Washington,_D.C."
          ]
        ],
        [
          "Cardinal Stadium",
          [
            "/wiki/Cardinal_Stadium_(Washington,_D.C.)"
          ]
        ]
      ],
      [
        [
          "Eastern",
          []
        ],
        [
          "Rugby United New York",
          [
            "/wiki/Rugby_United_New_York"
          ]
        ],
        [
          "New York City , New York ( Brooklyn )",
          [
            "/wiki/New_York_City",
            "/wiki/Brooklyn"
          ]
        ],
        [
          "MCU Park",
          [
            "/wiki/MCU_Park"
          ]
        ]
      ],
      [
        [
          "Eastern",
          []
        ],
        [
          "Rugby ATL",
          [
            "/wiki/Rugby_ATL"
          ]
        ],
        [
          "Marietta , Georgia ( Atlanta )",
          [
            "/wiki/Marietta,_Georgia",
            "/wiki/Atlanta"
          ]
        ],
        [
          "Lupo Family Field",
          [
            "/wiki/Life_University"
          ]
        ]
      ],
      [
        [
          "Eastern",
          []
        ],
        [
          "Toronto Arrows",
          [
            "/wiki/Toronto_Arrows"
          ]
        ],
        [
          "Toronto , Ontario",
          [
            "/wiki/Toronto"
          ]
        ],
        [
          "Lamport Stadium",
          [
            "/wiki/Lamport_Stadium"
          ]
        ]
      ],
      [
        [
          "Western",
          []
        ],
        [
          "Austin Gilgronis",
          [
            "/wiki/Austin_Gilgronis"
          ]
        ],
        [
          "Austin , Texas",
          [
            "/wiki/Austin,_Texas"
          ]
        ],
        [
          "Circuit of the Americas",
          [
            "/wiki/Circuit_of_the_Americas"
          ]
        ]
      ],
      [
        [
          "Western",
          []
        ],
        [
          "Colorado Raptors",
          [
            "/wiki/Colorado_Raptors"
          ]
        ],
        [
          "Glendale , Colorado ( Denver )",
          [
            "/wiki/Glendale,_Colorado",
            "/wiki/Denver"
          ]
        ],
        [
          "Infinity Park",
          [
            "/wiki/Infinity_Park"
          ]
        ]
      ],
      [
        [
          "Western",
          []
        ],
        [
          "Houston SaberCats",
          [
            "/wiki/Houston_SaberCats"
          ]
        ],
        [
          "Houston , Texas",
          [
            "/wiki/Houston",
            "/wiki/Texas"
          ]
        ],
        [
          "Aveva Stadium",
          [
            "/wiki/Aveva_Stadium"
          ]
        ]
      ],
      [
        [
          "Western",
          []
        ],
        [
          "San Diego Legion",
          [
            "/wiki/San_Diego_Legion"
          ]
        ],
        [
          "San Diego , California",
          [
            "/wiki/San_Diego",
            "/wiki/California"
          ]
        ],
        [
          "Torero Stadium",
          [
            "/wiki/Torero_Stadium"
          ]
        ]
      ],
      [
        [
          "Western",
          []
        ],
        [
          "Seattle Seawolves",
          [
            "/wiki/Seattle_Seawolves"
          ]
        ],
        [
          "Tukwila , Washington ( Seattle )",
          [
            "/wiki/Tukwila,_Washington",
            "/wiki/Seattle"
          ]
        ],
        [
          "Starfire Stadium",
          [
            "/wiki/Starfire_Sports"
          ]
        ]
      ],
      [
        [
          "Western",
          []
        ],
        [
          "Utah Warriors",
          [
            "/wiki/Utah_Warriors"
          ]
        ],
        [
          "Herriman , Utah ( Salt Lake City )",
          [
            "/wiki/Herriman,_Utah",
            "/wiki/Salt_Lake_City"
          ]
        ],
        [
          "Zions Bank Stadium",
          [
            "/wiki/Zions_Bank_Stadium"
          ]
        ]
      ]
    ],
    "section_title": "Rugby union -- Major League Rugby",
    "section_text": "",
    "uid": "List_of_professional_sports_teams_in_the_United_States_and_Canada_45",
    "intro": "This article features a listing of all professional sports teams based in the United States and Canada, in addition to teams from other countries that compete in professional leagues based in the two countries."
  }
}