{
  "National_Register_of_Historic_Places_listings_in_Floyd_County,_Iowa_0": {
    "url": "https://en.wikipedia.org/wiki/National_Register_of_Historic_Places_listings_in_Floyd_County,_Iowa",
    "title": "National Register of Historic Places listings in Floyd County, Iowa",
    "header": [
      [
        "",
        []
      ],
      [
        "Name on the Register",
        []
      ],
      [
        "Date listed",
        []
      ],
      [
        "Location",
        []
      ],
      [
        "City or town",
        []
      ]
    ],
    "data": [
      [
        [
          "1",
          []
        ],
        [
          "Brooks Round Barn",
          [
            "/wiki/Brooks_Round_Barn"
          ]
        ],
        [
          "June 30 , 1986 ( # 86001429 )",
          []
        ],
        [
          "West of U.S. Route 218 42\u00b057\u203200\u2033N 92\u00b035\u203204\u2033W / 42.95\u00b0N 92.584444\u00b0W / 42.95 ; -92.584444 ( Brooks Round Barn )",
          [
            "/wiki/U.S._Route_218"
          ]
        ],
        [
          "Nashua",
          [
            "/wiki/Nashua,_Iowa"
          ]
        ]
      ],
      [
        [
          "2",
          []
        ],
        [
          "Central Park-North Main Street Historic District",
          [
            "/wiki/Central_Park-North_Main_Street_Historic_District"
          ]
        ],
        [
          "August 10 , 1976 ( # 76000771 )",
          []
        ],
        [
          "N. Main St. and N. Jackson St. 43\u00b004\u203206\u2033N 92\u00b040\u203243\u2033W / 43.068333\u00b0N 92.678611\u00b0W / 43.068333 ; -92.678611 ( Central Park-North Main Street Historic District )",
          []
        ],
        [
          "Charles City",
          [
            "/wiki/Charles_City,_Iowa"
          ]
        ]
      ],
      [
        [
          "3",
          []
        ],
        [
          "Charles City Junior-Senior High School",
          [
            "/wiki/Charles_City_Junior-Senior_High_School"
          ]
        ],
        [
          "September 5 , 2017 ( # 100001567 )",
          []
        ],
        [
          "500 N. Grand Ave. 43\u00b004\u203205\u2033N 92\u00b040\u203220\u2033W / 43.067933\u00b0N 92.672092\u00b0W / 43.067933 ; -92.672092 ( Charles City Junior-Senior High School )",
          []
        ],
        [
          "Charles City",
          [
            "/wiki/Charles_City,_Iowa"
          ]
        ]
      ],
      [
        [
          "4",
          []
        ],
        [
          "Cook Farm",
          [
            "/wiki/Cook_Farm_(Charles_City,_Iowa)"
          ]
        ],
        [
          "June 18 , 1979 ( # 79000895 )",
          []
        ],
        [
          "South of Charles City on U.S. Route 218 43\u00b001\u203251\u2033N 92\u00b038\u203241\u2033W / 43.030833\u00b0N 92.644722\u00b0W / 43.030833 ; -92.644722 ( Cook Farm )",
          [
            "/wiki/U.S._Route_218"
          ]
        ],
        [
          "Charles City",
          [
            "/wiki/Charles_City,_Iowa"
          ]
        ]
      ],
      [
        [
          "5",
          []
        ],
        [
          "A.B.C . Dodd House",
          [
            "/wiki/A.B.C._Dodd_House"
          ]
        ],
        [
          "May 22 , 1978 ( # 78001220 )",
          []
        ],
        [
          "310 3rd Ave. 43\u00b003\u203255\u2033N 92\u00b040\u203206\u2033W / 43.065278\u00b0N 92.668333\u00b0W / 43.065278 ; -92.668333 ( A.B.C . Dodd House )",
          []
        ],
        [
          "Charles City",
          [
            "/wiki/Charles_City,_Iowa"
          ]
        ]
      ],
      [
        [
          "6",
          []
        ],
        [
          "Dr. Salsbury 's Laboratories , Main Office and Production Laboratory Building",
          [
            "/wiki/Dr._Salsbury's_Laboratories,_Main_Office_and_Production_Laboratory_Building"
          ]
        ],
        [
          "March 7 , 1996 ( # 96000235 )",
          []
        ],
        [
          "500 Gilbert St. 43\u00b003\u203247\u2033N 92\u00b040\u203244\u2033W / 43.063056\u00b0N 92.678889\u00b0W / 43.063056 ; -92.678889 ( Dr. Salsbury 's Laboratories , Main Office and Production Laboratory Building )",
          []
        ],
        [
          "Charles City",
          [
            "/wiki/Charles_City,_Iowa"
          ]
        ]
      ],
      [
        [
          "7",
          []
        ],
        [
          "Floyd County Court House",
          [
            "/wiki/Floyd_County_Courthouse_(Iowa)"
          ]
        ],
        [
          "August 28 , 2003 ( # 03000816 )",
          []
        ],
        [
          "101 S. Main St. 43\u00b003\u203256\u2033N 92\u00b040\u203254\u2033W / 43.065556\u00b0N 92.681667\u00b0W / 43.065556 ; -92.681667 ( Floyd County Court House )",
          []
        ],
        [
          "Charles City",
          [
            "/wiki/Charles_City,_Iowa"
          ]
        ]
      ],
      [
        [
          "8",
          []
        ],
        [
          "Charles Walter Hart House",
          [
            "/wiki/Charles_Walter_Hart_House"
          ]
        ],
        [
          "January 25 , 1980 ( # 80001450 )",
          []
        ],
        [
          "800 3rd Ave. 43\u00b003\u203255\u2033N 92\u00b039\u203238\u2033W / 43.065278\u00b0N 92.660556\u00b0W / 43.065278 ; -92.660556 ( Charles Walter Hart House )",
          []
        ],
        [
          "Charles City",
          [
            "/wiki/Charles_City,_Iowa"
          ]
        ]
      ],
      [
        [
          "9",
          []
        ],
        [
          "Hawkeye Street Underpass",
          [
            "/wiki/Hawkeye_Street_Underpass"
          ]
        ],
        [
          "June 25 , 1998 ( # 98000777 )",
          []
        ],
        [
          "South Hawkeye St. under the railroad line 43\u00b008\u203214\u2033N 93\u00b000\u203234\u2033W / 43.137222\u00b0N 93.009306\u00b0W / 43.137222 ; -93.009306 ( Hawkeye Street Underpass )",
          []
        ],
        [
          "Nora Springs",
          [
            "/wiki/Nora_Springs,_Iowa"
          ]
        ]
      ],
      [
        [
          "10",
          []
        ],
        [
          "Lucius and Maria Clinton Lane House",
          [
            "/wiki/Lucius_and_Maria_Clinton_Lane_House"
          ]
        ],
        [
          "April 24 , 1995 ( # 95000384 )",
          []
        ],
        [
          "2379 Timber Ave. 43\u00b000\u203245\u2033N 92\u00b039\u203215\u2033W / 43.0125\u00b0N 92.654167\u00b0W / 43.0125 ; -92.654167 ( Lucius and Maria Clinton Lane House )",
          []
        ],
        [
          "Charles City",
          [
            "/wiki/Charles_City,_Iowa"
          ]
        ]
      ],
      [
        [
          "11",
          []
        ],
        [
          "Main Street Bridge",
          [
            "/wiki/Main_Street_Bridge_(Charles_City,_Iowa)"
          ]
        ],
        [
          "March 12 , 1999 ( # 99000311 )",
          []
        ],
        [
          "Main St. over the Cedar River 43\u00b003\u203258\u2033N 92\u00b040\u203248\u2033W / 43.066111\u00b0N 92.68\u00b0W / 43.066111 ; -92.68 ( Main Street Bridge )",
          [
            "/wiki/Cedar_River_(Iowa_River)"
          ]
        ],
        [
          "Charles City",
          [
            "/wiki/Charles_City,_Iowa"
          ]
        ]
      ],
      [
        [
          "12",
          []
        ],
        [
          "Marble Rock Bank",
          [
            "/wiki/Marble_Rock_Bank"
          ]
        ],
        [
          "November 10 , 1982 ( # 82000407 )",
          []
        ],
        [
          "313 Bradford St. 42\u00b057\u203255\u2033N 92\u00b052\u203204\u2033W / 42.965278\u00b0N 92.867778\u00b0W / 42.965278 ; -92.867778 ( Marble Rock Bank )",
          []
        ],
        [
          "Marble Rock",
          [
            "/wiki/Marble_Rock,_Iowa"
          ]
        ]
      ],
      [
        [
          "13",
          []
        ],
        [
          "Alvin Miller House",
          [
            "/wiki/Alvin_Miller_House"
          ]
        ],
        [
          "November 16 , 1978 ( # 78001221 )",
          []
        ],
        [
          "1107 Court St. 43\u00b004\u203205\u2033N 92\u00b041\u203204\u2033W / 43.068056\u00b0N 92.684444\u00b0W / 43.068056 ; -92.684444 ( Alvin Miller House )",
          []
        ],
        [
          "Charles City",
          [
            "/wiki/Charles_City,_Iowa"
          ]
        ]
      ],
      [
        [
          "14",
          []
        ],
        [
          "Charles Henry Parr House",
          [
            "/wiki/Charles_Henry_Parr_House"
          ]
        ],
        [
          "January 24 , 1980 ( # 80001451 )",
          []
        ],
        [
          "100 W. Hulin St. 43\u00b004\u203223\u2033N 92\u00b040\u203256\u2033W / 43.073056\u00b0N 92.682222\u00b0W / 43.073056 ; -92.682222 ( Charles Henry Parr House )",
          []
        ],
        [
          "Charles City",
          [
            "/wiki/Charles_City,_Iowa"
          ]
        ]
      ],
      [
        [
          "15",
          []
        ],
        [
          "River Street Bridge",
          [
            "/wiki/River_Street_Bridge_(Marble_Rock,_Iowa)"
          ]
        ],
        [
          "June 25 , 1998 ( # 98000778 )",
          []
        ],
        [
          "River St. over a drainage ditch 42\u00b058\u203200\u2033N 92\u00b052\u203210\u2033W / 42.966667\u00b0N 92.869306\u00b0W / 42.966667 ; -92.869306 ( River Street Bridge )",
          []
        ],
        [
          "Marble Rock",
          [
            "/wiki/Marble_Rock,_Iowa"
          ]
        ]
      ],
      [
        [
          "16",
          []
        ],
        [
          "Rockford Mill",
          [
            "/wiki/Rockford_Mill"
          ]
        ],
        [
          "July 28 , 1983 ( # 83000358 )",
          []
        ],
        [
          "Shell Rock River at 4th and Main St. 43\u00b003\u203202\u2033N 92\u00b056\u203231\u2033W / 43.050556\u00b0N 92.941944\u00b0W / 43.050556 ; -92.941944 ( Rockford Mill )",
          []
        ],
        [
          "Rockford",
          [
            "/wiki/Rockford,_Iowa"
          ]
        ]
      ],
      [
        [
          "17",
          []
        ],
        [
          "Sherman Nursery Company Historic District",
          [
            "/wiki/Sherman_Nursery_Company_Historic_District"
          ]
        ],
        [
          "November 12 , 2014 ( # 14000905 )",
          []
        ],
        [
          "1300 Grove st. 43\u00b003\u203254\u2033N 92\u00b041\u203221\u2033W / 43.065\u00b0N 92.689167\u00b0W / 43.065 ; -92.689167 ( Sherman Nursery Company Historic District )",
          []
        ],
        [
          "Charles City",
          [
            "/wiki/Charles_City,_Iowa"
          ]
        ]
      ],
      [
        [
          "18",
          []
        ],
        [
          "Spotts Round Barn",
          [
            "/wiki/Spotts_Round_Barn"
          ]
        ],
        [
          "June 30 , 1986 ( # 86001430 )",
          []
        ],
        [
          "Iowa Highway 14 43\u00b003\u203233\u2033N 92\u00b043\u203229\u2033W / 43.059056\u00b0N 92.724694\u00b0W / 43.059056 ; -92.724694 ( Spotts Round Barn )",
          [
            "/wiki/Iowa_Highway_14"
          ]
        ],
        [
          "Charles City",
          [
            "/wiki/Charles_City,_Iowa"
          ]
        ]
      ],
      [
        [
          "19",
          []
        ],
        [
          "Tyden Farm No . 6 Farmstead Historic District",
          [
            "/wiki/Tyden_Farm_No._6_Farmstead_Historic_District"
          ]
        ],
        [
          "June 11 , 2009 ( # 09000401 )",
          []
        ],
        [
          "1145 300th St. 42\u00b055\u203223\u2033N 92\u00b059\u203248\u2033W / 42.923056\u00b0N 92.996667\u00b0W / 42.923056 ; -92.996667 ( Tyden Farm No . 6 Farmstead Historic District )",
          []
        ],
        [
          "Dougherty",
          [
            "/wiki/Dougherty,_Iowa"
          ]
        ]
      ],
      [
        [
          "20",
          []
        ],
        [
          "Wildwood Park Historic District",
          [
            "/wiki/Wildwood_Park_Historic_District_(Charles_City,_Iowa)"
          ]
        ],
        [
          "September 25 , 1998 ( # 98001205 )",
          []
        ],
        [
          "1 Wildwood Rd . 43\u00b003\u203246\u2033N 92\u00b041\u203237\u2033W / 43.062778\u00b0N 92.693611\u00b0W / 43.062778 ; -92.693611 ( Wildwood Park Historic District )",
          []
        ],
        [
          "Charles City",
          [
            "/wiki/Charles_City,_Iowa"
          ]
        ]
      ]
    ],
    "section_title": "Current listings",
    "section_text": "",
    "uid": "National_Register_of_Historic_Places_listings_in_Floyd_County,_Iowa_0",
    "intro": "This is a list of the National Register of Historic Places listings in Floyd County, Iowa. This is intended to be a complete list of the properties and districts on the National Register of Historic Places in Floyd County, Iowa, United States. Latitude and longitude coordinates are provided for many National Register properties and districts; these locations may be seen together in a map. There are 20 properties and districts listed on the National Register in the county."
  },
  "List_of_Minority_Leaders_of_the_Minnesota_House_of_Representatives_0": {
    "url": "https://en.wikipedia.org/wiki/List_of_Minority_Leaders_of_the_Minnesota_House_of_Representatives",
    "title": "List of Minority Leaders of the Minnesota House of Representatives",
    "header": [
      [
        "Name",
        []
      ],
      [
        "Took Office",
        []
      ],
      [
        "Left Office",
        []
      ],
      [
        "Party/Caucus",
        []
      ]
    ],
    "data": [
      [
        [
          "Charles L. Halstead",
          []
        ],
        [
          "1945",
          []
        ],
        [
          "1947",
          []
        ],
        [
          "Liberal",
          [
            "/wiki/Liberalism_in_the_United_States"
          ]
        ]
      ],
      [
        [
          "Joseph L Prifrel",
          []
        ],
        [
          "1947",
          []
        ],
        [
          "1949",
          []
        ],
        [
          "Liberal",
          []
        ]
      ],
      [
        [
          "Edwin J. Chilgren",
          [
            "/wiki/Edwin_J._Chilgren"
          ]
        ],
        [
          "1949",
          []
        ],
        [
          "1951",
          []
        ],
        [
          "Liberal",
          []
        ]
      ],
      [
        [
          "Fred A. Cina",
          []
        ],
        [
          "1951",
          []
        ],
        [
          "1955",
          []
        ],
        [
          "Liberal",
          []
        ]
      ],
      [
        [
          "John A. Hartle",
          [
            "/wiki/John_A._Hartle"
          ]
        ],
        [
          "1955",
          []
        ],
        [
          "1957",
          []
        ],
        [
          "Conservative",
          [
            "/wiki/Conservatism_in_the_United_States"
          ]
        ]
      ],
      [
        [
          "Odin E. S. Langen",
          [
            "/wiki/Odin_Langen"
          ]
        ],
        [
          "1957",
          []
        ],
        [
          "1959",
          []
        ],
        [
          "Conservative",
          []
        ]
      ],
      [
        [
          "Lloyd L. Duxbury",
          [
            "/wiki/Lloyd_L._Duxbury"
          ]
        ],
        [
          "1959",
          []
        ],
        [
          "1963",
          []
        ],
        [
          "Conservative",
          []
        ]
      ],
      [
        [
          "Fred A. Cina",
          []
        ],
        [
          "1963",
          []
        ],
        [
          "1969",
          []
        ],
        [
          "Liberal",
          []
        ]
      ],
      [
        [
          "Martin Olav Sabo",
          [
            "/wiki/Martin_Olav_Sabo"
          ]
        ],
        [
          "1969",
          []
        ],
        [
          "1973",
          []
        ],
        [
          "Liberal",
          []
        ]
      ],
      [
        [
          "Aubrey W. Dirlam",
          [
            "/wiki/Aubrey_W._Dirlam"
          ]
        ],
        [
          "1973",
          []
        ],
        [
          "1975",
          []
        ],
        [
          "Republican",
          [
            "/wiki/Republican_Party_of_Minnesota"
          ]
        ]
      ],
      [
        [
          "Henry J. Savelkoul",
          [
            "/wiki/Henry_J._Savelkoul"
          ]
        ],
        [
          "1975",
          []
        ],
        [
          "1979",
          []
        ],
        [
          "Independent-Republican",
          [
            "/wiki/Republican_Party_of_Minnesota"
          ]
        ]
      ],
      [
        [
          "None",
          []
        ],
        [
          "1979",
          []
        ],
        [
          "1980",
          []
        ],
        [
          "",
          []
        ]
      ],
      [
        [
          "Rod Searle",
          [
            "/wiki/Rod_Searle"
          ]
        ],
        [
          "1980",
          []
        ],
        [
          "1981",
          []
        ],
        [
          "Independent-Republican",
          []
        ]
      ],
      [
        [
          "Glen Sherwood",
          [
            "/wiki/Glen_Sherwood"
          ]
        ],
        [
          "1981",
          []
        ],
        [
          "1982",
          []
        ],
        [
          "Independent-Republican",
          []
        ]
      ],
      [
        [
          "David M. Jennings",
          [
            "/wiki/David_M._Jennings"
          ]
        ],
        [
          "1982",
          []
        ],
        [
          "1985",
          []
        ],
        [
          "Independent-Republican",
          []
        ]
      ],
      [
        [
          "Fred Norton",
          [
            "/wiki/Fred_Norton"
          ]
        ],
        [
          "1985",
          []
        ],
        [
          "1987",
          []
        ],
        [
          "Democratic-Farmer-Labor",
          [
            "/wiki/Minnesota_Democratic\u2013Farmer\u2013Labor_Party"
          ]
        ]
      ],
      [
        [
          "William R. Schreiber",
          [
            "/wiki/William_R._Schreiber"
          ]
        ],
        [
          "1987",
          []
        ],
        [
          "1991",
          []
        ],
        [
          "Independent-Republican",
          []
        ]
      ],
      [
        [
          "Terry Dempsey",
          [
            "/wiki/Terry_Dempsey"
          ]
        ],
        [
          "1991",
          []
        ],
        [
          "1993",
          []
        ],
        [
          "Independent-Republican",
          []
        ]
      ],
      [
        [
          "Steve Sviggum",
          [
            "/wiki/Steve_Sviggum"
          ]
        ],
        [
          "1993",
          []
        ],
        [
          "1999",
          []
        ],
        [
          "Independent-Republican/ Republican",
          [
            "/wiki/Republican_Party_of_Minnesota"
          ]
        ]
      ],
      [
        [
          "Tom Pugh",
          [
            "/wiki/Tom_Pugh_(politician)"
          ]
        ],
        [
          "1999",
          []
        ],
        [
          "2003",
          []
        ],
        [
          "Democratic-Farmer-Labor",
          []
        ]
      ]
    ],
    "section_title": "",
    "section_text": "Minority Leader of the Minnesota House of RepresentativesIncumbentKurt Daudtsince January 8 , 2019Term lengthTwo years , no term limitInaugural holderWinslow W. Dunn Minnesota This article is part of a series on thepolitics and government ofMinnesota Constitution Executive Governor : Tim Walz Lieutenant Governor : Peggy Flanagan Secretary of State : Steve Simon State Auditor : Julie Blaha Attorney General : Keith Ellison Cabinet Executive Council Legislature 91st Legislature Senate President : Jeremy Miller Majority Leader : Paul Gazelka Minority Leader : Susan Kent House of Representatives Speaker : Melissa Hortman Majority Leader : Ryan Winkler Minority Leader : Kurt Daudt Judiciary Supreme Court Court of Appeals District Courts Elections Political parties Political party strength Subdivisions Counties Cities Townships Federal representation United States Senate Amy Klobuchar ( DFL ) Tina Smith ( DFL ) United States House of Representatives 1 : Jim Hagedorn ( R ) 2 : Angie Craig ( DFL ) 3 : Dean Phillips ( DFL ) 4 : Betty McCollum ( DFL ) 5 : Ilhan Omar ( DFL ) 6 : Tom Emmer ( R ) 7 : Collin Peterson ( DFL ) 8 : Pete Stauber ( R ) Politics of the United States Politics portal vte This is a list of Minority Leaders of the Minnesota House of Representatives .",
    "uid": "List_of_Minority_Leaders_of_the_Minnesota_House_of_Representatives_0",
    "intro": "This is a list of Minority Leaders of the Minnesota House of Representatives."
  }
}