{
  "Philippine_Basketball_Association_Finals_Most_Valuable_Player_award_0": {
    "url": "https://en.wikipedia.org/wiki/Philippine_Basketball_Association_Finals_Most_Valuable_Player_award",
    "title": "Philippine Basketball Association Finals Most Valuable Player award",
    "header": [
      [
        "Season",
        []
      ],
      [
        "Conference Finals",
        []
      ],
      [
        "Player",
        []
      ],
      [
        "Team",
        []
      ]
    ],
    "data": [
      [
        [
          "1996",
          [
            "/wiki/1996_PBA_season"
          ]
        ],
        [
          "All-Filipino",
          []
        ],
        [
          "Jojo Lastimosa",
          [
            "/wiki/Jojo_Lastimosa"
          ]
        ],
        [
          "Alaska",
          [
            "/wiki/Alaska_Aces_(PBA)"
          ]
        ]
      ],
      [
        [
          "1996",
          [
            "/wiki/1996_PBA_season"
          ]
        ],
        [
          "Commissioner 's",
          []
        ],
        [
          "Bong Hawkins",
          [
            "/wiki/Bong_Hawkins"
          ]
        ],
        [
          "Alaska",
          [
            "/wiki/Alaska_Aces_(PBA)"
          ]
        ]
      ],
      [
        [
          "1996",
          [
            "/wiki/1996_PBA_season"
          ]
        ],
        [
          "Governors '",
          []
        ],
        [
          "Johnny Abarrientos",
          [
            "/wiki/Johnny_Abarrientos"
          ]
        ],
        [
          "Alaska",
          [
            "/wiki/Alaska_Aces_(PBA)"
          ]
        ]
      ],
      [
        [
          "1997",
          [
            "/wiki/1997_PBA_season"
          ]
        ],
        [
          "All-Filipino",
          []
        ],
        [
          "Alvin Patrimonio",
          [
            "/wiki/Alvin_Patrimonio"
          ]
        ],
        [
          "Purefoods",
          [
            "/wiki/Magnolia_Hotshots"
          ]
        ]
      ],
      [
        [
          "1997",
          [
            "/wiki/1997_PBA_season"
          ]
        ],
        [
          "Commissioner 's",
          []
        ],
        [
          "Marlou Aquino",
          [
            "/wiki/Marlou_Aquino"
          ]
        ],
        [
          "Brgy . Ginebra",
          [
            "/wiki/Barangay_Ginebra_San_Miguel"
          ]
        ]
      ],
      [
        [
          "1997",
          [
            "/wiki/1997_PBA_season"
          ]
        ],
        [
          "Governors '",
          []
        ],
        [
          "Johnny Abarrientos",
          [
            "/wiki/Johnny_Abarrientos"
          ]
        ],
        [
          "Alaska",
          [
            "/wiki/Alaska_Aces_(PBA)"
          ]
        ]
      ],
      [
        [
          "1998",
          [
            "/wiki/1998_PBA_season"
          ]
        ],
        [
          "All-Filipino",
          []
        ],
        [
          "Kenneth Duremdes",
          [
            "/wiki/Kenneth_Duremdes"
          ]
        ],
        [
          "Alaska",
          [
            "/wiki/Alaska_Aces_(PBA)"
          ]
        ]
      ],
      [
        [
          "1998",
          [
            "/wiki/1998_PBA_season"
          ]
        ],
        [
          "Commissioner 's",
          []
        ],
        [
          "Kenneth Duremdes",
          [
            "/wiki/Kenneth_Duremdes"
          ]
        ],
        [
          "Alaska",
          [
            "/wiki/Alaska_Aces_(PBA)"
          ]
        ]
      ],
      [
        [
          "1998",
          [
            "/wiki/1998_PBA_season"
          ]
        ],
        [
          "Governors '",
          []
        ],
        [
          "Benjie Paras",
          [
            "/wiki/Benjie_Paras"
          ]
        ],
        [
          "Formula Shell",
          [
            "/wiki/Shell_Turbo_Chargers"
          ]
        ]
      ],
      [
        [
          "1999",
          [
            "/wiki/1999_PBA_season"
          ]
        ],
        [
          "All-Filipino",
          []
        ],
        [
          "Gerry Esplana",
          []
        ],
        [
          "Formula Shell",
          [
            "/wiki/Shell_Turbo_Chargers"
          ]
        ]
      ],
      [
        [
          "1999",
          [
            "/wiki/1999_PBA_season"
          ]
        ],
        [
          "Commissioner 's",
          []
        ],
        [
          "Danny Seigle",
          [
            "/wiki/Danny_Seigle"
          ]
        ],
        [
          "San Miguel",
          [
            "/wiki/San_Miguel_Beermen"
          ]
        ]
      ],
      [
        [
          "1999",
          [
            "/wiki/1999_PBA_season"
          ]
        ],
        [
          "Governors '",
          []
        ],
        [
          "Danny Seigle / Danny Ildefonso",
          [
            "/wiki/Danny_Seigle",
            "/wiki/Danny_Ildefonso"
          ]
        ],
        [
          "San Miguel",
          [
            "/wiki/San_Miguel_Beermen"
          ]
        ]
      ],
      [
        [
          "2000",
          [
            "/wiki/2000_PBA_season"
          ]
        ],
        [
          "All-Filipino",
          []
        ],
        [
          "Poch Juinio",
          [
            "/wiki/Poch_Juinio"
          ]
        ],
        [
          "Alaska",
          [
            "/wiki/Alaska_Aces_(PBA)"
          ]
        ]
      ],
      [
        [
          "2000",
          [
            "/wiki/2000_PBA_season"
          ]
        ],
        [
          "Commissioner 's",
          []
        ],
        [
          "Danny Ildefonso",
          [
            "/wiki/Danny_Ildefonso"
          ]
        ],
        [
          "San Miguel",
          [
            "/wiki/San_Miguel_Beermen"
          ]
        ]
      ],
      [
        [
          "2000",
          [
            "/wiki/2000_PBA_season"
          ]
        ],
        [
          "Governors '",
          []
        ],
        [
          "Danny Seigle",
          [
            "/wiki/Danny_Seigle"
          ]
        ],
        [
          "San Miguel",
          [
            "/wiki/San_Miguel_Beermen"
          ]
        ]
      ],
      [
        [
          "2001",
          [
            "/wiki/2001_PBA_season"
          ]
        ],
        [
          "All-Filipino",
          []
        ],
        [
          "Danny Seigle",
          [
            "/wiki/Danny_Seigle"
          ]
        ],
        [
          "San Miguel",
          [
            "/wiki/San_Miguel_Beermen"
          ]
        ]
      ],
      [
        [
          "2001",
          [
            "/wiki/2001_PBA_season"
          ]
        ],
        [
          "Commissioner 's",
          []
        ],
        [
          "Davonn Harp",
          [
            "/wiki/Davonn_Harp"
          ]
        ],
        [
          "Red Bull",
          [
            "/wiki/Barako_Bull_Energy_Boosters"
          ]
        ]
      ],
      [
        [
          "2001",
          [
            "/wiki/2001_PBA_season"
          ]
        ],
        [
          "Governors '",
          []
        ],
        [
          "Gerard Francisco",
          []
        ],
        [
          "Sta . Lucia",
          [
            "/wiki/Sta._Lucia_Realtors"
          ]
        ]
      ],
      [
        [
          "2002",
          [
            "/wiki/2002_PBA_season"
          ]
        ],
        [
          "Governors '",
          []
        ],
        [
          "Kerby Raymundo",
          [
            "/wiki/Kerby_Raymundo"
          ]
        ],
        [
          "Purefoods",
          [
            "/wiki/Magnolia_Hotshots"
          ]
        ]
      ],
      [
        [
          "2002",
          [
            "/wiki/2002_PBA_season"
          ]
        ],
        [
          "Commissioner 's",
          []
        ],
        [
          "Willie Miller",
          [
            "/wiki/Willie_Miller_(basketball)"
          ]
        ],
        [
          "Red Bull",
          [
            "/wiki/Barako_Bull_Energy_Boosters"
          ]
        ]
      ]
    ],
    "section_title": "List of awardees",
    "section_text": "Philippine Basketball Association awards and honors Championship Jun Bernardino Trophy Governors ' Cup Commissioner 's Cup Individual annual awards All-Star Game MVP Mr. Quality Minutes* Baby Dalupan Coach of the Year* Defensive Player of the Year* Samboy Lim Sportsmanship award Bogs Adornado Comeback Player of the Year* Most Improved Player Most Valuable Player Rookie of the Year Danny Floro Executive of the Year* Scoring Champion* Order of Merit* Individual conference awards Bobby Parks Best Import of the Conference Finals MVP Best Player of the Conference Honors Mythical Team All-Defensive Team All-Rookie Team* Career Achievement Awards 10,000 point club * Awards given by the PBA Press Corps vte",
    "uid": "Philippine_Basketball_Association_Finals_Most_Valuable_Player_award_0",
    "intro": "The Philippine Basketball Association Finals Most Valuable Player award is an award given to the player who makes an outstanding performance during a conference finals. Usually, the award is given to a player who is a member of the champion team in a conference and is given always at the end of the finals series. Listed here are the PBA Finals MVP Awardees starting from 1996 up to the present."
  }
}