{
  "National_Register_of_Historic_Places_listings_in_Brown_County,_Ohio_0": {
    "url": "https://en.wikipedia.org/wiki/National_Register_of_Historic_Places_listings_in_Brown_County,_Ohio",
    "title": "National Register of Historic Places listings in Brown County, Ohio",
    "header": [
      [
        "",
        []
      ],
      [
        "Name on the Register",
        []
      ],
      [
        "Date listed",
        []
      ],
      [
        "Location",
        []
      ],
      [
        "City or town",
        []
      ]
    ],
    "data": [
      [
        [
          "1",
          []
        ],
        [
          "Aberdeen Mound",
          [
            "/wiki/Aberdeen_Mound"
          ]
        ],
        [
          "July 15 , 1974 ( # 74001401 )",
          []
        ],
        [
          "Western side of State Route 41 , north of Aberdeen 38\u00b040\u203204\u2033N 83\u00b045\u203247\u2033W / 38.667778\u00b0N 83.763056\u00b0W / 38.667778 ; -83.763056 ( Aberdeen Mound )",
          [
            "/wiki/Ohio_State_Route_41"
          ]
        ],
        [
          "Huntington Township",
          [
            "/wiki/Huntington_Township,_Brown_County,_Ohio"
          ]
        ]
      ],
      [
        [
          "2",
          []
        ],
        [
          "Bailey-Thompson House",
          [
            "/wiki/Bailey-Thompson_House"
          ]
        ],
        [
          "November 7 , 1976 ( # 76001373 )",
          []
        ],
        [
          "112 N. Water St. 38\u00b052\u203200\u2033N 83\u00b054\u203205\u2033W / 38.866667\u00b0N 83.901389\u00b0W / 38.866667 ; -83.901389 ( Bailey-Thompson House )",
          []
        ],
        [
          "Georgetown",
          [
            "/wiki/Georgetown,_Ohio"
          ]
        ]
      ],
      [
        [
          "3",
          []
        ],
        [
          "Dr. Philip Buckner House and Barn",
          []
        ],
        [
          "March 30 , 1978 ( # 78002010 )",
          []
        ],
        [
          "610 S. Main St. 38\u00b051\u203239\u2033N 83\u00b054\u203218\u2033W / 38.860833\u00b0N 83.905\u00b0W / 38.860833 ; -83.905 ( Dr. Philip Buckner House and Barn )",
          []
        ],
        [
          "Georgetown",
          [
            "/wiki/Georgetown,_Ohio"
          ]
        ]
      ],
      [
        [
          "4",
          []
        ],
        [
          "Burgett House and Barn",
          []
        ],
        [
          "November 14 , 1978 ( # 78002013 )",
          []
        ],
        [
          "West of Ripley on White Rd . 38\u00b046\u203241\u2033N 83\u00b053\u203244\u2033W / 38.778056\u00b0N 83.895556\u00b0W / 38.778056 ; -83.895556 ( Burgett House and Barn )",
          []
        ],
        [
          "Union Township",
          [
            "/wiki/Union_Township,_Brown_County,_Ohio"
          ]
        ]
      ],
      [
        [
          "5",
          []
        ],
        [
          "Eagle Creek Covered Bridge",
          [
            "/wiki/Eagle_Creek_Covered_Bridge"
          ]
        ],
        [
          "December 6 , 1975 ( # 75001324 )",
          []
        ],
        [
          "3 mi ( 4.8 km ) south of Decatur on State Route 763 38\u00b040\u203224\u2033N 83\u00b044\u203257\u2033W / 38.673333\u00b0N 83.749167\u00b0W / 38.673333 ; -83.749167 ( Eagle Creek Covered Bridge )",
          [
            "/wiki/Ohio_State_Route_763"
          ]
        ],
        [
          "Byrd Township",
          [
            "/wiki/Byrd_Township,_Brown_County,_Ohio"
          ]
        ]
      ],
      [
        [
          "6",
          []
        ],
        [
          "Eagle Township Works I Mound",
          []
        ],
        [
          "September 10 , 1971 ( # 71000630 )",
          []
        ],
        [
          "0.5 miles ( 0.80 km ) north of the junction of Fincastle and Mound Rds. , east of Fincastle 38\u00b059\u203215\u2033N 83\u00b041\u203247\u2033W / 38.987500\u00b0N 83.696389\u00b0W / 38.987500 ; -83.696389 ( Eagle Township Works I Mound )",
          []
        ],
        [
          "Eagle Township",
          [
            "/wiki/Eagle_Township,_Brown_County,_Ohio"
          ]
        ]
      ],
      [
        [
          "7",
          []
        ],
        [
          "Farmers Branch , State Bank of Ohio",
          []
        ],
        [
          "April 21 , 1983 ( # 83001946 )",
          []
        ],
        [
          "14 Front St. 38\u00b044\u203244\u2033N 83\u00b050\u203248\u2033W / 38.745556\u00b0N 83.846667\u00b0W / 38.745556 ; -83.846667 ( Farmers Branch , State Bank of Ohio )",
          []
        ],
        [
          "Ripley",
          [
            "/wiki/Ripley,_Ohio"
          ]
        ]
      ],
      [
        [
          "8",
          []
        ],
        [
          "Georgetown Historic District",
          [
            "/wiki/Georgetown_Historic_District_(Georgetown,_Ohio)"
          ]
        ],
        [
          "May 23 , 1978 ( # 78002011 )",
          []
        ],
        [
          "Roughly bounded by Water Alley , Pleasant , Short , and State Sts . 38\u00b051\u203258\u2033N 83\u00b054\u203215\u2033W / 38.866043\u00b0N 83.904068\u00b0W / 38.866043 ; -83.904068 ( Georgetown Historic District )",
          []
        ],
        [
          "Georgetown",
          [
            "/wiki/Georgetown,_Ohio"
          ]
        ]
      ],
      [
        [
          "9",
          []
        ],
        [
          "Georgetown Public School",
          []
        ],
        [
          "January 25 , 1991 ( # 90002215 )",
          []
        ],
        [
          "307 W. Grant Ave. 38\u00b051\u203256\u2033N 83\u00b054\u203226\u2033W / 38.865556\u00b0N 83.907222\u00b0W / 38.865556 ; -83.907222 ( Georgetown Public School )",
          []
        ],
        [
          "Georgetown",
          [
            "/wiki/Georgetown,_Ohio"
          ]
        ]
      ],
      [
        [
          "10",
          []
        ],
        [
          "Ulysses S. Grant Boyhood Home",
          [
            "/wiki/Grant_Boyhood_Home"
          ]
        ],
        [
          "October 8 , 1976 ( # 76001374 )",
          []
        ],
        [
          "219 E. Grant Ave. 38\u00b051\u203257\u2033N 83\u00b054\u203233\u2033W / 38.865972\u00b0N 83.909144\u00b0W / 38.865972 ; -83.909144 ( Ulysses S. Grant Boyhood Home )",
          []
        ],
        [
          "Georgetown",
          [
            "/wiki/Georgetown,_Ohio"
          ]
        ]
      ],
      [
        [
          "11",
          []
        ],
        [
          "Higginsport School",
          []
        ],
        [
          "January 14 , 2000 ( # 99001685 )",
          []
        ],
        [
          "Junction of Jackson and Gaines Sts . 38\u00b047\u203227\u2033N 83\u00b058\u203206\u2033W / 38.790833\u00b0N 83.968333\u00b0W / 38.790833 ; -83.968333 ( Higginsport School )",
          []
        ],
        [
          "Higginsport",
          [
            "/wiki/Higginsport,_Ohio"
          ]
        ]
      ],
      [
        [
          "12",
          []
        ],
        [
          "Henry Martin Farm",
          [
            "/wiki/Henry_Martin_Farm"
          ]
        ],
        [
          "August 15 , 1975 ( # 75001326 )",
          []
        ],
        [
          "2 mi ( 3.2 km ) north of Ripley on U.S. Route 68 38\u00b046\u203243\u2033N 83\u00b051\u203224\u2033W / 38.778611\u00b0N 83.856667\u00b0W / 38.778611 ; -83.856667 ( Henry Martin Farm )",
          [
            "/wiki/U.S._Route_68"
          ]
        ],
        [
          "Union Township",
          [
            "/wiki/Union_Township,_Brown_County,_Ohio"
          ]
        ]
      ],
      [
        [
          "13",
          []
        ],
        [
          "Maysville-Aberdeen Bridge",
          [
            "/wiki/Simon_Kenton_Memorial_Bridge"
          ]
        ],
        [
          "June 30 , 1983 ( # 83002823 )",
          []
        ],
        [
          "Spans the Ohio River between Aberdeen and Maysville , Kentucky 38\u00b039\u203219\u2033N 83\u00b045\u203227\u2033W / 38.655278\u00b0N 83.7575\u00b0W / 38.655278 ; -83.7575 ( Maysville-Aberdeen Bridge )",
          [
            "/wiki/Ohio_River"
          ]
        ],
        [
          "Aberdeen",
          [
            "/wiki/Aberdeen,_Ohio"
          ]
        ]
      ],
      [
        [
          "14",
          []
        ],
        [
          "Mount Orab Station",
          []
        ],
        [
          "October 14 , 1975 ( # 75001325 )",
          []
        ],
        [
          "N. Mill and Front Sts . 39\u00b001\u203246\u2033N 83\u00b055\u203201\u2033W / 39.029444\u00b0N 83.916944\u00b0W / 39.029444 ; -83.916944 ( Mount Orab Station )",
          []
        ],
        [
          "Mount Orab",
          [
            "/wiki/Mount_Orab,_Ohio"
          ]
        ]
      ],
      [
        [
          "15",
          []
        ],
        [
          "Daniel Murphy Log House",
          []
        ],
        [
          "June 17 , 1982 ( # 82003548 )",
          []
        ],
        [
          "Anderson State Rd. , southwest of St. Martin 39\u00b012\u203219\u2033N 83\u00b054\u203224\u2033W / 39.205278\u00b0N 83.906667\u00b0W / 39.205278 ; -83.906667 ( Daniel Murphy Log House )",
          []
        ],
        [
          "Perry Township",
          [
            "/wiki/Perry_Township,_Brown_County,_Ohio"
          ]
        ]
      ],
      [
        [
          "16",
          []
        ],
        [
          "John P. Parker House",
          [
            "/wiki/John_P._Parker_House"
          ]
        ],
        [
          "January 7 , 1980 ( # 80002944 )",
          []
        ],
        [
          "300 Front St. 38\u00b045\u203200\u2033N 83\u00b050\u203258\u2033W / 38.750000\u00b0N 83.849556\u00b0W / 38.750000 ; -83.849556 ( John P. Parker House )",
          []
        ],
        [
          "Ripley",
          [
            "/wiki/Ripley,_Ohio"
          ]
        ]
      ],
      [
        [
          "17",
          []
        ],
        [
          "Pisgah Christian Church",
          [
            "/wiki/Pisgah_Christian_Church"
          ]
        ],
        [
          "November 21 , 1980 ( # 80002945 )",
          []
        ],
        [
          "Northwest of Ripley on Pisgah Ridge Rd . 38\u00b046\u203257\u2033N 83\u00b052\u203248\u2033W / 38.7825\u00b0N 83.88\u00b0W / 38.7825 ; -83.88 ( Pisgah Christian Church )",
          []
        ],
        [
          "Union Township",
          [
            "/wiki/Union_Township,_Brown_County,_Ohio"
          ]
        ]
      ],
      [
        [
          "18",
          []
        ],
        [
          "John Rankin House",
          [
            "/wiki/John_Rankin_House_(Ripley,_Ohio)"
          ]
        ],
        [
          "November 10 , 1970 ( # 70000485 )",
          []
        ],
        [
          "East of downtown Ripley on Liberty Hill 38\u00b045\u203202\u2033N 83\u00b050\u203236\u2033W / 38.750556\u00b0N 83.843333\u00b0W / 38.750556 ; -83.843333 ( John Rankin House )",
          []
        ],
        [
          "Ripley",
          [
            "/wiki/Ripley,_Ohio"
          ]
        ]
      ],
      [
        [
          "19",
          []
        ],
        [
          "Red Oak Presbyterian Church",
          [
            "/wiki/Red_Oak_Presbyterian_Church"
          ]
        ],
        [
          "June 17 , 1982 ( # 82003547 )",
          []
        ],
        [
          "Cemetery Rd. , north of Ripley 38\u00b047\u203244\u2033N 83\u00b047\u203244\u2033W / 38.795556\u00b0N 83.795556\u00b0W / 38.795556 ; -83.795556 ( Red Oak Presbyterian Church )",
          []
        ],
        [
          "Union Township",
          [
            "/wiki/Union_Township,_Brown_County,_Ohio"
          ]
        ]
      ],
      [
        [
          "20",
          []
        ],
        [
          "Ripley Historic District",
          []
        ],
        [
          "March 7 , 1985 ( # 85000552 )",
          []
        ],
        [
          "Roughly bounded by Main , Front , 2nd , 3rd and 4th Sts . 38\u00b044\u203245\u2033N 83\u00b050\u203241\u2033W / 38.74585\u00b0N 83.844652\u00b0W / 38.74585 ; -83.844652 ( Ripley Historic District )",
          []
        ],
        [
          "Ripley",
          [
            "/wiki/Ripley,_Ohio"
          ]
        ]
      ]
    ],
    "section_title": "Current listings",
    "section_text": "",
    "uid": "National_Register_of_Historic_Places_listings_in_Brown_County,_Ohio_0",
    "intro": "This is a list of the National Register of Historic Places listings in Brown County, Ohio. This is intended to be a complete list of the properties and districts on the National Register of Historic Places in Brown County, Ohio, United States. The locations of National Register properties and districts for which the latitude and longitude coordinates are included below, may be seen in a Google map. There are 26 properties and districts listed on the National Register in the county, including 3 National Historic Landmarks."
  },
  "List_of_FIS_Nordic_World_Ski_Championships_medalists_in_ski_jumping_2": {
    "url": "https://en.wikipedia.org/wiki/List_of_FIS_Nordic_World_Ski_Championships_medalists_in_ski_jumping",
    "title": "List of FIS Nordic World Ski Championships medalists in ski jumping",
    "header": [
      [
        "Edition",
        []
      ],
      [
        "Place",
        []
      ],
      [
        "Date",
        []
      ],
      [
        "Hill",
        []
      ],
      [
        "Gold",
        []
      ],
      [
        "Silver",
        []
      ],
      [
        "Bronze",
        []
      ]
    ],
    "data": [
      [
        [
          "1962",
          [
            "/wiki/FIS_Nordic_World_Ski_Championships_1962"
          ]
        ],
        [
          "Zakopane",
          [
            "/wiki/Zakopane"
          ]
        ],
        [
          "21 February",
          []
        ],
        [
          "K65",
          []
        ],
        [
          "Toralf Engan",
          [
            "/wiki/Toralf_Engan"
          ]
        ],
        [
          "Antoni \u0141aciak",
          [
            "/wiki/Antoni_\u0141aciak"
          ]
        ],
        [
          "Helmut Recknagel",
          [
            "/wiki/Helmut_Recknagel"
          ]
        ]
      ],
      [
        [
          "1966",
          [
            "/wiki/FIS_Nordic_World_Ski_Championships_1966"
          ]
        ],
        [
          "Oslo",
          [
            "/wiki/Oslo"
          ]
        ],
        [
          "23 February",
          []
        ],
        [
          "K75",
          []
        ],
        [
          "Bj\u00f8rn Wirkola",
          [
            "/wiki/Bj\u00f8rn_Wirkola"
          ]
        ],
        [
          "Dieter Neuendorf",
          [
            "/wiki/Dieter_Neuendorf"
          ]
        ],
        [
          "Paavo Lukkariniemi",
          [
            "/wiki/Paavo_Lukkariniemi"
          ]
        ]
      ],
      [
        [
          "1970",
          [
            "/wiki/FIS_Nordic_World_Ski_Championships_1970"
          ]
        ],
        [
          "Vysok\u00e9 Tatry",
          [
            "/wiki/Vysok\u00e9_Tatry"
          ]
        ],
        [
          "14 February",
          []
        ],
        [
          "K80",
          []
        ],
        [
          "Gariy Napalkov",
          [
            "/wiki/Gariy_Napalkov"
          ]
        ],
        [
          "Yukio Kasaya",
          [
            "/wiki/Yukio_Kasaya"
          ]
        ],
        [
          "Lars Grini",
          [
            "/wiki/Lars_Grini"
          ]
        ]
      ],
      [
        [
          "1974",
          [
            "/wiki/FIS_Nordic_World_Ski_Championships_1974"
          ]
        ],
        [
          "Falun",
          [
            "/wiki/Falun"
          ]
        ],
        [
          "16 February",
          []
        ],
        [
          "K85",
          []
        ],
        [
          "Hans-Georg Aschenbach",
          [
            "/wiki/Hans-Georg_Aschenbach"
          ]
        ],
        [
          "Dietrich Kampf",
          [
            "/wiki/Dietrich_Kampf"
          ]
        ],
        [
          "Aleksey Borovitin",
          [
            "/wiki/Aleksey_Borovitin"
          ]
        ]
      ],
      [
        [
          "1978",
          [
            "/wiki/FIS_Nordic_World_Ski_Championships_1978"
          ]
        ],
        [
          "Lahti",
          [
            "/wiki/Lahti"
          ]
        ],
        [
          "18 February",
          []
        ],
        [
          "K85",
          []
        ],
        [
          "Matthias Buse",
          [
            "/wiki/Matthias_Buse"
          ]
        ],
        [
          "Henry Gla\u00df",
          [
            "/wiki/Henry_Gla\u00df"
          ]
        ],
        [
          "Aleksey Borovitin",
          [
            "/wiki/Aleksey_Borovitin"
          ]
        ]
      ],
      [
        [
          "1982",
          [
            "/wiki/FIS_Nordic_World_Ski_Championships_1982"
          ]
        ],
        [
          "Oslo",
          [
            "/wiki/Oslo"
          ]
        ],
        [
          "21 February",
          []
        ],
        [
          "K85",
          []
        ],
        [
          "Armin Kogler",
          [
            "/wiki/Armin_Kogler"
          ]
        ],
        [
          "Jari Puikkonen",
          [
            "/wiki/Jari_Puikkonen"
          ]
        ],
        [
          "Ole Bremseth",
          [
            "/wiki/Ole_Bremseth"
          ]
        ]
      ],
      [
        [
          "1985",
          [
            "/wiki/FIS_Nordic_World_Ski_Championships_1985"
          ]
        ],
        [
          "Seefeld",
          [
            "/wiki/Seefeld_in_Tirol"
          ]
        ],
        [
          "26 January",
          []
        ],
        [
          "K90",
          []
        ],
        [
          "Jens Wei\u00dfflog",
          [
            "/wiki/Jens_Wei\u00dfflog"
          ]
        ],
        [
          "Andreas Felder",
          [
            "/wiki/Andreas_Felder"
          ]
        ],
        [
          "Per Bergerud",
          [
            "/wiki/Per_Bergerud"
          ]
        ]
      ],
      [
        [
          "1987",
          [
            "/wiki/FIS_Nordic_World_Ski_Championships_1987"
          ]
        ],
        [
          "Oberstdorf",
          [
            "/wiki/Oberstdorf"
          ]
        ],
        [
          "20 February",
          []
        ],
        [
          "K90",
          []
        ],
        [
          "Ji\u0159\u00ed Parma",
          [
            "/wiki/Ji\u0159\u00ed_Parma"
          ]
        ],
        [
          "Matti Nyk\u00e4nen",
          [
            "/wiki/Matti_Nyk\u00e4nen"
          ]
        ],
        [
          "Vegard Opaas",
          [
            "/wiki/Vegard_Opaas"
          ]
        ]
      ],
      [
        [
          "1989",
          [
            "/wiki/FIS_Nordic_World_Ski_Championships_1989"
          ]
        ],
        [
          "Lahti",
          [
            "/wiki/Lahti"
          ]
        ],
        [
          "26 February",
          []
        ],
        [
          "K90",
          []
        ],
        [
          "Jens Wei\u00dfflog",
          [
            "/wiki/Jens_Wei\u00dfflog"
          ]
        ],
        [
          "Ari-Pekka Nikkola",
          [
            "/wiki/Ari-Pekka_Nikkola"
          ]
        ],
        [
          "Heinz Kuttin",
          [
            "/wiki/Heinz_Kuttin"
          ]
        ]
      ],
      [
        [
          "1991",
          [
            "/wiki/FIS_Nordic_World_Ski_Championships_1991"
          ]
        ],
        [
          "Val di Fiemme",
          [
            "/wiki/Fiemme_Valley"
          ]
        ],
        [
          "16 February",
          []
        ],
        [
          "K90",
          []
        ],
        [
          "Heinz Kuttin",
          [
            "/wiki/Heinz_Kuttin"
          ]
        ],
        [
          "Kent Johanssen",
          [
            "/wiki/Kent_Johanssen"
          ]
        ],
        [
          "Ari-Pekka Nikkola",
          [
            "/wiki/Ari-Pekka_Nikkola"
          ]
        ]
      ],
      [
        [
          "1993",
          [
            "/wiki/FIS_Nordic_World_Ski_Championships_1993"
          ]
        ],
        [
          "Falun",
          [
            "/wiki/Falun"
          ]
        ],
        [
          "27 February",
          []
        ],
        [
          "K90",
          []
        ],
        [
          "Masahiko Harada",
          [
            "/wiki/Masahiko_Harada"
          ]
        ],
        [
          "Andreas Goldberger",
          [
            "/wiki/Andreas_Goldberger"
          ]
        ],
        [
          "Jaroslav Sakala",
          [
            "/wiki/Jaroslav_Sakala"
          ]
        ]
      ],
      [
        [
          "1995",
          [
            "/wiki/FIS_Nordic_World_Ski_Championships_1995"
          ]
        ],
        [
          "Thunder Bay",
          [
            "/wiki/Thunder_Bay"
          ]
        ],
        [
          "12 March",
          []
        ],
        [
          "K90",
          []
        ],
        [
          "Takanobu Okabe",
          [
            "/wiki/Takanobu_Okabe"
          ]
        ],
        [
          "Hiroya Sait\u014d",
          [
            "/wiki/Hiroya_Sait\u014d"
          ]
        ],
        [
          "Mika Laitinen",
          [
            "/wiki/Mika_Laitinen"
          ]
        ]
      ],
      [
        [
          "1997",
          [
            "/wiki/FIS_Nordic_World_Ski_Championships_1997"
          ]
        ],
        [
          "Trondheim",
          [
            "/wiki/Trondheim"
          ]
        ],
        [
          "22 February",
          []
        ],
        [
          "K90",
          []
        ],
        [
          "Janne Ahonen",
          [
            "/wiki/Janne_Ahonen"
          ]
        ],
        [
          "Masahiko Harada",
          [
            "/wiki/Masahiko_Harada"
          ]
        ],
        [
          "Andreas Goldberger",
          [
            "/wiki/Andreas_Goldberger"
          ]
        ]
      ],
      [
        [
          "1999",
          [
            "/wiki/FIS_Nordic_World_Ski_Championships_1999"
          ]
        ],
        [
          "Ramsau",
          [
            "/wiki/Ramsau_am_Dachstein"
          ]
        ],
        [
          "26 February",
          []
        ],
        [
          "K90",
          []
        ],
        [
          "Kazuyoshi Funaki",
          [
            "/wiki/Kazuyoshi_Funaki"
          ]
        ],
        [
          "Hideharu Miyahira",
          []
        ],
        [
          "Masahiko Harada",
          [
            "/wiki/Masahiko_Harada"
          ]
        ]
      ],
      [
        [
          "2001",
          [
            "/wiki/FIS_Nordic_World_Ski_Championships_2001"
          ]
        ],
        [
          "Lahti",
          [
            "/wiki/Lahti"
          ]
        ],
        [
          "23 February",
          []
        ],
        [
          "K90",
          []
        ],
        [
          "Adam Ma\u0142ysz",
          [
            "/wiki/Adam_Ma\u0142ysz"
          ]
        ],
        [
          "Martin Schmitt",
          [
            "/wiki/Martin_Schmitt"
          ]
        ],
        [
          "Martin H\u00f6llwarth",
          [
            "/wiki/Martin_H\u00f6llwarth"
          ]
        ]
      ],
      [
        [
          "2003",
          [
            "/wiki/FIS_Nordic_World_Ski_Championships_2003"
          ]
        ],
        [
          "Val di Fiemme",
          [
            "/wiki/Fiemme_Valley"
          ]
        ],
        [
          "28 February",
          []
        ],
        [
          "K95",
          []
        ],
        [
          "Adam Ma\u0142ysz",
          [
            "/wiki/Adam_Ma\u0142ysz"
          ]
        ],
        [
          "Tommy Ingebrigtsen",
          [
            "/wiki/Tommy_Ingebrigtsen"
          ]
        ],
        [
          "Noriaki Kasai",
          [
            "/wiki/Noriaki_Kasai"
          ]
        ]
      ],
      [
        [
          "2005",
          [
            "/wiki/FIS_Nordic_World_Ski_Championships_2005"
          ]
        ],
        [
          "Oberstdorf",
          [
            "/wiki/Oberstdorf"
          ]
        ],
        [
          "19 February",
          []
        ],
        [
          "HS100",
          []
        ],
        [
          "Rok Benkovi\u010d",
          [
            "/wiki/Rok_Benkovi\u010d"
          ]
        ],
        [
          "Jakub Janda",
          [
            "/wiki/Jakub_Janda"
          ]
        ],
        [
          "Janne Ahonen",
          [
            "/wiki/Janne_Ahonen"
          ]
        ]
      ],
      [
        [
          "2007",
          [
            "/wiki/Ski_jumping_at_the_FIS_Nordic_World_Ski_Championships_2007"
          ]
        ],
        [
          "Sapporo",
          [
            "/wiki/Sapporo"
          ]
        ],
        [
          "3 March",
          []
        ],
        [
          "HS100",
          []
        ],
        [
          "Adam Ma\u0142ysz ( 3 )",
          [
            "/wiki/Adam_Ma\u0142ysz"
          ]
        ],
        [
          "Simon Ammann",
          [
            "/wiki/Simon_Ammann"
          ]
        ],
        [
          "Thomas Morgenstern",
          [
            "/wiki/Thomas_Morgenstern"
          ]
        ]
      ],
      [
        [
          "2009",
          [
            "/wiki/Ski_jumping_at_the_FIS_Nordic_World_Ski_Championships_2009"
          ]
        ],
        [
          "Liberec",
          [
            "/wiki/Liberec"
          ]
        ],
        [
          "21 February",
          []
        ],
        [
          "HS100",
          []
        ],
        [
          "Wolfgang Loitzl",
          [
            "/wiki/Wolfgang_Loitzl"
          ]
        ],
        [
          "Gregor Schlierenzauer",
          [
            "/wiki/Gregor_Schlierenzauer"
          ]
        ],
        [
          "Simon Ammann",
          [
            "/wiki/Simon_Ammann"
          ]
        ]
      ],
      [
        [
          "2011",
          [
            "/wiki/FIS_Nordic_World_Ski_Championships_2011_\u2013_Men's_individual_normal_hill"
          ]
        ],
        [
          "Oslo",
          [
            "/wiki/Oslo"
          ]
        ],
        [
          "26 February",
          []
        ],
        [
          "HS106",
          []
        ],
        [
          "Thomas Morgenstern",
          [
            "/wiki/Thomas_Morgenstern"
          ]
        ],
        [
          "Andreas Kofler",
          [
            "/wiki/Andreas_Kofler"
          ]
        ],
        [
          "Adam Malysz",
          [
            "/wiki/Adam_Ma\u0142ysz"
          ]
        ]
      ]
    ],
    "section_title": "Men -- Normal hill individual",
    "section_text": "Debuted : 1962 .",
    "uid": "List_of_FIS_Nordic_World_Ski_Championships_medalists_in_ski_jumping_2",
    "intro": "This is a list of medalists from the FIS Nordic World Ski Championships in ski jumping."
  },
  "List_of_Vice_Presidents_of_the_United_States_by_other_offices_held_12": {
    "url": "https://en.wikipedia.org/wiki/List_of_vice_presidents_of_the_United_States_by_other_offices_held",
    "title": "List of vice presidents of the United States by other offices held",
    "header": [
      [
        "Vice President",
        []
      ],
      [
        "Office and jurisdiction",
        []
      ],
      [
        "Year",
        []
      ],
      [
        "Notes",
        []
      ]
    ],
    "data": [
      [
        [
          "John Adams",
          [
            "/wiki/John_Adams"
          ]
        ],
        [
          "President of the United States",
          [
            "/wiki/President_of_the_United_States"
          ]
        ],
        [
          "1800",
          [
            "/wiki/1800_United_States_presidential_election"
          ]
        ],
        [
          "Lost re-election to Thomas Jefferson",
          [
            "/wiki/Thomas_Jefferson"
          ]
        ]
      ],
      [
        [
          "Thomas Jefferson",
          [
            "/wiki/Thomas_Jefferson"
          ]
        ],
        [
          "President of the United States",
          [
            "/wiki/President_of_the_United_States"
          ]
        ],
        [
          "1796",
          [
            "/wiki/1796_United_States_presidential_election"
          ]
        ],
        [
          "Lost to John Adams . Won in 1800 and in 1804",
          [
            "/wiki/John_Adams",
            "/wiki/1800_United_States_presidential_election",
            "/wiki/1804_United_States_presidential_election"
          ]
        ]
      ],
      [
        [
          "Aaron Burr",
          [
            "/wiki/Aaron_Burr"
          ]
        ],
        [
          "Governor of New York",
          [
            "/wiki/Governor_of_New_York"
          ]
        ],
        [
          "1804",
          [
            "/wiki/1804_New_York_gubernatorial_election"
          ]
        ],
        [
          "Lost to Morgan Lewis",
          [
            "/wiki/Morgan_Lewis_(governor)"
          ]
        ]
      ],
      [
        [
          "Elbridge Gerry",
          [
            "/wiki/Elbridge_Gerry"
          ]
        ],
        [
          "Governor of Massachusetts",
          [
            "/wiki/Governor_of_Massachusetts"
          ]
        ],
        [
          "1788 1800 1801 1802 1803 1812",
          []
        ],
        [
          "Lost to John Hancock in 1788 and Caleb Strong in 1800 , 1801 , 1802 , 1803 , and 1812 . Won in 1810 and 1811",
          [
            "/wiki/John_Hancock",
            "/wiki/Caleb_Strong"
          ]
        ]
      ],
      [
        [
          "Daniel D. Tompkins",
          [
            "/wiki/Daniel_D._Tompkins"
          ]
        ],
        [
          "Governor of New York",
          [
            "/wiki/Governor_of_New_York"
          ]
        ],
        [
          "1820",
          [
            "/wiki/1820_New_York_gubernatorial_election"
          ]
        ],
        [
          "Lost to DeWitt Clinton . Won in 1807 , 1810 , 1813 , and 1816",
          [
            "/wiki/DeWitt_Clinton"
          ]
        ]
      ],
      [
        [
          "Martin Van Buren",
          [
            "/wiki/Martin_Van_Buren"
          ]
        ],
        [
          "President of the United States",
          [
            "/wiki/President_of_the_United_States"
          ]
        ],
        [
          "1840 1848",
          [
            "/wiki/1840_United_States_presidential_election",
            "/wiki/1848_United_States_presidential_election"
          ]
        ],
        [
          "Lost re-election to William Henry Harrison in 1840 . Ran on Free Soil Ticket 1848 ; came in third place behind Zachary Taylor and Lewis Cass",
          [
            "/wiki/William_Henry_Harrison",
            "/wiki/1848_United_States_presidential_election",
            "/wiki/Zachary_Taylor",
            "/wiki/Lewis_Cass"
          ]
        ]
      ],
      [
        [
          "Martin Van Buren",
          [
            "/wiki/Martin_Van_Buren"
          ]
        ],
        [
          "Democratic nomination for President of the United States",
          [
            "/wiki/List_of_United_States_Democratic_Party_presidential_tickets"
          ]
        ],
        [
          "1844",
          [
            "/wiki/1844_United_States_presidential_election"
          ]
        ],
        [
          "Placed in distant third behind James K. Polk and Lewis Cass",
          [
            "/wiki/James_K._Polk",
            "/wiki/Lewis_Cass"
          ]
        ]
      ],
      [
        [
          "Richard Mentor Johnson",
          [
            "/wiki/Richard_Mentor_Johnson"
          ]
        ],
        [
          "United States Senator from Kentucky",
          [
            "/wiki/United_States_Senate"
          ]
        ],
        [
          "1842",
          []
        ],
        [
          "Lost to John J. Crittenden",
          [
            "/wiki/John_J._Crittenden"
          ]
        ]
      ],
      [
        [
          "Richard Mentor Johnson",
          [
            "/wiki/Richard_Mentor_Johnson"
          ]
        ],
        [
          "Democratic nomination for President of the United States",
          [
            "/wiki/List_of_United_States_Democratic_Party_presidential_tickets"
          ]
        ],
        [
          "1844",
          [
            "/wiki/1844_United_States_presidential_election"
          ]
        ],
        [
          "Lost to James K. Polk",
          [
            "/wiki/James_K._Polk"
          ]
        ]
      ],
      [
        [
          "George M. Dallas",
          [
            "/wiki/George_M._Dallas"
          ]
        ],
        [
          "Democratic nomination for President of the United States",
          [
            "/wiki/List_of_United_States_Democratic_Party_presidential_tickets"
          ]
        ],
        [
          "1848",
          [
            "/wiki/1848_United_States_presidential_election"
          ]
        ],
        [
          "Lost to Lewis Cass",
          [
            "/wiki/Lewis_Cass"
          ]
        ]
      ],
      [
        [
          "Millard Fillmore",
          [
            "/wiki/Millard_Fillmore"
          ]
        ],
        [
          "United States Senator from New York",
          [
            "/wiki/United_States_Senate"
          ]
        ],
        [
          "1843",
          [
            "/wiki/1843_United_States_Senate_election_in_New_York"
          ]
        ],
        [
          "Lost to Silas Wright",
          [
            "/wiki/Silas_Wright"
          ]
        ]
      ],
      [
        [
          "Millard Fillmore",
          [
            "/wiki/Millard_Fillmore"
          ]
        ],
        [
          "Governor of New York",
          [
            "/wiki/Governor_of_New_York"
          ]
        ],
        [
          "1844",
          [
            "/wiki/1844_New_York_state_election"
          ]
        ],
        [
          "Lost to Silas Wright",
          [
            "/wiki/Silas_Wright"
          ]
        ]
      ],
      [
        [
          "Millard Fillmore",
          [
            "/wiki/Millard_Fillmore"
          ]
        ],
        [
          "Whig nomination for Vice President of the United States",
          [
            "/wiki/List_of_United_States_National_Republican_and_Whig_Party_presidential_tickets"
          ]
        ],
        [
          "1844",
          [
            "/wiki/1844_United_States_presidential_election"
          ]
        ],
        [
          "Lost to Theodore Frelinghuysen . Later won in 1848",
          [
            "/wiki/Theodore_Frelinghuysen"
          ]
        ]
      ],
      [
        [
          "Millard Fillmore",
          [
            "/wiki/Millard_Fillmore"
          ]
        ],
        [
          "Whig nomination for President of the United States",
          [
            "/wiki/List_of_United_States_National_Republican_and_Whig_Party_presidential_tickets"
          ]
        ],
        [
          "1852",
          [
            "/wiki/1852_United_States_presidential_election"
          ]
        ],
        [
          "Lost to Winfield Scott",
          [
            "/wiki/Winfield_Scott"
          ]
        ]
      ],
      [
        [
          "Millard Fillmore",
          [
            "/wiki/Millard_Fillmore"
          ]
        ],
        [
          "President of the United States",
          [
            "/wiki/President_of_the_United_States"
          ]
        ],
        [
          "1856",
          [
            "/wiki/1856_United_States_presidential_election"
          ]
        ],
        [
          "Ran on Know-Nothing Ticket 1856 ; came in third place behind James Buchanan and John C. Fremont",
          [
            "/wiki/1856_United_States_presidential_election",
            "/wiki/James_Buchanan",
            "/wiki/John_C._Fr\u00e9mont"
          ]
        ]
      ],
      [
        [
          "John C. Breckinridge",
          [
            "/wiki/John_C._Breckinridge"
          ]
        ],
        [
          "President of the United States",
          [
            "/wiki/President_of_the_United_States"
          ]
        ],
        [
          "1860",
          [
            "/wiki/1860_United_States_presidential_election"
          ]
        ],
        [
          "Ran as Southern Democrat 1860 ; lost to Abraham Lincoln",
          [
            "/wiki/1860_United_States_presidential_election",
            "/wiki/Abraham_Lincoln"
          ]
        ]
      ],
      [
        [
          "Andrew Johnson",
          [
            "/wiki/Andrew_Johnson"
          ]
        ],
        [
          "Democratic nomination for President of the United States",
          [
            "/wiki/List_of_United_States_Democratic_Party_presidential_tickets"
          ]
        ],
        [
          "1860 1868",
          [
            "/wiki/1860_United_States_presidential_election",
            "/wiki/1868_United_States_presidential_election"
          ]
        ],
        [
          "Lost to Stephen A. Douglas in 1860 and Horatio Seymour in 1868",
          [
            "/wiki/Stephen_A._Douglas",
            "/wiki/Horatio_Seymour"
          ]
        ]
      ],
      [
        [
          "Andrew Johnson",
          [
            "/wiki/Andrew_Johnson"
          ]
        ],
        [
          "United States Senator from Tennessee",
          [
            "/wiki/United_States_Senate"
          ]
        ],
        [
          "1869",
          []
        ],
        [
          "Lost to Henry Cooper",
          [
            "/wiki/Henry_Cooper_(U.S._senator)"
          ]
        ]
      ],
      [
        [
          "Andrew Johnson",
          [
            "/wiki/Andrew_Johnson"
          ]
        ],
        [
          "United States Representative",
          [
            "/wiki/United_States_House_of_Representatives"
          ]
        ],
        [
          "1872",
          []
        ],
        [
          "Came in third behind Horace Maynard and Benjamin F. Cheatham",
          [
            "/wiki/Horace_Maynard",
            "/wiki/Benjamin_F._Cheatham"
          ]
        ]
      ],
      [
        [
          "Henry Wilson",
          [
            "/wiki/Henry_Wilson"
          ]
        ],
        [
          "Republican nomination for Vice President of the United States",
          [
            "/wiki/List_of_United_States_Republican_Party_presidential_tickets"
          ]
        ],
        [
          "1868",
          [
            "/wiki/1868_United_States_presidential_election"
          ]
        ],
        [
          "Lost to Schuyler Colfax . Later won in 1872",
          [
            "/wiki/Schuyler_Colfax"
          ]
        ]
      ]
    ],
    "section_title": "Lost races",
    "section_text": "Other than re-election to the vice presidency",
    "uid": "List_of_Vice_Presidents_of_the_United_States_by_other_offices_held_12",
    "intro": "This is a list of vice presidents of the United States by other offices (either elected or appointive) held, either before or after service as the vice president."
  }
}