{
  "List_of_historical_markers_of_the_Philippines_in_the_Ilocos_Region_2": {
    "url": "https://en.wikipedia.org/wiki/List_of_historical_markers_of_the_Philippines_in_the_Ilocos_Region",
    "title": "List of historical markers of the Philippines in the Ilocos Region",
    "header": [
      [
        "Marker title",
        []
      ],
      [
        "Description",
        []
      ],
      [
        "Location",
        []
      ],
      [
        "Language",
        []
      ],
      [
        "Date Issued",
        []
      ]
    ],
    "data": [
      [
        [
          "Bacsil Ridge",
          []
        ],
        [
          "Taken over by liberation forces on March 21 , 1945 . San Fernando City was liberated three days later",
          []
        ],
        [
          "Ortega Highway , San Fernando City",
          [
            "/wiki/San_Fernando,_La_Union"
          ]
        ],
        [
          "English",
          []
        ],
        [
          "1958",
          []
        ]
      ],
      [
        [
          "Basilica of Our Lady of Charity",
          [
            "/wiki/Basilica_Minore_of_Our_Lady_of_Charity"
          ]
        ],
        [
          "Parish church of La Union 's oldest town . Founded in 1578 by Franciscans Frs . juan Bautista Lucarelli and Sebastian de Baeza",
          []
        ],
        [
          "Agoo Basilica , Agoo",
          [
            "/wiki/Basilica_Minore_of_Our_Lady_of_Charity",
            "/wiki/Agoo"
          ]
        ],
        [
          "English",
          []
        ],
        [
          "1982",
          []
        ]
      ],
      [
        [
          "The Battle of San Fernando",
          []
        ],
        [
          "Crucial battle of allied forces against the Japanese . Battle began on January 4 , 1945",
          []
        ],
        [
          "San Fernando Plaza , San Fernando City",
          [
            "/wiki/San_Fernando,_La_Union"
          ]
        ],
        [
          "English",
          []
        ],
        [
          "1959",
          []
        ]
      ],
      [
        [
          "Caba",
          [
            "/wiki/Caba,_La_Union"
          ]
        ],
        [
          "Established on June 24 , 1598 under Augustinians . Town where Diego Silang was born",
          [
            "/wiki/Diego_Silang"
          ]
        ],
        [
          "Caba Town Plaza , Caba",
          [
            "/wiki/Caba,_La_Union"
          ]
        ],
        [
          "Filipino",
          []
        ],
        [
          "June 24 , 1979",
          []
        ]
      ],
      [
        [
          "Camilo Osias",
          [
            "/wiki/Camilo_Os\u00edas"
          ]
        ],
        [
          "Writer , editor , and statistician . President of National University from 1921-1934",
          [
            "/wiki/National_University_(Philippines)"
          ]
        ],
        [
          "Balaoan",
          [
            "/wiki/Balaoan"
          ]
        ],
        [
          "Filipino",
          []
        ],
        [
          "March 17 , 1898",
          []
        ]
      ],
      [
        [
          "Camp Spencer",
          []
        ],
        [
          "Named on honor of Private Grafton Spencer , AUS . Darigayos Cove was a scene of American submarine landings during WWII",
          []
        ],
        [
          "Darigayos , Luna",
          [
            "/wiki/Luna,_La_Union"
          ]
        ],
        [
          "English",
          []
        ],
        [
          "1958",
          []
        ]
      ],
      [
        [
          "Church of San Fernando , La Union",
          [
            "/wiki/San_Fernando_Cathedral_(La_Union)"
          ]
        ],
        [
          "Chapel made of stone and thatch erected 1764 . Moved to present site by 1773",
          []
        ],
        [
          "San Fernando City",
          [
            "/wiki/San_Fernando,_La_Union"
          ]
        ],
        [
          "English",
          []
        ],
        [
          "1949",
          []
        ]
      ],
      [
        [
          "Diego Silang ( 1730-1763 )",
          [
            "/wiki/Diego_Silang"
          ]
        ],
        [
          "Born in this town on December 16 , 1730 , started a revolt against the Spaniards",
          []
        ],
        [
          "Diego Silang Monument , Caba Town Plaza , Caba",
          [
            "/wiki/Caba,_La_Union"
          ]
        ],
        [
          "English",
          []
        ],
        [
          "1963",
          []
        ]
      ],
      [
        [
          "Elpidio Quirino ( 1890-1958 )",
          [
            "/wiki/Elpidio_Quirino"
          ]
        ],
        [
          "Former president of the Philippines . First worked as a teacher in the barrio of Capari-an",
          []
        ],
        [
          "MacArthur Highway , Caba",
          [
            "/wiki/Caba,_La_Union"
          ]
        ],
        [
          "Filipino",
          []
        ],
        [
          "November 16 , 1983",
          []
        ]
      ],
      [
        [
          "Manuel E. Arguilla 1911-1944",
          [
            "/wiki/Manuel_Arguilla"
          ]
        ],
        [
          "Multi-awarded writer and poet during the Commonwealth era . Born on June 17 , 1911",
          []
        ],
        [
          "Arguilla Ancestral House , Nabrebcan , Bauang",
          [
            "/wiki/Bauang"
          ]
        ],
        [
          "Filipino",
          []
        ],
        [
          "August 25 , 1983",
          []
        ]
      ],
      [
        [
          "Ang Parola ng Poro Point",
          []
        ],
        [
          "First built in 1885",
          []
        ],
        [
          "San Fernando City",
          [
            "/wiki/San_Fernando,_La_Union"
          ]
        ],
        [
          "Filipino",
          []
        ],
        [
          "January 28 , 2008",
          []
        ]
      ],
      [
        [
          "Pitugan",
          []
        ],
        [
          "Where Manuel Roxas while escaping from the Japanese contacted the American Liberation Forces",
          []
        ],
        [
          "Pitugan , Tubao",
          [
            "/wiki/Tubao"
          ]
        ],
        [
          "Filipino",
          []
        ],
        [
          "1958",
          []
        ]
      ]
    ],
    "section_title": "La Union",
    "section_text": "",
    "uid": "List_of_historical_markers_of_the_Philippines_in_the_Ilocos_Region_2",
    "intro": "This list of historical markers installed by the National Historical Commission of the Philippines (NHCP) in Ilocos Region is an annotated list of people, places, or events in the region that have been commemorated by cast-iron plaques issued by the said commission. The plaques themselves are permanent signs installed in publicly visible locations on buildings, monuments, or in special locations. While many Cultural Properties have historical markers installed, not all places marked with historical markers are designated into one of the particular categories of Cultural Properties. Delayed negotiations with the family that owns Casa Hacienda prompted the local government of Bautista to install the marker where Filipinas/Lupang Hinirang was composed to the town's plaza instead. The historical marker commemorating the centennial birth anniversary of the late dictator and president Ferdinand Marcos in Batac, Ilocos Norte, unveiled on September 11, 2017, became controversial, as the NHCP earlier opposed the late strongman's burial at the Libingan ng mga Bayani. Baybayin, an Ateneo de Manila student organization, issued an alternative marker online containing atrocities under the Marcos regime, as well as his burial. The said online marker became a statement against historical revisionism."
  },
  "United_States_District_Court_for_the_Western_District_of_Wisconsin_1": {
    "url": "https://en.wikipedia.org/wiki/United_States_District_Court_for_the_Western_District_of_Wisconsin",
    "title": "United States District Court for the Western District of Wisconsin",
    "header": [
      [
        "#",
        []
      ],
      [
        "Judge",
        []
      ],
      [
        "State",
        []
      ],
      [
        "Born-died",
        []
      ],
      [
        "Active service",
        []
      ],
      [
        "Chief Judge",
        [
          "/wiki/Chief_judge"
        ]
      ],
      [
        "Senior status",
        [
          "/wiki/Senior_status"
        ]
      ],
      [
        "Appointed by",
        []
      ],
      [
        "Reason for termination",
        []
      ]
    ],
    "data": [
      [
        [
          "1",
          []
        ],
        [
          "James Campbell Hopkins",
          [
            "/wiki/James_C._Hopkins_(lawyer)"
          ]
        ],
        [
          "WI",
          [
            "/wiki/Wisconsin"
          ]
        ],
        [
          "1819-1877",
          []
        ],
        [
          "1870-1877",
          []
        ],
        [
          "-",
          []
        ],
        [
          "-",
          []
        ],
        [
          "Grant",
          [
            "/wiki/List_of_federal_judges_appointed_by_Ulysses_S._Grant"
          ]
        ],
        [
          "death",
          []
        ]
      ],
      [
        [
          "2",
          []
        ],
        [
          "Romanzo Bunn",
          [
            "/wiki/Romanzo_Bunn"
          ]
        ],
        [
          "WI",
          [
            "/wiki/Wisconsin"
          ]
        ],
        [
          "1829-1909",
          []
        ],
        [
          "1877-1905",
          []
        ],
        [
          "-",
          []
        ],
        [
          "-",
          []
        ],
        [
          "Hayes",
          [
            "/wiki/List_of_federal_judges_appointed_by_Rutherford_B._Hayes"
          ]
        ],
        [
          "retirement",
          []
        ]
      ],
      [
        [
          "3",
          []
        ],
        [
          "Arthur Loomis Sanborn",
          [
            "/wiki/Arthur_Loomis_Sanborn"
          ]
        ],
        [
          "WI",
          [
            "/wiki/Wisconsin"
          ]
        ],
        [
          "1850-1920",
          []
        ],
        [
          "1905-1920",
          []
        ],
        [
          "-",
          []
        ],
        [
          "-",
          []
        ],
        [
          "T. Roosevelt",
          [
            "/wiki/List_of_federal_judges_appointed_by_Theodore_Roosevelt"
          ]
        ],
        [
          "death",
          []
        ]
      ],
      [
        [
          "4",
          []
        ],
        [
          "Claude Zeth Luse",
          [
            "/wiki/Claude_Luse"
          ]
        ],
        [
          "WI",
          [
            "/wiki/Wisconsin"
          ]
        ],
        [
          "1879-1932",
          []
        ],
        [
          "1921-1932",
          []
        ],
        [
          "-",
          []
        ],
        [
          "-",
          []
        ],
        [
          "Harding",
          [
            "/wiki/List_of_federal_judges_appointed_by_Warren_G._Harding"
          ]
        ],
        [
          "death",
          []
        ]
      ],
      [
        [
          "5",
          []
        ],
        [
          "Patrick Thomas Stone",
          [
            "/wiki/Patrick_Thomas_Stone"
          ]
        ],
        [
          "WI",
          [
            "/wiki/Wisconsin"
          ]
        ],
        [
          "1889-1963",
          []
        ],
        [
          "1933-1963",
          []
        ],
        [
          "-",
          []
        ],
        [
          "-",
          []
        ],
        [
          "F. Roosevelt",
          [
            "/wiki/List_of_federal_judges_appointed_by_Franklin_D._Roosevelt"
          ]
        ],
        [
          "death",
          []
        ]
      ],
      [
        [
          "6",
          []
        ],
        [
          "David Rabinovitz",
          [
            "/wiki/David_Rabinovitz"
          ]
        ],
        [
          "WI",
          [
            "/wiki/Wisconsin"
          ]
        ],
        [
          "1908-1986",
          []
        ],
        [
          "1964",
          []
        ],
        [
          "-",
          []
        ],
        [
          "-",
          []
        ],
        [
          "L. Johnson",
          [
            "/wiki/List_of_federal_judges_appointed_by_Lyndon_B._Johnson"
          ]
        ],
        [
          "not confirmed",
          []
        ]
      ],
      [
        [
          "7",
          []
        ],
        [
          "James Edward Doyle",
          [
            "/wiki/James_Edward_Doyle"
          ]
        ],
        [
          "WI",
          [
            "/wiki/Wisconsin"
          ]
        ],
        [
          "1915-1987",
          []
        ],
        [
          "1965-1980",
          []
        ],
        [
          "1978-1980",
          []
        ],
        [
          "1980-1987",
          []
        ],
        [
          "L. Johnson",
          [
            "/wiki/List_of_federal_judges_appointed_by_Lyndon_B._Johnson"
          ]
        ],
        [
          "death",
          []
        ]
      ],
      [
        [
          "9",
          []
        ],
        [
          "John C. Shabaz",
          [
            "/wiki/John_C._Shabaz"
          ]
        ],
        [
          "WI",
          [
            "/wiki/Wisconsin"
          ]
        ],
        [
          "1931-2012",
          []
        ],
        [
          "1981-2009",
          []
        ],
        [
          "1996-2001",
          []
        ],
        [
          "2009-2012",
          []
        ],
        [
          "Reagan",
          [
            "/wiki/List_of_federal_judges_appointed_by_Ronald_Reagan"
          ]
        ],
        [
          "death",
          []
        ]
      ]
    ],
    "section_title": "Former judges",
    "section_text": "",
    "uid": "United_States_District_Court_for_the_Western_District_of_Wisconsin_1",
    "intro": "The United States District Court for the Western District of Wisconsin (in case citations, W.D. Wis.) is a federal court in the Seventh Circuit (except for patent claims and claims against the U.S. government under the Tucker Act, which are appealed to the Federal Circuit). The district was established on June 30, 1870. The current United States Attorney for the district is Scott Blader."
  }
}