{
  "Primetime_Emmy_Award_for_Outstanding_Music_Composition_for_a_Series_3": {
    "url": "https://en.wikipedia.org/wiki/Primetime_Emmy_Award_for_Outstanding_Music_Composition_for_a_Series",
    "title": "Primetime Emmy Award for Outstanding Music Composition for a Series",
    "header": [
      [
        "Year",
        []
      ],
      [
        "Program",
        []
      ],
      [
        "Episode",
        []
      ],
      [
        "Nominee ( s )",
        []
      ],
      [
        "Network",
        []
      ]
    ],
    "data": [
      [
        [
          "1990 ( 42nd )",
          [
            "/wiki/42nd_Primetime_Emmy_Awards"
          ]
        ],
        [
          "Beauty and the Beast",
          [
            "/wiki/Beauty_and_the_Beast_(1987_TV_series)"
          ]
        ],
        [
          "A Time to Heal",
          []
        ],
        [
          "Don Davis",
          [
            "/wiki/Don_Davis_(composer)"
          ]
        ],
        [
          "CBS",
          [
            "/wiki/CBS"
          ]
        ]
      ],
      [
        [
          "1990 ( 42nd )",
          [
            "/wiki/42nd_Primetime_Emmy_Awards"
          ]
        ],
        [
          "Matlock",
          [
            "/wiki/Matlock_(TV_series)"
          ]
        ],
        [
          "The Clown",
          []
        ],
        [
          "Bruce Babcock",
          []
        ],
        [
          "NBC",
          [
            "/wiki/NBC"
          ]
        ]
      ],
      [
        [
          "1990 ( 42nd )",
          [
            "/wiki/42nd_Primetime_Emmy_Awards"
          ]
        ],
        [
          "Star Trek : The Next Generation",
          [
            "/wiki/Star_Trek:_The_Next_Generation"
          ]
        ],
        [
          "Yesterday 's Enterprise",
          [
            "/wiki/Yesterday's_Enterprise"
          ]
        ],
        [
          "Dennis McCarthy",
          [
            "/wiki/Dennis_McCarthy_(composer)"
          ]
        ],
        [
          "Syndicated",
          [
            "/wiki/Broadcast_syndication"
          ]
        ]
      ],
      [
        [
          "1990 ( 42nd )",
          [
            "/wiki/42nd_Primetime_Emmy_Awards"
          ]
        ],
        [
          "Twin Peaks",
          [
            "/wiki/Twin_Peaks"
          ]
        ],
        [
          "Traces to Nowhere",
          []
        ],
        [
          "Angelo Badalamenti",
          [
            "/wiki/Angelo_Badalamenti"
          ]
        ],
        [
          "ABC",
          [
            "/wiki/American_Broadcasting_Company"
          ]
        ]
      ],
      [
        [
          "1991 ( 43rd )",
          [
            "/wiki/43rd_Primetime_Emmy_Awards"
          ]
        ],
        [
          "The Young Riders",
          [
            "/wiki/The_Young_Riders"
          ]
        ],
        [
          "Kansas",
          []
        ],
        [
          "John Debney",
          [
            "/wiki/John_Debney"
          ]
        ],
        [
          "ABC",
          [
            "/wiki/American_Broadcasting_Company"
          ]
        ]
      ],
      [
        [
          "1991 ( 43rd )",
          [
            "/wiki/43rd_Primetime_Emmy_Awards"
          ]
        ],
        [
          "Father Dowling Mysteries",
          [
            "/wiki/Father_Dowling_Mysteries"
          ]
        ],
        [
          "The Consulting Detective Mystery",
          []
        ],
        [
          "Bruce Babcock",
          []
        ],
        [
          "ABC",
          [
            "/wiki/American_Broadcasting_Company"
          ]
        ]
      ],
      [
        [
          "1991 ( 43rd )",
          [
            "/wiki/43rd_Primetime_Emmy_Awards"
          ]
        ],
        [
          "Jake and the Fatman",
          [
            "/wiki/Jake_and_the_Fatman"
          ]
        ],
        [
          "God Bless the Child",
          []
        ],
        [
          "Joel Rosenbaum",
          [
            "/wiki/Joel_Rosenbaum"
          ]
        ],
        [
          "CBS",
          [
            "/wiki/CBS"
          ]
        ]
      ],
      [
        [
          "1991 ( 43rd )",
          [
            "/wiki/43rd_Primetime_Emmy_Awards"
          ]
        ],
        [
          "My Life and Times",
          []
        ],
        [
          "The Collapse of '98",
          []
        ],
        [
          "Don Davis",
          [
            "/wiki/Don_Davis_(composer)"
          ]
        ],
        [
          "ABC",
          [
            "/wiki/American_Broadcasting_Company"
          ]
        ]
      ],
      [
        [
          "1991 ( 43rd )",
          [
            "/wiki/43rd_Primetime_Emmy_Awards"
          ]
        ],
        [
          "Star Trek : The Next Generation",
          [
            "/wiki/Star_Trek:_The_Next_Generation"
          ]
        ],
        [
          "Half a Life",
          [
            "/wiki/Half_a_Life_(Star_Trek:_The_Next_Generation)"
          ]
        ],
        [
          "Dennis McCarthy",
          [
            "/wiki/Dennis_McCarthy_(composer)"
          ]
        ],
        [
          "Syndicated",
          [
            "/wiki/Broadcast_syndication"
          ]
        ]
      ],
      [
        [
          "1992 ( 44th )",
          [
            "/wiki/44th_Primetime_Emmy_Awards"
          ]
        ],
        [
          "Matlock",
          [
            "/wiki/Matlock_(TV_series)"
          ]
        ],
        [
          "The Strangler",
          []
        ],
        [
          "Bruce Babcock",
          []
        ],
        [
          "NBC",
          [
            "/wiki/NBC"
          ]
        ]
      ],
      [
        [
          "1992 ( 44th )",
          [
            "/wiki/44th_Primetime_Emmy_Awards"
          ]
        ],
        [
          "In the Heat of the Night",
          [
            "/wiki/In_the_Heat_of_the_Night_(TV_series)"
          ]
        ],
        [
          "Family Reunion",
          []
        ],
        [
          "Nan Schwartz",
          []
        ],
        [
          "NBC",
          [
            "/wiki/NBC"
          ]
        ]
      ],
      [
        [
          "1992 ( 44th )",
          [
            "/wiki/44th_Primetime_Emmy_Awards"
          ]
        ],
        [
          "Star Trek : The Next Generation",
          [
            "/wiki/Star_Trek:_The_Next_Generation"
          ]
        ],
        [
          "Unification , Part 1",
          [
            "/wiki/Unification_(Star_Trek:_The_Next_Generation)"
          ]
        ],
        [
          "Dennis McCarthy",
          [
            "/wiki/Dennis_McCarthy_(composer)"
          ]
        ],
        [
          "Syndicated",
          [
            "/wiki/Broadcast_syndication"
          ]
        ]
      ],
      [
        [
          "1992 ( 44th )",
          [
            "/wiki/44th_Primetime_Emmy_Awards"
          ]
        ],
        [
          "The Simpsons",
          [
            "/wiki/The_Simpsons"
          ]
        ],
        [
          "Treehouse of Horror II",
          [
            "/wiki/Treehouse_of_Horror_II"
          ]
        ],
        [
          "Alf Clausen",
          [
            "/wiki/Alf_Clausen"
          ]
        ],
        [
          "Fox",
          [
            "/wiki/Fox_Broadcasting_Company"
          ]
        ]
      ],
      [
        [
          "1993 ( 45th )",
          [
            "/wiki/45th_Primetime_Emmy_Awards"
          ]
        ],
        [
          "The Young Indiana Jones Chronicles",
          [
            "/wiki/The_Young_Indiana_Jones_Chronicles"
          ]
        ],
        [
          "Young Indiana Jones and the Scandal of 1920",
          []
        ],
        [
          "Joel McNeely",
          [
            "/wiki/Joel_McNeely"
          ]
        ],
        [
          "ABC",
          [
            "/wiki/American_Broadcasting_Company"
          ]
        ]
      ],
      [
        [
          "1993 ( 45th )",
          [
            "/wiki/45th_Primetime_Emmy_Awards"
          ]
        ],
        [
          "Murder , She Wrote",
          [
            "/wiki/Murder,_She_Wrote"
          ]
        ],
        [
          "Wind Around the Tower",
          []
        ],
        [
          "Bruce Babcock",
          []
        ],
        [
          "CBS",
          [
            "/wiki/CBS"
          ]
        ]
      ],
      [
        [
          "1993 ( 45th )",
          [
            "/wiki/45th_Primetime_Emmy_Awards"
          ]
        ],
        [
          "Quantum Leap",
          [
            "/wiki/Quantum_Leap"
          ]
        ],
        [
          "Lee Harvey Oswald , Part 1",
          []
        ],
        [
          "Velton Ray Bunch",
          [
            "/wiki/Velton_Ray_Bunch"
          ]
        ],
        [
          "NBC",
          [
            "/wiki/NBC"
          ]
        ]
      ],
      [
        [
          "1993 ( 45th )",
          [
            "/wiki/45th_Primetime_Emmy_Awards"
          ]
        ],
        [
          "The Simpsons",
          [
            "/wiki/The_Simpsons"
          ]
        ],
        [
          "Treehouse of Horror III",
          [
            "/wiki/Treehouse_of_Horror_III"
          ]
        ],
        [
          "Alf Clausen",
          [
            "/wiki/Alf_Clausen"
          ]
        ],
        [
          "Fox",
          [
            "/wiki/Fox_Broadcasting_Company"
          ]
        ]
      ],
      [
        [
          "1993 ( 45th )",
          [
            "/wiki/45th_Primetime_Emmy_Awards"
          ]
        ],
        [
          "The Young Indiana Jones Chronicles",
          [
            "/wiki/The_Young_Indiana_Jones_Chronicles"
          ]
        ],
        [
          "Vienna , 1908",
          []
        ],
        [
          "Laurence Rosenthal",
          [
            "/wiki/Laurence_Rosenthal"
          ]
        ],
        [
          "ABC",
          [
            "/wiki/American_Broadcasting_Company"
          ]
        ]
      ],
      [
        [
          "1994 ( 46th )",
          [
            "/wiki/46th_Primetime_Emmy_Awards"
          ]
        ],
        [
          "The Young Indiana Jones Chronicles",
          [
            "/wiki/The_Young_Indiana_Jones_Chronicles"
          ]
        ],
        [
          "Ireland , 1916",
          []
        ],
        [
          "Laurence Rosenthal",
          [
            "/wiki/Laurence_Rosenthal"
          ]
        ],
        [
          "ABC",
          [
            "/wiki/American_Broadcasting_Company"
          ]
        ]
      ],
      [
        [
          "1994 ( 46th )",
          [
            "/wiki/46th_Primetime_Emmy_Awards"
          ]
        ],
        [
          "Christy",
          [
            "/wiki/Christy_(TV_series)"
          ]
        ],
        [
          "Pilot",
          []
        ],
        [
          "Ron Ramin",
          []
        ],
        [
          "CBS",
          [
            "/wiki/CBS"
          ]
        ]
      ]
    ],
    "section_title": "Winners and nominations -- 1990s",
    "section_text": "",
    "uid": "Primetime_Emmy_Award_for_Outstanding_Music_Composition_for_a_Series_3",
    "intro": "This is a list of winners and nominees of the Primetime Emmy Award for Outstanding Music Composition for a Series. Starting in 2019, the category recognizes scripted programs. Unscripted programs compete for Music Composition for a Documentary Series or Special."
  },
  "List_of_European_Aquatics_Championships_medalists_in_swimming_(men)_19": {
    "url": "https://en.wikipedia.org/wiki/List_of_European_Aquatics_Championships_medalists_in_swimming_(men)",
    "title": "List of European Aquatics Championships medalists in swimming (men)",
    "header": [
      [
        "Year",
        []
      ],
      [
        "Gold",
        []
      ],
      [
        "Silver",
        []
      ],
      [
        "Bronze",
        []
      ]
    ],
    "data": [
      [
        [
          "1958 Budapest",
          [
            "/wiki/1958_European_Aquatics_Championships"
          ]
        ],
        [
          "Soviet Union Leonid Barbier Vladimir Minashkin Vitaliy Chenenkov Viktor Polevoy",
          [
            "/wiki/Soviet_Union",
            "/wiki/Leonid_Barbier",
            "/wiki/Vladimir_Minashkin",
            "/wiki/Vitaliy_Chenenkov"
          ]
        ],
        [
          "Hungary L\u00e1szl\u00f3 Magyar Gy\u00f6rgy Kuns\u00e1gi Gy\u00f6rgy Tumpek Gyula Dobai",
          [
            "/wiki/Hungary",
            "/wiki/L\u00e1szl\u00f3_Magyar_(swimmer)",
            "/wiki/Gy\u00f6rgy_Kuns\u00e1gi",
            "/wiki/Gy\u00f6rgy_Tumpek",
            "/wiki/Gyula_Dobay"
          ]
        ],
        [
          "Italy Gilberto Elsa Roberto Lazzari Frederico Dennerlein Paolo Rocco",
          [
            "/wiki/Italy",
            "/wiki/Gilberto_Elsa",
            "/wiki/Roberto_Lazzari",
            "/wiki/Fritz_Dennerlein"
          ]
        ]
      ],
      [
        [
          "1962 Leipzig",
          [
            "/wiki/1962_European_Aquatics_Championships"
          ]
        ],
        [
          "East Germany J\u00fcrgen Dietze Egon Henninger Horst-G\u00fcnter Gregor Frank Wiegand",
          [
            "/wiki/East_Germany",
            "/wiki/J\u00fcrgen_Dietze",
            "/wiki/Egon_Henninger",
            "/wiki/Horst-G\u00fcnter_Gregor",
            "/wiki/Frank_Wiegand"
          ]
        ],
        [
          "Soviet Union Veliko Siymar Leonid Kolesnikov Valentin Kuzmin Viktor Konoplyov",
          [
            "/wiki/Soviet_Union",
            "/wiki/Leonid_Kolesnikov",
            "/wiki/Valentin_Kuzmin",
            "/wiki/Viktor_Konoplyov"
          ]
        ],
        [
          "Netherlands Jan Weeteling Wieger Mensonides Jan Jiskoot Ron Kroon",
          [
            "/wiki/Netherlands",
            "/wiki/Jan_Weeteling",
            "/wiki/Wieger_Mensonides",
            "/wiki/Jan_Jiskoot",
            "/wiki/Ron_Kroon"
          ]
        ]
      ],
      [
        [
          "1966 Utrecht",
          [
            "/wiki/1966_European_Aquatics_Championships"
          ]
        ],
        [
          "Soviet Union Viktor Mazanov Georgiy Prokopenko Valentin Kuzmin Leonid Ilyichov",
          [
            "/wiki/Soviet_Union",
            "/wiki/Viktor_Mazanov",
            "/wiki/Georgy_Prokopenko",
            "/wiki/Valentin_Kuzmin",
            "/wiki/Leonid_Ilyichov"
          ]
        ],
        [
          "East Germany J\u00fcrgen Dietze Egon Henninger Horst-G\u00fcnter Gregor Frank Wiegand",
          [
            "/wiki/East_Germany",
            "/wiki/J\u00fcrgen_Dietze",
            "/wiki/Egon_Henninger",
            "/wiki/Horst-G\u00fcnter_Gregor",
            "/wiki/Frank_Wiegand"
          ]
        ],
        [
          "Hungary J\u00f3zsef Csik\u00e1ny Ferenc Lenkei \u00c1kos Guly\u00e1s Istv\u00e1n Szentirmay",
          [
            "/wiki/Hungary",
            "/wiki/J\u00f3zsef_Csik\u00e1ny",
            "/wiki/Ferenc_Lenkei",
            "/wiki/\u00c1kos_Guly\u00e1s",
            "/wiki/Istv\u00e1n_Szentirmay"
          ]
        ]
      ],
      [
        [
          "1970 Barcelona",
          [
            "/wiki/1970_European_Aquatics_Championships"
          ]
        ],
        [
          "East Germany Roland Matthes Klaus Katzur Udo Poser Lutz Unger",
          [
            "/wiki/East_Germany",
            "/wiki/Roland_Matthes",
            "/wiki/Klaus_Katzur",
            "/wiki/Udo_Poser",
            "/wiki/Lutz_Unger"
          ]
        ],
        [
          "France Jean-Paul Berjeau Roger-Philippe Menu Alain Mosconi Michel Rousseau",
          [
            "/wiki/France",
            "/wiki/Jean-Paul_Berjeau",
            "/wiki/Roger-Philippe_Menu",
            "/wiki/Alain_Mosconi",
            "/wiki/Michel_Rousseau_(swimmer)"
          ]
        ],
        [
          "Soviet Union Viktor Krasko Nikolay Pankin Vladimir Nemshilov Leonid Ilyichov",
          [
            "/wiki/Soviet_Union",
            "/wiki/Viktor_Krasko",
            "/wiki/Nikolai_Pankin",
            "/wiki/Vladimir_Nemshilov",
            "/wiki/Leonid_Ilyichov"
          ]
        ]
      ],
      [
        [
          "1974 Vienna",
          [
            "/wiki/1974_European_Aquatics_Championships"
          ]
        ],
        [
          "West Germany Klaus Steinbach Walter Kusch Folkert Meeuw Peter Nocke",
          [
            "/wiki/West_Germany",
            "/wiki/Klaus_Steinbach",
            "/wiki/Walter_Kusch",
            "/wiki/Folkert_Meeuw",
            "/wiki/Peter_Nocke"
          ]
        ],
        [
          "Great Britain Colin Cunningham David Wilkie Stephen Nash Brian Brinkley",
          [
            "/wiki/United_Kingdom",
            "/wiki/Colin_Cunningham_(swimmer)",
            "/wiki/David_Wilkie_(swimmer)",
            "/wiki/Stephen_Nash_(swimmer)",
            "/wiki/Brian_Brinkley"
          ]
        ],
        [
          "Soviet Union Igor Potyakin Nikolay Pankin Viktor Sharygin Vladimir Bure",
          [
            "/wiki/Soviet_Union",
            "/wiki/Igor_Potyakin",
            "/wiki/Nikolai_Pankin",
            "/wiki/Viktor_Sharygin",
            "/wiki/Vladimir_Bure"
          ]
        ]
      ],
      [
        [
          "1977 J\u00f6nk\u00f6ping",
          [
            "/wiki/1977_European_Aquatics_Championships"
          ]
        ],
        [
          "West Germany Klaus Steinbach Gerald M\u00f6rken Michael Kraus Peter Nocke",
          [
            "/wiki/West_Germany",
            "/wiki/Klaus_Steinbach",
            "/wiki/Gerald_M\u00f6rken",
            "/wiki/Michael_Kraus_(swimmer)",
            "/wiki/Peter_Nocke"
          ]
        ],
        [
          "East Germany Lutz Wanja Gregor Arnicke Roger Pyttel Ren\u00e9 Pl\u00e4schke",
          [
            "/wiki/East_Germany",
            "/wiki/Lutz_Wanja",
            "/wiki/Roger_Pyttel"
          ]
        ],
        [
          "Great Britain James Carter Duncan Goodhew John Mills Martin Smith",
          [
            "/wiki/United_Kingdom",
            "/wiki/James_Carter_(swimmer)",
            "/wiki/Duncan_Goodhew",
            "/wiki/John_Mills_(swimmer)",
            "/wiki/Martin_Smith_(swimmer)"
          ]
        ]
      ],
      [
        [
          "1981 Split",
          [
            "/wiki/1981_European_Aquatics_Championships"
          ]
        ],
        [
          "Soviet Union Viktor Kuznetsov Yuri Kis Aleksey Markovsky Sergey Krasyuk",
          [
            "/wiki/Soviet_Union",
            "/wiki/Viktor_Kuznetsov_(swimmer)",
            "/wiki/Yuri_Kis",
            "/wiki/Aleksey_Markovsky",
            "/wiki/Serhiy_Krasyuk"
          ]
        ],
        [
          "Sweden Bengt Baron Glen Christiansen P\u00e4r Arvidsson Per Johansson",
          [
            "/wiki/Sweden",
            "/wiki/Bengt_Baron",
            "/wiki/Glen_Christiansen",
            "/wiki/P\u00e4r_Arvidsson",
            "/wiki/Per_Johansson_(swimmer)"
          ]
        ],
        [
          "East Germany Dirk Richter Sigurd Hanke Olaf Ziesche J\u00f6rg Woithe",
          [
            "/wiki/East_Germany",
            "/wiki/Dirk_Richter",
            "/wiki/J\u00f6rg_Woithe"
          ]
        ]
      ],
      [
        [
          "1983 Rome",
          [
            "/wiki/1983_European_Aquatics_Championships"
          ]
        ],
        [
          "Soviet Union Vladimir Shemetov Robertas \u017dulpa Aleksey Markovsky Sergey Smiriagin",
          [
            "/wiki/Soviet_Union",
            "/wiki/Vladimir_Shemetov",
            "/wiki/Robertas_\u017dulpa",
            "/wiki/Aleksey_Markovsky",
            "/wiki/Sergey_Smiryagin"
          ]
        ],
        [
          "West Germany Stefan Peter Gerard M\u00f6rken Michael Gro\u00df Andreas Schmidt",
          [
            "/wiki/West_Germany",
            "/wiki/Stefan_Peter",
            "/wiki/Michael_Gross_(swimmer)",
            "/wiki/Andreas_Schmidt_(swimmer)"
          ]
        ],
        [
          "East Germany Dirk Richter Sigurd Hanke Andreas Ott J\u00f6rg Woithe",
          [
            "/wiki/East_Germany",
            "/wiki/Dirk_Richter",
            "/wiki/J\u00f6rg_Woithe"
          ]
        ]
      ],
      [
        [
          "1985 Sofia",
          [
            "/wiki/1985_European_Aquatics_Championships"
          ]
        ],
        [
          "West Germany Thomas Lebherz Rolf Beab Michael Gro\u00df Alexander Schowtka",
          [
            "/wiki/West_Germany",
            "/wiki/Thomas_Lebherz",
            "/wiki/Rolf_Beab",
            "/wiki/Michael_Gross_(swimmer)",
            "/wiki/Alexander_Schowtka"
          ]
        ],
        [
          "East Germany Dirk Richter Ingo Grzywolz Thomas Dressler J\u00f6rg Woithe",
          [
            "/wiki/East_Germany",
            "/wiki/Dirk_Richter",
            "/wiki/Thomas_Dre\u00dfler",
            "/wiki/J\u00f6rg_Woithe"
          ]
        ],
        [
          "Italy Mauro Marini Gianni Minervini Fabrizio Rampazzi Andrea Ceccarini",
          [
            "/wiki/Italy",
            "/wiki/Gianni_Minervini_(swimmer)",
            "/wiki/Andrea_Ceccarini"
          ]
        ]
      ],
      [
        [
          "1987 Strasbourg",
          [
            "/wiki/1987_European_Aquatics_Championships"
          ]
        ],
        [
          "Soviet Union Igor Polyansky Dmitry Volkov Konstantin Petrov Gennadiy Prigoda",
          [
            "/wiki/Soviet_Union",
            "/wiki/Igor_Polyansky",
            "/wiki/Dmitry_Volkov_(swimmer)",
            "/wiki/Konstantin_Petrov",
            "/wiki/Gennadiy_Prigoda"
          ]
        ],
        [
          "Great Britain Neil Cochran Adrian Moorhouse Andy Jameson Roland Lee",
          [
            "/wiki/United_Kingdom",
            "/wiki/Neil_Cochran",
            "/wiki/Adrian_Moorhouse",
            "/wiki/Andy_Jameson",
            "/wiki/Roland_Lee"
          ]
        ],
        [
          "East Germany Frank Baltrusch Christian Poswiat Thomas Dressler Sven Lodziewski",
          [
            "/wiki/East_Germany",
            "/wiki/Frank_Baltrusch",
            "/wiki/Christian_Poswiat",
            "/wiki/Thomas_Dre\u00dfler",
            "/wiki/Sven_Lodziewski"
          ]
        ]
      ],
      [
        [
          "1989 Bonn",
          [
            "/wiki/1989_European_Aquatics_Championships"
          ]
        ],
        [
          "Soviet Union Sergei Zabolotnov Dmitry Volkov Vadim Yaroschuk Yury Bashkatov",
          [
            "/wiki/Soviet_Union",
            "/wiki/Sergei_Zabolotnov",
            "/wiki/Dmitry_Volkov_(swimmer)",
            "/wiki/Vadim_Yaroshchuk",
            "/wiki/Yuri_Bashkatov"
          ]
        ],
        [
          "France Franck Schott C\u00e9dric Penicaud Bruno Gutzeit St\u00e9phan Caron",
          [
            "/wiki/France",
            "/wiki/Franck_Schott",
            "/wiki/C\u00e9dric_P\u00e9nicaud",
            "/wiki/Bruno_Gutzeit",
            "/wiki/St\u00e9phan_Caron"
          ]
        ],
        [
          "Italy Stefan Battistelli Gianni Minervini Marco Braida Giorgio Lamberti",
          [
            "/wiki/Italy",
            "/wiki/Stefano_Battistelli",
            "/wiki/Gianni_Minervini_(swimmer)",
            "/wiki/Marco_Braida",
            "/wiki/Giorgio_Lamberti"
          ]
        ]
      ],
      [
        [
          "1991 Athens",
          [
            "/wiki/1991_European_Aquatics_Championships"
          ]
        ],
        [
          "Soviet Union Vladimir Selkov Dmitry Volkov Vladislav Kulikov Alexander Popov",
          [
            "/wiki/Soviet_Union",
            "/wiki/Vladimir_Selkov",
            "/wiki/Dmitry_Volkov_(swimmer)",
            "/wiki/Vladislav_Kulikov",
            "/wiki/Alexander_Popov_(swimmer)"
          ]
        ],
        [
          "France Franck Schott C\u00e9dric Penicaud Bruno Gutzeit Christophe Kalfayan",
          [
            "/wiki/France",
            "/wiki/Franck_Schott",
            "/wiki/C\u00e9dric_P\u00e9nicaud",
            "/wiki/Bruno_Gutzeit",
            "/wiki/Christophe_Kalfayan"
          ]
        ],
        [
          "Hungary Tam\u00e1s Deutsch Norbert R\u00f3zsa P\u00e9ter Horv\u00e1th B\u00e9la Szabados",
          [
            "/wiki/Hungary",
            "/wiki/Tam\u00e1s_Deutsch",
            "/wiki/Norbert_R\u00f3zsa",
            "/wiki/P\u00e9ter_Horv\u00e1th",
            "/wiki/B\u00e9la_Szabados_(swimmer)"
          ]
        ]
      ],
      [
        [
          "1993 Sheffield",
          [
            "/wiki/1993_European_Aquatics_Championships"
          ]
        ],
        [
          "Russia Vladimir Selkov Vitaly Kirinchuk Denis Pankratov Alexander Popov",
          [
            "/wiki/Russia",
            "/wiki/Vladimir_Selkov",
            "/wiki/Vitaly_Kirinchuk",
            "/wiki/Denis_Pankratov",
            "/wiki/Alexander_Popov_(swimmer)"
          ]
        ],
        [
          "Hungary Tam\u00e1s Deutsch K\u00e1roly G\u00fcttler P\u00e9ter Horv\u00e1th B\u00e9la Szabados",
          [
            "/wiki/Hungary",
            "/wiki/Tam\u00e1s_Deutsch",
            "/wiki/K\u00e1roly_G\u00fcttler",
            "/wiki/P\u00e9ter_Horv\u00e1th",
            "/wiki/B\u00e9la_Szabados_(swimmer)"
          ]
        ],
        [
          "Great Britain Martin Harris Nick Gillingham Mike Fibbens Mark Foster",
          [
            "/wiki/United_Kingdom",
            "/wiki/Martin_Harris_(swimmer)",
            "/wiki/Nick_Gillingham",
            "/wiki/Mike_Fibbens",
            "/wiki/Mark_Foster_(swimmer)"
          ]
        ]
      ],
      [
        [
          "1995 Vienna",
          [
            "/wiki/1995_European_Aquatics_Championships"
          ]
        ],
        [
          "Russia Vladimir Selkov Andrey Korneyev Denis Pankratov Alexander Popov",
          [
            "/wiki/Russia",
            "/wiki/Vladimir_Selkov",
            "/wiki/Andrey_Korneyev",
            "/wiki/Denis_Pankratov",
            "/wiki/Alexander_Popov_(swimmer)"
          ]
        ],
        [
          "Hungary Tam\u00e1s Deutsch K\u00e1roly G\u00fcttler P\u00e9ter Horv\u00e1th Attila Czene",
          [
            "/wiki/Hungary",
            "/wiki/Tam\u00e1s_Deutsch",
            "/wiki/K\u00e1roly_G\u00fcttler",
            "/wiki/P\u00e9ter_Horv\u00e1th",
            "/wiki/Attila_Czene"
          ]
        ],
        [
          "Germany Tino Weber Mark Warnecke Fabian Hieronimus Bj\u00f6rn Zikarsky",
          [
            "/wiki/Germany",
            "/wiki/Tino_Weber",
            "/wiki/Mark_Warnecke",
            "/wiki/Bj\u00f6rn_Zikarsky"
          ]
        ]
      ],
      [
        [
          "1997 Seville",
          [
            "/wiki/1997_European_Aquatics_Championships"
          ]
        ],
        [
          "Russia Vladimir Selkov Andrey Korneyev Vladislav Kulikov Alexander Popov",
          [
            "/wiki/Russia",
            "/wiki/Vladimir_Selkov",
            "/wiki/Andrey_Korneyev",
            "/wiki/Vladislav_Kulikov",
            "/wiki/Alexander_Popov_(swimmer)"
          ]
        ],
        [
          "Germany Ralf Braun Jens Kruppa Thomas Rupprath Christian Tr\u00f6ger",
          [
            "/wiki/Germany",
            "/wiki/Ralf_Braun",
            "/wiki/Jens_Kruppa",
            "/wiki/Thomas_Rupprath",
            "/wiki/Christian_Tr\u00f6ger"
          ]
        ],
        [
          "Poland Mariusz Siembida Marek Krawczyk Marcin Kaczmarek Bartosz Kizierowski",
          [
            "/wiki/Poland",
            "/wiki/Mariusz_Siembida",
            "/wiki/Marek_Krawczyk",
            "/wiki/Marcin_Kaczmarek_(swimmer)",
            "/wiki/Bartosz_Kizierowski"
          ]
        ]
      ],
      [
        [
          "1999 Istanbul",
          [
            "/wiki/1999_European_Aquatics_Championships"
          ]
        ],
        [
          "Netherlands Klaas-Erik Zwering Marcel Wouda Stefan Aartsen Pieter van den Hoogenband",
          [
            "/wiki/Netherlands",
            "/wiki/Klaas-Erik_Zwering",
            "/wiki/Marcel_Wouda",
            "/wiki/Stefan_Aartsen",
            "/wiki/Pieter_van_den_Hoogenband"
          ]
        ],
        [
          "Germany Stev Theloke Mark Warnecke Christian Keller Christian Tr\u00f6ger",
          [
            "/wiki/Germany",
            "/wiki/Stev_Theloke",
            "/wiki/Mark_Warnecke",
            "/wiki/Christian_Keller",
            "/wiki/Christian_Tr\u00f6ger"
          ]
        ],
        [
          "Russia Sergey Ostapchuk Dmitry Komornikov Vladislav Kulikov Alexander Popov",
          [
            "/wiki/Russia",
            "/wiki/Sergey_Ostapchuk",
            "/wiki/Dmitry_Komornikov",
            "/wiki/Vladislav_Kulikov",
            "/wiki/Alexander_Popov_(swimmer)"
          ]
        ]
      ],
      [
        [
          "2000 Helsinki",
          [
            "/wiki/2000_European_Aquatics_Championships"
          ]
        ],
        [
          "Russia Vladislav Aminov Dmitry Komornikov Dmitriy Chernyshev Alexander Popov",
          [
            "/wiki/Russia",
            "/wiki/Vladislav_Aminov",
            "/wiki/Dmitry_Komornikov",
            "/wiki/Dmitry_Chernyshyov",
            "/wiki/Alexander_Popov_(swimmer)"
          ]
        ],
        [
          "Sweden Mattias Ohlin Martin Gustavsson Lars Fr\u00f6lander Stefan Nystrand",
          [
            "/wiki/Sweden",
            "/wiki/Mattias_Ohlin",
            "/wiki/Martin_Gustavsson",
            "/wiki/Lars_Fr\u00f6lander",
            "/wiki/Stefan_Nystrand"
          ]
        ],
        [
          "Ukraine Volodymyr Nikolaychuk Oleh Lisohor Andriy Serdinov Pavel Khnykin",
          [
            "/wiki/Ukraine",
            "/wiki/Volodymyr_Nikolaychuk",
            "/wiki/Oleh_Lisohor",
            "/wiki/Andriy_Serdinov",
            "/wiki/Pavlo_Khnykin"
          ]
        ]
      ],
      [
        [
          "2002 Berlin",
          [
            "/wiki/2002_European_Aquatics_Championships"
          ]
        ],
        [
          "Russia Yevgeniy Alechin Roman Sloudnov Igor Marchenko Alexander Popov",
          [
            "/wiki/Russia",
            "/wiki/Evgeny_Aleshin",
            "/wiki/Roman_Sludnov",
            "/wiki/Igor_Marchenko_(swimmer)",
            "/wiki/Alexander_Popov_(swimmer)"
          ]
        ],
        [
          "France Pierre Roger Hugues Duboscq Franck Esposito Romain Barnier",
          [
            "/wiki/France",
            "/wiki/Pierre_Roger_(swimmer)",
            "/wiki/Hugues_Duboscq",
            "/wiki/Franck_Esposito",
            "/wiki/Romain_Barnier"
          ]
        ],
        [
          "Germany Stev Theloke Jens Kruppa Thomas Rupprath Stefan Herbst",
          [
            "/wiki/Germany",
            "/wiki/Stev_Theloke",
            "/wiki/Jens_Kruppa",
            "/wiki/Thomas_Rupprath",
            "/wiki/Stefan_Herbst"
          ]
        ]
      ],
      [
        [
          "2004 Madrid",
          [
            "/wiki/2004_European_Aquatics_Championships"
          ]
        ],
        [
          "Ukraine Volodymyr Nikolaychuk Oleh Lisohor Andriy Serdinov Yuriy Yegoshin",
          [
            "/wiki/Ukraine",
            "/wiki/Volodymyr_Nikolaychuk",
            "/wiki/Oleh_Lisohor",
            "/wiki/Andriy_Serdinov",
            "/wiki/Yuriy_Yegoshin"
          ]
        ],
        [
          "France Simon Dufour Hugues Duboscq Franck Esposito Julien Sicot",
          [
            "/wiki/France",
            "/wiki/Simon_Dufour",
            "/wiki/Hugues_Duboscq",
            "/wiki/Franck_Esposito",
            "/wiki/Julien_Sicot"
          ]
        ],
        [
          "Hungary L\u00e1szl\u00f3 Cseh Rich\u00e1rd Bodor Zsolt G\u00e1sp\u00e1r Attila Zubor",
          [
            "/wiki/Hungary",
            "/wiki/L\u00e1szl\u00f3_Cseh",
            "/wiki/Rich\u00e1rd_Bodor",
            "/wiki/Zsolt_G\u00e1sp\u00e1r",
            "/wiki/Attila_Zubor"
          ]
        ]
      ],
      [
        [
          "2006 Budapest",
          [
            "/wiki/2006_European_Aquatics_Championships"
          ]
        ],
        [
          "Russia Arkady Vyatchanin Roman Sloudnov Nikolay Skvortsov Andrey Kapralov",
          [
            "/wiki/Russia",
            "/wiki/Arkady_Vyatchanin",
            "/wiki/Roman_Sludnov",
            "/wiki/Nikolay_Skvortsov_(swimmer)",
            "/wiki/Andrey_Kapralov"
          ]
        ],
        [
          "Ukraine Andriy Oleynyk Oleh Lisohor Andriy Serdinov Yuriy Yegoshin",
          [
            "/wiki/Ukraine",
            "/wiki/Oleh_Lisohor",
            "/wiki/Andriy_Serdinov",
            "/wiki/Yuriy_Yegoshin"
          ]
        ],
        [
          "Great Britain Liam Tancock James Gibson Todd Cooper Simon Burnett",
          [
            "/wiki/United_Kingdom",
            "/wiki/Liam_Tancock",
            "/wiki/James_Gibson_(swimmer)",
            "/wiki/Todd_Cooper",
            "/wiki/Simon_Burnett"
          ]
        ]
      ]
    ],
    "section_title": "Relays -- 4 \u00d7 100 meter medley",
    "section_text": "",
    "uid": "List_of_European_Aquatics_Championships_medalists_in_swimming_(men)_19",
    "intro": "This is the complete list of men's LEN European Aquatics Championships medalists in swimming from 1926 to date."
  },
  "List_of_Green_politicians_who_have_held_office_in_the_United_States_6": {
    "url": "https://en.wikipedia.org/wiki/List_of_Green_politicians_who_have_held_office_in_the_United_States",
    "title": "List of Green politicians who have held office in the United States",
    "header": [
      [
        "Name",
        []
      ],
      [
        "Area",
        []
      ],
      [
        "Office",
        []
      ],
      [
        "Current/Former",
        []
      ]
    ],
    "data": [
      [
        [
          "Gail Garrett",
          []
        ],
        [
          "Mount Washington , Massachusetts",
          [
            "/wiki/Mount_Washington,_Massachusetts"
          ]
        ],
        [
          "Member , Select Board",
          []
        ],
        [
          "C",
          []
        ]
      ],
      [
        [
          "Frank Gatti",
          []
        ],
        [
          "Amherst , Massachusetts",
          [
            "/wiki/Amherst,_Massachusetts"
          ]
        ],
        [
          "Town Meeting Seat",
          []
        ],
        [
          "C",
          []
        ]
      ],
      [
        [
          "Peter Gleichman",
          []
        ],
        [
          "Ward , Colorado",
          [
            "/wiki/Ward,_Colorado"
          ]
        ],
        [
          "Mayor",
          []
        ],
        [
          "F",
          []
        ]
      ],
      [
        [
          "Bob Gifford",
          []
        ],
        [
          "Portage County , Wisconsin",
          [
            "/wiki/Portage_County,_Wisconsin"
          ]
        ],
        [
          "Board of Supervisors",
          []
        ],
        [
          "C",
          []
        ]
      ],
      [
        [
          "Ren\u00e9e Goddard",
          []
        ],
        [
          "Fairfax , California",
          [
            "/wiki/Fairfax,_California"
          ]
        ],
        [
          "City Councillor",
          []
        ],
        [
          "C",
          []
        ]
      ],
      [
        [
          "Matt Gonzalez",
          [
            "/wiki/Matt_Gonzalez"
          ]
        ],
        [
          "San Francisco , California",
          [
            "/wiki/San_Francisco"
          ]
        ],
        [
          "President of the Board of Supervisors",
          []
        ],
        [
          "F",
          []
        ]
      ],
      [
        [
          "Art Goodtimes",
          [
            "/wiki/Art_Goodtimes"
          ]
        ],
        [
          "San Miguel County , Colorado",
          [
            "/wiki/San_Miguel_County,_Colorado"
          ]
        ],
        [
          "County Commissioner",
          []
        ],
        [
          "F",
          []
        ]
      ],
      [
        [
          "Cam Gordon",
          [
            "/wiki/Cam_Gordon"
          ]
        ],
        [
          "Minneapolis , Minnesota",
          [
            "/wiki/Minneapolis"
          ]
        ],
        [
          "City Councillor",
          []
        ],
        [
          "C",
          []
        ]
      ]
    ],
    "section_title": "Office holding politicians -- G",
    "section_text": "",
    "uid": "List_of_Green_politicians_who_have_held_office_in_the_United_States_6",
    "intro": ", 143 officeholders in the United States were affiliated with the Green Party, the majority of them in California, several in Illinois, Connecticut, Maine, Massachusetts, Oregon, Pennsylvania and Wisconsin, with five or fewer in ten other states. These included one mayor and one deputy mayor, and fourteen county or city commissioners (or equivalent). The remainder were members of school boards, clerks, and other local administrative bodies and positions. Several Green Party members have been elected to state-level office, though not always as affiliates of the party. John Eder was elected to the Maine House of Representatives, re-elected in 2004, but defeated in 2006. Audie Bock was elected to the California State Assembly in 1999, but switched her registration to Independent seven months later running as such in the 2000 election. Richard Carroll was elected to the Arkansas House of Representatives in 2008, but switched parties to become a Democrat five months after his election. Fred Smith was elected to the Arkansas House of Representatives in 2012, but re-registered as a Democrat in 2014. In 2010, former Green Party leader Ben Chipman was elected to the Maine House of Representatives as an unenrolled candidate, and was re-elected in 2012 and 2014. Gayle McLaughlin was twice elected mayor of Richmond, California, defeating two Democrats in 2006, and reelected in 2010, and elected to City Council in 2014 after completing her second term as mayor. With a population of over 100,000 people, it was the largest US city with a Green mayor. Fairfax, California; Arcata, California; Sebastopol, California; and New Paltz, New York are the only towns in the United States to have had a Green Party majority in their town councils."
  },
  "List_of_FIRS_Senior_Men's_Inline_Hockey_World_Championships_medalists_0": {
    "url": "https://en.wikipedia.org/wiki/FIRS_Inline_Hockey_World_Championships",
    "title": "FIRS Inline Hockey World Championships",
    "header": [
      [
        "Year",
        []
      ],
      [
        "Gold",
        []
      ],
      [
        "Silver",
        []
      ],
      [
        "Bronze",
        []
      ],
      [
        "Host city ( cities )",
        []
      ],
      [
        "Host country",
        []
      ]
    ],
    "data": [
      [
        [
          "1995",
          []
        ],
        [
          "United States",
          [
            "/wiki/United_States_men's_national_inline_hockey_team"
          ]
        ],
        [
          "Canada",
          [
            "/wiki/Canada_men's_national_inline_hockey_team"
          ]
        ],
        [
          "Finland",
          [
            "/wiki/Finland_men's_national_inline_hockey_team"
          ]
        ],
        [
          "Chicago",
          [
            "/wiki/Chicago"
          ]
        ],
        [
          "United States",
          []
        ]
      ],
      [
        [
          "1996",
          [
            "/wiki/Second_Roller_In-line_Hockey_World_Championship"
          ]
        ],
        [
          "United States",
          [
            "/wiki/United_States_men's_national_inline_hockey_team"
          ]
        ],
        [
          "France",
          [
            "/wiki/France_men's_national_inline_hockey_team"
          ]
        ],
        [
          "Italy",
          [
            "/wiki/Italy_men's_national_inline_hockey_team"
          ]
        ],
        [
          "Roccaraso",
          [
            "/wiki/Roccaraso"
          ]
        ],
        [
          "Italy",
          [
            "/wiki/Italy"
          ]
        ]
      ],
      [
        [
          "1997",
          []
        ],
        [
          "United States",
          [
            "/wiki/United_States_men's_national_inline_hockey_team"
          ]
        ],
        [
          "Canada",
          [
            "/wiki/Canada_men's_national_inline_hockey_team"
          ]
        ],
        [
          "Austria",
          []
        ],
        [
          "Zell am See",
          [
            "/wiki/Zell_am_See"
          ]
        ],
        [
          "Austria",
          [
            "/wiki/Austria"
          ]
        ]
      ],
      [
        [
          "1998",
          []
        ],
        [
          "United States",
          [
            "/wiki/United_States_men's_national_inline_hockey_team"
          ]
        ],
        [
          "Austria",
          []
        ],
        [
          "Czech Republic",
          [
            "/wiki/Czech_Republic_men's_national_inline_hockey_team"
          ]
        ],
        [
          "Winnipeg",
          [
            "/wiki/Winnipeg"
          ]
        ],
        [
          "Canada",
          [
            "/wiki/Canada"
          ]
        ]
      ],
      [
        [
          "1999",
          []
        ],
        [
          "Switzerland",
          [
            "/wiki/Switzerland_men's_national_inline_hockey_team"
          ]
        ],
        [
          "United States",
          [
            "/wiki/United_States_men's_national_inline_hockey_team"
          ]
        ],
        [
          "Czech Republic",
          [
            "/wiki/Czech_Republic_men's_national_inline_hockey_team"
          ]
        ],
        [
          "Thun , Wichtrach",
          [
            "/wiki/Thun",
            "/wiki/Wichtrach"
          ]
        ],
        [
          "Switzerland",
          [
            "/wiki/Switzerland"
          ]
        ]
      ],
      [
        [
          "2000",
          []
        ],
        [
          "United States",
          [
            "/wiki/United_States_men's_national_inline_hockey_team"
          ]
        ],
        [
          "Switzerland",
          [
            "/wiki/Switzerland_men's_national_inline_hockey_team"
          ]
        ],
        [
          "Czech Republic",
          [
            "/wiki/Czech_Republic_men's_national_inline_hockey_team"
          ]
        ],
        [
          "Amiens",
          [
            "/wiki/Amiens"
          ]
        ],
        [
          "France",
          [
            "/wiki/France"
          ]
        ]
      ],
      [
        [
          "2001",
          []
        ],
        [
          "United States",
          [
            "/wiki/United_States_men's_national_inline_hockey_team"
          ]
        ],
        [
          "Czech Republic",
          [
            "/wiki/Czech_Republic_men's_national_inline_hockey_team"
          ]
        ],
        [
          "Switzerland",
          [
            "/wiki/Switzerland_men's_national_inline_hockey_team"
          ]
        ],
        [
          "Torrevieja",
          [
            "/wiki/Torrevieja"
          ]
        ],
        [
          "Spain",
          [
            "/wiki/Spain"
          ]
        ]
      ],
      [
        [
          "2002",
          [
            "/wiki/2002_FIRS_Men's_Inline_Hockey_World_Championships"
          ]
        ],
        [
          "Canada",
          [
            "/wiki/Canada_men's_national_inline_hockey_team"
          ]
        ],
        [
          "United States",
          [
            "/wiki/United_States_men's_national_inline_hockey_team"
          ]
        ],
        [
          "Czech Republic",
          [
            "/wiki/Czech_Republic_men's_national_inline_hockey_team"
          ]
        ],
        [
          "Rochester",
          []
        ],
        [
          "United States",
          []
        ]
      ],
      [
        [
          "2004",
          []
        ],
        [
          "United States",
          [
            "/wiki/United_States_men's_national_inline_hockey_team"
          ]
        ],
        [
          "Canada",
          [
            "/wiki/Canada_men's_national_inline_hockey_team"
          ]
        ],
        [
          "Italy",
          [
            "/wiki/Italy_men's_national_inline_hockey_team"
          ]
        ],
        [
          "London",
          [
            "/wiki/London,_Ontario"
          ]
        ],
        [
          "Canada",
          [
            "/wiki/Canada"
          ]
        ]
      ],
      [
        [
          "2005",
          []
        ],
        [
          "United States",
          [
            "/wiki/United_States_men's_national_inline_hockey_team"
          ]
        ],
        [
          "Czech Republic",
          [
            "/wiki/Czech_Republic_men's_national_inline_hockey_team"
          ]
        ],
        [
          "France",
          [
            "/wiki/France_men's_national_inline_hockey_team"
          ]
        ],
        [
          "Paris",
          [
            "/wiki/Paris"
          ]
        ],
        [
          "France",
          [
            "/wiki/France"
          ]
        ]
      ],
      [
        [
          "2006",
          []
        ],
        [
          "United States",
          [
            "/wiki/United_States_men's_national_inline_hockey_team"
          ]
        ],
        [
          "Czech Republic",
          [
            "/wiki/Czech_Republic_men's_national_inline_hockey_team"
          ]
        ],
        [
          "Canada",
          [
            "/wiki/Canada_men's_national_inline_hockey_team"
          ]
        ],
        [
          "Detroit",
          [
            "/wiki/Detroit"
          ]
        ],
        [
          "United States",
          []
        ]
      ],
      [
        [
          "2007",
          [
            "/wiki/2007_FIRS_Men's_Inline_Hockey_World_Championships"
          ]
        ],
        [
          "Czech Republic",
          [
            "/wiki/Czech_Republic_men's_national_inline_hockey_team"
          ]
        ],
        [
          "Switzerland",
          [
            "/wiki/Switzerland_men's_national_inline_hockey_team"
          ]
        ],
        [
          "Canada",
          [
            "/wiki/Canada_men's_national_inline_hockey_team"
          ]
        ],
        [
          "Bilbao",
          [
            "/wiki/Bilbao"
          ]
        ],
        [
          "Spain",
          []
        ]
      ],
      [
        [
          "2008",
          [
            "/wiki/2008_FIRS_Men's_Inline_Hockey_World_Championships"
          ]
        ],
        [
          "United States",
          [
            "/wiki/United_States_men's_national_inline_hockey_team"
          ]
        ],
        [
          "France",
          [
            "/wiki/France_men's_national_inline_hockey_team"
          ]
        ],
        [
          "Czech Republic",
          [
            "/wiki/Czech_Republic_men's_national_inline_hockey_team"
          ]
        ],
        [
          "Ratingen",
          [
            "/wiki/Ratingen"
          ]
        ],
        [
          "Germany",
          [
            "/wiki/Germany"
          ]
        ]
      ],
      [
        [
          "2009",
          []
        ],
        [
          "United States",
          [
            "/wiki/United_States_men's_national_inline_hockey_team"
          ]
        ],
        [
          "Canada",
          [
            "/wiki/Canada_men's_national_inline_hockey_team"
          ]
        ],
        [
          "Czech Republic",
          [
            "/wiki/Czech_Republic_men's_national_inline_hockey_team"
          ]
        ],
        [
          "Varese",
          [
            "/wiki/Varese"
          ]
        ],
        [
          "Italy",
          [
            "/wiki/Italy"
          ]
        ]
      ],
      [
        [
          "2010",
          [
            "/wiki/2010_FIRS_Men's_Inline_Hockey_World_Championships"
          ]
        ],
        [
          "United States",
          [
            "/wiki/United_States_men's_national_inline_hockey_team"
          ]
        ],
        [
          "Switzerland",
          [
            "/wiki/Switzerland_men's_national_inline_hockey_team"
          ]
        ],
        [
          "Czech Republic",
          [
            "/wiki/Czech_Republic_men's_national_inline_hockey_team"
          ]
        ],
        [
          "Beroun",
          [
            "/wiki/Beroun"
          ]
        ],
        [
          "Czech Republic",
          [
            "/wiki/Czech_Republic"
          ]
        ]
      ],
      [
        [
          "2011",
          []
        ],
        [
          "Czech Republic",
          [
            "/wiki/Czech_Republic_men's_national_inline_hockey_team"
          ]
        ],
        [
          "Italy",
          [
            "/wiki/Italy_men's_national_inline_hockey_team"
          ]
        ],
        [
          "United States",
          [
            "/wiki/United_States_men's_national_inline_hockey_team"
          ]
        ],
        [
          "Roccaraso",
          [
            "/wiki/Roccaraso"
          ]
        ],
        [
          "Italy",
          [
            "/wiki/Italy"
          ]
        ]
      ],
      [
        [
          "2012",
          [
            "/wiki/2012_FIRS_Senior_Men's_Inline_Hockey_World_Championships"
          ]
        ],
        [
          "United States",
          [
            "/wiki/United_States_men's_national_inline_hockey_team"
          ]
        ],
        [
          "Canada",
          [
            "/wiki/Canada_men's_national_inline_hockey_team"
          ]
        ],
        [
          "Czech Republic",
          [
            "/wiki/Czech_Republic_men's_national_inline_hockey_team"
          ]
        ],
        [
          "Bucaramanga",
          [
            "/wiki/Bucaramanga"
          ]
        ],
        [
          "Colombia",
          [
            "/wiki/Colombia"
          ]
        ]
      ],
      [
        [
          "2013",
          []
        ],
        [
          "Czech Republic",
          [
            "/wiki/Czech_Republic_men's_national_inline_hockey_team"
          ]
        ],
        [
          "Canada",
          [
            "/wiki/Canada_men's_national_inline_hockey_team"
          ]
        ],
        [
          "Switzerland",
          [
            "/wiki/Switzerland_men's_national_inline_hockey_team"
          ]
        ],
        [
          "Anaheim",
          [
            "/wiki/Anaheim,_California"
          ]
        ],
        [
          "United States",
          [
            "/wiki/United_States"
          ]
        ]
      ],
      [
        [
          "2014",
          []
        ],
        [
          "United States",
          [
            "/wiki/United_States_men's_national_inline_hockey_team"
          ]
        ],
        [
          "Czech Republic",
          [
            "/wiki/Czech_Republic_men's_national_inline_hockey_team"
          ]
        ],
        [
          "Canada",
          [
            "/wiki/Canada_men's_national_inline_hockey_team"
          ]
        ],
        [
          "Toulouse",
          [
            "/wiki/Toulouse"
          ]
        ],
        [
          "France",
          [
            "/wiki/France"
          ]
        ]
      ],
      [
        [
          "2015",
          []
        ],
        [
          "Czech Republic",
          [
            "/wiki/Czech_Republic_men's_national_inline_hockey_team"
          ]
        ],
        [
          "France",
          [
            "/wiki/France_men's_national_inline_hockey_team"
          ]
        ],
        [
          "United States",
          [
            "/wiki/United_States_men's_national_inline_hockey_team"
          ]
        ],
        [
          "Rosario",
          [
            "/wiki/Rosario,_Santa_Fe"
          ]
        ],
        [
          "Argentina",
          [
            "/wiki/Argentina"
          ]
        ]
      ]
    ],
    "section_title": "Tournament Results -- Senior Men",
    "section_text": "",
    "uid": "List_of_FIRS_Senior_Men's_Inline_Hockey_World_Championships_medalists_0",
    "intro": "The Inline Hockey World Championships are an annual inline hockey tournament organized by the Comit\u00e9 International Roller In-Line Hockey (CIRILH), an organization and discipline of F\u00e9d\u00e9ration Internationale de Roller Sports (FIRS). First held in 1995, it is the sport's highest profile annual international tournament. The first World Championship that was held was in 1995 in which twelve nations participated in pool play followed by single elimination games to determine the champion. This basic format would be used until 2006 (although the number of teams changed). The modern format for the World Championship features eight teams in Group 1, and if there are more than eight teams, the rest compete in Group 2. All teams play a preliminary round, then the top six teams in Group 1 and top two teams in Group 2 play in the playoff medal round and the winning team is crowned World Champion. The remaining teams (bottom two in Group 1 and remaining teams in Group 2) play in a playoff round for the National Team World Cup, and the winning team is crowned World Cup champions. The World Championships are open to all players, both professional and amateur. The FIRS requires that players are citizens of the country they represent and allow players to switch national teams provided that they play in their new nation for a certain period of time. The United States is the tournament's first dominant team, winning the tournament 14 of the 18 events held (as of 2012), as well as medaling in all but one tournament. The Czech Republic is the next most successful team, winning the tournament twice and winning 14 medals."
  },
  "Template:Democratic_Republic_of_the_Congo_parliamentary_election,_2006_0": {
    "url": "https://en.wikipedia.org/wiki/Template:Democratic_Republic_of_the_Congo_parliamentary_election,_2006",
    "title": "Template:Democratic Republic of the Congo parliamentary election, 2006",
    "header": [
      [
        "Parties",
        []
      ],
      [
        "Seats",
        []
      ],
      [
        "% seats",
        []
      ]
    ],
    "data": [
      [
        [
          "People 's Party for Reconstruction and Democracy ( Parti du Peuple pour la Reconstruction et le D\u00e9mocratie )",
          [
            "/wiki/People's_Party_for_Reconstruction_and_Democracy"
          ]
        ],
        [
          "111",
          []
        ],
        [
          "22.2",
          []
        ]
      ],
      [
        [
          "Movement for the Liberation of Congo ( Mouvement pour la Liberation du Congo )",
          [
            "/wiki/Movement_for_the_Liberation_of_the_Congo"
          ]
        ],
        [
          "64",
          []
        ],
        [
          "12.8",
          []
        ]
      ],
      [
        [
          "Unified Lumumbist Party ( Parti Lumumbiste Unifi\u00e9 )",
          [
            "/wiki/Unified_Lumumbist_Party"
          ]
        ],
        [
          "34",
          []
        ],
        [
          "6.8",
          []
        ]
      ],
      [
        [
          "Social Movement for Renewal ( Mouvement Social pour le Renouveau )",
          [
            "/wiki/Social_Movement_for_Renewal"
          ]
        ],
        [
          "27",
          []
        ],
        [
          "5.4",
          []
        ]
      ],
      [
        [
          "Forces for Renewal ( Forces du Renouveau )",
          [
            "/wiki/Forces_for_Renewal"
          ]
        ],
        [
          "26",
          []
        ],
        [
          "5.2",
          []
        ]
      ],
      [
        [
          "Congolese Rally for Democracy ( Rassemblement Congolais pour la D\u00e9mocratie )",
          [
            "/wiki/Rally_for_Congolese_Democracy"
          ]
        ],
        [
          "15",
          []
        ],
        [
          "3.0",
          []
        ]
      ],
      [
        [
          "Coalition of Congolese Democrats ( Coalition des D\u00e9mocrates Congolais )",
          [
            "/wiki/Coalition_of_Congolese_Democrats"
          ]
        ],
        [
          "10",
          []
        ],
        [
          "2.0",
          []
        ]
      ],
      [
        [
          "Convention of Christian Democrats ( Convention des D\u00e9mocrates Chr\u00e9tiens )",
          [
            "/wiki/Convention_of_Christian_Democrats"
          ]
        ],
        [
          "10",
          []
        ],
        [
          "2.0",
          []
        ]
      ],
      [
        [
          "Union of Mobutuist Democrats ( Union des D\u00e9mocrates Mobutistes )",
          [
            "/wiki/Union_of_Mobutuist_Democrats"
          ]
        ],
        [
          "9",
          []
        ],
        [
          "1.8",
          []
        ]
      ],
      [
        [
          "Camp of the Fatherland ( Camp de la Patrie )",
          [
            "/wiki/Camp_of_the_Fatherland"
          ]
        ],
        [
          "8",
          []
        ],
        [
          "1.6",
          []
        ]
      ],
      [
        [
          "Federalist Christian Democracy-Convention of Federalists for Christian Democracy ( D\u00e9mocratie Chr\u00e9tienne F\u00e9d\u00e9raliste-Convention des F\u00e9d\u00e9ralistes pour la D\u00e9mocratie Chr\u00e9tiene )",
          [
            "/wiki/Federalist_Christian_Democracy_\u2013_Convention_of_Federalists_for_Christian_Democracy"
          ]
        ],
        [
          "8",
          []
        ],
        [
          "1.6",
          []
        ]
      ],
      [
        [
          "Christian Democrat Party ( Parti D\u00e9mocrate Chr\u00e9tien )",
          [
            "/wiki/Christian_Democratic_Party_(Democratic_Republic_of_the_Congo)"
          ]
        ],
        [
          "8",
          []
        ],
        [
          "1.6",
          []
        ]
      ],
      [
        [
          "Union of Federalist Nationalists of Congo ( Union des Nationalistes F\u00e9d\u00e9ralistes du Congo )",
          [
            "/wiki/Union_of_Federalist_Nationalists_of_Congo"
          ]
        ],
        [
          "7",
          []
        ],
        [
          "1.4",
          []
        ]
      ],
      [
        [
          "Congolese Alliance of Christian Democrats ( Alliance Congolaise des D\u00e9mocrates Chr\u00e9tiens )",
          [
            "/wiki/Congolese_Alliance_of_Christian_Democrats"
          ]
        ],
        [
          "4",
          []
        ],
        [
          "0.8",
          []
        ]
      ],
      [
        [
          "Alliance of Congolese Democrats ( Alliance des D\u00e9mocrates Congolais )",
          [
            "/wiki/Alliance_of_Congolese_Democrats"
          ]
        ],
        [
          "4",
          []
        ],
        [
          "0.8",
          []
        ]
      ],
      [
        [
          "United Congolese Convention ( Convention des Congolais Unis )",
          [
            "/wiki/United_Congolese_Convention"
          ]
        ],
        [
          "4",
          []
        ],
        [
          "0.8",
          []
        ]
      ],
      [
        [
          "Resistance Patriots Ma\u00ef-Ma\u00ef ( Patriotes R\u00e9sistants Ma\u00ef-Ma\u00ef )",
          [
            "/wiki/Resistance_Patriots_Ma\u00ef-Ma\u00ef"
          ]
        ],
        [
          "4",
          []
        ],
        [
          "0.8",
          []
        ]
      ],
      [
        [
          "Rally of Congolese Democrats and Nationalists ( Rassemblement des Congolais D\u00e9mocrates et Nationalistes )",
          [
            "/wiki/Rally_of_Congolese_Democrats_and_Nationalists"
          ]
        ],
        [
          "4",
          []
        ],
        [
          "0.8",
          []
        ]
      ],
      [
        [
          "Union of the People for Republic and Integral Development ( Union du Peuple pour la R\u00e9publique et le D\u00e9veloppement Int\u00e9gral )",
          [
            "/wiki/Union_of_the_People_for_Republic_and_Integral_Development"
          ]
        ],
        [
          "4",
          []
        ],
        [
          "0.8",
          []
        ]
      ],
      [
        [
          "Union of Builders of Kongo ( Alliance des B\u00e2tisseurs du Kongo )",
          [
            "/wiki/Alliance_of_Builders_of_Kongo"
          ]
        ],
        [
          "3",
          []
        ],
        [
          "0.6",
          []
        ]
      ]
    ],
    "section_title": "",
    "section_text": "",
    "uid": "Template:Democratic_Republic_of_the_Congo_parliamentary_election,_2006_0",
    "intro": "N/A"
  },
  "List_of_the_vascular_plants_of_Britain_and_Ireland_(monocotyledons)_20": {
    "url": "https://en.wikipedia.org/wiki/List_of_the_vascular_plants_of_Britain_and_Ireland_(monocotyledons)",
    "title": "List of the vascular plants of Britain and Ireland (monocotyledons)",
    "header": [
      [
        "English name",
        []
      ],
      [
        "Scientific name",
        []
      ],
      [
        "Status",
        []
      ]
    ],
    "data": [
      [
        [
          "Lily-of-the-valley",
          []
        ],
        [
          "Convallaria majalis",
          [
            "/wiki/Lily_of_the_valley"
          ]
        ],
        [
          "",
          []
        ]
      ],
      [
        [
          "Solomon's-seal",
          []
        ],
        [
          "Polygonatum multiflorum",
          [
            "/wiki/Polygonatum_multiflorum"
          ]
        ],
        [
          "",
          []
        ]
      ],
      [
        [
          "Angular Solomon's-seal",
          []
        ],
        [
          "Polygonatum odoratum",
          [
            "/wiki/Polygonatum_odoratum"
          ]
        ],
        [
          "",
          []
        ]
      ],
      [
        [
          "Whorled Solomon's-seal",
          []
        ],
        [
          "Polygonatum verticillatum",
          [
            "/wiki/Polygonatum_verticillatum"
          ]
        ],
        [
          "",
          []
        ]
      ],
      [
        [
          "May lily",
          []
        ],
        [
          "Maianthemum bifolium",
          [
            "/wiki/Maianthemum_bifolium"
          ]
        ],
        [
          "",
          []
        ]
      ],
      [
        [
          "Reineckea",
          []
        ],
        [
          "Reineckea carnea",
          [
            "/wiki/Reineckea"
          ]
        ],
        [
          "*",
          []
        ]
      ],
      [
        [
          "Spiked Star-of-Bethlehem",
          []
        ],
        [
          "Ornithogalum pyrenaicum",
          [
            "/wiki/Ornithogalum_pyrenaicum"
          ]
        ],
        [
          "",
          []
        ]
      ],
      [
        [
          "Star-of-Bethlehem",
          []
        ],
        [
          "Ornithogalum umbellatum",
          [
            "/wiki/Ornithogalum_umbellatum"
          ]
        ],
        [
          "",
          []
        ]
      ],
      [
        [
          "Drooping Star-of-Bethlehem",
          []
        ],
        [
          "Ornithogalum nutans",
          [
            "/wiki/Ornithogalum_nutans"
          ]
        ],
        [
          "*",
          []
        ]
      ],
      [
        [
          "Alpine squill",
          []
        ],
        [
          "Scilla bifolia",
          [
            "/wiki/Scilla_bifolia"
          ]
        ],
        [
          "*",
          []
        ]
      ],
      [
        [
          "Greek squill",
          []
        ],
        [
          "Scilla messeniaca",
          []
        ],
        [
          "*",
          []
        ]
      ],
      [
        [
          "Siberian squill",
          []
        ],
        [
          "Scilla siberica",
          [
            "/wiki/Scilla_siberica"
          ]
        ],
        [
          "*",
          []
        ]
      ],
      [
        [
          "Spring squill",
          []
        ],
        [
          "Scilla verna",
          [
            "/wiki/Scilla_verna"
          ]
        ],
        [
          "",
          []
        ]
      ],
      [
        [
          "Pyrenean squill",
          []
        ],
        [
          "Scilla liliohyacinthus",
          []
        ],
        [
          "*",
          []
        ]
      ],
      [
        [
          "Portuguese squill",
          []
        ],
        [
          "Scilla peruviana",
          [
            "/wiki/Scilla_peruviana"
          ]
        ],
        [
          "*",
          []
        ]
      ],
      [
        [
          "Autumn squill",
          []
        ],
        [
          "Scilla autumnalis",
          [
            "/wiki/Prospero_autumnale"
          ]
        ],
        [
          "",
          []
        ]
      ],
      [
        [
          "Italian bluebell",
          []
        ],
        [
          "Hyacinthoides italica",
          [
            "/wiki/Hyacinthoides_italica"
          ]
        ],
        [
          "*",
          []
        ]
      ],
      [
        [
          "Bluebell",
          []
        ],
        [
          "Hyacinthoides non-scripta",
          [
            "/wiki/Hyacinthoides_non-scripta"
          ]
        ],
        [
          "",
          []
        ]
      ],
      [
        [
          "Spanish bluebell",
          []
        ],
        [
          "Hyacinthoides hispanica",
          [
            "/wiki/Hyacinthoides_hispanica"
          ]
        ],
        [
          "*",
          []
        ]
      ],
      [
        [
          "Hyacinth",
          []
        ],
        [
          "Hyacinthus orientalis",
          [
            "/wiki/Hyacinthus_orientalis"
          ]
        ],
        [
          "*",
          []
        ]
      ]
    ],
    "section_title": "Order Asparagales ( asparagoid lilies ) -- Family Asparagaceae ( asparagus family )",
    "section_text": "",
    "uid": "List_of_the_vascular_plants_of_Britain_and_Ireland_(monocotyledons)_20",
    "intro": "This page's list covers the monocotyledon plants found in Great Britain and Ireland. This clade includes grasses, lilies, orchids, irises and a wide variety of aquatic plants. Status key: * indicates an introduced species and e indicates an extinct species."
  },
  "Short_course_swimming_at_the_2013_Asian_Indoor_and_Martial_Arts_Games_13": {
    "url": "https://en.wikipedia.org/wiki/Short_course_swimming_at_the_2013_Asian_Indoor_and_Martial_Arts_Games",
    "title": "Short course swimming at the 2013 Asian Indoor and Martial Arts Games",
    "header": [
      [
        "Rank",
        []
      ],
      [
        "Athlete",
        []
      ],
      [
        "Heats",
        []
      ]
    ],
    "data": [
      [
        [
          "1",
          []
        ],
        [
          "Mao Feilian ( CHN )",
          [
            "/wiki/Mao_Feilian"
          ]
        ],
        [
          "2:01.62",
          []
        ]
      ],
      [
        [
          "2",
          []
        ],
        [
          "Tr\u1ea7n Duy Kh\u00f4i ( VIE )",
          [
            "/wiki/Tr\u1ea7n_Duy_Kh\u00f4i",
            "/wiki/Vietnam_at_the_2013_Asian_Indoor_and_Martial_Arts_Games"
          ]
        ],
        [
          "2:02.74",
          []
        ]
      ],
      [
        [
          "3",
          []
        ],
        [
          "Choi Kyu-woong ( KOR )",
          [
            "/wiki/Choi_Kyu-woong",
            "/wiki/South_Korea_at_the_2013_Asian_Indoor_and_Martial_Arts_Games"
          ]
        ],
        [
          "2:02.51",
          []
        ]
      ],
      [
        [
          "4",
          []
        ],
        [
          "Dmitriy Gordiyenko ( KAZ )",
          [
            "/wiki/Dmitriy_Gordiyenko"
          ]
        ],
        [
          "2:02.14",
          []
        ]
      ],
      [
        [
          "5",
          []
        ],
        [
          "Im Tae-jeong ( KOR )",
          [
            "/wiki/South_Korea_at_the_2013_Asian_Indoor_and_Martial_Arts_Games"
          ]
        ],
        [
          "2:02.93",
          []
        ]
      ],
      [
        [
          "6",
          []
        ],
        [
          "Vasilii Danilov ( KGZ )",
          [
            "/wiki/Vasilii_Danilov"
          ]
        ],
        [
          "2:03.44",
          []
        ]
      ],
      [
        [
          "7",
          []
        ],
        [
          "Radomyos Matjiur ( THA )",
          [
            "/wiki/Radomyos_Matjiur",
            "/wiki/Thailand_at_the_2013_Asian_Indoor_and_Martial_Arts_Games"
          ]
        ],
        [
          "2:03.30",
          []
        ]
      ],
      [
        [
          "8",
          []
        ],
        [
          "Yousef Al-Askari ( KUW )",
          [
            "/wiki/Yousef_Al-Askari"
          ]
        ],
        [
          "2:02.51",
          []
        ]
      ],
      [
        [
          "9",
          []
        ],
        [
          "Jessie Lacuna ( PHI )",
          [
            "/wiki/Jessie_Lacuna"
          ]
        ],
        [
          "2:04.44",
          []
        ]
      ],
      [
        [
          "10",
          []
        ],
        [
          "Hsu Chi-chieh ( TPE )",
          [
            "/wiki/Hsu_Chi-chieh"
          ]
        ],
        [
          "2:04.69",
          []
        ]
      ],
      [
        [
          "11",
          []
        ],
        [
          "Jiarapong Sangkhawat ( THA )",
          [
            "/wiki/Thailand_at_the_2013_Asian_Indoor_and_Martial_Arts_Games"
          ]
        ],
        [
          "2:04.84",
          []
        ]
      ],
      [
        [
          "12",
          []
        ],
        [
          "David Wong ( HKG )",
          []
        ],
        [
          "2:04.86",
          []
        ]
      ],
      [
        [
          "13",
          []
        ],
        [
          "Ayman Klzie ( SYR )",
          []
        ],
        [
          "2:05.20",
          []
        ]
      ],
      [
        [
          "14",
          []
        ],
        [
          "Ahmad Reza Jalali ( IRI )",
          [
            "/wiki/Iran_at_the_2013_Asian_Indoor_and_Martial_Arts_Games"
          ]
        ],
        [
          "2:05.36",
          []
        ]
      ],
      [
        [
          "15",
          []
        ],
        [
          "Derick Ng ( HKG )",
          []
        ],
        [
          "2:05.40",
          []
        ]
      ],
      [
        [
          "16",
          []
        ],
        [
          "Rodrick Luhur ( INA )",
          [
            "/wiki/Indonesia_at_the_2013_Asian_Indoor_and_Martial_Arts_Games"
          ]
        ],
        [
          "2:06.15",
          []
        ]
      ],
      [
        [
          "17",
          []
        ],
        [
          "Aleksandr Slepchenko ( KGZ )",
          []
        ],
        [
          "2:07.21",
          []
        ]
      ],
      [
        [
          "18",
          []
        ],
        [
          "Matthew Abeysinghe ( SRI )",
          [
            "/wiki/Matthew_Abeysinghe"
          ]
        ],
        [
          "2:07.61",
          []
        ]
      ],
      [
        [
          "19",
          []
        ],
        [
          "Shi Ji ( CHN )",
          []
        ],
        [
          "2:08.70",
          []
        ]
      ],
      [
        [
          "20",
          []
        ],
        [
          "Franz Marquez ( PHI )",
          []
        ],
        [
          "2:11.97",
          []
        ]
      ]
    ],
    "section_title": "Results -- Men",
    "section_text": "30 June",
    "uid": "Short_course_swimming_at_the_2013_Asian_Indoor_and_Martial_Arts_Games_13",
    "intro": "Short course swimming, for the 2013 Asian Indoor and Martial Arts Games, was held at the Dowon Aquatics Center. It took place from 30 June to 3 July 2013."
  }
}