{
  "National_Register_of_Historic_Places_listings_in_Linn_County,_Kansas_0": {
    "url": "https://en.wikipedia.org/wiki/National_Register_of_Historic_Places_listings_in_Linn_County,_Kansas",
    "title": "National Register of Historic Places listings in Linn County, Kansas",
    "header": [
      [
        "",
        []
      ],
      [
        "Name on the Register",
        []
      ],
      [
        "Date listed",
        []
      ],
      [
        "Location",
        []
      ],
      [
        "City or town",
        []
      ]
    ],
    "data": [
      [
        [
          "1",
          []
        ],
        [
          "Battle of Mine Creek Site",
          [
            "/wiki/Mine_Creek_Battlefield_State_Historic_Site"
          ]
        ],
        [
          "December 12 , 1973 ( # 73000762 )",
          []
        ],
        [
          "2.5 miles southwest of Pleasanton off U.S. Route 69 38\u00b008\u203206\u2033N 94\u00b043\u203228\u2033W / 38.135\u00b0N 94.724444\u00b0W / 38.135 ; -94.724444 ( Battle of Mine Creek Site )",
          [
            "/wiki/U.S._Route_69"
          ]
        ],
        [
          "Pleasanton",
          [
            "/wiki/Pleasanton,_Kansas"
          ]
        ]
      ],
      [
        [
          "2",
          []
        ],
        [
          "Landers Creek Bridge",
          [
            "/wiki/Landers_Creek_Bridge"
          ]
        ],
        [
          "July 2 , 1985 ( # 85001430 )",
          []
        ],
        [
          "Southern edge of Goodrich 38\u00b016\u203250\u2033N 94\u00b059\u203230\u2033W / 38.280556\u00b0N 94.991667\u00b0W / 38.280556 ; -94.991667 ( Landers Creek Bridge )",
          []
        ],
        [
          "Goodrich",
          []
        ]
      ],
      [
        [
          "3",
          []
        ],
        [
          "Linn County Courthouse",
          [
            "/wiki/Linn_County_Courthouse_(Kansas)"
          ]
        ],
        [
          "July 15 , 1974 ( # 74000842 )",
          []
        ],
        [
          "4th and Main 38\u00b008\u203231\u2033N 94\u00b048\u203237\u2033W / 38.141944\u00b0N 94.810278\u00b0W / 38.141944 ; -94.810278 ( Linn County Courthouse )",
          []
        ],
        [
          "Mound City",
          [
            "/wiki/Mound_City,_Kansas"
          ]
        ]
      ],
      [
        [
          "4",
          []
        ],
        [
          "Marais des Cygnes Massacre Site",
          [
            "/wiki/Marais_des_Cygnes_Massacre_Site"
          ]
        ],
        [
          "June 21 , 1971 ( # 71000317 )",
          []
        ],
        [
          "5 miles northeast of Trading Post 38\u00b016\u203252\u2033N 94\u00b037\u203212\u2033W / 38.281111\u00b0N 94.62\u00b0W / 38.281111 ; -94.62 ( Marais des Cygnes Massacre Site )",
          []
        ],
        [
          "Trading Post",
          [
            "/wiki/Trading_Post,_Kansas"
          ]
        ]
      ],
      [
        [
          "5",
          []
        ],
        [
          "Mine Creek Bridge",
          [
            "/wiki/Mine_Creek_Bridge"
          ]
        ],
        [
          "March 10 , 1983 ( # 83000430 )",
          []
        ],
        [
          "East of Mound City 38\u00b008\u203229\u2033N 94\u00b041\u203242\u2033W / 38.141389\u00b0N 94.695\u00b0W / 38.141389 ; -94.695 ( Mine Creek Bridge )",
          []
        ],
        [
          "Mound City",
          [
            "/wiki/Mound_City,_Kansas"
          ]
        ]
      ],
      [
        [
          "6",
          []
        ],
        [
          "Old Linn County Jail",
          [
            "/wiki/Old_Linn_County_Jail"
          ]
        ],
        [
          "November 30 , 1978 ( # 78001285 )",
          []
        ],
        [
          "312 Main St. 38\u00b008\u203234\u2033N 94\u00b048\u203237\u2033W / 38.142778\u00b0N 94.810278\u00b0W / 38.142778 ; -94.810278 ( Old Linn County Jail )",
          []
        ],
        [
          "Mound City",
          [
            "/wiki/Mound_City,_Kansas"
          ]
        ]
      ],
      [
        [
          "7",
          []
        ],
        [
          "Prescott School",
          [
            "/wiki/Prescott_School"
          ]
        ],
        [
          "May 6 , 1982 ( # 82002664 )",
          []
        ],
        [
          "3rd and Main Sts . 38\u00b003\u203255\u2033N 94\u00b041\u203255\u2033W / 38.065278\u00b0N 94.698611\u00b0W / 38.065278 ; -94.698611 ( Prescott School )",
          []
        ],
        [
          "Prescott",
          [
            "/wiki/Prescott,_Kansas"
          ]
        ]
      ],
      [
        [
          "8",
          []
        ],
        [
          "Prescott Rural High School",
          [
            "/wiki/Prescott_Rural_High_School"
          ]
        ],
        [
          "July 3 , 2008 ( # 08000610 )",
          []
        ],
        [
          "202 West 4th St. 38\u00b003\u203254\u2033N 94\u00b041\u203259\u2033W / 38.065\u00b0N 94.699722\u00b0W / 38.065 ; -94.699722 ( Prescott Rural High School )",
          []
        ],
        [
          "Prescott",
          [
            "/wiki/Prescott,_Kansas"
          ]
        ]
      ]
    ],
    "section_title": "Current listings",
    "section_text": "",
    "uid": "National_Register_of_Historic_Places_listings_in_Linn_County,_Kansas_0",
    "intro": "This is a list of the National Register of Historic Places listings in Linn County, Kansas. This is intended to be a complete list of the properties on the National Register of Historic Places in Linn County, Kansas, United States. The locations of National Register properties for which the latitude and longitude coordinates are included below, may be seen in a map. There are 8 properties listed on the National Register in the county, one of which is a National Historic Landmark."
  },
  "List_of_ICF_Canoe_Slalom_World_Championships_medalists_in_men's_canoe_6": {
    "url": "https://en.wikipedia.org/wiki/List_of_ICF_Canoe_Slalom_World_Championships_medalists_in_men's_canoe",
    "title": "List of ICF Canoe Slalom World Championships medalists in men's canoe",
    "header": [
      [
        "Championships",
        []
      ],
      [
        "Gold",
        []
      ],
      [
        "Silver",
        []
      ],
      [
        "Bronze",
        []
      ]
    ],
    "data": [
      [
        [
          "1949 Geneva",
          [
            "/wiki/1949_ICF_Canoe_Slalom_World_Championships"
          ]
        ],
        [
          "Michel Duboille & Jacques Rousseau Claude Neveu & Roger Paris Ren\u00e9 Gavinet & Simon Gavinet France",
          [
            "/wiki/Michel_Duboille",
            "/wiki/Jacques_Rousseau_(canoeist)",
            "/wiki/Claude_Neveu",
            "/wiki/Roger_Paris",
            "/wiki/Ren\u00e9_Gavinet",
            "/wiki/Simon_Gavinet",
            "/wiki/France"
          ]
        ],
        [
          "Jan Brz\u00e1k-Felix & Bohumil Kudrna V\u00e1clav Ni\u010d & Miroslav Drast\u00edk Jan \u0160ulc & Karel Kon\u00ed\u010dek Czechoslovakia",
          [
            "/wiki/Jan_Brz\u00e1k-Felix",
            "/wiki/Bohumil_Kudrna",
            "/wiki/V\u00e1clav_Ni\u010d",
            "/wiki/Miroslav_Drast\u00edk",
            "/wiki/Jan_\u0160ulc",
            "/wiki/Karel_Kon\u00ed\u010dek",
            "/wiki/Czechoslovakia"
          ]
        ],
        [
          "-",
          []
        ]
      ],
      [
        [
          "1951 Steyr",
          [
            "/wiki/1951_ICF_Canoe_Slalom_World_Championships"
          ]
        ],
        [
          "Pierre d'Alen\u00e7on & Jean Dreux Jacques Musson & Andr\u00e9 Pean Claude Neveu & Roger Paris France",
          [
            "/wiki/Pierre_d'Alen\u00e7on",
            "/wiki/Jean_Dreux",
            "/wiki/Jacques_Musson",
            "/wiki/Andr\u00e9_Pean",
            "/wiki/Claude_Neveu",
            "/wiki/Roger_Paris",
            "/wiki/France"
          ]
        ],
        [
          "V\u00e1clav Ni\u010d & Jan \u0160ulc Bohuslav Fiala & Bohumil Berdych V\u00e1clav Havel & Ji\u0159\u00ed Pecka Czechoslovakia",
          [
            "/wiki/V\u00e1clav_Ni\u010d",
            "/wiki/Jan_\u0160ulc",
            "/wiki/Bohuslav_Fiala",
            "/wiki/Bohumil_Berdych",
            "/wiki/V\u00e1clav_Havel_(canoeist)",
            "/wiki/Ji\u0159\u00ed_Pecka",
            "/wiki/Czechoslovakia"
          ]
        ],
        [
          "Charles Dussuet & Deglise Melle Pierre Dufour & R. Esseiva Jean-Paul R\u00f6ssinger & R. Junod Switzerland",
          [
            "/wiki/Charles_Dussuet",
            "/wiki/Pierre_Dufour",
            "/wiki/Jean-Paul_R\u00f6ssinger",
            "/wiki/Switzerland"
          ]
        ]
      ],
      [
        [
          "1953 Meran",
          [
            "/wiki/1953_ICF_Canoe_Slalom_World_Championships"
          ]
        ],
        [
          "Ren\u00e9 Gavinet & Simon Gavinet Claude Neveu & Roger Paris Pierre d'Alen\u00e7on & Jean-Luc Houssaye France",
          [
            "/wiki/Ren\u00e9_Gavinet",
            "/wiki/Simon_Gavinet",
            "/wiki/Claude_Neveu",
            "/wiki/Roger_Paris",
            "/wiki/Pierre_d'Alen\u00e7on",
            "/wiki/Jean-Luc_Houssaye",
            "/wiki/France"
          ]
        ],
        [
          "Jean-Paul R\u00f6ssinger & R. Junod Pierre R\u00f6ssinger & Pierre Dufour Charles Dussuet & Jean Engler Switzerland",
          [
            "/wiki/Jean-Paul_R\u00f6ssinger",
            "/wiki/Pierre_R\u00f6ssinger",
            "/wiki/Pierre_Dufour",
            "/wiki/Charles_Dussuet",
            "/wiki/Jean_Engler",
            "/wiki/Switzerland"
          ]
        ],
        [
          "Josef Hendrych & Ji\u0159\u00ed Hradil V\u00e1clav Havel & Ji\u0159\u00ed Pecka Miroslav \u010cih\u00e1k & Jan Pecka Czechoslovakia",
          [
            "/wiki/Josef_Hendrych",
            "/wiki/Ji\u0159\u00ed_Hradil_(canoeist)",
            "/wiki/V\u00e1clav_Havel_(canoeist)",
            "/wiki/Ji\u0159\u00ed_Pecka",
            "/wiki/Miroslav_\u010cih\u00e1k",
            "/wiki/Jan_Pecka",
            "/wiki/Czechoslovakia"
          ]
        ]
      ],
      [
        [
          "1955 Tacen",
          [
            "/wiki/1955_ICF_Canoe_Slalom_World_Championships"
          ]
        ],
        [
          "Franti\u0161ek Hrab\u011b & Ji\u0159\u00ed Kotana Vladim\u00edr L\u00e1nsk\u00fd & Josef Hendrych Rudolf Fl\u00e9gr & Milan \u0158eho\u0159 Czechoslovakia",
          [
            "/wiki/Franti\u0161ek_Hrab\u011b",
            "/wiki/Ji\u0159\u00ed_Kotana",
            "/wiki/Vladim\u00edr_L\u00e1nsk\u00fd",
            "/wiki/Josef_Hendrych",
            "/wiki/Rudolf_Fl\u00e9gr",
            "/wiki/Milan_\u0158eho\u0159",
            "/wiki/Czechoslovakia"
          ]
        ],
        [
          "Dieter Friedrich & Horst Kleinert Dieter G\u00f6the & Helmut Weise Franz Brendel & G\u00fcnter Grosswig East Germany",
          [
            "/wiki/Dieter_Friedrich",
            "/wiki/Horst_Kleinert",
            "/wiki/Dieter_G\u00f6the",
            "/wiki/Helmut_Weise",
            "/wiki/Franz_Brendel_(canoeist)",
            "/wiki/G\u00fcnter_Grosswig",
            "/wiki/East_Germany"
          ]
        ],
        [
          "Wolfram Steinwendtner & Bruno Kerbl Harry Jarosch & Eduard Haider Alfred Falkner & Richard Schauer Austria",
          [
            "/wiki/Wolfram_Steinwendtner",
            "/wiki/Bruno_Kerbl",
            "/wiki/Harry_Jarosch",
            "/wiki/Eduard_Haider",
            "/wiki/Alfred_Falkner",
            "/wiki/Richard_Schauer",
            "/wiki/Austria"
          ]
        ]
      ],
      [
        [
          "1957 Augsburg",
          [
            "/wiki/1957_ICF_Canoe_Slalom_World_Championships"
          ]
        ],
        [
          "Rudolf Fl\u00e9gr & Milan \u0158eho\u0159 V\u00e1clav Havel & Josef Hendrych Franti\u0161ek Hrab\u011b & Ji\u0159\u00ed Kotana Czechoslovakia",
          [
            "/wiki/Rudolf_Fl\u00e9gr",
            "/wiki/Milan_\u0158eho\u0159",
            "/wiki/V\u00e1clav_Havel_(canoeist)",
            "/wiki/Josef_Hendrych",
            "/wiki/Franti\u0161ek_Hrab\u011b",
            "/wiki/Ji\u0159\u00ed_Kotana",
            "/wiki/Czechoslovakia"
          ]
        ],
        [
          "Charles Dussuet & Henri Kadrnka Jean Pessina & Robert Z\u00fcrcher Jean-Paul R\u00f6ssinger & Roger Tauss Switzerland",
          [
            "/wiki/Charles_Dussuet",
            "/wiki/Henri_Kadrnka",
            "/wiki/Jean_Pessina",
            "/wiki/Robert_Z\u00fcrcher",
            "/wiki/Jean-Paul_R\u00f6ssinger",
            "/wiki/Roger_Tauss",
            "/wiki/Switzerland"
          ]
        ],
        [
          "Franz Brendel & G\u00fcnter Grosswig Dieter Friedrich & Horst Kleinert Dieter G\u00f6the & Lothar Schubert East Germany",
          [
            "/wiki/Franz_Brendel_(canoeist)",
            "/wiki/G\u00fcnter_Grosswig",
            "/wiki/Dieter_Friedrich",
            "/wiki/Horst_Kleinert",
            "/wiki/Dieter_G\u00f6the",
            "/wiki/Lothar_Schubert",
            "/wiki/East_Germany"
          ]
        ]
      ],
      [
        [
          "1959 Geneva",
          [
            "/wiki/1959_ICF_Canoe_Slalom_World_Championships"
          ]
        ],
        [
          "Dieter Friedrich & Horst Kleinert Dieter G\u00f6the & Lothar Schubert Manfred Gl\u00f6ckner & Rudolf Seifert East Germany",
          [
            "/wiki/Dieter_Friedrich",
            "/wiki/Horst_Kleinert",
            "/wiki/Dieter_G\u00f6the",
            "/wiki/Lothar_Schubert",
            "/wiki/Manfred_Gl\u00f6ckner",
            "/wiki/Rudolf_Seifert",
            "/wiki/East_Germany"
          ]
        ],
        [
          "Miroslav \u010cih\u00e1k & Vladim\u00edr L\u00e1nsk\u00fd V\u00e1clav Havel & Josef Hendrych Milan Horyna & Milan Kn\u00fd Czechoslovakia",
          [
            "/wiki/Miroslav_\u010cih\u00e1k",
            "/wiki/Vladim\u00edr_L\u00e1nsk\u00fd",
            "/wiki/V\u00e1clav_Havel_(canoeist)",
            "/wiki/Josef_Hendrych",
            "/wiki/Milan_Horyna",
            "/wiki/Milan_Kn\u00fd",
            "/wiki/Czechoslovakia"
          ]
        ],
        [
          "Charles Dussuet & Henri Kadrnka Enz & Hiltbrand Jean Pessina & Robert Z\u00fcrcher Switzerland",
          [
            "/wiki/Charles_Dussuet",
            "/wiki/Henri_Kadrnka",
            "/wiki/Jean_Pessina",
            "/wiki/Robert_Z\u00fcrcher",
            "/wiki/Switzerland"
          ]
        ]
      ],
      [
        [
          "1961 Hainsberg",
          [
            "/wiki/1961_ICF_Canoe_Slalom_World_Championships"
          ]
        ],
        [
          "Gernot Bergmann & Horst Rosenhagen Dieter Friedrich & Horst Kleinert G\u00fcnther Merkel & Manfred Merkel East Germany",
          [
            "/wiki/Gernot_Bergmann",
            "/wiki/Horst_Rosenhagen",
            "/wiki/Dieter_Friedrich",
            "/wiki/Horst_Kleinert",
            "/wiki/G\u00fcnther_Merkel",
            "/wiki/Manfred_Merkel",
            "/wiki/East_Germany"
          ]
        ],
        [
          "Zden\u011bk Baumruk & Josef Pol\u00e1k Josef Hendrych & Vladim\u00edr L\u00e1nsk\u00fd Miroslav Stach & Zden\u011bk Valenta Czechoslovakia",
          [
            "/wiki/Zden\u011bk_Baumruk",
            "/wiki/Josef_Pol\u00e1k",
            "/wiki/Josef_Hendrych",
            "/wiki/Vladim\u00edr_L\u00e1nsk\u00fd",
            "/wiki/Miroslav_Stach",
            "/wiki/Zden\u011bk_Valenta",
            "/wiki/Czechoslovakia"
          ]
        ],
        [
          "Charles Dussuet & Jean-Paul R\u00f6ssinger Jean Meichtry & Suchet Jean Pessina & Robert Z\u00fcrcher Switzerland",
          [
            "/wiki/Charles_Dussuet",
            "/wiki/Jean-Paul_R\u00f6ssinger",
            "/wiki/Jean_Meichtry",
            "/wiki/Jean_Pessina",
            "/wiki/Robert_Z\u00fcrcher",
            "/wiki/Switzerland"
          ]
        ]
      ],
      [
        [
          "1963 Spittal",
          [
            "/wiki/1963_ICF_Canoe_Slalom_World_Championships"
          ]
        ],
        [
          "Siegfried L\u00fcck & J\u00fcrgen Noak G\u00fcnther Merkel & Manfred Merkel Manfred Gl\u00f6ckner & Rudolf Seifert East Germany",
          [
            "/wiki/Siegfried_L\u00fcck",
            "/wiki/J\u00fcrgen_Noak",
            "/wiki/G\u00fcnther_Merkel",
            "/wiki/Manfred_Merkel",
            "/wiki/Manfred_Gl\u00f6ckner",
            "/wiki/Rudolf_Seifert",
            "/wiki/East_Germany"
          ]
        ],
        [
          "G\u00fcnter Br\u00fcmmer & Hermann Roock J\u00fcrgen Hauschild & Kurt Longrich Wolf Dieter Seller & G\u00fcnther Tuchel West Germany",
          [
            "/wiki/G\u00fcnter_Br\u00fcmmer",
            "/wiki/Hermann_Roock",
            "/wiki/J\u00fcrgen_Hauschild",
            "/wiki/Kurt_Longrich",
            "/wiki/Wolf_Dieter_Seller",
            "/wiki/G\u00fcnther_Tuchel",
            "/wiki/West_Germany"
          ]
        ],
        [
          "Anton Biegel & Helmut Schilhuber Klaus G\u00fcrtelbauer & Bruno Kerbl Alfred Haberzettl & Franz Tutschka Austria",
          [
            "/wiki/Anton_Biegel",
            "/wiki/Helmut_Schilhuber",
            "/wiki/Klaus_G\u00fcrtelbauer",
            "/wiki/Bruno_Kerbl",
            "/wiki/Alfred_Haberzettl",
            "/wiki/Franz_Tutschka",
            "/wiki/Austria"
          ]
        ]
      ],
      [
        [
          "1965 Spittal",
          [
            "/wiki/1965_ICF_Canoe_Slalom_World_Championships"
          ]
        ],
        [
          "Ladislav M\u011b\u0161\u0165an & Zden\u011bk M\u011b\u0161\u0165an Emil Pollert & Jaroslav Pollert Jaroslav Brejcha & Milan Kalas Czechoslovakia",
          [
            "/wiki/Ladislav_M\u011b\u0161\u0165an",
            "/wiki/Zden\u011bk_M\u011b\u0161\u0165an",
            "/wiki/Emil_Pollert_(canoeist)",
            "/wiki/Jaroslav_Pollert_(canoeist_born_1943)",
            "/wiki/Jaroslav_Brejcha",
            "/wiki/Milan_Kalas",
            "/wiki/Czechoslovakia"
          ]
        ],
        [
          "Janez Andreja\u0161i\u010d & Jo\u017ee Gerkman Milan Vidmar & Borut Justin Franc \u017ditnik & Leon \u017ditnik Yugoslavia",
          [
            "/wiki/Janez_Andreja\u0161i\u010d",
            "/wiki/Jo\u017ee_Gerkman",
            "/wiki/Milan_Vidmar_(canoeist)",
            "/wiki/Borut_Justin",
            "/wiki/Franc_\u017ditnik",
            "/wiki/Leon_\u017ditnik",
            "/wiki/Socialist_Federal_Republic_of_Yugoslavia"
          ]
        ],
        [
          "Friedrich Bohry & Walter Gehlen Hermann Roock & Norbert Schmidt Wolf Dieter Seller & G\u00fcnther Tuchel West Germany",
          [
            "/wiki/Friedrich_Bohry",
            "/wiki/Walter_Gehlen",
            "/wiki/Hermann_Roock",
            "/wiki/Norbert_Schmidt",
            "/wiki/Wolf_Dieter_Seller",
            "/wiki/G\u00fcnther_Tuchel",
            "/wiki/West_Germany"
          ]
        ]
      ],
      [
        [
          "1967 Lipno",
          [
            "/wiki/1967_ICF_Canoe_Slalom_World_Championships"
          ]
        ],
        [
          "G\u00fcnther Merkel & Manfred Merkel Ulrich Hippauf & Willi Landers J\u00fcrgen Noak & Siegfried L\u00fcck East Germany",
          [
            "/wiki/G\u00fcnther_Merkel",
            "/wiki/Manfred_Merkel",
            "/wiki/Ulrich_Hippauf",
            "/wiki/Willi_Landers",
            "/wiki/J\u00fcrgen_Noak",
            "/wiki/Siegfried_L\u00fcck",
            "/wiki/East_Germany"
          ]
        ],
        [
          "Zden\u011bk Valenta & Miroslav Stach Gabriel Janou\u0161ek & Milan Horyna Ladislav M\u011b\u0161\u0165an & Zden\u011bk M\u011b\u0161\u0165an Czechoslovakia",
          [
            "/wiki/Zden\u011bk_Valenta",
            "/wiki/Miroslav_Stach",
            "/wiki/Gabriel_Janou\u0161ek",
            "/wiki/Milan_Horyna",
            "/wiki/Ladislav_M\u011b\u0161\u0165an",
            "/wiki/Zden\u011bk_M\u011b\u0161\u0165an",
            "/wiki/Czechoslovakia"
          ]
        ],
        [
          "Manfred He\u00df & Wolfgang Wenzel Karl-Heinz Scheffer & Heinz-J\u00fcrgen Steinschulte Klaus Nenninger & Gere Gl\u00fcck West Germany",
          [
            "/wiki/Manfred_He\u00df",
            "/wiki/Wolfgang_Wenzel",
            "/wiki/Karl-Heinz_Scheffer",
            "/wiki/Heinz-J\u00fcrgen_Steinschulte",
            "/wiki/Klaus_Nenninger",
            "/wiki/Gere_Gl\u00fcck",
            "/wiki/West_Germany"
          ]
        ]
      ],
      [
        [
          "1969 Bourg St.-Maurice",
          [
            "/wiki/1969_ICF_Canoe_Slalom_World_Championships"
          ]
        ],
        [
          "Karl-Heinz Scheffer & Heinz-J\u00fcrgen Steinschulte Manfred He\u00df & Wolfgang Wenzel Hermann Roock & Norbert Schmidt West Germany",
          [
            "/wiki/Karl-Heinz_Scheffer",
            "/wiki/Heinz-J\u00fcrgen_Steinschulte",
            "/wiki/Manfred_He\u00df",
            "/wiki/Wolfgang_Wenzel",
            "/wiki/Hermann_Roock",
            "/wiki/Norbert_Schmidt",
            "/wiki/West_Germany"
          ]
        ],
        [
          "Miroslav Stach & Zden\u011bk Valenta Ladislav M\u011b\u0161\u0165an & Zden\u011bk M\u011b\u0161\u0165an Ji\u0159\u00ed Dejl & Zden\u011bk Sklen\u00e1\u0159 Czechoslovakia",
          [
            "/wiki/Miroslav_Stach",
            "/wiki/Zden\u011bk_Valenta",
            "/wiki/Ladislav_M\u011b\u0161\u0165an",
            "/wiki/Zden\u011bk_M\u011b\u0161\u0165an",
            "/wiki/Ji\u0159\u00ed_Dejl",
            "/wiki/Zden\u011bk_Sklen\u00e1\u0159",
            "/wiki/Czechoslovakia"
          ]
        ],
        [
          "Jean-Claude Olry & Jean-Louis Olry Alain Duvivier & Dominique Duvivier Louis Devilleneuve & Pierre Devilleneuve France",
          [
            "/wiki/Jean-Claude_Olry",
            "/wiki/Jean-Louis_Olry",
            "/wiki/Alain_Duvivier",
            "/wiki/Dominique_Duvivier",
            "/wiki/Louis_Devilleneuve",
            "/wiki/Pierre_Devilleneuve",
            "/wiki/France"
          ]
        ]
      ],
      [
        [
          "1971 Meran",
          [
            "/wiki/1971_ICF_Canoe_Slalom_World_Championships"
          ]
        ],
        [
          "Rolf-Dieter Amend & Walter Hofmann Klaus Trummer & J\u00fcrgen Kretschmer Uwe Franz & Ulrich Opelt East Germany",
          [
            "/wiki/Rolf-Dieter_Amend",
            "/wiki/Walter_Hofmann",
            "/wiki/Klaus_Trummer",
            "/wiki/J\u00fcrgen_Kretschmer",
            "/wiki/Uwe_Franz",
            "/wiki/Ulrich_Opelt",
            "/wiki/East_Germany"
          ]
        ],
        [
          "Karl-Heinz Scheffer & Heinz-J\u00fcrgen Steinschulte Manfred He\u00df & Wolfgang Wenzel Hans Jakob Hitz & Theo N\u00fcsing West Germany",
          [
            "/wiki/Karl-Heinz_Scheffer",
            "/wiki/Heinz-J\u00fcrgen_Steinschulte",
            "/wiki/Manfred_He\u00df",
            "/wiki/Wolfgang_Wenzel",
            "/wiki/Hans_Jakob_Hitz",
            "/wiki/Theo_N\u00fcsing",
            "/wiki/West_Germany"
          ]
        ],
        [
          "Ladislav M\u011b\u0161\u0165an & Zden\u011bk M\u011b\u0161\u0165an Anton\u00edn Brabec & Franti\u0161ek Kada\u0148ka Milan Horyna & Gabriel Janou\u0161ek Czechoslovakia",
          [
            "/wiki/Ladislav_M\u011b\u0161\u0165an",
            "/wiki/Zden\u011bk_M\u011b\u0161\u0165an",
            "/wiki/Anton\u00edn_Brabec",
            "/wiki/Franti\u0161ek_Kada\u0148ka",
            "/wiki/Milan_Horyna",
            "/wiki/Gabriel_Janou\u0161ek",
            "/wiki/Czechoslovakia"
          ]
        ]
      ],
      [
        [
          "1973 Muotathal",
          [
            "/wiki/1973_ICF_Canoe_Slalom_World_Championships"
          ]
        ],
        [
          "Olaf Fricke & Michael Reimann Karl-Heinz Scheffer & Heinz-J\u00fcrgen Steinschulte Wilhelm Baues & Hans-Otto Schumacher West Germany",
          [
            "/wiki/Olaf_Fricke",
            "/wiki/Michael_Reimann",
            "/wiki/Karl-Heinz_Scheffer",
            "/wiki/Heinz-J\u00fcrgen_Steinschulte",
            "/wiki/Wilhelm_Baues",
            "/wiki/Hans-Otto_Schumacher",
            "/wiki/West_Germany"
          ]
        ],
        [
          "Josef Havela & Bohum\u00edr Mach\u00e1t Anton\u00edn Brabec & Franti\u0161ek Kada\u0148ka Ji\u0159\u00ed Krejza & Jaroslav Pollert Czechoslovakia",
          [
            "/wiki/Josef_Havela",
            "/wiki/Bohum\u00edr_Mach\u00e1t",
            "/wiki/Anton\u00edn_Brabec",
            "/wiki/Franti\u0161ek_Kada\u0148ka",
            "/wiki/Ji\u0159\u00ed_Krejza",
            "/wiki/Jaroslav_Pollert_(canoeist_born_1943)",
            "/wiki/Czechoslovakia"
          ]
        ],
        [
          "J\u00fcrgen K\u00f6hler & Hubert Kraeft Peter Grabowski & Josef Raschke Klaus Trummer & J\u00fcrgen Kretschmer East Germany",
          [
            "/wiki/J\u00fcrgen_K\u00f6hler",
            "/wiki/Hubert_Kraeft",
            "/wiki/Peter_Grabowski",
            "/wiki/Josef_Raschke",
            "/wiki/Klaus_Trummer",
            "/wiki/J\u00fcrgen_Kretschmer",
            "/wiki/East_Germany"
          ]
        ]
      ],
      [
        [
          "1975 Skopje",
          [
            "/wiki/1975_ICF_Canoe_Slalom_World_Championships"
          ]
        ],
        [
          "Rolf-Dieter Amend & Walter Hofmann Herbert Fischer & J\u00fcrgen Henze Klaus Trummer & J\u00fcrgen Kretschmer East Germany",
          [
            "/wiki/Rolf-Dieter_Amend",
            "/wiki/Walter_Hofmann",
            "/wiki/Herbert_Fischer",
            "/wiki/J\u00fcrgen_Henze",
            "/wiki/Klaus_Trummer",
            "/wiki/J\u00fcrgen_Kretschmer",
            "/wiki/East_Germany"
          ]
        ],
        [
          "Radom\u00edr Halfar & Svetom\u00edr Kmo\u0161\u0165\u00e1k Anton\u00edn Brabec & Franti\u0161ek Kada\u0148ka Ji\u0159\u00ed Benh\u00e1k & Ladislav Benh\u00e1k Czechoslovakia",
          [
            "/wiki/Radom\u00edr_Halfar",
            "/wiki/Svetom\u00edr_Kmo\u0161\u0165\u00e1k",
            "/wiki/Anton\u00edn_Brabec",
            "/wiki/Franti\u0161ek_Kada\u0148ka",
            "/wiki/Ji\u0159\u00ed_Benh\u00e1k",
            "/wiki/Ladislav_Benh\u00e1k",
            "/wiki/Czechoslovakia"
          ]
        ],
        [
          "Zbigniew Le\u015bniak & Maciej Rychta Jan Fr\u0105czek & Ryszard Seruga Wojciech Kudlik & Jerzy Je\u017c Poland",
          [
            "/wiki/Zbigniew_Le\u015bniak",
            "/wiki/Maciej_Rychta",
            "/wiki/Jan_Fr\u0105czek",
            "/wiki/Ryszard_Seruga",
            "/wiki/Wojciech_Kudlik",
            "/wiki/Jerzy_Je\u017c",
            "/wiki/Poland"
          ]
        ]
      ],
      [
        [
          "1977 Spittal",
          [
            "/wiki/1977_ICF_Canoe_Slalom_World_Championships"
          ]
        ],
        [
          "Ji\u0159\u00ed Benh\u00e1k & Ladislav Benh\u00e1k Radom\u00edr Halfar & Svetom\u00edr Kmo\u0161\u0165\u00e1k Miroslav Nedv\u011bd & Pavel Schwarc Czechoslovakia",
          [
            "/wiki/Ji\u0159\u00ed_Benh\u00e1k",
            "/wiki/Ladislav_Benh\u00e1k",
            "/wiki/Radom\u00edr_Halfar",
            "/wiki/Svetom\u00edr_Kmo\u0161\u0165\u00e1k",
            "/wiki/Miroslav_Nedv\u011bd",
            "/wiki/Pavel_Schwarc",
            "/wiki/Czechoslovakia"
          ]
        ],
        [
          "Martin Wyss & Roland Wyss Matthias Hirsch & Manfred Walter Ji\u0159\u00ed Krejza & Jan Karel Switzerland",
          [
            "/wiki/Martin_Wyss",
            "/wiki/Roland_Wyss",
            "/wiki/Matthias_Hirsch",
            "/wiki/Manfred_Walter_(canoeist)",
            "/wiki/Ji\u0159\u00ed_Krejza",
            "/wiki/Jan_Karel",
            "/wiki/Switzerland"
          ]
        ],
        [
          "Jan Fr\u0105czek & Ryszard Seruga Wojciech Kudlik & Jerzy Je\u017c Zbigniew Le\u015bniak & Maciej Rychta Poland",
          [
            "/wiki/Jan_Fr\u0105czek",
            "/wiki/Ryszard_Seruga",
            "/wiki/Wojciech_Kudlik",
            "/wiki/Jerzy_Je\u017c",
            "/wiki/Zbigniew_Le\u015bniak",
            "/wiki/Maciej_Rychta",
            "/wiki/Poland"
          ]
        ]
      ],
      [
        [
          "1979 Jonqui\u00e8re",
          [
            "/wiki/1979_ICF_Canoe_Slalom_World_Championships"
          ]
        ],
        [
          "Wojciech Kudlik & Jerzy Je\u017c Jan Fr\u0105czek & Ryszard Seruga Zbigniew Czaja & Jacek Kasprzycki Poland",
          [
            "/wiki/Wojciech_Kudlik",
            "/wiki/Jerzy_Je\u017c",
            "/wiki/Jan_Fr\u0105czek",
            "/wiki/Ryszard_Seruga",
            "/wiki/Zbigniew_Czaja",
            "/wiki/Jacek_Kasprzycki",
            "/wiki/Poland"
          ]
        ],
        [
          "Pierre Calori & Jacques Calori Richard Hernanz & Mare Labedens Jean Lamy & Robert Platt France",
          [
            "/wiki/Pierre_Calori",
            "/wiki/Jacques_Calori",
            "/wiki/Richard_Hernanz",
            "/wiki/Mare_Labedens",
            "/wiki/Jean_Lamy",
            "/wiki/Robert_Platt_(canoeist)",
            "/wiki/France"
          ]
        ],
        [
          "Christoph Studer & Ernst Rudin Martin Wyss & Roland Wyss Hardy K\u00fcnzli & Peter Probst Switzerland",
          [
            "/wiki/Christoph_Studer",
            "/wiki/Ernst_Rudin_(canoeist)",
            "/wiki/Martin_Wyss",
            "/wiki/Roland_Wyss",
            "/wiki/Hardy_K\u00fcnzli",
            "/wiki/Peter_Probst",
            "/wiki/Switzerland"
          ]
        ]
      ],
      [
        [
          "1981 Bala",
          [
            "/wiki/1981_ICF_Canoe_Slalom_World_Championships"
          ]
        ],
        [
          "Jock Young & Alistair Munro Robert Joce & Robert Owen Eric Jamieson & Robin Williams Great Britain",
          [
            "/wiki/Jock_Young_(canoeist)",
            "/wiki/Alistair_Munro",
            "/wiki/Robert_Joce",
            "/wiki/Robert_Owen_(canoeist)",
            "/wiki/Eric_Jamieson",
            "/wiki/Robin_Williams_(canoeist)",
            "/wiki/United_Kingdom"
          ]
        ],
        [
          "Wojciech Kudlik & Jerzy Je\u017c Marek Maslanka & Ryszard Seruga Zbigniew Czaja & Jacek Kasprzycki Poland",
          [
            "/wiki/Wojciech_Kudlik",
            "/wiki/Jerzy_Je\u017c",
            "/wiki/Marek_Maslanka",
            "/wiki/Ryszard_Seruga",
            "/wiki/Zbigniew_Czaja",
            "/wiki/Jacek_Kasprzycki",
            "/wiki/Poland"
          ]
        ],
        [
          "Carl Gutschick & Paul Flack Paul Grabow & Jefry Huey Steve Garvis & Mike Garvis United States",
          [
            "/wiki/Carl_Gutschick",
            "/wiki/Paul_Flack",
            "/wiki/Paul_Grabow",
            "/wiki/Jefry_Huey",
            "/wiki/Steve_Garvis",
            "/wiki/Mike_Garvis",
            "/wiki/United_States"
          ]
        ]
      ],
      [
        [
          "1983 Meran",
          [
            "/wiki/1983_ICF_Canoe_Slalom_World_Championships"
          ]
        ],
        [
          "Miroslav Hajdu\u010d\u00edk & Milan Ku\u010dera Du\u0161an Za\u0165ko & \u013dudov\u00edt Tk\u00e1\u010d Franti\u0161ek Slav\u00edk & Ji\u0159\u00ed Decastelo Czechoslovakia",
          [
            "/wiki/Miroslav_Hajdu\u010d\u00edk",
            "/wiki/Milan_Ku\u010dera_(canoeist)",
            "/wiki/Du\u0161an_Za\u0165ko",
            "/wiki/\u013dudov\u00edt_Tk\u00e1\u010d",
            "/wiki/Franti\u0161ek_Slav\u00edk",
            "/wiki/Ji\u0159\u00ed_Decastelo",
            "/wiki/Czechoslovakia"
          ]
        ],
        [
          "Lecky Haller & Fritz Haller Steve Garvis & Mike Garvis Charles Harris & John Harris United States",
          [
            "/wiki/Lecky_Haller",
            "/wiki/Fritz_Haller",
            "/wiki/Steve_Garvis",
            "/wiki/Mike_Garvis",
            "/wiki/Charles_Harris_(canoeist)",
            "/wiki/John_Harris_(slalom_canoeist)",
            "/wiki/United_States"
          ]
        ],
        [
          "Eric Jamieson & Robin Williams Michael Smith & Andrew Smith Robert Joce & Robert Owen Great Britain",
          [
            "/wiki/Eric_Jamieson",
            "/wiki/Robin_Williams_(canoeist)",
            "/wiki/Michael_Smith_(canoeist)",
            "/wiki/Andrew_Smith_(canoeist)",
            "/wiki/Robert_Joce",
            "/wiki/Robert_Owen_(canoeist)",
            "/wiki/United_Kingdom"
          ]
        ]
      ],
      [
        [
          "1985 Augsburg",
          [
            "/wiki/1985_ICF_Canoe_Slalom_World_Championships"
          ]
        ],
        [
          "Ji\u0159\u00ed Rohan & Miroslav \u0160imek Miroslav Hajdu\u010d\u00edk & Milan Ku\u010dera Viktor Bene\u0161 & Ond\u0159ej Mohout Czechoslovakia",
          [
            "/wiki/Ji\u0159\u00ed_Rohan",
            "/wiki/Miroslav_\u0160imek",
            "/wiki/Miroslav_Hajdu\u010d\u00edk",
            "/wiki/Milan_Ku\u010dera_(canoeist)",
            "/wiki/Viktor_Bene\u0161",
            "/wiki/Ond\u0159ej_Mohout",
            "/wiki/Czechoslovakia"
          ]
        ],
        [
          "Pierre Calori & Jacques Calori Emmanuel del Rey & Thierry Saidi Michel Saidi & J\u00e9r\u00f4me Daval France",
          [
            "/wiki/Pierre_Calori",
            "/wiki/Jacques_Calori",
            "/wiki/Emmanuel_del_Rey",
            "/wiki/Thierry_Saidi",
            "/wiki/Michel_Saidi",
            "/wiki/J\u00e9r\u00f4me_Daval",
            "/wiki/France"
          ]
        ],
        [
          "Charles Harris & John Harris Lecky Haller & Fritz Haller Paul Grabow & Mike Garvis United States",
          [
            "/wiki/Charles_Harris_(canoeist)",
            "/wiki/John_Harris_(slalom_canoeist)",
            "/wiki/Lecky_Haller",
            "/wiki/Fritz_Haller",
            "/wiki/Paul_Grabow",
            "/wiki/Mike_Garvis",
            "/wiki/United_States"
          ]
        ]
      ],
      [
        [
          "1987 Bourg St.-Maurice",
          [
            "/wiki/1987_ICF_Canoe_Slalom_World_Championships"
          ]
        ],
        [
          "Pierre Calori & Jacques Calori Michel Saidi & J\u00e9r\u00f4me Daval Gilles Lelievre & J\u00e9r\u00f4me Daille France",
          [
            "/wiki/Pierre_Calori",
            "/wiki/Jacques_Calori",
            "/wiki/Michel_Saidi",
            "/wiki/J\u00e9r\u00f4me_Daval",
            "/wiki/Gilles_Lelievre",
            "/wiki/J\u00e9r\u00f4me_Daille",
            "/wiki/France"
          ]
        ],
        [
          "Ji\u0159\u00ed Rohan & Miroslav \u0160imek Miroslav Hajdu\u010d\u00edk & Milan Ku\u010dera Viktor Bene\u0161 & Ond\u0159ej Mohout Czechoslovakia",
          [
            "/wiki/Ji\u0159\u00ed_Rohan",
            "/wiki/Miroslav_\u0160imek",
            "/wiki/Miroslav_Hajdu\u010d\u00edk",
            "/wiki/Milan_Ku\u010dera_(canoeist)",
            "/wiki/Viktor_Bene\u0161",
            "/wiki/Ond\u0159ej_Mohout",
            "/wiki/Czechoslovakia"
          ]
        ],
        [
          "Frank Hemmer & Thomas Loose G\u00fcnther Wolkenaer & Fredi Zimmermann Stephan Bittner & Volker Nerlich West Germany",
          [
            "/wiki/Frank_Hemmer",
            "/wiki/Thomas_Loose",
            "/wiki/G\u00fcnther_Wolkenaer",
            "/wiki/Fredi_Zimmermann",
            "/wiki/Stephan_Bittner",
            "/wiki/Volker_Nerlich",
            "/wiki/West_Germany"
          ]
        ]
      ]
    ],
    "section_title": "C2 team",
    "section_text": "Debuted : 1949 . Discontinued : 2017 . Not counted as a medal event due to insufficient number of participating countries in 2005 and 2017 .",
    "uid": "List_of_ICF_Canoe_Slalom_World_Championships_medalists_in_men's_canoe_6",
    "intro": "This is a list of medalists from the ICF Canoe Slalom World Championships in men's canoe."
  },
  "Swimming_at_the_2018_European_Aquatics_Championships_\u2013_Women's_4_\u00d7_100_metre_medley_relay_1": {
    "url": "https://en.wikipedia.org/wiki/Swimming_at_the_2018_European_Aquatics_Championships_\u2013_Women's_4_\u00d7_100_metre_medley_relay",
    "title": "Swimming at the 2018 European Aquatics Championships \u2013 Women's 4 \u00d7 100 metre medley relay",
    "header": [
      [
        "Rank",
        []
      ],
      [
        "Lane",
        []
      ],
      [
        "Nation",
        []
      ],
      [
        "Swimmers",
        []
      ],
      [
        "Time",
        []
      ]
    ],
    "data": [
      [
        [
          "1",
          []
        ],
        [
          "7",
          []
        ],
        [
          "Russia",
          [
            "/wiki/Russia"
          ]
        ],
        [
          "Anastasia Fesikova ( 59.56 ) Yuliya Yefimova ( 1:03.95 ) Svetlana Chimrova ( 57.34 ) Maria Kameneva ( 53.37 )",
          [
            "/wiki/Anastasia_Fesikova",
            "/wiki/Yuliya_Yefimova",
            "/wiki/Svetlana_Chimrova",
            "/wiki/Maria_Kameneva"
          ]
        ],
        [
          "3:54.22",
          []
        ]
      ],
      [
        [
          "2",
          []
        ],
        [
          "4",
          []
        ],
        [
          "Denmark",
          [
            "/wiki/Denmark"
          ]
        ],
        [
          "Mie Nielsen ( 59.76 ) Rikke M\u00f8ller Pedersen ( 1:07.50 ) Emilie Beckmann ( 57.66 ) Pernille Blume ( 51.77 )",
          [
            "/wiki/Mie_Nielsen",
            "/wiki/Rikke_M\u00f8ller_Pedersen",
            "/wiki/Emilie_Beckmann",
            "/wiki/Pernille_Blume"
          ]
        ],
        [
          "3:56.69",
          []
        ]
      ],
      [
        [
          "3",
          []
        ],
        [
          "5",
          []
        ],
        [
          "Great Britain",
          [
            "/wiki/United_Kingdom"
          ]
        ],
        [
          "Georgia Davies ( 59.44 ) Siobhan-Marie O'Connor ( 1:07.22 ) Alys Thomas ( 57.56 ) Freya Anderson ( 52.69 )",
          [
            "/wiki/Georgia_Davies",
            "/wiki/Siobhan-Marie_O'Connor",
            "/wiki/Alys_Thomas",
            "/wiki/Freya_Anderson"
          ]
        ],
        [
          "3:56.91",
          []
        ]
      ],
      [
        [
          "4",
          []
        ],
        [
          "3",
          []
        ],
        [
          "Italy",
          [
            "/wiki/Italy"
          ]
        ],
        [
          "Carlotta Zofkova ( 59.86 ) Arianna Castiglioni ( 1:06.50 ) Elena Di Liddo ( 57.34 ) Federica Pellegrini ( 53.30 )",
          [
            "/wiki/Carlotta_Zofkova",
            "/wiki/Arianna_Castiglioni",
            "/wiki/Elena_Di_Liddo",
            "/wiki/Federica_Pellegrini"
          ]
        ],
        [
          "3:57.00",
          []
        ]
      ],
      [
        [
          "5",
          []
        ],
        [
          "6",
          []
        ],
        [
          "Netherlands",
          [
            "/wiki/Netherlands"
          ]
        ],
        [
          "Kira Toussaint ( 59.81 ) Tes Schouten ( 1:08.05 ) Kinge Zandringa ( 58.24 ) Femke Heemskerk ( 52.84 )",
          [
            "/wiki/Kira_Toussaint",
            "/wiki/Tes_Schouten",
            "/wiki/Femke_Heemskerk"
          ]
        ],
        [
          "3:58.94",
          []
        ]
      ],
      [
        [
          "6",
          []
        ],
        [
          "2",
          []
        ],
        [
          "France",
          [
            "/wiki/France"
          ]
        ],
        [
          "Mathilde Cini ( 1:01.00 ) Fanny Deberghes ( 1:07.46 ) Marie Wattel ( 58.54 ) Charlotte Bonnet ( 52.85 )",
          [
            "/wiki/Mathilde_Cini",
            "/wiki/Fanny_Deberghes",
            "/wiki/Marie_Wattel",
            "/wiki/Charlotte_Bonnet"
          ]
        ],
        [
          "3:59.85",
          []
        ]
      ],
      [
        [
          "7",
          []
        ],
        [
          "1",
          []
        ],
        [
          "Germany",
          [
            "/wiki/Germany"
          ]
        ],
        [
          "Laura Riedemann ( 1:00.58 ) Jessica Steiger ( 1:08.38 ) Aliena Schmidtke ( 58.29 ) Annika Bruhn ( 53.85 )",
          [
            "/wiki/Laura_Riedemann",
            "/wiki/Aliena_Schmidtke",
            "/wiki/Annika_Bruhn"
          ]
        ],
        [
          "4:01.10",
          []
        ]
      ],
      [
        [
          "8",
          []
        ],
        [
          "8",
          []
        ],
        [
          "Hungary",
          [
            "/wiki/Hungary"
          ]
        ],
        [
          "Katinka Hossz\u00fa ( 1:00.93 ) Anna Sztankovics ( 1:08.78 ) Lili\u00e1na Szil\u00e1gyi ( 58.71 ) Evelyn Verraszt\u00f3 ( 56.16 )",
          [
            "/wiki/Katinka_Hossz\u00fa",
            "/wiki/Anna_Sztankovics",
            "/wiki/Lili\u00e1na_Szil\u00e1gyi",
            "/wiki/Evelyn_Verraszt\u00f3"
          ]
        ],
        [
          "4:04.58",
          []
        ]
      ]
    ],
    "section_title": "Results -- Final",
    "section_text": "The final was held at 18:07 . [ 4 ]",
    "uid": "Swimming_at_the_2018_European_Aquatics_Championships_\u2013_Women's_4_\u00d7_100_metre_medley_relay_1",
    "intro": "The Women's 4 \u00d7 100 metre medley relay competition of the 2018 European Aquatics Championships was held on 9 August 2018."
  }
}