{
  "List_of_Conference_USA_Men's_Basketball_Tournament_Finals_broadcasters_0": {
    "url": "https://en.wikipedia.org/wiki/Conference_USA_Men's_Basketball_Tournament",
    "title": "Conference USA Men's Basketball Tournament",
    "header": [
      [
        "Year",
        []
      ],
      [
        "Champion",
        []
      ],
      [
        "Score",
        []
      ],
      [
        "Runner-up",
        []
      ],
      [
        "Most Valuable Player",
        []
      ],
      [
        "Site",
        []
      ]
    ],
    "data": [
      [
        [
          "1996",
          [
            "/wiki/1996_Conference_USA_Men's_Basketball_Tournament"
          ]
        ],
        [
          "Cincinnati",
          [
            "/wiki/Cincinnati_Bearcats_men's_basketball"
          ]
        ],
        [
          "85-83 ( OT )",
          []
        ],
        [
          "Marquette",
          [
            "/wiki/Marquette_Golden_Eagles_men's_basketball"
          ]
        ],
        [
          "Danny Fortson , Cincinnati",
          [
            "/wiki/Danny_Fortson"
          ]
        ],
        [
          "The Pyramid ; Memphis , Tennessee",
          [
            "/wiki/Memphis_Pyramid",
            "/wiki/Memphis,_Tennessee"
          ]
        ]
      ],
      [
        [
          "1997",
          [
            "/wiki/1997_Conference_USA_Men's_Basketball_Tournament"
          ]
        ],
        [
          "Marquette",
          []
        ],
        [
          "60-52",
          []
        ],
        [
          "Charlotte",
          [
            "/wiki/Charlotte_49ers_men's_basketball"
          ]
        ],
        [
          "Aaron Hutchins , Marquette",
          []
        ],
        [
          "Kiel Center ; St. Louis",
          [
            "/wiki/Enterprise_Center",
            "/wiki/St._Louis"
          ]
        ]
      ],
      [
        [
          "1998",
          [
            "/wiki/1998_Conference_USA_Men's_Basketball_Tournament"
          ]
        ],
        [
          "Cincinnati",
          []
        ],
        [
          "71-57",
          []
        ],
        [
          "Charlotte",
          []
        ],
        [
          "Kenyon Martin , Cincinnati",
          [
            "/wiki/Kenyon_Martin"
          ]
        ],
        [
          "Myrl Shoemaker Center ; Cincinnati",
          [
            "/wiki/Fifth_Third_Arena",
            "/wiki/Cincinnati"
          ]
        ]
      ],
      [
        [
          "1999",
          [
            "/wiki/1999_Conference_USA_Men's_Basketball_Tournament"
          ]
        ],
        [
          "Charlotte",
          []
        ],
        [
          "68-59",
          []
        ],
        [
          "Louisville",
          [
            "/wiki/1998\u201399_Louisville_Cardinals_men's_basketball_team"
          ]
        ],
        [
          "Galen Young , Charlotte",
          [
            "/wiki/Galen_Young"
          ]
        ],
        [
          "Birmingham-Jefferson Convention Complex ; Birmingham , Alabama",
          [
            "/wiki/Legacy_Arena",
            "/wiki/Birmingham,_Alabama"
          ]
        ]
      ],
      [
        [
          "2000",
          [
            "/wiki/2000_Conference_USA_Men's_Basketball_Tournament"
          ]
        ],
        [
          "Saint Louis",
          [
            "/wiki/Saint_Louis_Billikens_men's_basketball"
          ]
        ],
        [
          "56-49",
          []
        ],
        [
          "DePaul",
          [
            "/wiki/DePaul_Blue_Demons_men's_basketball"
          ]
        ],
        [
          "Justin Love , Saint Louis",
          []
        ],
        [
          "The Pyramid ; Memphis , Tennessee",
          []
        ]
      ],
      [
        [
          "2001",
          []
        ],
        [
          "Charlotte",
          [
            "/wiki/Charlotte_49ers_men's_basketball"
          ]
        ],
        [
          "80-72",
          []
        ],
        [
          "Cincinnati",
          []
        ],
        [
          "Rodney White , Charlotte",
          [
            "/wiki/Rodney_White"
          ]
        ],
        [
          "Freedom Hall ; Louisville , Kentucky",
          [
            "/wiki/Freedom_Hall",
            "/wiki/Louisville,_Kentucky"
          ]
        ]
      ],
      [
        [
          "2002",
          []
        ],
        [
          "Cincinnati",
          []
        ],
        [
          "77-63",
          []
        ],
        [
          "Marquette",
          []
        ],
        [
          "Steve Logan , Cincinnati",
          [
            "/wiki/Steve_Logan"
          ]
        ],
        [
          "Firstar Center ; Cincinnati , Ohio",
          [
            "/wiki/Heritage_Bank_Center"
          ]
        ]
      ],
      [
        [
          "2003",
          []
        ],
        [
          "Louisville",
          [
            "/wiki/2002\u201303_Louisville_Cardinals_men's_basketball_team"
          ]
        ],
        [
          "83-78",
          []
        ],
        [
          "UAB",
          [
            "/wiki/UAB_Blazers"
          ]
        ],
        [
          "Luke Whitehead , Louisville",
          [
            "/wiki/Luke_Whitehead"
          ]
        ],
        [
          "Freedom Hall ; Louisville , Kentucky",
          []
        ]
      ],
      [
        [
          "2004",
          []
        ],
        [
          "Cincinnati",
          []
        ],
        [
          "55-50",
          []
        ],
        [
          "DePaul",
          []
        ],
        [
          "Tony Bobbitt , Cincinnati",
          [
            "/wiki/Tony_Bobbitt"
          ]
        ],
        [
          "U.S. Bank Arena ; Cincinnati , Ohio",
          [
            "/wiki/Heritage_Bank_Center"
          ]
        ]
      ],
      [
        [
          "2005",
          []
        ],
        [
          "Louisville",
          [
            "/wiki/2004\u201305_Louisville_Cardinals_men's_basketball_team"
          ]
        ],
        [
          "75-74",
          []
        ],
        [
          "Memphis",
          []
        ],
        [
          "Taquan Dean , Louisville",
          [
            "/wiki/Taqwa_Pinero"
          ]
        ],
        [
          "FedExForum ; Memphis , Tennessee",
          [
            "/wiki/FedExForum"
          ]
        ]
      ],
      [
        [
          "2006",
          []
        ],
        [
          "Memphis",
          [
            "/wiki/2005\u201306_Memphis_Tigers_men's_basketball_team"
          ]
        ],
        [
          "57-46",
          []
        ],
        [
          "UAB",
          [
            "/wiki/UAB_Blazers_men's_basketball"
          ]
        ],
        [
          "Shawne Williams , Memphis",
          [
            "/wiki/Shawne_Williams"
          ]
        ],
        [
          "FedExForum ; Memphis , Tennessee",
          []
        ]
      ],
      [
        [
          "2007",
          [
            "/wiki/2007_Conference_USA_Men's_Basketball_Tournament"
          ]
        ],
        [
          "Memphis",
          [
            "/wiki/2006\u201307_Memphis_Tigers_men's_basketball_team"
          ]
        ],
        [
          "71-59",
          []
        ],
        [
          "Houston",
          [
            "/wiki/Houston_Cougars_men's_basketball"
          ]
        ],
        [
          "Chris Douglas-Roberts , Memphis",
          [
            "/wiki/Chris_Douglas-Roberts"
          ]
        ],
        [
          "FedExForum ; Memphis , Tennessee",
          []
        ]
      ],
      [
        [
          "2008",
          [
            "/wiki/2008_Conference_USA_Men's_Basketball_Tournament"
          ]
        ],
        [
          "Memphis *",
          [
            "/wiki/2007\u201308_Memphis_Tigers_men's_basketball_team"
          ]
        ],
        [
          "77-51",
          []
        ],
        [
          "Tulsa",
          [
            "/wiki/Tulsa_Golden_Hurricane_men's_basketball"
          ]
        ],
        [
          "Antonio Anderson , Memphis",
          [
            "/wiki/Antonio_Anderson"
          ]
        ],
        [
          "FedExForum ; Memphis , Tennessee",
          []
        ]
      ],
      [
        [
          "2009",
          [
            "/wiki/2009_Conference_USA_Men's_Basketball_Tournament"
          ]
        ],
        [
          "Memphis",
          [
            "/wiki/2008\u201309_Memphis_Tigers_men's_basketball_team"
          ]
        ],
        [
          "64-39",
          []
        ],
        [
          "Tulsa",
          []
        ],
        [
          "Tyreke Evans , Memphis",
          [
            "/wiki/Tyreke_Evans"
          ]
        ],
        [
          "FedExForum ; Memphis , Tennessee",
          []
        ]
      ],
      [
        [
          "2010",
          [
            "/wiki/2010_Conference_USA_Men's_Basketball_Tournament"
          ]
        ],
        [
          "Houston",
          [
            "/wiki/2009\u201310_Houston_Cougars_men's_basketball_team"
          ]
        ],
        [
          "81-73",
          []
        ],
        [
          "UTEP",
          [
            "/wiki/2009\u201310_UTEP_Miners_men's_basketball_team"
          ]
        ],
        [
          "Kelvin Lewis , Houston",
          [
            "/wiki/Kelvin_Lewis"
          ]
        ],
        [
          "BOK Center ; Tulsa , Oklahoma",
          [
            "/wiki/BOK_Center",
            "/wiki/Tulsa,_Oklahoma"
          ]
        ]
      ],
      [
        [
          "2011",
          [
            "/wiki/2011_Conference_USA_Men's_Basketball_Tournament"
          ]
        ],
        [
          "Memphis",
          [
            "/wiki/2010\u201311_Memphis_Tigers_men's_basketball_team"
          ]
        ],
        [
          "67-66",
          []
        ],
        [
          "UTEP",
          []
        ],
        [
          "Joe Jackson , Memphis",
          [
            "/wiki/Joe_Jackson_(basketball)"
          ]
        ],
        [
          "Don Haskins Center ; El Paso , Texas",
          [
            "/wiki/Don_Haskins_Center",
            "/wiki/El_Paso,_Texas"
          ]
        ]
      ],
      [
        [
          "2012",
          [
            "/wiki/2012_Conference_USA_Men's_Basketball_Tournament"
          ]
        ],
        [
          "Memphis",
          [
            "/wiki/2011\u201312_Memphis_Tigers_men's_basketball_team"
          ]
        ],
        [
          "83-57",
          []
        ],
        [
          "Marshall",
          [
            "/wiki/2011\u201312_Marshall_Thundering_Herd_men's_basketball_team"
          ]
        ],
        [
          "Joe Jackson , Memphis",
          [
            "/wiki/Joe_Jackson_(basketball)"
          ]
        ],
        [
          "FedExForum ; Memphis , Tennessee",
          []
        ]
      ],
      [
        [
          "2013",
          [
            "/wiki/2013_Conference_USA_Men's_Basketball_Tournament"
          ]
        ],
        [
          "Memphis",
          [
            "/wiki/2012\u201313_Memphis_Tigers_men's_basketball_team"
          ]
        ],
        [
          "91-79 ( 2OT )",
          []
        ],
        [
          "Southern Miss",
          [
            "/wiki/2012\u201313_Southern_Miss_Golden_Eagles_basketball_team"
          ]
        ],
        [
          "Chris Crawford , Memphis",
          [
            "/wiki/Chris_Crawford_(basketball,_born_1992)"
          ]
        ],
        [
          "BOK Center ; Tulsa , Oklahoma",
          []
        ]
      ],
      [
        [
          "2014",
          [
            "/wiki/2014_Conference_USA_Men's_Basketball_Tournament"
          ]
        ],
        [
          "Tulsa",
          [
            "/wiki/2013\u201314_Tulsa_Golden_Hurricane_men's_basketball_team"
          ]
        ],
        [
          "69-60",
          []
        ],
        [
          "Louisiana Tech",
          [
            "/wiki/2013\u201314_Louisiana_Tech_Bulldogs_basketball_team"
          ]
        ],
        [
          "James Woodard , Tulsa",
          [
            "/wiki/James_Woodard"
          ]
        ],
        [
          "Don Haskins Center ; El Paso , Texas",
          []
        ]
      ],
      [
        [
          "2015",
          [
            "/wiki/2015_Conference_USA_Men's_Basketball_Tournament"
          ]
        ],
        [
          "UAB",
          [
            "/wiki/2014\u201315_UAB_Blazers_men's_basketball_team"
          ]
        ],
        [
          "73-60",
          []
        ],
        [
          "Middle Tennessee",
          [
            "/wiki/2014\u201315_Middle_Tennessee_Blue_Raiders_men's_basketball_team"
          ]
        ],
        [
          "Robert Brown , UAB",
          []
        ],
        [
          "Legacy Arena ; Birmingham , Alabama",
          [
            "/wiki/Legacy_Arena"
          ]
        ]
      ]
    ],
    "section_title": "Tournament results",
    "section_text": "",
    "uid": "List_of_Conference_USA_Men's_Basketball_Tournament_Finals_broadcasters_0",
    "intro": "The Conference USA Men's Basketball Tournament is held annually following the end of the regular season of NCAA Division I Men's Basketball."
  },
  "National_Register_of_Historic_Places_listings_in_Ashland_County,_Ohio_0": {
    "url": "https://en.wikipedia.org/wiki/National_Register_of_Historic_Places_listings_in_Ashland_County,_Ohio",
    "title": "National Register of Historic Places listings in Ashland County, Ohio",
    "header": [
      [
        "",
        []
      ],
      [
        "Name on the Register",
        []
      ],
      [
        "Date listed",
        []
      ],
      [
        "Location",
        []
      ],
      [
        "City or town",
        []
      ]
    ],
    "data": [
      [
        [
          "1",
          []
        ],
        [
          "Anderson Schoolhouse",
          [
            "/wiki/Anderson_Schoolhouse"
          ]
        ],
        [
          "March 25 , 1977 ( # 77001040 )",
          []
        ],
        [
          "Southwest of Ashland on U.S. Route 42 40\u00b050\u203230\u2033N 82\u00b021\u203232\u2033W / 40.841667\u00b0N 82.358889\u00b0W / 40.841667 ; -82.358889 ( Anderson Schoolhouse )",
          [
            "/wiki/U.S._Route_42"
          ]
        ],
        [
          "Milton Township",
          [
            "/wiki/Milton_Township,_Ashland_County,_Ohio"
          ]
        ]
      ],
      [
        [
          "2",
          []
        ],
        [
          "Ashland County Children 's Home",
          []
        ],
        [
          "June 17 , 2019 ( # 100004059 )",
          []
        ],
        [
          "1260 Center St. 40\u00b051\u203225\u2033N 82\u00b018\u203234\u2033W / 40.8570\u00b0N 82.3094\u00b0W / 40.8570 ; -82.3094 ( Ashland County Children 's Home )",
          []
        ],
        [
          "Ashland",
          [
            "/wiki/Ashland,_Ohio"
          ]
        ]
      ],
      [
        [
          "3",
          []
        ],
        [
          "Ashland County Courthouse",
          [
            "/wiki/Ashland_County_Courthouse_(Ohio)"
          ]
        ],
        [
          "December 21 , 1979 ( # 79003786 )",
          []
        ],
        [
          "W. 2nd St. 40\u00b052\u203210\u2033N 82\u00b019\u203203\u2033W / 40.869444\u00b0N 82.3175\u00b0W / 40.869444 ; -82.3175 ( Ashland County Courthouse )",
          []
        ],
        [
          "Ashland",
          [
            "/wiki/Ashland,_Ohio"
          ]
        ]
      ],
      [
        [
          "4",
          []
        ],
        [
          "Philip J . Black House",
          []
        ],
        [
          "May 29 , 1980 ( # 80002935 )",
          []
        ],
        [
          "303 N. Water St. 40\u00b038\u203218\u2033N 82\u00b014\u203207\u2033W / 40.638333\u00b0N 82.235278\u00b0W / 40.638333 ; -82.235278 ( Philip J . Black House )",
          []
        ],
        [
          "Loudonville",
          [
            "/wiki/Loudonville,_Ohio"
          ]
        ]
      ],
      [
        [
          "5",
          []
        ],
        [
          "T.J. and Sarah Bull House",
          []
        ],
        [
          "April 12 , 2007 ( # 07000302 )",
          []
        ],
        [
          "109 S. Market St. 40\u00b038\u203206\u2033N 82\u00b014\u203200\u2033W / 40.635125\u00b0N 82.233438\u00b0W / 40.635125 ; -82.233438 ( T.J. and Sarah Bull House )",
          []
        ],
        [
          "Loudonville",
          [
            "/wiki/Loudonville,_Ohio"
          ]
        ]
      ],
      [
        [
          "6",
          []
        ],
        [
          "Center Street Historic District",
          [
            "/wiki/Center_Street_Historic_District_(Ashland,_Ohio)"
          ]
        ],
        [
          "June 18 , 1976 ( # 76001362 )",
          []
        ],
        [
          "Center St. from Vernon to 414 Center St. ; also Center St. between Town Creek and Walnut St. and between Samaritan and Morgan Aves . 40\u00b051\u203246\u2033N 82\u00b018\u203245\u2033W / 40.862868\u00b0N 82.312381\u00b0W / 40.862868 ; -82.312381 ( Center Street Historic District )",
          []
        ],
        [
          "Ashland",
          [
            "/wiki/Ashland,_Ohio"
          ]
        ]
      ],
      [
        [
          "7",
          []
        ],
        [
          "City Hall and Opera House",
          [
            "/wiki/Ohio_Theatre_(Loudonville,_Ohio)"
          ]
        ],
        [
          "January 25 , 1997 ( # 96001618 )",
          []
        ],
        [
          "156 N. Water St. 40\u00b038\u203211\u2033N 82\u00b014\u203205\u2033W / 40.636389\u00b0N 82.234722\u00b0W / 40.636389 ; -82.234722 ( City Hall and Opera House )",
          []
        ],
        [
          "Loudonville",
          [
            "/wiki/Loudonville,_Ohio"
          ]
        ]
      ],
      [
        [
          "8",
          []
        ],
        [
          "Crittenden Farm",
          [
            "/wiki/Crittenden_Farm"
          ]
        ],
        [
          "April 22 , 1982 ( # 82003540 )",
          []
        ],
        [
          "Northwest of Savannah on U.S . Routes 224 and 250 41\u00b001\u203243\u2033N 82\u00b025\u203237\u2033W / 41.028611\u00b0N 82.426944\u00b0W / 41.028611 ; -82.426944 ( Crittenden Farm )",
          [
            "/wiki/U.S._Route_224",
            "/wiki/U.S._Route_250"
          ]
        ],
        [
          "Ruggles Township",
          [
            "/wiki/Ruggles_Township,_Ashland_County,_Ohio"
          ]
        ]
      ],
      [
        [
          "9",
          []
        ],
        [
          "John Crumrine Farm",
          []
        ],
        [
          "December 7 , 1990 ( # 90001778 )",
          []
        ],
        [
          "792 County Road 40 north of Nova 41\u00b003\u203229\u2033N 82\u00b016\u203250\u2033W / 41.058056\u00b0N 82.280556\u00b0W / 41.058056 ; -82.280556 ( John Crumrine Farm )",
          []
        ],
        [
          "Troy Township",
          [
            "/wiki/Troy_Township,_Ashland_County,_Ohio"
          ]
        ]
      ],
      [
        [
          "10",
          []
        ],
        [
          "Michael Crumrine Farm",
          []
        ],
        [
          "December 7 , 1990 ( # 90001779 )",
          []
        ],
        [
          "871 County Road 40 north of Nova 41\u00b003\u203227\u2033N 82\u00b017\u203242\u2033W / 41.057500\u00b0N 82.295000\u00b0W / 41.057500 ; -82.295000 ( Michael Crumrine Farm )",
          []
        ],
        [
          "Troy Township",
          [
            "/wiki/Troy_Township,_Ashland_County,_Ohio"
          ]
        ]
      ],
      [
        [
          "11",
          []
        ],
        [
          "Downtown Ashland Historic District",
          []
        ],
        [
          "January 23 , 2013 ( # 12001209 )",
          []
        ],
        [
          "Roughly bounded by Cottage-Claremont Ave. , 3rd , 4th , and Union Sts. , and Town Creek 40\u00b052\u203208\u2033N 82\u00b018\u203256\u2033W / 40.868889\u00b0N 82.315556\u00b0W / 40.868889 ; -82.315556 ( Downtown Ashland Historic District )",
          []
        ],
        [
          "Ashland",
          [
            "/wiki/Ashland,_Ohio"
          ]
        ]
      ],
      [
        [
          "12",
          []
        ],
        [
          "John Garst House",
          []
        ],
        [
          "April 29 , 1982 ( # 82003539 )",
          []
        ],
        [
          "Northeast of Loudonville on State Route 95 40\u00b043\u203240\u2033N 82\u00b011\u203252\u2033W / 40.727778\u00b0N 82.197778\u00b0W / 40.727778 ; -82.197778 ( John Garst House )",
          [
            "/wiki/Ohio_State_Route_95"
          ]
        ],
        [
          "Mohican Township",
          [
            "/wiki/Mohican_Township,_Ashland_County,_Ohio"
          ]
        ]
      ],
      [
        [
          "13",
          []
        ],
        [
          "Hayesville Opera House",
          []
        ],
        [
          "May 6 , 1976 ( # 76001364 )",
          []
        ],
        [
          "1 E. Main St. 40\u00b046\u203223\u2033N 82\u00b015\u203242\u2033W / 40.773056\u00b0N 82.261667\u00b0W / 40.773056 ; -82.261667 ( Hayesville Opera House )",
          []
        ],
        [
          "Hayesville",
          [
            "/wiki/Hayesville,_Ohio"
          ]
        ]
      ],
      [
        [
          "14",
          []
        ],
        [
          "William Kelley Hardware Store-Hayesville Odd Fellows Hall",
          []
        ],
        [
          "February 14 , 2017 ( # 100000662 )",
          []
        ],
        [
          "7 E. Main St. 40\u00b046\u203223\u2033N 82\u00b015\u203242\u2033W / 40.773056\u00b0N 82.261750\u00b0W / 40.773056 ; -82.261750 ( William Kelley Hardware Store-Hayesville Odd Fellows Hall )",
          []
        ],
        [
          "Hayesville",
          [
            "/wiki/Hayesville,_Ohio"
          ]
        ]
      ],
      [
        [
          "15",
          []
        ],
        [
          "Lakefork School",
          []
        ],
        [
          "March 5 , 1982 ( # 82003538 )",
          []
        ],
        [
          "Southeast of Jeromesville 40\u00b045\u203217\u2033N 82\u00b008\u203247\u2033W / 40.754722\u00b0N 82.146389\u00b0W / 40.754722 ; -82.146389 ( Lakefork School )",
          []
        ],
        [
          "Mohican Township",
          [
            "/wiki/Mohican_Township,_Ashland_County,_Ohio"
          ]
        ]
      ],
      [
        [
          "16",
          []
        ],
        [
          "Myers Block-Home Company Building",
          []
        ],
        [
          "February 5 , 1997 ( # 96001620 )",
          []
        ],
        [
          "1 E. Main St. 40\u00b052\u203206\u2033N 82\u00b018\u203253\u2033W / 40.868333\u00b0N 82.314722\u00b0W / 40.868333 ; -82.314722 ( Myers Block-Home Company Building )",
          []
        ],
        [
          "Ashland",
          [
            "/wiki/Ashland,_Ohio"
          ]
        ]
      ],
      [
        [
          "17",
          []
        ],
        [
          "Sprott 's Hill Mounds Site",
          []
        ],
        [
          "January 31 , 1976 ( # 76001363 )",
          []
        ],
        [
          "Western side of Township Road 1193 between Bailey Lake and Ashland 40\u00b054\u203249\u2033N 82\u00b021\u203242\u2033W / 40.913611\u00b0N 82.361667\u00b0W / 40.913611 ; -82.361667 ( Sprott 's Hill Mounds Site )",
          []
        ],
        [
          "Clear Creek Township",
          [
            "/wiki/Clear_Creek_Township,_Ashland_County,_Ohio"
          ]
        ]
      ],
      [
        [
          "18",
          []
        ],
        [
          "Vermillion Institute",
          [
            "/wiki/Vermillion_Institute"
          ]
        ],
        [
          "March 29 , 1978 ( # 78002000 )",
          []
        ],
        [
          "Main and College Sts . 40\u00b046\u203226\u2033N 82\u00b015\u203220\u2033W / 40.773889\u00b0N 82.255556\u00b0W / 40.773889 ; -82.255556 ( Vermillion Institute )",
          []
        ],
        [
          "Hayesville",
          [
            "/wiki/Hayesville,_Ohio"
          ]
        ]
      ]
    ],
    "section_title": "Current listings",
    "section_text": "",
    "uid": "National_Register_of_Historic_Places_listings_in_Ashland_County,_Ohio_0",
    "intro": "This is a list of the National Register of Historic Places listings in Ashland County, Ohio. This is intended to be a complete list of the properties and districts on the National Register of Historic Places in Ashland County, Ohio, United States. The locations of National Register properties and districts for which the latitude and longitude coordinates are included below, may be seen in an online map. There are 18 properties and districts listed on the National Register in the county. Another 2 properties were once listed but have been removed."
  },
  "'No_Way_To_Prevent_This,'_Says_Only_Nation_Where_This_Regularly_Happens_0": {
    "url": "https://en.wikipedia.org/wiki/'No_Way_To_Prevent_This,'_Says_Only_Nation_Where_This_Regularly_Happens",
    "title": "'No Way To Prevent This,' Says Only Nation Where This Regularly Happens",
    "header": [
      [
        "#",
        []
      ],
      [
        "Publication date",
        []
      ],
      [
        "Shooting",
        []
      ]
    ],
    "data": [
      [
        [
          "1",
          []
        ],
        [
          "May 27 , 2014 , 3:14pm CDT",
          [
            "/wiki/Central_Time_Zone"
          ]
        ],
        [
          "Isla Vista , California",
          [
            "/wiki/2014_Isla_Vista_killings"
          ]
        ]
      ],
      [
        [
          "2",
          []
        ],
        [
          "June 17 , 2015 , 5:44pm CDT",
          []
        ],
        [
          "Charleston , South Carolina",
          [
            "/wiki/Charleston_church_shooting"
          ]
        ]
      ],
      [
        [
          "3",
          []
        ],
        [
          "October 1 , 2015 , 5:45pm CDT",
          []
        ],
        [
          "Roseburg , Oregon",
          [
            "/wiki/Umpqua_Community_College_shooting"
          ]
        ]
      ],
      [
        [
          "4",
          []
        ],
        [
          "December 3 , 2015 , 8:44pm CDT",
          []
        ],
        [
          "San Bernardino , California",
          [
            "/wiki/2015_San_Bernardino_attack"
          ]
        ]
      ],
      [
        [
          "5",
          []
        ],
        [
          "October 2 , 2017 , 8:46am CDT",
          []
        ],
        [
          "Las Vegas , Nevada",
          [
            "/wiki/2017_Las_Vegas_shooting"
          ]
        ]
      ],
      [
        [
          "6",
          []
        ],
        [
          "November 5 , 2017 , 4:38pm CDT",
          []
        ],
        [
          "Sutherland Springs , Texas",
          [
            "/wiki/Sutherland_Springs_church_shooting"
          ]
        ]
      ],
      [
        [
          "7",
          []
        ],
        [
          "February 14 , 2018 , 5:32pm CDT",
          []
        ],
        [
          "Parkland , Florida",
          [
            "/wiki/Stoneman_Douglas_High_School_shooting"
          ]
        ]
      ],
      [
        [
          "8",
          []
        ],
        [
          "May 18 , 2018 , 11:48am CDT",
          []
        ],
        [
          "Santa Fe , Texas",
          [
            "/wiki/Santa_Fe_High_School_shooting"
          ]
        ]
      ],
      [
        [
          "9",
          []
        ],
        [
          "September 13 , 2018 , 12:12pm CDT",
          []
        ],
        [
          "Bakersfield , California",
          []
        ]
      ],
      [
        [
          "10",
          []
        ],
        [
          "October 29 , 2018 , 11:39am CDT",
          []
        ],
        [
          "Pittsburgh , Pennsylvania",
          [
            "/wiki/Pittsburgh_synagogue_shooting"
          ]
        ]
      ],
      [
        [
          "11",
          []
        ],
        [
          "November 8 , 2018 , 9:44am CDT",
          []
        ],
        [
          "Thousand Oaks , California",
          [
            "/wiki/Thousand_Oaks_shooting"
          ]
        ]
      ],
      [
        [
          "12",
          []
        ],
        [
          "June 1 , 2019 , 10:51am CDT",
          []
        ],
        [
          "Virginia Beach , Virginia",
          [
            "/wiki/2019_Virginia_Beach_shooting"
          ]
        ]
      ],
      [
        [
          "13",
          []
        ],
        [
          "August 4 , 2019 , 9:33am CDT",
          []
        ],
        [
          "El Paso , Texas",
          [
            "/wiki/2019_El_Paso_shooting"
          ]
        ]
      ],
      [
        [
          "14",
          []
        ],
        [
          "August 4 , 2019 , 9:42am CDT",
          []
        ],
        [
          "Dayton , Ohio",
          [
            "/wiki/2019_Dayton_shooting"
          ]
        ]
      ],
      [
        [
          "15",
          []
        ],
        [
          "February 26 , 2020 , 5:36pm CDT",
          []
        ],
        [
          "Milwaukee , Wisconsin",
          [
            "/wiki/Milwaukee_brewery_shooting"
          ]
        ]
      ]
    ],
    "section_title": "List of articles",
    "section_text": "As of February 2020 , The Onion has published the satirical article 15 times .",
    "uid": "'No_Way_To_Prevent_This,'_Says_Only_Nation_Where_This_Regularly_Happens_0",
    "intro": "No Way To Prevent This,' Says Only Nation Where This Regularly Happens is the title of a series of articles from The Onion that satirize the frequency of mass shootings in the United States and the lack of action taken in the aftermath of those shootings. Each article is about 200 words long, detailing the location of the shooting and the number of victims. A fictitious resident of a state in which the shooting did not take place is quoted as saying that the shooting was a terrible tragedy, but there's nothing anyone can do to stop them. The article ends by pointing out that the United States is the only economically advanced nation in the world where roughly two mass shootings have occurred every month for the past eight years and that Americans view themselves and the situation as helpless."
  }
}