{
  "List_of_tallest_buildings_and_structures_in_the_Indian_subcontinent_0": {
    "url": "https://en.wikipedia.org/wiki/List_of_tallest_buildings_and_structures_in_the_Indian_subcontinent",
    "title": "List of tallest buildings and structures in the Indian subcontinent",
    "header": [
      [
        "Rank",
        []
      ],
      [
        "Name",
        []
      ],
      [
        "City",
        []
      ],
      [
        "Country",
        []
      ],
      [
        "Height",
        []
      ],
      [
        "Floors",
        []
      ],
      [
        "Year",
        []
      ],
      [
        "Building type",
        []
      ]
    ],
    "data": [
      [
        [
          "1",
          []
        ],
        [
          "Palais Royale",
          [
            "/wiki/Palais_Royale,_Mumbai"
          ]
        ],
        [
          "Mumbai",
          [
            "/wiki/Mumbai"
          ]
        ],
        [
          "India",
          [
            "/wiki/India"
          ]
        ],
        [
          "320 metres ( 1,050 ft )",
          []
        ],
        [
          "88",
          []
        ],
        [
          "2018",
          []
        ],
        [
          "Residential",
          []
        ]
      ],
      [
        [
          "2",
          []
        ],
        [
          "Bahria Icon Tower",
          [
            "/wiki/Bahria_Icon_Tower"
          ]
        ],
        [
          "Karachi",
          [
            "/wiki/Karachi"
          ]
        ],
        [
          "Pakistan",
          [
            "/wiki/Pakistan"
          ]
        ],
        [
          "300 metres ( 984 ft )",
          []
        ],
        [
          "62",
          []
        ],
        [
          "2018",
          []
        ],
        [
          "Mixed Use",
          []
        ]
      ],
      [
        [
          "3",
          []
        ],
        [
          "Supernova Spira",
          [
            "/wiki/Supernova_Spira"
          ]
        ],
        [
          "Noida",
          [
            "/wiki/Noida"
          ]
        ],
        [
          "India",
          [
            "/wiki/India"
          ]
        ],
        [
          "300 metres ( 984 ft )",
          []
        ],
        [
          "80",
          []
        ],
        [
          "2020",
          []
        ],
        [
          "Mixed Use",
          []
        ]
      ],
      [
        [
          "4",
          []
        ],
        [
          "The 42",
          []
        ],
        [
          "Kolkata",
          [
            "/wiki/Kolkata"
          ]
        ],
        [
          "India",
          [
            "/wiki/India"
          ]
        ],
        [
          "260 metres ( 853 ft )",
          []
        ],
        [
          "65",
          []
        ],
        [
          "2019",
          []
        ],
        [
          "Residential",
          []
        ]
      ],
      [
        [
          "4",
          []
        ],
        [
          "Three sixty west B",
          []
        ],
        [
          "Mumbai",
          [
            "/wiki/Mumbai"
          ]
        ],
        [
          "India",
          [
            "/wiki/India"
          ]
        ],
        [
          "260 metres ( 853 ft )",
          []
        ],
        [
          "60",
          []
        ],
        [
          "2018",
          []
        ],
        [
          "Commercial",
          []
        ]
      ],
      [
        [
          "4",
          []
        ],
        [
          "One Avighna Park",
          [
            "/wiki/One_Avighna_Park"
          ]
        ],
        [
          "Mumbai",
          [
            "/wiki/Mumbai"
          ]
        ],
        [
          "India",
          [
            "/wiki/India"
          ]
        ],
        [
          "260 metres ( 853 ft )",
          []
        ],
        [
          "65",
          []
        ],
        [
          "2017",
          []
        ],
        [
          "Residential",
          []
        ]
      ],
      [
        [
          "4",
          []
        ],
        [
          "Imperial Tower 1",
          [
            "/wiki/The_Imperial_(Mumbai)"
          ]
        ],
        [
          "Mumbai",
          [
            "/wiki/Mumbai"
          ]
        ],
        [
          "India",
          [
            "/wiki/India"
          ]
        ],
        [
          "256 metres ( 840 ft )",
          []
        ],
        [
          "60",
          []
        ],
        [
          "2010",
          []
        ],
        [
          "Residential",
          []
        ]
      ],
      [
        [
          "4",
          []
        ],
        [
          "Imperial Tower 2",
          [
            "/wiki/The_Imperial_(Mumbai)"
          ]
        ],
        [
          "Mumbai",
          [
            "/wiki/Mumbai"
          ]
        ],
        [
          "India",
          [
            "/wiki/India"
          ]
        ],
        [
          "256 metres ( 840 ft )",
          []
        ],
        [
          "60",
          []
        ],
        [
          "2010",
          []
        ],
        [
          "Residential",
          []
        ]
      ],
      [
        [
          "9",
          []
        ],
        [
          "Ahuja Tower",
          []
        ],
        [
          "Mumbai",
          [
            "/wiki/Mumbai"
          ]
        ],
        [
          "India",
          [
            "/wiki/India"
          ]
        ],
        [
          "250 metres ( 820 ft )",
          []
        ],
        [
          "53",
          []
        ],
        [
          "2015",
          []
        ],
        [
          "Residential",
          []
        ]
      ],
      [
        [
          "10",
          []
        ],
        [
          "L & T Crescent Bay 1",
          []
        ],
        [
          "Mumbai",
          [
            "/wiki/Mumbai"
          ]
        ],
        [
          "India",
          [
            "/wiki/India"
          ]
        ],
        [
          "245 metres ( 804 ft )",
          []
        ],
        [
          "64",
          []
        ],
        [
          "2017",
          []
        ],
        [
          "Residential",
          []
        ]
      ],
      [
        [
          "11",
          []
        ],
        [
          "Altair : Straight Tower",
          [
            "/wiki/Altair_(building)"
          ]
        ],
        [
          "Colombo",
          [
            "/wiki/Colombo"
          ]
        ],
        [
          "Sri Lanka",
          [
            "/wiki/Sri_Lanka"
          ]
        ],
        [
          "240 metres ( 787 ft )",
          []
        ],
        [
          "68",
          []
        ],
        [
          "2017",
          []
        ],
        [
          "Residential",
          []
        ]
      ],
      [
        [
          "11",
          []
        ],
        [
          "Bahria Hotel Tower",
          []
        ],
        [
          "Karachi",
          [
            "/wiki/Karachi"
          ]
        ],
        [
          "Pakistan",
          [
            "/wiki/Pakistan"
          ]
        ],
        [
          "240 metres ( 787 ft )",
          []
        ],
        [
          "46",
          []
        ],
        [
          "2019",
          []
        ],
        [
          "Residential",
          []
        ]
      ],
      [
        [
          "11",
          []
        ],
        [
          "Indiabulls Sky",
          []
        ],
        [
          "Mumbai",
          [
            "/wiki/Mumbai"
          ]
        ],
        [
          "India",
          [
            "/wiki/India"
          ]
        ],
        [
          "240 metres ( 787 ft )",
          []
        ],
        [
          "48",
          []
        ],
        [
          "2016",
          []
        ],
        [
          "Residential",
          []
        ]
      ],
      [
        [
          "14",
          []
        ],
        [
          "Grand Hyatt Colombo",
          [
            "/wiki/Grand_Hyatt_Colombo"
          ]
        ],
        [
          "Colombo",
          [
            "/wiki/Colombo"
          ]
        ],
        [
          "Sri Lanka",
          [
            "/wiki/Sri_Lanka"
          ]
        ],
        [
          "229.5 metres ( 753 ft )",
          []
        ],
        [
          "47",
          []
        ],
        [
          "2015",
          []
        ],
        [
          "Mixed Use",
          []
        ]
      ],
      [
        [
          "15",
          []
        ],
        [
          "World Crest",
          []
        ],
        [
          "Mumbai",
          [
            "/wiki/Mumbai"
          ]
        ],
        [
          "India",
          [
            "/wiki/India"
          ]
        ],
        [
          "223 metres ( 732 ft )",
          []
        ],
        [
          "57",
          []
        ],
        [
          "2014",
          []
        ],
        [
          "Residential",
          []
        ]
      ],
      [
        [
          "16",
          []
        ],
        [
          "Lodha Bellissimo A & B",
          [
            "/wiki/Lodha_Bellissimo"
          ]
        ],
        [
          "Mumbai",
          [
            "/wiki/Mumbai"
          ]
        ],
        [
          "India",
          [
            "/wiki/India"
          ]
        ],
        [
          "222 metres ( 728 ft )",
          []
        ],
        [
          "53",
          []
        ],
        [
          "2012",
          []
        ],
        [
          "Residential",
          []
        ]
      ],
      [
        [
          "16",
          []
        ],
        [
          "Lodha Bellissimo C",
          [
            "/wiki/Lodha_Bellissimo"
          ]
        ],
        [
          "Mumbai",
          [
            "/wiki/Mumbai"
          ]
        ],
        [
          "India",
          [
            "/wiki/India"
          ]
        ],
        [
          "222 metres ( 728 ft )",
          []
        ],
        [
          "53",
          []
        ],
        [
          "2012",
          []
        ],
        [
          "Residential",
          []
        ]
      ],
      [
        [
          "18",
          []
        ],
        [
          "L & T Crescent Bay 2",
          []
        ],
        [
          "Mumbai",
          [
            "/wiki/Mumbai"
          ]
        ],
        [
          "India",
          [
            "/wiki/India"
          ]
        ],
        [
          "220 metres ( 722 ft )",
          []
        ],
        [
          "57",
          []
        ],
        [
          "2017",
          []
        ],
        [
          "Residential",
          []
        ]
      ],
      [
        [
          "19",
          []
        ],
        [
          "Lodha Venezia A",
          []
        ],
        [
          "Mumbai",
          [
            "/wiki/Mumbai"
          ]
        ],
        [
          "India",
          [
            "/wiki/India"
          ]
        ],
        [
          "213 metres ( 699 ft )",
          []
        ],
        [
          "57",
          []
        ],
        [
          "2017",
          []
        ],
        [
          "Residential",
          []
        ]
      ],
      [
        [
          "20",
          []
        ],
        [
          "Chapal Skymark",
          []
        ],
        [
          "Karachi",
          [
            "/wiki/Karachi"
          ]
        ],
        [
          "Pakistan",
          [
            "/wiki/Pakistan"
          ]
        ],
        [
          "210 metres ( 689 ft )",
          []
        ],
        [
          "50",
          []
        ],
        [
          "2019",
          []
        ],
        [
          "Residential",
          []
        ]
      ]
    ],
    "section_title": "Tallest buildings",
    "section_text": "This list ranks buildings in Indian subcontinent in terms of height that has achieved a height of at least 170 m ( 560 ft ) .",
    "uid": "List_of_tallest_buildings_and_structures_in_the_Indian_subcontinent_0",
    "intro": "This list of tallest buildings in the Indian subcontinent ranks skyscrapers and structures in the Indian subcontinent based on official height.The tallest self-supported structure is the 356 metre Lotus Tower located in Colombo city in Sri lanka. The tallest building is Bahria Icon Tower which is located in the Pakistani city of Karachi. The tallest guyed structures are two 471 metre radio masts of the Indian Navy of INS Kattabomman for VLF-transmissions, which are located in the Indian state of Tamil Nadu."
  }
}