{
  "List_of_Medal_of_Honor_recipients_for_the_Second_Battle_of_Fort_Fisher_0": {
    "url": "https://en.wikipedia.org/wiki/List_of_Medal_of_Honor_recipients_for_the_Second_Battle_of_Fort_Fisher",
    "title": "List of Medal of Honor recipients for the Second Battle of Fort Fisher",
    "header": [
      [
        "Name",
        []
      ],
      [
        "Service",
        []
      ],
      [
        "Rank",
        []
      ],
      [
        "Date of action",
        []
      ],
      [
        "Unit",
        []
      ],
      [
        "Notes",
        []
      ]
    ],
    "data": [
      [
        [
          "Bruce Anderson",
          [
            "/wiki/Bruce_Anderson_(soldier)"
          ]
        ],
        [
          "Army",
          [
            "/wiki/United_States_Army"
          ]
        ],
        [
          "Private",
          [
            "/wiki/Private_(rank)"
          ]
        ],
        [
          "January 15 , 1865",
          []
        ],
        [
          "Company K , 142nd New York Infantry",
          []
        ],
        [
          "Voluntarily advanced with the head of the column and cut down the palisading",
          []
        ]
      ],
      [
        [
          "John Anglin",
          [
            "/wiki/John_Anglin_(sailor)"
          ]
        ],
        [
          "Navy",
          [
            "/wiki/United_States_Navy"
          ]
        ],
        [
          "Cabin Boy",
          []
        ],
        [
          "24 December 1864 to 22 January 1865",
          []
        ],
        [
          "USS Pontoosuc ( 1864 )",
          [
            "/wiki/USS_Pontoosuc"
          ]
        ],
        [
          "Carried out his duties while under the fire of the enemy",
          []
        ]
      ],
      [
        [
          "James Barnum",
          [
            "/wiki/James_Barnum"
          ]
        ],
        [
          "Navy",
          [
            "/wiki/United_States_Navy"
          ]
        ],
        [
          "Boatswain 's Mate",
          [
            "/wiki/Boatswain's_mate_(United_States_Navy)"
          ]
        ],
        [
          "December 24-25 , 1864 and January 13-15 , 1865",
          []
        ],
        [
          "USS New Ironsides ( 1862 )",
          [
            "/wiki/USS_New_Ironsides"
          ]
        ],
        [
          "[ Was ] commended for highly meritorious conduct during an all day battle between his ship and Fort Fisher",
          []
        ]
      ],
      [
        [
          "Gurdon H. Barter",
          [
            "/wiki/Gurdon_H._Barter"
          ]
        ],
        [
          "Navy",
          [
            "/wiki/United_States_Navy"
          ]
        ],
        [
          "Landsman",
          [
            "/wiki/Landsman_(rank)"
          ]
        ],
        [
          "January 15 , 1865",
          []
        ],
        [
          "USS Minnesota ( 1855 )",
          [
            "/wiki/USS_Minnesota_(1855)"
          ]
        ],
        [
          "Landing on the beach with the assaulting party from his ship , he advanced to the top of the sand hill and partly through the breach in the palisades despite enemy fire which killed and wounded many officers and men . When more than two-thirds of the men became seized with panic and retreated on the run , he remained with the party until dark , when it came safely away , bringing its wounded , its arms , and its colors",
          []
        ]
      ],
      [
        [
          "David L. Bass",
          [
            "/wiki/David_L._Bass"
          ]
        ],
        [
          "Navy",
          [
            "/wiki/United_States_Navy"
          ]
        ],
        [
          "Seaman",
          [
            "/wiki/Seaman_(rank)"
          ]
        ],
        [
          "15 January 1865",
          []
        ],
        [
          "USS Minnesota ( 1855 )",
          [
            "/wiki/USS_Minnesota_(1855)"
          ]
        ],
        [
          "Landing on the beach with the assaulting party from his ship , S/man Bass advanced to the top of the sand hill and partly through the breach in the palisades despite enemy fire which killed and wounded many officers and men . When more than two-thirds of the men became seized with panic and retreated on the run , he remained with the party until dark , when it came safely away , bringing its wounded , its arms , and its colors",
          []
        ]
      ],
      [
        [
          "Philip Bazaar",
          [
            "/wiki/Philip_Bazaar"
          ]
        ],
        [
          "Navy",
          [
            "/wiki/United_States_Navy"
          ]
        ],
        [
          "Ordinary Seaman",
          [
            "/wiki/Ordinary_seaman"
          ]
        ],
        [
          "15 January 1865",
          []
        ],
        [
          "USS Santiago de Cuba",
          [
            "/wiki/USS_Santiago_de_Cuba_(1861)"
          ]
        ],
        [
          "Was one of six men who entered the fort in an assault and accompanied his party in carrying dispatches at the height of the battle",
          []
        ]
      ],
      [
        [
          "Asa Betham",
          [
            "/wiki/Asa_Betham"
          ]
        ],
        [
          "Navy",
          [
            "/wiki/United_States_Navy"
          ]
        ],
        [
          "Coxswain",
          [
            "/wiki/Coxswain"
          ]
        ],
        [
          "24 December 1864 , to 22 January 1865",
          []
        ],
        [
          "USS Pontoosuc ( 1864 )",
          [
            "/wiki/USS_Pontoosuc"
          ]
        ],
        [
          "",
          []
        ]
      ],
      [
        [
          "Richard Binder",
          [
            "/wiki/Richard_Binder"
          ]
        ],
        [
          "Marine Corps",
          [
            "/wiki/United_States_Marine_Corps"
          ]
        ],
        [
          "Sergeant",
          [
            "/wiki/Sergeant"
          ]
        ],
        [
          "24 and December 25 , 1864 , and 13 to January 15 , 1865",
          []
        ],
        [
          "USS Ticonderoga ( 1862 )",
          [
            "/wiki/USS_Ticonderoga_(1862)"
          ]
        ],
        [
          "",
          []
        ]
      ],
      [
        [
          "Robert M. Blair",
          [
            "/wiki/Robert_M._Blair"
          ]
        ],
        [
          "Navy",
          [
            "/wiki/United_States_Navy"
          ]
        ],
        [
          "Boatswain 's Mate",
          [
            "/wiki/Boatswain's_mate_(United_States_Navy)"
          ]
        ],
        [
          "24 December 1864 to 22 January 1865",
          []
        ],
        [
          "USS Pontoosuc ( 1864 )",
          [
            "/wiki/USS_Pontoosuc"
          ]
        ],
        [
          "",
          []
        ]
      ],
      [
        [
          "Edward R. Bowman",
          [
            "/wiki/Edward_R._Bowman"
          ]
        ],
        [
          "Navy",
          [
            "/wiki/United_States_Navy"
          ]
        ],
        [
          "Quartermaster",
          []
        ],
        [
          "13 to 15 January 1865",
          []
        ],
        [
          "USS Ticonderoga ( 1862 )",
          [
            "/wiki/USS_Ticonderoga_(1862)"
          ]
        ],
        [
          "Although severely wounded he continued to perform his duties throughout the action",
          []
        ]
      ],
      [
        [
          "Albert Burton",
          [
            "/wiki/Albert_Burton"
          ]
        ],
        [
          "Navy",
          [
            "/wiki/United_States_Navy"
          ]
        ],
        [
          "Seaman",
          [
            "/wiki/Seaman_(rank)"
          ]
        ],
        [
          "15 January 1865",
          []
        ],
        [
          "USS Wabash ( 1855 )",
          [
            "/wiki/USS_Wabash_(1855)"
          ]
        ],
        [
          "",
          []
        ]
      ],
      [
        [
          "William Campbell",
          [
            "/wiki/William_Campbell_(Medal_of_Honor,_1838)"
          ]
        ],
        [
          "Navy",
          [
            "/wiki/United_States_Navy"
          ]
        ],
        [
          "Boatswain 's Mate",
          [
            "/wiki/Boatswain's_mate_(United_States_Navy)"
          ]
        ],
        [
          "24 and 25 December 1864 ; and 13 to 15 January 1865",
          []
        ],
        [
          "USS Ticonderoga ( 1862 )",
          [
            "/wiki/USS_Ticonderoga_(1862)"
          ]
        ],
        [
          "",
          []
        ]
      ],
      [
        [
          "Alaric B. Chapin",
          [
            "/wiki/Alaric_B._Chapin"
          ]
        ],
        [
          "Army",
          [
            "/wiki/United_States_Army"
          ]
        ],
        [
          "Private",
          [
            "/wiki/Private_(rank)"
          ]
        ],
        [
          "15 January 1865",
          []
        ],
        [
          "Company G , 142d New York Infantry",
          []
        ],
        [
          "[ V ] oluntarily advanced with the head of the column and cut down the palisading",
          []
        ]
      ],
      [
        [
          "Thomas Connor",
          [
            "/wiki/Thomas_Connor"
          ]
        ],
        [
          "Navy",
          [
            "/wiki/United_States_Navy"
          ]
        ],
        [
          "Ordinary Seaman",
          [
            "/wiki/Ordinary_seaman_(rank)"
          ]
        ],
        [
          "15 January 1865",
          []
        ],
        [
          "USS Minnesota ( 1855 )",
          [
            "/wiki/USS_Minnesota_(1855)"
          ]
        ],
        [
          "",
          []
        ]
      ],
      [
        [
          "Newton Martin Curtis",
          [
            "/wiki/Newton_Martin_Curtis"
          ]
        ],
        [
          "Army",
          [
            "/wiki/United_States_Army"
          ]
        ],
        [
          "Brigadier General",
          [
            "/wiki/Brigadier_general"
          ]
        ],
        [
          "15 January 1865",
          []
        ],
        [
          "U.S . Volunteers",
          []
        ],
        [
          "Was the first to pass through the stockade and although being wounded 4 times led each assault on the traverses of the fort",
          []
        ]
      ],
      [
        [
          "John Dempster",
          [
            "/wiki/John_Dempster_(Medal_of_Honor)"
          ]
        ],
        [
          "Navy",
          [
            "/wiki/United_States_Navy"
          ]
        ],
        [
          "Coxswain",
          [
            "/wiki/Coxswain"
          ]
        ],
        [
          "24 and 25 December 1864 ; and 13 , 14 , and 15 January 1865",
          []
        ],
        [
          "USS New Ironsides ( 1862 )",
          [
            "/wiki/USS_New_Ironsides"
          ]
        ],
        [
          "",
          []
        ]
      ],
      [
        [
          "William Dunn",
          [
            "/wiki/William_Dunn_(Medal_of_Honor)"
          ]
        ],
        [
          "Navy",
          [
            "/wiki/United_States_Navy"
          ]
        ],
        [
          "Quartermaster",
          []
        ],
        [
          "24 and 25 December 1864 ; and 13 , 14 , and 15 January 1865",
          []
        ],
        [
          "USS Monadnock ( 1863 )",
          [
            "/wiki/USS_Monadnock_(1863)"
          ]
        ],
        [
          "",
          []
        ]
      ],
      [
        [
          "Thomas English",
          [
            "/wiki/Thomas_English_(Medal_of_Honor)"
          ]
        ],
        [
          "Navy",
          [
            "/wiki/United_States_Navy"
          ]
        ],
        [
          "Signal Quartermaster",
          []
        ],
        [
          "24 and 25 December 1864 ; and 13 , 14 , and 15 January 1865",
          []
        ],
        [
          "USS New Ironsides ( 1862 )",
          [
            "/wiki/USS_New_Ironsides"
          ]
        ],
        [
          "",
          []
        ]
      ],
      [
        [
          "Charles H. Foy",
          [
            "/wiki/Charles_H._Foy"
          ]
        ],
        [
          "Navy",
          [
            "/wiki/United_States_Navy"
          ]
        ],
        [
          "Signal Quartermaster",
          []
        ],
        [
          "13 to 15 January 1865",
          []
        ],
        [
          "USS Rhode Island ( 1861 )",
          [
            "/wiki/USS_Rhode_Island_(1860)"
          ]
        ],
        [
          "",
          []
        ]
      ],
      [
        [
          "William H. Freeman",
          [
            "/wiki/William_H._Freeman"
          ]
        ],
        [
          "Army",
          [
            "/wiki/United_States_Army"
          ]
        ],
        [
          "Private",
          [
            "/wiki/Private_(rank)"
          ]
        ],
        [
          "15 January 1865",
          []
        ],
        [
          "Company B , 169th New York Infantry",
          [
            "/wiki/169th_New_York_Volunteer_Infantry"
          ]
        ],
        [
          "Volunteered to carry the brigade flag after the bearer was wounded",
          []
        ]
      ]
    ],
    "section_title": "Recipients",
    "section_text": "",
    "uid": "List_of_Medal_of_Honor_recipients_for_the_Second_Battle_of_Fort_Fisher_0",
    "intro": "The Second Battle of Fort Fisher was a joint assault by Union Army and naval forces against the Confederate Fort Fisher, outside Wilmington, North Carolina, near the end of the American Civil War. Sometimes referred to as the Gibraltar of the South and the last major coastal stronghold of the Confederacy, Fort Fisher had tremendous strategic value during the war. The Medal of Honor was awarded to 54 Union servicemen for their actions during this battle. The Medal of Honor was created during the American Civil War and is the highest military decoration presented by the United States government to a member of its armed forces. The recipient must have distinguished themselves at the risk of their own life above and beyond the call of duty in action against an enemy of the United States. Due to the nature of this medal, it is commonly presented posthumously."
  },
  "List_of_rolling_stock_preserved_on_the_North_Yorkshire_Moors_Railway_6": {
    "url": "https://en.wikipedia.org/wiki/List_of_rolling_stock_preserved_on_the_North_Yorkshire_Moors_Railway",
    "title": "List of rolling stock preserved on the North Yorkshire Moors Railway",
    "header": [
      [
        "Class",
        []
      ],
      [
        "Number ( & Name )",
        []
      ],
      [
        "Livery",
        []
      ],
      [
        "Current status",
        []
      ],
      [
        "Mainline Certified ( 1 )",
        []
      ],
      [
        "Notes",
        []
      ]
    ],
    "data": [
      [
        [
          "Class 04",
          [
            "/wiki/British_Rail_Class_04"
          ]
        ],
        [
          "D2207",
          []
        ],
        [
          "BR Green",
          []
        ],
        [
          "Operational",
          []
        ],
        [
          "No",
          []
        ],
        [
          "Built 1953 , originally numbered 11108 . Subsequently , sold into industrial use with C.A.E.C . Howard Ltd. of Hemel Hempstead before acquisition by the NYMR in 1973 . Sidelined for a decade after many years of service , it returned to traffic in June 2018 following a comprehensive overhaul which involved the fitting of a replacement engine",
          []
        ]
      ],
      [
        [
          "Class 08",
          [
            "/wiki/British_Rail_Class_08"
          ]
        ],
        [
          "08 556",
          []
        ],
        [
          "BR Green",
          []
        ],
        [
          "Operational",
          []
        ],
        [
          "No",
          []
        ],
        [
          "Built 1959",
          []
        ]
      ],
      [
        [
          "Class 08",
          [
            "/wiki/British_Rail_Class_08"
          ]
        ],
        [
          "08 495",
          []
        ],
        [
          "BR Blue",
          []
        ],
        [
          "Operational",
          []
        ],
        [
          "No",
          []
        ],
        [
          "Built 1959 . Fitted with radio control equipment during its last years of mainline service , hence the conspicuous large coloured lights fitted to both ends of the locomotive",
          []
        ]
      ],
      [
        [
          "Class 08",
          [
            "/wiki/British_Rail_Class_08"
          ]
        ],
        [
          "08 850",
          []
        ],
        [
          "BR Blue",
          []
        ],
        [
          "Operational",
          []
        ],
        [
          "No",
          []
        ],
        [
          "Built 1959.Currently based at Pickering C+W covering for the unavailability of D2207",
          []
        ]
      ],
      [
        [
          "Class 11",
          [
            "/wiki/British_Rail_Class_11"
          ]
        ],
        [
          "12139 Redcar",
          []
        ],
        [
          "BR Black",
          []
        ],
        [
          "Operational",
          []
        ],
        [
          "No",
          []
        ],
        [
          "Built 1948 . Working as shunter at Grosmont MPD . Not a 'true ' Class 11 ; built to identical design for ICI as English Electric Works No.1553 of 1948 . Previously named 'Neil D. Barker ' . Named 'Redcar ' when under ICI ownership ; this name was reinstated in April 2018",
          [
            "/wiki/Imperial_Chemical_Industries"
          ]
        ]
      ],
      [
        [
          "Class 25",
          [
            "/wiki/British_Rail_Class_25"
          ]
        ],
        [
          "D7628 Sybilla",
          []
        ],
        [
          "BR two tone green with yellow warning panels",
          []
        ],
        [
          "Operational",
          []
        ],
        [
          "Yes",
          []
        ],
        [
          "Built 1965",
          []
        ]
      ],
      [
        [
          "Class 37",
          [
            "/wiki/British_Rail_Class_37"
          ]
        ],
        [
          "37 264",
          []
        ],
        [
          "BR large logo blue",
          []
        ],
        [
          "Operational",
          []
        ],
        [
          "No",
          []
        ],
        [
          "Built 1965",
          []
        ]
      ],
      [
        [
          "Class 101",
          [
            "/wiki/British_Rail_Class_101"
          ]
        ],
        [
          "101 685 Daisy",
          []
        ],
        [
          "BR lined green with yellow warning panels",
          []
        ],
        [
          "Operational",
          []
        ],
        [
          "No",
          []
        ],
        [
          "Currently running as a 3-car set made up of 50160+59539+50164",
          []
        ]
      ]
    ],
    "section_title": "Diesel locomotives and shunters -- Operational",
    "section_text": "",
    "uid": "List_of_rolling_stock_preserved_on_the_North_Yorkshire_Moors_Railway_6",
    "intro": "The rolling stock preserved on the North Yorkshire Moors Railway is used to operate trains on the North Yorkshire Moors Railway (NYMR), a heritage railway in North Yorkshire, England. There is a variety of preserved steam and diesel locomotives and diesel multiple units, passenger coaches and goods wagons. Some are owned by the railway itself but most are owned by various individuals or voluntary groups. The line is also regularly visited by locomotives based elsewhere. Some come for a day on a railtour, others for a few days or weeks to take part in a special gala, but a few stay for many months and form part of the stock working scheduled trains."
  },
  "List_of_European_Aquatics_Championships_medalists_in_swimming_(women)_11": {
    "url": "https://en.wikipedia.org/wiki/List_of_European_Aquatics_Championships_medalists_in_swimming_(women)",
    "title": "List of European Aquatics Championships medalists in swimming (women)",
    "header": [
      [
        "Year",
        []
      ],
      [
        "Gold",
        []
      ],
      [
        "Silver",
        []
      ],
      [
        "Bronze",
        []
      ]
    ],
    "data": [
      [
        [
          "1927 Bologna",
          [
            "/wiki/1927_European_Aquatics_Championships"
          ]
        ],
        [
          "Hildegard Schrader ( GER )",
          [
            "/wiki/Hilde_Schrader"
          ]
        ],
        [
          "Charlotte M\u00fche ( GER )",
          [
            "/wiki/Charlotte_M\u00fche"
          ]
        ],
        [
          "Hedy Bienenfeld ( AUT )",
          [
            "/wiki/Hedy_Bienenfeld"
          ]
        ]
      ],
      [
        [
          "1931 Paris",
          [
            "/wiki/1931_European_Aquatics_Championships"
          ]
        ],
        [
          "Cecelia Wolstenholme ( GBR )",
          [
            "/wiki/Cecelia_Wolstenholme"
          ]
        ],
        [
          "Jenny Kastein ( NED )",
          [
            "/wiki/Jenny_Kastein"
          ]
        ],
        [
          "Margery Hinton ( GBR )",
          [
            "/wiki/Margery_Hinton"
          ]
        ]
      ],
      [
        [
          "1934 Magdeburg",
          [
            "/wiki/1934_European_Aquatics_Championships"
          ]
        ],
        [
          "Martha Genenger ( GER )",
          [
            "/wiki/Martha_Genenger"
          ]
        ],
        [
          "Hanni H\u00f6lzner ( GER )",
          [
            "/wiki/Hanni_H\u00f6lzner"
          ]
        ],
        [
          "Inger Kragh ( DEN )",
          [
            "/wiki/Inger_Nordb\u00f8"
          ]
        ]
      ],
      [
        [
          "1938 London",
          [
            "/wiki/1938_European_Aquatics_Championships"
          ]
        ],
        [
          "Inge S\u00f8rensen ( DEN )",
          [
            "/wiki/Inge_S\u00f8rensen"
          ]
        ],
        [
          "Doris Storey ( GBR )",
          [
            "/wiki/Doris_Storey"
          ]
        ],
        [
          "Jopie Waalberg ( NED )",
          [
            "/wiki/Jopie_Waalberg"
          ]
        ]
      ],
      [
        [
          "1947 Monte Carlo",
          [
            "/wiki/1947_European_Aquatics_Championships"
          ]
        ],
        [
          "Nel van Vliet ( NED )",
          [
            "/wiki/Nel_van_Vliet"
          ]
        ],
        [
          "\u00c9va Sz\u00e9kely ( HUN )",
          [
            "/wiki/\u00c9va_Sz\u00e9kely"
          ]
        ],
        [
          "Jannie de Groot ( NED )",
          [
            "/wiki/Jannie_de_Groot"
          ]
        ]
      ],
      [
        [
          "1950 Vienna",
          [
            "/wiki/1950_European_Aquatics_Championships"
          ]
        ],
        [
          "Raymonde Vergauwen ( BEL )",
          [
            "/wiki/Raymonde_Vergauwen"
          ]
        ],
        [
          "Lies Bonnier ( NED )",
          [
            "/wiki/Lies_Bonnier"
          ]
        ],
        [
          "Jannie de Groot ( NED )",
          [
            "/wiki/Jannie_de_Groot"
          ]
        ]
      ],
      [
        [
          "1954 Turin",
          [
            "/wiki/1954_European_Aquatics_Championships"
          ]
        ],
        [
          "Ursula Happe ( FRG )",
          [
            "/wiki/Ursula_Happe"
          ]
        ],
        [
          "Jytte Hansen ( DEN )",
          [
            "/wiki/Jytte_Hansen"
          ]
        ],
        [
          "Klara Killerman ( HUN )",
          [
            "/wiki/Kl\u00e1ra_Killermann"
          ]
        ]
      ],
      [
        [
          "1958 Budapest",
          [
            "/wiki/1958_European_Aquatics_Championships"
          ]
        ],
        [
          "Ada den Haan ( NED )",
          [
            "/wiki/Ada_den_Haan"
          ]
        ],
        [
          "Anita Lonsbrough ( GBR )",
          [
            "/wiki/Anita_Lonsbrough"
          ]
        ],
        [
          "Wiltrud Urselman ( FRG )",
          [
            "/wiki/Wiltrud_Urselmann"
          ]
        ]
      ],
      [
        [
          "1962 Leipzig",
          [
            "/wiki/1962_European_Aquatics_Championships"
          ]
        ],
        [
          "Anita Lonsbrough ( GBR )",
          [
            "/wiki/Anita_Lonsbrough"
          ]
        ],
        [
          "Klenie Bimolt ( NED )",
          [
            "/wiki/Klenie_Bimolt"
          ]
        ],
        [
          "Ursula K\u00fcper ( GDR )",
          [
            "/wiki/Ursula_K\u00fcper"
          ]
        ]
      ],
      [
        [
          "1966 Utrecht",
          [
            "/wiki/1966_European_Aquatics_Championships"
          ]
        ],
        [
          "Galina Prozumenshchikova ( URS )",
          [
            "/wiki/Galina_Prozumenshchikova"
          ]
        ],
        [
          "Irina Pozdnyakova ( URS )",
          [
            "/wiki/Irina_Pozdnyakova"
          ]
        ],
        [
          "Jill Slattery ( GBR )",
          [
            "/wiki/Jill_Slattery"
          ]
        ]
      ],
      [
        [
          "1970 Barcelona",
          [
            "/wiki/1970_European_Aquatics_Championships"
          ]
        ],
        [
          "Galina Stepanova-Prozumenshchikova ( URS )",
          [
            "/wiki/Galina_Prozumenshchikova"
          ]
        ],
        [
          "Alla Grebennikova ( URS )",
          [
            "/wiki/Alla_Grebennikova"
          ]
        ],
        [
          "Dorothy Harrison ( GBR )",
          [
            "/wiki/Dorothy_Harrison"
          ]
        ]
      ],
      [
        [
          "1974 Vienna",
          [
            "/wiki/1974_European_Aquatics_Championships"
          ]
        ],
        [
          "Karla Linke ( GDR )",
          [
            "/wiki/Karla_Linke"
          ]
        ],
        [
          "Anne-Katrin Schott ( GDR )",
          [
            "/wiki/Anne-Katrin_Schott"
          ]
        ],
        [
          "Marina Yurchenya ( URS )",
          [
            "/wiki/Marina_Yurchenya"
          ]
        ]
      ],
      [
        [
          "1977 J\u00f6nk\u00f6ping",
          [
            "/wiki/1977_European_Aquatics_Championships"
          ]
        ],
        [
          "Yuliya Bogdanova ( URS )",
          [
            "/wiki/Yuliya_Bogdanova"
          ]
        ],
        [
          "Susanne Nielsson ( DEN )",
          [
            "/wiki/Susanne_Nielsson"
          ]
        ],
        [
          "Eva-Marie H\u00e5kansson ( SWE )",
          [
            "/wiki/Eva-Marie_H\u00e5kansson"
          ]
        ]
      ],
      [
        [
          "1981 Split",
          [
            "/wiki/1981_European_Aquatics_Championships"
          ]
        ],
        [
          "Ute Geweniger ( GDR )",
          [
            "/wiki/Ute_Geweniger"
          ]
        ],
        [
          "Larisa Belokon ( URS )",
          [
            "/wiki/Larisa_Belokon"
          ]
        ],
        [
          "Grazyna Dziedzic ( POL )",
          []
        ]
      ],
      [
        [
          "1983 Rome",
          [
            "/wiki/1983_European_Aquatics_Championships"
          ]
        ],
        [
          "Ute Geweniger ( GDR )",
          [
            "/wiki/Ute_Geweniger"
          ]
        ],
        [
          "Sylvia Gerasch ( GDR )",
          [
            "/wiki/Sylvia_Gerasch"
          ]
        ],
        [
          "Olga Zelenkova ( URS )",
          [
            "/wiki/Olga_Zelenkova"
          ]
        ]
      ],
      [
        [
          "1985 Sofia",
          [
            "/wiki/1985_European_Aquatics_Championships"
          ]
        ],
        [
          "Tanya Bogomilova ( BUL )",
          [
            "/wiki/Tanya_Dangalakova"
          ]
        ],
        [
          "Sylvia Gerasch ( GDR )",
          [
            "/wiki/Sylvia_Gerasch"
          ]
        ],
        [
          "Silke H\u00f6rner ( GDR )",
          [
            "/wiki/Silke_H\u00f6rner"
          ]
        ]
      ],
      [
        [
          "1987 Strasbourg",
          [
            "/wiki/1987_European_Aquatics_Championships"
          ]
        ],
        [
          "Silke H\u00f6rner ( GDR )",
          [
            "/wiki/Silke_H\u00f6rner"
          ]
        ],
        [
          "Ingrid Lempereur ( BEL )",
          [
            "/wiki/Ingrid_Lempereur"
          ]
        ],
        [
          "Svetlana Kuzmina ( URS )",
          [
            "/wiki/Svetlana_Kuzmina"
          ]
        ]
      ],
      [
        [
          "1989 Bonn",
          [
            "/wiki/1989_European_Aquatics_Championships"
          ]
        ],
        [
          "Susanne B\u00f6rnike ( GDR )",
          [
            "/wiki/Susanne_B\u00f6rnike"
          ]
        ],
        [
          "Brigitte Becue ( BEL )",
          [
            "/wiki/Brigitte_Becue"
          ]
        ],
        [
          "Yelena Volkova ( URS )",
          [
            "/wiki/Yelena_Volkova_(swimmer)"
          ]
        ]
      ],
      [
        [
          "1991 Athens",
          [
            "/wiki/1991_European_Aquatics_Championships"
          ]
        ],
        [
          "Yelena Rudkovskaya ( URS )",
          [
            "/wiki/Yelena_Rudkovskaya"
          ]
        ],
        [
          "Beatrice C\u0103slaru ( ROM )",
          [
            "/wiki/Beatrice_C\u00e2\u0219laru"
          ]
        ],
        [
          "Tanya Dangalakova ( BUL )",
          [
            "/wiki/Tanya_Dangalakova"
          ]
        ]
      ],
      [
        [
          "1993 Sheffield",
          [
            "/wiki/1993_European_Aquatics_Championships"
          ]
        ],
        [
          "Brigitte Becue ( BEL )",
          [
            "/wiki/Brigitte_Becue"
          ]
        ],
        [
          "Anna Nikitina ( RUS )",
          [
            "/wiki/Anna_Nikitina"
          ]
        ],
        [
          "Marie Hardiman ( GBR )",
          [
            "/wiki/Marie_Hardiman"
          ]
        ]
      ]
    ],
    "section_title": "Breaststroke -- 200 meter",
    "section_text": "",
    "uid": "List_of_European_Aquatics_Championships_medalists_in_swimming_(women)_11",
    "intro": "This is the complete list of women's LEN European Aquatics Championships medalists in swimming since 1927."
  }
}