{
  "List_of_ICF_Canoe_Sprint_World_Championships_medalists_in_women's_kayak_0": {
    "url": "https://en.wikipedia.org/wiki/List_of_ICF_Canoe_Sprint_World_Championships_medalists_in_women's_kayak",
    "title": "List of ICF Canoe Sprint World Championships medalists in women's kayak",
    "header": [
      [
        "Games",
        []
      ],
      [
        "Gold",
        []
      ],
      [
        "Silver",
        []
      ],
      [
        "Bronze",
        []
      ]
    ],
    "data": [
      [
        [
          "1938 Vaxholm",
          [
            "/wiki/1938_ICF_Canoe_Sprint_World_Championships"
          ]
        ],
        [
          "Maggie Kalka ( FIN )",
          [
            "/wiki/Maggie_Kalka"
          ]
        ],
        [
          "Maj-Britt Berqvist ( SWE )",
          [
            "/wiki/Maj-Britt_Bergqvist"
          ]
        ],
        [
          "Bodil Thirstedt ( DEN )",
          [
            "/wiki/Bodil_Thirstedt"
          ]
        ]
      ],
      [
        [
          "1950 Copenhagen",
          [
            "/wiki/1950_ICF_Canoe_Sprint_World_Championships"
          ]
        ],
        [
          "Sylvi Saimo ( FIN )",
          [
            "/wiki/Sylvi_Saimo"
          ]
        ],
        [
          "Karen Hoff ( DEN )",
          [
            "/wiki/Karen_Hoff"
          ]
        ],
        [
          "Fritzi Schwingl ( AUT )",
          [
            "/wiki/Fritzi_Schwingl"
          ]
        ]
      ],
      [
        [
          "1954 M\u00e2con",
          [
            "/wiki/1954_ICF_Canoe_Sprint_World_Championships"
          ]
        ],
        [
          "Theresa Zens ( SAA )",
          [
            "/wiki/Therese_Zenz"
          ]
        ],
        [
          "Fritzi Schwingl ( AUT )",
          [
            "/wiki/Fritzi_Schwingl"
          ]
        ],
        [
          "Tove Nielsen ( DEN )",
          [
            "/wiki/Tove_Nielsen"
          ]
        ]
      ],
      [
        [
          "1958 Prague",
          [
            "/wiki/1958_ICF_Canoe_Sprint_World_Championships"
          ]
        ],
        [
          "Yelisaveta Kislova ( URS )",
          [
            "/wiki/Yelizaveta_Dementyeva"
          ]
        ],
        [
          "Antonina Seredina ( URS )",
          [
            "/wiki/Antonina_Seredina"
          ]
        ],
        [
          "Theresa Zens ( GER )",
          [
            "/wiki/Therese_Zenz"
          ]
        ]
      ],
      [
        [
          "1963 Jajce",
          [
            "/wiki/1963_ICF_Canoe_Sprint_World_Championships"
          ]
        ],
        [
          "Mariya Zhubina ( URS )",
          [
            "/wiki/Mariya_Shubina"
          ]
        ],
        [
          "Lyudmila Chvedosyuk ( URS )",
          [
            "/wiki/Lyudmila_Pinayeva"
          ]
        ],
        [
          "Hanneliese Spitz ( AUT )",
          [
            "/wiki/Hanneliese_Spitz"
          ]
        ]
      ],
      [
        [
          "1966 East Berlin",
          [
            "/wiki/1966_ICF_Canoe_Sprint_World_Championships"
          ]
        ],
        [
          "Lyudmila Pinayeva ( URS )",
          [
            "/wiki/Lyudmila_Pinayeva"
          ]
        ],
        [
          "Roswitha Esser ( GER )",
          [
            "/wiki/Roswitha_Esser"
          ]
        ],
        [
          "Anita Kobuss ( GDR )",
          [
            "/wiki/Anita_Kobu\u00df"
          ]
        ]
      ],
      [
        [
          "1970 Copenhagen",
          [
            "/wiki/1970_ICF_Canoe_Sprint_World_Championships"
          ]
        ],
        [
          "Lyudmila Pinayeva ( URS )",
          [
            "/wiki/Lyudmila_Pinayeva"
          ]
        ],
        [
          "Mieke Jaapies ( NED )",
          [
            "/wiki/Mieke_Jaapies"
          ]
        ],
        [
          "Petra Setzkorn ( GDR )",
          [
            "/wiki/Petra_Setzkorn"
          ]
        ]
      ],
      [
        [
          "1971 Belgrade",
          [
            "/wiki/1971_ICF_Canoe_Sprint_World_Championships"
          ]
        ],
        [
          "Lyudmila Pinayeva ( URS )",
          [
            "/wiki/Lyudmila_Pinayeva"
          ]
        ],
        [
          "Mieke Jaapies ( NED )",
          [
            "/wiki/Mieke_Jaapies"
          ]
        ],
        [
          "Petra Setzkorn ( GDR )",
          [
            "/wiki/Petra_Setzkorn"
          ]
        ]
      ],
      [
        [
          "1973 Tampere",
          [
            "/wiki/1973_ICF_Canoe_Sprint_World_Championships"
          ]
        ],
        [
          "Nina Gopova ( URS )",
          [
            "/wiki/Nina_Gopova"
          ]
        ],
        [
          "Petra Borzym ( GDR )",
          [
            "/wiki/Petra_Grabowski"
          ]
        ],
        [
          "Victoria Dumitru ( ROU )",
          [
            "/wiki/Viorica_Dumitru"
          ]
        ]
      ],
      [
        [
          "1974 Mexico City",
          [
            "/wiki/1974_ICF_Canoe_Sprint_World_Championships"
          ]
        ],
        [
          "Anke Ohde ( GDR )",
          [
            "/wiki/Anke_Ohde"
          ]
        ],
        [
          "Nina Gopova ( URS )",
          [
            "/wiki/Nina_Gopova"
          ]
        ],
        [
          "Maria Cosma ( ROU )",
          [
            "/wiki/Maria_Cosma"
          ]
        ]
      ],
      [
        [
          "1975 Belgrade",
          [
            "/wiki/1975_ICF_Canoe_Sprint_World_Championships"
          ]
        ],
        [
          "Anke Ohde ( GDR )",
          [
            "/wiki/Anke_Ohde"
          ]
        ],
        [
          "Galina Kreft ( URS )",
          [
            "/wiki/Galina_Kreft"
          ]
        ],
        [
          "Maria Mihareanu ( ROU )",
          [
            "/wiki/Maria_Nichiforov"
          ]
        ]
      ],
      [
        [
          "1977 Sofia",
          [
            "/wiki/1977_ICF_Canoe_Sprint_World_Championships"
          ]
        ],
        [
          "Gudrun Klaus-Dittmar ( GDR )",
          [
            "/wiki/Gudrun_Klaus-Dittmar"
          ]
        ],
        [
          "Maria Cosma ( ROU )",
          [
            "/wiki/Maria_Cosma"
          ]
        ],
        [
          "Tatyana Korzhunova ( URS )",
          [
            "/wiki/Tatiana_Korshunova"
          ]
        ]
      ],
      [
        [
          "1978 Belgrade",
          [
            "/wiki/1978_ICF_Canoe_Sprint_World_Championships"
          ]
        ],
        [
          "Roswitha Eberl ( GDR )",
          [
            "/wiki/Roswitha_Eberl"
          ]
        ],
        [
          "Olga Makarova ( URS )",
          [
            "/wiki/Olga_Makarova"
          ]
        ],
        [
          "Maria Cosma ( ROU )",
          [
            "/wiki/Maria_Cosma"
          ]
        ]
      ],
      [
        [
          "1979 Duisburg",
          [
            "/wiki/1979_ICF_Canoe_Sprint_World_Championships"
          ]
        ],
        [
          "Roswitha Eberl ( GDR )",
          [
            "/wiki/Roswitha_Eberl"
          ]
        ],
        [
          "Galina Alekseyeva ( URS )",
          [
            "/wiki/Galina_Kreft"
          ]
        ],
        [
          "Kl\u00e1ra Rajnai ( HUN )",
          [
            "/wiki/Kl\u00e1ra_Rajnai"
          ]
        ]
      ],
      [
        [
          "1981 Nottingham",
          [
            "/wiki/1981_ICF_Canoe_Sprint_World_Championships"
          ]
        ],
        [
          "Birgit Fischer ( GDR )",
          [
            "/wiki/Birgit_Fischer"
          ]
        ],
        [
          "\u00c9va Rakusz ( HUN )",
          [
            "/wiki/\u00c9va_Rakusz"
          ]
        ],
        [
          "Agneta Andersson ( SWE )",
          [
            "/wiki/Agneta_Andersson"
          ]
        ]
      ],
      [
        [
          "1982 Belgrade",
          [
            "/wiki/1982_ICF_Canoe_Sprint_World_Championships"
          ]
        ],
        [
          "Birgit Fischer ( GDR )",
          [
            "/wiki/Birgit_Fischer"
          ]
        ],
        [
          "Agneta Andersson ( SWE )",
          [
            "/wiki/Agneta_Andersson"
          ]
        ],
        [
          "\u00c9va Rakusz ( HUN )",
          [
            "/wiki/\u00c9va_Rakusz"
          ]
        ]
      ],
      [
        [
          "1983 Tampere",
          [
            "/wiki/1983_ICF_Canoe_Sprint_World_Championships"
          ]
        ],
        [
          "Birgit Fischer ( GDR )",
          [
            "/wiki/Birgit_Fischer"
          ]
        ],
        [
          "Vania Gesheva ( BUL )",
          [
            "/wiki/Vanja_Gesheva-Tsvetkova"
          ]
        ],
        [
          "Maria \u015etefan ( ROU )",
          [
            "/wiki/Maria_\u0218tefan"
          ]
        ]
      ],
      [
        [
          "1985 Mechelen",
          [
            "/wiki/1985_ICF_Canoe_Sprint_World_Championships"
          ]
        ],
        [
          "Birgit Schmidt-Fischer ( GDR )",
          [
            "/wiki/Birgit_Fischer"
          ]
        ],
        [
          "Nelliy Yefremova ( URS )",
          [
            "/wiki/Nelliy_Yefremova"
          ]
        ],
        [
          "Agneta Andersson ( SWE )",
          [
            "/wiki/Agneta_Andersson"
          ]
        ]
      ],
      [
        [
          "1986 Montreal",
          [
            "/wiki/1986_ICF_Canoe_Sprint_World_Championships"
          ]
        ],
        [
          "Vania Gesheva ( BUL )",
          [
            "/wiki/Vanja_Gesheva-Tsvetkova"
          ]
        ],
        [
          "Kathrin Giese ( GDR )",
          [
            "/wiki/Kathrin_Giese"
          ]
        ],
        [
          "Yvonne Knudsen ( DEN )",
          [
            "/wiki/Yvonne_Knudsen"
          ]
        ]
      ],
      [
        [
          "1987 Duisburg",
          [
            "/wiki/1987_ICF_Canoe_Sprint_World_Championships"
          ]
        ],
        [
          "Birgit Schmidt-Fischer ( GDR )",
          [
            "/wiki/Birgit_Fischer"
          ]
        ],
        [
          "Izabela Dylewska ( POL )",
          [
            "/wiki/Izabela_Dylewska"
          ]
        ],
        [
          "Agneta Andersson ( SWE )",
          [
            "/wiki/Agneta_Andersson"
          ]
        ]
      ]
    ],
    "section_title": "K-1 500 m",
    "section_text": "Debuted : 1938 . Not held : 1948 . Resumed : 1950 . 1938 distance was 600 m .",
    "uid": "List_of_ICF_Canoe_Sprint_World_Championships_medalists_in_women's_kayak_0",
    "intro": "This is a list of medalists from the ICF Canoe Sprint World Championships in women's kayak."
  },
  "List_of_current_members_of_the_United_States_House_of_Representatives_6": {
    "url": "https://en.wikipedia.org/wiki/List_of_current_members_of_the_United_States_House_of_Representatives",
    "title": "List of current members of the United States House of Representatives",
    "header": [
      [
        "Office",
        []
      ],
      [
        "Officer",
        []
      ],
      [
        "District",
        []
      ],
      [
        "Since",
        []
      ]
    ],
    "data": [
      [
        [
          "House Minority Leader",
          [
            "/wiki/Party_leaders_of_the_United_States_House_of_Representatives"
          ]
        ],
        [
          "Kevin McCarthy",
          [
            "/wiki/Kevin_McCarthy_(California_politician)"
          ]
        ],
        [
          "California 23",
          [
            "/wiki/California's_23rd_congressional_district"
          ]
        ],
        [
          "2019",
          []
        ]
      ],
      [
        [
          "House Minority Whip",
          [
            "/wiki/Party_leaders_of_the_United_States_House_of_Representatives"
          ]
        ],
        [
          "Steve Scalise",
          [
            "/wiki/Steve_Scalise"
          ]
        ],
        [
          "Louisiana 1",
          [
            "/wiki/Louisiana's_1st_congressional_district"
          ]
        ],
        [
          "2019",
          []
        ]
      ],
      [
        [
          "Republican Conference Chair",
          [
            "/wiki/List_of_chairmen_of_the_United_States_House_of_Representatives_Republican_Conference"
          ]
        ],
        [
          "Liz Cheney",
          [
            "/wiki/Liz_Cheney"
          ]
        ],
        [
          "Wyoming at-large",
          [
            "/wiki/Wyoming's_at-large_congressional_district"
          ]
        ],
        [
          "2019",
          []
        ]
      ],
      [
        [
          "Republican Conference vice-chair",
          [
            "/wiki/Vice_Chairman_of_the_United_States_House_of_Representatives_Republican_Conference"
          ]
        ],
        [
          "Mark Walker",
          [
            "/wiki/Mark_Walker_(North_Carolina_politician)"
          ]
        ],
        [
          "North Carolina 6",
          [
            "/wiki/North_Carolina's_6th_congressional_district"
          ]
        ],
        [
          "2019",
          []
        ]
      ],
      [
        [
          "Republican Conference Secretary",
          [
            "/wiki/Secretary_of_the_United_States_House_of_Representatives_Republican_Conference"
          ]
        ],
        [
          "Jason Smith",
          [
            "/wiki/Jason_Smith_(politician)"
          ]
        ],
        [
          "Missouri 8",
          [
            "/wiki/Missouri's_8th_congressional_district"
          ]
        ],
        [
          "2019",
          []
        ]
      ],
      [
        [
          "Policy Committee Chair",
          []
        ],
        [
          "Gary Palmer",
          [
            "/wiki/Gary_Palmer_(politician)"
          ]
        ],
        [
          "Alabama 6",
          [
            "/wiki/Alabama's_6th_congressional_district"
          ]
        ],
        [
          "2019",
          []
        ]
      ],
      [
        [
          "Republican Committee Chair",
          [
            "/wiki/National_Republican_Congressional_Committee"
          ]
        ],
        [
          "Tom Emmer",
          [
            "/wiki/Tom_Emmer"
          ]
        ],
        [
          "Minnesota 6",
          [
            "/wiki/Minnesota's_6th_congressional_district"
          ]
        ],
        [
          "2019",
          []
        ]
      ],
      [
        [
          "Chief Deputy Whip",
          []
        ],
        [
          "Drew Ferguson",
          [
            "/wiki/Drew_Ferguson_(politician)"
          ]
        ],
        [
          "Georgia 3",
          [
            "/wiki/Georgia's_3rd_congressional_district"
          ]
        ],
        [
          "2019",
          []
        ]
      ]
    ],
    "section_title": "Leadership -- Minority ( Republican ) leadership",
    "section_text": "",
    "uid": "List_of_current_members_of_the_United_States_House_of_Representatives_6",
    "intro": "This is a list of individuals currently serving in the United States House of Representatives."
  },
  "List_of_FIS_Nordic_World_Ski_Championships_medalists_in_Nordic_combined_1": {
    "url": "https://en.wikipedia.org/wiki/List_of_FIS_Nordic_World_Ski_Championships_medalists_in_Nordic_combined",
    "title": "List of FIS Nordic World Ski Championships medalists in Nordic combined",
    "header": [
      [
        "Championships",
        []
      ],
      [
        "Gold",
        []
      ],
      [
        "Silver",
        []
      ],
      [
        "Bronze",
        []
      ]
    ],
    "data": [
      [
        [
          "1982 Oslo",
          [
            "/wiki/FIS_Nordic_World_Ski_Championships_1982"
          ]
        ],
        [
          "Uwe Dotzauer G\u00fcnther Schmieder Konrad Winkler East Germany",
          [
            "/wiki/Uwe_Dotzauer",
            "/wiki/G\u00fcnther_Schmieder",
            "/wiki/Konrad_Winkler_(skier)",
            "/wiki/East_Germany"
          ]
        ],
        [
          "Jouko Karjalainen Rauno Miettinen Jorma Etel\u00e4lahti Finland shared with Hallstein B\u00f8gseth Espen Andersen Tom Sandberg Norway",
          [
            "/wiki/Jouko_Karjalainen",
            "/wiki/Rauno_Miettinen",
            "/wiki/Jorma_Etel\u00e4lahti",
            "/wiki/Finland",
            "/wiki/Hallstein_B\u00f8gseth",
            "/wiki/Espen_Andersen",
            "/wiki/Tom_Sandberg",
            "/wiki/Norway"
          ]
        ],
        [
          "( None )",
          []
        ]
      ],
      [
        [
          "1984 Rovaniemi",
          [
            "/wiki/FIS_Nordic_World_Ski_Championships_1984"
          ]
        ],
        [
          "Tom Sandberg Hallstein B\u00f8gseth Geir Andersen Norway",
          [
            "/wiki/Tom_Sandberg",
            "/wiki/Hallstein_B\u00f8gseth",
            "/wiki/Geir_Andersen",
            "/wiki/Norway"
          ]
        ],
        [
          "Rauno Miettinen Jukka Ylipulli Jouko Karjalainen Finland",
          [
            "/wiki/Rauno_Miettinen",
            "/wiki/Jukka_Ylipulli",
            "/wiki/Jouko_Karjalainen",
            "/wiki/Finland"
          ]
        ],
        [
          "Alexander Prosvirnin Alexander Mayorov Ildar Garifullin Soviet Union",
          [
            "/wiki/Alexander_Prosvirnin",
            "/wiki/Alexander_Mayorov",
            "/wiki/Ildar_Garifullin",
            "/wiki/Soviet_Union"
          ]
        ]
      ],
      [
        [
          "1985 Seefeld",
          [
            "/wiki/FIS_Nordic_World_Ski_Championships_1985"
          ]
        ],
        [
          "Thomas M\u00fcller Hubert Schwarz Hermann Weinbuch West Germany",
          [
            "/wiki/Thomas_M\u00fcller_(skier)",
            "/wiki/Hubert_Schwarz",
            "/wiki/Hermann_Weinbuch",
            "/wiki/West_Germany"
          ]
        ],
        [
          "Geir Andersen Espen Andersen Hallstein B\u00f8gseth Norway",
          [
            "/wiki/Geir_Andersen",
            "/wiki/Espen_Andersen",
            "/wiki/Hallstein_B\u00f8gseth",
            "/wiki/Norway"
          ]
        ],
        [
          "Jyri Pelkonen Jukka Ylipulli Jouko Karjalainen Finland",
          [
            "/wiki/Jyri_Pelkonen",
            "/wiki/Jukka_Ylipulli",
            "/wiki/Jouko_Karjalainen",
            "/wiki/Finland"
          ]
        ]
      ],
      [
        [
          "1987 Oberstdorf",
          [
            "/wiki/FIS_Nordic_World_Ski_Championships_1987"
          ]
        ],
        [
          "Hermann Weinbuch ( 2 ) Hans-Peter Pohl Thomas M\u00fcller ( 2 ) West Germany",
          [
            "/wiki/Hermann_Weinbuch",
            "/wiki/Hans-Peter_Pohl",
            "/wiki/Thomas_M\u00fcller_(skier)",
            "/wiki/West_Germany"
          ]
        ],
        [
          "Hallstein B\u00f8gseth Trond-Arne Bredesen Torbj\u00f8rn L\u00f8kken Norway",
          [
            "/wiki/Hallstein_B\u00f8gseth",
            "/wiki/Trond-Arne_Bredesen",
            "/wiki/Torbj\u00f8rn_L\u00f8kken",
            "/wiki/Norway"
          ]
        ],
        [
          "Sergey Chervyakov Andrey Dundukov Allar Levandi Soviet Union",
          [
            "/wiki/Sergey_Chervyakov",
            "/wiki/Andrey_Dundukov",
            "/wiki/Allar_Levandi",
            "/wiki/Soviet_Union"
          ]
        ]
      ],
      [
        [
          "1989 Lahti",
          [
            "/wiki/FIS_Nordic_World_Ski_Championships_1989"
          ]
        ],
        [
          "Trond Einar Elden Trond-Arne Bredesen B\u00e5rd J\u00f8rgen Elden Norway",
          [
            "/wiki/Trond_Einar_Elden",
            "/wiki/Trond-Arne_Bredesen",
            "/wiki/B\u00e5rd_J\u00f8rgen_Elden",
            "/wiki/Norway"
          ]
        ],
        [
          "Andreas Schaad Hippolyt Kempf Fredy Glanzmann Switzerland",
          [
            "/wiki/Andreas_Schaad",
            "/wiki/Hippolyt_Kempf",
            "/wiki/Fredy_Glanzmann",
            "/wiki/Switzerland"
          ]
        ],
        [
          "Ralph Leonhardt Bernd Blechschmidt Thomas Abratis East Germany",
          [
            "/wiki/Ralph_Leonhardt",
            "/wiki/Bernd_Blechschmidt",
            "/wiki/Thomas_Abratis",
            "/wiki/East_Germany"
          ]
        ]
      ],
      [
        [
          "1991 Val di Fiemme",
          [
            "/wiki/FIS_Nordic_World_Ski_Championships_1991"
          ]
        ],
        [
          "G\u00fcnther Csar Klaus Ofner Klaus Sulzenbacher Austria",
          [
            "/wiki/G\u00fcnther_Csar",
            "/wiki/Klaus_Ofner",
            "/wiki/Klaus_Sulzenbacher",
            "/wiki/Austria"
          ]
        ],
        [
          "Francis Repellin Xavier Girard Fabrice Guy France",
          [
            "/wiki/Francis_Repellin",
            "/wiki/Xavier_Girard",
            "/wiki/Fabrice_Guy",
            "/wiki/France"
          ]
        ],
        [
          "Reiichi Mikata Masashi Abe Kazuoki Kodama Japan",
          [
            "/wiki/Reiichi_Mikata",
            "/wiki/Masashi_Abe",
            "/wiki/Kazuoki_Kodama",
            "/wiki/Japan"
          ]
        ]
      ],
      [
        [
          "1993 Falun",
          [
            "/wiki/FIS_Nordic_World_Ski_Championships_1993"
          ]
        ],
        [
          "Takanori Kono Masashi Abe Kenji Ogiwara Japan",
          [
            "/wiki/Takanori_Kono",
            "/wiki/Masashi_Abe",
            "/wiki/Kenji_Ogiwara",
            "/wiki/Japan"
          ]
        ],
        [
          "Trond Einar Elden Knut Tore Apeland Fred B\u00f8rre Lundberg Norway",
          [
            "/wiki/Trond_Einar_Elden",
            "/wiki/Knut_Tore_Apeland",
            "/wiki/Fred_B\u00f8rre_Lundberg",
            "/wiki/Norway"
          ]
        ],
        [
          "Thomas Dufter Jens Deimel Hans-Peter Pohl Germany",
          [
            "/wiki/Thomas_Dufter",
            "/wiki/Jens_Deimel",
            "/wiki/Hans-Peter_Pohl",
            "/wiki/Germany"
          ]
        ]
      ],
      [
        [
          "1995 Thunder Bay",
          [
            "/wiki/FIS_Nordic_World_Ski_Championships_1995"
          ]
        ],
        [
          "Masashi Abe ( 2 ) Tsugiharu Ogiwara Kenji Ogiwara ( 2 ) Takanori Kono ( 2 ) Japan",
          [
            "/wiki/Masashi_Abe",
            "/wiki/Tsugiharu_Ogiwara",
            "/wiki/Kenji_Ogiwara",
            "/wiki/Takanori_Kono",
            "/wiki/Japan"
          ]
        ],
        [
          "Halldor Skard Bjarte Engen Vik Knut Tore Apeland Fred B\u00f8rre Lundberg Norway",
          [
            "/wiki/Halldor_Skard",
            "/wiki/Bjarte_Engen_Vik",
            "/wiki/Knut_Tore_Apeland",
            "/wiki/Fred_B\u00f8rre_Lundberg",
            "/wiki/Norway"
          ]
        ],
        [
          "Markus W\u00fcst Armin Krugel Stefan Wittwer Jean-Yves Cuendet Switzerland",
          [
            "/wiki/Markus_W\u00fcst",
            "/wiki/Armin_Krugel",
            "/wiki/Stefan_Wittwer",
            "/wiki/Jean-Yves_Cuendet",
            "/wiki/Switzerland"
          ]
        ]
      ],
      [
        [
          "1997 Trondheim",
          [
            "/wiki/FIS_Nordic_World_Ski_Championships_1997"
          ]
        ],
        [
          "Halldor Skard Bjarte Engen Vik Knut Tore Apeland Fred B\u00f8rre Lundberg Norway",
          [
            "/wiki/Halldor_Skard",
            "/wiki/Bjarte_Engen_Vik",
            "/wiki/Knut_Tore_Apeland",
            "/wiki/Fred_B\u00f8rre_Lundberg",
            "/wiki/Norway"
          ]
        ],
        [
          "Jari Mantila Tapio Nurmela Samppa Lajunen Hannu Manninen Finland",
          [
            "/wiki/Jari_Mantila",
            "/wiki/Tapio_Nurmela",
            "/wiki/Samppa_Lajunen",
            "/wiki/Hannu_Manninen",
            "/wiki/Finland"
          ]
        ],
        [
          "Christophe Eugen Felix Gottwald Mario Stecher Robert Stadelmann Austria",
          [
            "/wiki/Christoph_Eugen",
            "/wiki/Felix_Gottwald",
            "/wiki/Mario_Stecher",
            "/wiki/Robert_Stadelmann",
            "/wiki/Austria"
          ]
        ]
      ],
      [
        [
          "1999 Ramsau",
          [
            "/wiki/FIS_Nordic_World_Ski_Championships_1999"
          ]
        ],
        [
          "Hannu Manninen Tapio Nurmela Jari Mantila Samppa Lajunen Finland",
          [
            "/wiki/Hannu_Manninen",
            "/wiki/Tapio_Nurmela",
            "/wiki/Jari_Mantila",
            "/wiki/Samppa_Lajunen",
            "/wiki/Finland"
          ]
        ],
        [
          "Fred B\u00f8rre Lundberg Trond Einar Elden Bjarte Engen Vik Kenneth Braaten Norway",
          [
            "/wiki/Fred_B\u00f8rre_Lundberg",
            "/wiki/Trond_Einar_Elden",
            "/wiki/Bjarte_Engen_Vik",
            "/wiki/Kenneth_Braaten",
            "/wiki/Norway"
          ]
        ],
        [
          "Nikolay Parfyonov Alexey Fadeyev Valeri Stolyarov Dmitry Sinitsyn Russia",
          [
            "/wiki/Nikolai_Parfionov",
            "/wiki/Alexey_Fadeyev",
            "/wiki/Valeri_Stolyarov",
            "/wiki/Dmitry_Sinitsyn",
            "/wiki/Russia"
          ]
        ]
      ],
      [
        [
          "2001 Lahti",
          [
            "/wiki/FIS_Nordic_World_Ski_Championships_2001"
          ]
        ],
        [
          "Kenneth Braaten Sverre Rotevatn Bjarte Engen Vik ( 2 ) Kristian Hammer Norway",
          [
            "/wiki/Kenneth_Braaten",
            "/wiki/Sverre_Rotevatn",
            "/wiki/Bjarte_Engen_Vik",
            "/wiki/Kristian_Hammer",
            "/wiki/Norway"
          ]
        ],
        [
          "Christophe Eugen Mario Stecher David Kreiner Felix Gottwald Austria",
          [
            "/wiki/Christoph_Eugen",
            "/wiki/Mario_Stecher",
            "/wiki/David_Kreiner",
            "/wiki/Felix_Gottwald",
            "/wiki/Austria"
          ]
        ],
        [
          "Jari Mantila Hannu Manninen Jaakko Tallus Samppa Lajunen Finland",
          [
            "/wiki/Jari_Mantila",
            "/wiki/Hannu_Manninen",
            "/wiki/Jaakko_Tallus",
            "/wiki/Samppa_Lajunen",
            "/wiki/Finland"
          ]
        ]
      ],
      [
        [
          "2003 Val di Fiemme",
          [
            "/wiki/FIS_Nordic_World_Ski_Championships_2003"
          ]
        ],
        [
          "Michael Gruber Wilhelm Denifl Christoph Bieler Felix Gottwald Austria",
          [
            "/wiki/Michael_Gruber_(skier)",
            "/wiki/Wilhelm_Denifl",
            "/wiki/Christoph_Bieler",
            "/wiki/Felix_Gottwald",
            "/wiki/Austria"
          ]
        ],
        [
          "Thorsten Schmitt Georg Hettich Bj\u00f6rn Kircheisen Ronny Ackermann Germany",
          [
            "/wiki/Thorsten_Schmitt",
            "/wiki/Georg_Hettich",
            "/wiki/Bj\u00f6rn_Kircheisen",
            "/wiki/Ronny_Ackermann",
            "/wiki/Germany"
          ]
        ],
        [
          "Hannu Manninen Jouni Kaitainen Jaakko Tallus Samppa Lajunen Finland",
          [
            "/wiki/Hannu_Manninen",
            "/wiki/Jouni_Kaitainen",
            "/wiki/Jaakko_Tallus",
            "/wiki/Samppa_Lajunen",
            "/wiki/Finland"
          ]
        ]
      ],
      [
        [
          "2005 Oberstdorf",
          [
            "/wiki/FIS_Nordic_World_Ski_Championships_2005"
          ]
        ],
        [
          "Petter Tande H\u00e5vard Klemetsen Magnus Moan Kristian Hammer ( 2 ) Norway",
          [
            "/wiki/Petter_Tande",
            "/wiki/H\u00e5vard_Klemetsen",
            "/wiki/Magnus_Moan",
            "/wiki/Kristian_Hammer",
            "/wiki/Norway"
          ]
        ],
        [
          "Sebastian Haseney Georg Hettich Bj\u00f6rn Kircheisen Ronny Ackermann Germany",
          [
            "/wiki/Sebastian_Haseney",
            "/wiki/Georg_Hettich",
            "/wiki/Bj\u00f6rn_Kircheisen",
            "/wiki/Ronny_Ackermann",
            "/wiki/Germany"
          ]
        ],
        [
          "Michael Gruber Christoph Bieler David Kreiner Felix Gottwald Austria",
          [
            "/wiki/Michael_Gruber_(skier)",
            "/wiki/Christoph_Bieler",
            "/wiki/David_Kreiner",
            "/wiki/Felix_Gottwald",
            "/wiki/Austria"
          ]
        ]
      ],
      [
        [
          "2007 Sapporo",
          [
            "/wiki/FIS_Nordic_World_Ski_Championships_2007"
          ]
        ],
        [
          "Anssi Koivuranta Janne Ryyn\u00e4nen Jaakko Tallus Hannu Manninen ( 2 ) Finland",
          [
            "/wiki/Anssi_Koivuranta",
            "/wiki/Janne_Ryyn\u00e4nen",
            "/wiki/Jaakko_Tallus",
            "/wiki/Hannu_Manninen",
            "/wiki/Finland"
          ]
        ],
        [
          "Sebastian Haseney Ronny Ackermann Tino Edelmann Bj\u00f6rn Kircheisen Germany",
          [
            "/wiki/Sebastian_Haseney",
            "/wiki/Ronny_Ackermann",
            "/wiki/Tino_Edelmann",
            "/wiki/Bj\u00f6rn_Kircheisen",
            "/wiki/Germany"
          ]
        ],
        [
          "H\u00e5vard Klemetsen Espen Rian Petter Tande Magnus Moan Norway",
          [
            "/wiki/H\u00e5vard_Klemetsen",
            "/wiki/Espen_Rian",
            "/wiki/Petter_Tande",
            "/wiki/Magnus_Moan",
            "/wiki/Norway"
          ]
        ]
      ],
      [
        [
          "2009 Liberec",
          [
            "/wiki/FIS_Nordic_World_Ski_Championships_2009"
          ]
        ],
        [
          "Y\u016bsuke Minato Taihei Kato Akito Watabe Norihito Kobayashi Japan",
          [
            "/wiki/Y\u016bsuke_Minato",
            "/wiki/Taihei_Kato",
            "/wiki/Akito_Watabe",
            "/wiki/Norihito_Kobayashi",
            "/wiki/Japan"
          ]
        ],
        [
          "Ronny Ackermann Eric Frenzel Bj\u00f6rn Kircheisen Tino Edelmann Germany",
          [
            "/wiki/Ronny_Ackermann",
            "/wiki/Eric_Frenzel",
            "/wiki/Bj\u00f6rn_Kircheisen",
            "/wiki/Tino_Edelmann",
            "/wiki/Germany"
          ]
        ],
        [
          "Mikko Kokslien Petter Tande Jan Schmid Magnus Moan Norway",
          [
            "/wiki/Mikko_Kokslien",
            "/wiki/Petter_Tande",
            "/wiki/Jan_Schmid",
            "/wiki/Magnus_Moan",
            "/wiki/Norway"
          ]
        ]
      ],
      [
        [
          "2011 Oslo",
          [
            "/wiki/FIS_Nordic_World_Ski_Championships_2011"
          ]
        ],
        [
          "Bernhard Gruber David Kreiner Felix Gottwald ( 2 ) Mario Stecher Austria",
          [
            "/wiki/Bernhard_Gruber",
            "/wiki/David_Kreiner",
            "/wiki/Felix_Gottwald",
            "/wiki/Mario_Stecher",
            "/wiki/Austria"
          ]
        ],
        [
          "Johannes Rydzek Bj\u00f6rn Kircheisen Eric Frenzel Tino Edelmann Germany",
          [
            "/wiki/Johannes_Rydzek",
            "/wiki/Bj\u00f6rn_Kircheisen",
            "/wiki/Eric_Frenzel",
            "/wiki/Tino_Edelmann",
            "/wiki/Germany"
          ]
        ],
        [
          "Mikko Kokslien H\u00e5vard Klemetsen Jan Schmid Magnus Moan Norway",
          [
            "/wiki/Mikko_Kokslien",
            "/wiki/H\u00e5vard_Klemetsen",
            "/wiki/Jan_Schmid",
            "/wiki/Magnus_Moan",
            "/wiki/Norway"
          ]
        ]
      ]
    ],
    "section_title": "Events -- 4 x 5 km team ( 3 x 10 km : 1982\u201393 )",
    "section_text": "Prior to 2009 , this involved each team member taking two jumps from the ski jumping large hill . For each point difference between teams , there is one second between them at the start of the cross country part of the competition . From the 2005 event in Oberstdorf to the 2007\u201308 season , the point \u2013 time difference was 1 point equaling 1 second . The time differential from 2001 to 2004 was 1 point equaling 1.5 seconds . For the 2009 championships , it involved each team member taking only one jump from the large hill with the point \u2013 time difference being 1 point equals 1.33 seconds .",
    "uid": "List_of_FIS_Nordic_World_Ski_Championships_medalists_in_Nordic_combined_1",
    "intro": "This is a list of medalists in the FIS Nordic World Ski Championships in nordic combined."
  },
  "List_of_ICF_Canoe_Slalom_World_Championships_medalists_in_men's_Canadian_0": {
    "url": "https://en.wikipedia.org/wiki/List_of_ICF_Canoe_Slalom_World_Championships_medalists_in_men's_canoe",
    "title": "List of ICF Canoe Slalom World Championships medalists in men's canoe",
    "header": [
      [
        "Championships",
        []
      ],
      [
        "Gold",
        []
      ],
      [
        "Silver",
        []
      ],
      [
        "Bronze",
        []
      ]
    ],
    "data": [
      [
        [
          "1949 Geneva",
          [
            "/wiki/1949_ICF_Canoe_Slalom_World_Championships"
          ]
        ],
        [
          "Pierre d'Alen\u00e7on ( FRA )",
          [
            "/wiki/Pierre_d'Alen\u00e7on"
          ]
        ],
        [
          "Paul Huguet ( FRA )",
          [
            "/wiki/Paul_Huguet"
          ]
        ],
        [
          "Jan Brz\u00e1k-Felix ( TCH )",
          [
            "/wiki/Jan_Brz\u00e1k-Felix"
          ]
        ]
      ],
      [
        [
          "1951 Steyr",
          [
            "/wiki/1951_ICF_Canoe_Slalom_World_Championships"
          ]
        ],
        [
          "Charles Dussuet ( SUI )",
          [
            "/wiki/Charles_Dussuet"
          ]
        ],
        [
          "Jaroslav V\u00e1\u0148a ( TCH )",
          [
            "/wiki/Jaroslav_V\u00e1\u0148a"
          ]
        ],
        [
          "Jacques Marsigny ( FRA )",
          [
            "/wiki/Jacques_Marsigny"
          ]
        ]
      ],
      [
        [
          "1953 Meran",
          [
            "/wiki/1953_ICF_Canoe_Slalom_World_Championships"
          ]
        ],
        [
          "Charles Dussuet ( SUI )",
          [
            "/wiki/Charles_Dussuet"
          ]
        ],
        [
          "V\u00e1clav Ni\u010d ( TCH )",
          [
            "/wiki/V\u00e1clav_Ni\u010d"
          ]
        ],
        [
          "Vladim\u00edr Jir\u00e1sek ( TCH )",
          [
            "/wiki/Vladim\u00edr_Jir\u00e1sek"
          ]
        ]
      ],
      [
        [
          "1955 Tacen",
          [
            "/wiki/1955_ICF_Canoe_Slalom_World_Championships"
          ]
        ],
        [
          "Vladim\u00edr Jir\u00e1sek ( TCH )",
          [
            "/wiki/Vladim\u00edr_Jir\u00e1sek"
          ]
        ],
        [
          "Lud\u011bk Bene\u0161 ( TCH )",
          [
            "/wiki/Lud\u011bk_Bene\u0161"
          ]
        ],
        [
          "Karl-Heinz Wozniak ( GDR )",
          [
            "/wiki/Karl-Heinz_Wozniak"
          ]
        ]
      ],
      [
        [
          "1957 Augsburg",
          [
            "/wiki/1957_ICF_Canoe_Slalom_World_Championships"
          ]
        ],
        [
          "Manfred Schubert ( GDR )",
          [
            "/wiki/Manfred_Schubert"
          ]
        ],
        [
          "Emil Zimmermann ( GDR )",
          [
            "/wiki/Emil_Zimmermann"
          ]
        ],
        [
          "Jean-Claude Tochon ( SUI )",
          [
            "/wiki/Jean-Claude_Tochon"
          ]
        ]
      ],
      [
        [
          "1959 Geneva",
          [
            "/wiki/1959_ICF_Canoe_Slalom_World_Championships"
          ]
        ],
        [
          "Vladim\u00edr Jir\u00e1sek ( TCH )",
          [
            "/wiki/Vladim\u00edr_Jir\u00e1sek"
          ]
        ],
        [
          "Manfred Schubert ( GDR )",
          [
            "/wiki/Manfred_Schubert"
          ]
        ],
        [
          "Karl-Heinz Wozniak ( GDR )",
          [
            "/wiki/Karl-Heinz_Wozniak"
          ]
        ]
      ],
      [
        [
          "1961 Hainsberg",
          [
            "/wiki/1961_ICF_Canoe_Slalom_World_Championships"
          ]
        ],
        [
          "Manfred Schubert ( GDR )",
          [
            "/wiki/Manfred_Schubert"
          ]
        ],
        [
          "Bohuslav Posp\u00edchal ( TCH )",
          [
            "/wiki/Bohuslav_Posp\u00edchal"
          ]
        ],
        [
          "Ingo Kirsch ( GDR )",
          [
            "/wiki/Ingo_Kirsch"
          ]
        ]
      ],
      [
        [
          "1963 Spittal",
          [
            "/wiki/1963_ICF_Canoe_Slalom_World_Championships"
          ]
        ],
        [
          "Manfred Schubert ( GDR )",
          [
            "/wiki/Manfred_Schubert"
          ]
        ],
        [
          "Gert Kleinert ( GDR )",
          [
            "/wiki/Gert_Kleinert"
          ]
        ],
        [
          "Jean-Claude Tochon ( SUI )",
          [
            "/wiki/Jean-Claude_Tochon"
          ]
        ]
      ],
      [
        [
          "1965 Spittal",
          [
            "/wiki/1965_ICF_Canoe_Slalom_World_Championships"
          ]
        ],
        [
          "Gert Kleinert ( GDR )",
          [
            "/wiki/Gert_Kleinert"
          ]
        ],
        [
          "Lud\u011bk Bene\u0161 ( TCH )",
          [
            "/wiki/Lud\u011bk_Bene\u0161"
          ]
        ],
        [
          "Manfred Schubert ( GDR )",
          [
            "/wiki/Manfred_Schubert"
          ]
        ]
      ],
      [
        [
          "1967 Lipno",
          [
            "/wiki/1967_ICF_Canoe_Slalom_World_Championships"
          ]
        ],
        [
          "Wolfgang Peters ( FRG )",
          [
            "/wiki/Wolfgang_Peters_(canoeist)"
          ]
        ],
        [
          "Harald Cuypers ( FRG )",
          [
            "/wiki/Harald_Cuypers"
          ]
        ],
        [
          "Karel Kumpfm\u00fcller ( TCH )",
          [
            "/wiki/Karel_Kumpfm\u00fcller"
          ]
        ]
      ],
      [
        [
          "1969 Bourg St.-Maurice",
          [
            "/wiki/1969_ICF_Canoe_Slalom_World_Championships"
          ]
        ],
        [
          "Wolfgang Peters ( FRG )",
          [
            "/wiki/Wolfgang_Peters_(canoeist)"
          ]
        ],
        [
          "Reinhold Kauder ( FRG )",
          [
            "/wiki/Reinhold_Kauder"
          ]
        ],
        [
          "Zbyn\u011bk Pule\u010d ( TCH )",
          [
            "/wiki/Zbyn\u011bk_Pule\u010d"
          ]
        ]
      ],
      [
        [
          "1971 Meran",
          [
            "/wiki/1971_ICF_Canoe_Slalom_World_Championships"
          ]
        ],
        [
          "Reinhold Kauder ( FRG )",
          [
            "/wiki/Reinhold_Kauder"
          ]
        ],
        [
          "Wulf Reinicke ( GDR )",
          [
            "/wiki/Wulf_Reinicke"
          ]
        ],
        [
          "Petr Sodomka ( TCH )",
          [
            "/wiki/Petr_Sodomka"
          ]
        ]
      ],
      [
        [
          "1973 Muotathal",
          [
            "/wiki/1973_ICF_Canoe_Slalom_World_Championships"
          ]
        ],
        [
          "Reinhard Eiben ( GDR )",
          [
            "/wiki/Reinhard_Eiben"
          ]
        ],
        [
          "Karel T\u0159e\u0161\u0148\u00e1k ( TCH )",
          [
            "/wiki/Karel_T\u0159e\u0161\u0148\u00e1k"
          ]
        ],
        [
          "Udo M\u00fcller ( GDR )",
          [
            "/wiki/Udo_M\u00fcller"
          ]
        ]
      ],
      [
        [
          "1975 Skopje",
          [
            "/wiki/1975_ICF_Canoe_Slalom_World_Championships"
          ]
        ],
        [
          "Petr Sodomka ( TCH )",
          [
            "/wiki/Petr_Sodomka"
          ]
        ],
        [
          "Jaroslav Radil ( TCH )",
          [
            "/wiki/Jaroslav_Radil"
          ]
        ],
        [
          "Harald Heinrich ( GDR )",
          [
            "/wiki/Harald_Heinrich"
          ]
        ]
      ],
      [
        [
          "1977 Spittal",
          [
            "/wiki/1977_ICF_Canoe_Slalom_World_Championships"
          ]
        ],
        [
          "Petr Sodomka ( TCH )",
          [
            "/wiki/Petr_Sodomka"
          ]
        ],
        [
          "Peter Massalski ( GDR )",
          [
            "/wiki/Peter_Massalski"
          ]
        ],
        [
          "Karel T\u0159e\u0161\u0148\u00e1k ( TCH )",
          [
            "/wiki/Karel_T\u0159e\u0161\u0148\u00e1k"
          ]
        ]
      ],
      [
        [
          "1979 Jonqui\u00e8re",
          [
            "/wiki/1979_ICF_Canoe_Slalom_World_Championships"
          ]
        ],
        [
          "Jon Lugbill ( USA )",
          [
            "/wiki/Jon_Lugbill"
          ]
        ],
        [
          "David Hearn ( USA )",
          [
            "/wiki/David_Hearn_(canoeist)"
          ]
        ],
        [
          "Bob Robison ( USA )",
          [
            "/wiki/Bob_Robison"
          ]
        ]
      ],
      [
        [
          "1981 Bala",
          [
            "/wiki/1981_ICF_Canoe_Slalom_World_Championships"
          ]
        ],
        [
          "Jon Lugbill ( USA )",
          [
            "/wiki/Jon_Lugbill"
          ]
        ],
        [
          "David Hearn ( USA )",
          [
            "/wiki/David_Hearn_(canoeist)"
          ]
        ],
        [
          "Jean Sennelier ( FRA )",
          [
            "/wiki/Jean_Sennelier"
          ]
        ]
      ],
      [
        [
          "1983 Meran",
          [
            "/wiki/1983_ICF_Canoe_Slalom_World_Championships"
          ]
        ],
        [
          "Jon Lugbill ( USA )",
          [
            "/wiki/Jon_Lugbill"
          ]
        ],
        [
          "David Hearn ( USA )",
          [
            "/wiki/David_Hearn_(canoeist)"
          ]
        ],
        [
          "Jo\u017ee Vidmar ( YUG )",
          [
            "/wiki/Jo\u017ee_Vidmar"
          ]
        ]
      ],
      [
        [
          "1985 Augsburg",
          [
            "/wiki/1985_ICF_Canoe_Slalom_World_Championships"
          ]
        ],
        [
          "David Hearn ( USA )",
          [
            "/wiki/David_Hearn_(canoeist)"
          ]
        ],
        [
          "Jon Lugbill ( USA )",
          [
            "/wiki/Jon_Lugbill"
          ]
        ],
        [
          "Martyn Hedges ( GBR )",
          [
            "/wiki/Martyn_Hedges"
          ]
        ]
      ],
      [
        [
          "1987 Bourg St.-Maurice",
          [
            "/wiki/1987_ICF_Canoe_Slalom_World_Championships"
          ]
        ],
        [
          "Jon Lugbill ( USA )",
          [
            "/wiki/Jon_Lugbill"
          ]
        ],
        [
          "David Hearn ( USA )",
          [
            "/wiki/David_Hearn_(canoeist)"
          ]
        ],
        [
          "Bruce Lessels ( USA )",
          [
            "/wiki/Bruce_Lessels"
          ]
        ]
      ]
    ],
    "section_title": "C1",
    "section_text": "Debuted : 1949 .",
    "uid": "List_of_ICF_Canoe_Slalom_World_Championships_medalists_in_men's_Canadian_0",
    "intro": "This is a list of medalists from the ICF Canoe Slalom World Championships in men's canoe."
  },
  "List_of_Pakistan_Test_cricketers_who_have_taken_five_wickets_on_debut_1": {
    "url": "https://en.wikipedia.org/wiki/List_of_Pakistan_cricketers_who_have_taken_five-wicket_hauls_on_Test_debut",
    "title": "List of Pakistan cricketers who have taken five-wicket hauls on Test debut",
    "header": [
      [
        "No",
        []
      ],
      [
        "Bowler",
        []
      ],
      [
        "Date",
        []
      ],
      [
        "Ground",
        []
      ],
      [
        "Against",
        []
      ],
      [
        "Inn",
        []
      ],
      [
        "Overs",
        []
      ],
      [
        "Runs",
        []
      ],
      [
        "Wkts",
        []
      ],
      [
        "Econ",
        []
      ],
      [
        "Batsmen",
        []
      ],
      [
        "Result",
        []
      ]
    ],
    "data": [
      [
        [
          "1",
          []
        ],
        [
          "Arif Butt",
          [
            "/wiki/Arif_Butt"
          ]
        ],
        [
          "4 December 1964",
          []
        ],
        [
          "Melbourne Cricket Ground , Melbourne",
          [
            "/wiki/Melbourne_Cricket_Ground",
            "/wiki/Melbourne"
          ]
        ],
        [
          "Australia",
          [
            "/wiki/Australia_national_cricket_team"
          ]
        ],
        [
          "2",
          []
        ],
        [
          "21.3",
          []
        ],
        [
          "89",
          []
        ],
        [
          "6",
          []
        ],
        [
          "3.12",
          []
        ],
        [
          "Bob Simpson Bill Lawry Brian Booth Tom Veivers David Sincock Garth McKenzie",
          [
            "/wiki/Bob_Simpson_(cricketer)",
            "/wiki/Bill_Lawry",
            "/wiki/Brian_Booth",
            "/wiki/Tom_Veivers",
            "/wiki/David_Sincock",
            "/wiki/Graham_McKenzie"
          ]
        ],
        [
          "Drawn",
          []
        ]
      ],
      [
        [
          "2",
          []
        ],
        [
          "Mohammad Nazir",
          [
            "/wiki/Mohammad_Nazir"
          ]
        ],
        [
          "24 October 1969",
          []
        ],
        [
          "National Stadium , Karachi",
          [
            "/wiki/National_Stadium,_Karachi",
            "/wiki/Karachi"
          ]
        ],
        [
          "New Zealand",
          [
            "/wiki/New_Zealand_national_cricket_team"
          ]
        ],
        [
          "2",
          []
        ],
        [
          "30.1",
          []
        ],
        [
          "99",
          []
        ],
        [
          "7",
          []
        ],
        [
          "3.28",
          []
        ],
        [
          "Graham Dowling Bruce Murray Brian Hastings Mark Burgess Vic Pollard Bob Cunis Hedley Howarth",
          [
            "/wiki/Graham_Dowling",
            "/wiki/Bruce_Murray_(cricketer)",
            "/wiki/Brian_Hastings",
            "/wiki/Mark_Burgess_(cricketer)",
            "/wiki/Vic_Pollard",
            "/wiki/Bob_Cunis",
            "/wiki/Hedley_Howarth"
          ]
        ],
        [
          "Drawn",
          []
        ]
      ],
      [
        [
          "3",
          []
        ],
        [
          "Shahid Nazir",
          [
            "/wiki/Shahid_Nazir"
          ]
        ],
        [
          "17 October 1996",
          []
        ],
        [
          "Sheikhupura Stadium , Sheikhupura",
          [
            "/wiki/Sheikhupura_Stadium",
            "/wiki/Sheikhupura"
          ]
        ],
        [
          "Zimbabwe",
          [
            "/wiki/Zimbabwe_national_cricket_team"
          ]
        ],
        [
          "1",
          []
        ],
        [
          "22.4",
          []
        ],
        [
          "53",
          []
        ],
        [
          "5",
          []
        ],
        [
          "2.33",
          []
        ],
        [
          "ADR Campbell Andy Flower Craig Wishart Andy Whittall Henry Olonga",
          [
            "/wiki/Alistair_Campbell_(cricketer)",
            "/wiki/Andy_Flower",
            "/wiki/Craig_Wishart",
            "/wiki/Andy_Whittall",
            "/wiki/Henry_Olonga"
          ]
        ],
        [
          "Drawn",
          []
        ]
      ],
      [
        [
          "4",
          []
        ],
        [
          "Mohammad Zahid",
          [
            "/wiki/Mohammad_Zahid_(cricketer)"
          ]
        ],
        [
          "28 November 1996",
          []
        ],
        [
          "Rawalpindi Cricket Stadium , Rawalpindi",
          [
            "/wiki/Rawalpindi_Cricket_Stadium",
            "/wiki/Rawalpindi"
          ]
        ],
        [
          "New Zealand",
          [
            "/wiki/New_Zealand_national_cricket_team"
          ]
        ],
        [
          "4",
          []
        ],
        [
          "20.0",
          []
        ],
        [
          "66",
          []
        ],
        [
          "7",
          []
        ],
        [
          "3.30",
          []
        ],
        [
          "Bryan Young Justin Vaughan Adam Parore Lee Germon Nathan Astle Chris Harris Dipak Patel",
          [
            "/wiki/Bryan_Young_(cricketer)",
            "/wiki/Justin_Vaughan",
            "/wiki/Adam_Parore",
            "/wiki/Lee_Germon",
            "/wiki/Nathan_Astle",
            "/wiki/Chris_Harris_(cricketer)",
            "/wiki/Dipak_Patel_(cricketer)"
          ]
        ],
        [
          "Won",
          []
        ]
      ],
      [
        [
          "5",
          []
        ],
        [
          "Shahid Afridi",
          [
            "/wiki/Shahid_Afridi"
          ]
        ],
        [
          "22 October 1998",
          []
        ],
        [
          "National Stadium , Karachi",
          [
            "/wiki/National_Stadium,_Karachi",
            "/wiki/Karachi"
          ]
        ],
        [
          "Australia",
          [
            "/wiki/Australia_national_cricket_team"
          ]
        ],
        [
          "1",
          []
        ],
        [
          "23.3",
          []
        ],
        [
          "52",
          []
        ],
        [
          "5",
          []
        ],
        [
          "2.21",
          []
        ],
        [
          "Mark Waugh Steve Waugh Darren Lehmann Gavin Robertson Glenn McGrath",
          [
            "/wiki/Mark_Waugh",
            "/wiki/Steve_Waugh",
            "/wiki/Darren_Lehmann",
            "/wiki/Gavin_Robertson",
            "/wiki/Glenn_McGrath"
          ]
        ],
        [
          "Drawn",
          []
        ]
      ],
      [
        [
          "6",
          []
        ],
        [
          "Mohammad Sami",
          [
            "/wiki/Mohammad_Sami"
          ]
        ],
        [
          "8 March 2001",
          []
        ],
        [
          "Eden Park , Auckland",
          [
            "/wiki/Eden_Park",
            "/wiki/Auckland"
          ]
        ],
        [
          "New Zealand",
          [
            "/wiki/New_Zealand_national_cricket_team"
          ]
        ],
        [
          "4",
          []
        ],
        [
          "15.0",
          []
        ],
        [
          "36",
          []
        ],
        [
          "5",
          []
        ],
        [
          "2.40",
          []
        ],
        [
          "Paul Wiseman Mathew Sinclair Craig McMillan James Franklin Daryl Tuffey",
          [
            "/wiki/Paul_Wiseman",
            "/wiki/Mathew_Sinclair",
            "/wiki/Craig_McMillan",
            "/wiki/James_Franklin_(cricketer)",
            "/wiki/Daryl_Tuffey"
          ]
        ],
        [
          "Won",
          []
        ]
      ],
      [
        [
          "7",
          []
        ],
        [
          "Shabbir Ahmed",
          [
            "/wiki/Shabbir_Ahmed_(cricketer)"
          ]
        ],
        [
          "20 August 2003",
          []
        ],
        [
          "National Stadium , Karachi",
          [
            "/wiki/National_Stadium,_Karachi",
            "/wiki/Karachi"
          ]
        ],
        [
          "Bangladesh",
          [
            "/wiki/Bangladesh_national_cricket_team"
          ]
        ],
        [
          "3",
          []
        ],
        [
          "18.1",
          []
        ],
        [
          "48",
          []
        ],
        [
          "5",
          []
        ],
        [
          "2.64",
          []
        ],
        [
          "Sanwar Hossain Rajin Saleh Khaled Mahmud Tapash Baisya Mohammad Rafique",
          [
            "/wiki/Sanwar_Hossain",
            "/wiki/Rajin_Saleh",
            "/wiki/Khaled_Mahmud",
            "/wiki/Tapash_Baisya",
            "/wiki/Mohammad_Rafique_(cricketer)"
          ]
        ],
        [
          "Won",
          []
        ]
      ],
      [
        [
          "8",
          []
        ],
        [
          "Yasir Arafat",
          [
            "/wiki/Yasir_Arafat_(cricketer)"
          ]
        ],
        [
          "8 December 2007",
          []
        ],
        [
          "M Chinnaswamy Stadium , Bangalore",
          [
            "/wiki/M._Chinnaswamy_Stadium",
            "/wiki/Bangalore"
          ]
        ],
        [
          "India",
          [
            "/wiki/India_national_cricket_team"
          ]
        ],
        [
          "1",
          []
        ],
        [
          "39.0",
          []
        ],
        [
          "161",
          []
        ],
        [
          "5",
          []
        ],
        [
          "4.12",
          []
        ],
        [
          "Wasim Jaffer Rahul Dravid V. V. S. Laxman Dinesh Karthik Harbhajan Singh",
          [
            "/wiki/Wasim_Jaffer",
            "/wiki/Rahul_Dravid",
            "/wiki/VVS_Laxman",
            "/wiki/Dinesh_Karthik",
            "/wiki/Harbhajan_Singh"
          ]
        ],
        [
          "Drawn",
          []
        ]
      ],
      [
        [
          "9",
          []
        ],
        [
          "Wahab Riaz",
          [
            "/wiki/Wahab_Riaz"
          ]
        ],
        [
          "18 August 2010",
          []
        ],
        [
          "The Oval , London",
          [
            "/wiki/The_Oval",
            "/wiki/London"
          ]
        ],
        [
          "England",
          [
            "/wiki/England_cricket_team"
          ]
        ],
        [
          "1",
          []
        ],
        [
          "18.0",
          []
        ],
        [
          "63",
          []
        ],
        [
          "5",
          []
        ],
        [
          "3.50",
          []
        ],
        [
          "Andrew Strauss Jonathan Trott Kevin Pietersen Eoin Morgan Stuart Broad",
          [
            "/wiki/Andrew_Strauss",
            "/wiki/Jonathan_Trott",
            "/wiki/Kevin_Pietersen",
            "/wiki/Eoin_Morgan",
            "/wiki/Stuart_Broad"
          ]
        ],
        [
          "Won",
          []
        ]
      ],
      [
        [
          "10",
          []
        ],
        [
          "Tanvir Ahmed",
          [
            "/wiki/Tanvir_Ahmed"
          ]
        ],
        [
          "20 November 2010",
          []
        ],
        [
          "Sheikh Zayed Stadium , Abu Dhabi ( neutral venue )",
          [
            "/wiki/Zayed_Sports_City_Stadium",
            "/wiki/Abu_Dhabi",
            "/wiki/South_African_cricket_team_against_Pakistan_in_the_UAE_in_2010\u201311"
          ]
        ],
        [
          "South Africa",
          [
            "/wiki/South_Africa_national_cricket_team"
          ]
        ],
        [
          "1",
          []
        ],
        [
          "28.0",
          []
        ],
        [
          "120",
          []
        ],
        [
          "6",
          []
        ],
        [
          "4.28",
          []
        ],
        [
          "Graeme Smith Alviro Petersen Hashim Amla Jacques Kallis Mark Boucher Paul Harris",
          [
            "/wiki/Graeme_Smith",
            "/wiki/Alviro_Petersen",
            "/wiki/Hashim_Amla",
            "/wiki/Jacques_Kallis",
            "/wiki/Mark_Boucher",
            "/wiki/Paul_Harris_(South_African_cricketer)"
          ]
        ],
        [
          "Drawn",
          []
        ]
      ],
      [
        [
          "11",
          []
        ],
        [
          "Bilal Asif",
          [
            "/wiki/Bilal_Asif"
          ]
        ],
        [
          "7 October 2018",
          []
        ],
        [
          "Dubai International Cricket Stadium , Dubai ( neutral venue )",
          [
            "/wiki/Dubai_International_Cricket_Stadium",
            "/wiki/Dubai",
            "/wiki/Australian_cricket_team_in_the_United_Arab_Emirates_in_2018\u201319"
          ]
        ],
        [
          "Australia",
          [
            "/wiki/Australia_national_cricket_team"
          ]
        ],
        [
          "1",
          []
        ],
        [
          "21.3",
          []
        ],
        [
          "36",
          []
        ],
        [
          "6",
          []
        ],
        [
          "1.67",
          []
        ],
        [
          "Shaun Marsh Usman Khawaja Travis Head Marnus Labuschagne Tim Paine Nathan Lyon",
          [
            "/wiki/Shaun_Marsh",
            "/wiki/Usman_Khawaja",
            "/wiki/Travis_Head",
            "/wiki/Marnus_Labuschagne",
            "/wiki/Tim_Paine",
            "/wiki/Nathan_Lyon"
          ]
        ],
        [
          "Drawn",
          []
        ]
      ]
    ],
    "section_title": "Five-wicket hauls",
    "section_text": "",
    "uid": "List_of_Pakistan_Test_cricketers_who_have_taken_five_wickets_on_debut_1",
    "intro": "In cricket, a five-wicket haul (also known as a five-for or fifer) refers to a bowler taking five or more wickets in a single innings. This is regarded as a significant achievement. As of November 2019, 155 cricketers have taken a five-wicket haul on their debut in a Test match, with eleven of them being taken by Pakistani players. They have taken a five-wicket haul on debut against seven different opponents: three times against New Zealand and Australia, and once against Bangladesh, England, India, South Africa and Zimbabwe each. Of the eleven occasions, Pakistan won the match four times, and drew seven times. The players have taken five-wicket hauls at nine different venues, including six outside Pakistan; three of them have achieved the feat at the National Stadium, Karachi. Arif Butt was the first Pakistani player to take a five-wicket haul on his Test debut, he took six wickets for 89 runs against Australia in 1964. Mohammad Nazir and Mohammad Zahid are the only bowlers to have taken seven wickets each. Butt and Tanvir Ahmed have taken six wickets each and six others have taken five wickets on debut. Zahid took seven wickets for 66 runs, the best bowling figures by a Pakistani bowler on debut, against New Zealand in 1996, at the Rawalpindi Cricket Stadium. He accumulated 11 wickets for 130 runs in the match, the only Pakistani to take 10 or more wickets in a Test match on debut. Amongst the bowlers, Bilal Asif is the most economical, with 1.67 runs per over, and Zahid has the best strike rate."
  }
}