{
  "Template:2004_Summer_Olympics_United_States_men's_water_polo_team_roster_0": {
    "url": "https://en.wikipedia.org/wiki/Template:2004_Summer_Olympics_United_States_men's_water_polo_team_roster",
    "title": "Template:2004 Summer Olympics United States men's water polo team roster",
    "header": [
      [
        "\u2116",
        []
      ],
      [
        "Name",
        []
      ],
      [
        "Pos",
        []
      ],
      [
        "Height",
        []
      ],
      [
        "Weight",
        []
      ],
      [
        "Date of birth",
        []
      ],
      [
        "2004 club",
        []
      ]
    ],
    "data": [
      [
        [
          "1",
          []
        ],
        [
          "Brandon Brooks",
          [
            "/wiki/Brandon_Brooks_(water_polo)"
          ]
        ],
        [
          "GK",
          []
        ],
        [
          "1.98 m ( 6 ft 6 in )",
          []
        ],
        [
          "106 kg ( 234 lb )",
          []
        ],
        [
          "April 29 , 1981",
          []
        ],
        [
          "Los Angeles Water Polo Club",
          []
        ]
      ],
      [
        [
          "2",
          []
        ],
        [
          "Wolf Wigo ( C )",
          [
            "/wiki/Wolf_Wigo"
          ]
        ],
        [
          "D",
          []
        ],
        [
          "1.87 m ( 6 ft 2 in )",
          []
        ],
        [
          "86 kg ( 190 lb )",
          []
        ],
        [
          "May 8 , 1973",
          []
        ],
        [
          "New York Athletic Club",
          [
            "/wiki/New_York_Athletic_Club"
          ]
        ]
      ],
      [
        [
          "3",
          []
        ],
        [
          "Omar Amr",
          [
            "/wiki/Omar_Amr"
          ]
        ],
        [
          "CB",
          []
        ],
        [
          "1.80 m ( 5 ft 11 in )",
          []
        ],
        [
          "92 kg ( 203 lb )",
          []
        ],
        [
          "September 20 , 1974",
          []
        ],
        [
          "Newport Water Polo Foundation",
          []
        ]
      ],
      [
        [
          "4",
          []
        ],
        [
          "Jeff Powers",
          [
            "/wiki/Jeff_Powers"
          ]
        ],
        [
          "CF",
          []
        ],
        [
          "1.98 m ( 6 ft 6 in )",
          []
        ],
        [
          "104 kg ( 229 lb )",
          []
        ],
        [
          "January 21 , 1980",
          []
        ],
        [
          "Newport Water Polo Foundation",
          []
        ]
      ],
      [
        [
          "5",
          []
        ],
        [
          "Adam Wright",
          [
            "/wiki/Adam_Wright_(water_polo)"
          ]
        ],
        [
          "D",
          []
        ],
        [
          "1.90 m ( 6 ft 3 in )",
          []
        ],
        [
          "90 kg ( 200 lb )",
          []
        ],
        [
          "May 4 , 1977",
          []
        ],
        [
          "New York Athletic Club",
          [
            "/wiki/New_York_Athletic_Club"
          ]
        ]
      ],
      [
        [
          "6",
          []
        ],
        [
          "Christopher Segesman",
          [
            "/wiki/Christopher_Segesman"
          ]
        ],
        [
          "CB",
          []
        ],
        [
          "1.93 m ( 6 ft 4 in )",
          []
        ],
        [
          "92 kg ( 203 lb )",
          []
        ],
        [
          "June 17 , 1979",
          []
        ],
        [
          "Los Angeles Water Polo Club",
          []
        ]
      ],
      [
        [
          "7",
          []
        ],
        [
          "Layne Beaubien",
          [
            "/wiki/Layne_Beaubien"
          ]
        ],
        [
          "CB",
          []
        ],
        [
          "1.98 m ( 6 ft 6 in )",
          []
        ],
        [
          "99 kg ( 218 lb )",
          []
        ],
        [
          "July 4 , 1976",
          []
        ],
        [
          "New York Athletic Club",
          [
            "/wiki/New_York_Athletic_Club"
          ]
        ]
      ],
      [
        [
          "8",
          []
        ],
        [
          "Tony Azevedo",
          [
            "/wiki/Tony_Azevedo"
          ]
        ],
        [
          "D",
          []
        ],
        [
          "1.85 m ( 6 ft 1 in )",
          []
        ],
        [
          "87 kg ( 192 lb )",
          []
        ],
        [
          "November 21 , 1981",
          []
        ],
        [
          "Long Beach Shore Aquatics",
          []
        ]
      ],
      [
        [
          "9",
          []
        ],
        [
          "Dan Klatt",
          [
            "/wiki/Daniel_Klatt"
          ]
        ],
        [
          "CB",
          []
        ],
        [
          "1.95 m ( 6 ft 5 in )",
          []
        ],
        [
          "92 kg ( 203 lb )",
          []
        ],
        [
          "October 28 , 1978",
          []
        ],
        [
          "Newport Water Polo Foundation",
          []
        ]
      ],
      [
        [
          "10",
          []
        ],
        [
          "Brett Ormsby",
          [
            "/wiki/Brett_Ormsby"
          ]
        ],
        [
          "D",
          []
        ],
        [
          "1.90 m ( 6 ft 3 in )",
          []
        ],
        [
          "83 kg ( 183 lb )",
          []
        ],
        [
          "December 1 , 1982",
          []
        ],
        [
          "UCLA Bruins",
          [
            "/wiki/UCLA_Bruins"
          ]
        ]
      ],
      [
        [
          "11",
          []
        ],
        [
          "Jesse Smith",
          [
            "/wiki/Jesse_Smith_(water_polo)"
          ]
        ],
        [
          "CB",
          []
        ],
        [
          "1.93 m ( 6 ft 4 in )",
          []
        ],
        [
          "108 kg ( 238 lb )",
          []
        ],
        [
          "April 27 , 1983",
          []
        ],
        [
          "New York Athletic Club",
          [
            "/wiki/New_York_Athletic_Club"
          ]
        ]
      ],
      [
        [
          "12",
          []
        ],
        [
          "Genai Kerr",
          [
            "/wiki/Genai_Kerr"
          ]
        ],
        [
          "GK",
          []
        ],
        [
          "2.03 m ( 6 ft 8 in )",
          []
        ],
        [
          "95 kg ( 209 lb )",
          []
        ],
        [
          "December 25 , 1976",
          []
        ],
        [
          "Newport Water Polo Foundation",
          []
        ]
      ],
      [
        [
          "13",
          []
        ],
        [
          "Ryan Bailey",
          [
            "/wiki/Ryan_Bailey_(water_polo)"
          ]
        ],
        [
          "CF",
          []
        ],
        [
          "1.98 m ( 6 ft 6 in )",
          []
        ],
        [
          "113 kg ( 249 lb )",
          []
        ],
        [
          "August 28 , 1975",
          []
        ],
        [
          "Newport Water Polo Foundation",
          []
        ]
      ]
    ],
    "section_title": "",
    "section_text": "The template takes one parameter : fs ( fontsize , default 100 ) . The following is the American roster in the men 's water polo tournament of the 2004 Summer Olympics . [ 1 ] viewtalk Head coach : Ratko Rudi\u0107",
    "uid": "Template:2004_Summer_Olympics_United_States_men's_water_polo_team_roster_0",
    "intro": "The purpose of this template is to collect source text used in several articles in one place, in order to minimize maintenance and storage space. This is the American roster in the men's water polo tournament of the 2004 Summer Olympics . The template is typically used in two articles: the article covering United States at the 2004 Summer Olympics , and the article covering the rosters of all participating teams of the tournament. The template takes one parameter: fs (fontsize, default 100). The following is the American roster in the men's water polo tournament of the 2004 Summer Olympics."
  },
  "List_of_international_presidential_trips_made_by_Maithripala_Sirisena_3": {
    "url": "https://en.wikipedia.org/wiki/List_of_international_presidential_trips_made_by_Maithripala_Sirisena",
    "title": "List of international presidential trips made by Maithripala Sirisena",
    "header": [
      [
        "Country",
        []
      ],
      [
        "Areas visited",
        []
      ],
      [
        "Date ( s )",
        []
      ],
      [
        "Purpose ( s )",
        []
      ],
      [
        "Notes",
        []
      ]
    ],
    "data": [
      [
        [
          "Indonesia",
          []
        ],
        [
          "Jakarta",
          [
            "/wiki/Jakarta"
          ]
        ],
        [
          "6-8 March 2017",
          []
        ],
        [
          "State visit",
          [
            "/wiki/State_visit"
          ]
        ],
        [
          "At the invitation of the Indonesia President Joko Widodo for state visit and attend the 20th Anniversary Summit of the Indian Ocean Rim Association ( IORA )",
          [
            "/wiki/Joko_Widodo"
          ]
        ]
      ],
      [
        [
          "Russia",
          []
        ],
        [
          "Moscow",
          [
            "/wiki/Moscow"
          ]
        ],
        [
          "21-26 March 2017",
          []
        ],
        [
          "State visit",
          [
            "/wiki/State_visit"
          ]
        ],
        [
          "See also : Russia-Sri Lanka relations On the invitation extended by Russian President Vladimir Putin . This was the first visit to Russia by a Sri Lankan President",
          [
            "/wiki/Russia\u2013Sri_Lanka_relations",
            "/wiki/Vladimir_Putin"
          ]
        ]
      ],
      [
        [
          "Australia",
          []
        ],
        [
          "Canberra",
          [
            "/wiki/Sydney"
          ]
        ],
        [
          "23-26 May 2017",
          []
        ],
        [
          "State visit",
          [
            "/wiki/State_visit"
          ]
        ],
        [
          "Special invitation extended by Australian Prime Minister Malcolm Turnbull",
          []
        ]
      ],
      [
        [
          "Bangladesh",
          []
        ],
        [
          "Dhaka",
          [
            "/wiki/Dhaka"
          ]
        ],
        [
          "13-15 July 2017",
          []
        ],
        [
          "State visit",
          [
            "/wiki/State_visit"
          ]
        ],
        [
          "See also : Bangladesh-Sri Lanka relations President Sirisena was invited by Prime Minister Sheikh Hasina for an official 3 day visit",
          [
            "/wiki/Bangladesh\u2013Sri_Lanka_relations",
            "/wiki/Sheikh_Hasina"
          ]
        ]
      ],
      [
        [
          "United States",
          []
        ],
        [
          "New York City",
          []
        ],
        [
          "17-23 September 2017",
          []
        ],
        [
          "United Nations General Assembly & bilateral meetings",
          [
            "/wiki/United_Nations_General_Assembly"
          ]
        ],
        [
          "To attend the Seventy-second session of the United Nations General Assembly , where he delivered a special address . Sirisena will also have bilateral meetings with several leaders",
          [
            "/wiki/Seventy-second_session_of_the_United_Nations_General_Assembly"
          ]
        ]
      ],
      [
        [
          "Qatar",
          []
        ],
        [
          "Doha",
          [
            "/wiki/Doha"
          ]
        ],
        [
          "25-27 October 2017",
          []
        ],
        [
          "State visit",
          [
            "/wiki/State_visit"
          ]
        ],
        [
          "See also : Qatar-Sri Lanka relations President Sirisena was invited by Tamim bin Hamad Al Thani Emir of Qatar for an official 2 day visit",
          [
            "/wiki/Tamim_bin_Hamad_Al_Thani",
            "/wiki/Emir_of_Qatar"
          ]
        ]
      ],
      [
        [
          "South Korea",
          []
        ],
        [
          "Seoul",
          [
            "/wiki/Seoul"
          ]
        ],
        [
          "27-30 November 2017",
          []
        ],
        [
          "State visit",
          [
            "/wiki/State_visit"
          ]
        ],
        [
          "See also : South Korea-Sri Lanka relations President Sirisena was invited by Korean President Moon Jae-in for a state visit",
          []
        ]
      ]
    ],
    "section_title": "2017",
    "section_text": "Maithripala Sirisena made 7 trips to 7 countries in 2017 . Sirisena at a meeting with Vladimir Putin in Moscow Meeting Dmitry Medvedev during Sirisena 's visit to Russia Meeting with Malcolm Turnbull in Jakarta",
    "uid": "List_of_international_presidential_trips_made_by_Maithripala_Sirisena_3",
    "intro": "This is a list of international trips made by Maithripala Sirisena as President of Sri Lanka. Sirisena, the 7th, and current President took office on 9 January 2015."
  }
}