{
  "List_of_European_Short_Course_Swimming_Championships_medalists_(women)_15": {
    "url": "https://en.wikipedia.org/wiki/List_of_European_Short_Course_Swimming_Championships_medalists_(women)",
    "title": "List of European Short Course Swimming Championships medalists (women)",
    "header": [
      [
        "Year",
        []
      ],
      [
        "Gold",
        []
      ],
      [
        "Silver",
        []
      ],
      [
        "Bronze",
        []
      ]
    ],
    "data": [
      [
        [
          "1996 Rostock",
          []
        ],
        [
          "Sue Rolph ( GBR )",
          [
            "/wiki/Sue_Rolph"
          ]
        ],
        [
          "Alicja P\u0119czak ( POL )",
          [
            "/wiki/Alicja_P\u0119czak"
          ]
        ],
        [
          "Sabine Herbst ( GER )",
          [
            "/wiki/Sabine_Herbst"
          ]
        ]
      ],
      [
        [
          "1998 Sheffield",
          []
        ],
        [
          "Alicja P\u0119czak ( POL )",
          [
            "/wiki/Alicja_P\u0119czak"
          ]
        ],
        [
          "Nicole Hetzer ( GER )",
          [
            "/wiki/Nicole_Hetzer"
          ]
        ],
        [
          "Sue Rolph ( GBR )",
          [
            "/wiki/Sue_Rolph"
          ]
        ]
      ],
      [
        [
          "1999 Lisbon",
          []
        ],
        [
          "Yana Klochkova ( UKR )",
          [
            "/wiki/Yana_Klochkova"
          ]
        ],
        [
          "Martina Moravcov\u00e1 ( SVK )",
          [
            "/wiki/Martina_Moravcov\u00e1"
          ]
        ],
        [
          "Sue Rolph ( GBR )",
          [
            "/wiki/Sue_Rolph"
          ]
        ]
      ],
      [
        [
          "2000 Valencia",
          []
        ],
        [
          "Yana Klochkova ( UKR )",
          [
            "/wiki/Yana_Klochkova"
          ]
        ],
        [
          "Oxana Verevka ( RUS )",
          [
            "/wiki/Oxana_Verevka"
          ]
        ],
        [
          "Sue Rolph ( GBR )",
          [
            "/wiki/Sue_Rolph"
          ]
        ]
      ],
      [
        [
          "2001 Antwerp",
          []
        ],
        [
          "Yana Klochkova ( UKR )",
          [
            "/wiki/Yana_Klochkova"
          ]
        ],
        [
          "Nicole Hetzer ( GER )",
          [
            "/wiki/Nicole_Hetzer"
          ]
        ],
        [
          "Alenka Kej\u017ear ( SLO )",
          [
            "/wiki/Alenka_Kej\u017ear"
          ]
        ]
      ],
      [
        [
          "2002 Riesa",
          []
        ],
        [
          "Yana Klochkova ( UKR )",
          [
            "/wiki/Yana_Klochkova"
          ]
        ],
        [
          "Alenka Kej\u017ear ( SLO )",
          [
            "/wiki/Alenka_Kej\u017ear"
          ]
        ],
        [
          "Hanna Shcherba ( BLR )",
          [
            "/wiki/Hanna_Shcherba"
          ]
        ]
      ],
      [
        [
          "2003 Dublin",
          []
        ],
        [
          "Alenka Kej\u017ear ( SLO )",
          [
            "/wiki/Alenka_Kej\u017ear"
          ]
        ],
        [
          "Hanna Shcherba ( BLR )",
          [
            "/wiki/Hanna_Shcherba"
          ]
        ],
        [
          "Teresa Rohmann ( GER )",
          [
            "/wiki/Teresa_Rohmann"
          ]
        ]
      ],
      [
        [
          "2004 Vienna",
          []
        ],
        [
          "Teresa Rohmann ( GER )",
          [
            "/wiki/Teresa_Rohmann"
          ]
        ],
        [
          "Aleksandra Urbanczyk ( POL )",
          [
            "/wiki/Aleksandra_Urba\u0144czyk"
          ]
        ],
        [
          "Julie Hj\u00f8rt-Hansen ( DEN )",
          []
        ]
      ],
      [
        [
          "2005 Trieste",
          []
        ],
        [
          "Katarzyna Baranowska ( POL )",
          [
            "/wiki/Katarzyna_Baranowska"
          ]
        ],
        [
          "Aleksandra Urbanczyk ( POL )",
          [
            "/wiki/Aleksandra_Urba\u0144czyk"
          ]
        ],
        [
          "Daria Belyakina ( RUS )",
          [
            "/wiki/Daria_Belyakina"
          ]
        ]
      ],
      [
        [
          "2006 Helsinki",
          []
        ],
        [
          "Katarzyna Baranowska ( POL )",
          [
            "/wiki/Katarzyna_Baranowska"
          ]
        ],
        [
          "Camille Muffat ( FRA )",
          [
            "/wiki/Camille_Muffat"
          ]
        ],
        [
          "Aleksandra Urbanczyk ( POL )",
          [
            "/wiki/Aleksandra_Urba\u0144czyk"
          ]
        ]
      ],
      [
        [
          "2007 Debrecen",
          []
        ],
        [
          "Camille Muffat ( FRA )",
          [
            "/wiki/Camille_Muffat"
          ]
        ],
        [
          "Katarzyna Baranowska ( POL )",
          [
            "/wiki/Katarzyna_Baranowska"
          ]
        ],
        [
          "Evelyn Verraszt\u00f3 ( HUN )",
          [
            "/wiki/Evelyn_Verraszt\u00f3"
          ]
        ]
      ],
      [
        [
          "2008 Rijeka",
          []
        ],
        [
          "Francesca Segat ( ITA )",
          [
            "/wiki/Francesca_Segat"
          ]
        ],
        [
          "Evelyn Verraszt\u00f3 ( HUN )",
          [
            "/wiki/Evelyn_Verraszt\u00f3"
          ]
        ],
        [
          "Sophie de Ronchi ( FRA )",
          [
            "/wiki/Sophie_de_Ronchi"
          ]
        ]
      ],
      [
        [
          "2009 Istanbul",
          []
        ],
        [
          "Evelyn Verraszt\u00f3 ( HUN )",
          [
            "/wiki/Evelyn_Verraszt\u00f3"
          ]
        ],
        [
          "Francesca Segat ( ITA )",
          [
            "/wiki/Francesca_Segat"
          ]
        ],
        [
          "Hannah Miley ( GBR )",
          [
            "/wiki/Hannah_Miley"
          ]
        ]
      ],
      [
        [
          "2010 Eindhoven",
          []
        ],
        [
          "Evelyn Verraszt\u00f3 ( HUN )",
          [
            "/wiki/Evelyn_Verraszt\u00f3"
          ]
        ],
        [
          "Kimberly Buys ( BEL )",
          [
            "/wiki/Kimberly_Buys"
          ]
        ],
        [
          "Lara Grangeon ( FRA )",
          [
            "/wiki/Lara_Grangeon"
          ]
        ]
      ],
      [
        [
          "2011 Szczecin",
          []
        ],
        [
          "Mireia Belmonte ( ESP )",
          [
            "/wiki/Mireia_Belmonte"
          ]
        ],
        [
          "Evelyn Verraszt\u00f3 ( HUN )",
          [
            "/wiki/Evelyn_Verraszt\u00f3"
          ]
        ],
        [
          "Hannah Miley ( GBR )",
          [
            "/wiki/Hannah_Miley"
          ]
        ]
      ],
      [
        [
          "2012 Chartres",
          []
        ],
        [
          "Katinka Hossz\u00fa ( HUN )",
          [
            "/wiki/Katinka_Hossz\u00fa"
          ]
        ],
        [
          "Hannah Miley ( GBR )",
          [
            "/wiki/Hannah_Miley"
          ]
        ],
        [
          "Zsuzsanna Jakabos ( HUN )",
          [
            "/wiki/Zsuzsanna_Jakabos"
          ]
        ]
      ],
      [
        [
          "2013 Herning",
          []
        ],
        [
          "Katinka Hossz\u00fa ( HUN )",
          [
            "/wiki/Katinka_Hossz\u00fa"
          ]
        ],
        [
          "Siobhan-Marie O'Connor ( GBR )",
          [
            "/wiki/Siobhan-Marie_O'Connor"
          ]
        ],
        [
          "Sophie Allen ( GBR )",
          [
            "/wiki/Sophie_Allen"
          ]
        ]
      ],
      [
        [
          "2015 Netanya",
          [
            "/wiki/2015_European_Short_Course_Swimming_Championships"
          ]
        ],
        [
          "Katinka Hossz\u00fa ( HUN )",
          [
            "/wiki/Katinka_Hossz\u00fa"
          ]
        ],
        [
          "Siobhan-Marie O'Connor ( GBR )",
          [
            "/wiki/Siobhan-Marie_O'Connor"
          ]
        ],
        [
          "Louise Hansson ( SWE )",
          [
            "/wiki/Louise_Hansson"
          ]
        ]
      ],
      [
        [
          "2017 Copenhagen",
          [
            "/wiki/2017_European_Short_Course_Swimming_Championships"
          ]
        ],
        [
          "Katinka Hossz\u00fa ( HUN )",
          [
            "/wiki/Katinka_Hossz\u00fa"
          ]
        ],
        [
          "Evelyn Verraszt\u00f3 ( HUN )",
          [
            "/wiki/Evelyn_Verraszt\u00f3"
          ]
        ],
        [
          "Ilaria Cusinato ( ITA )",
          [
            "/wiki/Ilaria_Cusinato"
          ]
        ]
      ]
    ],
    "section_title": "Current program -- 200 m individual medley",
    "section_text": "",
    "uid": "List_of_European_Short_Course_Swimming_Championships_medalists_(women)_15",
    "intro": "This is the complete list of women's European Short Course Swimming Championships medalists in swimming from 1991 to 2017. From 1991 to 1994 this event was held as the European Sprint Swimming Championships, where only the 50 meter events, the 100 meter individual medley, and both women's 4 \u00d7 50 meter relays were contested."
  },
  "List_of_U.S._National_Historic_Landmark_ships,_shipwrecks,_and_shipyards_0": {
    "url": "https://en.wikipedia.org/wiki/List_of_U.S._National_Historic_Landmark_ships,_shipwrecks,_and_shipyards",
    "title": "List of U.S. National Historic Landmark ships, shipwrecks, and shipyards",
    "header": [
      [
        "",
        []
      ],
      [
        "Name ( according to NHL )",
        []
      ],
      [
        "State",
        []
      ],
      [
        "Date declared",
        []
      ],
      [
        "Museum association",
        []
      ]
    ],
    "data": [
      [
        [
          "1",
          []
        ],
        [
          "Antonio Lopez",
          [
            "/wiki/Antonio_L\u00f3pez_(shipwreck)"
          ]
        ],
        [
          "Puerto Rico",
          []
        ],
        [
          "9 December 1997",
          []
        ],
        [
          "",
          []
        ]
      ],
      [
        [
          "2",
          []
        ],
        [
          "USS Arizona ( shipwreck )",
          [
            "/wiki/USS_Arizona_Memorial"
          ]
        ],
        [
          "Hawaii",
          []
        ],
        [
          "5 May 1989",
          []
        ],
        [
          "Shipwreck",
          []
        ]
      ],
      [
        [
          "3",
          []
        ],
        [
          "Land Tortoise ( radeau )",
          [
            "/wiki/Land_Tortoise_(shipwreck)"
          ]
        ],
        [
          "New York",
          []
        ],
        [
          "5 August 1998",
          []
        ],
        [
          "Shipwreck",
          []
        ]
      ],
      [
        [
          "4",
          []
        ],
        [
          "Maple Leaf ( shipwreck )",
          [
            "/wiki/Maple_Leaf_(shipwreck)"
          ]
        ],
        [
          "Florida",
          []
        ],
        [
          "12 October 1994",
          []
        ],
        [
          "Shipwreck",
          []
        ]
      ],
      [
        [
          "5",
          []
        ],
        [
          "USS Monitor",
          [
            "/wiki/Monitor_National_Marine_Sanctuary"
          ]
        ],
        [
          "North Carolina",
          []
        ],
        [
          "23 June 1986",
          []
        ],
        [
          "Shipwreck",
          []
        ]
      ],
      [
        [
          "6",
          []
        ],
        [
          "Truk Lagoon Underwater Fleet , Truk Atoll",
          [
            "/wiki/Chuuk_Lagoon"
          ]
        ],
        [
          "Micronesia",
          [
            "/wiki/Federated_States_of_Micronesia"
          ]
        ],
        [
          "4 February 1985",
          []
        ],
        [
          "Shipwrecks",
          []
        ]
      ],
      [
        [
          "7",
          []
        ],
        [
          "USS Utah ( shipwreck )",
          [
            "/wiki/USS_Utah_(BB-31)"
          ]
        ],
        [
          "Hawaii",
          []
        ],
        [
          "5 May 1989",
          []
        ],
        [
          "Shipwreck",
          []
        ]
      ]
    ],
    "section_title": "Shipwrecks",
    "section_text": "",
    "uid": "List_of_U.S._National_Historic_Landmark_ships,_shipwrecks,_and_shipyards_0",
    "intro": "This is a list of the 133 National Historic Landmarks in the United States that are ships, shipwrecks, or shipyards. Of the more than 2,500 NHLs, about 5 percent are ships, shipwrecks, or shipyards. The NHL ships, shipwrecks, and shipyards are distributed across 31 states, the District of Columbia, Puerto Rico, and the U.S.-associated state of Micronesia. Nineteen states have no ships among their NHLs."
  }
}