{
  "United_States_Senate_Committee_on_Transportation_Routes_to_the_Seaboard_1": {
    "url": "https://en.wikipedia.org/wiki/United_States_Senate_Committee_on_Transportation_Routes_to_the_Seaboard",
    "title": "United States Senate Committee on Transportation Routes to the Seaboard",
    "header": [
      [
        "Name",
        []
      ],
      [
        "Party",
        []
      ],
      [
        "State",
        []
      ],
      [
        "Years",
        []
      ]
    ],
    "data": [
      [
        [
          "James Beck",
          [
            "/wiki/James_Beck"
          ]
        ],
        [
          "Democratic",
          [
            "/wiki/Democratic_Party_(United_States)"
          ]
        ],
        [
          "Kentucky",
          [
            "/wiki/Kentucky"
          ]
        ],
        [
          "1879-1881",
          []
        ]
      ],
      [
        [
          "Benjamin Harrison",
          [
            "/wiki/Benjamin_Harrison"
          ]
        ],
        [
          "Republican",
          []
        ],
        [
          "Indiana",
          [
            "/wiki/Indiana"
          ]
        ],
        [
          "1881-1883",
          []
        ]
      ],
      [
        [
          "Nelson Aldrich",
          [
            "/wiki/Nelson_W._Aldrich"
          ]
        ],
        [
          "Republican",
          []
        ],
        [
          "Rhode Island",
          [
            "/wiki/Rhode_Island"
          ]
        ],
        [
          "1883-1887",
          []
        ]
      ],
      [
        [
          "John H. Mitchell",
          [
            "/wiki/John_H._Mitchell"
          ]
        ],
        [
          "Republican",
          []
        ],
        [
          "Oregon",
          [
            "/wiki/Oregon"
          ]
        ],
        [
          "1887-1889",
          []
        ]
      ],
      [
        [
          "Matthew S. Quay",
          [
            "/wiki/Matthew_Quay"
          ]
        ],
        [
          "Republican",
          []
        ],
        [
          "Pennsylvania",
          [
            "/wiki/Pennsylvania"
          ]
        ],
        [
          "1889-1891",
          []
        ]
      ],
      [
        [
          "Jacob H. Gallinger",
          [
            "/wiki/Jacob_Harold_Gallinger"
          ]
        ],
        [
          "Republican",
          []
        ],
        [
          "New Hampshire",
          [
            "/wiki/New_Hampshire"
          ]
        ],
        [
          "1891-1893",
          []
        ]
      ],
      [
        [
          "John L.M . Irby",
          [
            "/wiki/John_L._M._Irby"
          ]
        ],
        [
          "Democratic",
          []
        ],
        [
          "South Carolina",
          [
            "/wiki/South_Carolina"
          ]
        ],
        [
          "1893-1895",
          []
        ]
      ],
      [
        [
          "George McBride",
          [
            "/wiki/George_McBride"
          ]
        ],
        [
          "Republican",
          []
        ],
        [
          "Oregon",
          [
            "/wiki/Oregon"
          ]
        ],
        [
          "1895-1897",
          []
        ]
      ],
      [
        [
          "Thomas C. Platt",
          [
            "/wiki/Thomas_C._Platt"
          ]
        ],
        [
          "Republican",
          []
        ],
        [
          "New York",
          [
            "/wiki/New_York_(state)"
          ]
        ],
        [
          "1897-1899",
          []
        ]
      ],
      [
        [
          "Joseph V. Quarles",
          [
            "/wiki/Joseph_V._Quarles"
          ]
        ],
        [
          "Republican",
          []
        ],
        [
          "Wisconsin",
          [
            "/wiki/Wisconsin"
          ]
        ],
        [
          "1899-1901",
          []
        ]
      ],
      [
        [
          "William P. Dillingham",
          [
            "/wiki/William_P._Dillingham"
          ]
        ],
        [
          "Republican",
          []
        ],
        [
          "Vermont",
          [
            "/wiki/Vermont"
          ]
        ],
        [
          "1901-1903",
          []
        ]
      ],
      [
        [
          "Robert J . Gamble",
          [
            "/wiki/Robert_J._Gamble"
          ]
        ],
        [
          "Republican",
          []
        ],
        [
          "South Dakota",
          [
            "/wiki/South_Dakota"
          ]
        ],
        [
          "1903-1909",
          []
        ]
      ],
      [
        [
          "George T. Oliver",
          [
            "/wiki/George_T._Oliver"
          ]
        ],
        [
          "Republican",
          []
        ],
        [
          "Pennsylvania",
          [
            "/wiki/Pennsylvania"
          ]
        ],
        [
          "1909-1911",
          []
        ]
      ],
      [
        [
          "Ellison D. Smith",
          [
            "/wiki/Ellison_D._Smith"
          ]
        ],
        [
          "Democratic",
          []
        ],
        [
          "South Carolina",
          [
            "/wiki/South_Carolina"
          ]
        ],
        [
          "1911-1913",
          []
        ]
      ],
      [
        [
          "Porter J. McCumber",
          [
            "/wiki/Porter_J._McCumber"
          ]
        ],
        [
          "Republican",
          []
        ],
        [
          "North Dakota",
          [
            "/wiki/North_Dakota"
          ]
        ],
        [
          "1913-1919",
          []
        ]
      ],
      [
        [
          "Duncan U. Fletcher",
          [
            "/wiki/Duncan_U._Fletcher"
          ]
        ],
        [
          "Democratic",
          []
        ],
        [
          "Florida",
          [
            "/wiki/Florida"
          ]
        ],
        [
          "1919-1921",
          []
        ]
      ]
    ],
    "section_title": "Standing committee -- Chairmen of the Committee ( Standing ) , 1879-1921",
    "section_text": "",
    "uid": "United_States_Senate_Committee_on_Transportation_Routes_to_the_Seaboard_1",
    "intro": "The United States Senate Committee on Transportation Routes to the Seaboard, was a Senate committee, initially authorized by Senate resolution as a select committee on December 16, 1872. The select committee, also known as the Windom Select Committee for its first chairman, William Windom, submitted their significant report regarding current rail and water transportation on April 24, 1874; it was ordered to be printed the same day. The committee became a standing committee on March 19, 1879, with little documented activity, and continued to exist until 1921."
  }
}