{
  "List_of_Central_American_and_Caribbean_Championships_records_in_swimming_9": {
    "url": "https://en.wikipedia.org/wiki/List_of_Central_American_and_Caribbean_Championships_records_in_swimming",
    "title": "List of Central American and Caribbean Championships records in swimming",
    "header": [
      [
        "Event",
        []
      ],
      [
        "Time",
        []
      ],
      [
        "Name",
        []
      ],
      [
        "Nationality",
        []
      ],
      [
        "Date",
        []
      ],
      [
        "Meet",
        []
      ],
      [
        "Location",
        []
      ]
    ],
    "data": [
      [
        [
          "50m freestyle",
          []
        ],
        [
          "22.70",
          []
        ],
        [
          "Renzo Tjon A Joe",
          [
            "/wiki/Renzo_Tjon-A-Joe"
          ]
        ],
        [
          "Suriname",
          []
        ],
        [
          "2 July 2019",
          []
        ],
        [
          "XXXII CCCAN",
          []
        ],
        [
          "Bridgetown , Barbados",
          [
            "/wiki/Bridgetown"
          ]
        ]
      ],
      [
        [
          "100m freestyle",
          []
        ],
        [
          "49.53",
          []
        ],
        [
          "Hanser Garc\u00eda",
          [
            "/wiki/Hanser_Garc\u00eda"
          ]
        ],
        [
          "Cuba",
          [
            "/wiki/Cuba"
          ]
        ],
        [
          "1 July 2009",
          []
        ],
        [
          "XXVI CCCAN",
          []
        ],
        [
          "Barquisimeto , Venezuela",
          [
            "/wiki/Barquisimeto"
          ]
        ]
      ],
      [
        [
          "200m freestyle",
          []
        ],
        [
          "1:48.91",
          []
        ],
        [
          "Dylan Carter",
          [
            "/wiki/Dylan_Carter_(swimmer)"
          ]
        ],
        [
          "Trinidad and Tobago",
          [
            "/wiki/Trinidad_and_Tobago"
          ]
        ],
        [
          "30 June 2017",
          []
        ],
        [
          "XXX CCCAN",
          []
        ],
        [
          "Couva , Trinidad and Tobago",
          [
            "/wiki/Couva"
          ]
        ]
      ],
      [
        [
          "400m freestyle",
          []
        ],
        [
          "3:55.54",
          []
        ],
        [
          "Marcelo Acosta",
          [
            "/wiki/Marcelo_Acosta"
          ]
        ],
        [
          "El Salvador",
          [
            "/wiki/El_Salvador"
          ]
        ],
        [
          "2 July 2017",
          []
        ],
        [
          "XXX CCCAN",
          []
        ],
        [
          "Couva , Trinidad and Tobago",
          [
            "/wiki/Couva"
          ]
        ]
      ],
      [
        [
          "1500m freestyle",
          []
        ],
        [
          "15:39.51",
          []
        ],
        [
          "Marcelo Acosta",
          [
            "/wiki/Marcelo_Acosta"
          ]
        ],
        [
          "El Salvador",
          [
            "/wiki/El_Salvador"
          ]
        ],
        [
          "28 June 2017",
          []
        ],
        [
          "XXX CCCAN",
          []
        ],
        [
          "Couva , Trinidad and Tobago",
          [
            "/wiki/Couva"
          ]
        ]
      ],
      [
        [
          "50m backstroke",
          []
        ],
        [
          "25.93",
          []
        ],
        [
          "Christian Homer",
          []
        ],
        [
          "Trinidad and Tobago",
          [
            "/wiki/Trinidad_and_Tobago"
          ]
        ],
        [
          "3 July 2013",
          []
        ],
        [
          "XXVIII CCCAN",
          []
        ],
        [
          "San Jos\u00e9 , Costa Rica",
          [
            "/wiki/San_Jos\u00e9,_Costa_Rica"
          ]
        ]
      ],
      [
        [
          "100m backstroke",
          []
        ],
        [
          "56.47",
          []
        ],
        [
          "Rex Tullius",
          []
        ],
        [
          "U.S. Virgin Islands",
          [
            "/wiki/United_States_Virgin_Islands"
          ]
        ],
        [
          "24 June 2015",
          []
        ],
        [
          "XXIX CCCAN",
          []
        ],
        [
          "Bridgetown , Barbados",
          [
            "/wiki/Bridgetown"
          ]
        ]
      ],
      [
        [
          "200m backstroke",
          []
        ],
        [
          "2:03.66",
          []
        ],
        [
          "Neisser Bent",
          [
            "/wiki/Neisser_Bent"
          ]
        ],
        [
          "Cuba",
          [
            "/wiki/Cuba"
          ]
        ],
        [
          "July 2001",
          []
        ],
        [
          "XXII CCCAN",
          []
        ],
        [
          "Dominican Republic",
          []
        ]
      ],
      [
        [
          "50m breaststroke",
          []
        ],
        [
          "27.94",
          []
        ],
        [
          "\u00c9dgar Crespo",
          [
            "/wiki/\u00c9dgar_Crespo"
          ]
        ],
        [
          "Panama",
          [
            "/wiki/Panama"
          ]
        ],
        [
          "1 July 2017",
          []
        ],
        [
          "XXX CCCAN",
          []
        ],
        [
          "Couva , Trinidad and Tobago",
          [
            "/wiki/Couva"
          ]
        ]
      ],
      [
        [
          "100m breaststroke",
          []
        ],
        [
          "1:02.37",
          []
        ],
        [
          "\u00c9dgar Crespo",
          [
            "/wiki/\u00c9dgar_Crespo"
          ]
        ],
        [
          "Panama",
          [
            "/wiki/Panama"
          ]
        ],
        [
          "2 July 2017",
          []
        ],
        [
          "XXX CCCAN",
          []
        ],
        [
          "Couva , Trinidad and Tobago",
          [
            "/wiki/Couva"
          ]
        ]
      ],
      [
        [
          "200m breaststroke",
          []
        ],
        [
          "2:19.06",
          []
        ],
        [
          "Josue Dominguez",
          []
        ],
        [
          "Dominican Republic",
          []
        ],
        [
          "29 June 2019",
          []
        ],
        [
          "XXXII CCCAN",
          []
        ],
        [
          "Bridgetown , Barbados",
          [
            "/wiki/Bridgetown"
          ]
        ]
      ],
      [
        [
          "50m butterfly",
          []
        ],
        [
          "24.40",
          []
        ],
        [
          "Joshua Romany",
          []
        ],
        [
          "Trinidad and Tobago",
          [
            "/wiki/Trinidad_and_Tobago"
          ]
        ],
        [
          "30 June 2017",
          []
        ],
        [
          "XXX CCCAN",
          []
        ],
        [
          "Couva , Trinidad and Tobago",
          [
            "/wiki/Couva"
          ]
        ]
      ],
      [
        [
          "100m butterfly",
          []
        ],
        [
          "52.73",
          []
        ],
        [
          "Dylan Carter",
          [
            "/wiki/Dylan_Carter_(swimmer)"
          ]
        ],
        [
          "Trinidad and Tobago",
          [
            "/wiki/Trinidad_and_Tobago"
          ]
        ],
        [
          "29 June 2017",
          []
        ],
        [
          "XXX CCCAN",
          []
        ],
        [
          "Couva , Trinidad and Tobago",
          [
            "/wiki/Couva"
          ]
        ]
      ],
      [
        [
          "200m butterfly",
          []
        ],
        [
          "2:03.27",
          []
        ],
        [
          "Javier Hern\u00e1ndez",
          []
        ],
        [
          "Honduras",
          [
            "/wiki/Honduras"
          ]
        ],
        [
          "4 July 2009",
          []
        ],
        [
          "XXVI CCCAN",
          []
        ],
        [
          "Barquisimeto , Venezuela",
          [
            "/wiki/Barquisimeto"
          ]
        ]
      ],
      [
        [
          "200m individual medley",
          []
        ],
        [
          "2:04.85",
          []
        ],
        [
          "Julio Horrego",
          []
        ],
        [
          "Honduras",
          []
        ],
        [
          "2 July 2018",
          []
        ],
        [
          "XXXI CCCAN",
          []
        ],
        [
          "Savaneta , Aruba",
          [
            "/wiki/Savaneta"
          ]
        ]
      ],
      [
        [
          "400m individual medley",
          []
        ],
        [
          "4:34.61",
          []
        ],
        [
          "Marcelo Acosta",
          [
            "/wiki/Marcelo_Acosta"
          ]
        ],
        [
          "El Salvador",
          [
            "/wiki/El_Salvador"
          ]
        ],
        [
          "1 July 2018",
          []
        ],
        [
          "XXXI CCCAN",
          []
        ],
        [
          "Savaneta , Aruba",
          [
            "/wiki/Savaneta"
          ]
        ]
      ],
      [
        [
          "4\u00d7100m freestyle relay",
          []
        ],
        [
          "3:29.49",
          []
        ],
        [
          "Jonathan Camacho Gabriel Huen Jesus Casanova Juan Morales",
          []
        ],
        [
          "Venezuela",
          [
            "/wiki/Venezuela"
          ]
        ],
        [
          "2 July 2009",
          []
        ],
        [
          "XXVI CCCAN",
          []
        ],
        [
          "Barquisimeto , Venezuela",
          [
            "/wiki/Barquisimeto"
          ]
        ]
      ],
      [
        [
          "4\u00d7200m freestyle relay",
          []
        ],
        [
          "7:42.00",
          []
        ],
        [
          "G. Ya\u00f1ez Jacobo Fraire Ch . Iniestas R. Morales",
          []
        ],
        [
          "Mexico",
          [
            "/wiki/Mexico"
          ]
        ],
        [
          "July 1999",
          []
        ],
        [
          "XXI CCCAN",
          []
        ],
        [
          "Medell\u00edn , Colombia",
          [
            "/wiki/Medell\u00edn"
          ]
        ]
      ],
      [
        [
          "4\u00d7100m medley relay",
          []
        ],
        [
          "3:54.84",
          []
        ],
        [
          "( 58.78 ) Jabari Baptiste ( 1:06.68 ) Tariq Lashley ( 58.25 ) Christian Awah ( 51.13 ) Joshua Romany",
          []
        ],
        [
          "Trinidad and Tobago",
          [
            "/wiki/Trinidad_and_Tobago"
          ]
        ],
        [
          "2 July 2017",
          []
        ],
        [
          "XXX CCCAN",
          []
        ],
        [
          "Couva , Trinidad and Tobago",
          [
            "/wiki/Couva"
          ]
        ]
      ]
    ],
    "section_title": "Boys ( 18 & Over )",
    "section_text": "",
    "uid": "List_of_Central_American_and_Caribbean_Championships_records_in_swimming_9",
    "intro": "The Central American and Caribbean Championships records in swimming are the fastest ever performances of swimmers from the Caribbean and Central American region, which are recognised and ratified by the CCCAN. All times are swum in a long-course (50m) pool. All records were set in finals unless noted otherwise. All times are swum in a long-course (50m) pool."
  },
  "National_Register_of_Historic_Places_listings_in_Mower_County,_Minnesota_0": {
    "url": "https://en.wikipedia.org/wiki/National_Register_of_Historic_Places_listings_in_Mower_County,_Minnesota",
    "title": "National Register of Historic Places listings in Mower County, Minnesota",
    "header": [
      [
        "",
        []
      ],
      [
        "Name on the Register",
        []
      ],
      [
        "Date listed",
        []
      ],
      [
        "Location",
        []
      ],
      [
        "City or town",
        []
      ],
      [
        "Description",
        []
      ]
    ],
    "data": [
      [
        [
          "1",
          []
        ],
        [
          "Booth Post No . 130-Grand Army of the Republic Hall",
          [
            "/wiki/Grand_Army_of_the_Republic_Hall_(Grand_Meadow,_Minnesota)"
          ]
        ],
        [
          "June 13 , 1986 ( # 86001278 )",
          []
        ],
        [
          "S. Main St. between 1st and 2nd Sts . 43\u00b042\u203215\u2033N 92\u00b034\u203223\u2033W / 43.704303\u00b0N 92.573035\u00b0W / 43.704303 ; -92.573035 ( Booth Post No . 130-Grand Army of the Republic Hall )",
          []
        ],
        [
          "Grand Meadow",
          [
            "/wiki/Grand_Meadow,_Minnesota"
          ]
        ],
        [
          "Rare surviving example of an inexpensive pattern clubhouse and one of Minnesota 's only two remaining Grand Army of the Republic halls , built in 1891",
          [
            "/wiki/Pattern_book",
            "/wiki/Grand_Army_of_the_Republic"
          ]
        ]
      ],
      [
        [
          "2",
          []
        ],
        [
          "Bridge No . 5388 ( Bridge No . R0529 )",
          []
        ],
        [
          "June 26 , 1998 ( # 98000718 )",
          []
        ],
        [
          "Spanning the Little Ohio River on 130th Street 43\u00b031\u203256\u2033N 92\u00b031\u203207\u2033W / 43.532326\u00b0N 92.518718\u00b0W / 43.532326 ; -92.518718 ( Bridge No . 5388 ( Bridge No . R0529 ) )",
          []
        ],
        [
          "Le Roy Township",
          [
            "/wiki/Le_Roy_Township,_Mower_County,_Minnesota"
          ]
        ],
        [
          "Longest , most advanced example of the state 's standardized Warren pony truss bridges , built in Meeker County in 1935 , removed in 2009 , and installed at current location in Lake Louise State Park in 2012",
          [
            "/wiki/Warren_truss",
            "/wiki/Pony_truss",
            "/wiki/Meeker_County,_Minnesota",
            "/wiki/Lake_Louise_State_Park"
          ]
        ]
      ],
      [
        [
          "3",
          []
        ],
        [
          "Cook-Hormel House",
          [
            "/wiki/Hormel_Historic_Home"
          ]
        ],
        [
          "August 19 , 1982 ( # 82002989 )",
          []
        ],
        [
          "208 4th Ave. NW . 43\u00b040\u203213\u2033N 92\u00b058\u203237\u2033W / 43.670186\u00b0N 92.977062\u00b0W / 43.670186 ; -92.977062 ( Cook-Hormel House )",
          []
        ],
        [
          "Austin",
          [
            "/wiki/Austin,_Minnesota"
          ]
        ],
        [
          "One of Austin 's most distinctive houses , built in 1871 for mayor and businessman John Cook ( 1823-1892 ) and extensively remodeled in 1902 by Hormel Foods founder George A. Hormel ( 1860-1946 ) . Now the Hormel Historic Home museum and event venue",
          [
            "/wiki/Hormel_Foods",
            "/wiki/George_A._Hormel"
          ]
        ]
      ],
      [
        [
          "4",
          []
        ],
        [
          "Exchange State Bank",
          [
            "/wiki/Exchange_State_Bank"
          ]
        ],
        [
          "June 10 , 1975 ( # 75000997 )",
          []
        ],
        [
          "105 Main St. N. 43\u00b042\u203221\u2033N 92\u00b034\u203223\u2033W / 43.705955\u00b0N 92.573082\u00b0W / 43.705955 ; -92.573082 ( Exchange State Bank )",
          []
        ],
        [
          "Grand Meadow",
          [
            "/wiki/Grand_Meadow,_Minnesota"
          ]
        ],
        [
          "1910 Prairie School bank , the first major collaboration between architects William Gray Purcell and George Grant Elmslie and the prototype of a string of such buildings designed by their firm",
          [
            "/wiki/Prairie_School",
            "/wiki/William_Gray_Purcell",
            "/wiki/George_Grant_Elmslie"
          ]
        ]
      ],
      [
        [
          "5",
          []
        ],
        [
          "First National Bank of Adams",
          [
            "/wiki/First_National_Bank_of_Adams"
          ]
        ],
        [
          "March 20 , 1986 ( # 86000442 )",
          []
        ],
        [
          "322 Main St. 43\u00b033\u203256\u2033N 92\u00b043\u203209\u2033W / 43.565603\u00b0N 92.719068\u00b0W / 43.565603 ; -92.719068 ( First National Bank of Adams )",
          []
        ],
        [
          "Adams",
          [
            "/wiki/Adams,_Minnesota"
          ]
        ],
        [
          "The last of four small Prairie School banks designed by Purcell & Elmslie , built in 1924 . Also noted for an interior mural by artist John W. Norton ( 1876-1934 )",
          [
            "/wiki/Prairie_School",
            "/wiki/Purcell_&_Elmslie",
            "/wiki/John_W._Norton"
          ]
        ]
      ],
      [
        [
          "6",
          []
        ],
        [
          "First State Bank of Le Roy",
          [
            "/wiki/First_State_Bank_of_Le_Roy"
          ]
        ],
        [
          "March 20 , 1986 ( # 86000445 )",
          []
        ],
        [
          "Main St. and Broadway 43\u00b030\u203236\u2033N 92\u00b030\u203214\u2033W / 43.509892\u00b0N 92.503885\u00b0W / 43.509892 ; -92.503885 ( First State Bank of Le Roy )",
          []
        ],
        [
          "Le Roy",
          [
            "/wiki/Le_Roy,_Minnesota"
          ]
        ],
        [
          "Purcell & Elmslie 's smallest Prairie School bank , built in 1914 with innovations inspired by a very limited budget",
          [
            "/wiki/Purcell_&_Elmslie",
            "/wiki/Prairie_School"
          ]
        ]
      ],
      [
        [
          "7",
          []
        ],
        [
          "Freund Store",
          []
        ],
        [
          "April 24 , 1986 ( # 86000867 )",
          []
        ],
        [
          "County Highway 7 43\u00b030\u203219\u2033N 92\u00b046\u203208\u2033W / 43.505239\u00b0N 92.768957\u00b0W / 43.505239 ; -92.768957 ( Freund Store )",
          []
        ],
        [
          "Johnsburg",
          [
            "/wiki/Johnsburg,_Minnesota"
          ]
        ],
        [
          "1895 general store with an upper-level meeting hall and attached residence ; the community 's commercial and social hub through three generations of family ownership until 1967",
          []
        ]
      ],
      [
        [
          "8",
          []
        ],
        [
          "Grand Meadow Quarry Archeological District",
          [
            "/wiki/Grand_Meadow_Quarry_Archeological_District"
          ]
        ],
        [
          "April 8 , 1994 ( # 94000345 )",
          []
        ],
        [
          "Address restricted",
          []
        ],
        [
          "Grand Meadow vicinity",
          [
            "/wiki/Grand_Meadow,_Minnesota"
          ]
        ],
        [
          "Various chert quarrying sites used to make stone tools c. 8000 BCE-1600 CE",
          [
            "/wiki/Chert"
          ]
        ]
      ],
      [
        [
          "9",
          []
        ],
        [
          "LeRoy Public Library",
          [
            "/wiki/LeRoy_Public_Library"
          ]
        ],
        [
          "March 20 , 1986 ( # 86000447 )",
          []
        ],
        [
          "605 N. Broadway 43\u00b030\u203241\u2033N 92\u00b030\u203214\u2033W / 43.511254\u00b0N 92.503869\u00b0W / 43.511254 ; -92.503869 ( LeRoy Public Library )",
          []
        ],
        [
          "Le Roy",
          [
            "/wiki/Le_Roy,_Minnesota"
          ]
        ],
        [
          "1915 Neoclassical library , Mower County 's only intact example in the Carnegie library vein , though founded in this case through the grassroots efforts of a local women 's club",
          [
            "/wiki/Neoclassical_architecture",
            "/wiki/Carnegie_library"
          ]
        ]
      ],
      [
        [
          "10",
          []
        ],
        [
          "Paramount Theater",
          [
            "/wiki/Paramount_Theater_(Austin,_Minnesota)"
          ]
        ],
        [
          "October 23 , 1986 ( # 86002906 )",
          []
        ],
        [
          "125 4th Ave. NE . 43\u00b040\u203213\u2033N 92\u00b058\u203225\u2033W / 43.670173\u00b0N 92.973561\u00b0W / 43.670173 ; -92.973561 ( Paramount Theater )",
          []
        ],
        [
          "Austin",
          [
            "/wiki/Austin,_Minnesota"
          ]
        ],
        [
          "1929 movie theater , the only atmospheric theater and commercial use of Spanish Colonial Revival architecture in Mower County , and a unique work of Ellerbe & Co",
          [
            "/wiki/Atmospheric_theatre",
            "/wiki/Spanish_Colonial_Revival_architecture",
            "/wiki/Ellerbe_&_Co."
          ]
        ]
      ],
      [
        [
          "11",
          []
        ],
        [
          "Arthur W. Wright House",
          []
        ],
        [
          "March 20 , 1986 ( # 86000441 )",
          []
        ],
        [
          "300 4th Ave. NW . 43\u00b040\u203213\u2033N 92\u00b058\u203239\u2033W / 43.67019\u00b0N 92.977605\u00b0W / 43.67019 ; -92.977605 ( Arthur W. Wright House )",
          []
        ],
        [
          "Austin",
          [
            "/wiki/Austin,_Minnesota"
          ]
        ],
        [
          "House built sometime between 1866 and 1874 ; the earliest and most intact example of Italianate architecture in Mower County",
          [
            "/wiki/Italianate_architecture"
          ]
        ]
      ]
    ],
    "section_title": "Current listings",
    "section_text": "Map all coordinates using : OpenStreetMap Download coordinates as : KML \u00b7 GPX",
    "uid": "National_Register_of_Historic_Places_listings_in_Mower_County,_Minnesota_0",
    "intro": "This is a list of the National Register of Historic Places listings in Mower County, Minnesota. It is intended to be a complete list of the properties and districts on the National Register of Historic Places in Mower County, Minnesota, United States. The locations of National Register properties and districts for which the latitude and longitude coordinates are included below, may be seen in an online map. There are 11 properties and districts listed on the National Register in the county."
  }
}