{
  "List_of_Cultural_Properties_of_Japan_-_archaeological_materials_(Wakayama)_1": {
    "url": "https://en.wikipedia.org/wiki/List_of_Cultural_Properties_of_Japan_-_archaeological_materials_(Wakayama)",
    "title": "List of Cultural Properties of Japan - archaeological materials (Wakayama)",
    "header": [
      [
        "Property",
        []
      ],
      [
        "Date",
        []
      ],
      [
        "Municipality",
        []
      ],
      [
        "Ownership",
        []
      ],
      [
        "Ref",
        []
      ]
    ],
    "data": [
      [
        [
          "Excavated Artefacts from Shakanokoshi Kofun \u8eca\u99d5\u4e4b\u53e4\u5740\u53e4\u58b3 \u51fa\u571f\u54c1 Shakanokoshi kofun shutsudo hin",
          []
        ],
        [
          "Kofun period",
          [
            "/wiki/Kofun_period"
          ]
        ],
        [
          "Wakayama",
          [
            "/wiki/Wakayama_(city)"
          ]
        ],
        [
          "Wakayama City Board of Education",
          []
        ],
        [
          "[ 16 ]",
          []
        ]
      ],
      [
        [
          "Arimoto D\u014dtaku \u6709\u672c\u9285\u9438 Arimoto d\u014dtaku",
          [
            "/wiki/D\u014dtaku"
          ]
        ],
        [
          "Yayoi period",
          [
            "/wiki/Yayoi_period"
          ]
        ],
        [
          "Wakayama",
          [
            "/wiki/Wakayama_(city)"
          ]
        ],
        [
          "Wakayama Prefecture Kii-fudoki-no-oka Museum of Archaeology and Folklore",
          []
        ],
        [
          "[ 17 ]",
          []
        ]
      ],
      [
        [
          "D\u014dtaku Excavated from \u014cta-Kuroda Site \u592a\u7530\u30fb\u9ed2\u7530\u907a\u8de1\u51fa\u571f\u9285\u9438 \u014cta\u30fbKuroda iseki shutsudo d\u014dtaku",
          [
            "/wiki/D\u014dtaku"
          ]
        ],
        [
          "Yayoi period",
          [
            "/wiki/Yayoi_period"
          ]
        ],
        [
          "Wakayama",
          [
            "/wiki/Wakayama_(city)"
          ]
        ],
        [
          "Wakayama City Museum",
          []
        ],
        [
          "[ 18 ]",
          []
        ]
      ],
      [
        [
          "Excavated Artefacts from Suda Hachiman Jinja Sutra Mound \u9685\u7530\u516b\u5e61\u795e\u793e \u7d4c\u585a\u51fa\u571f\u54c1 Suda Hachiman Jinja ky\u014dzuka shutsudo hin",
          []
        ],
        [
          "Heian period",
          [
            "/wiki/Heian_period"
          ]
        ],
        [
          "Hashimoto",
          [
            "/wiki/Hashimoto,_Wakayama"
          ]
        ],
        [
          "Hashimoto City Board of Education",
          []
        ],
        [
          "[ 19 ]",
          []
        ]
      ],
      [
        [
          "Mirrors with Flower Patterns \u5185\u884c\u82b1\u6587\u93e1 naik\u014d kamon ky\u014d",
          []
        ],
        [
          "Han dynasty",
          [
            "/wiki/Han_dynasty"
          ]
        ],
        [
          "Arida",
          [
            "/wiki/Arida,_Wakayama"
          ]
        ],
        [
          "Enman-ji ( \u5186\u6e80\u5bfa )",
          []
        ],
        [
          "[ 20 ]",
          []
        ]
      ],
      [
        [
          "Noi D\u014dtaku \u91ce\u4e95\u9285\u9438 Noi d\u014dtaku",
          [
            "/wiki/D\u014dtaku"
          ]
        ],
        [
          "Yayoi period",
          [
            "/wiki/Yayoi_period"
          ]
        ],
        [
          "Wakayama",
          [
            "/wiki/Wakayama_(city)"
          ]
        ],
        [
          "private ( kept at Wakayama Prefecture Kii-fudoki-no-oka Museum of Archaeology and Folklore )",
          []
        ],
        [
          "[ 21 ]",
          []
        ]
      ],
      [
        [
          "Excavated Artefacts from the Former Kibi Junior High School Playground \u65e7\u5409\u5099\u4e2d\u5b66\u6821\u6821\u5ead\u907a\u8de1\u51fa\u571f\u54c1 ky\u016b-Kibi ch\u016bgakk\u014d k\u014dtei iseki shutsudo hin",
          []
        ],
        [
          "Yayoi Period",
          [
            "/wiki/Yayoi_period"
          ]
        ],
        [
          "Aridagawa",
          [
            "/wiki/Aridagawa,_Wakayama"
          ]
        ],
        [
          "Aridagawa Regional Exchange Centre ( \u6709\u7530\u5ddd\u753a\u5730\u57df\u4ea4\u6d41\u30bb\u30f3\u30bf\u30fc )",
          []
        ],
        [
          "[ 22 ]",
          []
        ]
      ],
      [
        [
          "Yariganna Mould and Yayoi Ceramics Excavated from Katada Site \u5805\u7530\u907a\u8de1\u51fa\u571f\u30e4\u30ea\u30ac\u30f3\u30ca\u92f3\u578b\u9644\u5f25\u751f\u571f\u5668 Katada iseki shutsudo yariganna igata tsuketari Yayoi doki",
          [
            "/wiki/Japanese_plane",
            "/wiki/Molding_(process)"
          ]
        ],
        [
          "Yayoi Period",
          [
            "/wiki/Yayoi_period"
          ]
        ],
        [
          "Gob\u014d",
          [
            "/wiki/Gob\u014d,_Wakayama"
          ]
        ],
        [
          "Gob\u014d City Museum of History and Folklore ( \u5fa1\u574a\u5e02\u6b74\u53f2\u6c11\u4fd7\u8cc7\u6599\u9928 )",
          []
        ],
        [
          "[ 23 ]",
          []
        ]
      ],
      [
        [
          "Excavated Artefacts from Iwauchi Tumuli 1 and 3 \u5ca9\u5185\uff11\u53f7\u58b3\u30fb\uff13\u53f7\u58b3\u51fa\u571f\u907a\u7269 Iwauchi 1 g\u014dfun 3 g\u014dfun shutsudo ibutsu",
          []
        ],
        [
          "Kofun Period",
          [
            "/wiki/Kofun_period"
          ]
        ],
        [
          "Gob\u014d",
          [
            "/wiki/Gob\u014d,_Wakayama"
          ]
        ],
        [
          "Gob\u014d City Museum of History and Folklore ( \u5fa1\u574a\u5e02\u6b74\u53f2\u6c11\u4fd7\u8cc7\u6599\u9928 )",
          []
        ],
        [
          "[ 24 ]",
          []
        ]
      ],
      [
        [
          "D\u014dtaku \u9285\u9438 d\u014dtaku",
          [
            "/wiki/D\u014dtaku"
          ]
        ],
        [
          "Yayoi period",
          [
            "/wiki/Yayoi_period"
          ]
        ],
        [
          "Hidakagawa",
          [
            "/wiki/Hidakagawa,_Wakayama"
          ]
        ],
        [
          "D\u014dj\u014d-ji",
          [
            "/wiki/D\u014dj\u014d-ji"
          ]
        ],
        [
          "[ 25 ]",
          []
        ]
      ],
      [
        [
          "Yamadadai D\u014dtaku \u5c71\u7530\u4ee3\u9285\u9438 Yamadadai d\u014dtaku",
          [
            "/wiki/D\u014dtaku"
          ]
        ],
        [
          "Yayoi period",
          [
            "/wiki/Yayoi_period"
          ]
        ],
        [
          "Tanabe",
          [
            "/wiki/Tanabe,_Wakayama"
          ]
        ],
        [
          "Tanabe City Board of Education ( kept at Tanabe City Museum of History and Folklore ( \u7530\u8fba\u5e02\u6b74\u53f2\u6c11\u4fd7\u8cc7\u6599\u9928 ) )",
          []
        ],
        [
          "[ 26 ]",
          []
        ]
      ],
      [
        [
          "Mount Kamikura D\u014dtaku \u795e\u5009\u5c71\u9285\u9438 Kamikurayama d\u014dtaku",
          [
            "/wiki/D\u014dtaku"
          ]
        ],
        [
          "Yayoi period",
          [
            "/wiki/Yayoi_period"
          ]
        ],
        [
          "Shing\u016b",
          [
            "/wiki/Shing\u016b,_Wakayama"
          ]
        ],
        [
          "Kumano Hayatama Taisha",
          [
            "/wiki/Kumano_Hayatama_Taisha"
          ]
        ],
        [
          "[ 27 ]",
          []
        ]
      ],
      [
        [
          "Excavated Artefacts from Asuka Jinja Precinct \u718a\u91ce\u963f\u9808\u8cc0\u795e\u793e\u5883\u5185\u51fa\u571f\u54c1 Kumano Asuka Jinja keidai shutsudo hin",
          []
        ],
        [
          "Heian to Muromachi period",
          [
            "/wiki/Heian_period",
            "/wiki/Muromachi_period"
          ]
        ],
        [
          "Shing\u016b",
          [
            "/wiki/Shing\u016b,_Wakayama"
          ]
        ],
        [
          "Asuka Jinja ( \u963f\u9808\u8cc0\u795e\u793e ) ( kept at Shing\u016b City Museum of History and Folklore ( \u65b0\u5bae\u5e02\u7acb\u6b74\u53f2\u6c11\u4fd7\u8cc7\u6599\u9928 ) )",
          []
        ],
        [
          "[ 28 ]",
          []
        ]
      ],
      [
        [
          "Excavated Artefacts from the Hall of Emperor Kazan \u82b1\u5c71\u6cd5\u7687\u5fa1\u7c60\u6240\u51fa\u571f\u5fa1\u5668\u7269 Hanayama H\u014d\u014d gokagosho shutsudo okibutsu",
          [
            "/wiki/Emperor_Kazan"
          ]
        ],
        [
          "Kamakura period",
          [
            "/wiki/Kamakura_period"
          ]
        ],
        [
          "Nachikatsuura",
          [
            "/wiki/Nachikatsuura"
          ]
        ],
        [
          "Kumano Nachi Taisha",
          [
            "/wiki/Kumano_Nachi_Taisha"
          ]
        ],
        [
          "[ 29 ]",
          []
        ]
      ],
      [
        [
          "Excavated Artefacts from Nachisan Sutra Mound \u90a3\u667a\u5c71\u7d4c\u585a\u51fa\u571f\u54c1 Nachisan ky\u014dzuka shutsudo hin",
          [
            "/wiki/Sutra_mound"
          ]
        ],
        [
          "late Heian to Edo period",
          [
            "/wiki/Heian_period",
            "/wiki/Edo_period"
          ]
        ],
        [
          "Nachikatsuura",
          [
            "/wiki/Nachikatsuura"
          ]
        ],
        [
          "Kumano Nachi Taisha",
          [
            "/wiki/Kumano_Nachi_Taisha"
          ]
        ],
        [
          "[ 30 ]",
          []
        ]
      ],
      [
        [
          "Excavated Artefacts from Nachisan Sutra Mound \u90a3\u667a\u5c71\u7d4c\u585a\u51fa\u571f\u54c1 Nachisan ky\u014dzuka shutsudo hin",
          [
            "/wiki/Sutra_mound"
          ]
        ],
        [
          "Heian to Kamakura period",
          [
            "/wiki/Heian_period",
            "/wiki/Kamakura_period"
          ]
        ],
        [
          "Nachikatsuura",
          [
            "/wiki/Nachikatsuura"
          ]
        ],
        [
          "Seiganto-ji",
          [
            "/wiki/Seiganto-ji"
          ]
        ],
        [
          "[ 31 ]",
          []
        ]
      ]
    ],
    "section_title": "Prefectural Cultural Properties",
    "section_text": "As of 26 February 2014 , sixteen properties have been designated at a prefectural level . [ 4 ] [ 6 ]",
    "uid": "List_of_Cultural_Properties_of_Japan_-_archaeological_materials_(Wakayama)_1",
    "intro": "This list is of the Cultural Properties of Japan designated in the category of for the Prefecture of Wakayama."
  },
  "List_of_United_States_representatives_expelled,_censured,_or_reprimanded_1": {
    "url": "https://en.wikipedia.org/wiki/List_of_United_States_representatives_expelled,_censured,_or_reprimanded",
    "title": "List of United States representatives expelled, censured, or reprimanded",
    "header": [
      [
        "Year",
        []
      ],
      [
        "Representative",
        []
      ],
      [
        "Party",
        []
      ],
      [
        "State",
        []
      ],
      [
        "Details",
        []
      ]
    ],
    "data": [
      [
        [
          "1832",
          []
        ],
        [
          "William Stanbery",
          [
            "/wiki/William_Stanbery"
          ]
        ],
        [
          "National Republican",
          [
            "/wiki/National_Republican_Party"
          ]
        ],
        [
          "Ohio",
          [
            "/wiki/Ohio"
          ]
        ],
        [
          "Insulting the Speaker of the House",
          []
        ]
      ],
      [
        [
          "1842",
          []
        ],
        [
          "Joshua Giddings",
          [
            "/wiki/Joshua_Reed_Giddings"
          ]
        ],
        [
          "Whig Party",
          [
            "/wiki/Whig_Party_(United_States)"
          ]
        ],
        [
          "Ohio",
          [
            "/wiki/Ohio"
          ]
        ],
        [
          "Introduced anti-slavery resolution deemed to be incendiary . Violated the gag rule prohibiting discussion of slavery",
          [
            "/wiki/Gag_rule_(United_States)"
          ]
        ]
      ],
      [
        [
          "1856",
          []
        ],
        [
          "Laurence M. Keitt",
          [
            "/wiki/Laurence_M._Keitt"
          ]
        ],
        [
          "Democratic",
          [
            "/wiki/Democratic_Party_(United_States)"
          ]
        ],
        [
          "South Carolina",
          [
            "/wiki/South_Carolina"
          ]
        ],
        [
          "Assisted in the caning of Charles Sumner",
          [
            "/wiki/Caning_of_Charles_Sumner"
          ]
        ]
      ],
      [
        [
          "1864",
          []
        ],
        [
          "Benjamin G. Harris",
          [
            "/wiki/Benjamin_Gwinn_Harris"
          ]
        ],
        [
          "Democratic",
          []
        ],
        [
          "Maryland",
          [
            "/wiki/Maryland"
          ]
        ],
        [
          "Made statements supporting the Confederacy",
          []
        ]
      ],
      [
        [
          "1864",
          []
        ],
        [
          "Alexander Long",
          [
            "/wiki/Alexander_Long"
          ]
        ],
        [
          "Democratic",
          []
        ],
        [
          "Ohio",
          [
            "/wiki/Ohio"
          ]
        ],
        [
          "Supported recognition of the Confederacy",
          []
        ]
      ],
      [
        [
          "1866",
          []
        ],
        [
          "John W. Chanler",
          [
            "/wiki/John_Winthrop_Chanler"
          ]
        ],
        [
          "Democratic",
          []
        ],
        [
          "New York",
          []
        ],
        [
          "Insulted the House with resolution containing unparliamentary language",
          []
        ]
      ],
      [
        [
          "1866",
          []
        ],
        [
          "Lovell Rousseau",
          [
            "/wiki/Lovell_Rousseau"
          ]
        ],
        [
          "Unconditional Unionist",
          [
            "/wiki/Unconditional_Union_Party"
          ]
        ],
        [
          "Kentucky",
          []
        ],
        [
          "Assault of Rep. Josiah Grinnell",
          [
            "/wiki/Josiah_Bushnell_Grinnell"
          ]
        ]
      ],
      [
        [
          "1867",
          []
        ],
        [
          "John W. Hunter",
          [
            "/wiki/John_W._Hunter"
          ]
        ],
        [
          "Democratic",
          [
            "/wiki/Democratic_Party_(United_States)"
          ]
        ],
        [
          "New York",
          []
        ],
        [
          "Unparliamentary language",
          []
        ]
      ],
      [
        [
          "1868",
          []
        ],
        [
          "Fernando Wood",
          [
            "/wiki/Fernando_Wood"
          ]
        ],
        [
          "Democratic",
          []
        ],
        [
          "New York",
          []
        ],
        [
          "Unparliamentary language",
          []
        ]
      ],
      [
        [
          "1869",
          []
        ],
        [
          "Edward D. Holbrook",
          [
            "/wiki/Edward_Dexter_Holbrook"
          ]
        ],
        [
          "Democratic",
          []
        ],
        [
          "Idaho Territory",
          [
            "/wiki/Idaho_Territory"
          ]
        ],
        [
          "Unparliamentary language",
          []
        ]
      ],
      [
        [
          "1870",
          []
        ],
        [
          "Benjamin Whittemore",
          [
            "/wiki/Benjamin_Franklin_Whittemore"
          ]
        ],
        [
          "Republican",
          [
            "/wiki/Republican_Party_(United_States)"
          ]
        ],
        [
          "South Carolina",
          []
        ],
        [
          "Selling military academy appointments",
          []
        ]
      ],
      [
        [
          "1870",
          []
        ],
        [
          "John T. Deweese",
          [
            "/wiki/John_T._Deweese"
          ]
        ],
        [
          "Republican",
          []
        ],
        [
          "North Carolina",
          []
        ],
        [
          "Selling military academy appointments",
          []
        ]
      ],
      [
        [
          "1870",
          []
        ],
        [
          "Roderick Butler",
          [
            "/wiki/Roderick_R._Butler"
          ]
        ],
        [
          "Republican",
          []
        ],
        [
          "Tennessee",
          []
        ],
        [
          "Selling military academy appointments",
          []
        ]
      ],
      [
        [
          "1873",
          []
        ],
        [
          "Oakes Ames",
          [
            "/wiki/Oakes_Ames"
          ]
        ],
        [
          "Republican",
          []
        ],
        [
          "Massachusetts",
          []
        ],
        [
          "Prior involvement in Cr\u00e9dit Mobilier of America scandal",
          [
            "/wiki/Cr\u00e9dit_Mobilier_scandal"
          ]
        ]
      ],
      [
        [
          "1873",
          []
        ],
        [
          "James Brooks",
          [
            "/wiki/James_Brooks_(politician)"
          ]
        ],
        [
          "Democratic",
          []
        ],
        [
          "New York",
          []
        ],
        [
          "Prior involvement in Cr\u00e9dit Mobilier of America scandal",
          [
            "/wiki/Cr\u00e9dit_Mobilier_scandal"
          ]
        ]
      ],
      [
        [
          "1875",
          []
        ],
        [
          "John Y . Brown",
          [
            "/wiki/John_Y._Brown_(politician,_born_1835)"
          ]
        ],
        [
          "Democratic",
          []
        ],
        [
          "Kentucky",
          []
        ],
        [
          "Unparliamentary language",
          []
        ]
      ],
      [
        [
          "1890",
          []
        ],
        [
          "William D. Bynum",
          [
            "/wiki/William_D._Bynum"
          ]
        ],
        [
          "Democratic",
          []
        ],
        [
          "Indiana",
          []
        ],
        [
          "Unparliamentary language",
          []
        ]
      ],
      [
        [
          "1921",
          []
        ],
        [
          "Thomas L. Blanton",
          [
            "/wiki/Thomas_L._Blanton"
          ]
        ],
        [
          "Democratic",
          []
        ],
        [
          "Texas",
          []
        ],
        [
          "Unparliamentary language",
          []
        ]
      ],
      [
        [
          "1979",
          []
        ],
        [
          "Charles Diggs",
          [
            "/wiki/Charles_Diggs"
          ]
        ],
        [
          "Democratic",
          []
        ],
        [
          "Michigan",
          []
        ],
        [
          "Payroll fraud , mail fraud",
          []
        ]
      ],
      [
        [
          "1980",
          []
        ],
        [
          "Charles H. Wilson",
          [
            "/wiki/Charles_H._Wilson"
          ]
        ],
        [
          "Democratic",
          []
        ],
        [
          "California",
          []
        ],
        [
          "Improper use of campaign funds",
          []
        ]
      ]
    ],
    "section_title": "Censured Representatives",
    "section_text": "",
    "uid": "List_of_United_States_representatives_expelled,_censured,_or_reprimanded_1",
    "intro": "The United States Constitution (Article 1, Section 5) gives the House of Representatives the power to expel any member by a two-thirds vote. Expulsion of a Representative is rare: only five members of the House have been expelled in its history. Three of those five were expelled in 1861 for joining the Confederate States of America. However, the House has other, less severe measures with which to discipline members. Censure and reprimand are procedures in which the House may vote to express formal disapproval of a member's conduct. Only a simple majority vote is required. Members who are censured must stand in the well of the House chamber to receive a reading of the censure resolution. A reprimand was once considered synonymous with censure, but in 1976 the House defined a reprimand as a less severe punishment. Members who are reprimanded are not required to stand in the well of the house and have the resolution read to them."
  },
  "Template:2012_Summer_Olympics_United_States_women's_water_polo_team_roster_0": {
    "url": "https://en.wikipedia.org/wiki/Template:2012_Summer_Olympics_United_States_women's_water_polo_team_roster",
    "title": "Template:2012 Summer Olympics United States women's water polo team roster",
    "header": [
      [
        "\u2116",
        []
      ],
      [
        "Name",
        []
      ],
      [
        "Pos",
        []
      ],
      [
        "Height",
        []
      ],
      [
        "Weight",
        []
      ],
      [
        "Date of birth",
        []
      ],
      [
        "2012 club",
        []
      ]
    ],
    "data": [
      [
        [
          "1",
          []
        ],
        [
          "Elizabeth Armstrong",
          [
            "/wiki/Elizabeth_Armstrong"
          ]
        ],
        [
          "GK",
          []
        ],
        [
          "1.88 m ( 6 ft 2 in )",
          []
        ],
        [
          "77 kg ( 170 lb )",
          []
        ],
        [
          "31 January 1983",
          []
        ],
        [
          "Great Lakes WP Club",
          []
        ]
      ],
      [
        [
          "2",
          []
        ],
        [
          "Heather Petri",
          [
            "/wiki/Heather_Petri"
          ]
        ],
        [
          "D",
          []
        ],
        [
          "1.80 m ( 5 ft 11 in )",
          []
        ],
        [
          "73 kg ( 161 lb )",
          []
        ],
        [
          "13 June 1978",
          []
        ],
        [
          "New York Athletic Club",
          [
            "/wiki/New_York_Athletic_Club"
          ]
        ]
      ],
      [
        [
          "3",
          []
        ],
        [
          "Melissa Seidemann",
          [
            "/wiki/Melissa_Seidemann"
          ]
        ],
        [
          "CB",
          []
        ],
        [
          "1.83 m ( 6 ft 0 in )",
          []
        ],
        [
          "104 kg ( 229 lb )",
          []
        ],
        [
          "26 June 1990",
          []
        ],
        [
          "Stanford University",
          [
            "/wiki/Stanford_University"
          ]
        ]
      ],
      [
        [
          "4",
          []
        ],
        [
          "Brenda Villa",
          [
            "/wiki/Brenda_Villa"
          ]
        ],
        [
          "D",
          []
        ],
        [
          "1.63 m ( 5 ft 4 in )",
          []
        ],
        [
          "79 kg ( 174 lb )",
          []
        ],
        [
          "18 April 1980",
          []
        ],
        [
          "Orizzonte Catania",
          [
            "/wiki/AS_Orizzonte_Catania"
          ]
        ]
      ],
      [
        [
          "5",
          []
        ],
        [
          "Lauren Wenger",
          [
            "/wiki/Lauren_Wenger"
          ]
        ],
        [
          "D",
          []
        ],
        [
          "1.91 m ( 6 ft 3 in )",
          []
        ],
        [
          "77 kg ( 170 lb )",
          []
        ],
        [
          "11 March 1984",
          []
        ],
        [
          "New York Athletic Club",
          [
            "/wiki/New_York_Athletic_Club"
          ]
        ]
      ],
      [
        [
          "6",
          []
        ],
        [
          "Maggie Steffens",
          [
            "/wiki/Maggie_Steffens"
          ]
        ],
        [
          "CB",
          []
        ],
        [
          "1.75 m ( 5 ft 9 in )",
          []
        ],
        [
          "70 kg ( 154 lb )",
          []
        ],
        [
          "4 June 1993",
          []
        ],
        [
          "Diablo Water Polo",
          []
        ]
      ],
      [
        [
          "7",
          []
        ],
        [
          "Courtney Mathewson",
          [
            "/wiki/Courtney_Mathewson"
          ]
        ],
        [
          "D",
          []
        ],
        [
          "1.70 m ( 5 ft 7 in )",
          []
        ],
        [
          "71 kg ( 157 lb )",
          []
        ],
        [
          "14 September 1986",
          []
        ],
        [
          "New York Athletic Club",
          [
            "/wiki/New_York_Athletic_Club"
          ]
        ]
      ],
      [
        [
          "8",
          []
        ],
        [
          "Jessica Steffens",
          [
            "/wiki/Jessica_Steffens"
          ]
        ],
        [
          "CB",
          []
        ],
        [
          "1.83 m ( 6 ft 0 in )",
          []
        ],
        [
          "75 kg ( 165 lb )",
          []
        ],
        [
          "7 April 1987",
          []
        ],
        [
          "New York Athletic Club",
          [
            "/wiki/New_York_Athletic_Club"
          ]
        ]
      ],
      [
        [
          "9",
          []
        ],
        [
          "Elsie Windes",
          [
            "/wiki/Elsie_Windes"
          ]
        ],
        [
          "CB",
          []
        ],
        [
          "1.78 m ( 5 ft 10 in )",
          []
        ],
        [
          "70 kg ( 154 lb )",
          []
        ],
        [
          "17 June 1985",
          []
        ],
        [
          "Tualatin Hills WPC",
          []
        ]
      ],
      [
        [
          "10",
          []
        ],
        [
          "Kelly Rulon",
          [
            "/wiki/Kelly_Rulon"
          ]
        ],
        [
          "D",
          []
        ],
        [
          "1.78 m ( 5 ft 10 in )",
          []
        ],
        [
          "61 kg ( 134 lb )",
          []
        ],
        [
          "16 August 1984",
          []
        ],
        [
          "ASD Roma",
          []
        ]
      ],
      [
        [
          "11",
          []
        ],
        [
          "Annika Dries",
          [
            "/wiki/Annika_Dries"
          ]
        ],
        [
          "CF",
          []
        ],
        [
          "1.85 m ( 6 ft 1 in )",
          []
        ],
        [
          "88 kg ( 194 lb )",
          []
        ],
        [
          "10 April 1992",
          []
        ],
        [
          "Stanford University",
          [
            "/wiki/Stanford_University"
          ]
        ]
      ],
      [
        [
          "12",
          []
        ],
        [
          "Kami Craig",
          [
            "/wiki/Kami_Craig"
          ]
        ],
        [
          "CF",
          []
        ],
        [
          "1.80 m ( 5 ft 11 in )",
          []
        ],
        [
          "88 kg ( 194 lb )",
          []
        ],
        [
          "21 July 1987",
          []
        ],
        [
          "Santa Barbara WP Foundation",
          []
        ]
      ],
      [
        [
          "13",
          []
        ],
        [
          "Tumua Anae",
          [
            "/wiki/Tumua_Anae"
          ]
        ],
        [
          "GK",
          []
        ],
        [
          "1.80 m ( 5 ft 11 in )",
          []
        ],
        [
          "70 kg ( 154 lb )",
          []
        ],
        [
          "16 October 1988",
          []
        ],
        [
          "SoCal",
          [
            "/wiki/Southern_California"
          ]
        ]
      ]
    ],
    "section_title": "",
    "section_text": "The template takes two parameters , df ( date format , default dmy ) , which is passed to the dts template , and fs ( fontsize , default 100 ) . The following is the American roster in the women 's water polo tournament of the 2012 Summer Olympics . [ 1 ] viewtalk",
    "uid": "Template:2012_Summer_Olympics_United_States_women's_water_polo_team_roster_0",
    "intro": "The purpose of this template is to collect source text used in several articles in one place, in order to minimize maintenance and storage space. This is the American roster in the women's water polo tournament of the 2012 Summer Olympics . The template is typically used in two articles: the article covering United States at the 2012 Summer Olympics , and the article covering the rosters of all participating teams of the tournament. The template takes two parameters, df (date format, default dmy), which is passed to the dts template, and fs (fontsize, default 100). The following is the American roster in the women's water polo tournament of the 2012 Summer Olympics."
  }
}