{
  "National_Register_of_Historic_Places_listings_in_Berrien_County,_Michigan_0": {
    "url": "https://en.wikipedia.org/wiki/National_Register_of_Historic_Places_listings_in_Berrien_County,_Michigan",
    "title": "National Register of Historic Places listings in Berrien County, Michigan",
    "header": [
      [
        "",
        []
      ],
      [
        "Name on the Register",
        []
      ],
      [
        "Date listed",
        []
      ],
      [
        "Location",
        []
      ],
      [
        "City or town",
        []
      ]
    ],
    "data": [
      [
        [
          "1",
          []
        ],
        [
          "Avery Road-Galien River Bridge",
          [
            "/wiki/Avery_Road\u2013Galien_River_Bridge"
          ]
        ],
        [
          "December 17 , 1999 ( # 99001577 )",
          []
        ],
        [
          "Avery Rd . over the Galien River 41\u00b052\u203227\u2033N 86\u00b033\u203217\u2033W / 41.874167\u00b0N 86.554722\u00b0W / 41.874167 ; -86.554722 ( Avery Road-Galien River Bridge )",
          [
            "/wiki/Galien_River"
          ]
        ],
        [
          "Weesaw Township",
          [
            "/wiki/Weesaw_Township,_Michigan"
          ]
        ]
      ],
      [
        [
          "2",
          []
        ],
        [
          "Berrien Springs Courthouse",
          [
            "/wiki/Berrien_Springs_Courthouse"
          ]
        ],
        [
          "February 16 , 1970 ( # 70000265 )",
          []
        ],
        [
          "Corner of Union and Cass Sts . 41\u00b056\u203253\u2033N 86\u00b020\u203228\u2033W / 41.948056\u00b0N 86.341111\u00b0W / 41.948056 ; -86.341111 ( Berrien Springs Courthouse )",
          []
        ],
        [
          "Berrien Springs",
          [
            "/wiki/Berrien_Springs,_Michigan"
          ]
        ]
      ],
      [
        [
          "3",
          []
        ],
        [
          "Blossomland Bridge",
          [
            "/wiki/Blossomland_Bridge"
          ]
        ],
        [
          "December 17 , 1999 ( # 99001576 )",
          []
        ],
        [
          "M-63 over the St. Joseph River 42\u00b006\u203245\u2033N 86\u00b028\u203240\u2033W / 42.1125\u00b0N 86.477778\u00b0W / 42.1125 ; -86.477778 ( Blossomland Bridge )",
          [
            "/wiki/M-63_(Michigan_highway)",
            "/wiki/St._Joseph_River_(Lake_Michigan)"
          ]
        ],
        [
          "St. Joseph",
          [
            "/wiki/St._Joseph,_Michigan"
          ]
        ]
      ],
      [
        [
          "4",
          []
        ],
        [
          "Buchanan Downtown Historic District",
          [
            "/wiki/Buchanan_Downtown_Historic_District"
          ]
        ],
        [
          "September 2 , 2009 ( # 09000678 )",
          []
        ],
        [
          "Front Street , between 117 West and 256 East ; parts of Main Street , between 108 and 210-212 ; and 114 N. Oak Street 41\u00b049\u203239\u2033N 86\u00b021\u203237\u2033W / 41.8275\u00b0N 86.360278\u00b0W / 41.8275 ; -86.360278 ( Buchanan Downtown Historic District )",
          []
        ],
        [
          "Buchanan",
          [
            "/wiki/Buchanan,_Michigan"
          ]
        ]
      ],
      [
        [
          "5",
          []
        ],
        [
          "Buchanan North and West Neighborhoods Historic District",
          [
            "/wiki/Buchanan_North_and_West_Neighborhoods_Historic_District"
          ]
        ],
        [
          "November 30 , 2011 ( # 11000863 )",
          []
        ],
        [
          "Roughly bounded by Main , 4th , Chippewa , W. Front , S. Detroit , Chicago , Clark , Roe , and Charles Sts . 41\u00b049\u203242\u2033N 86\u00b021\u203254\u2033W / 41.828378\u00b0N 86.36495\u00b0W / 41.828378 ; -86.36495 ( Buchanan North and West Neighborhoods Historic District )",
          []
        ],
        [
          "Buchanan",
          [
            "/wiki/Buchanan,_Michigan"
          ]
        ]
      ],
      [
        [
          "6",
          []
        ],
        [
          "Henry A. Chapin House",
          [
            "/wiki/Henry_A._Chapin_House"
          ]
        ],
        [
          "July 30 , 1981 ( # 81000304 )",
          []
        ],
        [
          "508 E. Main St. 41\u00b049\u203245\u2033N 86\u00b015\u203212\u2033W / 41.829167\u00b0N 86.253333\u00b0W / 41.829167 ; -86.253333 ( Henry A. Chapin House )",
          []
        ],
        [
          "Niles",
          [
            "/wiki/Niles,_Michigan"
          ]
        ]
      ],
      [
        [
          "7",
          []
        ],
        [
          "Rock S. Edwards Farmstead",
          [
            "/wiki/Rock_S._Edwards_Farmstead"
          ]
        ],
        [
          "July 21 , 1995 ( # 95000868 )",
          []
        ],
        [
          "3503 Edwards Rd . ( Sodus Pkwy . ) 42\u00b003\u203210\u2033N 86\u00b022\u203221\u2033W / 42.052704\u00b0N 86.372606\u00b0W / 42.052704 ; -86.372606 ( Rock S. Edwards Farmstead )",
          []
        ],
        [
          "Sodus Township",
          [
            "/wiki/Sodus_Township,_Michigan"
          ]
        ]
      ],
      [
        [
          "8",
          []
        ],
        [
          "Fidelity Building",
          [
            "/wiki/Fidelity_Building_(Benton_Harbor,_Michigan)"
          ]
        ],
        [
          "February 14 , 2002 ( # 02000042 )",
          []
        ],
        [
          "162 Pipestone St. 42\u00b006\u203252\u2033N 86\u00b027\u203215\u2033W / 42.114444\u00b0N 86.454167\u00b0W / 42.114444 ; -86.454167 ( Fidelity Building )",
          []
        ],
        [
          "Benton Harbor",
          [
            "/wiki/Benton_Harbor,_Michigan"
          ]
        ]
      ],
      [
        [
          "9",
          []
        ],
        [
          "Fort St. Joseph Site",
          [
            "/wiki/Fort_St._Joseph_(Niles,_Michigan)"
          ]
        ],
        [
          "May 24 , 1973 ( # 73000944 )",
          []
        ],
        [
          "Bond St. along the St. Joseph River 41\u00b048\u203254\u2033N 86\u00b015\u203239\u2033W / 41.815000\u00b0N 86.260833\u00b0W / 41.815000 ; -86.260833 ( Fort St. Joseph Site )",
          [
            "/wiki/St._Joseph_River_(Lake_Michigan)"
          ]
        ],
        [
          "Niles",
          [
            "/wiki/Niles,_Michigan"
          ]
        ]
      ],
      [
        [
          "10",
          []
        ],
        [
          "Lakeside Inn",
          [
            "/wiki/Lakeside_Inn_(Lakeside,_Michigan)"
          ]
        ],
        [
          "July 16 , 2009 ( # 09000521 )",
          []
        ],
        [
          "15251 Lakeshore Rd . 41\u00b050\u203249\u2033N 86\u00b040\u203232\u2033W / 41.846908\u00b0N 86.675422\u00b0W / 41.846908 ; -86.675422 ( Lakeside Inn )",
          []
        ],
        [
          "Lakeside",
          [
            "/wiki/Lakeside,_Berrien_County,_Michigan"
          ]
        ]
      ],
      [
        [
          "11",
          []
        ],
        [
          "Ring Lardner House",
          [
            "/wiki/Ring_Lardner_House"
          ]
        ],
        [
          "March 16 , 1972 ( # 72000595 )",
          []
        ],
        [
          "519 Bond St. 41\u00b049\u203222\u2033N 86\u00b015\u203217\u2033W / 41.822778\u00b0N 86.254722\u00b0W / 41.822778 ; -86.254722 ( Ring Lardner House )",
          []
        ],
        [
          "Niles",
          [
            "/wiki/Niles,_Michigan"
          ]
        ]
      ],
      [
        [
          "12",
          []
        ],
        [
          "Mary 's City of David",
          [
            "/wiki/House_of_David_(commune)"
          ]
        ],
        [
          "April 15 , 2009 ( # 09000201 )",
          []
        ],
        [
          "1158 E. Britain Ave. 42\u00b006\u203232\u2033N 86\u00b025\u203251\u2033W / 42.108783\u00b0N 86.430797\u00b0W / 42.108783 ; -86.430797 ( Mary 's City of David )",
          []
        ],
        [
          "Benton Charter Township",
          [
            "/wiki/Benton_Charter_Township,_Michigan"
          ]
        ]
      ],
      [
        [
          "13",
          []
        ],
        [
          "Moccasin Bluff Site",
          [
            "/wiki/Moccasin_Bluff_Site"
          ]
        ],
        [
          "April 13 , 1977 ( # 77000710 )",
          []
        ],
        [
          "Red Bud Trail 41\u00b051\u203220\u2033N 86\u00b022\u203200\u2033W / 41.855556\u00b0N 86.366667\u00b0W / 41.855556 ; -86.366667 ( Moccasin Bluff Site )",
          []
        ],
        [
          "Buchanan",
          [
            "/wiki/Buchanan,_Michigan"
          ]
        ]
      ],
      [
        [
          "14",
          []
        ],
        [
          "Niles Downtown Historic District",
          [
            "/wiki/Niles_Downtown_Historic_District"
          ]
        ],
        [
          "June 21 , 2007 ( # 07000568 )",
          []
        ],
        [
          "Sycamore , Main , and Cedar between Front and 5th 41\u00b049\u203247\u2033N 86\u00b015\u203222\u2033W / 41.829722\u00b0N 86.256111\u00b0W / 41.829722 ; -86.256111 ( Niles Downtown Historic District )",
          []
        ],
        [
          "Niles",
          [
            "/wiki/Niles,_Michigan"
          ]
        ]
      ],
      [
        [
          "15",
          []
        ],
        [
          "Niles Railroad Depot",
          [
            "/wiki/Niles_station"
          ]
        ],
        [
          "September 19 , 1979 ( # 09000085 )",
          []
        ],
        [
          "598 Dey St. 41\u00b050\u203214\u2033N 86\u00b015\u203208\u2033W / 41.837222\u00b0N 86.252222\u00b0W / 41.837222 ; -86.252222 ( Niles Railroad Depot )",
          []
        ],
        [
          "Niles",
          [
            "/wiki/Niles,_Michigan"
          ]
        ]
      ],
      [
        [
          "16",
          []
        ],
        [
          "Ninth District Lighthouse Depot",
          [
            "/wiki/Ninth_District_Lighthouse_Depot"
          ]
        ],
        [
          "December 2 , 1993 ( # 93001348 )",
          []
        ],
        [
          "128 N. Pier 42\u00b006\u203251\u2033N 86\u00b029\u203209\u2033W / 42.114167\u00b0N 86.485833\u00b0W / 42.114167 ; -86.485833 ( Ninth District Lighthouse Depot )",
          []
        ],
        [
          "St. Joseph",
          [
            "/wiki/St._Joseph,_Michigan"
          ]
        ]
      ],
      [
        [
          "17",
          []
        ],
        [
          "North Watervliet Road-Paw Paw Lake Outlet Bridge",
          [
            "/wiki/North_Watervliet_Road\u2013Paw_Paw_Lake_Outlet_Bridge"
          ]
        ],
        [
          "December 17 , 1999 ( # 99001575 )",
          []
        ],
        [
          "N. Watervliet Rd . over Paw Paw Lake outlet 42\u00b012\u203228\u2033N 86\u00b015\u203200\u2033W / 42.207778\u00b0N 86.25\u00b0W / 42.207778 ; -86.25 ( North Watervliet Road-Paw Paw Lake Outlet Bridge )",
          []
        ],
        [
          "Watervliet Township",
          [
            "/wiki/Watervliet_Township,_Michigan"
          ]
        ]
      ],
      [
        [
          "18",
          []
        ],
        [
          "Old Berrien County Courthouse Complex",
          [
            "/wiki/Old_Berrien_County_Courthouse_Complex"
          ]
        ],
        [
          "April 29 , 1982 ( # 82004941 )",
          []
        ],
        [
          "Roughly bounded by Cass , Kimmel , Madison , and Union Sts . 41\u00b056\u203253\u2033N 86\u00b020\u203228\u2033W / 41.948056\u00b0N 86.341111\u00b0W / 41.948056 ; -86.341111 ( Old Berrien County Courthouse Complex )",
          []
        ],
        [
          "Berrien Springs",
          [
            "/wiki/Berrien_Springs,_Michigan"
          ]
        ]
      ],
      [
        [
          "19",
          []
        ],
        [
          "Old US Post Office",
          [
            "/wiki/Old_U.S._Post_Office_(Niles,_Michigan)"
          ]
        ],
        [
          "September 12 , 1985 ( # 85002152 )",
          []
        ],
        [
          "322 E. Main St. 41\u00b049\u203246\u2033N 86\u00b016\u203202\u2033W / 41.829444\u00b0N 86.267222\u00b0W / 41.829444 ; -86.267222 ( Old US Post Office )",
          []
        ],
        [
          "Niles",
          [
            "/wiki/Niles,_Michigan"
          ]
        ]
      ],
      [
        [
          "20",
          []
        ],
        [
          "Paine Bank",
          [
            "/wiki/Paine_Bank"
          ]
        ],
        [
          "May 8 , 1973 ( # 73000945 )",
          []
        ],
        [
          "1008 Oak St. 41\u00b049\u203236\u2033N 86\u00b014\u203252\u2033W / 41.826667\u00b0N 86.247639\u00b0W / 41.826667 ; -86.247639 ( Paine Bank )",
          []
        ],
        [
          "Niles",
          [
            "/wiki/Niles,_Michigan"
          ]
        ]
      ]
    ],
    "section_title": "Current listings",
    "section_text": "",
    "uid": "National_Register_of_Historic_Places_listings_in_Berrien_County,_Michigan_0",
    "intro": "This is a list of the National Register of Historic Places listings in Berrien County, Michigan. This is intended to be a complete list of the properties and districts on the National Register of Historic Places in Berrien County, Michigan, United States. Latitude and longitude coordinates are provided for many National Register properties and districts; these locations may be seen together in a map. There are 30 properties and districts listed on the National Register in the county."
  },
  "List_of_members_of_the_National_Academy_of_Sciences_(Engineering_sciences)_0": {
    "url": "https://en.wikipedia.org/wiki/List_of_members_of_the_National_Academy_of_Sciences_(Engineering_sciences)",
    "title": "List of members of the National Academy of Sciences (Engineering sciences)",
    "header": [
      [
        "Name",
        []
      ],
      [
        "Institution",
        []
      ],
      [
        "Year",
        []
      ]
    ],
    "data": [
      [
        [
          "Jan Achenbach",
          [
            "/wiki/Jan_D._Achenbach"
          ]
        ],
        [
          "Northwestern University",
          [
            "/wiki/Northwestern_University"
          ]
        ],
        [
          "1992",
          []
        ]
      ],
      [
        [
          "Andreas Acrivos",
          [
            "/wiki/Andreas_Acrivos"
          ]
        ],
        [
          "City College of the City University of New York",
          [
            "/wiki/City_College_of_New_York"
          ]
        ],
        [
          "1991",
          []
        ]
      ],
      [
        [
          "Zhores Alferov",
          [
            "/wiki/Zhores_Alferov"
          ]
        ],
        [
          "Russian Academy of Sciences",
          [
            "/wiki/Russian_Academy_of_Sciences"
          ]
        ],
        [
          "1990",
          []
        ]
      ],
      [
        [
          "Neal Amundson",
          [
            "/wiki/Neal_Amundson"
          ]
        ],
        [
          "University of Houston",
          [
            "/wiki/University_of_Houston"
          ]
        ],
        [
          "1992",
          []
        ]
      ],
      [
        [
          "Frances Arnold",
          [
            "/wiki/Frances_Arnold"
          ]
        ],
        [
          "California Institute of Technology",
          [
            "/wiki/California_Institute_of_Technology"
          ]
        ],
        [
          "2008",
          []
        ]
      ],
      [
        [
          "Bishnu Atal",
          [
            "/wiki/Bishnu_S._Atal"
          ]
        ],
        [
          "University of Washington",
          [
            "/wiki/University_of_Washington"
          ]
        ],
        [
          "1993",
          []
        ]
      ],
      [
        [
          "David Auston",
          [
            "/wiki/David_Auston"
          ]
        ],
        [
          "University of California , Santa Barbara",
          [
            "/wiki/University_of_California,_Santa_Barbara"
          ]
        ],
        [
          "1991",
          []
        ]
      ],
      [
        [
          "Zden\u011bk Ba\u017eant",
          [
            "/wiki/Zden\u011bk_P._Ba\u017eant"
          ]
        ],
        [
          "Northwestern University",
          [
            "/wiki/Northwestern_University"
          ]
        ],
        [
          "2002",
          []
        ]
      ],
      [
        [
          "Manson Benedict ( d )",
          [
            "/wiki/Manson_Benedict"
          ]
        ],
        [
          "Massachusetts Institute of Technology",
          [
            "/wiki/Massachusetts_Institute_of_Technology"
          ]
        ],
        [
          "1956",
          []
        ]
      ],
      [
        [
          "R. Byron Bird",
          [
            "/wiki/Robert_Byron_Bird"
          ]
        ],
        [
          "University of Wisconsin-Madison",
          [
            "/wiki/University_of_Wisconsin\u2013Madison"
          ]
        ],
        [
          "1989",
          []
        ]
      ],
      [
        [
          "Leonid Brekhovskikh",
          [
            "/wiki/Leonid_Brekhovskikh"
          ]
        ],
        [
          "Russian Academy of Sciences",
          [
            "/wiki/Russian_Academy_of_Sciences"
          ]
        ],
        [
          "1991",
          []
        ]
      ],
      [
        [
          "Howard Brenner ( d )",
          [
            "/wiki/Howard_Brenner"
          ]
        ],
        [
          "Massachusetts Institute of Technology",
          [
            "/wiki/Massachusetts_Institute_of_Technology"
          ]
        ],
        [
          "2000",
          []
        ]
      ],
      [
        [
          "William Bridges",
          []
        ],
        [
          "California Institute of Technology",
          [
            "/wiki/California_Institute_of_Technology"
          ]
        ],
        [
          "1981",
          []
        ]
      ],
      [
        [
          "Norman Brooks",
          []
        ],
        [
          "California Institute of Technology",
          [
            "/wiki/California_Institute_of_Technology"
          ]
        ],
        [
          "1981",
          []
        ]
      ],
      [
        [
          "Harold Brown",
          [
            "/wiki/Harold_Brown_(Secretary_of_Defense)"
          ]
        ],
        [
          "Center for Strategic and International Studies",
          [
            "/wiki/Center_for_Strategic_and_International_Studies"
          ]
        ],
        [
          "1977",
          []
        ]
      ],
      [
        [
          "Robert A . Brown",
          [
            "/wiki/Robert_A._Brown"
          ]
        ],
        [
          "Boston University",
          [
            "/wiki/Boston_University"
          ]
        ],
        [
          "2001",
          []
        ]
      ],
      [
        [
          "Walter Brown",
          []
        ],
        [
          "Lehigh University",
          [
            "/wiki/Lehigh_University"
          ]
        ],
        [
          "1986",
          []
        ]
      ],
      [
        [
          "Arthur E. Bryson",
          [
            "/wiki/Arthur_E._Bryson"
          ]
        ],
        [
          "Stanford University",
          [
            "/wiki/Stanford_University"
          ]
        ],
        [
          "1973",
          []
        ]
      ],
      [
        [
          "Robert Byer",
          []
        ],
        [
          "Stanford University",
          [
            "/wiki/Stanford_University"
          ]
        ],
        [
          "2000",
          []
        ]
      ],
      [
        [
          "Federico Capasso",
          [
            "/wiki/Federico_Capasso"
          ]
        ],
        [
          "Harvard University",
          [
            "/wiki/Harvard_University"
          ]
        ],
        [
          "1995",
          []
        ]
      ]
    ],
    "section_title": "",
    "section_text": "This list is a subsection of the List of members of the National Academy of Sciences , which includes approximately 2,000 members and 350 foreign associates of the United States National Academy of Sciences , each of whom is affiliated with one of 31 disciplinary sections . Each person 's name , primary institution , and election year are given . The designation ( d ) after the name means the member is deceased .",
    "uid": "List_of_members_of_the_National_Academy_of_Sciences_(Engineering_sciences)_0",
    "intro": "The designation (d) after the name means the member is deceased."
  },
  "List_of_Central_American_and_Caribbean_Championships_in_Athletics_records_2": {
    "url": "https://en.wikipedia.org/wiki/List_of_Central_American_and_Caribbean_Championships_in_Athletics_records",
    "title": "List of Central American and Caribbean Championships in Athletics records",
    "header": [
      [
        "Event",
        []
      ],
      [
        "Record",
        []
      ],
      [
        "Name",
        []
      ],
      [
        "Nationality",
        []
      ],
      [
        "Date",
        []
      ],
      [
        "Games",
        []
      ]
    ],
    "data": [
      [
        [
          "100 m",
          [
            "/wiki/100_metres"
          ]
        ],
        [
          "11.02 ( +1.1 )",
          []
        ],
        [
          "Chandra Sturrup",
          [
            "/wiki/Chandra_Sturrup"
          ]
        ],
        [
          "Bahamas",
          [
            "/wiki/The_Bahamas"
          ]
        ],
        [
          "9 July 2005",
          []
        ],
        [
          "2005 Nassau",
          [
            "/wiki/2005_Central_American_and_Caribbean_Championships_in_Athletics"
          ]
        ]
      ],
      [
        [
          "200 m",
          [
            "/wiki/200_metres"
          ]
        ],
        [
          "22.36",
          []
        ],
        [
          "Grace Jackson",
          [
            "/wiki/Grace_Jackson"
          ]
        ],
        [
          "Jamaica",
          [
            "/wiki/Jamaica"
          ]
        ],
        [
          "28 July 1989",
          []
        ],
        [
          "1989 San Juan",
          [
            "/wiki/1989_Central_American_and_Caribbean_Championships_in_Athletics"
          ]
        ]
      ],
      [
        [
          "400 m",
          [
            "/wiki/400_metres"
          ]
        ],
        [
          "50.63",
          []
        ],
        [
          "Ana Fidelia Quirot",
          [
            "/wiki/Ana_Fidelia_Quirot"
          ]
        ],
        [
          "Cuba",
          [
            "/wiki/Cuba"
          ]
        ],
        [
          "27 July 1989",
          []
        ],
        [
          "1989 San Juan",
          [
            "/wiki/1989_Central_American_and_Caribbean_Championships_in_Athletics"
          ]
        ]
      ],
      [
        [
          "800 m",
          [
            "/wiki/800_metres"
          ]
        ],
        [
          "1.59.01",
          []
        ],
        [
          "Ana Fidelia Quirot",
          [
            "/wiki/Ana_Fidelia_Quirot"
          ]
        ],
        [
          "Cuba",
          [
            "/wiki/Cuba"
          ]
        ],
        [
          "27 June 1997",
          []
        ],
        [
          "1997 San Juan",
          [
            "/wiki/1997_Central_American_and_Caribbean_Championships_in_Athletics"
          ]
        ]
      ],
      [
        [
          "1500 m",
          [
            "/wiki/1500_metres"
          ]
        ],
        [
          "4:18.00",
          []
        ],
        [
          "Ana Fidelia Quirot",
          [
            "/wiki/Ana_Fidelia_Quirot"
          ]
        ],
        [
          "Cuba",
          [
            "/wiki/Cuba"
          ]
        ],
        [
          "28 June 1997",
          []
        ],
        [
          "1997 San Juan",
          [
            "/wiki/1997_Central_American_and_Caribbean_Championships_in_Athletics"
          ]
        ]
      ],
      [
        [
          "5000 m",
          [
            "/wiki/5000_metres"
          ]
        ],
        [
          "16.03.68",
          []
        ],
        [
          "Yudileyvis Castillo",
          []
        ],
        [
          "Cuba",
          [
            "/wiki/Cuba"
          ]
        ],
        [
          "5 July 2009",
          []
        ],
        [
          "2009 Havana",
          [
            "/wiki/2009_Central_American_and_Caribbean_Championships_in_Athletics"
          ]
        ]
      ],
      [
        [
          "10000 m",
          [
            "/wiki/10,000_metres"
          ]
        ],
        [
          "33:50.68",
          []
        ],
        [
          "Yudileyvis Castillo",
          []
        ],
        [
          "Cuba",
          [
            "/wiki/Cuba"
          ]
        ],
        [
          "3 July 2009",
          []
        ],
        [
          "2009 Havana",
          [
            "/wiki/2009_Central_American_and_Caribbean_Championships_in_Athletics"
          ]
        ]
      ],
      [
        [
          "Half marathon",
          [
            "/wiki/Half_marathon"
          ]
        ],
        [
          "1:12:07",
          []
        ],
        [
          "Stella Castro",
          []
        ],
        [
          "Colombia",
          [
            "/wiki/Colombia"
          ]
        ],
        [
          "1 August 1993",
          []
        ],
        [
          "1993 Cali",
          [
            "/wiki/1993_Central_American_and_Caribbean_Championships_in_Athletics"
          ]
        ]
      ],
      [
        [
          "100 m hurdles",
          [
            "/wiki/100_metres_hurdles"
          ]
        ],
        [
          "12.61 ( +1.4 ) NR PB",
          []
        ],
        [
          "Anay Tejeda",
          [
            "/wiki/Anay_Tejeda"
          ]
        ],
        [
          "Cuba",
          [
            "/wiki/Cuba"
          ]
        ],
        [
          "5 July 2008",
          []
        ],
        [
          "2008 Cali",
          [
            "/wiki/2008_Central_American_and_Caribbean_Championships_in_Athletics"
          ]
        ]
      ],
      [
        [
          "400 m hurdles",
          [
            "/wiki/400_metres_hurdles"
          ]
        ],
        [
          "55.12",
          []
        ],
        [
          "Allison Beckford",
          [
            "/wiki/Allison_Beckford"
          ]
        ],
        [
          "Jamaica",
          [
            "/wiki/Jamaica"
          ]
        ],
        [
          "5 July 2003",
          []
        ],
        [
          "2003 Saint George 's",
          [
            "/wiki/2003_Central_American_and_Caribbean_Championships_in_Athletics"
          ]
        ]
      ],
      [
        [
          "3000 m steeplechase",
          [
            "/wiki/3000_metres_steeplechase"
          ]
        ],
        [
          "9.54.01",
          []
        ],
        [
          "Mardrea Hyman",
          [
            "/wiki/Mardrea_Hyman"
          ]
        ],
        [
          "Jamaica",
          [
            "/wiki/Jamaica"
          ]
        ],
        [
          "10 July 2005",
          []
        ],
        [
          "2005 Nassau",
          [
            "/wiki/2005_Central_American_and_Caribbean_Championships_in_Athletics"
          ]
        ]
      ],
      [
        [
          "High jump",
          [
            "/wiki/High_jump"
          ]
        ],
        [
          "1.95 m",
          []
        ],
        [
          "Levern Spencer",
          [
            "/wiki/Levern_Spencer"
          ]
        ],
        [
          "Saint Lucia",
          []
        ],
        [
          "5 July 2013",
          []
        ],
        [
          "2013 Morelia",
          [
            "/wiki/2013_Central_American_and_Caribbean_Championships_in_Athletics"
          ]
        ]
      ],
      [
        [
          "Pole vault",
          [
            "/wiki/Pole_vault"
          ]
        ],
        [
          "4.40 m",
          []
        ],
        [
          "Yarisley Silva",
          [
            "/wiki/Yarisley_Silva"
          ]
        ],
        [
          "Cuba",
          [
            "/wiki/Cuba"
          ]
        ],
        [
          "3 July 2009",
          []
        ],
        [
          "2009 Havana",
          [
            "/wiki/2009_Central_American_and_Caribbean_Championships_in_Athletics"
          ]
        ]
      ],
      [
        [
          "Long jump",
          [
            "/wiki/Long_jump"
          ]
        ],
        [
          "6.81 m ( +0.3 m/s )",
          []
        ],
        [
          "Elva Goulbourne",
          [
            "/wiki/Elva_Goulbourne"
          ]
        ],
        [
          "Jamaica",
          [
            "/wiki/Jamaica"
          ]
        ],
        [
          "5 July 2003",
          []
        ],
        [
          "2003 Saint George 's",
          [
            "/wiki/2003_Central_American_and_Caribbean_Championships_in_Athletics"
          ]
        ]
      ],
      [
        [
          "Long jump",
          [
            "/wiki/Long_jump"
          ]
        ],
        [
          "6.81 m ( +0.7 m/s ) NR PB",
          []
        ],
        [
          "Bianca Stuart",
          [
            "/wiki/Bianca_Stuart"
          ]
        ],
        [
          "Bahamas",
          [
            "/wiki/The_Bahamas"
          ]
        ],
        [
          "17 July 2011",
          []
        ],
        [
          "2011 Mayag\u00fcez",
          [
            "/wiki/2011_Central_American_and_Caribbean_Championships_in_Athletics"
          ]
        ]
      ],
      [
        [
          "Triple jump",
          [
            "/wiki/Triple_jump"
          ]
        ],
        [
          "14.97 m ( -0.5 m/s )",
          []
        ],
        [
          "Yargelis Savigne",
          [
            "/wiki/Yargelis_Savigne"
          ]
        ],
        [
          "Cuba",
          [
            "/wiki/Cuba"
          ]
        ],
        [
          "3 July 2009",
          []
        ],
        [
          "2009 Havana",
          [
            "/wiki/2009_Central_American_and_Caribbean_Championships_in_Athletics"
          ]
        ]
      ],
      [
        [
          "Shot put",
          [
            "/wiki/Shot_put"
          ]
        ],
        [
          "19.13 m",
          []
        ],
        [
          "Misleydis Gonz\u00e1lez",
          [
            "/wiki/Misleydis_Gonz\u00e1lez"
          ]
        ],
        [
          "Cuba",
          [
            "/wiki/Cuba"
          ]
        ],
        [
          "5 July 2009",
          []
        ],
        [
          "2009 Havana",
          [
            "/wiki/2009_Central_American_and_Caribbean_Championships_in_Athletics"
          ]
        ]
      ],
      [
        [
          "Discus throw",
          [
            "/wiki/Discus_throw"
          ]
        ],
        [
          "64.46 m",
          []
        ],
        [
          "Mar\u00eda Cristina Betancourt",
          [
            "/wiki/Mar\u00eda_Cristina_Betancourt"
          ]
        ],
        [
          "Cuba",
          [
            "/wiki/Cuba"
          ]
        ],
        [
          "10 July 1981",
          []
        ],
        [
          "1981 Santo Domingo",
          [
            "/wiki/1981_Central_American_and_Caribbean_Championships_in_Athletics"
          ]
        ]
      ],
      [
        [
          "Hammer throw",
          [
            "/wiki/Hammer_throw"
          ]
        ],
        [
          "71.32 m",
          []
        ],
        [
          "Arasay Thondike",
          [
            "/wiki/Arasay_Thondike"
          ]
        ],
        [
          "Cuba",
          [
            "/wiki/Cuba"
          ]
        ],
        [
          "5 July 2009",
          []
        ],
        [
          "2009 Havana",
          [
            "/wiki/2009_Central_American_and_Caribbean_Championships_in_Athletics"
          ]
        ]
      ],
      [
        [
          "Javelin throw",
          [
            "/wiki/Javelin_throw"
          ]
        ],
        [
          "61.61 m ( Current design )",
          [
            "/wiki/Javelin_throw"
          ]
        ],
        [
          "Laverne Eve",
          [
            "/wiki/Laverne_Eve"
          ]
        ],
        [
          "Bahamas",
          [
            "/wiki/The_Bahamas"
          ]
        ],
        [
          "27 June 1999",
          []
        ],
        [
          "1999 Bridgetown",
          [
            "/wiki/1999_Central_American_and_Caribbean_Championships_in_Athletics"
          ]
        ]
      ]
    ],
    "section_title": "Women 's records",
    "section_text": "",
    "uid": "List_of_Central_American_and_Caribbean_Championships_in_Athletics_records_2",
    "intro": "The Central American and Caribbean Championships in Athletics is an athletics event which began in 1967. Records set by athletes who are representing one of the Central American and Caribbean Athletic Confederation's member states."
  }
}