{
  "List_of_United_States_Supreme_Court_Justices_who_also_served_in_Congress_0": {
    "url": "https://en.wikipedia.org/wiki/List_of_U.S._Supreme_Court_justices_who_also_served_in_the_U.S._Congress",
    "title": "List of U.S. Supreme Court justices who also served in the U.S. Congress",
    "header": [
      [
        "Name",
        []
      ],
      [
        "State",
        []
      ],
      [
        "Senate service",
        []
      ],
      [
        "Supreme Court service",
        []
      ],
      [
        "I/F",
        []
      ],
      [
        "Appointed by",
        []
      ]
    ],
    "data": [
      [
        [
          "Hugo Black",
          [
            "/wiki/Hugo_Black"
          ]
        ],
        [
          "Alabama",
          [
            "/wiki/Alabama"
          ]
        ],
        [
          "1927 -1937",
          []
        ],
        [
          "1937 -1971",
          []
        ],
        [
          "I",
          []
        ],
        [
          "F. D. Roosevelt",
          [
            "/wiki/Franklin_D._Roosevelt"
          ]
        ]
      ],
      [
        [
          "Harold Hitz Burton",
          [
            "/wiki/Harold_Hitz_Burton"
          ]
        ],
        [
          "Ohio",
          [
            "/wiki/Ohio"
          ]
        ],
        [
          "1941 -1945",
          []
        ],
        [
          "1945 -1958",
          []
        ],
        [
          "I",
          []
        ],
        [
          "Truman",
          [
            "/wiki/Harry_S._Truman"
          ]
        ]
      ],
      [
        [
          "James F. Byrnes",
          [
            "/wiki/James_F._Byrnes"
          ]
        ],
        [
          "South Carolina",
          [
            "/wiki/South_Carolina"
          ]
        ],
        [
          "1931 -1941",
          []
        ],
        [
          "1941 -1942",
          []
        ],
        [
          "I",
          []
        ],
        [
          "F. D. Roosevelt",
          [
            "/wiki/Franklin_D._Roosevelt"
          ]
        ]
      ],
      [
        [
          "Oliver Ellsworth",
          [
            "/wiki/Oliver_Ellsworth"
          ]
        ],
        [
          "Connecticut",
          [
            "/wiki/Connecticut"
          ]
        ],
        [
          "1789 -1796",
          []
        ],
        [
          "1796 -1800",
          []
        ],
        [
          "I",
          []
        ],
        [
          "Washington",
          [
            "/wiki/George_Washington"
          ]
        ]
      ],
      [
        [
          "Edward Douglass White",
          [
            "/wiki/Edward_Douglass_White"
          ]
        ],
        [
          "Louisiana",
          [
            "/wiki/Louisiana"
          ]
        ],
        [
          "1891 -1894",
          []
        ],
        [
          "1894 -1921",
          []
        ],
        [
          "I",
          []
        ],
        [
          "Cleveland",
          [
            "/wiki/Grover_Cleveland"
          ]
        ]
      ],
      [
        [
          "Levi Woodbury",
          [
            "/wiki/Levi_Woodbury"
          ]
        ],
        [
          "New Hampshire",
          [
            "/wiki/New_Hampshire"
          ]
        ],
        [
          "1825 -1831 ; 1841-1845",
          []
        ],
        [
          "1845 -1851",
          []
        ],
        [
          "I",
          []
        ],
        [
          "Polk",
          [
            "/wiki/James_K._Polk"
          ]
        ]
      ],
      [
        [
          "David Davis",
          [
            "/wiki/David_Davis_(Supreme_Court_justice)"
          ]
        ],
        [
          "Illinois",
          [
            "/wiki/Illinois"
          ]
        ],
        [
          "1877 -1883",
          []
        ],
        [
          "1862 -1877",
          []
        ],
        [
          "\u2022",
          []
        ],
        [
          "Lincoln",
          [
            "/wiki/Abraham_Lincoln"
          ]
        ]
      ],
      [
        [
          "Howell Edmunds Jackson",
          [
            "/wiki/Howell_Edmunds_Jackson"
          ]
        ],
        [
          "Tennessee",
          [
            "/wiki/Tennessee"
          ]
        ],
        [
          "1881 -1886",
          []
        ],
        [
          "1893 -1895",
          []
        ],
        [
          "F",
          []
        ],
        [
          "B. Harrison",
          [
            "/wiki/Benjamin_Harrison"
          ]
        ]
      ],
      [
        [
          "Lucius Quintus Cincinnatus Lamar II",
          [
            "/wiki/Lucius_Quintus_Cincinnatus_Lamar"
          ]
        ],
        [
          "Mississippi",
          [
            "/wiki/Mississippi"
          ]
        ],
        [
          "1877 -1885",
          []
        ],
        [
          "1888 -1893",
          []
        ],
        [
          "F",
          []
        ],
        [
          "Cleveland",
          [
            "/wiki/Grover_Cleveland"
          ]
        ]
      ],
      [
        [
          "Salmon P. Chase",
          [
            "/wiki/Salmon_P._Chase"
          ]
        ],
        [
          "Ohio",
          [
            "/wiki/Ohio"
          ]
        ],
        [
          "1849 -1855 ; 1861-1861",
          []
        ],
        [
          "1864 -1873",
          []
        ],
        [
          "F",
          []
        ],
        [
          "Lincoln",
          [
            "/wiki/Abraham_Lincoln"
          ]
        ]
      ],
      [
        [
          "Stanley Matthews",
          [
            "/wiki/Stanley_Matthews_(Supreme_Court_justice)"
          ]
        ],
        [
          "Ohio",
          [
            "/wiki/Ohio"
          ]
        ],
        [
          "1877 -1879",
          []
        ],
        [
          "1881 -1889",
          []
        ],
        [
          "F",
          []
        ],
        [
          "Garfield",
          [
            "/wiki/James_A._Garfield"
          ]
        ]
      ],
      [
        [
          "John McKinley",
          [
            "/wiki/John_McKinley"
          ]
        ],
        [
          "Alabama",
          [
            "/wiki/Alabama"
          ]
        ],
        [
          "1826 -1831 ; 1837-1837",
          []
        ],
        [
          "1838 -1852",
          []
        ],
        [
          "F",
          []
        ],
        [
          "Van Buren",
          [
            "/wiki/Martin_Van_Buren"
          ]
        ]
      ],
      [
        [
          "Sherman Minton",
          [
            "/wiki/Sherman_Minton"
          ]
        ],
        [
          "Indiana",
          [
            "/wiki/Indiana"
          ]
        ],
        [
          "1935 -1941",
          []
        ],
        [
          "1949 -1956",
          []
        ],
        [
          "F",
          []
        ],
        [
          "Truman",
          [
            "/wiki/Harry_S._Truman"
          ]
        ]
      ],
      [
        [
          "George Sutherland",
          [
            "/wiki/George_Sutherland"
          ]
        ],
        [
          "Utah",
          [
            "/wiki/Utah"
          ]
        ],
        [
          "1905 -1917",
          []
        ],
        [
          "1922 -1938",
          []
        ],
        [
          "F",
          []
        ],
        [
          "Harding",
          [
            "/wiki/Warren_G._Harding"
          ]
        ]
      ],
      [
        [
          "William Paterson",
          [
            "/wiki/William_Paterson_(judge)"
          ]
        ],
        [
          "New Jersey",
          [
            "/wiki/New_Jersey"
          ]
        ],
        [
          "1789 -1790",
          []
        ],
        [
          "1793 -1806",
          []
        ],
        [
          "F",
          []
        ],
        [
          "Washington",
          [
            "/wiki/George_Washington"
          ]
        ]
      ]
    ],
    "section_title": "Senators",
    "section_text": "There have been 14 U.S. Supreme Court justices with prior service in the Senate , and one with subsequent Senate service . [ 2 ]",
    "uid": "List_of_United_States_Supreme_Court_Justices_who_also_served_in_Congress_0",
    "intro": "Following is a list of United States Supreme Court Justices who also served in Congress. Since the United States Supreme Court was established in 1789, 114 persons have served on the Court. Of these, several also served in the U.S. Congress, either before or after their tenure as a justice. Six were incumbent members of the United States Senate at the time of their appointment, while one - James Moore Wayne - was an incumbent member of the House of Representatives. The others had previously served in the Senate or the House or both. Additionally, one justice - David Davis - resigned from the Supreme Court to serve in the Senate."
  }
}