{
  "List_of_awards_and_nominations_received_by_Star_Trek:_The_Next_Generation_4": {
    "url": "https://en.wikipedia.org/wiki/List_of_awards_and_nominations_received_by_Star_Trek:_The_Next_Generation",
    "title": "List of awards and nominations received by Star Trek: The Next Generation",
    "header": [
      [
        "Year",
        []
      ],
      [
        "Category",
        []
      ],
      [
        "Nominee",
        []
      ],
      [
        "Episode",
        []
      ],
      [
        "Result",
        []
      ]
    ],
    "data": [
      [
        [
          "1988",
          []
        ],
        [
          "Outstanding Achievement in Makeup for a Series",
          []
        ],
        [
          "Werner Keppler , Michael Westmore , Gerald Quist",
          [
            "/wiki/Michael_Westmore"
          ]
        ],
        [
          "Conspiracy",
          [
            "/wiki/Conspiracy_(Star_Trek:_The_Next_Generation)"
          ]
        ],
        [
          "Won",
          []
        ]
      ],
      [
        [
          "1988",
          []
        ],
        [
          "Outstanding Costume Design for a Series",
          [
            "/wiki/Primetime_Emmy_Award_for_Outstanding_Costumes_for_a_Series"
          ]
        ],
        [
          "William Ware Theiss",
          [
            "/wiki/William_Ware_Theiss"
          ]
        ],
        [
          "The Big Goodbye",
          [
            "/wiki/The_Big_Goodbye"
          ]
        ],
        [
          "Won",
          []
        ]
      ],
      [
        [
          "1988",
          []
        ],
        [
          "Outstanding Sound Editing for a Series",
          []
        ],
        [
          "Bill Wistrom , Wilson Dyer , Mace Matiosian , James Wolvington , Gerry Sackman , Keith Bilderbeck",
          []
        ],
        [
          "11001001",
          [
            "/wiki/11001001"
          ]
        ],
        [
          "Won",
          []
        ]
      ],
      [
        [
          "1988",
          []
        ],
        [
          "Outstanding Achievement in Hairstyling for a Series",
          []
        ],
        [
          "Richard Sabre",
          []
        ],
        [
          "Haven",
          [
            "/wiki/Haven_(Star_Trek:_The_Next_Generation)"
          ]
        ],
        [
          "Nominated",
          []
        ]
      ],
      [
        [
          "1988",
          []
        ],
        [
          "Outstanding Achievement in Makeup for a Series",
          []
        ],
        [
          "Michael Westmore , Werner Keppler , Gerald Quist , Rolf John Keppler",
          []
        ],
        [
          "Coming of Age",
          [
            "/wiki/Coming_of_Age_(Star_Trek:_The_Next_Generation)"
          ]
        ],
        [
          "Nominated",
          []
        ]
      ],
      [
        [
          "1988",
          []
        ],
        [
          "Outstanding Cinematography for a Series",
          []
        ],
        [
          "Edward R. Brown",
          []
        ],
        [
          "The Big Goodbye",
          []
        ],
        [
          "Nominated",
          []
        ]
      ],
      [
        [
          "1988",
          []
        ],
        [
          "Outstanding Sound Mixing for a Drama Series",
          []
        ],
        [
          "Chris Haire , Doug Davey , Jerry Clemans , Alan Bernard",
          []
        ],
        [
          "Where No One Has Gone Before",
          [
            "/wiki/Where_No_One_Has_Gone_Before"
          ]
        ],
        [
          "Nominated",
          []
        ]
      ],
      [
        [
          "1989",
          []
        ],
        [
          "Outstanding Sound Editing for a Series",
          []
        ],
        [
          "Bill Wistrom , James Wolvington , Mace Matiosian , Wilson Dyer , Guy Tsujimoto , Gerry Sackman",
          []
        ],
        [
          "Q Who",
          [
            "/wiki/Q_Who"
          ]
        ],
        [
          "Won",
          []
        ]
      ],
      [
        [
          "1989",
          []
        ],
        [
          "Outstanding Sound Mixing for a Drama Series",
          []
        ],
        [
          "Chris Haire , Doug Davey , Richard L. Morrison , Alan Bernard",
          []
        ],
        [
          "Q Who",
          []
        ],
        [
          "Won",
          []
        ]
      ],
      [
        [
          "1989",
          []
        ],
        [
          "Outstanding Achievement in Hairstyling for a Series",
          []
        ],
        [
          "Richard Sabre , Georgina Williams",
          []
        ],
        [
          "Unnatural Selection",
          [
            "/wiki/Unnatural_Selection_(Star_Trek:_The_Next_Generation)"
          ]
        ],
        [
          "Nominated",
          []
        ]
      ],
      [
        [
          "1989",
          []
        ],
        [
          "Outstanding Achievement in Makeup for a Series",
          []
        ],
        [
          "Michael Westmore , Gerald Quist , Janna Phillips",
          []
        ],
        [
          "A Matter of Honor",
          [
            "/wiki/A_Matter_of_Honor"
          ]
        ],
        [
          "Nominated",
          []
        ]
      ],
      [
        [
          "1989",
          []
        ],
        [
          "Outstanding Achievement in Music Composition for a Series",
          [
            "/wiki/Primetime_Emmy_Award_for_Outstanding_Music_Composition_for_a_Series"
          ]
        ],
        [
          "Dennis McCarthy",
          [
            "/wiki/Dennis_McCarthy_(composer)"
          ]
        ],
        [
          "The Child",
          [
            "/wiki/The_Child_(Star_Trek:_The_Next_Generation)"
          ]
        ],
        [
          "Nominated",
          []
        ]
      ],
      [
        [
          "1989",
          []
        ],
        [
          "Outstanding Achievement in Special Visual Effects",
          [
            "/wiki/Primetime_Emmy_Award_for_Outstanding_Special_Visual_Effects"
          ]
        ],
        [
          "Dan Curry , Ronald B. Moore , Peter W. Moyer , Steve Price",
          [
            "/wiki/Dan_Curry",
            "/wiki/Ronald_B._Moore",
            "/wiki/Stephen_L._Price"
          ]
        ],
        [
          "Q Who",
          []
        ],
        [
          "Nominated",
          []
        ]
      ],
      [
        [
          "1989",
          []
        ],
        [
          "Outstanding Art Direction for a Series",
          []
        ],
        [
          "Richard D. James , Jim Mees",
          [
            "/wiki/Jim_Mees"
          ]
        ],
        [
          "Elementary , Dear Data",
          [
            "/wiki/Elementary,_Dear_Data"
          ]
        ],
        [
          "Nominated",
          []
        ]
      ],
      [
        [
          "1989",
          []
        ],
        [
          "Outstanding Costume Design for a Series",
          [
            "/wiki/Primetime_Emmy_Award_for_Outstanding_Costumes_for_a_Series"
          ]
        ],
        [
          "Durinda Wood , William Ware Theiss",
          []
        ],
        [
          "Elementary , Dear Data",
          []
        ],
        [
          "Nominated",
          []
        ]
      ],
      [
        [
          "1990",
          []
        ],
        [
          "Outstanding Achievement in Makeup for a Series",
          []
        ],
        [
          "Michael Westmore , Gerald Quist , June Westmore , Hank Edds , Doug Drexler , John Caglione Jr. , Ron Walters",
          []
        ],
        [
          "Allegiance",
          [
            "/wiki/Allegiance_(Star_Trek:_The_Next_Generation)"
          ]
        ],
        [
          "Nominated",
          []
        ]
      ],
      [
        [
          "1990",
          []
        ],
        [
          "Outstanding Achievement in Music Composition for a Series",
          []
        ],
        [
          "Dennis McCarthy",
          []
        ],
        [
          "Yesterday 's Enterprise",
          [
            "/wiki/Yesterday's_Enterprise"
          ]
        ],
        [
          "Nominated",
          []
        ]
      ],
      [
        [
          "1990",
          []
        ],
        [
          "Outstanding Achievement in Special Visual Effects",
          []
        ],
        [
          "Dan Curry , Ronald B. Moore , Peter W. Moyer , Steve Price , Don Lee",
          []
        ],
        [
          "D\u00e9j\u00e0 Q",
          [
            "/wiki/D\u00e9j\u00e0_Q"
          ]
        ],
        [
          "Nominated",
          []
        ]
      ],
      [
        [
          "1990",
          []
        ],
        [
          "Outstanding Achievement in Special Visual Effects",
          []
        ],
        [
          "Robert Legato , Gary Hutzel , Steve Price , Don Greenberg , Erik Nash , Don Lee , Michael Okuda",
          [
            "/wiki/Gary_Hutzel"
          ]
        ],
        [
          "Tin Man",
          [
            "/wiki/Tin_Man_(Star_Trek:_The_Next_Generation)"
          ]
        ],
        [
          "Nominated",
          []
        ]
      ],
      [
        [
          "1990",
          []
        ],
        [
          "Outstanding Editing for a Series - Single Camera Production",
          []
        ],
        [
          "Robert Lederman",
          []
        ],
        [
          "Deja Q",
          []
        ],
        [
          "Nominated",
          []
        ]
      ]
    ],
    "section_title": "Emmy Awards -- Creative Arts Emmy Awards",
    "section_text": "",
    "uid": "List_of_awards_and_nominations_received_by_Star_Trek:_The_Next_Generation_4",
    "intro": " is an American science fiction television program that originally aired from September 1987 to May 1994. It won and was nominated for a variety of awards, including seven Emmy Award nominations for the , and a further eight in its . It would go on to be nominated a total of 58 times, of which it won a total of nineteen awards. Only one of these nominations was not for a Creative Arts Emmy, which was the nomination for Outstanding Drama Series for the show's . Cast member Wil Wheaton was nominated on three occasions for a Youth in Film Award, which he won in 1989. Further nominations were received by guest actors Kimberly Cullum and Gabriel Damon at the 16th Youth in Film Awards in 1995. The only other nomination for a single actor was the Screen Actors Guild Award received by Patrick Stewart for Outstanding Performance by a Male Actor in a Drama Series in the award's inaugural session in 1995. As of January 1, 2013, Star Trek: The Next Generation has been nominated for 85 different awards, of which it has won 31. Despite the series ending in 1994, it has continued to win awards in special recognition of the series, and for the DVD releases. In this list, year refers to the year the award was presented to the winner."
  },
  "List_of_Members_of_the_Canadian_House_of_Commons_with_military_service_(S)_0": {
    "url": "https://en.wikipedia.org/wiki/List_of_Members_of_the_Canadian_House_of_Commons_with_military_service_(S)",
    "title": "List of Members of the Canadian House of Commons with military service (S)",
    "header": [
      [
        "Name",
        []
      ],
      [
        "Elected Party",
        []
      ],
      [
        "Constituency",
        []
      ],
      [
        "Elected date",
        []
      ],
      [
        "Military service",
        []
      ]
    ],
    "data": [
      [
        [
          "Max Saltsman",
          [
            "/wiki/Max_Saltsman"
          ]
        ],
        [
          "New Democrat",
          [
            "/wiki/New_Democratic_Party"
          ]
        ],
        [
          "Waterloo South",
          [
            "/wiki/Waterloo_South"
          ]
        ],
        [
          "November 9 , 1964",
          []
        ],
        [
          "Royal Canadian Air Force ( 1941-1945 )",
          [
            "/wiki/Royal_Canadian_Air_Force"
          ]
        ]
      ],
      [
        [
          "Joseph Reeds Sams",
          []
        ],
        [
          "Progressive Conservative",
          [
            "/wiki/Progressive_Conservative_Party_of_Canada"
          ]
        ],
        [
          "Wentworth",
          [
            "/wiki/Wentworth_(electoral_district)"
          ]
        ],
        [
          "June 18 , 1962",
          []
        ],
        [
          "Canadian Army ( 1943-1946 )",
          [
            "/wiki/Canadian_Army"
          ]
        ]
      ],
      [
        [
          "Frederick George Sanderson",
          [
            "/wiki/Fred_Sanderson"
          ]
        ],
        [
          "Liberal",
          [
            "/wiki/Liberal_Party_of_Canada"
          ]
        ],
        [
          "Perth South",
          [
            "/wiki/Perth_South"
          ]
        ],
        [
          "October 29 , 1925",
          []
        ],
        [
          "Canadian Army",
          [
            "/wiki/Canadian_Army"
          ]
        ]
      ],
      [
        [
          "Edmond Savard",
          [
            "/wiki/Edmond_Savard"
          ]
        ],
        [
          "Liberal",
          [
            "/wiki/Liberal_Party_of_Canada"
          ]
        ],
        [
          "Chicoutimi - Saguenay",
          [
            "/wiki/Chicoutimi\u2014Saguenay"
          ]
        ],
        [
          "December 17 , 1917",
          []
        ],
        [
          "Militia ( 1885 )",
          []
        ]
      ],
      [
        [
          "Frederick Laurence Schaffner",
          [
            "/wiki/Frederick_Laurence_Schaffner"
          ]
        ],
        [
          "Conservative",
          [
            "/wiki/Conservative_Party_of_Canada_(1867\u20131942)"
          ]
        ],
        [
          "Souris",
          [
            "/wiki/Souris_(electoral_district)"
          ]
        ],
        [
          "November 3 , 1904",
          []
        ],
        [
          "Canadian Army",
          [
            "/wiki/Canadian_Army"
          ]
        ]
      ],
      [
        [
          "Norman C. Schneider",
          [
            "/wiki/Norman_C._Schneider"
          ]
        ],
        [
          "Liberal",
          [
            "/wiki/Liberal_Party_of_Canada"
          ]
        ],
        [
          "Waterloo North",
          [
            "/wiki/Waterloo_North"
          ]
        ],
        [
          "May 26 , 1952",
          []
        ],
        [
          "Canadian Army ( 1915-1916 )",
          [
            "/wiki/Canadian_Army"
          ]
        ]
      ],
      [
        [
          "Edward Richard Schreyer",
          [
            "/wiki/Edward_Schreyer"
          ]
        ],
        [
          "New Democrat",
          [
            "/wiki/New_Democratic_Party"
          ]
        ],
        [
          "Springfield",
          [
            "/wiki/Springfield_(electoral_district)"
          ]
        ],
        [
          "November 8 , 1965",
          []
        ],
        [
          "Canadian Army ( 1954-1956 )",
          [
            "/wiki/Canadian_Army"
          ]
        ]
      ],
      [
        [
          "James Duncan Schroder",
          [
            "/wiki/James_Schroder"
          ]
        ],
        [
          "Liberal",
          [
            "/wiki/Liberal_Party_of_Canada"
          ]
        ],
        [
          "Guelph",
          [
            "/wiki/Guelph_(electoral_district)"
          ]
        ],
        [
          "February 18 , 1980",
          []
        ],
        [
          "Canadian Army ( 1942-1946 )",
          [
            "/wiki/Canadian_Army"
          ]
        ]
      ],
      [
        [
          "Stanley Stanford Schumacher",
          [
            "/wiki/Stanley_Schumacher"
          ]
        ],
        [
          "Progressive Conservative",
          [
            "/wiki/Progressive_Conservative_Party_of_Canada"
          ]
        ],
        [
          "Palliser",
          [
            "/wiki/Palliser_(Alberta_electoral_district)"
          ]
        ],
        [
          "June 25 , 1968",
          []
        ],
        [
          "Canadian Army ( 1958-1962 )",
          [
            "/wiki/Canadian_Army"
          ]
        ]
      ],
      [
        [
          "Thomas Scott",
          [
            "/wiki/Thomas_Scott_(Manitoba_politician)"
          ]
        ],
        [
          "Conservative",
          [
            "/wiki/Conservative_Party_of_Canada_(1867\u20131942)"
          ]
        ],
        [
          "Selkirk",
          [
            "/wiki/Selkirk_(electoral_district)"
          ]
        ],
        [
          "September 10 , 1880",
          []
        ],
        [
          "Militia ( 1870-1873 )",
          []
        ]
      ],
      [
        [
          "Joseph Pierre Albert S\u00e9vigny",
          [
            "/wiki/Pierre_S\u00e9vigny"
          ]
        ],
        [
          "Progressive Conservative",
          [
            "/wiki/Progressive_Conservative_Party_of_Canada"
          ]
        ],
        [
          "Longueuil",
          [
            "/wiki/Longueuil\u2014Saint-Hubert"
          ]
        ],
        [
          "March 31 , 1958",
          []
        ],
        [
          "Canadian Army",
          [
            "/wiki/Canadian_Army"
          ]
        ]
      ],
      [
        [
          "Samuel Simpson Sharpe",
          [
            "/wiki/Samuel_Simpson_Sharpe"
          ]
        ],
        [
          "Conservative",
          [
            "/wiki/Conservative_Party_of_Canada_(1867\u20131942)"
          ]
        ],
        [
          "Ontario North",
          [
            "/wiki/Ontario_North"
          ]
        ],
        [
          "October 26 , 1908",
          []
        ],
        [
          "Canadian Army ( 1916-1917 )",
          [
            "/wiki/Canadian_Army"
          ]
        ]
      ],
      [
        [
          "William Henry Sharpe",
          [
            "/wiki/William_Henry_Sharpe"
          ]
        ],
        [
          "Conservative",
          [
            "/wiki/Conservative_Party_of_Canada_(1867\u20131942)"
          ]
        ],
        [
          "Lisgar",
          [
            "/wiki/Lisgar_(electoral_district)"
          ]
        ],
        [
          "October 26 , 1908",
          []
        ],
        [
          "Canadian Army ( 1916- )",
          [
            "/wiki/Canadian_Army"
          ]
        ]
      ],
      [
        [
          "Joseph Tweed Shaw",
          [
            "/wiki/Joseph_Tweed_Shaw"
          ]
        ],
        [
          "Labour",
          [
            "/wiki/Labour_candidates_and_parties_in_Canada"
          ]
        ],
        [
          "Calgary West",
          [
            "/wiki/Calgary_West"
          ]
        ],
        [
          "December 6 , 1921",
          []
        ],
        [
          "Canadian Army ( 1916-1918 )",
          [
            "/wiki/Canadian_Army"
          ]
        ]
      ],
      [
        [
          "Bud Sherman",
          [
            "/wiki/Bud_Sherman"
          ]
        ],
        [
          "Progressive Conservative",
          [
            "/wiki/Progressive_Conservative_Party_of_Canada"
          ]
        ],
        [
          "Winnipeg South",
          [
            "/wiki/Winnipeg_South"
          ]
        ],
        [
          "November 8 , 1965",
          []
        ],
        [
          "Canadian Army ( 1947-1949 )",
          [
            "/wiki/Canadian_Army"
          ]
        ]
      ],
      [
        [
          "Jack Shields",
          [
            "/wiki/Jack_Shields"
          ]
        ],
        [
          "Progressive Conservative",
          [
            "/wiki/Progressive_Conservative_Party_of_Canada"
          ]
        ],
        [
          "Athabaska",
          [
            "/wiki/Athabaska_(electoral_district)"
          ]
        ],
        [
          "February 18 , 1980",
          []
        ],
        [
          "Canadian Army ( 1947-1957 )",
          [
            "/wiki/Canadian_Army"
          ]
        ]
      ],
      [
        [
          "Yuri Shymko",
          [
            "/wiki/Yuri_Shymko"
          ]
        ],
        [
          "Progressive Conservative",
          [
            "/wiki/Progressive_Conservative_Party_of_Canada"
          ]
        ],
        [
          "Parkdale",
          [
            "/wiki/Parkdale_(electoral_district)"
          ]
        ],
        [
          "October 16 , 1978",
          []
        ],
        [
          "Royal Canadian Air Cadets",
          [
            "/wiki/Royal_Canadian_Air_Cadets"
          ]
        ]
      ],
      [
        [
          "Georges-Honor\u00e9 Simard",
          [
            "/wiki/Georges-Honor\u00e9_Simard"
          ]
        ],
        [
          "Conservative",
          [
            "/wiki/Conservative_Party_of_Canada_(1867\u20131942)"
          ]
        ],
        [
          "Quebec-Centre",
          [
            "/wiki/Quebec-Centre"
          ]
        ],
        [
          "September 20 , 1867",
          []
        ],
        [
          "Militia",
          []
        ]
      ],
      [
        [
          "James Aubrey Simmons",
          [
            "/wiki/James_Aubrey_Simmons"
          ]
        ],
        [
          "Liberal",
          [
            "/wiki/Liberal_Party_of_Canada"
          ]
        ],
        [
          "Yukon - Mackenzie River",
          [
            "/wiki/Yukon\u2014Mackenzie_River"
          ]
        ],
        [
          "June 27 , 1949",
          []
        ],
        [
          "Canadian Army ( 1916-1919 )",
          [
            "/wiki/Canadian_Army"
          ]
        ]
      ],
      [
        [
          "Wemyss Mackenzie Simpson",
          [
            "/wiki/Wemyss_Mackenzie_Simpson"
          ]
        ],
        [
          "Conservative",
          [
            "/wiki/Conservative_Party_of_Canada_(1867\u20131942)"
          ]
        ],
        [
          "Algoma",
          [
            "/wiki/Algoma\u2014Manitoulin\u2014Kapuskasing"
          ]
        ],
        [
          "September 20 , 1867",
          []
        ],
        [
          "Militia ( 1870-1879 )",
          []
        ]
      ]
    ],
    "section_title": "",
    "section_text": "vte.mw-parser-output .navbox-canada .navbox-title , .mw-parser-output .navbox-canada th , .mw-parser-output .navbox-canada .navbox-group , .mw-parser-output .navbox-canada .navbox-abovebelow , .mw-parser-output .navbox-canada .navbox-subgroup , .mw-parser-output .navbox-canada .navbox-odd , .mw-parser-output .navbox-canada .navbox-even { background-color : white } .mw-parser-output .navbox-canada .navbox-list .collapsible .navbox-title { box-shadow : inset 1px 1px 0 # ed2e38 , inset -1px -1px 0 # ed2e38 } .mw-parser-output .navbox-canada-a { box-shadow : inset 1px 1px 0 # ed2e38 , inset -1px -1px 0 # ed2e38 } .mw-parser-output .navbox-canada-t { box-shadow : inset 0 1px 0 0 # ed2e38 } .mw-parser-output .navbox-canada-b { box-shadow : inset 0 -1px 0 0 # ed2e38 } .mw-parser-output .navbox-canada-tb { box-shadow : inset 0 1px 0 0 # ed2e38 , inset 0 -1px 0 0 # ed2e38 } Lists of Members of the Canadian House of Commons in military service A B C D E F G H I J K L M N O P Q R S T U V W X Y Z",
    "uid": "List_of_Members_of_the_Canadian_House_of_Commons_with_military_service_(S)_0",
    "intro": ""
  },
  "List_of_historical_longest-serving_members_of_the_United_States_Congress_3": {
    "url": "https://en.wikipedia.org/wiki/List_of_historical_longest-serving_members_of_the_United_States_Congress",
    "title": "List of historical longest-serving members of the United States Congress",
    "header": [
      [
        "Begin date",
        []
      ],
      [
        "End date",
        []
      ],
      [
        "Name",
        []
      ],
      [
        "Party",
        []
      ],
      [
        "State",
        []
      ],
      [
        "Service",
        []
      ],
      [
        "Length of service",
        []
      ]
    ],
    "data": [
      [
        [
          "March 4 , 1789",
          []
        ],
        [
          "March 3 , 1807",
          []
        ],
        [
          "John Brown",
          [
            "/wiki/John_Brown_(Kentucky)"
          ]
        ],
        [
          "Anti-Administration / Democratic-Republican",
          [
            "/wiki/Anti-Administration_party",
            "/wiki/Democratic-Republican_Party"
          ]
        ],
        [
          "Virginia / Kentucky",
          [
            "/wiki/Virginia",
            "/wiki/Kentucky"
          ]
        ],
        [
          "March 4 , 1789 - March 3 , 1805 ( H , S )",
          []
        ],
        [
          "5842 dd",
          []
        ]
      ],
      [
        [
          "March 3 , 1807",
          []
        ],
        [
          "October 15 , 1831",
          []
        ],
        [
          "Nathaniel Macon",
          [
            "/wiki/Nathaniel_Macon"
          ]
        ],
        [
          "Anti-Administration/ Democratic-Republican",
          []
        ],
        [
          "North Carolina",
          [
            "/wiki/North_Carolina"
          ]
        ],
        [
          "March 4 , 1791 - November 14 , 1828 ( H , S )",
          []
        ],
        [
          "13769 dd",
          []
        ]
      ],
      [
        [
          "October 15 , 1831",
          []
        ],
        [
          "April 2 , 1894",
          []
        ],
        [
          "Samuel Smith",
          [
            "/wiki/Samuel_Smith_(Maryland)"
          ]
        ],
        [
          "Anti-Administration/ Democratic-Republican",
          []
        ],
        [
          "Maryland",
          [
            "/wiki/Maryland"
          ]
        ],
        [
          "March 4 , 1793 - March 3 , 1815 January 31 , 1816 - March 3 , 1833 ( H , S )",
          []
        ],
        [
          "14274 dd",
          []
        ]
      ],
      [
        [
          "April 2 , 1894",
          []
        ],
        [
          "December 31 , 1920",
          []
        ],
        [
          "Justin Smith Morrill",
          [
            "/wiki/Justin_Smith_Morrill"
          ]
        ],
        [
          "Whig / Republican",
          [
            "/wiki/Whig_Party_(United_States)",
            "/wiki/Republican_Party_(United_States)"
          ]
        ],
        [
          "Vermont",
          [
            "/wiki/Vermont"
          ]
        ],
        [
          "March 4 , 1855 - December 28 , 1898 ( H , S )",
          []
        ],
        [
          "16005 dd",
          []
        ]
      ],
      [
        [
          "December 31 , 1920",
          []
        ],
        [
          "February 14 , 1958",
          []
        ],
        [
          "Joseph G. Cannon",
          [
            "/wiki/Joseph_Gurney_Cannon"
          ]
        ],
        [
          "Republican",
          []
        ],
        [
          "Illinois",
          [
            "/wiki/Illinois"
          ]
        ],
        [
          "March 4 , 1873 - March 3 , 1891 March 4 , 1893 - March 3 , 1913 March 4 , 1915 - March 3 , 1923 ( H )",
          []
        ],
        [
          "16797 dd",
          []
        ]
      ],
      [
        [
          "February 14 , 1958",
          []
        ],
        [
          "November 18 , 2009",
          []
        ],
        [
          "Carl Hayden",
          [
            "/wiki/Carl_Hayden"
          ]
        ],
        [
          "Democratic",
          []
        ],
        [
          "Arizona",
          [
            "/wiki/Arizona"
          ]
        ],
        [
          "February 19 , 1912 - January 3 , 1969 ( H , S )",
          []
        ],
        [
          "20773 dd",
          []
        ]
      ],
      [
        [
          "November 18 , 2009",
          []
        ],
        [
          "June 6 , 2013",
          []
        ],
        [
          "Robert Byrd",
          [
            "/wiki/Robert_Byrd"
          ]
        ],
        [
          "Democratic",
          []
        ],
        [
          "West Virginia",
          [
            "/wiki/West_Virginia"
          ]
        ],
        [
          "January 3 , 1953 - June 28 , 2010 ( H , S )",
          []
        ],
        [
          "20995 dd",
          []
        ]
      ],
      [
        [
          "June 6 , 2013",
          []
        ],
        [
          "",
          []
        ],
        [
          "John Dingell",
          [
            "/wiki/John_Dingell"
          ]
        ],
        [
          "Democratic",
          []
        ],
        [
          "Michigan",
          [
            "/wiki/Michigan"
          ]
        ],
        [
          "December 13 , 1955 - January 3 , 2015 ( H )",
          []
        ],
        [
          "21571 dd",
          []
        ]
      ]
    ],
    "section_title": "Interrupted time -- House and Senate",
    "section_text": "",
    "uid": "List_of_historical_longest-serving_members_of_the_United_States_Congress_3",
    "intro": "This is a list of United States congressmen who have set records for longevity of service since the United States 1st Congress in 1789. It is divided up into several categories."
  }
}