{
  "Template:European_Athletics_Championships_medalists_in_men's_hammer_throw_0": {
    "url": "https://en.wikipedia.org/wiki/Template:European_Athletics_Championships_medalists_in_men's_hammer_throw",
    "title": "Template:European Athletics Championships medalists in men's hammer throw",
    "header": [
      [
        "Games",
        []
      ],
      [
        "Gold",
        []
      ],
      [
        "Silver",
        []
      ],
      [
        "Bronze",
        []
      ]
    ],
    "data": [
      [
        [
          "1934 Turin details",
          [
            "/wiki/1934_European_Athletics_Championships",
            "/wiki/1934_European_Athletics_Championships_\u2013_Men's_hammer_throw"
          ]
        ],
        [
          "Ville P\u00f6rh\u00f6l\u00e4 ( FIN )",
          [
            "/wiki/Ville_P\u00f6rh\u00f6l\u00e4"
          ]
        ],
        [
          "Fernando Vandelli ( ITA )",
          [
            "/wiki/Fernando_Vandelli"
          ]
        ],
        [
          "Gunnar Jansson ( SWE )",
          [
            "/wiki/Gunnar_Jansson_(athlete)"
          ]
        ]
      ],
      [
        [
          "1938 Paris details",
          [
            "/wiki/1938_European_Athletics_Championships",
            "/wiki/1938_European_Athletics_Championships_\u2013_Men's_hammer_throw"
          ]
        ],
        [
          "Karl Hein ( GER )",
          [
            "/wiki/Karl_Hein"
          ]
        ],
        [
          "Erwin Blask ( GER )",
          [
            "/wiki/Erwin_Blask"
          ]
        ],
        [
          "Oscar Malmbrant ( SWE )",
          []
        ]
      ],
      [
        [
          "1946 Oslo details",
          [
            "/wiki/1946_European_Athletics_Championships",
            "/wiki/1946_European_Athletics_Championships_\u2013_Men's_hammer_throw"
          ]
        ],
        [
          "Bo Ericson ( SWE )",
          [
            "/wiki/Bo_Ericson"
          ]
        ],
        [
          "Eric Johansson ( SWE )",
          [
            "/wiki/Eric_Johansson_(athlete)"
          ]
        ],
        [
          "Duncan Clark ( GBR )",
          [
            "/wiki/Duncan_Clark_(athlete)"
          ]
        ]
      ],
      [
        [
          "1950 Brussels details",
          [
            "/wiki/1950_European_Athletics_Championships",
            "/wiki/1950_European_Athletics_Championships_\u2013_Men's_hammer_throw"
          ]
        ],
        [
          "Sverre Strandli ( NOR )",
          [
            "/wiki/Sverre_Strandli"
          ]
        ],
        [
          "Teseo Taddia ( ITA )",
          [
            "/wiki/Teseo_Taddia"
          ]
        ],
        [
          "Ji\u0159\u00ed Dad\u00e1k ( TCH )",
          [
            "/wiki/Ji\u0159\u00ed_Dad\u00e1k"
          ]
        ]
      ],
      [
        [
          "1954 Berne details",
          [
            "/wiki/1954_European_Athletics_Championships",
            "/wiki/1954_European_Athletics_Championships_\u2013_Men's_hammer_throw"
          ]
        ],
        [
          "Mikhail Krivonosov ( URS )",
          [
            "/wiki/Mikhail_Krivonosov"
          ]
        ],
        [
          "Sverre Strandli ( NOR )",
          [
            "/wiki/Sverre_Strandli"
          ]
        ],
        [
          "J\u00f3zsef Cserm\u00e1k ( HUN )",
          [
            "/wiki/J\u00f3zsef_Cserm\u00e1k"
          ]
        ]
      ],
      [
        [
          "1958 Stockholm details",
          [
            "/wiki/1958_European_Athletics_Championships",
            "/wiki/1958_European_Athletics_Championships_\u2013_Men's_hammer_throw"
          ]
        ],
        [
          "Tadeusz Rut ( POL )",
          [
            "/wiki/Tadeusz_Rut"
          ]
        ],
        [
          "Mikhail Krivonosov ( URS )",
          [
            "/wiki/Mikhail_Krivonosov"
          ]
        ],
        [
          "Gyula Zsiv\u00f3tzky ( HUN )",
          [
            "/wiki/Gyula_Zsiv\u00f3tzky"
          ]
        ]
      ],
      [
        [
          "1962 Belgrade details",
          [
            "/wiki/1962_European_Athletics_Championships",
            "/wiki/1962_European_Athletics_Championships_\u2013_Men's_hammer_throw"
          ]
        ],
        [
          "Gyula Zsiv\u00f3tzky ( HUN )",
          [
            "/wiki/Gyula_Zsiv\u00f3tzky"
          ]
        ],
        [
          "Aleksey Baltovskiy ( URS )",
          []
        ],
        [
          "Yuriy Bakarinov ( URS )",
          [
            "/wiki/Yuriy_Bakarinov"
          ]
        ]
      ],
      [
        [
          "1966 Budapest details",
          [
            "/wiki/1966_European_Athletics_Championships",
            "/wiki/1966_European_Athletics_Championships_\u2013_Men's_hammer_throw"
          ]
        ],
        [
          "Romuald Klim ( URS )",
          [
            "/wiki/Romuald_Klim"
          ]
        ],
        [
          "Gyula Zsiv\u00f3tzky ( HUN )",
          [
            "/wiki/Gyula_Zsiv\u00f3tzky"
          ]
        ],
        [
          "Uwe Beyer ( FRG )",
          [
            "/wiki/Uwe_Beyer"
          ]
        ]
      ],
      [
        [
          "1969 Athens details",
          [
            "/wiki/1969_European_Athletics_Championships",
            "/wiki/1969_European_Athletics_Championships_\u2013_Men's_hammer_throw"
          ]
        ],
        [
          "Anatoliy Bondarchuk ( URS )",
          [
            "/wiki/Anatoliy_Bondarchuk"
          ]
        ],
        [
          "Romuald Klim ( URS )",
          [
            "/wiki/Romuald_Klim"
          ]
        ],
        [
          "Reinhard Theimer ( GDR )",
          [
            "/wiki/Reinhard_Theimer"
          ]
        ]
      ],
      [
        [
          "1971 Helsinki details",
          [
            "/wiki/1971_European_Athletics_Championships",
            "/wiki/1971_European_Athletics_Championships_\u2013_Men's_hammer_throw"
          ]
        ],
        [
          "Uwe Beyer ( FRG )",
          [
            "/wiki/Uwe_Beyer"
          ]
        ],
        [
          "Reinhard Theimer ( GDR )",
          [
            "/wiki/Reinhard_Theimer"
          ]
        ],
        [
          "Anatoliy Bondarchuk ( URS )",
          [
            "/wiki/Anatoliy_Bondarchuk"
          ]
        ]
      ],
      [
        [
          "1974 Rome details",
          [
            "/wiki/1974_European_Athletics_Championships",
            "/wiki/1974_European_Athletics_Championships_\u2013_Men's_hammer_throw"
          ]
        ],
        [
          "Aleksey Spiridonov ( URS )",
          [
            "/wiki/Aleksey_Spiridonov"
          ]
        ],
        [
          "Jochen Sachse ( GDR )",
          [
            "/wiki/Jochen_Sachse"
          ]
        ],
        [
          "Reinhard Theimer ( GDR )",
          [
            "/wiki/Reinhard_Theimer"
          ]
        ]
      ],
      [
        [
          "1978 Prague details",
          [
            "/wiki/1978_European_Athletics_Championships",
            "/wiki/1978_European_Athletics_Championships_\u2013_Men's_hammer_throw"
          ]
        ],
        [
          "Yuriy Sedykh ( URS )",
          [
            "/wiki/Yuriy_Sedykh"
          ]
        ],
        [
          "Roland Steuk ( GDR )",
          [
            "/wiki/Roland_Steuk"
          ]
        ],
        [
          "Karl-Hans Riehm ( FRG )",
          [
            "/wiki/Karl-Hans_Riehm"
          ]
        ]
      ],
      [
        [
          "1982 Athens details",
          [
            "/wiki/1982_European_Athletics_Championships",
            "/wiki/1982_European_Athletics_Championships_\u2013_Men's_hammer_throw"
          ]
        ],
        [
          "Yuriy Sedykh ( URS )",
          [
            "/wiki/Yuriy_Sedykh"
          ]
        ],
        [
          "Igor Nikulin ( URS )",
          [
            "/wiki/Igor_Nikulin_(hammer_thrower)"
          ]
        ],
        [
          "Sergey Litvinov ( URS )",
          [
            "/wiki/Sergey_Litvinov_(athlete,_born_1958)"
          ]
        ]
      ],
      [
        [
          "1986 Stuttgart details",
          [
            "/wiki/1986_European_Athletics_Championships",
            "/wiki/1986_European_Athletics_Championships_\u2013_Men's_hammer_throw"
          ]
        ],
        [
          "Yuriy Sedykh ( URS )",
          [
            "/wiki/Yuriy_Sedykh"
          ]
        ],
        [
          "Sergey Litvinov ( URS )",
          [
            "/wiki/Sergey_Litvinov_(athlete,_born_1958)"
          ]
        ],
        [
          "Igor Nikulin ( URS )",
          [
            "/wiki/Igor_Nikulin_(hammer_thrower)"
          ]
        ]
      ],
      [
        [
          "1990 Split details",
          [
            "/wiki/1990_European_Athletics_Championships",
            "/wiki/1990_European_Athletics_Championships_\u2013_Men's_hammer_throw"
          ]
        ],
        [
          "Igor Astapkovich ( URS )",
          [
            "/wiki/Igor_Astapkovich"
          ]
        ],
        [
          "Tibor G\u00e9csek ( HUN )",
          [
            "/wiki/Tibor_G\u00e9csek"
          ]
        ],
        [
          "Igor Nikulin ( URS )",
          [
            "/wiki/Igor_Nikulin_(hammer_thrower)"
          ]
        ]
      ],
      [
        [
          "1994 Helsinki details",
          [
            "/wiki/1994_European_Athletics_Championships",
            "/wiki/1994_European_Athletics_Championships_\u2013_Men's_hammer_throw"
          ]
        ],
        [
          "Vasiliy Sidorenko ( RUS )",
          [
            "/wiki/Vasiliy_Sidorenko"
          ]
        ],
        [
          "Igor Astapkovich ( BLR )",
          [
            "/wiki/Igor_Astapkovich"
          ]
        ],
        [
          "Heinz Weis ( GER )",
          [
            "/wiki/Heinz_Weis"
          ]
        ]
      ],
      [
        [
          "1998 Budapest details",
          [
            "/wiki/1998_European_Athletics_Championships",
            "/wiki/1998_European_Athletics_Championships_\u2013_Men's_hammer_throw"
          ]
        ],
        [
          "Tibor G\u00e9csek ( HUN )",
          [
            "/wiki/Tibor_G\u00e9csek"
          ]
        ],
        [
          "Bal\u00e1zs Kiss ( HUN )",
          [
            "/wiki/Bal\u00e1zs_Kiss"
          ]
        ],
        [
          "Karsten Kobs ( GER )",
          [
            "/wiki/Karsten_Kobs"
          ]
        ]
      ],
      [
        [
          "2002 Munich details",
          [
            "/wiki/2002_European_Athletics_Championships",
            "/wiki/2002_European_Athletics_Championships_\u2013_Men's_hammer_throw"
          ]
        ],
        [
          "Adri\u00e1n Annus ( HUN )",
          [
            "/wiki/Adri\u00e1n_Annus"
          ]
        ],
        [
          "Vladyslav Piskunov ( UKR )",
          [
            "/wiki/Vladyslav_Piskunov"
          ]
        ],
        [
          "Alexandros Papadimitriou ( GRE )",
          [
            "/wiki/Alexandros_Papadimitriou"
          ]
        ]
      ],
      [
        [
          "2006 Gothenburg details",
          [
            "/wiki/2006_European_Athletics_Championships",
            "/wiki/2006_European_Athletics_Championships_\u2013_Men's_hammer_throw"
          ]
        ],
        [
          "Ivan Tsikhan ( BLR )",
          [
            "/wiki/Ivan_Tsikhan"
          ]
        ],
        [
          "Olli-Pekka Karjalainen ( FIN )",
          [
            "/wiki/Olli-Pekka_Karjalainen"
          ]
        ],
        [
          "Vadim Devyatovskiy ( BLR )",
          [
            "/wiki/Vadim_Devyatovskiy"
          ]
        ]
      ],
      [
        [
          "2010 Barcelona details",
          [
            "/wiki/2010_European_Athletics_Championships",
            "/wiki/2010_European_Athletics_Championships_\u2013_Men's_hammer_throw"
          ]
        ],
        [
          "Libor Charfreitag ( SVK )",
          [
            "/wiki/Libor_Charfreitag"
          ]
        ],
        [
          "Nicola Vizzoni ( ITA )",
          [
            "/wiki/Nicola_Vizzoni"
          ]
        ],
        [
          "Kriszti\u00e1n Pars ( HUN )",
          [
            "/wiki/Kriszti\u00e1n_Pars"
          ]
        ]
      ]
    ],
    "section_title": "",
    "section_text": "This template is used for lightweight transclusion in Hammer throw and List of European Athletics Championships medalists ( men ) .Transclusion templates are utilized to avoid disruption and unnecessary server load while editing heavy articles . Please consider discussing any changes to this template on the articles ' talk pages before implementing them .",
    "uid": "Template:European_Athletics_Championships_medalists_in_men's_hammer_throw_0",
    "intro": "N/A"
  }
}