{
  "Italy_national_relays_team_at_the_international_athletics_championships_12": {
    "url": "https://en.wikipedia.org/wiki/Italian_national_track_relay_team",
    "title": "Italian national track relay team",
    "header": [
      [
        "Edition",
        []
      ],
      [
        "Event",
        []
      ],
      [
        "Team",
        []
      ],
      [
        "Position",
        []
      ],
      [
        "Time",
        []
      ]
    ],
    "data": [
      [
        [
          "Barcelona 1955",
          [
            "/wiki/1955_Mediterranean_Games"
          ]
        ],
        [
          "4 x 400 m relay men",
          []
        ],
        [
          "Luigi Grossi , Vincenzo Lombardo , Mario Paoletti , Baldassarre Porto",
          [
            "/wiki/Luigi_Grossi",
            "/wiki/Vincenzo_Lombardo",
            "/wiki/Baldassare_Porto"
          ]
        ],
        [
          "2nd",
          []
        ],
        [
          "3:14.4",
          []
        ]
      ],
      [
        [
          "Tunis 1967",
          [
            "/wiki/1967_Mediterranean_Games"
          ]
        ],
        [
          "4 x 400 m relay men",
          []
        ],
        [
          "Sergio Bello , Furio Fusi , Sergio Ottolina , Giacomo Puosi",
          [
            "/wiki/Sergio_Bello",
            "/wiki/Furio_Fusi",
            "/wiki/Sergio_Ottolina",
            "/wiki/Giacomo_Puosi"
          ]
        ],
        [
          "1st",
          []
        ],
        [
          "3.12.6",
          []
        ]
      ],
      [
        [
          "Izmir 1971",
          [
            "/wiki/1971_Mediterranean_Games"
          ]
        ],
        [
          "4 x 400 m relay men",
          []
        ],
        [
          "Sergio Bello , Daniele Giovanardi , Lorenzo Cellerino , Giacomo Puosi",
          [
            "/wiki/Sergio_Bello",
            "/wiki/Daniele_Giovanardi",
            "/wiki/Lorenzo_Cellerino",
            "/wiki/Giacomo_Puosi"
          ]
        ],
        [
          "1st",
          []
        ],
        [
          "3:07.5",
          []
        ]
      ],
      [
        [
          "Alger 1975",
          [
            "/wiki/1975_Mediterranean_Games"
          ]
        ],
        [
          "4 x 400 m relay men",
          []
        ],
        [
          "Alfonso Di Guida , Flavio Borghi , Bruno Magnani , Giorgio Ballati",
          [
            "/wiki/Alfonso_Di_Guida",
            "/wiki/Giorgio_Ballati"
          ]
        ],
        [
          "3rd",
          []
        ],
        [
          "3:06.72",
          []
        ]
      ],
      [
        [
          "Split 1979",
          [
            "/wiki/1979_Mediterranean_Games"
          ]
        ],
        [
          "4 x 400 m relay men",
          []
        ],
        [
          "Alfonso Di Guida , Flavio Borghi , Stefano Malinverni , Roberto Tozzi",
          [
            "/wiki/Alfonso_Di_Guida",
            "/wiki/Stefano_Malinverni",
            "/wiki/Roberto_Tozzi"
          ]
        ],
        [
          "3rd",
          []
        ],
        [
          "3:04.61",
          []
        ]
      ],
      [
        [
          "Casablanca 1983",
          [
            "/wiki/1983_Mediterranean_Games"
          ]
        ],
        [
          "4 x 400 m relay men",
          []
        ],
        [
          "Roberto Ribaud , Donato Sabia , Mauro Zuliani , Daniele D'Amico",
          [
            "/wiki/Roberto_Ribaud",
            "/wiki/Donato_Sabia",
            "/wiki/Mauro_Zuliani"
          ]
        ],
        [
          "2nd",
          []
        ],
        [
          "3:04.54",
          []
        ]
      ],
      [
        [
          "Casablanca 1983",
          [
            "/wiki/1983_Mediterranean_Games"
          ]
        ],
        [
          "4 x 400 m relay women",
          []
        ],
        [
          "Cosetta Campana , Giuseppina Cirulli , Letizia Magenti , Erica Rossi",
          [
            "/wiki/Cosetta_Campana",
            "/wiki/Giuseppina_Cirulli",
            "/wiki/Erica_Rossi"
          ]
        ],
        [
          "1st",
          []
        ],
        [
          "3:33.63",
          []
        ]
      ],
      [
        [
          "Latakia 1987",
          [
            "/wiki/1987_Mediterranean_Games"
          ]
        ],
        [
          "4 x 400 m relay men",
          []
        ],
        [
          "Roberto Ribaud , Andrea Montanari , Vito Petrella , Marcello Pantone",
          [
            "/wiki/Roberto_Ribaud",
            "/wiki/Andrea_Montanari",
            "/wiki/Vito_Petrella",
            "/wiki/Marcello_Pantone"
          ]
        ],
        [
          "1st",
          []
        ],
        [
          "3:05.29",
          []
        ]
      ],
      [
        [
          "Latakia 1987",
          [
            "/wiki/1987_Mediterranean_Games"
          ]
        ],
        [
          "4 x 400 m relay women",
          []
        ],
        [
          "Cosetta Campana , Giuseppina Cirulli , Nevia Pristino , Erica Rossi",
          [
            "/wiki/Cosetta_Campana",
            "/wiki/Giuseppina_Cirulli",
            "/wiki/Erica_Rossi"
          ]
        ],
        [
          "1st",
          []
        ],
        [
          "3:32.14",
          []
        ]
      ],
      [
        [
          "Athens 1991",
          [
            "/wiki/1991_Mediterranean_Games"
          ]
        ],
        [
          "4 x 400 m relay men",
          []
        ],
        [
          "Fabio Grossi , Andrea Nuti , Marco Vaccari , Alessandro Aimar",
          [
            "/wiki/Fabio_Grossi_(athlete)",
            "/wiki/Andrea_Nuti",
            "/wiki/Marco_Vaccari",
            "/wiki/Alessandro_Aimar"
          ]
        ],
        [
          "1st",
          []
        ],
        [
          "3:03.20",
          []
        ]
      ],
      [
        [
          "Athens 1991",
          [
            "/wiki/1991_Mediterranean_Games"
          ]
        ],
        [
          "4 x 400 m relay women",
          []
        ],
        [
          "Cosetta Campana , Barbara Martinelli , Roberta Rabaioli , Johanna Zuddas",
          [
            "/wiki/Cosetta_Campana"
          ]
        ],
        [
          "2nd",
          []
        ],
        [
          "3:33.68",
          []
        ]
      ],
      [
        [
          "Narbonne 1993",
          [
            "/wiki/1993_Mediterranean_Games"
          ]
        ],
        [
          "4 x 400 m relay men",
          []
        ],
        [
          "Maurizio Federici , Gianrico Boncompagni , Vito Petrella , Alessandro Aimar",
          [
            "/wiki/Vito_Petrella",
            "/wiki/Alessandro_Aimar"
          ]
        ],
        [
          "3rd",
          []
        ],
        [
          "3.05.11",
          []
        ]
      ],
      [
        [
          "Bari 1997",
          [
            "/wiki/1991_Mediterranean_Games"
          ]
        ],
        [
          "4 x 400 m relay men",
          []
        ],
        [
          "Michele Grando , Walter Groff , Fabrizio Mori , Ashraf Saber",
          [
            "/wiki/Fabrizio_Mori",
            "/wiki/Ashraf_Saber"
          ]
        ],
        [
          "3rd",
          []
        ],
        [
          "3:03.08",
          []
        ]
      ],
      [
        [
          "Bari 1997",
          [
            "/wiki/1991_Mediterranean_Games"
          ]
        ],
        [
          "4 x 400 m relay women",
          []
        ],
        [
          "Carla Barbarino , Francesca Carbone , Francesca Cola , Patrizia Spuri",
          [
            "/wiki/Carla_Barbarino",
            "/wiki/Francesca_Carbone",
            "/wiki/Patrizia_Spuri"
          ]
        ],
        [
          "1st",
          []
        ],
        [
          "3:29.98",
          []
        ]
      ],
      [
        [
          "Tunis 2001",
          [
            "/wiki/2001_Mediterranean_Games"
          ]
        ],
        [
          "4 x 400 m relay women",
          []
        ],
        [
          "Francesca Carbone , Danielle Perpoli , Fabiola Piroddi , Daniela Reina",
          [
            "/wiki/Francesca_Carbone",
            "/wiki/Danielle_Perpoli",
            "/wiki/Fabiola_Piroddi",
            "/wiki/Daniela_Reina"
          ]
        ],
        [
          "2nd",
          []
        ],
        [
          "3:38.90",
          []
        ]
      ],
      [
        [
          "Mersin 2013",
          [
            "/wiki/2013_Mediterranean_Games"
          ]
        ],
        [
          "4 x 400 m relay men",
          []
        ],
        [
          "Lorenzo Valentini , Isalbet Juarez , Michele Tricca , Matteo Galvan",
          [
            "/wiki/Lorenzo_Valentini",
            "/wiki/Isalbet_Juarez",
            "/wiki/Michele_Tricca",
            "/wiki/Matteo_Galvan"
          ]
        ],
        [
          "1st",
          []
        ],
        [
          "3:04.61",
          []
        ]
      ],
      [
        [
          "Mersin 2013",
          [
            "/wiki/2013_Mediterranean_Games"
          ]
        ],
        [
          "4 x 400 m relay women",
          []
        ],
        [
          "Maria Enrica Spacca , Elena Maria Bonfanti , Maria Benedicta Chigbolu , Chiara Bazzoni",
          [
            "/wiki/Maria_Enrica_Spacca",
            "/wiki/Elena_Maria_Bonfanti",
            "/wiki/Maria_Benedicta_Chigbolu",
            "/wiki/Chiara_Bazzoni"
          ]
        ],
        [
          "1st",
          []
        ],
        [
          "3:32.44",
          []
        ]
      ],
      [
        [
          "Tarragona 2018",
          [
            "/wiki/2018_Mediterranean_Games"
          ]
        ],
        [
          "4 x 400 m relay men",
          []
        ],
        [
          "Matteo Galvan , Giuseppe Leonardi , Davide Re , Michele Tricca",
          [
            "/wiki/Matteo_Galvan",
            "/wiki/Davide_Re",
            "/wiki/Michele_Tricca"
          ]
        ],
        [
          "1st",
          []
        ],
        [
          "3:03.54",
          []
        ]
      ],
      [
        [
          "Tarragona 2018",
          [
            "/wiki/2018_Mediterranean_Games"
          ]
        ],
        [
          "4 x 400 m relay women",
          []
        ],
        [
          "Benedicta Chigbolu , Ayomide Folorunso , Libania Grenot , Raphaela Lukudo",
          [
            "/wiki/Maria_Benedicta_Chigbolu",
            "/wiki/Ayomide_Folorunso",
            "/wiki/Libania_Grenot",
            "/wiki/Raphaela_Lukudo"
          ]
        ],
        [
          "1st",
          []
        ],
        [
          "3:28.08",
          []
        ]
      ]
    ],
    "section_title": "Mediterranean Games -- 4 x 400 m relay",
    "section_text": "",
    "uid": "Italy_national_relays_team_at_the_international_athletics_championships_12",
    "intro": "The Italy national relays team at the international athletics championships refer to the results of the Italian athletics team (in this page only at senior level), in the races of 4x100 metres relay and 4x400 metres relay at the International athletics competitions such as Olympic Games, World Championships, European Championships, Summer Universiade, Mediterranean Games, World Military Games and European Team Championships."
  },
  "Christian_Heritage_Party_of_Canada_candidates,_2008_Canadian_federal_election_3": {
    "url": "https://en.wikipedia.org/wiki/Christian_Heritage_Party_of_Canada_candidates_in_the_2008_Canadian_federal_election",
    "title": "Christian Heritage Party of Canada candidates in the 2008 Canadian federal election",
    "header": [
      [
        "Riding",
        []
      ],
      [
        "Candidate 's Name",
        []
      ],
      [
        "Gender",
        []
      ],
      [
        "Residence",
        []
      ],
      [
        "Occupation",
        []
      ],
      [
        "Votes",
        []
      ],
      [
        "%",
        []
      ],
      [
        "Rank",
        []
      ]
    ],
    "data": [
      [
        [
          "Central Nova",
          [
            "/wiki/Central_Nova"
          ]
        ],
        [
          "Michael Mackay",
          []
        ],
        [
          "M",
          []
        ],
        [
          "West River Station",
          []
        ],
        [
          "Retail",
          []
        ],
        [
          "427",
          []
        ],
        [
          "1.1%",
          []
        ],
        [
          "4th",
          []
        ]
      ],
      [
        [
          "Dartmouth - Cole Harbour",
          [
            "/wiki/Dartmouth\u2014Cole_Harbour"
          ]
        ],
        [
          "George Campbell",
          []
        ],
        [
          "M",
          []
        ],
        [
          "Dartmouth",
          [
            "/wiki/Dartmouth,_Nova_Scotia"
          ]
        ],
        [
          "Minister",
          []
        ],
        [
          "219",
          []
        ],
        [
          "0.5%",
          []
        ],
        [
          "5th",
          []
        ]
      ],
      [
        [
          "Halifax West",
          [
            "/wiki/Halifax_West"
          ]
        ],
        [
          "Trevor Ennis",
          []
        ],
        [
          "M",
          []
        ],
        [
          "Halifax",
          [
            "/wiki/Halifax,_Nova_Scotia"
          ]
        ],
        [
          "Swimming Pool Salesman",
          []
        ],
        [
          "257",
          []
        ],
        [
          "0.6%",
          []
        ],
        [
          "5th",
          []
        ]
      ],
      [
        [
          "Kings - Hants",
          [
            "/wiki/Kings\u2014Hants"
          ]
        ],
        [
          "Jim Hnatiuk",
          [
            "/wiki/Jim_Hnatiuk"
          ]
        ],
        [
          "M",
          []
        ],
        [
          "Enfield",
          [
            "/wiki/Enfield,_Nova_Scotia"
          ]
        ],
        [
          "Combat Systems Technician",
          []
        ],
        [
          "528",
          []
        ],
        [
          "1.4%",
          []
        ],
        [
          "5th",
          []
        ]
      ],
      [
        [
          "South Shore - St. Margaret 's",
          [
            "/wiki/South_Shore\u2014St._Margarets"
          ]
        ],
        [
          "Joe Larkin",
          []
        ],
        [
          "M",
          []
        ],
        [
          "Shag Harbour",
          [
            "/wiki/Shag_Harbour,_Nova_Scotia"
          ]
        ],
        [
          "Retired",
          []
        ],
        [
          "513",
          []
        ],
        [
          "1.3%",
          []
        ],
        [
          "5th",
          []
        ]
      ]
    ],
    "section_title": "Nova Scotia - 11 seats",
    "section_text": "",
    "uid": "Christian_Heritage_Party_of_Canada_candidates,_2008_Canadian_federal_election_3",
    "intro": "This is a list of the 59 candidates who ran for the Christian Heritage Party of Canada in the 40th Canadian federal election."
  },
  "List_of_international_trips_made_by_the_United_States_Secretary_of_State_17": {
    "url": "https://en.wikipedia.org/wiki/List_of_international_trips_made_by_the_United_States_Secretary_of_State",
    "title": "List of international trips made by the United States Secretary of State",
    "header": [
      [
        "",
        []
      ],
      [
        "Country",
        []
      ],
      [
        "Locations",
        []
      ],
      [
        "Details",
        []
      ],
      [
        "Dates",
        []
      ]
    ],
    "data": [
      [
        [
          "1",
          []
        ],
        [
          "Belgium",
          [
            "/wiki/Belgium"
          ]
        ],
        [
          "Brussels",
          [
            "/wiki/Brussels"
          ]
        ],
        [
          "Accompanied President Richard Nixon ; attended the 23d meeting of the North Atlantic Council",
          [
            "/wiki/Richard_Nixon",
            "/wiki/North_Atlantic_Council"
          ]
        ],
        [
          "February 23-24 , 1969",
          []
        ]
      ],
      [
        [
          "1",
          []
        ],
        [
          "United Kingdom",
          [
            "/wiki/United_Kingdom"
          ]
        ],
        [
          "London",
          [
            "/wiki/London"
          ]
        ],
        [
          "Accompanied President Nixon on an informal visit",
          [
            "/wiki/Richard_Nixon"
          ]
        ],
        [
          "February 24-26 , 1969",
          []
        ]
      ],
      [
        [
          "1",
          []
        ],
        [
          "West Germany",
          [
            "/wiki/West_Germany"
          ]
        ],
        [
          "Bonn",
          [
            "/wiki/Bonn"
          ]
        ],
        [
          "Accompanied President Nixon",
          [
            "/wiki/Richard_Nixon"
          ]
        ],
        [
          "February 26-27 , 1969",
          []
        ]
      ],
      [
        [
          "1",
          []
        ],
        [
          "West Berlin",
          [
            "/wiki/West_Berlin"
          ]
        ],
        [
          "West Berlin",
          [
            "/wiki/West_Berlin"
          ]
        ],
        [
          "Accompanied President Nixon",
          [
            "/wiki/Richard_Nixon"
          ]
        ],
        [
          "February 27 , 1969",
          []
        ]
      ],
      [
        [
          "1",
          []
        ],
        [
          "Italy",
          [
            "/wiki/Italy"
          ]
        ],
        [
          "Rome",
          [
            "/wiki/Rome"
          ]
        ],
        [
          "Accompanied President Nixon",
          [
            "/wiki/Richard_Nixon"
          ]
        ],
        [
          "February 27-28 , 1969",
          []
        ]
      ],
      [
        [
          "1",
          []
        ],
        [
          "Vatican City State",
          [
            "/wiki/Vatican_City"
          ]
        ],
        [
          "Vatican City",
          [
            "/wiki/Vatican_City"
          ]
        ],
        [
          "Accompanied President Nixon",
          [
            "/wiki/Richard_Nixon"
          ]
        ],
        [
          "March 2 , 1969",
          []
        ]
      ],
      [
        [
          "2",
          []
        ],
        [
          "South Vietnam",
          [
            "/wiki/South_Vietnam"
          ]
        ],
        [
          "Saigon",
          [
            "/wiki/Ho_Chi_Minh_City"
          ]
        ],
        [
          "Met with President Nguyen Van Thieu and U.S. and Vietnamese officials . Left U.S. May 12",
          [
            "/wiki/Nguy\u1ec5n_V\u0103n_Thi\u1ec7u"
          ]
        ],
        [
          "May 14-19 , 1969",
          []
        ]
      ],
      [
        [
          "2",
          []
        ],
        [
          "Thailand",
          [
            "/wiki/Thailand"
          ]
        ],
        [
          "Bangkok",
          [
            "/wiki/Bangkok"
          ]
        ],
        [
          "Attended the SEATO Council and Seven-Nation Meetings",
          []
        ],
        [
          "May 19-23 , 1969",
          []
        ]
      ],
      [
        [
          "2",
          []
        ],
        [
          "India",
          [
            "/wiki/India"
          ]
        ],
        [
          "New Delhi",
          [
            "/wiki/New_Delhi"
          ]
        ],
        [
          "Met with Prime Minister Indira Gandhi and senior Indian officials",
          [
            "/wiki/Indira_Gandhi"
          ]
        ],
        [
          "May 23-24 , 1969",
          []
        ]
      ],
      [
        [
          "2",
          []
        ],
        [
          "Pakistan",
          [
            "/wiki/Pakistan"
          ]
        ],
        [
          "Lahore",
          [
            "/wiki/Lahore"
          ]
        ],
        [
          "Met with President Yahya Khan and senior Pakistani officials",
          [
            "/wiki/Yahya_Khan"
          ]
        ],
        [
          "May 24-25 , 1969",
          []
        ]
      ],
      [
        [
          "2",
          []
        ],
        [
          "Afghanistan",
          [
            "/wiki/Kingdom_of_Afghanistan"
          ]
        ],
        [
          "Kabul",
          [
            "/wiki/Kabul"
          ]
        ],
        [
          "Met with King Mohammad Zahir Shah and Prime Minister Mohammad Nur Ahmad Etemadi",
          [
            "/wiki/Mohammed_Zahir_Shah",
            "/wiki/Mohammad_Nur_Ahmad_Etemadi"
          ]
        ],
        [
          "May 25 , 1969",
          []
        ]
      ],
      [
        [
          "2",
          []
        ],
        [
          "Iran",
          [
            "/wiki/Iran"
          ]
        ],
        [
          "Tehran",
          [
            "/wiki/Tehran"
          ]
        ],
        [
          "Attended CENTO Ministerial Meeting",
          []
        ],
        [
          "May 26-28 , 1969",
          []
        ]
      ],
      [
        [
          "3",
          []
        ],
        [
          "Canada",
          [
            "/wiki/Canada"
          ]
        ],
        [
          "Montreal",
          [
            "/wiki/Montreal"
          ]
        ],
        [
          "Accompanied President Nixon to the 10th Anniversary ceremonies of the St. Lawrence Seaway",
          [
            "/wiki/Richard_Nixon",
            "/wiki/Saint_Lawrence_Seaway"
          ]
        ],
        [
          "June 27 , 1969",
          []
        ]
      ],
      [
        [
          "4",
          []
        ],
        [
          "Philippines",
          [
            "/wiki/Philippines"
          ]
        ],
        [
          "Manila",
          [
            "/wiki/Manila"
          ]
        ],
        [
          "Accompanied President Nixon on a State visit",
          [
            "/wiki/Richard_Nixon"
          ]
        ],
        [
          "July 26-27 , 1969",
          []
        ]
      ],
      [
        [
          "4",
          []
        ],
        [
          "Indonesia",
          [
            "/wiki/Indonesia"
          ]
        ],
        [
          "Jakarta",
          [
            "/wiki/Jakarta"
          ]
        ],
        [
          "Accompanied President Nixon on a State visit",
          [
            "/wiki/Richard_Nixon"
          ]
        ],
        [
          "July 27-28 , 1969",
          []
        ]
      ],
      [
        [
          "4",
          []
        ],
        [
          "Japan",
          [
            "/wiki/Japan"
          ]
        ],
        [
          "Tokyo",
          [
            "/wiki/Tokyo"
          ]
        ],
        [
          "Attended a meeting of the Joint Committee on Trade and Economic Development . Signed a space cooperation agreement",
          []
        ],
        [
          "July 28-31 , 1969",
          []
        ]
      ],
      [
        [
          "4",
          []
        ],
        [
          "South Korea",
          [
            "/wiki/South_Korea"
          ]
        ],
        [
          "Seoul",
          [
            "/wiki/Seoul"
          ]
        ],
        [
          "Met with President Park and senior Korean officials",
          [
            "/wiki/Park_Chung-hee"
          ]
        ],
        [
          "July 31 - August 1 , 1969",
          []
        ]
      ],
      [
        [
          "4",
          []
        ],
        [
          "Republic of China",
          [
            "/wiki/Taiwan"
          ]
        ],
        [
          "Taipei",
          [
            "/wiki/Taipei"
          ]
        ],
        [
          "Met with President Chiang and senior Chinese Nationalist officials",
          [
            "/wiki/Chiang_Kai-shek"
          ]
        ],
        [
          "August 1-3 , 1969",
          []
        ]
      ],
      [
        [
          "4",
          []
        ],
        [
          "Hong Kong",
          [
            "/wiki/Hong_Kong"
          ]
        ],
        [
          "Hong Kong",
          []
        ],
        [
          "Met with British colonial officials and held a press conference",
          []
        ],
        [
          "August 3-5 , 1969",
          []
        ]
      ],
      [
        [
          "4",
          []
        ],
        [
          "Indonesia",
          [
            "/wiki/Indonesia"
          ]
        ],
        [
          "Bali",
          [
            "/wiki/Bali"
          ]
        ],
        [
          "Met with Foreign Minister Adam Malik",
          [
            "/wiki/Adam_Malik"
          ]
        ],
        [
          "August 5-7 , 1969",
          []
        ]
      ]
    ],
    "section_title": "William P. Rogers",
    "section_text": "William P. Rogers , U.S. Secretary of State Left to right : Secretary of State William P. Rogers , President Nixon , Prime Minister Trudeau , and Canadian Secretary of State for External Affairs Mitchell Sharp at the signing ceremony for the Great Lakes Water Quality Agreement Secretary of State William P. Rogers at a meeting between President Nixon and West German Chancellor Willy Brandt at the White House in 1973 William P. Rogers ( in office 1969\u20131973 ) [ 1 ]",
    "uid": "List_of_international_trips_made_by_the_United_States_Secretary_of_State_17",
    "intro": "This is a list of international visits undertaken by the United States secretary of state. The list includes both private travel and official state visits. The list includes only foreign travel which the secretaries of state have made during their tenure in the position. The first secretary of state who made a trip abroad was William H. Seward, who visited the Danish West Indies in 1866. In the early years, most secretary of state visits took place in the North, Central, and South American countries and in the Caribbean. John Hay was the first secretary of state to visit Europe. Philander C. Knox was the first to go to Asia. Cordell Hull was the first to go to Africa. Dean Rusk was the first to go to Oceania."
  },
  "National_Register_of_Historic_Places_listings_in_Comanche_County,_Oklahoma_0": {
    "url": "https://en.wikipedia.org/wiki/National_Register_of_Historic_Places_listings_in_Comanche_County,_Oklahoma",
    "title": "National Register of Historic Places listings in Comanche County, Oklahoma",
    "header": [
      [
        "",
        []
      ],
      [
        "Name on the Register",
        []
      ],
      [
        "Date listed",
        []
      ],
      [
        "Location",
        []
      ],
      [
        "City or town",
        []
      ]
    ],
    "data": [
      [
        [
          "1",
          []
        ],
        [
          "Arrastra Site",
          []
        ],
        [
          "May 11 , 1981 ( # 81000455 )",
          []
        ],
        [
          "Cedar Plantation , Wichita Mountains Wildlife Refuge 34\u00b045\u203210\u2033N 98\u00b034\u203234\u2033W / 34.75276\u00b0N 98.57603\u00b0W / 34.75276 ; -98.57603 ( Arrastra Site )",
          [
            "/wiki/Wichita_Mountains_Wildlife_Refuge"
          ]
        ],
        [
          "Cache",
          [
            "/wiki/Cache,_Oklahoma"
          ]
        ]
      ],
      [
        [
          "2",
          []
        ],
        [
          "Balloon Hangar at Henry Post Army Airfield",
          []
        ],
        [
          "November 20 , 2015 ( # 15000826 )",
          []
        ],
        [
          "5037 Tucker Rd . 34\u00b039\u203204\u2033N 98\u00b023\u203253\u2033W / 34.651064\u00b0N 98.397928\u00b0W / 34.651064 ; -98.397928 ( Balloon Hangar at Henry Post Army Airfield )",
          []
        ],
        [
          "Fort Sill",
          [
            "/wiki/Fort_Sill"
          ]
        ]
      ],
      [
        [
          "3",
          []
        ],
        [
          "Mattie Beal House",
          [
            "/wiki/Mattie_Beal_House"
          ]
        ],
        [
          "August 19 , 1975 ( # 75001564 )",
          []
        ],
        [
          "5th St. and Summit Ave. 34\u00b035\u203244\u2033N 98\u00b023\u203241\u2033W / 34.595556\u00b0N 98.394722\u00b0W / 34.595556 ; -98.394722 ( Mattie Beal House )",
          []
        ],
        [
          "Lawton",
          [
            "/wiki/Lawton,_Oklahoma"
          ]
        ]
      ],
      [
        [
          "4",
          []
        ],
        [
          "Blockhouse on Signal Mountain",
          []
        ],
        [
          "November 29 , 1978 ( # 78002228 )",
          []
        ],
        [
          "Off Mackenzie Hill Rd . 34\u00b040\u203227\u2033N 98\u00b029\u203225\u2033W / 34.674167\u00b0N 98.490278\u00b0W / 34.674167 ; -98.490278 ( Blockhouse on Signal Mountain )",
          []
        ],
        [
          "Fort Sill",
          [
            "/wiki/Fort_Sill"
          ]
        ]
      ],
      [
        [
          "5",
          []
        ],
        [
          "Boulder Cabin",
          []
        ],
        [
          "May 11 , 1981 ( # 81000456 )",
          []
        ],
        [
          "Northwest of Cache , Wichita Mountains Wildlife Refuge 34\u00b042\u203206\u2033N 98\u00b040\u203230\u2033W / 34.701667\u00b0N 98.675\u00b0W / 34.701667 ; -98.675 ( Boulder Cabin )",
          []
        ],
        [
          "Cache",
          [
            "/wiki/Cache,_Oklahoma"
          ]
        ]
      ],
      [
        [
          "6",
          []
        ],
        [
          "Buffalo Lodge",
          [
            "/wiki/Buffalo_Lodge"
          ]
        ],
        [
          "May 11 , 1981 ( # 81000457 )",
          []
        ],
        [
          "Northwest of Cache 34\u00b044\u203200\u2033N 98\u00b042\u203238\u2033W / 34.733333\u00b0N 98.710556\u00b0W / 34.733333 ; -98.710556 ( Buffalo Lodge )",
          []
        ],
        [
          "Cache",
          [
            "/wiki/Cache,_Oklahoma"
          ]
        ]
      ],
      [
        [
          "7",
          []
        ],
        [
          "Building 309 , Fort Sill Indian School",
          []
        ],
        [
          "October 15 , 1973 ( # 73001559 )",
          []
        ],
        [
          "Eastern edge of Lawton , off U.S. Route 62 34\u00b037\u203223\u2033N 98\u00b022\u203251\u2033W / 34.62312\u00b0N 98.38081\u00b0W / 34.62312 ; -98.38081 ( Building 309 , Fort Sill Indian School )",
          [
            "/wiki/U.S._Route_62"
          ]
        ],
        [
          "Lawton",
          [
            "/wiki/Lawton,_Oklahoma"
          ]
        ]
      ],
      [
        [
          "8",
          []
        ],
        [
          "Camp Comanche Site",
          []
        ],
        [
          "May 12 , 1977 ( # 77001091 )",
          []
        ],
        [
          "Address Restricted",
          []
        ],
        [
          "Fort Sill",
          [
            "/wiki/Fort_Sill"
          ]
        ]
      ],
      [
        [
          "9",
          []
        ],
        [
          "Carnegie Library",
          [
            "/wiki/Carnegie_Library_(Lawton,_Oklahoma)"
          ]
        ],
        [
          "August 19 , 1976 ( # 76001560 )",
          []
        ],
        [
          "B Ave. and 5th St. 34\u00b036\u203224\u2033N 98\u00b023\u203240\u2033W / 34.606667\u00b0N 98.394444\u00b0W / 34.606667 ; -98.394444 ( Carnegie Library )",
          []
        ],
        [
          "Lawton",
          [
            "/wiki/Lawton,_Oklahoma"
          ]
        ]
      ],
      [
        [
          "10",
          []
        ],
        [
          "Central Fire Station",
          []
        ],
        [
          "September 7 , 2016 ( # 16000618 )",
          []
        ],
        [
          "623 SW. D Ave. 34\u00b036\u203215\u2033N 98\u00b023\u203253\u2033W / 34.604055\u00b0N 98.398035\u00b0W / 34.604055 ; -98.398035 ( Central Fire Station )",
          []
        ],
        [
          "Lawton",
          [
            "/wiki/Lawton,_Oklahoma"
          ]
        ]
      ],
      [
        [
          "11",
          []
        ],
        [
          "Chiefs Knoll",
          []
        ],
        [
          "May 16 , 1978 ( # 78002229 )",
          []
        ],
        [
          "Macomb and Burrill Rds . 34\u00b040\u203210\u2033N 98\u00b023\u203242\u2033W / 34.669444\u00b0N 98.395\u00b0W / 34.669444 ; -98.395 ( Chiefs Knoll )",
          []
        ],
        [
          "Fort Sill",
          [
            "/wiki/Fort_Sill"
          ]
        ]
      ],
      [
        [
          "12",
          []
        ],
        [
          "Comanche Indian Mission Cemetery",
          []
        ],
        [
          "February 4 , 2014 ( # 12000437 )",
          []
        ],
        [
          "Henry Post Army Airfield , 4900 Area 34\u00b038\u203232\u2033N 98\u00b023\u203233\u2033W / 34.642318\u00b0N 98.392464\u00b0W / 34.642318 ; -98.392464 ( Comanche Indian Mission Cemetery )",
          []
        ],
        [
          "Fort Sill",
          [
            "/wiki/Fort_Sill"
          ]
        ]
      ],
      [
        [
          "13",
          []
        ],
        [
          "Douglass School",
          []
        ],
        [
          "November 25 , 2008 ( # 08001148 )",
          []
        ],
        [
          "102 E. Gore Boulevard 34\u00b036\u203235\u2033N 98\u00b023\u203208\u2033W / 34.60977\u00b0N 98.38551\u00b0W / 34.60977 ; -98.38551 ( Douglass School )",
          []
        ],
        [
          "Lawton",
          [
            "/wiki/Lawton,_Oklahoma"
          ]
        ]
      ],
      [
        [
          "14",
          []
        ],
        [
          "Federal Building and US Courthouse",
          []
        ],
        [
          "March 24 , 2000 ( # 00000243 )",
          []
        ],
        [
          "410 SW Fifth St. 34\u00b036\u203211\u2033N 98\u00b023\u203240\u2033W / 34.603056\u00b0N 98.394444\u00b0W / 34.603056 ; -98.394444 ( Federal Building and US Courthouse )",
          []
        ],
        [
          "Lawton",
          [
            "/wiki/Lawton,_Oklahoma"
          ]
        ]
      ],
      [
        [
          "15",
          []
        ],
        [
          "Ferguson House",
          []
        ],
        [
          "May 11 , 1981 ( # 81000458 )",
          []
        ],
        [
          "Northwest of Cache 34\u00b043\u203200\u2033N 98\u00b036\u203220\u2033W / 34.716667\u00b0N 98.605556\u00b0W / 34.716667 ; -98.605556 ( Ferguson House )",
          []
        ],
        [
          "Cache",
          [
            "/wiki/Cache,_Oklahoma"
          ]
        ]
      ],
      [
        [
          "16",
          []
        ],
        [
          "First Christian Church",
          [
            "/wiki/First_Christian_Church_(Lawton,_Oklahoma)"
          ]
        ],
        [
          "March 12 , 1985 ( # 85000566 )",
          []
        ],
        [
          "701 D Ave. 34\u00b036\u203216\u2033N 98\u00b023\u203254\u2033W / 34.604444\u00b0N 98.398333\u00b0W / 34.604444 ; -98.398333 ( First Christian Church )",
          []
        ],
        [
          "Lawton",
          [
            "/wiki/Lawton,_Oklahoma"
          ]
        ]
      ],
      [
        [
          "17",
          []
        ],
        [
          "First Presbyterian Church of Lawton",
          [
            "/wiki/First_Presbyterian_Church_of_Lawton"
          ]
        ],
        [
          "December 14 , 1979 ( # 79001990 )",
          []
        ],
        [
          "8th St. and D Ave. 34\u00b036\u203213\u2033N 98\u00b023\u203258\u2033W / 34.603611\u00b0N 98.399444\u00b0W / 34.603611 ; -98.399444 ( First Presbyterian Church of Lawton )",
          []
        ],
        [
          "Lawton",
          [
            "/wiki/Lawton,_Oklahoma"
          ]
        ]
      ],
      [
        [
          "18",
          []
        ],
        [
          "First State Bank of Indiahoma",
          []
        ],
        [
          "November 6 , 1980 ( # 80003261 )",
          []
        ],
        [
          "Main St. 34\u00b037\u203210\u2033N 98\u00b045\u203206\u2033W / 34.619444\u00b0N 98.751667\u00b0W / 34.619444 ; -98.751667 ( First State Bank of Indiahoma )",
          []
        ],
        [
          "Indiahoma",
          [
            "/wiki/Indiahoma,_Oklahoma"
          ]
        ]
      ],
      [
        [
          "19",
          []
        ],
        [
          "Fort Sill",
          [
            "/wiki/Fort_Sill"
          ]
        ],
        [
          "October 15 , 1966 ( # 66000629 )",
          []
        ],
        [
          "U.S. Route 62 34\u00b040\u203213\u2033N 98\u00b023\u203215\u2033W / 34.670278\u00b0N 98.3875\u00b0W / 34.670278 ; -98.3875 ( Fort Sill )",
          [
            "/wiki/U.S._Route_62"
          ]
        ],
        [
          "Fort Sill",
          [
            "/wiki/Fort_Sill"
          ]
        ]
      ],
      [
        [
          "20",
          []
        ],
        [
          "General Officers Quarters",
          []
        ],
        [
          "April 14 , 1975 ( # 75001563 )",
          []
        ],
        [
          "1310 Shanklin Circle 34\u00b040\u203242\u2033N 98\u00b023\u203242\u2033W / 34.678333\u00b0N 98.395\u00b0W / 34.678333 ; -98.395 ( General Officers Quarters )",
          []
        ],
        [
          "Fort Sill",
          [
            "/wiki/Fort_Sill"
          ]
        ]
      ]
    ],
    "section_title": "Current listings",
    "section_text": "",
    "uid": "National_Register_of_Historic_Places_listings_in_Comanche_County,_Oklahoma_0",
    "intro": "This is a list of the National Register of Historic Places listings in Comanche County, Oklahoma. This is intended to be a complete list of the properties and districts on the National Register of Historic Places in Comanche County, Oklahoma, United States. The locations of National Register properties and districts for which the latitude and longitude coordinates are included below, may be seen in a map. There are 36 properties and districts listed on the National Register in the county, including 1 National Historic Landmark."
  },
  "Critics'_Choice_Television_Award_for_Best_Guest_Performer_in_a_Drama_Series_0": {
    "url": "https://en.wikipedia.org/wiki/Critics'_Choice_Television_Award_for_Best_Guest_Performer_in_a_Drama_Series",
    "title": "Critics' Choice Television Award for Best Guest Performer in a Drama Series",
    "header": [
      [
        "Year",
        []
      ],
      [
        "Performer",
        []
      ],
      [
        "Series",
        []
      ],
      [
        "Role",
        []
      ]
    ],
    "data": [
      [
        [
          "2011-2012",
          []
        ],
        [
          "Lucy Liu",
          [
            "/wiki/Lucy_Liu"
          ]
        ],
        [
          "Southland",
          [
            "/wiki/Southland_(TV_series)"
          ]
        ],
        [
          "Officer Jessica Tang",
          []
        ]
      ],
      [
        [
          "2011-2012",
          []
        ],
        [
          "Dylan Baker",
          [
            "/wiki/Dylan_Baker"
          ]
        ],
        [
          "Damages",
          [
            "/wiki/Damages_(TV_series)"
          ]
        ],
        [
          "Jerry Boorman",
          []
        ]
      ],
      [
        [
          "2011-2012",
          []
        ],
        [
          "Jere Burns",
          [
            "/wiki/Jere_Burns"
          ]
        ],
        [
          "Justified",
          [
            "/wiki/Justified_(TV_series)"
          ]
        ],
        [
          "Wynn Duffy",
          []
        ]
      ],
      [
        [
          "2011-2012",
          []
        ],
        [
          "Loretta Devine",
          [
            "/wiki/Loretta_Devine"
          ]
        ],
        [
          "Grey 's Anatomy",
          [
            "/wiki/Grey's_Anatomy"
          ]
        ],
        [
          "Adele Webber",
          []
        ]
      ],
      [
        [
          "2011-2012",
          []
        ],
        [
          "Carrie Preston",
          [
            "/wiki/Carrie_Preston"
          ]
        ],
        [
          "The Good Wife",
          [
            "/wiki/The_Good_Wife"
          ]
        ],
        [
          "Elsbeth Tascioni",
          []
        ]
      ],
      [
        [
          "2011-2012",
          []
        ],
        [
          "Chloe Webb",
          [
            "/wiki/Chloe_Webb"
          ]
        ],
        [
          "Shameless",
          [
            "/wiki/Shameless_(American_TV_series)"
          ]
        ],
        [
          "Monica Gallagher",
          []
        ]
      ],
      [
        [
          "2012-2013",
          []
        ],
        [
          "Jane Fonda",
          [
            "/wiki/Jane_Fonda"
          ]
        ],
        [
          "The Newsroom",
          [
            "/wiki/The_Newsroom_(American_TV_series)"
          ]
        ],
        [
          "Leona Lansing",
          []
        ]
      ],
      [
        [
          "2012-2013",
          []
        ],
        [
          "Jim Beaver",
          [
            "/wiki/Jim_Beaver"
          ]
        ],
        [
          "Justified",
          [
            "/wiki/Justified_(TV_series)"
          ]
        ],
        [
          "Sheriff Shelby Parlow",
          []
        ]
      ],
      [
        [
          "2012-2013",
          []
        ],
        [
          "Martha Plimpton",
          [
            "/wiki/Martha_Plimpton"
          ]
        ],
        [
          "The Good Wife",
          [
            "/wiki/The_Good_Wife"
          ]
        ],
        [
          "Patti Nyholm",
          []
        ]
      ],
      [
        [
          "2012-2013",
          []
        ],
        [
          "Carrie Preston",
          [
            "/wiki/Carrie_Preston"
          ]
        ],
        [
          "The Good Wife",
          [
            "/wiki/The_Good_Wife"
          ]
        ],
        [
          "Elsbeth Tascioni",
          []
        ]
      ],
      [
        [
          "2012-2013",
          []
        ],
        [
          "Diana Rigg",
          [
            "/wiki/Diana_Rigg"
          ]
        ],
        [
          "Game of Thrones",
          [
            "/wiki/Game_of_Thrones"
          ]
        ],
        [
          "Lady Olenna Tyrell",
          [
            "/wiki/Olenna_Tyrell"
          ]
        ]
      ],
      [
        [
          "2012-2013",
          []
        ],
        [
          "Jimmy Smits",
          [
            "/wiki/Jimmy_Smits"
          ]
        ],
        [
          "Sons of Anarchy",
          [
            "/wiki/Sons_of_Anarchy"
          ]
        ],
        [
          "Nero Padilla",
          []
        ]
      ],
      [
        [
          "2013-2014",
          []
        ],
        [
          "Allison Janney",
          [
            "/wiki/Allison_Janney"
          ]
        ],
        [
          "Masters of Sex",
          [
            "/wiki/Masters_of_Sex"
          ]
        ],
        [
          "Margaret Scully",
          []
        ]
      ],
      [
        [
          "2013-2014",
          []
        ],
        [
          "Beau Bridges",
          [
            "/wiki/Beau_Bridges"
          ]
        ],
        [
          "Masters of Sex",
          [
            "/wiki/Masters_of_Sex"
          ]
        ],
        [
          "Provost Barton Scully",
          []
        ]
      ],
      [
        [
          "2013-2014",
          []
        ],
        [
          "Walton Goggins",
          [
            "/wiki/Walton_Goggins"
          ]
        ],
        [
          "Sons of Anarchy",
          [
            "/wiki/Sons_of_Anarchy"
          ]
        ],
        [
          "Venus Van Dam",
          []
        ]
      ],
      [
        [
          "2013-2014",
          []
        ],
        [
          "Joe Morton",
          [
            "/wiki/Joe_Morton"
          ]
        ],
        [
          "Scandal",
          [
            "/wiki/Scandal_(TV_series)"
          ]
        ],
        [
          "Rowan Eli Pope",
          []
        ]
      ],
      [
        [
          "2013-2014",
          []
        ],
        [
          "Carrie Preston",
          [
            "/wiki/Carrie_Preston"
          ]
        ],
        [
          "The Good Wife",
          [
            "/wiki/The_Good_Wife"
          ]
        ],
        [
          "Elsbeth Tascioni",
          []
        ]
      ],
      [
        [
          "2013-2014",
          []
        ],
        [
          "Diana Rigg",
          [
            "/wiki/Diana_Rigg"
          ]
        ],
        [
          "Game of Thrones",
          [
            "/wiki/Game_of_Thrones"
          ]
        ],
        [
          "Lady Olenna Tyrell",
          [
            "/wiki/Olenna_Tyrell"
          ]
        ]
      ],
      [
        [
          "2014-2015",
          []
        ],
        [
          "Sam Elliott",
          [
            "/wiki/Sam_Elliott"
          ]
        ],
        [
          "Justified",
          [
            "/wiki/Justified_(TV_series)"
          ]
        ],
        [
          "Avery Markham",
          []
        ]
      ],
      [
        [
          "2014-2015",
          []
        ],
        [
          "Walton Goggins",
          [
            "/wiki/Walton_Goggins"
          ]
        ],
        [
          "Sons of Anarchy",
          [
            "/wiki/Sons_of_Anarchy"
          ]
        ],
        [
          "Venus Van Dam",
          []
        ]
      ]
    ],
    "section_title": "Winners and nominees -- 2010s",
    "section_text": "",
    "uid": "Critics'_Choice_Television_Award_for_Best_Guest_Performer_in_a_Drama_Series_0",
    "intro": "The Critics' Choice Television Award for Best Guest Performer in a Drama Series is one of the award categories presented annually by the Critics' Choice Television Awards (BTJA) (US) to recognize the work done by television actors. It was introduced in 2012. The winners are selected by a group of television critics that are part of the Broadcast Television Critics Association."
  }
}