{
  "List_of_countries_and_dependencies_and_their_capitals_in_native_languages_18": {
    "url": "https://en.wikipedia.org/wiki/List_of_countries_and_dependencies_and_their_capitals_in_native_languages",
    "title": "List of countries and dependencies and their capitals in native languages",
    "header": [
      [
        "Country ( exonym )",
        [
          "/wiki/Exonym_and_endonym"
        ]
      ],
      [
        "Capital ( exonym )",
        [
          "/wiki/Exonym_and_endonym"
        ]
      ],
      [
        "Country ( endonym )",
        [
          "/wiki/Exonym_and_endonym"
        ]
      ],
      [
        "Capital ( endonym )",
        [
          "/wiki/Exonym_and_endonym"
        ]
      ],
      [
        "Official or native language ( s ) ( alphabet/script )",
        []
      ]
    ],
    "data": [
      [
        [
          "Sahrawi Arab Democratic Republic",
          [
            "/wiki/Sahrawi_Arab_Democratic_Republic"
          ]
        ],
        [
          "Laayoune",
          [
            "/wiki/Laayoune"
          ]
        ],
        [
          "Al-Jumh\u016br\u012byah al-Arab\u012byah a\u1e63-\u1e62a\u1e25r\u0101w\u012byah ad-D\u012bmuqr\u0101\u1e6d\u012byah \u0627\u0644\u062c\u0645\u0647\u0648\u0631\u064a\u0629 \u0627\u0644\u0639\u0631\u0628\u064a\u0629 \u0627\u0644\u0635\u062d\u0631\u0627\u0648\u064a\u0629 \u0627\u0644\u062f\u064a\u0645\u0642\u0631\u0627\u0637\u064a\u0629 Rep\u00fablica \u00c1rabe Saharaui Democr\u00e1tica R\u00e9publique Arabe Sahraouie D\u00e9mocratique",
          []
        ],
        [
          "Al-\u02bfAyy\u016bn \u0644\u0639\u064a\u0648\u0646 El Aai\u00fan La\u00e2youne",
          []
        ],
        [
          "Arabic ( Arabic script ) Spanish French",
          [
            "/wiki/Arabic",
            "/wiki/Arabic_script",
            "/wiki/Spanish_language",
            "/wiki/French_language"
          ]
        ]
      ],
      [
        [
          "Saint Barth\u00e9lemy",
          [
            "/wiki/Saint_Barth\u00e9lemy"
          ]
        ],
        [
          "Gustavia",
          [
            "/wiki/Gustavia,_Saint_Barth\u00e9lemy"
          ]
        ],
        [
          "Saint-Barth\u00e9lemy",
          []
        ],
        [
          "Gustavia",
          []
        ],
        [
          "French",
          [
            "/wiki/French_language"
          ]
        ]
      ],
      [
        [
          "Saint Helena , Ascension and Tristan da Cunha",
          [
            "/wiki/Saint_Helena,_Ascension_and_Tristan_da_Cunha"
          ]
        ],
        [
          "Jamestown",
          [
            "/wiki/Jamestown,_Saint_Helena"
          ]
        ],
        [
          "Saint Helena , Ascension and Tristan da Cunha",
          []
        ],
        [
          "Jamestown",
          []
        ],
        [
          "English",
          [
            "/wiki/English_language"
          ]
        ]
      ],
      [
        [
          "Saint Kitts and Nevis",
          [
            "/wiki/Saint_Kitts_and_Nevis"
          ]
        ],
        [
          "Basseterre",
          [
            "/wiki/Basseterre"
          ]
        ],
        [
          "Saint Kitts and Nevis",
          []
        ],
        [
          "Basseterre",
          []
        ],
        [
          "English",
          [
            "/wiki/English_language"
          ]
        ]
      ],
      [
        [
          "Saint Martin",
          [
            "/wiki/Collectivity_of_Saint_Martin"
          ]
        ],
        [
          "Marigot",
          [
            "/wiki/Marigot,_Saint_Martin"
          ]
        ],
        [
          "Saint-Martin",
          []
        ],
        [
          "Marigot",
          []
        ],
        [
          "French",
          [
            "/wiki/French_language"
          ]
        ]
      ],
      [
        [
          "Saint Lucia",
          [
            "/wiki/Saint_Lucia"
          ]
        ],
        [
          "Castries",
          [
            "/wiki/Castries"
          ]
        ],
        [
          "Saint Lucia",
          []
        ],
        [
          "Castries",
          []
        ],
        [
          "English",
          [
            "/wiki/English_language"
          ]
        ]
      ],
      [
        [
          "Saint Pierre and Miquelon",
          [
            "/wiki/Saint_Pierre_and_Miquelon"
          ]
        ],
        [
          "Saint-Pierre",
          [
            "/wiki/Saint-Pierre,_Saint_Pierre_and_Miquelon"
          ]
        ],
        [
          "Saint-Pierre et Miquelon",
          []
        ],
        [
          "Saint-Pierre",
          []
        ],
        [
          "French",
          [
            "/wiki/French_language"
          ]
        ]
      ],
      [
        [
          "Saint Vincent and the Grenadines",
          [
            "/wiki/Saint_Vincent_and_the_Grenadines"
          ]
        ],
        [
          "Kingstown",
          [
            "/wiki/Kingstown"
          ]
        ],
        [
          "Saint Vincent and the Grenadines",
          []
        ],
        [
          "Kingstown",
          []
        ],
        [
          "English",
          [
            "/wiki/English_language"
          ]
        ]
      ],
      [
        [
          "Samoa",
          [
            "/wiki/Samoa"
          ]
        ],
        [
          "Apia",
          [
            "/wiki/Apia"
          ]
        ],
        [
          "Samoa S\u0101moa",
          []
        ],
        [
          "Apia Apia",
          []
        ],
        [
          "English Samoan",
          [
            "/wiki/English_language",
            "/wiki/Samoan_language"
          ]
        ]
      ],
      [
        [
          "San Marino",
          [
            "/wiki/San_Marino"
          ]
        ],
        [
          "San Marino",
          [
            "/wiki/City_of_San_Marino"
          ]
        ],
        [
          "San Marino",
          []
        ],
        [
          "San Marino",
          []
        ],
        [
          "Italian",
          [
            "/wiki/Italian_language"
          ]
        ]
      ],
      [
        [
          "S\u00e3o Tom\u00e9 and Pr\u00edncipe",
          [
            "/wiki/S\u00e3o_Tom\u00e9_and_Pr\u00edncipe"
          ]
        ],
        [
          "S\u00e3o Tom\u00e9",
          [
            "/wiki/S\u00e3o_Tom\u00e9"
          ]
        ],
        [
          "S\u00e3o Tom\u00e9 e Pr\u00edncipe",
          []
        ],
        [
          "S\u00e3o Tom\u00e9",
          []
        ],
        [
          "Portuguese",
          [
            "/wiki/Portuguese_language"
          ]
        ]
      ],
      [
        [
          "Saudi Arabia",
          [
            "/wiki/Saudi_Arabia"
          ]
        ],
        [
          "Riyadh",
          [
            "/wiki/Riyadh"
          ]
        ],
        [
          "Al-Mamlaka Al-Arabiyyah as Sa\u016bdiyyah \u0627\u0644\u0645\u0645\u0644\u0643\u0629 \u0627\u0644\u0639\u0631\u0628\u064a\u0629 \u0627\u0644\u0633\u0639\u0648\u062f\u064a\u0629",
          []
        ],
        [
          "Ar-Riy\u0101\u1e0d \u0627\u0644\u0631\u064a\u0627\u0636",
          []
        ],
        [
          "Arabic ( Arabic script )",
          [
            "/wiki/Arabic",
            "/wiki/Arabic_script"
          ]
        ]
      ],
      [
        [
          "Senegal",
          [
            "/wiki/Senegal"
          ]
        ],
        [
          "Dakar",
          [
            "/wiki/Dakar"
          ]
        ],
        [
          "S\u00e9n\u00e9gal",
          []
        ],
        [
          "Dakar",
          []
        ],
        [
          "French",
          [
            "/wiki/French_language"
          ]
        ]
      ],
      [
        [
          "Serbia",
          [
            "/wiki/Serbia"
          ]
        ],
        [
          "Belgrade",
          [
            "/wiki/Belgrade"
          ]
        ],
        [
          "Srbija \u0421\u0440\u0431\u0438\u0458\u0430",
          []
        ],
        [
          "Beograd \u0411\u0435\u043e\u0433\u0440\u0430\u0434",
          []
        ],
        [
          "Serbian ( Cyrillic script )",
          [
            "/wiki/Serbian_language",
            "/wiki/Cyrillic_script"
          ]
        ]
      ],
      [
        [
          "Seychelles",
          [
            "/wiki/Seychelles"
          ]
        ],
        [
          "Victoria",
          [
            "/wiki/Victoria,_Seychelles"
          ]
        ],
        [
          "Sesel Seychelles Seychelles",
          []
        ],
        [
          "Victoria or Port Victoria",
          []
        ],
        [
          "Seychellois Creole French English",
          [
            "/wiki/Seychellois_Creole",
            "/wiki/French_language",
            "/wiki/English_language"
          ]
        ]
      ],
      [
        [
          "Sierra Leone",
          [
            "/wiki/Sierra_Leone"
          ]
        ],
        [
          "Freetown",
          [
            "/wiki/Freetown"
          ]
        ],
        [
          "Sierra Leone",
          []
        ],
        [
          "Freetown",
          []
        ],
        [
          "English",
          [
            "/wiki/English_language"
          ]
        ]
      ],
      [
        [
          "Singapore",
          [
            "/wiki/Singapore"
          ]
        ],
        [
          "Singapore",
          [
            "/wiki/Singapore"
          ]
        ],
        [
          "Singapura Singapore X\u012bnji\u0101p\u014d \u65b0\u52a0\u5761 Singapur \u0b9a\u0bbf\u0b99\u0bcd\u0b95\u0baa\u0bcd\u0baa\u0bc2\u0bb0\u0bcd",
          []
        ],
        [
          "Singapura Singapore X\u012bnji\u0101p\u014d \u65b0\u52a0\u5761 Singapur \u0b9a\u0bbf\u0b99\u0bcd\u0b95\u0baa\u0bcd\u0baa\u0bc2\u0bb0\u0bcd",
          []
        ],
        [
          "Malay English Mandarin Chinese ( Simplified Chinese characters ) Tamil ( Tamil script )",
          [
            "/wiki/Malay_language",
            "/wiki/English_language",
            "/wiki/Standard_Chinese",
            "/wiki/Simplified_Chinese_characters",
            "/wiki/Tamil_language",
            "/wiki/Tamil_script"
          ]
        ]
      ],
      [
        [
          "Sint Maarten",
          [
            "/wiki/Sint_Maarten"
          ]
        ],
        [
          "Philipsburg",
          [
            "/wiki/Philipsburg,_Sint_Maarten"
          ]
        ],
        [
          "Sint Maarten Sint Maarten",
          []
        ],
        [
          "Philipsburg Philipsburg",
          []
        ],
        [
          "Dutch English",
          [
            "/wiki/Dutch_language",
            "/wiki/English_language"
          ]
        ]
      ],
      [
        [
          "Slovakia",
          [
            "/wiki/Slovakia"
          ]
        ],
        [
          "Bratislava",
          [
            "/wiki/Bratislava"
          ]
        ],
        [
          "Slovensko",
          []
        ],
        [
          "Bratislava",
          []
        ],
        [
          "Slovak",
          [
            "/wiki/Slovak_language"
          ]
        ]
      ],
      [
        [
          "Slovenia",
          [
            "/wiki/Slovenia"
          ]
        ],
        [
          "Ljubljana",
          [
            "/wiki/Ljubljana"
          ]
        ],
        [
          "Slovenija",
          []
        ],
        [
          "Ljubljana",
          []
        ],
        [
          "Slovene",
          [
            "/wiki/Slovene_language"
          ]
        ]
      ]
    ],
    "section_title": "S",
    "section_text": "",
    "uid": "List_of_countries_and_dependencies_and_their_capitals_in_native_languages_18",
    "intro": "The following chart lists countries and dependencies along with their capital cities, in English as well as any additional official language(s)."
  },
  "List_of_Major_League_Baseball_players_with_a_.400_batting_average_in_a_season_1": {
    "url": "https://en.wikipedia.org/wiki/List_of_Major_League_Baseball_players_with_a_.400_batting_average_in_a_season",
    "title": "List of Major League Baseball players with a .400 batting average in a season",
    "header": [
      [
        "Year",
        []
      ],
      [
        "Player",
        []
      ],
      [
        "Team",
        []
      ],
      [
        "League",
        []
      ],
      [
        "AVG",
        []
      ],
      [
        "Career AVG",
        []
      ]
    ],
    "data": [
      [
        [
          "1876",
          [
            "/wiki/1876_in_baseball"
          ]
        ],
        [
          "Ross Barnes",
          [
            "/wiki/Ross_Barnes"
          ]
        ],
        [
          "Chicago White Stockings",
          [
            "/wiki/Chicago_Cubs"
          ]
        ],
        [
          "NL",
          [
            "/wiki/National_League"
          ]
        ],
        [
          ".429",
          []
        ],
        [
          ".360",
          []
        ]
      ],
      [
        [
          "1884",
          [
            "/wiki/1884_in_baseball"
          ]
        ],
        [
          "Fred Dunlap",
          [
            "/wiki/Fred_Dunlap"
          ]
        ],
        [
          "St. Louis Maroons",
          [
            "/wiki/St._Louis_Maroons/Indianapolis_Hoosiers"
          ]
        ],
        [
          "UA",
          [
            "/wiki/Union_Association"
          ]
        ],
        [
          ".412",
          []
        ],
        [
          ".292",
          []
        ]
      ],
      [
        [
          "1887",
          [
            "/wiki/1887_Major_League_Baseball_season"
          ]
        ],
        [
          "Tip O'Neill",
          [
            "/wiki/Tip_O'Neill_(baseball)"
          ]
        ],
        [
          "St. Louis Browns",
          [
            "/wiki/St._Louis_Cardinals"
          ]
        ],
        [
          "AA",
          [
            "/wiki/American_Association_(19th_century)"
          ]
        ],
        [
          ".435",
          []
        ],
        [
          ".326",
          []
        ]
      ],
      [
        [
          "1887",
          [
            "/wiki/1887_Major_League_Baseball_season"
          ]
        ],
        [
          "Pete Browning",
          [
            "/wiki/Pete_Browning"
          ]
        ],
        [
          "Louisville Colonels",
          [
            "/wiki/Louisville_Colonels"
          ]
        ],
        [
          "AA",
          [
            "/wiki/American_Association_(19th_century)"
          ]
        ],
        [
          ".402",
          []
        ],
        [
          ".341",
          []
        ]
      ],
      [
        [
          "1894",
          [
            "/wiki/1894_in_baseball"
          ]
        ],
        [
          "Hugh Duffy",
          [
            "/wiki/Hugh_Duffy"
          ]
        ],
        [
          "Boston Beaneaters",
          [
            "/wiki/Atlanta_Braves"
          ]
        ],
        [
          "NL",
          [
            "/wiki/National_League"
          ]
        ],
        [
          ".440",
          []
        ],
        [
          ".326",
          []
        ]
      ],
      [
        [
          "1894",
          [
            "/wiki/1894_in_baseball"
          ]
        ],
        [
          "Tuck Turner",
          [
            "/wiki/Tuck_Turner"
          ]
        ],
        [
          "Philadelphia Phillies",
          [
            "/wiki/Philadelphia_Phillies"
          ]
        ],
        [
          "NL",
          [
            "/wiki/National_League"
          ]
        ],
        [
          ".418",
          []
        ],
        [
          ".320",
          []
        ]
      ],
      [
        [
          "1894",
          [
            "/wiki/1894_in_baseball"
          ]
        ],
        [
          "Sam Thompson",
          [
            "/wiki/Sam_Thompson"
          ]
        ],
        [
          "Philadelphia Phillies",
          [
            "/wiki/Philadelphia_Phillies"
          ]
        ],
        [
          "NL",
          [
            "/wiki/National_League"
          ]
        ],
        [
          ".415",
          []
        ],
        [
          ".331",
          []
        ]
      ],
      [
        [
          "1894",
          [
            "/wiki/1894_in_baseball"
          ]
        ],
        [
          "Ed Delahanty",
          [
            "/wiki/Ed_Delahanty"
          ]
        ],
        [
          "Philadelphia Phillies",
          [
            "/wiki/Philadelphia_Phillies"
          ]
        ],
        [
          "NL",
          [
            "/wiki/National_League"
          ]
        ],
        [
          ".404",
          []
        ],
        [
          ".346",
          []
        ]
      ],
      [
        [
          "1894",
          [
            "/wiki/1894_in_baseball"
          ]
        ],
        [
          "Billy Hamilton",
          [
            "/wiki/Billy_Hamilton_(baseball,_born_1866)"
          ]
        ],
        [
          "Philadelphia Phillies",
          [
            "/wiki/Philadelphia_Phillies"
          ]
        ],
        [
          "NL",
          [
            "/wiki/National_League"
          ]
        ],
        [
          ".403",
          []
        ],
        [
          ".344",
          []
        ]
      ],
      [
        [
          "1895",
          [
            "/wiki/1895_in_baseball"
          ]
        ],
        [
          "Jesse Burkett",
          [
            "/wiki/Jesse_Burkett"
          ]
        ],
        [
          "Cleveland Spiders",
          [
            "/wiki/Cleveland_Spiders"
          ]
        ],
        [
          "NL",
          [
            "/wiki/National_League"
          ]
        ],
        [
          ".405",
          []
        ],
        [
          ".338",
          []
        ]
      ],
      [
        [
          "1895",
          [
            "/wiki/1895_in_baseball"
          ]
        ],
        [
          "Ed Delahanty ( 2 )",
          [
            "/wiki/Ed_Delahanty"
          ]
        ],
        [
          "Philadelphia Phillies",
          [
            "/wiki/Philadelphia_Phillies"
          ]
        ],
        [
          "NL",
          [
            "/wiki/National_League"
          ]
        ],
        [
          ".404",
          []
        ],
        [
          ".346",
          []
        ]
      ],
      [
        [
          "1896",
          []
        ],
        [
          "Jesse Burkett ( 2 )",
          [
            "/wiki/Jesse_Burkett"
          ]
        ],
        [
          "Cleveland Spiders",
          [
            "/wiki/Cleveland_Spiders"
          ]
        ],
        [
          "NL",
          [
            "/wiki/National_League"
          ]
        ],
        [
          ".410",
          []
        ],
        [
          ".338",
          []
        ]
      ],
      [
        [
          "1896",
          []
        ],
        [
          "Hughie Jennings",
          [
            "/wiki/Hughie_Jennings"
          ]
        ],
        [
          "Baltimore Orioles",
          [
            "/wiki/Baltimore_Orioles_(1882\u20131899)"
          ]
        ],
        [
          "NL",
          [
            "/wiki/National_League"
          ]
        ],
        [
          ".401",
          []
        ],
        [
          ".312",
          []
        ]
      ],
      [
        [
          "1897",
          [
            "/wiki/1897_in_baseball"
          ]
        ],
        [
          "Willie Keeler",
          [
            "/wiki/Willie_Keeler"
          ]
        ],
        [
          "Baltimore Orioles",
          [
            "/wiki/Baltimore_Orioles_(1882\u20131899)"
          ]
        ],
        [
          "NL",
          [
            "/wiki/National_League"
          ]
        ],
        [
          ".424",
          []
        ],
        [
          ".341",
          []
        ]
      ],
      [
        [
          "1899",
          [
            "/wiki/1899_in_baseball"
          ]
        ],
        [
          "Ed Delahanty ( 3 )",
          [
            "/wiki/Ed_Delahanty"
          ]
        ],
        [
          "Philadelphia Phillies",
          [
            "/wiki/Philadelphia_Phillies"
          ]
        ],
        [
          "NL",
          [
            "/wiki/National_League"
          ]
        ],
        [
          ".410",
          []
        ],
        [
          ".346",
          []
        ]
      ],
      [
        [
          "1901",
          [
            "/wiki/1901_Major_League_Baseball_season"
          ]
        ],
        [
          "Nap Lajoie",
          [
            "/wiki/Nap_Lajoie"
          ]
        ],
        [
          "Philadelphia Athletics",
          [
            "/wiki/Oakland_Athletics"
          ]
        ],
        [
          "AL",
          [
            "/wiki/American_League"
          ]
        ],
        [
          ".426",
          []
        ],
        [
          ".338",
          []
        ]
      ],
      [
        [
          "1911",
          [
            "/wiki/1911_Major_League_Baseball_season"
          ]
        ],
        [
          "Ty Cobb",
          [
            "/wiki/Ty_Cobb"
          ]
        ],
        [
          "Detroit Tigers",
          [
            "/wiki/Detroit_Tigers"
          ]
        ],
        [
          "AL",
          [
            "/wiki/American_League"
          ]
        ],
        [
          ".420",
          []
        ],
        [
          ".366",
          []
        ]
      ],
      [
        [
          "1911",
          [
            "/wiki/1911_Major_League_Baseball_season"
          ]
        ],
        [
          "Shoeless Joe Jackson",
          [
            "/wiki/Shoeless_Joe_Jackson"
          ]
        ],
        [
          "Cleveland Naps",
          [
            "/wiki/Cleveland_Indians"
          ]
        ],
        [
          "AL",
          [
            "/wiki/American_League"
          ]
        ],
        [
          ".408",
          []
        ],
        [
          ".356",
          []
        ]
      ],
      [
        [
          "1912",
          [
            "/wiki/1912_Major_League_Baseball_season"
          ]
        ],
        [
          "Ty Cobb ( 2 )",
          [
            "/wiki/Ty_Cobb"
          ]
        ],
        [
          "Detroit Tigers",
          [
            "/wiki/Detroit_Tigers"
          ]
        ],
        [
          "AL",
          [
            "/wiki/American_League"
          ]
        ],
        [
          ".409",
          []
        ],
        [
          ".366",
          []
        ]
      ],
      [
        [
          "1920",
          [
            "/wiki/1920_Major_League_Baseball_season"
          ]
        ],
        [
          "George Sisler",
          [
            "/wiki/George_Sisler"
          ]
        ],
        [
          "St. Louis Browns",
          [
            "/wiki/Baltimore_Orioles"
          ]
        ],
        [
          "AL",
          [
            "/wiki/American_League"
          ]
        ],
        [
          ".407",
          []
        ],
        [
          ".340",
          []
        ]
      ]
    ],
    "section_title": "Players",
    "section_text": "Nap Lajoie is one of three players to earn the Triple Crown in addition to batting .400 in the same season . George Sisler achieved the .400 mark and won the MVP Award in 1922 . Ted Williams is the last player to post a .400 batting average in a season , achieving the feat in 1941 .",
    "uid": "List_of_Major_League_Baseball_players_with_a_.400_batting_average_in_a_season_1",
    "intro": "In baseball, batting average (AVG) is a measure of a batter's success rate in achieving a hit during an at bat, and is calculated by dividing a player's hits by his at bats. The achievement of a .400 batting average in a season is recognized as the standard of hitting excellence, in light of how batting .300 in a season is already regarded as solid. Twenty players have recorded a batting average of at least .400 in a single Major League Baseball (MLB) season as of 2018, the last being Ted Williams of the Boston Red Sox in 1941. Three players - Ed Delahanty, Ty Cobb and Rogers Hornsby - have accomplished the feat in three different seasons, and no player has ever hit over .440, a single-season record established by Hugh Duffy in 1894. Ross Barnes was the first player to bat .400 in a season, posting a .429 batting average in the National League's inaugural 1876 season. In total, 20 players have reached the .400 mark in MLB history and five have done so more than once. Of these, ten were right-handed batters, nine were left-handed, and one was a switch hitter, meaning he could bat from either side of the plate. Two of these players (Terry and Williams) played for only one major league team. The Philadelphia Phillies are the only franchise to have four players reach the milestone while on their roster: Delahanty, Billy Hamilton, Sam Thompson, and Tuck Turner, all of whom attained a batting average over .400 during the 1894 season. Three players won the Most Valuable Player (MVP) Award in the same year as their .400 season. Tip O'Neill, Nap Lajoie, and Hornsby are the only players to have earned the Triple Crown alongside achieving a .400 batting average, leading their respective leagues in batting average, home runs and runs batted in (RBI). Although Shoeless Joe Jackson's .408 batting average in 1911 did not earn him the American League's batting title, it established a major league record for a rookie that stands to this day."
  },
  "National_Register_of_Historic_Places_listings_in_Vermillion_County,_Indiana_0": {
    "url": "https://en.wikipedia.org/wiki/National_Register_of_Historic_Places_listings_in_Vermillion_County,_Indiana",
    "title": "National Register of Historic Places listings in Vermillion County, Indiana",
    "header": [
      [
        "",
        []
      ],
      [
        "Name on the Register",
        []
      ],
      [
        "Date listed",
        []
      ],
      [
        "Location",
        []
      ],
      [
        "City or town",
        []
      ]
    ],
    "data": [
      [
        [
          "1",
          []
        ],
        [
          "Clinton Downtown Historic District",
          [
            "/wiki/Clinton_Downtown_Historic_District_(Clinton,_Indiana)"
          ]
        ],
        [
          "March 15 , 2000 ( # 00000205 )",
          []
        ],
        [
          "Roughly between S. Water and S. 3rd Sts. , and Elm St. to the CSX railroad right-of-way 39\u00b039\u203234\u2033N 87\u00b023\u203254\u2033W / 39.659306\u00b0N 87.398278\u00b0W / 39.659306 ; -87.398278 ( Clinton Downtown Historic District )",
          [
            "/wiki/CSX_Transportation"
          ]
        ],
        [
          "Clinton",
          [
            "/wiki/Clinton,_Indiana"
          ]
        ]
      ],
      [
        [
          "2",
          []
        ],
        [
          "Eugene Covered Bridge",
          [
            "/wiki/Eugene_Covered_Bridge"
          ]
        ],
        [
          "June 10 , 1994 ( # 94000585 )",
          []
        ],
        [
          "Former County Road 00 over the Big Vermillion River at Eugene 39\u00b058\u203209\u2033N 87\u00b028\u203223\u2033W / 39.969167\u00b0N 87.473056\u00b0W / 39.969167 ; -87.473056 ( Eugene Covered Bridge )",
          [
            "/wiki/Vermilion_River_(Wabash_River_tributary)"
          ]
        ],
        [
          "Eugene Township",
          [
            "/wiki/Eugene_Township,_Vermillion_County,_Indiana"
          ]
        ]
      ],
      [
        [
          "3",
          []
        ],
        [
          "Hill Crest Community Center",
          [
            "/wiki/Hill_Crest_Community_Center"
          ]
        ],
        [
          "December 15 , 1997 ( # 97001555 )",
          []
        ],
        [
          "505 N. 8th St. 39\u00b040\u203225\u2033N 87\u00b024\u203225\u2033W / 39.673611\u00b0N 87.406944\u00b0W / 39.673611 ; -87.406944 ( Hill Crest Community Center )",
          []
        ],
        [
          "Clinton",
          [
            "/wiki/Clinton,_Indiana"
          ]
        ]
      ],
      [
        [
          "4",
          []
        ],
        [
          "Newport Covered Bridge",
          [
            "/wiki/Newport_Covered_Bridge"
          ]
        ],
        [
          "June 10 , 1994 ( # 94000589 )",
          []
        ],
        [
          "County Road 50N over the Little Vermillion River , northwest of Newport 39\u00b053\u203229\u2033N 87\u00b026\u203200\u2033W / 39.891389\u00b0N 87.433333\u00b0W / 39.891389 ; -87.433333 ( Newport Covered Bridge )",
          [
            "/wiki/Vermilion_River_(Wabash_River_tributary)"
          ]
        ],
        [
          "Vermillion Township",
          [
            "/wiki/Vermillion_Township,_Vermillion_County,_Indiana"
          ]
        ]
      ],
      [
        [
          "5",
          []
        ],
        [
          "Possum Bottom Covered Bridge",
          [
            "/wiki/Possum_Bottom_Covered_Bridge"
          ]
        ],
        [
          "June 10 , 1994 ( # 94000584 )",
          []
        ],
        [
          "Northern side of U.S. Route 36 , 0.2 miles east of its junction with East Rd . and southeast of Dana 39\u00b047\u203250\u2033N 87\u00b027\u203212\u2033W / 39.797222\u00b0N 87.453333\u00b0W / 39.797222 ; -87.453333 ( Possum Bottom Covered Bridge )",
          [
            "/wiki/U.S._Route_36"
          ]
        ],
        [
          "Helt Township",
          [
            "/wiki/Helt_Township,_Vermillion_County,_Indiana"
          ]
        ]
      ],
      [
        [
          "6",
          []
        ],
        [
          "Salem Methodist Episcopal Church",
          [
            "/wiki/Salem_Methodist_Episcopal_Church_(Clinton,_Indiana)"
          ]
        ],
        [
          "February 22 , 1979 ( # 79000022 )",
          []
        ],
        [
          "North of Clinton on State Road 63 39\u00b043\u203255\u2033N 87\u00b023\u203258\u2033W / 39.731944\u00b0N 87.399444\u00b0W / 39.731944 ; -87.399444 ( Salem Methodist Episcopal Church )",
          [
            "/wiki/Indiana_State_Road_63"
          ]
        ],
        [
          "Helt Township",
          [
            "/wiki/Helt_Township,_Vermillion_County,_Indiana"
          ]
        ]
      ],
      [
        [
          "7",
          []
        ],
        [
          "Vermillion County Courthouse",
          [
            "/wiki/Vermillion_County_Courthouse"
          ]
        ],
        [
          "December 19 , 2007 ( # 07001283 )",
          []
        ],
        [
          "255 S. Main St. 39\u00b053\u203205\u2033N 87\u00b024\u203234\u2033W / 39.884722\u00b0N 87.409444\u00b0W / 39.884722 ; -87.409444 ( Vermillion County Courthouse )",
          []
        ],
        [
          "Newport",
          [
            "/wiki/Newport,_Indiana"
          ]
        ]
      ],
      [
        [
          "8",
          []
        ],
        [
          "Vermillion County Jail and Sheriff 's Residence",
          [
            "/wiki/Vermillion_County_Jail_and_Sheriff's_Residence"
          ]
        ],
        [
          "March 12 , 1999 ( # 99000305 )",
          []
        ],
        [
          "220 E. Market St. 39\u00b051\u203227\u2033N 87\u00b024\u203222\u2033W / 39.8575\u00b0N 87.406111\u00b0W / 39.8575 ; -87.406111 ( Vermillion County Jail and Sheriff 's Residence )",
          []
        ],
        [
          "Newport",
          [
            "/wiki/Newport,_Indiana"
          ]
        ]
      ]
    ],
    "section_title": "Current listings",
    "section_text": "",
    "uid": "National_Register_of_Historic_Places_listings_in_Vermillion_County,_Indiana_0",
    "intro": "This is a list of the National Register of Historic Places listings in Vermillion County, Indiana. This is intended to be a complete list of the properties and districts on the National Register of Historic Places in Vermillion County, Indiana, United States. Latitude and longitude coordinates are provided for many National Register properties and districts; these locations may be seen together in a map. There are 8 properties and districts listed on the National Register in the county. Another property was once listed but has been removed. Properties and districts located in incorporated areas display the name of the municipality, while properties and districts in unincorporated areas display the name of their civil township. Properties and districts split between multiple jurisdictions display the names of all jurisdictions."
  },
  "List_of_law_clerks_of_the_Supreme_Court_of_the_United_States_(Chief_Justice)_1": {
    "url": "https://en.wikipedia.org/wiki/List_of_law_clerks_of_the_Supreme_Court_of_the_United_States_(Chief_Justice)",
    "title": "List of law clerks of the Supreme Court of the United States (Chief Justice)",
    "header": [
      [
        "Clerk",
        []
      ],
      [
        "Started",
        []
      ],
      [
        "Finished",
        []
      ],
      [
        "School ( year )",
        []
      ],
      [
        "Previous clerkship",
        []
      ]
    ],
    "data": [
      [
        [
          "Thomas H. Fitnam",
          [
            "/wiki/Thomas_H._Fitnam"
          ]
        ],
        [
          "1888",
          []
        ],
        [
          "1889",
          []
        ],
        [
          "Georgetown ( 1884 )",
          [
            "/wiki/Georgetown_University_Law_Center"
          ]
        ],
        [
          "",
          []
        ]
      ],
      [
        [
          "James S. Harlan",
          [
            "/wiki/James_S._Harlan"
          ]
        ],
        [
          "1888",
          []
        ],
        [
          "1889",
          []
        ],
        [
          "admitted to bar , 1886",
          []
        ],
        [
          "none",
          []
        ]
      ],
      [
        [
          "Clarence M. York",
          [
            "/wiki/Clarence_M._York"
          ]
        ],
        [
          "1890",
          []
        ],
        [
          "1896",
          []
        ],
        [
          "National ( 1889 )",
          [
            "/wiki/National_Law_Universities"
          ]
        ],
        [
          "none",
          []
        ]
      ],
      [
        [
          "Clarence M. York",
          [
            "/wiki/Clarence_M._York"
          ]
        ],
        [
          "1897",
          []
        ],
        [
          "1905",
          []
        ],
        [
          "National ( 1889 )",
          [
            "/wiki/National_Law_Universities"
          ]
        ],
        [
          "S. Field / M. W. Fuller",
          [
            "/wiki/Stephen_Johnson_Field",
            "/wiki/Melville_Fuller"
          ]
        ]
      ],
      [
        [
          "Stephen Albion Day",
          [
            "/wiki/Stephen_A._Day"
          ]
        ],
        [
          "1905",
          []
        ],
        [
          "1907",
          []
        ],
        [
          "Michigan ( did not graduate ; admitted to bar , 1907 )",
          [
            "/wiki/University_of_Michigan_Law_School"
          ]
        ],
        [
          "W. Day",
          []
        ]
      ]
    ],
    "section_title": "",
    "section_text": "",
    "uid": "List_of_law_clerks_of_the_Supreme_Court_of_the_United_States_(Chief_Justice)_1",
    "intro": "Law clerks have assisted the justices of the United States Supreme Court in various capacities since the first one was hired by Justice Horace Gray in 1882. Each justice is permitted to have between three and four law clerks per Court term. Most persons serving in this capacity are recent law school graduates (and typically graduated at the top of their class). Among their many functions, clerks do legal research that assists justices in deciding what cases to accept and what questions to ask during oral arguments, prepare memoranda, and draft orders and opinions. After retiring from the Court, a justice may continue to employ a law clerk, who may be assigned to provide additional assistance to an active justice or may assist the retired justice when sitting by designation with a lower court."
  }
}