{
  "Kerala_State_Film_Award_for_Best_Film_with_Popular_Appeal_and_Aesthetic_Value_0": {
    "url": "https://en.wikipedia.org/wiki/Kerala_State_Film_Award_for_Best_Film_with_Popular_Appeal_and_Aesthetic_Value",
    "title": "Kerala State Film Award for Best Film with Popular Appeal and Aesthetic Value",
    "header": [
      [
        "No",
        []
      ],
      [
        "Year",
        []
      ],
      [
        "Film",
        []
      ],
      [
        "Producer",
        []
      ],
      [
        "Director",
        []
      ]
    ],
    "data": [
      [
        [
          "1",
          []
        ],
        [
          "1976",
          []
        ],
        [
          "Swami Ayyappan",
          [
            "/wiki/Swami_Ayyappan_(1975_film)"
          ]
        ],
        [
          "P. Subramaniam",
          [
            "/wiki/P._Subramaniam"
          ]
        ],
        [
          "P. Subramaniam",
          [
            "/wiki/P._Subramaniam"
          ]
        ]
      ],
      [
        [
          "3",
          []
        ],
        [
          "1978",
          []
        ],
        [
          "Rappadikalude Gadha",
          []
        ],
        [
          "M. Subramaniam",
          []
        ],
        [
          "K. G. George",
          [
            "/wiki/K._G._George"
          ]
        ]
      ],
      [
        [
          "4",
          []
        ],
        [
          "1979",
          []
        ],
        [
          "Idavazhiyile Poocha Mindappoocha",
          []
        ],
        [
          "Priyadarsini Films",
          []
        ],
        [
          "Hariharan",
          [
            "/wiki/Hariharan_(director)"
          ]
        ]
      ],
      [
        [
          "5",
          []
        ],
        [
          "1980",
          []
        ],
        [
          "Manjil Virinja Pookkal",
          [
            "/wiki/Manjil_Virinja_Pookkal"
          ]
        ],
        [
          "Navodaya Appachan",
          [
            "/wiki/Navodaya_Appachan"
          ]
        ],
        [
          "Fazil",
          [
            "/wiki/Fazil_(director)"
          ]
        ]
      ],
      [
        [
          "6",
          []
        ],
        [
          "1981",
          []
        ],
        [
          "Gaanam",
          []
        ],
        [
          "Sreekumaran Thampi",
          [
            "/wiki/Sreekumaran_Thampi"
          ]
        ],
        [
          "Sreekumaran Thampi",
          [
            "/wiki/Sreekumaran_Thampi"
          ]
        ]
      ],
      [
        [
          "8",
          []
        ],
        [
          "1983",
          []
        ],
        [
          "Koodevide",
          [
            "/wiki/Koodevide"
          ]
        ],
        [
          "Prem Prakash",
          [
            "/wiki/Prem_Prakash"
          ]
        ],
        [
          "Padmarajan",
          [
            "/wiki/Padmarajan"
          ]
        ]
      ],
      [
        [
          "9",
          []
        ],
        [
          "1984",
          []
        ],
        [
          "Nokkethadhoorathu Kannum Nattu",
          [
            "/wiki/Nokkethadhoorathu_Kannum_Nattu"
          ]
        ],
        [
          "Ouseppachan , Khayas , Kurian",
          []
        ],
        [
          "Fazil",
          [
            "/wiki/Fazil_(director)"
          ]
        ]
      ],
      [
        [
          "10",
          []
        ],
        [
          "1985",
          []
        ],
        [
          "Yathra",
          [
            "/wiki/Yathra"
          ]
        ],
        [
          "Joseph Abraham",
          []
        ],
        [
          "Balu Mahendra",
          [
            "/wiki/Balu_Mahendra"
          ]
        ]
      ],
      [
        [
          "11",
          []
        ],
        [
          "1986",
          []
        ],
        [
          "Ennennum Kannettante",
          [
            "/wiki/Ennennum_Kannettante"
          ]
        ],
        [
          "Sajan",
          []
        ],
        [
          "Fazil",
          [
            "/wiki/Fazil_(director)"
          ]
        ]
      ],
      [
        [
          "12",
          []
        ],
        [
          "1987",
          []
        ],
        [
          "Oru Minnaminunginte Nurunguvettam",
          [
            "/wiki/Oru_Minnaminunginte_Nurunguvettam"
          ]
        ],
        [
          "Gopinath Panthalam , Babu Thiruvalla",
          []
        ],
        [
          "Bharathan",
          [
            "/wiki/Bharathan"
          ]
        ]
      ],
      [
        [
          "13",
          []
        ],
        [
          "1988",
          []
        ],
        [
          "1921",
          [
            "/wiki/1921_(1988_film)"
          ]
        ],
        [
          "Mohammed Mannil",
          []
        ],
        [
          "I. V. Sasi",
          [
            "/wiki/I._V._Sasi"
          ]
        ]
      ],
      [
        [
          "14",
          []
        ],
        [
          "1989",
          []
        ],
        [
          "Oru Vadakkan Veeragatha",
          [
            "/wiki/Oru_Vadakkan_Veeragatha"
          ]
        ],
        [
          "P. V. Gangadharan",
          [
            "/wiki/P._V._Gangadharan"
          ]
        ],
        [
          "Hariharan",
          [
            "/wiki/Hariharan_(director)"
          ]
        ]
      ],
      [
        [
          "15",
          []
        ],
        [
          "1990",
          []
        ],
        [
          "Perumthachan",
          [
            "/wiki/Perumthachan_(film)"
          ]
        ],
        [
          "G. Jayakumar",
          []
        ],
        [
          "Ajayan",
          [
            "/wiki/Ajayan_(director)"
          ]
        ]
      ],
      [
        [
          "16",
          []
        ],
        [
          "1991",
          []
        ],
        [
          "Godfather",
          [
            "/wiki/Godfather_(1991_film)"
          ]
        ],
        [
          "Swargachitra Appachan",
          [
            "/wiki/Swargachitra_Appachan"
          ]
        ],
        [
          "Siddique-Lal",
          [
            "/wiki/Siddique\u2013Lal"
          ]
        ]
      ],
      [
        [
          "17",
          []
        ],
        [
          "1992",
          []
        ],
        [
          "Venkalam",
          []
        ],
        [
          "V. V. Babu",
          []
        ],
        [
          "Bharathan",
          [
            "/wiki/Bharathan"
          ]
        ]
      ],
      [
        [
          "18",
          []
        ],
        [
          "1993",
          []
        ],
        [
          "Manichitrathazhu",
          [
            "/wiki/Manichitrathazhu"
          ]
        ],
        [
          "Swargachitra Appachan",
          [
            "/wiki/Swargachitra_Appachan"
          ]
        ],
        [
          "Fazil",
          [
            "/wiki/Fazil_(director)"
          ]
        ]
      ],
      [
        [
          "19",
          []
        ],
        [
          "1994",
          []
        ],
        [
          "Thenmavin Kombath",
          [
            "/wiki/Thenmavin_Kombath"
          ]
        ],
        [
          "N. Gopalakrishnan",
          []
        ],
        [
          "Priyadarshan",
          [
            "/wiki/Priyadarshan"
          ]
        ]
      ],
      [
        [
          "20",
          []
        ],
        [
          "1995",
          []
        ],
        [
          "Mazhayethum Munpe",
          [
            "/wiki/Mazhayethum_Munpe"
          ]
        ],
        [
          "Madhavan Nair",
          []
        ],
        [
          "Kamal",
          [
            "/wiki/Kamal_(director)"
          ]
        ]
      ]
    ],
    "section_title": "Winners",
    "section_text": "",
    "uid": "Kerala_State_Film_Award_for_Best_Film_with_Popular_Appeal_and_Aesthetic_Value_0",
    "intro": "The Best Film with Popular Appeal and Aesthetic Value is an award, begun in 1976, presented annually at the Kerala State Film Awards of India to the best film with popular appeal and aesthetic value in Malayalam film industry. Until 1997, the awards were managed directly by the Department of Cultural Affairs of the Government of Kerala. Since 1998, the awards have been controlled by the Kerala State Chalachitra Academy, an autonomous, non-profit institution functioning under the Department of Cultural Affairs. The winner, producer and director, receives a certificate, statuette and a cash prize of \u20b9100,000 each."
  },
  "National_Register_of_Historic_Places_listings_in_Hamlin_County,_South_Dakota_0": {
    "url": "https://en.wikipedia.org/wiki/National_Register_of_Historic_Places_listings_in_Hamlin_County,_South_Dakota",
    "title": "National Register of Historic Places listings in Hamlin County, South Dakota",
    "header": [
      [
        "",
        []
      ],
      [
        "Name on the Register",
        []
      ],
      [
        "Date listed",
        []
      ],
      [
        "Location",
        []
      ],
      [
        "City or town",
        []
      ]
    ],
    "data": [
      [
        [
          "1",
          []
        ],
        [
          "Bryant Masonic Lodge 118",
          []
        ],
        [
          "March 26 , 2020 ( # 100005110 )",
          []
        ],
        [
          "204 East Main St. 44\u00b035\u203226\u2033N 97\u00b027\u203247\u2033W / 44.5905\u00b0N 97.4630\u00b0W / 44.5905 ; -97.4630 ( Bryant Masonic Lodge 118 )",
          []
        ],
        [
          "Bryant",
          [
            "/wiki/Bryant,_South_Dakota"
          ]
        ]
      ],
      [
        [
          "2",
          []
        ],
        [
          "Estelline Bandstand and Gazebo Park",
          [
            "/wiki/Estelline_Bandstand_and_Gazebo_Park"
          ]
        ],
        [
          "November 30 , 1999 ( # 99001434 )",
          []
        ],
        [
          "105 N. Main 44\u00b034\u203222\u2033N 96\u00b054\u203209\u2033W / 44.572778\u00b0N 96.9025\u00b0W / 44.572778 ; -96.9025 ( Estelline Bandstand and Gazebo Park )",
          []
        ],
        [
          "Estelline",
          [
            "/wiki/Estelline,_South_Dakota"
          ]
        ]
      ],
      [
        [
          "3",
          []
        ],
        [
          "First National Bank of Norden",
          [
            "/wiki/First_National_Bank_of_Norden"
          ]
        ],
        [
          "October 26 , 2005 ( # 05001189 )",
          []
        ],
        [
          "503 Main Ave. 44\u00b034\u203256\u2033N 97\u00b012\u203237\u2033W / 44.582222\u00b0N 97.210278\u00b0W / 44.582222 ; -97.210278 ( First National Bank of Norden )",
          []
        ],
        [
          "Lake Norden",
          [
            "/wiki/Lake_Norden,_South_Dakota"
          ]
        ]
      ],
      [
        [
          "4",
          []
        ],
        [
          "First State Bank of Hazel",
          [
            "/wiki/First_State_Bank_of_Hazel"
          ]
        ],
        [
          "February 21 , 1997 ( # 97000147 )",
          []
        ],
        [
          "Main St. west of its junction with Highway 22 44\u00b045\u203233\u2033N 97\u00b022\u203255\u2033W / 44.759167\u00b0N 97.381944\u00b0W / 44.759167 ; -97.381944 ( First State Bank of Hazel )",
          [
            "/wiki/South_Dakota_Highway_22"
          ]
        ],
        [
          "Hazel",
          [
            "/wiki/Hazel,_South_Dakota"
          ]
        ]
      ],
      [
        [
          "5",
          []
        ],
        [
          "Garfield Church and Cemetery",
          []
        ],
        [
          "February 15 , 2012 ( # 12000036 )",
          []
        ],
        [
          "Northwest corner of SD 28 & 443rd Ave. 44\u00b035\u203216\u2033N 97\u00b021\u203205\u2033W / 44.587793\u00b0N 97.351325\u00b0W / 44.587793 ; -97.351325 ( Garfield Church and Cemetery )",
          [
            "/wiki/South_Dakota_Highway_28"
          ]
        ],
        [
          "Bryant vicinity",
          [
            "/wiki/Bryant,_South_Dakota"
          ]
        ]
      ],
      [
        [
          "6",
          []
        ],
        [
          "Hamlin County Courthouse",
          [
            "/wiki/Hamlin_County_Courthouse"
          ]
        ],
        [
          "October 12 , 2000 ( # 00001225 )",
          []
        ],
        [
          "300 4th St. 44\u00b039\u203225\u2033N 97\u00b012\u203213\u2033W / 44.657034\u00b0N 97.203500\u00b0W / 44.657034 ; -97.203500 ( Hamlin County Courthouse )",
          []
        ],
        [
          "Hayti",
          [
            "/wiki/Hayti,_South_Dakota"
          ]
        ]
      ],
      [
        [
          "7",
          []
        ],
        [
          "M. O. Hanson Building",
          []
        ],
        [
          "July 28 , 2011 ( # 11000486 )",
          []
        ],
        [
          "126 E. Main St. 44\u00b043\u203219\u2033N 97\u00b002\u203209\u2033W / 44.721944\u00b0N 97.035833\u00b0W / 44.721944 ; -97.035833 ( M. O. Hanson Building )",
          []
        ],
        [
          "Castlewood",
          [
            "/wiki/Castlewood,_South_Dakota"
          ]
        ]
      ],
      [
        [
          "8",
          []
        ],
        [
          "Hendrick and Waldur Hendrickson Farm",
          [
            "/wiki/Hendrick_and_Waldur_Hendrickson_Farm"
          ]
        ],
        [
          "November 13 , 1985 ( # 85003485 )",
          []
        ],
        [
          "Highway 28 44\u00b035\u203206\u2033N 97\u00b015\u203226\u2033W / 44.585\u00b0N 97.257222\u00b0W / 44.585 ; -97.257222 ( Hendrick and Waldur Hendrickson Farm )",
          [
            "/wiki/South_Dakota_Highway_28"
          ]
        ],
        [
          "Lake Norden",
          [
            "/wiki/Lake_Norden,_South_Dakota"
          ]
        ]
      ],
      [
        [
          "9",
          []
        ],
        [
          "Hoffelt Drug Store",
          [
            "/wiki/Hoffelt_Drug_Store"
          ]
        ],
        [
          "February 19 , 2008 ( # 08000050 )",
          []
        ],
        [
          "212 Main St. 44\u00b034\u203235\u2033N 96\u00b054\u203208\u2033W / 44.576389\u00b0N 96.902222\u00b0W / 44.576389 ; -96.902222 ( Hoffelt Drug Store )",
          []
        ],
        [
          "Estelline",
          [
            "/wiki/Estelline,_South_Dakota"
          ]
        ]
      ],
      [
        [
          "10",
          []
        ],
        [
          "Kant Hotel",
          [
            "/wiki/Kant_Hotel"
          ]
        ],
        [
          "October 31 , 1985 ( # 85003449 )",
          []
        ],
        [
          "North of Highway 28 44\u00b035\u203226\u2033N 97\u00b028\u203204\u2033W / 44.590556\u00b0N 97.467778\u00b0W / 44.590556 ; -97.467778 ( Kant Hotel )",
          [
            "/wiki/South_Dakota_Highway_28"
          ]
        ],
        [
          "Bryant",
          [
            "/wiki/Bryant,_South_Dakota"
          ]
        ]
      ],
      [
        [
          "11",
          []
        ],
        [
          "Charles and Mary Lohr House",
          [
            "/wiki/Charles_and_Mary_Lohr_House"
          ]
        ],
        [
          "July 19 , 1982 ( # 82003927 )",
          []
        ],
        [
          "1705 State Ave. 44\u00b034\u203223\u2033N 96\u00b053\u203237\u2033W / 44.573056\u00b0N 96.893611\u00b0W / 44.573056 ; -96.893611 ( Charles and Mary Lohr House )",
          []
        ],
        [
          "Estelline",
          [
            "/wiki/Estelline,_South_Dakota"
          ]
        ]
      ],
      [
        [
          "12",
          []
        ],
        [
          "Old St. Mary 's Catholic Parish House",
          [
            "/wiki/Old_St._Mary's_Catholic_Parish_House"
          ]
        ],
        [
          "December 27 , 1988 ( # 88002840 )",
          []
        ],
        [
          "5th Ave. and Underwood St. 44\u00b035\u203219\u2033N 97\u00b027\u203257\u2033W / 44.588611\u00b0N 97.465833\u00b0W / 44.588611 ; -97.465833 ( Old St. Mary 's Catholic Parish House )",
          []
        ],
        [
          "Bryant",
          [
            "/wiki/Bryant,_South_Dakota"
          ]
        ]
      ],
      [
        [
          "13",
          []
        ],
        [
          "South Dakota Dept . of Transportation Bridge No . 29-221-060",
          []
        ],
        [
          "December 9 , 1993 ( # 93001291 )",
          []
        ],
        [
          "Local road over the Big Sioux River 44\u00b042\u203259\u2033N 97\u00b002\u203241\u2033W / 44.716389\u00b0N 97.044722\u00b0W / 44.716389 ; -97.044722 ( South Dakota Dept . of Transportation Bridge No . 29-221-060 )",
          [
            "/wiki/Big_Sioux_River"
          ]
        ],
        [
          "Castlewood",
          [
            "/wiki/Castlewood,_South_Dakota"
          ]
        ]
      ],
      [
        [
          "14",
          []
        ],
        [
          "South Dakota Dept . of Transportation Bridge No . 29-279-010",
          []
        ],
        [
          "December 9 , 1993 ( # 93001292 )",
          []
        ],
        [
          "Local road over Stray Horse Creek 44\u00b047\u203224\u2033N 96\u00b055\u203235\u2033W / 44.79\u00b0N 96.926389\u00b0W / 44.79 ; -96.926389 ( South Dakota Dept . of Transportation Bridge No . 29-279-010 )",
          []
        ],
        [
          "Castlewood",
          [
            "/wiki/Castlewood,_South_Dakota"
          ]
        ]
      ],
      [
        [
          "15",
          []
        ],
        [
          "Jacob and Amelia Tuohino Farm",
          [
            "/wiki/Jacob_and_Amelia_Tuohino_Farm"
          ]
        ],
        [
          "November 13 , 1985 ( # 85003495 )",
          []
        ],
        [
          "South of Highway 28 44\u00b034\u203229\u2033N 97\u00b018\u203239\u2033W / 44.574722\u00b0N 97.310833\u00b0W / 44.574722 ; -97.310833 ( Jacob and Amelia Tuohino Farm )",
          [
            "/wiki/South_Dakota_Highway_28"
          ]
        ],
        [
          "Lake Norden",
          [
            "/wiki/Lake_Norden,_South_Dakota"
          ]
        ]
      ]
    ],
    "section_title": "Current listings",
    "section_text": "",
    "uid": "National_Register_of_Historic_Places_listings_in_Hamlin_County,_South_Dakota_0",
    "intro": "This is a list of the National Register of Historic Places listings in Hamlin County, South Dakota. This is intended to be a complete list of the properties on the National Register of Historic Places in Hamlin County, South Dakota, United States. The locations of National Register properties for which the latitude and longitude coordinates are included below, may be seen in a map. There are 14 properties listed on the National Register in the county."
  }
}