{
  "List_of_submissions_to_the_40th_Academy_Awards_for_Best_Foreign_Language_Film_0": {
    "url": "https://en.wikipedia.org/wiki/List_of_submissions_to_the_40th_Academy_Awards_for_Best_Foreign_Language_Film",
    "title": "List of submissions to the 40th Academy Awards for Best Foreign Language Film",
    "header": [
      [
        "Submitting country",
        []
      ],
      [
        "Film title used in nomination",
        []
      ],
      [
        "Language ( s )",
        []
      ],
      [
        "Original title",
        []
      ],
      [
        "Director ( s )",
        []
      ],
      [
        "Result",
        []
      ]
    ],
    "data": [
      [
        [
          "Belgium",
          [
            "/wiki/Belgium"
          ]
        ],
        [
          "Le d\u00e9part",
          [
            "/wiki/The_Departure_(1967_film)"
          ]
        ],
        [
          "French",
          []
        ],
        [
          "Le d\u00e9part",
          []
        ],
        [
          "Jerzy Skolimowski",
          [
            "/wiki/Jerzy_Skolimowski"
          ]
        ],
        [
          "Not Nominated",
          []
        ]
      ],
      [
        [
          "Brazil",
          [
            "/wiki/Brazil"
          ]
        ],
        [
          "Case of the Naves Brothers",
          [
            "/wiki/Case_of_the_Naves_Brothers"
          ]
        ],
        [
          "Portuguese",
          []
        ],
        [
          "O Caso dos Irm\u00e3os Naves",
          []
        ],
        [
          "Luis S\u00e9rgio Person",
          [
            "/wiki/Luis_S\u00e9rgio_Person"
          ]
        ],
        [
          "Not Nominated",
          []
        ]
      ],
      [
        [
          "Czechoslovakia",
          [
            "/wiki/Czechoslovakia"
          ]
        ],
        [
          "Closely Watched Trains",
          [
            "/wiki/Closely_Watched_Trains"
          ]
        ],
        [
          "Czech , German",
          []
        ],
        [
          "Ost\u0159e sledovan\u00e9 vlaky",
          []
        ],
        [
          "Ji\u0159\u00ed Menzel",
          [
            "/wiki/Ji\u0159\u00ed_Menzel"
          ]
        ],
        [
          "Won Academy Award",
          []
        ]
      ],
      [
        [
          "Denmark",
          [
            "/wiki/Denmark"
          ]
        ],
        [
          "Once There Was a War",
          [
            "/wiki/Once_There_Was_a_War_(film)"
          ]
        ],
        [
          "Danish",
          []
        ],
        [
          "Der var engang en krig",
          []
        ],
        [
          "Palle Kj\u00e6rulff-Schmidt",
          [
            "/wiki/Palle_Kj\u00e6rulff-Schmidt"
          ]
        ],
        [
          "Not Nominated",
          []
        ]
      ],
      [
        [
          "France",
          [
            "/wiki/France"
          ]
        ],
        [
          "Live for Life",
          [
            "/wiki/Live_for_Life"
          ]
        ],
        [
          "French",
          []
        ],
        [
          "Vivre pour Vivre",
          []
        ],
        [
          "Claude Lelouch",
          [
            "/wiki/Claude_Lelouch"
          ]
        ],
        [
          "Nominated",
          []
        ]
      ],
      [
        [
          "West Germany",
          [
            "/wiki/West_Germany"
          ]
        ],
        [
          "Tattoo",
          [
            "/wiki/Tattoo_(1967_film)"
          ]
        ],
        [
          "German",
          []
        ],
        [
          "T\u00e4towierung",
          []
        ],
        [
          "Johannes Schaaf",
          [
            "/wiki/Johannes_Schaaf"
          ]
        ],
        [
          "Not Nominated",
          []
        ]
      ],
      [
        [
          "Hungary",
          [
            "/wiki/Hungary"
          ]
        ],
        [
          "Father",
          [
            "/wiki/Father_(1966_film)"
          ]
        ],
        [
          "Hungarian",
          []
        ],
        [
          "Apa",
          []
        ],
        [
          "Istv\u00e1n Szab\u00f3",
          [
            "/wiki/Istv\u00e1n_Szab\u00f3"
          ]
        ],
        [
          "Not Nominated",
          []
        ]
      ],
      [
        [
          "India",
          [
            "/wiki/India"
          ]
        ],
        [
          "The Last Letter",
          [
            "/wiki/Aakhri_Khat"
          ]
        ],
        [
          "Hindi",
          []
        ],
        [
          "Aakhri Khat",
          []
        ],
        [
          "Chetan Anand",
          [
            "/wiki/Chetan_Anand_(director)"
          ]
        ],
        [
          "Not Nominated",
          []
        ]
      ],
      [
        [
          "Italy",
          [
            "/wiki/Italy"
          ]
        ],
        [
          "China Is Near",
          [
            "/wiki/China_Is_Near"
          ]
        ],
        [
          "Italian",
          []
        ],
        [
          "La Cina \u00e8 vicina",
          []
        ],
        [
          "Marco Bellocchio",
          [
            "/wiki/Marco_Bellocchio"
          ]
        ],
        [
          "Not Nominated",
          []
        ]
      ],
      [
        [
          "Japan",
          [
            "/wiki/Japan"
          ]
        ],
        [
          "Portrait of Chieko",
          [
            "/wiki/Portrait_of_Chieko"
          ]
        ],
        [
          "Japanese",
          []
        ],
        [
          "\u667a\u6075\u5b50\u6284",
          []
        ],
        [
          "Noboru Nakamura",
          [
            "/wiki/Noboru_Nakamura"
          ]
        ],
        [
          "Nominated",
          []
        ]
      ],
      [
        [
          "Mexico",
          [
            "/wiki/Mexico"
          ]
        ],
        [
          "The Adolescents",
          [
            "/wiki/The_Adolescents_(film)"
          ]
        ],
        [
          "Spanish",
          []
        ],
        [
          "Los Adolescentes",
          []
        ],
        [
          "Abel Salazar",
          [
            "/wiki/Abel_Salazar_(actor)"
          ]
        ],
        [
          "Not Nominated",
          []
        ]
      ],
      [
        [
          "Peru",
          [
            "/wiki/Peru"
          ]
        ],
        [
          "No Stars in the Jungle",
          [
            "/wiki/No_Stars_in_the_Jungle"
          ]
        ],
        [
          "Spanish",
          []
        ],
        [
          "En la selva no hay estrellas",
          []
        ],
        [
          "Armando Robles Godoy",
          [
            "/wiki/Armando_Robles_Godoy"
          ]
        ],
        [
          "Not Nominated",
          []
        ]
      ],
      [
        [
          "Philippines",
          [
            "/wiki/Philippines"
          ]
        ],
        [
          "Because of a Flower",
          [
            "/wiki/Because_of_a_Flower"
          ]
        ],
        [
          "Tagalog",
          []
        ],
        [
          "Dahil sa isang bulaklak",
          []
        ],
        [
          "Luis Nepomuceno",
          []
        ],
        [
          "Not Nominated",
          []
        ]
      ],
      [
        [
          "Spain",
          [
            "/wiki/Spain"
          ]
        ],
        [
          "El Amor Brujo",
          [
            "/wiki/Bewitched_Love"
          ]
        ],
        [
          "Spanish",
          []
        ],
        [
          "El Amor Brujo",
          []
        ],
        [
          "Francisco Rovira Beleta",
          [
            "/wiki/Francisco_Rovira_Beleta"
          ]
        ],
        [
          "Nominated",
          []
        ]
      ],
      [
        [
          "Sweden",
          [
            "/wiki/Sweden"
          ]
        ],
        [
          "Here 's Your Life",
          [
            "/wiki/Here's_Your_Life"
          ]
        ],
        [
          "Swedish",
          []
        ],
        [
          "H\u00e4r har du ditt liv",
          []
        ],
        [
          "Jan Troell",
          [
            "/wiki/Jan_Troell"
          ]
        ],
        [
          "Not Nominated",
          []
        ]
      ],
      [
        [
          "Yugoslavia",
          [
            "/wiki/Socialist_Federal_Republic_of_Yugoslavia"
          ]
        ],
        [
          "I Even Met Happy Gypsies",
          [
            "/wiki/I_Even_Met_Happy_Gypsies"
          ]
        ],
        [
          "Romany , Serbian",
          [
            "/wiki/Romani_language"
          ]
        ],
        [
          "Skupljaci perja",
          []
        ],
        [
          "Aleksandar Petrovi\u0107",
          [
            "/wiki/Aleksandar_Petrovi\u0107_(film_director)"
          ]
        ],
        [
          "Nominated",
          []
        ]
      ]
    ],
    "section_title": "Submissions",
    "section_text": "",
    "uid": "List_of_submissions_to_the_40th_Academy_Awards_for_Best_Foreign_Language_Film_0",
    "intro": "The following 16 films, all from different countries, were submitted for the 40th Academy Awards in the category Academy Award for Best Foreign Language Film. The titles highlighted in blue and yellow were the five nominated films, which came from France, Japan, Spain, Yugoslavia and the eventual winner, Czechoslovakia. The winner, Ji\u0159\u00ed Menzel's Closely Watched Trains, was a wry comedy about a young man working at a village railway station during Nazi-occupied Czechoslovakia. Belgium and Peru submitted films to the competition for the first time."
  },
  "List_of_Philippine_Basketball_Association_career_free_throw_scoring_leaders_0": {
    "url": "https://en.wikipedia.org/wiki/List_of_Philippine_Basketball_Association_career_free_throw_scoring_leaders",
    "title": "List of Philippine Basketball Association career free throw scoring leaders",
    "header": [
      [
        "Rank",
        []
      ],
      [
        "Player",
        []
      ],
      [
        "Position ( s )",
        [
          "/wiki/Basketball_positions"
        ]
      ],
      [
        "Years played",
        []
      ],
      [
        "Team ( s ) played",
        []
      ],
      [
        "Games played",
        []
      ],
      [
        "Total free throws made",
        [
          "/wiki/Free_throw"
        ]
      ],
      [
        "Total free throws attempted",
        [
          "/wiki/Free_throw"
        ]
      ],
      [
        "Free throw percentage",
        [
          "/wiki/Free_throw"
        ]
      ]
    ],
    "data": [
      [
        [
          "1",
          []
        ],
        [
          "Ramon Fernandez *",
          [
            "/wiki/Ramon_Fernandez"
          ]
        ],
        [
          "C / PF",
          [
            "/wiki/Center_(basketball)",
            "/wiki/Power_forward_(basketball)"
          ]
        ],
        [
          "1975 - 1994",
          [
            "/wiki/1975_PBA_season",
            "/wiki/1994_PBA_season"
          ]
        ],
        [
          "Toyota , Manila Beer , Tanduay , Purefoods , San Miguel",
          [
            "/wiki/Toyota_Super_Corollas",
            "/wiki/Manila_Beer_Brewmasters",
            "/wiki/Tanduay_Rhum_Masters",
            "/wiki/Magnolia_Hotshots",
            "/wiki/San_Miguel_Beermen"
          ]
        ],
        [
          "1,074",
          []
        ],
        [
          "3,848",
          []
        ],
        [
          "NA",
          []
        ],
        [
          "NA",
          []
        ]
      ],
      [
        [
          "2",
          []
        ],
        [
          "Alvin Patrimonio *",
          [
            "/wiki/Alvin_Patrimonio"
          ]
        ],
        [
          "SF /PF",
          [
            "/wiki/Small_forward"
          ]
        ],
        [
          "1988 - 2005",
          [
            "/wiki/1988_PBA_season",
            "/wiki/2004\u201305_PBA_season"
          ]
        ],
        [
          "Purefoods",
          [
            "/wiki/Magnolia_Hotshots"
          ]
        ],
        [
          "857",
          []
        ],
        [
          "3,640",
          []
        ],
        [
          "4,244",
          []
        ],
        [
          "0.858",
          []
        ]
      ],
      [
        [
          "3",
          []
        ],
        [
          "Jojo Lastimosa *",
          [
            "/wiki/Jojo_Lastimosa"
          ]
        ],
        [
          "SG",
          [
            "/wiki/Shooting_guard"
          ]
        ],
        [
          "1988 - 2002",
          [
            "/wiki/1988_PBA_season",
            "/wiki/2002_PBA_season"
          ]
        ],
        [
          "Purefoods , Alaska , Pop Cola",
          [
            "/wiki/Magnolia_Hotshots",
            "/wiki/Alaska_Aces_(PBA)",
            "/wiki/Pop_Cola_Panthers"
          ]
        ],
        [
          "789",
          []
        ],
        [
          "3,133",
          []
        ],
        [
          "NA",
          []
        ],
        [
          "NA",
          []
        ]
      ],
      [
        [
          "4",
          []
        ],
        [
          "Nelson Asaytono",
          [
            "/wiki/Nelson_Asaytono"
          ]
        ],
        [
          "PF",
          []
        ],
        [
          "1989 - 2005",
          [
            "/wiki/1989_PBA_season",
            "/wiki/2005\u201306_PBA_season"
          ]
        ],
        [
          "Purefoods , Swift/Sunkist/Pop Cola , San Miguel , Red Bull",
          [
            "/wiki/Magnolia_Hotshots",
            "/wiki/Pop_Cola_Panthers",
            "/wiki/San_Miguel_Beermen",
            "/wiki/Barako_Bull_Energy_Boosters"
          ]
        ],
        [
          "820",
          []
        ],
        [
          "2,999",
          []
        ],
        [
          "3,227",
          []
        ],
        [
          "0.794",
          []
        ]
      ],
      [
        [
          "5",
          []
        ],
        [
          "Abet Guidaben *",
          [
            "/wiki/Abet_Guidaben"
          ]
        ],
        [
          "C/PF",
          []
        ],
        [
          "1975 - 1996",
          [
            "/wiki/1975_PBA_season",
            "/wiki/1996_PBA_season"
          ]
        ],
        [
          "Crispa , Manila Beer , San Miguel , Tanduay , Purefoods , Alaska , Pepsi , Shell",
          [
            "/wiki/Crispa_Redmanizers",
            "/wiki/Manila_Beer_Brewmasters",
            "/wiki/San_Miguel_Beermen",
            "/wiki/Tanduay_Rhum_Masters",
            "/wiki/Magnolia_Hotshots",
            "/wiki/Alaska_Aces_(PBA)",
            "/wiki/TNT_KaTropa",
            "/wiki/Shell_Turbo_Chargers"
          ]
        ],
        [
          "1,081",
          []
        ],
        [
          "2,875",
          []
        ],
        [
          "NA",
          []
        ],
        [
          "NA",
          []
        ]
      ],
      [
        [
          "6",
          []
        ],
        [
          "Bobby Parks",
          [
            "/wiki/Bobby_Parks"
          ]
        ],
        [
          "SF/PF",
          []
        ],
        [
          "1987 - 1998",
          [
            "/wiki/1987_PBA_season",
            "/wiki/1998_PBA_season"
          ]
        ],
        [
          "San Miguel , Shell",
          [
            "/wiki/San_Miguel_Beermen",
            "/wiki/Shell_Turbo_Chargers"
          ]
        ],
        [
          "NA",
          []
        ],
        [
          "2,352",
          []
        ],
        [
          "NA",
          []
        ],
        [
          "NA",
          []
        ]
      ],
      [
        [
          "7",
          []
        ],
        [
          "Asi Taulava *",
          [
            "/wiki/Asi_Taulava"
          ]
        ],
        [
          "C",
          []
        ],
        [
          "1999 -present",
          [
            "/wiki/1999_PBA_season"
          ]
        ],
        [
          "Mobiline/Talk ' N Text , Coca-Cola , Meralco , Air21 , NLEX",
          [
            "/wiki/TNT_KaTropa",
            "/wiki/Powerade_Tigers",
            "/wiki/Meralco_Bolts",
            "/wiki/Air21_Express",
            "/wiki/NLEX_Road_Warriors"
          ]
        ],
        [
          "546",
          []
        ],
        [
          "2,193",
          []
        ],
        [
          "3,809",
          []
        ],
        [
          "0.576",
          []
        ]
      ],
      [
        [
          "8",
          []
        ],
        [
          "Bogs Adornado *",
          [
            "/wiki/Bogs_Adornado"
          ]
        ],
        [
          "SF",
          []
        ],
        [
          "1975 - 1987",
          [
            "/wiki/1975_PBA_season",
            "/wiki/1987_PBA_season"
          ]
        ],
        [
          "Crispa , U/Tex , Great Taste , Shell , Hills Bros",
          [
            "/wiki/Crispa_Redmanizers",
            "/wiki/U/Tex_Wranglers",
            "/wiki/Great_Taste_Coffee_Makers",
            "/wiki/Shell_Turbo_Chargers",
            "/wiki/Alaska_Aces_(PBA)"
          ]
        ],
        [
          "586",
          []
        ],
        [
          "2,169",
          []
        ],
        [
          "NA",
          []
        ],
        [
          "NA",
          []
        ]
      ],
      [
        [
          "9",
          []
        ],
        [
          "Danny Seigle",
          [
            "/wiki/Danny_Seigle"
          ]
        ],
        [
          "SF",
          []
        ],
        [
          "1999 - 2017",
          [
            "/wiki/1999_PBA_season",
            "/wiki/2016\u201317_PBA_season"
          ]
        ],
        [
          "San Miguel/Magnolia , Air21/Barako Bull , Talk ' N Text/TNT",
          [
            "/wiki/San_Miguel_Beermen",
            "/wiki/Barako_Bull_Energy",
            "/wiki/TNT_KaTropa"
          ]
        ],
        [
          "558",
          []
        ],
        [
          "2,096",
          []
        ],
        [
          "2,739",
          []
        ],
        [
          "0.765",
          []
        ]
      ],
      [
        [
          "10",
          []
        ],
        [
          "Jerry Codi\u00f1era *",
          [
            "/wiki/Jerry_Codi\u00f1era"
          ]
        ],
        [
          "C/PF",
          []
        ],
        [
          "1988 - 2005",
          [
            "/wiki/1988_PBA_season",
            "/wiki/2004\u201305_PBA_season"
          ]
        ],
        [
          "Purefoods , Mobiline , FedEx",
          [
            "/wiki/Magnolia_Hotshots",
            "/wiki/TNT_KaTropa",
            "/wiki/Barako_Bull_Energy"
          ]
        ],
        [
          "871",
          []
        ],
        [
          "2,093",
          []
        ],
        [
          "2,826",
          []
        ],
        [
          "0.741",
          []
        ]
      ],
      [
        [
          "11",
          []
        ],
        [
          "Philip Cezar *",
          [
            "/wiki/Philip_Cezar"
          ]
        ],
        [
          "PF/C",
          []
        ],
        [
          "1975 - 1990",
          [
            "/wiki/1975_PBA_season",
            "/wiki/1990_PBA_season"
          ]
        ],
        [
          "Crispa , Shell , Great Taste , Ginebra",
          [
            "/wiki/Crispa_Redmanizers",
            "/wiki/Shell_Turbo_Chargers",
            "/wiki/Great_Taste_Coffee_Makers",
            "/wiki/Barangay_Ginebra_San_Miguel"
          ]
        ],
        [
          "918",
          []
        ],
        [
          "2,066",
          []
        ],
        [
          "NA",
          []
        ],
        [
          "NA",
          []
        ]
      ],
      [
        [
          "12",
          []
        ],
        [
          "Robert Jaworski *",
          [
            "/wiki/Robert_Jaworski"
          ]
        ],
        [
          "PG",
          [
            "/wiki/Point_guard"
          ]
        ],
        [
          "1975 - 1998",
          [
            "/wiki/1975_PBA_season",
            "/wiki/1998_PBA_season"
          ]
        ],
        [
          "Toyota , Ginebra",
          [
            "/wiki/Toyota_Super_Corollas",
            "/wiki/Barangay_Ginebra_San_Miguel"
          ]
        ],
        [
          "958",
          []
        ],
        [
          "2,057",
          []
        ],
        [
          "NA",
          []
        ],
        [
          "NA",
          []
        ]
      ],
      [
        [
          "13",
          []
        ],
        [
          "Jun Limpot",
          [
            "/wiki/Jun_Limpot"
          ]
        ],
        [
          "PF/C",
          []
        ],
        [
          "1979 - 2007",
          [
            "/wiki/1993_PBA_season",
            "/wiki/2006\u201307_PBA_season"
          ]
        ],
        [
          "Sta . Lucia , Barangay Ginebra , Alaska , Purefoods",
          [
            "/wiki/Sta._Lucia_Realtors",
            "/wiki/Barangay_Ginebra_San_Miguel",
            "/wiki/Alaska_Aces_(PBA)",
            "/wiki/Magnolia_Hotshots"
          ]
        ],
        [
          "558",
          []
        ],
        [
          "2,048",
          []
        ],
        [
          "2,516",
          []
        ],
        [
          "0.814",
          []
        ]
      ],
      [
        [
          "14",
          []
        ],
        [
          "Ato Agustin *",
          [
            "/wiki/Ato_Agustin"
          ]
        ],
        [
          "PG",
          []
        ],
        [
          "1989 - 2001",
          [
            "/wiki/1989_PBA_season",
            "/wiki/2001_PBA_season"
          ]
        ],
        [
          "San Miguel , Pop Cola , Sta . Lucia , Red Bull",
          [
            "/wiki/San_Miguel_Beermen",
            "/wiki/Pop_Cola_Panthers",
            "/wiki/Sta._Lucia_Realtors",
            "/wiki/Barako_Bull_Energy_Boosters"
          ]
        ],
        [
          "569",
          []
        ],
        [
          "2,043",
          []
        ],
        [
          "NA",
          []
        ],
        [
          "NA",
          []
        ]
      ],
      [
        [
          "15",
          []
        ],
        [
          "Dennis Espino",
          [
            "/wiki/Dennis_Espino"
          ]
        ],
        [
          "C",
          []
        ],
        [
          "1995 - 2011",
          [
            "/wiki/1995_PBA_season",
            "/wiki/2010\u201311_PBA_season"
          ]
        ],
        [
          "Sta . Lucia , Coca-Cola/Powerade",
          [
            "/wiki/Sta._Lucia_Realtors",
            "/wiki/Powerade_Tigers"
          ]
        ],
        [
          "669",
          []
        ],
        [
          "2,001",
          []
        ],
        [
          "2,753",
          []
        ],
        [
          "0.727",
          []
        ]
      ],
      [
        [
          "16",
          []
        ],
        [
          "Jeffrey Cariaso",
          [
            "/wiki/Jeffrey_Cariaso"
          ]
        ],
        [
          "SG",
          []
        ],
        [
          "1995 - 2010",
          [
            "/wiki/1995_PBA_season",
            "/wiki/2009\u201310_PBA_season"
          ]
        ],
        [
          "Alaska , Mobiline , Tanduay , Coca-Cola",
          [
            "/wiki/Alaska_Aces_(PBA)",
            "/wiki/TNT_KaTropa",
            "/wiki/Tanduay_Rhum_Masters",
            "/wiki/Powerade_Tigers"
          ]
        ],
        [
          "686",
          []
        ],
        [
          "1,952",
          []
        ],
        [
          "2,433",
          []
        ],
        [
          "0.802",
          []
        ]
      ],
      [
        [
          "17",
          []
        ],
        [
          "Manny Victorino",
          [
            "/wiki/Manny_Victorino"
          ]
        ],
        [
          "C",
          []
        ],
        [
          "1981 - 1996",
          [
            "/wiki/1981_PBA_season",
            "/wiki/1996_PBA_season"
          ]
        ],
        [
          "Great Taste/Presto , Shell , Pepsi/7-Up , Ginebra , Purefoods , Sunkist",
          [
            "/wiki/Great_Taste_Coffee_Makers",
            "/wiki/Shell_Turbo_Chargers",
            "/wiki/TNT_KaTropa",
            "/wiki/Barangay_Ginebra_San_Miguel",
            "/wiki/Magnolia_Hotshots",
            "/wiki/Pop_Cola_Panthers"
          ]
        ],
        [
          "727",
          []
        ],
        [
          "1,905",
          []
        ],
        [
          "NA",
          []
        ],
        [
          "NA",
          []
        ]
      ],
      [
        [
          "18",
          []
        ],
        [
          "Allan Caidic *",
          [
            "/wiki/Allan_Caidic"
          ]
        ],
        [
          "SG",
          [
            "/wiki/Shooting_guard"
          ]
        ],
        [
          "1987 - 1999",
          [
            "/wiki/1987_PBA_season",
            "/wiki/1999_PBA_season"
          ]
        ],
        [
          "Great Taste , San Miguel , Barangay Ginebra",
          [
            "/wiki/Great_Taste_Coffee_Makers",
            "/wiki/San_Miguel_Beermen",
            "/wiki/Barangay_Ginebra_San_Miguel"
          ]
        ],
        [
          "598",
          []
        ],
        [
          "1,835",
          []
        ],
        [
          "NA",
          []
        ],
        [
          "NA",
          []
        ]
      ],
      [
        [
          "19",
          []
        ],
        [
          "James Yap *",
          [
            "/wiki/James_Yap"
          ]
        ],
        [
          "SG/SF",
          []
        ],
        [
          "2004 -present",
          [
            "/wiki/2004\u201305_PBA_season"
          ]
        ],
        [
          "Purefoods/B-Meg/San Mig Coffee/Purefoods Star/Star , Rain or Shine",
          [
            "/wiki/Magnolia_Hotshots",
            "/wiki/Rain_or_Shine_Elasto_Painters"
          ]
        ],
        [
          "624",
          []
        ],
        [
          "1,801",
          []
        ],
        [
          "2,495",
          []
        ],
        [
          "0.722",
          []
        ]
      ],
      [
        [
          "20",
          []
        ],
        [
          "Freddie Hubalde *",
          [
            "/wiki/Freddie_Hubalde"
          ]
        ],
        [
          "SG/SF",
          []
        ],
        [
          "1975 - 1989",
          [
            "/wiki/1975_PBA_season",
            "/wiki/1989_PBA_season"
          ]
        ],
        [
          "Crispa , Tanduay , Purefoods , Shell",
          [
            "/wiki/Crispa_Redmanizers",
            "/wiki/Tanduay_Rhum_Masters",
            "/wiki/Magnolia_Hotshots",
            "/wiki/Shell_Turbo_Chargers"
          ]
        ],
        [
          "793",
          []
        ],
        [
          "1,794",
          []
        ],
        [
          "NA",
          []
        ],
        [
          "NA",
          []
        ]
      ]
    ],
    "section_title": "",
    "section_text": "Wikipedia list article This is a list of Philippine Basketball Association players by total career free throws made . Statistics accurate as of March 5 , 2017 . [ 1 ] Italics^ Active PBA player * Named as one of the \u201c 40 Greatest Players in PBA History \u201d ~ Played as import [ 2 ]",
    "uid": "List_of_Philippine_Basketball_Association_career_free_throw_scoring_leaders_0",
    "intro": "This is a list of Philippine Basketball Association players by total career free throws made."
  },
  "List_of_submissions_to_the_73rd_Academy_Awards_for_Best_Foreign_Language_Film_0": {
    "url": "https://en.wikipedia.org/wiki/List_of_submissions_to_the_73rd_Academy_Awards_for_Best_Foreign_Language_Film",
    "title": "List of submissions to the 73rd Academy Awards for Best Foreign Language Film",
    "header": [
      [
        "Submitting country",
        []
      ],
      [
        "Film title used in nomination",
        []
      ],
      [
        "Original title",
        []
      ],
      [
        "Language ( s )",
        []
      ],
      [
        "Director ( s )",
        []
      ],
      [
        "Result",
        []
      ]
    ],
    "data": [
      [
        [
          "Algeria",
          [
            "/wiki/Algeria"
          ]
        ],
        [
          "Little Senegal",
          [
            "/wiki/Little_Senegal_(film)"
          ]
        ],
        [
          "Little Senegal",
          []
        ],
        [
          "English , French , Wolof",
          [
            "/wiki/Wolof_language"
          ]
        ],
        [
          "Rachid Bouchareb",
          [
            "/wiki/Rachid_Bouchareb"
          ]
        ],
        [
          "Not Nominated",
          []
        ]
      ],
      [
        [
          "Argentina",
          [
            "/wiki/Argentina"
          ]
        ],
        [
          "Felicidades",
          [
            "/wiki/Merry_Christmas_(2000_film)"
          ]
        ],
        [
          "Felicidades",
          []
        ],
        [
          "Spanish",
          []
        ],
        [
          "Lucho Bender",
          []
        ],
        [
          "Not Nominated",
          []
        ]
      ],
      [
        [
          "Austria",
          [
            "/wiki/Austria"
          ]
        ],
        [
          "The Stranger",
          [
            "/wiki/The_Stranger_(2000_film)"
          ]
        ],
        [
          "Die Fremde",
          []
        ],
        [
          "German",
          []
        ],
        [
          "G\u00f6tz Spielmann",
          [
            "/wiki/G\u00f6tz_Spielmann"
          ]
        ],
        [
          "Not Nominated",
          []
        ]
      ],
      [
        [
          "Belgium",
          [
            "/wiki/Belgium"
          ]
        ],
        [
          "Everybody 's Famous !",
          [
            "/wiki/Everybody's_Famous!"
          ]
        ],
        [
          "Iedereen beroemd !",
          []
        ],
        [
          "Dutch , English",
          []
        ],
        [
          "Dominique Deruddere",
          [
            "/wiki/Dominique_Deruddere"
          ]
        ],
        [
          "Nominated",
          []
        ]
      ],
      [
        [
          "Brazil",
          [
            "/wiki/Brazil"
          ]
        ],
        [
          "Me You Them",
          [
            "/wiki/Me_You_Them"
          ]
        ],
        [
          "Eu tu eles",
          []
        ],
        [
          "Portuguese",
          []
        ],
        [
          "Andrucha Waddington",
          [
            "/wiki/Andrucha_Waddington"
          ]
        ],
        [
          "Not Nominated",
          []
        ]
      ],
      [
        [
          "Bulgaria",
          [
            "/wiki/Bulgaria"
          ]
        ],
        [
          "Letter to America",
          [
            "/wiki/Letter_to_America"
          ]
        ],
        [
          "\u041f\u0438\u0441\u043c\u043e \u0434\u043e \u0410\u043c\u0435\u0440\u0438\u043a\u0430",
          []
        ],
        [
          "Bulgarian , English",
          [
            "/wiki/Bulgarian_language"
          ]
        ],
        [
          "Iglika Triffonova",
          []
        ],
        [
          "Not Nominated",
          []
        ]
      ],
      [
        [
          "Canada",
          [
            "/wiki/Canada"
          ]
        ],
        [
          "Maelstr\u00f6m",
          [
            "/wiki/Maelstr\u00f6m_(film)"
          ]
        ],
        [
          "Maelstr\u00f6m",
          []
        ],
        [
          "French",
          []
        ],
        [
          "Denis Villeneuve",
          [
            "/wiki/Denis_Villeneuve"
          ]
        ],
        [
          "Not Nominated",
          []
        ]
      ],
      [
        [
          "Chile",
          [
            "/wiki/Chile"
          ]
        ],
        [
          "Coronation",
          [
            "/wiki/Coronation_(film)"
          ]
        ],
        [
          "Coronaci\u00f3n",
          []
        ],
        [
          "Spanish",
          []
        ],
        [
          "Silvio Caiozzi",
          [
            "/wiki/Silvio_Caiozzi"
          ]
        ],
        [
          "Not Nominated",
          []
        ]
      ],
      [
        [
          "China",
          [
            "/wiki/China"
          ]
        ],
        [
          "Breaking the Silence",
          [
            "/wiki/Breaking_the_Silence_(film)"
          ]
        ],
        [
          "Piao liang ma ma",
          []
        ],
        [
          "Mandarin",
          [
            "/wiki/Standard_Chinese"
          ]
        ],
        [
          "Sun Zhou",
          []
        ],
        [
          "Not Nominated",
          []
        ]
      ],
      [
        [
          "Croatia",
          [
            "/wiki/Croatia"
          ]
        ],
        [
          "Marshal Tito 's Spirit",
          [
            "/wiki/Marshal_Tito's_Spirit"
          ]
        ],
        [
          "Mar\u0161al",
          []
        ],
        [
          "Serbo-Croatian",
          [
            "/wiki/Serbo-Croatian"
          ]
        ],
        [
          "Vinko Bre\u0161an",
          [
            "/wiki/Vinko_Bre\u0161an"
          ]
        ],
        [
          "Not Nominated",
          []
        ]
      ],
      [
        [
          "Czech Republic",
          [
            "/wiki/Czech_Republic"
          ]
        ],
        [
          "Divided We Fall",
          [
            "/wiki/Divided_We_Fall_(film)"
          ]
        ],
        [
          "Mus\u00edme si pom\u00e1hat",
          []
        ],
        [
          "Czech",
          [
            "/wiki/Czech_language"
          ]
        ],
        [
          "Jan H\u0159ebejk",
          [
            "/wiki/Jan_H\u0159ebejk"
          ]
        ],
        [
          "Nominated",
          []
        ]
      ],
      [
        [
          "Denmark",
          [
            "/wiki/Denmark"
          ]
        ],
        [
          "A Place Nearby",
          [
            "/wiki/A_Place_Nearby"
          ]
        ],
        [
          "Her i n\u00e6rheden",
          []
        ],
        [
          "Danish",
          []
        ],
        [
          "Kaspar Rostrup",
          [
            "/wiki/Kaspar_Rostrup"
          ]
        ],
        [
          "Not Nominated",
          []
        ]
      ],
      [
        [
          "Ecuador",
          [
            "/wiki/Ecuador"
          ]
        ],
        [
          "Dreams from the Middle of the World",
          [
            "/wiki/Dreams_from_the_Middle_of_the_World"
          ]
        ],
        [
          "Sue\u00f1os en la mitad del mundo",
          []
        ],
        [
          "Spanish",
          []
        ],
        [
          "Carlos Naranjo Estrella",
          []
        ],
        [
          "Not Nominated",
          []
        ]
      ],
      [
        [
          "Finland",
          [
            "/wiki/Finland"
          ]
        ],
        [
          "Seven Songs from the Tundra",
          [
            "/wiki/Seven_Songs_from_the_Tundra"
          ]
        ],
        [
          "Seitsem\u00e4n laulua tundralta",
          []
        ],
        [
          "Nenets , Russian",
          [
            "/wiki/Nenets_languages"
          ]
        ],
        [
          "Anastasia Lapsui , Markku Lehmuskallio",
          [
            "/wiki/Anastasia_Lapsui",
            "/wiki/Markku_Lehmuskallio"
          ]
        ],
        [
          "Not Nominated",
          []
        ]
      ],
      [
        [
          "France",
          [
            "/wiki/France"
          ]
        ],
        [
          "The Taste of Others",
          [
            "/wiki/The_Taste_of_Others"
          ]
        ],
        [
          "Le Go\u00fbt des Autres",
          []
        ],
        [
          "French",
          []
        ],
        [
          "Agn\u00e8s Jaoui",
          [
            "/wiki/Agn\u00e8s_Jaoui"
          ]
        ],
        [
          "Nominated",
          []
        ]
      ],
      [
        [
          "Georgia",
          [
            "/wiki/Georgia_(country)"
          ]
        ],
        [
          "27 Missing Kisses",
          [
            "/wiki/27_Missing_Kisses"
          ]
        ],
        [
          "27 dakarguli kotsna ( 27 \u10d3\u10d0\u10d9\u10d0\u10e0\u10d2\u10e3\u10da\u10d8 \u10d9\u10dd\u10ea\u10dc\u10d0 )",
          []
        ],
        [
          "Georgian , French , Russian",
          [
            "/wiki/Georgian_language"
          ]
        ],
        [
          "Nana Djordjadze",
          [
            "/wiki/Nana_Jorjadze"
          ]
        ],
        [
          "Not Nominated",
          []
        ]
      ],
      [
        [
          "Germany",
          [
            "/wiki/Germany"
          ]
        ],
        [
          "No Place to Go",
          [
            "/wiki/No_Place_to_Go_(2000_film)"
          ]
        ],
        [
          "Die Unber\u00fchrbare",
          []
        ],
        [
          "German",
          []
        ],
        [
          "Oskar Roehler",
          [
            "/wiki/Oskar_Roehler"
          ]
        ],
        [
          "Not Nominated",
          []
        ]
      ],
      [
        [
          "Greece",
          [
            "/wiki/Greece"
          ]
        ],
        [
          "Peppermint",
          [
            "/wiki/Peppermint_(1999_film)"
          ]
        ],
        [
          "Peppermint",
          []
        ],
        [
          "Greek",
          []
        ],
        [
          "Costas Kapakas",
          []
        ],
        [
          "Not Nominated",
          []
        ]
      ],
      [
        [
          "Hong Kong",
          [
            "/wiki/Hong_Kong"
          ]
        ],
        [
          "In the Mood for Love",
          [
            "/wiki/In_the_Mood_for_Love"
          ]
        ],
        [
          "Hu\u0101y\u00e0ng ni\u00e1nhu\u00e1 ( \u82b1\u6a23\u5e74\u83ef )",
          []
        ],
        [
          "Cantonese , Shanghainese",
          [
            "/wiki/Cantonese",
            "/wiki/Shanghainese"
          ]
        ],
        [
          "Wong Kar-wai",
          [
            "/wiki/Wong_Kar-wai"
          ]
        ],
        [
          "Not Nominated",
          []
        ]
      ],
      [
        [
          "Hungary",
          [
            "/wiki/Hungary"
          ]
        ],
        [
          "Glamour",
          [
            "/wiki/Glamour_(2000_film)"
          ]
        ],
        [
          "Glamour",
          []
        ],
        [
          "Hungarian",
          []
        ],
        [
          "Frigyes G\u00f6dr\u00f6s",
          []
        ],
        [
          "Not Nominated",
          []
        ]
      ]
    ],
    "section_title": "Submissions",
    "section_text": "",
    "uid": "List_of_submissions_to_the_73rd_Academy_Awards_for_Best_Foreign_Language_Film_0",
    "intro": "The Academy of Motion Picture Arts and Sciences has invited the film industries of various countries to submit their best film for the Academy Award for Best Foreign Language Film every year since the award was created in 1956. The award is handed out annually by the Academy to a feature-length motion picture produced outside the United States that contains primarily non-English dialogue. The Foreign Language Film Award Committee oversees the process and reviews all the submitted films. For the 73rd Academy Awards, which were held on March 25, 2001, the Academy invited 75 countries to submit films for the Academy Award for Best Foreign Language Film. Forty-six countries submitted films to the Academy, including Ecuador, which submitted a film for the first time. The Academy released a list of the five nominees for the award on February 13, 2001. The winner of the Academy Award for Best Foreign Language Film was Taiwan's Crouching Tiger, Hidden Dragon, which was directed by Ang Lee."
  }
}