{
  "United_States_Fish_and_Wildlife_Service_list_of_endangered_mammals_and_birds_0": {
    "url": "https://en.wikipedia.org/wiki/United_States_Fish_and_Wildlife_Service_list_of_endangered_mammals_and_birds",
    "title": "United States Fish and Wildlife Service list of endangered mammals and birds",
    "header": [
      [
        "Common name",
        []
      ],
      [
        "Scientific name",
        []
      ],
      [
        "Home range",
        []
      ],
      [
        "status",
        []
      ]
    ],
    "data": [
      [
        [
          "Lowland anoa",
          [
            "/wiki/Anoa"
          ]
        ],
        [
          "Bubalus depressicornis",
          []
        ],
        [
          "Indonesia",
          [
            "/wiki/Indonesia"
          ]
        ],
        [
          "E",
          []
        ]
      ],
      [
        [
          "Mountain anoa",
          [
            "/wiki/Anoa"
          ]
        ],
        [
          "Bubalus quarlesi",
          []
        ],
        [
          "Indonesia",
          []
        ],
        [
          "E",
          []
        ]
      ],
      [
        [
          "Giant sable antelope",
          [
            "/wiki/Giant_sable_antelope"
          ]
        ],
        [
          "Hippotragus niger variani",
          []
        ],
        [
          "Angola",
          [
            "/wiki/Angola"
          ]
        ],
        [
          "E",
          []
        ]
      ],
      [
        [
          "Argali",
          [
            "/wiki/Argali"
          ]
        ],
        [
          "Ovis ammon",
          []
        ],
        [
          "Eurasia",
          [
            "/wiki/Eurasia"
          ]
        ],
        [
          "E",
          []
        ]
      ],
      [
        [
          "Giant armadillo",
          [
            "/wiki/Giant_armadillo"
          ]
        ],
        [
          "Priodontes maximus",
          []
        ],
        [
          "South America",
          [
            "/wiki/South_America"
          ]
        ],
        [
          "E",
          []
        ]
      ],
      [
        [
          "Pink fairy armadillo",
          [
            "/wiki/Pink_fairy_armadillo"
          ]
        ],
        [
          "Chlamyphorus truncatus",
          []
        ],
        [
          "Argentina",
          [
            "/wiki/Argentina"
          ]
        ],
        [
          "E",
          []
        ]
      ],
      [
        [
          "African wild ass",
          [
            "/wiki/African_wild_ass"
          ]
        ],
        [
          "Equus africanus",
          []
        ],
        [
          "Somalia , Sudan , Ethiopia",
          [
            "/wiki/Somalia",
            "/wiki/Sudan",
            "/wiki/Ethiopia"
          ]
        ],
        [
          "E",
          []
        ]
      ],
      [
        [
          "Asian wild ass ( onager )",
          [
            "/wiki/Onager",
            "/wiki/Onager"
          ]
        ],
        [
          "Equus hemionus",
          []
        ],
        [
          "Southwestern and Central Asia",
          [
            "/wiki/Western_Asia",
            "/wiki/Central_Asia"
          ]
        ],
        [
          "E",
          []
        ]
      ],
      [
        [
          "Avahi ( woolly lemur )",
          [
            "/wiki/Woolly_lemur"
          ]
        ],
        [
          "Avahi sp",
          []
        ],
        [
          "Malagasy Republic ( Madagascar )",
          [
            "/wiki/Malagasy_Republic"
          ]
        ],
        [
          "E",
          []
        ]
      ],
      [
        [
          "Aye-aye",
          [
            "/wiki/Aye-aye"
          ]
        ],
        [
          "Daubentonia madagascariensis",
          []
        ],
        [
          "Malagasy Republic ( Madagascar )",
          []
        ],
        [
          "E",
          []
        ]
      ],
      [
        [
          "Babirusa",
          [
            "/wiki/Babirusa"
          ]
        ],
        [
          "Babyrousa babyrussa",
          []
        ],
        [
          "Indonesia",
          [
            "/wiki/Indonesia"
          ]
        ],
        [
          "E",
          []
        ]
      ],
      [
        [
          "Gelada",
          [
            "/wiki/Gelada"
          ]
        ],
        [
          "Theropithecus gelada",
          []
        ],
        [
          "Ethiopia",
          [
            "/wiki/Ethiopia"
          ]
        ],
        [
          "T",
          []
        ]
      ],
      [
        [
          "Western barred bandicoot",
          [
            "/wiki/Western_barred_bandicoot"
          ]
        ],
        [
          "Perameles bougainville",
          [
            "/wiki/Western_barred_bandicoot"
          ]
        ],
        [
          "Australia",
          [
            "/wiki/Australia"
          ]
        ],
        [
          "E",
          []
        ]
      ],
      [
        [
          "Desert bandicoot",
          [
            "/wiki/Desert_bandicoot"
          ]
        ],
        [
          "Perameles eremiana",
          []
        ],
        [
          "Australia",
          []
        ],
        [
          "E",
          []
        ]
      ],
      [
        [
          "Lesser rabbit bandicoot ( lesser bilby )",
          [
            "/wiki/Lesser_bilby"
          ]
        ],
        [
          "Macrotis leucura",
          []
        ],
        [
          "Australia",
          []
        ],
        [
          "E",
          []
        ]
      ],
      [
        [
          "Pig-footed bandicoot",
          [
            "/wiki/Chaeropus"
          ]
        ],
        [
          "Chaeropus ecaudatus",
          []
        ],
        [
          "Australia",
          []
        ],
        [
          "E",
          []
        ]
      ],
      [
        [
          "Rabbit bandicoot ( bilby )",
          [
            "/wiki/Macrotis"
          ]
        ],
        [
          "Macrotis lagotis",
          []
        ],
        [
          "Australia",
          []
        ],
        [
          "E",
          []
        ]
      ],
      [
        [
          "Banteng",
          [
            "/wiki/Banteng"
          ]
        ],
        [
          "Bos javanicus",
          []
        ],
        [
          "Southeast Asia",
          [
            "/wiki/Southeast_Asia"
          ]
        ],
        [
          "E",
          []
        ]
      ],
      [
        [
          "Bulmer 's fruit bat ( flying fox )",
          [
            "/wiki/Bulmer's_fruit_bat"
          ]
        ],
        [
          "Aproteles bulmerae",
          []
        ],
        [
          "Papua New Guinea",
          [
            "/wiki/Papua_New_Guinea"
          ]
        ],
        [
          "E",
          []
        ]
      ],
      [
        [
          "Bumblebee bat",
          [
            "/wiki/Kitti's_hog-nosed_bat"
          ]
        ],
        [
          "Craseonycteris thonglongyai",
          []
        ],
        [
          "Thailand",
          [
            "/wiki/Thailand"
          ]
        ],
        [
          "E",
          []
        ]
      ]
    ],
    "section_title": "Mammals",
    "section_text": "",
    "uid": "United_States_Fish_and_Wildlife_Service_list_of_endangered_mammals_and_birds_0",
    "intro": "This is a list of the bird and mammal species and subspecies described as endangered by the United States Fish and Wildlife Service. It contains species and subspecies not only in the U.S. and its territories, but also those only found in other parts of the world. It does not include endangered fish, amphibians, reptiles, plants, or invertebrates. The complete list can be found in the U.S. Code of Federal Regulations Title 50 Part 17. The listings for status are E for endangered or T for threatened. Species or subspecies may also be endangered or threatened because they are sufficiently similar in appearance to endangered or threatened species or subspecies and are marked for similarity of appearance as E(S/A) or T(S/A). Threatened species are animals and plants that are likely to become endangered in the foreseeable future. Identifying, protecting, and restoring endangered and threatened species and subspecies are the primary objectives of the U.S. Fish and Wildlife Service's endangered species program."
  }
}