{
  "List_of_Major_League_Baseball_games_played_outside_the_United_States_and_Canada_0": {
    "url": "https://en.wikipedia.org/wiki/List_of_Major_League_Baseball_games_played_outside_the_United_States_and_Canada",
    "title": "List of Major League Baseball games played outside the United States and Canada",
    "header": [
      [
        "Season",
        []
      ],
      [
        "Date",
        []
      ],
      [
        "Winning team",
        []
      ],
      [
        "Score",
        []
      ],
      [
        "Losing team",
        []
      ],
      [
        "Attendance",
        []
      ],
      [
        "Stadium",
        []
      ],
      [
        "City",
        []
      ],
      [
        "Country",
        []
      ]
    ],
    "data": [
      [
        [
          "1996",
          [
            "/wiki/1996_Major_League_Baseball_season"
          ]
        ],
        [
          "August 16",
          []
        ],
        [
          "San Diego Padres",
          [
            "/wiki/San_Diego_Padres"
          ]
        ],
        [
          "15-10",
          []
        ],
        [
          "New York Mets",
          [
            "/wiki/New_York_Mets"
          ]
        ],
        [
          "23,699",
          []
        ],
        [
          "Estadio de B\u00e9isbol Monterrey",
          [
            "/wiki/Estadio_de_B\u00e9isbol_Monterrey"
          ]
        ],
        [
          "Monterrey",
          [
            "/wiki/Monterrey"
          ]
        ],
        [
          "Mexico",
          [
            "/wiki/Mexico"
          ]
        ]
      ],
      [
        [
          "1996",
          [
            "/wiki/1996_Major_League_Baseball_season"
          ]
        ],
        [
          "August 17",
          []
        ],
        [
          "New York Mets",
          [
            "/wiki/New_York_Mets"
          ]
        ],
        [
          "7-3",
          []
        ],
        [
          "San Diego Padres",
          [
            "/wiki/San_Diego_Padres"
          ]
        ],
        [
          "20,873",
          []
        ],
        [
          "Estadio de B\u00e9isbol Monterrey",
          [
            "/wiki/Estadio_de_B\u00e9isbol_Monterrey"
          ]
        ],
        [
          "Monterrey",
          [
            "/wiki/Monterrey"
          ]
        ],
        [
          "Mexico",
          [
            "/wiki/Mexico"
          ]
        ]
      ],
      [
        [
          "1996",
          [
            "/wiki/1996_Major_League_Baseball_season"
          ]
        ],
        [
          "August 18",
          []
        ],
        [
          "San Diego Padres",
          [
            "/wiki/San_Diego_Padres"
          ]
        ],
        [
          "8-0",
          []
        ],
        [
          "New York Mets",
          [
            "/wiki/New_York_Mets"
          ]
        ],
        [
          "22,810",
          []
        ],
        [
          "Estadio de B\u00e9isbol Monterrey",
          [
            "/wiki/Estadio_de_B\u00e9isbol_Monterrey"
          ]
        ],
        [
          "Monterrey",
          [
            "/wiki/Monterrey"
          ]
        ],
        [
          "Mexico",
          [
            "/wiki/Mexico"
          ]
        ]
      ],
      [
        [
          "1999",
          [
            "/wiki/1999_Major_League_Baseball_season"
          ]
        ],
        [
          "April 4",
          []
        ],
        [
          "Colorado Rockies",
          [
            "/wiki/Colorado_Rockies"
          ]
        ],
        [
          "8-2",
          []
        ],
        [
          "San Diego Padres",
          [
            "/wiki/San_Diego_Padres"
          ]
        ],
        [
          "27,104",
          []
        ],
        [
          "Estadio de B\u00e9isbol Monterrey",
          [
            "/wiki/Estadio_de_B\u00e9isbol_Monterrey"
          ]
        ],
        [
          "Monterrey",
          [
            "/wiki/Monterrey"
          ]
        ],
        [
          "Mexico",
          [
            "/wiki/Mexico"
          ]
        ]
      ],
      [
        [
          "2000",
          [
            "/wiki/2000_Major_League_Baseball_season"
          ]
        ],
        [
          "March 29",
          []
        ],
        [
          "Chicago Cubs",
          [
            "/wiki/Chicago_Cubs"
          ]
        ],
        [
          "5-3",
          []
        ],
        [
          "New York Mets",
          [
            "/wiki/New_York_Mets"
          ]
        ],
        [
          "55,000",
          []
        ],
        [
          "Tokyo Dome",
          [
            "/wiki/Tokyo_Dome"
          ]
        ],
        [
          "Tokyo",
          [
            "/wiki/Tokyo"
          ]
        ],
        [
          "Japan",
          [
            "/wiki/Japan"
          ]
        ]
      ],
      [
        [
          "2000",
          [
            "/wiki/2000_Major_League_Baseball_season"
          ]
        ],
        [
          "March 30",
          []
        ],
        [
          "New York Mets",
          [
            "/wiki/New_York_Mets"
          ]
        ],
        [
          "5-1",
          []
        ],
        [
          "Chicago Cubs",
          [
            "/wiki/Chicago_Cubs"
          ]
        ],
        [
          "55,000",
          []
        ],
        [
          "Tokyo Dome",
          [
            "/wiki/Tokyo_Dome"
          ]
        ],
        [
          "Tokyo",
          [
            "/wiki/Tokyo"
          ]
        ],
        [
          "Japan",
          [
            "/wiki/Japan"
          ]
        ]
      ],
      [
        [
          "2004",
          [
            "/wiki/2004_Major_League_Baseball_season"
          ]
        ],
        [
          "March 30",
          []
        ],
        [
          "Tampa Bay Devil Rays",
          [
            "/wiki/Tampa_Bay_Rays"
          ]
        ],
        [
          "8-3",
          []
        ],
        [
          "New York Yankees",
          [
            "/wiki/New_York_Yankees"
          ]
        ],
        [
          "55,000",
          []
        ],
        [
          "Tokyo Dome",
          [
            "/wiki/Tokyo_Dome"
          ]
        ],
        [
          "Tokyo",
          [
            "/wiki/Tokyo"
          ]
        ],
        [
          "Japan",
          [
            "/wiki/Japan"
          ]
        ]
      ],
      [
        [
          "2004",
          [
            "/wiki/2004_Major_League_Baseball_season"
          ]
        ],
        [
          "March 31",
          []
        ],
        [
          "New York Yankees",
          [
            "/wiki/New_York_Yankees"
          ]
        ],
        [
          "12-1",
          []
        ],
        [
          "Tampa Bay Devil Rays",
          [
            "/wiki/Tampa_Bay_Rays"
          ]
        ],
        [
          "55,000",
          []
        ],
        [
          "Tokyo Dome",
          [
            "/wiki/Tokyo_Dome"
          ]
        ],
        [
          "Tokyo",
          [
            "/wiki/Tokyo"
          ]
        ],
        [
          "Japan",
          [
            "/wiki/Japan"
          ]
        ]
      ],
      [
        [
          "2008",
          [
            "/wiki/2008_Major_League_Baseball_season"
          ]
        ],
        [
          "March 25",
          []
        ],
        [
          "Boston Red Sox",
          [
            "/wiki/Boston_Red_Sox"
          ]
        ],
        [
          "6-5",
          []
        ],
        [
          "Oakland Athletics",
          [
            "/wiki/Oakland_Athletics"
          ]
        ],
        [
          "44,628",
          []
        ],
        [
          "Tokyo Dome",
          [
            "/wiki/Tokyo_Dome"
          ]
        ],
        [
          "Tokyo",
          [
            "/wiki/Tokyo"
          ]
        ],
        [
          "Japan",
          [
            "/wiki/Japan"
          ]
        ]
      ],
      [
        [
          "2008",
          [
            "/wiki/2008_Major_League_Baseball_season"
          ]
        ],
        [
          "March 26",
          []
        ],
        [
          "Oakland Athletics",
          [
            "/wiki/Oakland_Athletics"
          ]
        ],
        [
          "5-1",
          []
        ],
        [
          "Boston Red Sox",
          [
            "/wiki/Boston_Red_Sox"
          ]
        ],
        [
          "44,735",
          []
        ],
        [
          "Tokyo Dome",
          [
            "/wiki/Tokyo_Dome"
          ]
        ],
        [
          "Tokyo",
          [
            "/wiki/Tokyo"
          ]
        ],
        [
          "Japan",
          [
            "/wiki/Japan"
          ]
        ]
      ],
      [
        [
          "2012",
          [
            "/wiki/2012_Major_League_Baseball_season"
          ]
        ],
        [
          "March 28",
          []
        ],
        [
          "Seattle Mariners",
          [
            "/wiki/Seattle_Mariners"
          ]
        ],
        [
          "3-1",
          []
        ],
        [
          "Oakland Athletics",
          [
            "/wiki/Oakland_Athletics"
          ]
        ],
        [
          "44,227",
          []
        ],
        [
          "Tokyo Dome",
          [
            "/wiki/Tokyo_Dome"
          ]
        ],
        [
          "Tokyo",
          [
            "/wiki/Tokyo"
          ]
        ],
        [
          "Japan",
          [
            "/wiki/Japan"
          ]
        ]
      ],
      [
        [
          "2012",
          [
            "/wiki/2012_Major_League_Baseball_season"
          ]
        ],
        [
          "March 29",
          []
        ],
        [
          "Oakland Athletics",
          [
            "/wiki/Oakland_Athletics"
          ]
        ],
        [
          "4-1",
          []
        ],
        [
          "Seattle Mariners",
          [
            "/wiki/Seattle_Mariners"
          ]
        ],
        [
          "43,391",
          []
        ],
        [
          "Tokyo Dome",
          [
            "/wiki/Tokyo_Dome"
          ]
        ],
        [
          "Tokyo",
          [
            "/wiki/Tokyo"
          ]
        ],
        [
          "Japan",
          [
            "/wiki/Japan"
          ]
        ]
      ],
      [
        [
          "2014",
          [
            "/wiki/2014_Major_League_Baseball_season"
          ]
        ],
        [
          "March 22",
          []
        ],
        [
          "Los Angeles Dodgers",
          [
            "/wiki/Los_Angeles_Dodgers"
          ]
        ],
        [
          "3-1",
          []
        ],
        [
          "Arizona Diamondbacks",
          [
            "/wiki/Arizona_Diamondbacks"
          ]
        ],
        [
          "38,266",
          []
        ],
        [
          "Sydney Cricket Ground",
          [
            "/wiki/Sydney_Cricket_Ground"
          ]
        ],
        [
          "Sydney",
          [
            "/wiki/Sydney"
          ]
        ],
        [
          "Australia",
          [
            "/wiki/Australia"
          ]
        ]
      ],
      [
        [
          "2014",
          [
            "/wiki/2014_Major_League_Baseball_season"
          ]
        ],
        [
          "March 23",
          []
        ],
        [
          "Los Angeles Dodgers",
          [
            "/wiki/Los_Angeles_Dodgers"
          ]
        ],
        [
          "7-5",
          []
        ],
        [
          "Arizona Diamondbacks",
          [
            "/wiki/Arizona_Diamondbacks"
          ]
        ],
        [
          "38,079",
          []
        ],
        [
          "Sydney Cricket Ground",
          [
            "/wiki/Sydney_Cricket_Ground"
          ]
        ],
        [
          "Sydney",
          [
            "/wiki/Sydney"
          ]
        ],
        [
          "Australia",
          [
            "/wiki/Australia"
          ]
        ]
      ],
      [
        [
          "2018",
          [
            "/wiki/2018_Major_League_Baseball_season"
          ]
        ],
        [
          "May 4",
          []
        ],
        [
          "Los Angeles Dodgers",
          [
            "/wiki/Los_Angeles_Dodgers"
          ]
        ],
        [
          "4-0",
          []
        ],
        [
          "San Diego Padres",
          [
            "/wiki/San_Diego_Padres"
          ]
        ],
        [
          "21,536",
          []
        ],
        [
          "Estadio de B\u00e9isbol Monterrey",
          [
            "/wiki/Estadio_de_B\u00e9isbol_Monterrey"
          ]
        ],
        [
          "Monterrey",
          [
            "/wiki/Monterrey"
          ]
        ],
        [
          "Mexico",
          [
            "/wiki/Mexico"
          ]
        ]
      ],
      [
        [
          "2018",
          [
            "/wiki/2018_Major_League_Baseball_season"
          ]
        ],
        [
          "May 5",
          []
        ],
        [
          "San Diego Padres",
          [
            "/wiki/San_Diego_Padres"
          ]
        ],
        [
          "7-4",
          []
        ],
        [
          "Los Angeles Dodgers",
          [
            "/wiki/Los_Angeles_Dodgers"
          ]
        ],
        [
          "21,791",
          []
        ],
        [
          "Estadio de B\u00e9isbol Monterrey",
          [
            "/wiki/Estadio_de_B\u00e9isbol_Monterrey"
          ]
        ],
        [
          "Monterrey",
          [
            "/wiki/Monterrey"
          ]
        ],
        [
          "Mexico",
          [
            "/wiki/Mexico"
          ]
        ]
      ],
      [
        [
          "2018",
          [
            "/wiki/2018_Major_League_Baseball_season"
          ]
        ],
        [
          "May 6",
          []
        ],
        [
          "San Diego Padres",
          [
            "/wiki/San_Diego_Padres"
          ]
        ],
        [
          "3-0",
          []
        ],
        [
          "Los Angeles Dodgers",
          [
            "/wiki/Los_Angeles_Dodgers"
          ]
        ],
        [
          "21,789",
          []
        ],
        [
          "Estadio de B\u00e9isbol Monterrey",
          [
            "/wiki/Estadio_de_B\u00e9isbol_Monterrey"
          ]
        ],
        [
          "Monterrey",
          [
            "/wiki/Monterrey"
          ]
        ],
        [
          "Mexico",
          [
            "/wiki/Mexico"
          ]
        ]
      ],
      [
        [
          "2019",
          [
            "/wiki/2019_Major_League_Baseball_season"
          ]
        ],
        [
          "March 20",
          []
        ],
        [
          "Seattle Mariners",
          [
            "/wiki/Seattle_Mariners"
          ]
        ],
        [
          "9-7",
          []
        ],
        [
          "Oakland Athletics",
          [
            "/wiki/Oakland_Athletics"
          ]
        ],
        [
          "45,787",
          []
        ],
        [
          "Tokyo Dome",
          [
            "/wiki/Tokyo_Dome"
          ]
        ],
        [
          "Tokyo",
          [
            "/wiki/Tokyo"
          ]
        ],
        [
          "Japan",
          [
            "/wiki/Japan"
          ]
        ]
      ],
      [
        [
          "2019",
          [
            "/wiki/2019_Major_League_Baseball_season"
          ]
        ],
        [
          "March 21",
          []
        ],
        [
          "Seattle Mariners",
          [
            "/wiki/Seattle_Mariners"
          ]
        ],
        [
          "5-4",
          []
        ],
        [
          "Oakland Athletics",
          [
            "/wiki/Oakland_Athletics"
          ]
        ],
        [
          "46,451",
          []
        ],
        [
          "Tokyo Dome",
          [
            "/wiki/Tokyo_Dome"
          ]
        ],
        [
          "Tokyo",
          [
            "/wiki/Tokyo"
          ]
        ],
        [
          "Japan",
          [
            "/wiki/Japan"
          ]
        ]
      ],
      [
        [
          "2019",
          [
            "/wiki/2019_Major_League_Baseball_season"
          ]
        ],
        [
          "April 13",
          []
        ],
        [
          "Cincinnati Reds",
          [
            "/wiki/Cincinnati_Reds"
          ]
        ],
        [
          "5-2",
          []
        ],
        [
          "St. Louis Cardinals",
          [
            "/wiki/St._Louis_Cardinals"
          ]
        ],
        [
          "16,496",
          []
        ],
        [
          "Estadio de B\u00e9isbol Monterrey",
          [
            "/wiki/Estadio_de_B\u00e9isbol_Monterrey"
          ]
        ],
        [
          "Monterrey",
          [
            "/wiki/Monterrey"
          ]
        ],
        [
          "Mexico",
          [
            "/wiki/Mexico"
          ]
        ]
      ]
    ],
    "section_title": "List of games",
    "section_text": "",
    "uid": "List_of_Major_League_Baseball_games_played_outside_the_United_States_and_Canada_0",
    "intro": "Major League Baseball (MLB) has played multiple regular season games outside of its base in the United States and Canada. Listed below are the results of those games. Exhibition contests, such as preseason games or postseason all-star games, are not included."
  },
  "Template:2004_Summer_Olympics_Serbia_and_Montenegro_men's_volleyball_team_roster_0": {
    "url": "https://en.wikipedia.org/wiki/Template:2004_Summer_Olympics_Serbia_and_Montenegro_men's_volleyball_team_roster",
    "title": "Template:2004 Summer Olympics Serbia and Montenegro men's volleyball team roster",
    "header": [
      [
        "\u2116",
        []
      ],
      [
        "Name",
        []
      ],
      [
        "Date of birth",
        []
      ],
      [
        "Height",
        []
      ],
      [
        "Weight",
        []
      ],
      [
        "Spike",
        []
      ],
      [
        "Block",
        []
      ],
      [
        "2004 club",
        []
      ]
    ],
    "data": [
      [
        [
          "2",
          []
        ],
        [
          "Milan Vasi\u0107",
          [
            "/wiki/Milan_Vasi\u0107_(volleyball)"
          ]
        ],
        [
          "2 September 1980",
          []
        ],
        [
          "2.04 m ( 6 ft 8 in )",
          []
        ],
        [
          "98 kg ( 216 lb )",
          []
        ],
        [
          "355 cm ( 140 in )",
          []
        ],
        [
          "330 cm ( 130 in )",
          []
        ],
        [
          "Pallavolo Loreto",
          []
        ]
      ],
      [
        [
          "4",
          []
        ],
        [
          "Aleksandar Mitrovi\u0107",
          [
            "/wiki/Aleksandar_Mitrovi\u0107_(volleyball)"
          ]
        ],
        [
          "24 September 1982",
          []
        ],
        [
          "1.93 m ( 6 ft 4 in )",
          []
        ],
        [
          "93 kg ( 205 lb )",
          []
        ],
        [
          "350 cm ( 140 in )",
          []
        ],
        [
          "324 cm ( 128 in )",
          []
        ],
        [
          "Partizan Belgrade",
          [
            "/wiki/OK_Partizan"
          ]
        ]
      ],
      [
        [
          "6",
          []
        ],
        [
          "Vladan \u0110or\u0111evi\u0107",
          [
            "/wiki/Vladan_\u0110or\u0111evi\u0107_(volleyball)"
          ]
        ],
        [
          "10 January 1983",
          []
        ],
        [
          "1.94 m ( 6 ft 4 in )",
          []
        ],
        [
          "90 kg ( 200 lb )",
          []
        ],
        [
          "332 cm ( 131 in )",
          []
        ],
        [
          "318 cm ( 125 in )",
          []
        ],
        [
          "Partizan Belgrade",
          [
            "/wiki/OK_Partizan"
          ]
        ]
      ],
      [
        [
          "7",
          []
        ],
        [
          "\u0110ula Me\u0161ter",
          [
            "/wiki/\u0110ula_Me\u0161ter"
          ]
        ],
        [
          "3 April 1972",
          []
        ],
        [
          "2.03 m ( 6 ft 8 in )",
          []
        ],
        [
          "90 kg ( 200 lb )",
          []
        ],
        [
          "346 cm ( 136 in )",
          []
        ],
        [
          "325 cm ( 128 in )",
          []
        ],
        [
          "Vojvodina Novolin",
          [
            "/wiki/OK_Vojvodina"
          ]
        ]
      ],
      [
        [
          "8",
          []
        ],
        [
          "Vasa Miji\u0107 ( L )",
          [
            "/wiki/Vasa_Miji\u0107"
          ]
        ],
        [
          "11 April 1973",
          []
        ],
        [
          "1.86 m ( 6 ft 1 in )",
          []
        ],
        [
          "80 kg ( 180 lb )",
          []
        ],
        [
          "332 cm ( 131 in )",
          []
        ],
        [
          "307 cm ( 121 in )",
          []
        ],
        [
          "Vojvodina Novolin",
          [
            "/wiki/OK_Vojvodina"
          ]
        ]
      ],
      [
        [
          "9",
          []
        ],
        [
          "Nikola Grbi\u0107 ( C )",
          [
            "/wiki/Nikola_Grbi\u0107"
          ]
        ],
        [
          "6 September 1973",
          []
        ],
        [
          "1.94 m ( 6 ft 4 in )",
          []
        ],
        [
          "91 kg ( 201 lb )",
          []
        ],
        [
          "346 cm ( 136 in )",
          []
        ],
        [
          "320 cm ( 130 in )",
          []
        ],
        [
          "Copra Elior Piacenza",
          [
            "/wiki/Volley_Piacenza"
          ]
        ]
      ],
      [
        [
          "10",
          []
        ],
        [
          "Vladimir Grbi\u0107",
          [
            "/wiki/Vladimir_Grbi\u0107"
          ]
        ],
        [
          "14 December 1970",
          []
        ],
        [
          "1.93 m ( 6 ft 4 in )",
          []
        ],
        [
          "87 kg ( 192 lb )",
          []
        ],
        [
          "360 cm ( 140 in )",
          []
        ],
        [
          "350 cm ( 140 in )",
          []
        ],
        [
          "Dynamo Moscow",
          [
            "/wiki/VC_Dynamo_Moscow"
          ]
        ]
      ],
      [
        [
          "12",
          []
        ],
        [
          "Andrija Geri\u0107",
          [
            "/wiki/Andrija_Geri\u0107"
          ]
        ],
        [
          "24 January 1977",
          []
        ],
        [
          "2.03 m ( 6 ft 8 in )",
          []
        ],
        [
          "101 kg ( 223 lb )",
          []
        ],
        [
          "350 cm ( 140 in )",
          []
        ],
        [
          "323 cm ( 127 in )",
          []
        ],
        [
          "Volley Lube",
          [
            "/wiki/Volley_Lube"
          ]
        ]
      ],
      [
        [
          "13",
          []
        ],
        [
          "Goran Vujevi\u0107",
          [
            "/wiki/Goran_Vujevi\u0107"
          ]
        ],
        [
          "27 February 1973",
          []
        ],
        [
          "1.92 m ( 6 ft 4 in )",
          []
        ],
        [
          "94 kg ( 207 lb )",
          []
        ],
        [
          "339 cm ( 133 in )",
          []
        ],
        [
          "315 cm ( 124 in )",
          []
        ],
        [
          "Latina Volley",
          []
        ]
      ],
      [
        [
          "14",
          []
        ],
        [
          "Ivan Miljkovi\u0107",
          [
            "/wiki/Ivan_Miljkovi\u0107"
          ]
        ],
        [
          "13 September 1979",
          []
        ],
        [
          "2.06 m ( 6 ft 9 in )",
          []
        ],
        [
          "88 kg ( 194 lb )",
          []
        ],
        [
          "354 cm ( 139 in )",
          []
        ],
        [
          "333 cm ( 131 in )",
          []
        ],
        [
          "Volley Lube",
          [
            "/wiki/Volley_Lube"
          ]
        ]
      ],
      [
        [
          "15",
          []
        ],
        [
          "Ivan Ili\u0107",
          [
            "/wiki/Ivan_Ili\u0107_(volleyball)"
          ]
        ],
        [
          "19 December 1976",
          []
        ],
        [
          "1.94 m ( 6 ft 4 in )",
          []
        ],
        [
          "85 kg ( 187 lb )",
          []
        ],
        [
          "337 cm ( 133 in )",
          []
        ],
        [
          "318 cm ( 125 in )",
          []
        ],
        [
          "Budu\u0107nost Podgorica",
          [
            "/wiki/OK_Budu\u0107nost_Podgorica"
          ]
        ]
      ],
      [
        [
          "17",
          []
        ],
        [
          "Milan Markovi\u0107",
          [
            "/wiki/Milan_Markovi\u0107_(volleyball)"
          ]
        ],
        [
          "20 January 1980",
          []
        ],
        [
          "2.03 m ( 6 ft 8 in )",
          []
        ],
        [
          "101 kg ( 223 lb )",
          []
        ],
        [
          "348 cm ( 137 in )",
          []
        ],
        [
          "321 cm ( 126 in )",
          []
        ],
        [
          "Olympiacos",
          [
            "/wiki/Olympiacos_CFP_(men's_volleyball)"
          ]
        ]
      ]
    ],
    "section_title": "",
    "section_text": "The following is the Serbia and Montenegrin roster in the men 's volleyball tournament of the 2004 Summer Olympics . [ 1 ] viewtalk Head coach : Ljubomir Travica",
    "uid": "Template:2004_Summer_Olympics_Serbia_and_Montenegro_men's_volleyball_team_roster_0",
    "intro": "The purpose of this template is to collect source text used in several articles in one place, in order to minimize maintenance and storage space. This is the Serbia and Montenegrin roster in the men's volleyball tournament of the 2004 Summer Olympics . The template is typically used in two articles: the article covering Serbia and Montenegro at the 2004 Summer Olympics , and the article covering the rosters of all participating teams of the tournament. The following is the Serbia and Montenegrin roster in the men's volleyball tournament of the 2004 Summer Olympics."
  },
  "Art_Directors_Guild_Award_for_Excellence_in_Production_Design_for_a_Period_Film_1": {
    "url": "https://en.wikipedia.org/wiki/Art_Directors_Guild_Award_for_Excellence_in_Production_Design_for_a_Period_Film",
    "title": "Art Directors Guild Award for Excellence in Production Design for a Period Film",
    "header": [
      [
        "Year",
        []
      ],
      [
        "Film",
        []
      ],
      [
        "Production Designer ( s )",
        []
      ]
    ],
    "data": [
      [
        [
          "2006",
          []
        ],
        [
          "Curse of the Golden Flower",
          [
            "/wiki/Curse_of_the_Golden_Flower"
          ]
        ],
        [
          "Tingxiao Huo",
          []
        ]
      ],
      [
        [
          "2006",
          []
        ],
        [
          "Dreamgirls \u2021",
          [
            "/wiki/Dreamgirls_(film)"
          ]
        ],
        [
          "John Myhre",
          [
            "/wiki/John_Myhre"
          ]
        ]
      ],
      [
        [
          "2006",
          []
        ],
        [
          "Flags of Our Fathers",
          [
            "/wiki/Flags_of_Our_Fathers_(film)"
          ]
        ],
        [
          "Henry Bumstead",
          [
            "/wiki/Henry_Bumstead"
          ]
        ]
      ],
      [
        [
          "2006",
          []
        ],
        [
          "The Good Shepherd \u2021",
          [
            "/wiki/The_Good_Shepherd_(film)"
          ]
        ],
        [
          "Jeannine Oppewall",
          [
            "/wiki/Jeannine_Oppewall"
          ]
        ]
      ],
      [
        [
          "2006",
          []
        ],
        [
          "The Prestige \u2021",
          [
            "/wiki/The_Prestige_(film)"
          ]
        ],
        [
          "Nathan Crowley",
          [
            "/wiki/Nathan_Crowley"
          ]
        ]
      ],
      [
        [
          "2007",
          []
        ],
        [
          "There Will Be Blood \u2021",
          [
            "/wiki/There_Will_Be_Blood"
          ]
        ],
        [
          "Jack Fisk",
          [
            "/wiki/Jack_Fisk"
          ]
        ]
      ],
      [
        [
          "2007",
          []
        ],
        [
          "American Gangster \u2021",
          [
            "/wiki/American_Gangster_(film)"
          ]
        ],
        [
          "Arthur Max",
          [
            "/wiki/Arthur_Max"
          ]
        ]
      ],
      [
        [
          "2007",
          []
        ],
        [
          "Atonement \u2021",
          [
            "/wiki/Atonement_(film)"
          ]
        ],
        [
          "Sarah Greenwood",
          [
            "/wiki/Sarah_Greenwood"
          ]
        ]
      ],
      [
        [
          "2007",
          []
        ],
        [
          "Elizabeth : The Golden Age",
          [
            "/wiki/Elizabeth:_The_Golden_Age"
          ]
        ],
        [
          "Guy Hendrix Dyas",
          [
            "/wiki/Guy_Hendrix_Dyas"
          ]
        ]
      ],
      [
        [
          "2007",
          []
        ],
        [
          "Sweeney Todd : The Demon Barber of Fleet Street \u2020",
          [
            "/wiki/Sweeney_Todd:_The_Demon_Barber_of_Fleet_Street_(2007_film)"
          ]
        ],
        [
          "Dante Ferretti",
          [
            "/wiki/Dante_Ferretti"
          ]
        ]
      ],
      [
        [
          "2008",
          []
        ],
        [
          "The Curious Case of Benjamin Button \u2020",
          [
            "/wiki/The_Curious_Case_of_Benjamin_Button_(film)"
          ]
        ],
        [
          "Donald Graham Burt",
          [
            "/wiki/Donald_Graham_Burt"
          ]
        ]
      ],
      [
        [
          "2008",
          []
        ],
        [
          "Changeling \u2021",
          [
            "/wiki/Changeling_(film)"
          ]
        ],
        [
          "James J. Murakami",
          [
            "/wiki/James_J._Murakami"
          ]
        ]
      ],
      [
        [
          "2008",
          []
        ],
        [
          "Doubt",
          [
            "/wiki/Doubt_(2008_film)"
          ]
        ],
        [
          "David Gropman",
          []
        ]
      ],
      [
        [
          "2008",
          []
        ],
        [
          "Frost/Nixon",
          [
            "/wiki/Frost/Nixon_(film)"
          ]
        ],
        [
          "Michael Corenblith",
          [
            "/wiki/Michael_Corenblith"
          ]
        ]
      ],
      [
        [
          "2008",
          []
        ],
        [
          "Milk",
          [
            "/wiki/Milk_(2008_American_film)"
          ]
        ],
        [
          "Bill Groom",
          []
        ]
      ],
      [
        [
          "2009",
          []
        ],
        [
          "Sherlock Holmes \u2021",
          [
            "/wiki/Sherlock_Holmes_(2009_film)"
          ]
        ],
        [
          "Sarah Greenwood",
          [
            "/wiki/Sarah_Greenwood"
          ]
        ]
      ],
      [
        [
          "2009",
          []
        ],
        [
          "Inglourious Basterds",
          [
            "/wiki/Inglourious_Basterds"
          ]
        ],
        [
          "David Wasco",
          [
            "/wiki/David_and_Sandy_Reynolds-Wasco"
          ]
        ]
      ],
      [
        [
          "2009",
          []
        ],
        [
          "Julie & Julia",
          [
            "/wiki/Julie_&_Julia"
          ]
        ],
        [
          "Mark Ricker",
          []
        ]
      ],
      [
        [
          "2009",
          []
        ],
        [
          "Public Enemies",
          [
            "/wiki/Public_Enemies_(2009_film)"
          ]
        ],
        [
          "Nathan Crowley",
          [
            "/wiki/Nathan_Crowley"
          ]
        ]
      ],
      [
        [
          "2009",
          []
        ],
        [
          "A Serious Man",
          [
            "/wiki/A_Serious_Man"
          ]
        ],
        [
          "Jess Gonchor",
          [
            "/wiki/Jess_Gonchor"
          ]
        ]
      ]
    ],
    "section_title": "Winners and nominees -- 2006\u20132009 ( Period )",
    "section_text": "",
    "uid": "Art_Directors_Guild_Award_for_Excellence_in_Production_Design_for_a_Period_Film_1",
    "intro": "The Art Directors Guild Award for Excellence in Production Design for a Period Film is one of the annual awards given by the Art Directors Guild starting from 2000. This award was combined with Excellence in Production Design for a Fantasy Film from 2000 to 2005, and is now in its own category from 2006."
  }
}