{
  "National_Register_of_Historic_Places_listings_in_Preston_County,_West_Virginia_0": {
    "url": "https://en.wikipedia.org/wiki/National_Register_of_Historic_Places_listings_in_Preston_County,_West_Virginia",
    "title": "National Register of Historic Places listings in Preston County, West Virginia",
    "header": [
      [
        "",
        []
      ],
      [
        "Name on the Register",
        []
      ],
      [
        "Date listed",
        []
      ],
      [
        "Location",
        []
      ],
      [
        "City or town",
        []
      ]
    ],
    "data": [
      [
        [
          "1",
          []
        ],
        [
          "Arthurdale Historic District",
          [
            "/wiki/Arthurdale,_West_Virginia"
          ]
        ],
        [
          "February 1 , 1989 ( # 88001862 )",
          []
        ],
        [
          "East and west of WV 92 39\u00b029\u203234\u2033N 79\u00b049\u203201\u2033W / 39.492778\u00b0N 79.816944\u00b0W / 39.492778 ; -79.816944 ( Arthurdale Historic District )",
          [
            "/wiki/West_Virginia_Route_92"
          ]
        ],
        [
          "Arthurdale",
          [
            "/wiki/Arthurdale,_West_Virginia"
          ]
        ]
      ],
      [
        [
          "2",
          []
        ],
        [
          "Brookside Historic District",
          [
            "/wiki/Brookside_Historic_District_(Aurora,_West_Virginia)"
          ]
        ],
        [
          "May 8 , 2013 ( # 13000264 )",
          []
        ],
        [
          "George Washington Hwy . near Cathedral State Park 39\u00b019\u203233\u2033N 79\u00b032\u203206\u2033W / 39.325891\u00b0N 79.535138\u00b0W / 39.325891 ; -79.535138 ( Brookside Historic District )",
          []
        ],
        [
          "Aurora",
          [
            "/wiki/Aurora,_West_Virginia"
          ]
        ]
      ],
      [
        [
          "3",
          []
        ],
        [
          "Col. Thomas Brown House",
          [
            "/wiki/Col._Thomas_Brown_House"
          ]
        ],
        [
          "March 17 , 1994 ( # 94000212 )",
          []
        ],
        [
          "County Route 92/4 south of Reedsville 39\u00b028\u203231\u2033N 79\u00b048\u203242\u2033W / 39.475278\u00b0N 79.811667\u00b0W / 39.475278 ; -79.811667 ( Col. Thomas Brown House )",
          []
        ],
        [
          "Reedsville",
          [
            "/wiki/Reedsville,_West_Virginia"
          ]
        ]
      ],
      [
        [
          "4",
          []
        ],
        [
          "Coopers Rock State Forest Superintendent 's House and Garage",
          [
            "/wiki/Cooper's_Rock_State_Forest_Superintendent's_House_and_Garage"
          ]
        ],
        [
          "May 15 , 1991 ( # 91000546 )",
          []
        ],
        [
          "Off Interstate 68 8 mi ( 13 km ) east of Morgantown 39\u00b039\u203238\u2033N 79\u00b046\u203253\u2033W / 39.660556\u00b0N 79.781389\u00b0W / 39.660556 ; -79.781389 ( Coopers Rock State Forest Superintendent 's House and Garage )",
          [
            "/wiki/Interstate_68"
          ]
        ],
        [
          "Morgantown",
          [
            "/wiki/Morgantown,_West_Virginia"
          ]
        ]
      ],
      [
        [
          "5",
          []
        ],
        [
          "Downtown Rowlesburg Historic District",
          [
            "/wiki/Downtown_Rowlesburg_Historic_District"
          ]
        ],
        [
          "November 30 , 2005 ( # 05001350 )",
          []
        ],
        [
          "Buffalo St. , Church St. , portions of Main St. , Poplar St. , Railroad Alley and Railroad St. 39\u00b020\u203250\u2033N 79\u00b040\u203214\u2033W / 39.347222\u00b0N 79.670556\u00b0W / 39.347222 ; -79.670556 ( Downtown Rowlesburg Historic District )",
          []
        ],
        [
          "Rowlesburg",
          [
            "/wiki/Rowlesburg,_West_Virginia"
          ]
        ]
      ],
      [
        [
          "6",
          []
        ],
        [
          "Elkins Coal and Coke Company Historic District",
          [
            "/wiki/Elkins_Coal_and_Coke_Company_Historic_District"
          ]
        ],
        [
          "July 1 , 1983 ( # 83003249 )",
          []
        ],
        [
          "Off WV 7 39\u00b032\u203242\u2033N 79\u00b048\u203236\u2033W / 39.545\u00b0N 79.81\u00b0W / 39.545 ; -79.81 ( Elkins Coal and Coke Company Historic District )",
          [
            "/wiki/West_Virginia_Route_7"
          ]
        ],
        [
          "Bretz",
          [
            "/wiki/Bretz,_Preston_County,_West_Virginia"
          ]
        ]
      ],
      [
        [
          "7",
          []
        ],
        [
          "Fairfax Stone Site",
          [
            "/wiki/Fairfax_Stone_Historical_Monument_State_Park"
          ]
        ],
        [
          "January 26 , 1970 ( # 70000653 )",
          []
        ],
        [
          "North of William at corner of Grant , Preston , and Tucker counties 39\u00b011\u203242\u2033N 79\u00b029\u203216\u2033W / 39.195\u00b0N 79.487778\u00b0W / 39.195 ; -79.487778 ( Fairfax Stone Site )",
          []
        ],
        [
          "Redhouse",
          [
            "/wiki/Redhouse,_Maryland"
          ]
        ]
      ],
      [
        [
          "8",
          []
        ],
        [
          "Gaymont",
          [
            "/wiki/Gaymont"
          ]
        ],
        [
          "April 14 , 1992 ( # 92000351 )",
          []
        ],
        [
          "U.S. Route 50 west of junction with WV 24 39\u00b019\u203231\u2033N 79\u00b032\u203208\u2033W / 39.325278\u00b0N 79.535556\u00b0W / 39.325278 ; -79.535556 ( Gaymont )",
          [
            "/wiki/U.S._Route_50_in_West_Virginia",
            "/wiki/West_Virginia_Route_24"
          ]
        ],
        [
          "Aurora",
          [
            "/wiki/Aurora,_West_Virginia"
          ]
        ]
      ],
      [
        [
          "9",
          []
        ],
        [
          "A.W . Gribble Farm",
          [
            "/wiki/A._W._Gribble_Farm"
          ]
        ],
        [
          "December 30 , 2009 ( # 09001192 )",
          []
        ],
        [
          "Loop Rd . 39\u00b037\u203235\u2033N 79\u00b046\u203203\u2033W / 39.62634\u00b0N 79.7674\u00b0W / 39.62634 ; -79.7674 ( A.W . Gribble Farm )",
          []
        ],
        [
          "Pisgah",
          [
            "/wiki/Pisgah,_West_Virginia"
          ]
        ]
      ],
      [
        [
          "10",
          []
        ],
        [
          "Hagans Homestead",
          [
            "/wiki/Hagans_Homestead"
          ]
        ],
        [
          "July 14 , 1993 ( # 93000617 )",
          []
        ],
        [
          "WV 26 , 1 mile north of junction with Interstate 68 ( Exit 23 ) 39\u00b039\u203256\u2033N 79\u00b037\u203222\u2033W / 39.665556\u00b0N 79.622778\u00b0W / 39.665556 ; -79.622778 ( Hagans Homestead )",
          [
            "/wiki/West_Virginia_Route_26",
            "/wiki/Interstate_68"
          ]
        ],
        [
          "Brandonville",
          [
            "/wiki/Brandonville,_West_Virginia"
          ]
        ]
      ],
      [
        [
          "11",
          []
        ],
        [
          "Indian Rocks Dining Hall",
          [
            "/wiki/Indian_Rocks_Dining_Hall"
          ]
        ],
        [
          "January 8 , 2003 ( # 02001688 )",
          []
        ],
        [
          "WV 7 , 1 mile east of Reedsville 39\u00b030\u203237\u2033N 79\u00b045\u203255\u2033W / 39.510278\u00b0N 79.765278\u00b0W / 39.510278 ; -79.765278 ( Indian Rocks Dining Hall )",
          [
            "/wiki/West_Virginia_Route_7"
          ]
        ],
        [
          "Reedsville",
          [
            "/wiki/Reedsville,_West_Virginia"
          ]
        ]
      ],
      [
        [
          "12",
          []
        ],
        [
          "Kingwood Historic District",
          [
            "/wiki/Kingwood_Historic_District"
          ]
        ],
        [
          "July 15 , 1994 ( # 94000723 )",
          []
        ],
        [
          "Roughly bounded by Tunnelton , Main , Sigler , High , and Price Sts . and Brown Ave. 39\u00b028\u203213\u2033N 79\u00b041\u203214\u2033W / 39.470278\u00b0N 79.687222\u00b0W / 39.470278 ; -79.687222 ( Kingwood Historic District )",
          []
        ],
        [
          "Kingwood",
          [
            "/wiki/Kingwood,_West_Virginia"
          ]
        ]
      ],
      [
        [
          "13",
          []
        ],
        [
          "James S. Lakin House",
          [
            "/wiki/James_S._Lakin_House"
          ]
        ],
        [
          "January 9 , 1997 ( # 96001573 )",
          []
        ],
        [
          "102 Aurora Ave. 39\u00b026\u203237\u2033N 79\u00b032\u203251\u2033W / 39.4435\u00b0N 79.5475\u00b0W / 39.4435 ; -79.5475 ( James S. Lakin House )",
          []
        ],
        [
          "Terra Alta",
          [
            "/wiki/Terra_Alta,_West_Virginia"
          ]
        ]
      ],
      [
        [
          "14",
          []
        ],
        [
          "James Clark McGrew House",
          [
            "/wiki/James_Clark_McGrew_House"
          ]
        ],
        [
          "July 9 , 1993 ( # 93000618 )",
          []
        ],
        [
          "109 E. Main St. 39\u00b028\u203220\u2033N 79\u00b041\u203211\u2033W / 39.472222\u00b0N 79.686389\u00b0W / 39.472222 ; -79.686389 ( James Clark McGrew House )",
          []
        ],
        [
          "Kingwood",
          [
            "/wiki/Kingwood,_West_Virginia"
          ]
        ]
      ],
      [
        [
          "15",
          []
        ],
        [
          "Old Hemlock",
          [
            "/wiki/Old_Hemlock"
          ]
        ],
        [
          "December 16 , 2014 ( # 14001061 )",
          []
        ],
        [
          "17098 Brandonville Pike 39\u00b038\u203254\u2033N 79\u00b037\u203202\u2033W / 39.6483\u00b0N 79.6171\u00b0W / 39.6483 ; -79.6171 ( Old Hemlock )",
          []
        ],
        [
          "Bruceton Mills",
          [
            "/wiki/Bruceton_Mills,_West_Virginia"
          ]
        ]
      ],
      [
        [
          "16",
          []
        ],
        [
          "Ralphsnyder Decagonal Barn",
          [
            "/wiki/Ralphsnyder_Decagonal_Barn"
          ]
        ],
        [
          "December 2 , 1985 ( # 85003111 )",
          []
        ],
        [
          "County Route 52/2 39\u00b033\u203210\u2033N 79\u00b045\u203247\u2033W / 39.5528\u00b0N 79.7631\u00b0W / 39.5528 ; -79.7631 ( Ralphsnyder Decagonal Barn )",
          []
        ],
        [
          "Masontown",
          [
            "/wiki/Masontown,_West_Virginia"
          ]
        ]
      ],
      [
        [
          "17",
          []
        ],
        [
          "Reckart Mill",
          [
            "/wiki/Reckart_Mill"
          ]
        ],
        [
          "June 3 , 1980 ( # 80004039 )",
          []
        ],
        [
          "West of Cranesville at junction of WV 28 and County Route 47/2 39\u00b033\u203212\u2033N 79\u00b031\u203241\u2033W / 39.55328\u00b0N 79.52805\u00b0W / 39.55328 ; -79.52805 ( Reckart Mill )",
          [
            "/wiki/West_Virginia_Route_28"
          ]
        ],
        [
          "Cranesville",
          [
            "/wiki/Cranesville,_West_Virginia"
          ]
        ]
      ],
      [
        [
          "18",
          []
        ],
        [
          "Red Horse Tavern",
          [
            "/wiki/Red_Horse_Tavern"
          ]
        ],
        [
          "July 2 , 1973 ( # 73001923 )",
          []
        ],
        [
          "1 mile east of Aurora on U.S. Route 50 39\u00b019\u203235\u2033N 79\u00b031\u203254\u2033W / 39.32645\u00b0N 79.5317\u00b0W / 39.32645 ; -79.5317 ( Red Horse Tavern )",
          [
            "/wiki/U.S._Route_50_in_West_Virginia"
          ]
        ],
        [
          "Aurora and Brookside",
          [
            "/wiki/Aurora,_West_Virginia",
            "/wiki/Brookside,_West_Virginia"
          ]
        ]
      ],
      [
        [
          "19",
          []
        ],
        [
          "Terra Alta Bank",
          [
            "/wiki/Terra_Alta_Bank"
          ]
        ],
        [
          "July 9 , 1997 ( # 97000786 )",
          []
        ],
        [
          "109 E. Washington St. 39\u00b026\u203242\u2033N 79\u00b032\u203245\u2033W / 39.4449\u00b0N 79.5459\u00b0W / 39.4449 ; -79.5459 ( Terra Alta Bank )",
          []
        ],
        [
          "Terra Alta",
          [
            "/wiki/Terra_Alta,_West_Virginia"
          ]
        ]
      ],
      [
        [
          "20",
          []
        ],
        [
          "Tunnelton Railroad Depot",
          [
            "/wiki/Tunnelton_station"
          ]
        ],
        [
          "May 2 , 1996 ( # 96000437 )",
          []
        ],
        [
          "Boswell St. , north of the junction of Boswell and South Sts . 39\u00b023\u203237\u2033N 79\u00b044\u203245\u2033W / 39.393611\u00b0N 79.745833\u00b0W / 39.393611 ; -79.745833 ( Tunnelton Railroad Depot )",
          []
        ],
        [
          "Tunnelton",
          [
            "/wiki/Tunnelton,_West_Virginia"
          ]
        ]
      ]
    ],
    "section_title": "Current listings",
    "section_text": "",
    "uid": "National_Register_of_Historic_Places_listings_in_Preston_County,_West_Virginia_0",
    "intro": "This is a list of the National Register of Historic Places listings in Preston County, West Virginia. This is intended to be a complete list of the properties and districts on the National Register of Historic Places in Preston County, West Virginia. The locations of National Register properties and districts for which the latitude and longitude coordinates are included below, may be seen in a Google map. There are 21 properties and districts listed on the National Register in the county."
  }
}