{
  "List_of_awards_and_nominations_received_by_National_Film_and_Television_School_4": {
    "url": "https://en.wikipedia.org/wiki/List_of_awards_and_nominations_received_by_National_Film_and_Television_School",
    "title": "List of awards and nominations received by National Film and Television School",
    "header": [
      [
        "Director",
        []
      ],
      [
        "Film",
        []
      ],
      [
        "Festival",
        []
      ],
      [
        "Award",
        []
      ]
    ],
    "data": [
      [
        [
          "Aguirre , Silvana",
          []
        ],
        [
          "Ela",
          []
        ],
        [
          "Cine Gear Expo ( Los Angeles , USA )",
          []
        ],
        [
          "2nd Prize",
          []
        ]
      ],
      [
        [
          "Ahmed , Sadik",
          []
        ],
        [
          "Tanju Miah",
          [
            "/wiki/Tanju_Miah"
          ]
        ],
        [
          "Royal Television Society Student Television Awards ( UK )",
          [
            "/wiki/Royal_Television_Society"
          ]
        ],
        [
          "Best Factual Film",
          []
        ]
      ],
      [
        [
          "Banozcki , Tibor",
          []
        ],
        [
          "Milk Teeth",
          []
        ],
        [
          "Annecy International Animation Festival ( France )",
          [
            "/wiki/Annecy_International_Animated_Film_Festival"
          ]
        ],
        [
          "Jury 's Special Award",
          []
        ]
      ],
      [
        [
          "Banozcki , Tibor",
          []
        ],
        [
          "Milk Teeth",
          []
        ],
        [
          "Karlovy Vary Fresh Films Festival ( Czech Republic )",
          [
            "/wiki/Fresh_Film_Festival"
          ]
        ],
        [
          "Theatre Optique Award for Best Animated Film",
          []
        ]
      ],
      [
        [
          "Banozcki , Tibor",
          []
        ],
        [
          "Milk Teeth",
          []
        ],
        [
          "Puchon International Student Animation Festival ( South Korea )",
          []
        ],
        [
          "Vision Prize",
          []
        ]
      ],
      [
        [
          "Colman , Sharon",
          []
        ],
        [
          "Badgered",
          []
        ],
        [
          "Telluride Mountainfilm Festival ( USA )",
          [
            "/wiki/Mountainfilm"
          ]
        ],
        [
          "Best Animated Film",
          []
        ]
      ],
      [
        [
          "For\u00e9s , Mar\u00e7al",
          []
        ],
        [
          "Friends Forever",
          []
        ],
        [
          "Dinard Festival of British Cinema ( France )",
          []
        ],
        [
          "Best Short Film",
          []
        ]
      ],
      [
        [
          "Gitton , Esteban",
          []
        ],
        [
          "Oxford Circus",
          []
        ],
        [
          "Animex International Festival of Animation and Computer Games ( UK )",
          [
            "/wiki/Animex_Producciones"
          ]
        ],
        [
          "Visual Effects Award",
          []
        ]
      ],
      [
        [
          "Lemmetty , Leevi",
          []
        ],
        [
          "Mad World",
          []
        ],
        [
          "Royal Television Society Student Television Awards ( UK )",
          [
            "/wiki/Royal_Television_Society"
          ]
        ],
        [
          "Best Animation",
          []
        ]
      ],
      [
        [
          "Peres , Catia",
          []
        ],
        [
          "Synchronoff",
          [
            "/wiki/Synchronoff"
          ]
        ],
        [
          "MPSE Golden Reels Awards ( USA )",
          [
            "/wiki/Motion_Picture_Sound_Editors"
          ]
        ],
        [
          "Verna Fields Award for Best Sound Editing in a Student Film ( nominated )",
          [
            "/wiki/Verna_Fields_Award"
          ]
        ]
      ],
      [
        [
          "Ruiz , Valeria",
          []
        ],
        [
          "A Moment",
          []
        ],
        [
          "Brooklyn International Film Festival ( USA )",
          [
            "/wiki/Brooklyn_Film_Festival"
          ]
        ],
        [
          "Audience Award for Best Short Film",
          []
        ]
      ],
      [
        [
          "Sanderson , Piers",
          []
        ],
        [
          "Listen to Bradford",
          []
        ],
        [
          "Satyajit Ray Foundation ( UK )",
          []
        ],
        [
          "Short Film Award ( nominated )",
          []
        ]
      ],
      [
        [
          "Tang , Eva",
          []
        ],
        [
          "Londres-London",
          []
        ],
        [
          "Hawaii International Film Festival ( USA )",
          [
            "/wiki/Hawaii_International_Film_Festival"
          ]
        ],
        [
          "Best 10 Short Film Finalist",
          []
        ]
      ],
      [
        [
          "Tang , Eva",
          []
        ],
        [
          "Londres-London",
          []
        ],
        [
          "Hong Kong Independent Short Film & Video Awards",
          []
        ],
        [
          "Jury Recommendation",
          []
        ]
      ],
      [
        [
          "Tucker , Joe",
          []
        ],
        [
          "For the Love of God",
          []
        ],
        [
          "Chicago International Film Festival ( USA )",
          [
            "/wiki/Chicago_International_Film_Festival"
          ]
        ],
        [
          "Silver Hugo",
          [
            "/wiki/Chicago_International_Film_Festival"
          ]
        ]
      ],
      [
        [
          "Tucker , Joe",
          []
        ],
        [
          "For the Love of God",
          []
        ],
        [
          "Rhode Island International Film Festival ( USA )",
          [
            "/wiki/Rhode_Island_International_Film_Festival"
          ]
        ],
        [
          "Best Animation",
          []
        ]
      ],
      [
        [
          "Tucker , Joe",
          []
        ],
        [
          "For the Love of God",
          []
        ],
        [
          "Rhode Island International Film Festival ( USA )",
          [
            "/wiki/Rhode_Island_International_Film_Festival"
          ]
        ],
        [
          "Grand Prize",
          []
        ]
      ],
      [
        [
          "Varela , Peque",
          []
        ],
        [
          "1977",
          []
        ],
        [
          "London International Animation Festival ( UK )",
          []
        ],
        [
          "Audience Award",
          []
        ]
      ]
    ],
    "section_title": "Awards & nominations -- 2007",
    "section_text": "",
    "uid": "List_of_awards_and_nominations_received_by_National_Film_and_Television_School_4",
    "intro": "The National Film and Television School (NFTS) was established in 1971 and is based at Beaconsfield Studios in Beaconsfield, Buckinghamshire, and it is located close to Pinewood Studios."
  },
  "List_of_living_former_members_of_the_United_States_House_of_Representatives_(F)_0": {
    "url": "https://en.wikipedia.org/wiki/List_of_living_former_members_of_the_United_States_House_of_Representatives_(F)",
    "title": "List of living former members of the United States House of Representatives (F)",
    "header": [
      [
        "Representative/Delegate",
        []
      ],
      [
        "State/Territory",
        []
      ],
      [
        "District ( s )",
        []
      ],
      [
        "Served",
        []
      ],
      [
        "Party",
        []
      ],
      [
        "Date of birth",
        []
      ],
      [
        "Age",
        []
      ]
    ],
    "data": [
      [
        [
          "Mary Fallin",
          [
            "/wiki/Mary_Fallin"
          ]
        ],
        [
          "Oklahoma",
          [
            "/wiki/List_of_United_States_Representatives_from_Oklahoma"
          ]
        ],
        [
          "5",
          [
            "/wiki/Oklahoma's_5th_congressional_district"
          ]
        ],
        [
          "2007-2011",
          []
        ],
        [
          "Republican",
          [
            "/wiki/Republican_Party_(United_States)"
          ]
        ],
        [
          "December 9 , 1954",
          []
        ],
        [
          "65 years , 224 days",
          []
        ]
      ],
      [
        [
          "Blake Farenthold",
          [
            "/wiki/Blake_Farenthold"
          ]
        ],
        [
          "Texas",
          [
            "/wiki/List_of_United_States_Representatives_from_Texas"
          ]
        ],
        [
          "27",
          [
            "/wiki/Texas's_27th_congressional_district"
          ]
        ],
        [
          "2011-2018",
          []
        ],
        [
          "Republican",
          [
            "/wiki/Republican_Party_(United_States)"
          ]
        ],
        [
          "December 12 , 1961",
          []
        ],
        [
          "58 years , 221 days",
          []
        ]
      ],
      [
        [
          "Sam Farr",
          [
            "/wiki/Sam_Farr"
          ]
        ],
        [
          "California",
          [
            "/wiki/List_of_United_States_Representatives_from_California"
          ]
        ],
        [
          "17 20",
          [
            "/wiki/California's_17th_congressional_district",
            "/wiki/California's_20th_congressional_district"
          ]
        ],
        [
          "1993-2017",
          []
        ],
        [
          "Democratic",
          [
            "/wiki/Democratic_Party_(United_States)"
          ]
        ],
        [
          "July 4 , 1941",
          []
        ],
        [
          "79 years , 16 days",
          []
        ]
      ],
      [
        [
          "John Faso",
          [
            "/wiki/John_Faso"
          ]
        ],
        [
          "New York",
          [
            "/wiki/List_of_United_States_Representatives_from_New_York"
          ]
        ],
        [
          "19",
          [
            "/wiki/New_York's_19th_congressional_district"
          ]
        ],
        [
          "2017-2019",
          []
        ],
        [
          "Republican",
          [
            "/wiki/Republican_Party_(United_States)"
          ]
        ],
        [
          "August 25 , 1952",
          []
        ],
        [
          "67 years , 330 days",
          []
        ]
      ],
      [
        [
          "Chaka Fattah",
          [
            "/wiki/Chaka_Fattah"
          ]
        ],
        [
          "Pennsylvania",
          [
            "/wiki/List_of_United_States_Representatives_from_Pennsylvania"
          ]
        ],
        [
          "2",
          [
            "/wiki/Pennsylvania's_2nd_congressional_district"
          ]
        ],
        [
          "1995-2016",
          []
        ],
        [
          "Democratic",
          [
            "/wiki/Democratic_Party_(United_States)"
          ]
        ],
        [
          "November 21 , 1956",
          []
        ],
        [
          "63 years , 242 days",
          []
        ]
      ],
      [
        [
          "Walter E. Fauntroy",
          [
            "/wiki/Walter_Fauntroy"
          ]
        ],
        [
          "D.C",
          [
            "/wiki/District_of_Columbia's_at-large_congressional_district"
          ]
        ],
        [
          "At-large",
          [
            "/wiki/District_of_Columbia's_at-large_congressional_district"
          ]
        ],
        [
          "1971-1991",
          []
        ],
        [
          "Democratic",
          [
            "/wiki/Democratic_Party_(United_States)"
          ]
        ],
        [
          "February 6 , 1933",
          []
        ],
        [
          "87 years , 165 days",
          []
        ]
      ],
      [
        [
          "Harris W. Fawell",
          [
            "/wiki/Harris_W._Fawell"
          ]
        ],
        [
          "Illinois",
          [
            "/wiki/List_of_United_States_Representatives_from_Illinois"
          ]
        ],
        [
          "13",
          [
            "/wiki/Illinois's_13th_congressional_district"
          ]
        ],
        [
          "1985-1999",
          []
        ],
        [
          "Republican",
          [
            "/wiki/Republican_Party_(United_States)"
          ]
        ],
        [
          "March 25 , 1929",
          []
        ],
        [
          "91 years , 117 days",
          []
        ]
      ],
      [
        [
          "Victor H. Fazio",
          [
            "/wiki/Vic_Fazio"
          ]
        ],
        [
          "California",
          [
            "/wiki/List_of_United_States_Representatives_from_California"
          ]
        ],
        [
          "3",
          [
            "/wiki/California's_3rd_congressional_district"
          ]
        ],
        [
          "1979-1999",
          []
        ],
        [
          "Democratic",
          [
            "/wiki/Democratic_Party_(United_States)"
          ]
        ],
        [
          "October 11 , 1942",
          []
        ],
        [
          "77 years , 283 days",
          []
        ]
      ],
      [
        [
          "Tom Feeney",
          [
            "/wiki/Tom_Feeney"
          ]
        ],
        [
          "Florida",
          [
            "/wiki/List_of_United_States_Representatives_from_Florida"
          ]
        ],
        [
          "24",
          [
            "/wiki/Florida's_24th_congressional_district"
          ]
        ],
        [
          "2003-2009",
          []
        ],
        [
          "Republican",
          [
            "/wiki/Republican_Party_(United_States)"
          ]
        ],
        [
          "May 21 , 1958",
          []
        ],
        [
          "62 years , 60 days",
          []
        ]
      ],
      [
        [
          "Ed Feighan",
          [
            "/wiki/Ed_Feighan"
          ]
        ],
        [
          "Ohio",
          [
            "/wiki/List_of_United_States_Representatives_from_Ohio"
          ]
        ],
        [
          "19",
          [
            "/wiki/Ohio's_19th_congressional_district"
          ]
        ],
        [
          "1983-1993",
          []
        ],
        [
          "Democratic",
          [
            "/wiki/Democratic_Party_(United_States)"
          ]
        ],
        [
          "October 22 , 1947",
          []
        ],
        [
          "72 years , 272 days",
          []
        ]
      ],
      [
        [
          "Mike Ferguson",
          [
            "/wiki/Mike_Ferguson_(New_Jersey_politician)"
          ]
        ],
        [
          "New Jersey",
          [
            "/wiki/List_of_United_States_Representatives_from_New_Jersey"
          ]
        ],
        [
          "7",
          [
            "/wiki/New_Jersey's_7th_congressional_district"
          ]
        ],
        [
          "2001-2009",
          []
        ],
        [
          "Republican",
          [
            "/wiki/Republican_Party_(United_States)"
          ]
        ],
        [
          "July 22 , 1970",
          []
        ],
        [
          "49 years , 364 days",
          []
        ]
      ],
      [
        [
          "Bobbi Fiedler",
          [
            "/wiki/Bobbi_Fiedler"
          ]
        ],
        [
          "California",
          [
            "/wiki/List_of_United_States_Representatives_from_California"
          ]
        ],
        [
          "21",
          [
            "/wiki/California's_21st_congressional_district"
          ]
        ],
        [
          "1981-1987",
          []
        ],
        [
          "Republican",
          [
            "/wiki/Republican_Party_(United_States)"
          ]
        ],
        [
          "April 22 , 1937",
          []
        ],
        [
          "83 years , 89 days",
          []
        ]
      ],
      [
        [
          "Cleo Fields",
          [
            "/wiki/Cleo_Fields"
          ]
        ],
        [
          "Louisiana",
          [
            "/wiki/List_of_United_States_Representatives_from_Louisiana"
          ]
        ],
        [
          "4",
          [
            "/wiki/Louisiana's_4th_congressional_district"
          ]
        ],
        [
          "1993-1997",
          []
        ],
        [
          "Democratic",
          [
            "/wiki/Democratic_Party_(United_States)"
          ]
        ],
        [
          "November 22 , 1962",
          []
        ],
        [
          "57 years , 241 days",
          []
        ]
      ],
      [
        [
          "Jack Fields",
          [
            "/wiki/Jack_Fields"
          ]
        ],
        [
          "Texas",
          [
            "/wiki/List_of_United_States_Representatives_from_Texas"
          ]
        ],
        [
          "8",
          [
            "/wiki/California's_8th_congressional_district"
          ]
        ],
        [
          "1981-1997",
          []
        ],
        [
          "Republican",
          [
            "/wiki/Republican_Party_(United_States)"
          ]
        ],
        [
          "February 3 , 1952",
          []
        ],
        [
          "68 years , 168 days",
          []
        ]
      ],
      [
        [
          "Bob Filner",
          [
            "/wiki/Bob_Filner"
          ]
        ],
        [
          "California",
          [
            "/wiki/List_of_United_States_Representatives_from_California"
          ]
        ],
        [
          "50 51",
          [
            "/wiki/California's_50th_congressional_district",
            "/wiki/California's_51st_congressional_district"
          ]
        ],
        [
          "1993-2012",
          []
        ],
        [
          "Democratic",
          [
            "/wiki/Democratic_Party_(United_States)"
          ]
        ],
        [
          "September 4 , 1942",
          []
        ],
        [
          "77 years , 320 days",
          []
        ]
      ],
      [
        [
          "Stephen Fincher",
          [
            "/wiki/Stephen_Fincher"
          ]
        ],
        [
          "Tennessee",
          [
            "/wiki/List_of_United_States_Representatives_from_Tennessee"
          ]
        ],
        [
          "8",
          [
            "/wiki/Tennessee's_8th_congressional_district"
          ]
        ],
        [
          "2011-2017",
          []
        ],
        [
          "Republican",
          [
            "/wiki/Republican_Party_(United_States)"
          ]
        ],
        [
          "February 7 , 1973",
          []
        ],
        [
          "47 years , 164 days",
          []
        ]
      ],
      [
        [
          "Eric Fingerhut",
          [
            "/wiki/Eric_Fingerhut"
          ]
        ],
        [
          "Ohio",
          [
            "/wiki/List_of_United_States_Representatives_from_Ohio"
          ]
        ],
        [
          "19",
          [
            "/wiki/Ohio's_19th_congressional_district"
          ]
        ],
        [
          "1993-1995",
          []
        ],
        [
          "Democratic",
          [
            "/wiki/Democratic_Party_(United_States)"
          ]
        ],
        [
          "May 6 , 1959",
          []
        ],
        [
          "61 years , 75 days",
          []
        ]
      ],
      [
        [
          "Floyd H. Flake",
          [
            "/wiki/Floyd_Flake"
          ]
        ],
        [
          "New York",
          [
            "/wiki/List_of_United_States_Representatives_from_New_York"
          ]
        ],
        [
          "6",
          [
            "/wiki/New_York's_6th_congressional_district"
          ]
        ],
        [
          "1987-1997",
          []
        ],
        [
          "Democratic",
          [
            "/wiki/Democratic_Party_(United_States)"
          ]
        ],
        [
          "January 30 , 1945",
          []
        ],
        [
          "75 years , 172 days",
          []
        ]
      ],
      [
        [
          "Jeff Flake",
          [
            "/wiki/Jeff_Flake"
          ]
        ],
        [
          "Arizona",
          [
            "/wiki/List_of_United_States_Representatives_from_Arizona"
          ]
        ],
        [
          "1 6",
          [
            "/wiki/Arizona's_1st_congressional_district",
            "/wiki/Arizona's_6th_congressional_district"
          ]
        ],
        [
          "2001-2013",
          []
        ],
        [
          "Republican",
          [
            "/wiki/Republican_Party_(United_States)"
          ]
        ],
        [
          "December 31 , 1962",
          []
        ],
        [
          "57 years , 202 days",
          []
        ]
      ],
      [
        [
          "Michael P. Flanagan",
          [
            "/wiki/Michael_Patrick_Flanagan"
          ]
        ],
        [
          "Illinois",
          [
            "/wiki/List_of_United_States_Representatives_from_Illinois"
          ]
        ],
        [
          "5",
          [
            "/wiki/Illinois's_5th_congressional_district"
          ]
        ],
        [
          "1995-1997",
          []
        ],
        [
          "Republican",
          [
            "/wiki/Republican_Party_(United_States)"
          ]
        ],
        [
          "November 9 , 1962",
          []
        ],
        [
          "57 years , 254 days",
          []
        ]
      ]
    ],
    "section_title": "F",
    "section_text": "",
    "uid": "List_of_living_former_members_of_the_United_States_House_of_Representatives_(F)_0",
    "intro": ""
  }
}