{
  "List_of_living_former_members_of_the_United_States_House_of_Representatives_(J)_0": {
    "url": "https://en.wikipedia.org/wiki/List_of_living_former_members_of_the_United_States_House_of_Representatives_(J)",
    "title": "List of living former members of the United States House of Representatives (J)",
    "header": [
      [
        "Representative/Delegate",
        []
      ],
      [
        "State/Territory",
        []
      ],
      [
        "District ( s )",
        []
      ],
      [
        "Served",
        []
      ],
      [
        "Party",
        []
      ],
      [
        "Date of birth",
        []
      ],
      [
        "Age",
        []
      ]
    ],
    "data": [
      [
        [
          "Jesse Jackson Jr",
          [
            "/wiki/Jesse_Jackson_Jr."
          ]
        ],
        [
          "Illinois",
          [
            "/wiki/List_of_United_States_Representatives_from_Illinois"
          ]
        ],
        [
          "2",
          [
            "/wiki/Illinois's_2nd_congressional_district"
          ]
        ],
        [
          "1995-2012",
          []
        ],
        [
          "Democratic",
          [
            "/wiki/Democratic_Party_(United_States)"
          ]
        ],
        [
          "March 11 , 1965",
          []
        ],
        [
          "55 years , 131 days",
          []
        ]
      ],
      [
        [
          "Craig T. James",
          [
            "/wiki/Craig_James_(politician)"
          ]
        ],
        [
          "Florida",
          [
            "/wiki/List_of_United_States_Representatives_from_Florida"
          ]
        ],
        [
          "4",
          [
            "/wiki/Florida's_4th_congressional_district"
          ]
        ],
        [
          "1989-1993",
          []
        ],
        [
          "Republican",
          [
            "/wiki/Republican_Party_(United_States)"
          ]
        ],
        [
          "May 5 , 1941",
          []
        ],
        [
          "79 years , 76 days",
          []
        ]
      ],
      [
        [
          "William J. Jefferson",
          [
            "/wiki/William_J._Jefferson"
          ]
        ],
        [
          "Louisiana",
          [
            "/wiki/List_of_United_States_Representatives_from_Louisiana"
          ]
        ],
        [
          "2",
          [
            "/wiki/Louisiana's_2nd_congressional_district"
          ]
        ],
        [
          "1991-2009",
          []
        ],
        [
          "Democratic",
          [
            "/wiki/Democratic_Party_(United_States)"
          ]
        ],
        [
          "March 14 , 1947",
          []
        ],
        [
          "73 years , 128 days",
          []
        ]
      ],
      [
        [
          "Bill Jenkins",
          [
            "/wiki/Bill_Jenkins_(politician)"
          ]
        ],
        [
          "Tennessee",
          [
            "/wiki/List_of_United_States_Representatives_from_Tennessee"
          ]
        ],
        [
          "1",
          [
            "/wiki/Tennessee's_1st_congressional_district"
          ]
        ],
        [
          "1997-2007",
          []
        ],
        [
          "Republican",
          [
            "/wiki/Republican_Party_(United_States)"
          ]
        ],
        [
          "November 29 , 1936",
          []
        ],
        [
          "83 years , 234 days",
          []
        ]
      ],
      [
        [
          "Evan Jenkins",
          [
            "/wiki/Evan_Jenkins_(politician)"
          ]
        ],
        [
          "West Virginia",
          [
            "/wiki/List_of_United_States_Representatives_from_West_Virginia"
          ]
        ],
        [
          "3",
          [
            "/wiki/West_Virginia's_3rd_congressional_district"
          ]
        ],
        [
          "2015-2018",
          []
        ],
        [
          "Republican",
          [
            "/wiki/Republican_Party_(United_States)"
          ]
        ],
        [
          "September 12 , 1960",
          []
        ],
        [
          "59 years , 312 days",
          []
        ]
      ],
      [
        [
          "Lynn Jenkins",
          [
            "/wiki/Lynn_Jenkins"
          ]
        ],
        [
          "Kansas",
          [
            "/wiki/List_of_United_States_Representatives_from_Kansas"
          ]
        ],
        [
          "2",
          [
            "/wiki/Kansas's_2nd_congressional_district"
          ]
        ],
        [
          "2009-2019",
          []
        ],
        [
          "Republican",
          [
            "/wiki/Republican_Party_(United_States)"
          ]
        ],
        [
          "June 10 , 1963",
          []
        ],
        [
          "57 years , 40 days",
          []
        ]
      ],
      [
        [
          "John Jenrette",
          [
            "/wiki/John_Jenrette"
          ]
        ],
        [
          "South Carolina",
          [
            "/wiki/List_of_United_States_Representatives_from_South_Carolina"
          ]
        ],
        [
          "6",
          [
            "/wiki/South_Carolina's_6th_congressional_district"
          ]
        ],
        [
          "1975-1980",
          []
        ],
        [
          "Democratic",
          [
            "/wiki/Democratic_Party_(United_States)"
          ]
        ],
        [
          "May 19 , 1936",
          []
        ],
        [
          "84 years , 62 days",
          []
        ]
      ],
      [
        [
          "Bobby Jindal",
          [
            "/wiki/Bobby_Jindal"
          ]
        ],
        [
          "Louisiana",
          [
            "/wiki/List_of_United_States_Representatives_from_Louisiana"
          ]
        ],
        [
          "1",
          [
            "/wiki/Louisiana's_1st_congressional_district"
          ]
        ],
        [
          "2005-2008",
          []
        ],
        [
          "Republican",
          [
            "/wiki/Republican_Party_(United_States)"
          ]
        ],
        [
          "June 10 , 1971",
          []
        ],
        [
          "49 years , 40 days",
          []
        ]
      ],
      [
        [
          "Chris John",
          [
            "/wiki/Chris_John"
          ]
        ],
        [
          "Louisiana",
          [
            "/wiki/List_of_United_States_Representatives_from_Louisiana"
          ]
        ],
        [
          "7",
          [
            "/wiki/Louisiana's_7th_congressional_district"
          ]
        ],
        [
          "1997-2005",
          []
        ],
        [
          "Democratic",
          [
            "/wiki/Democratic_Party_(United_States)"
          ]
        ],
        [
          "January 5 , 1960",
          []
        ],
        [
          "60 years , 197 days",
          []
        ]
      ],
      [
        [
          "Don Johnson Jr",
          [
            "/wiki/Don_Johnson_Jr."
          ]
        ],
        [
          "Georgia",
          [
            "/wiki/List_of_United_States_Representatives_from_Georgia"
          ]
        ],
        [
          "10",
          [
            "/wiki/Georgia's_10th_congressional_district"
          ]
        ],
        [
          "1993-1995",
          []
        ],
        [
          "Democratic",
          [
            "/wiki/Democratic_Party_(United_States)"
          ]
        ],
        [
          "January 30 , 1948",
          []
        ],
        [
          "72 years , 172 days",
          []
        ]
      ],
      [
        [
          "James Paul Johnson",
          [
            "/wiki/James_Paul_Johnson"
          ]
        ],
        [
          "Colorado",
          [
            "/wiki/List_of_United_States_Representatives_from_Colorado"
          ]
        ],
        [
          "4",
          [
            "/wiki/Colorado's_4th_congressional_district"
          ]
        ],
        [
          "1973-1981",
          []
        ],
        [
          "Republican",
          [
            "/wiki/Republican_Party_(United_States)"
          ]
        ],
        [
          "June 2 , 1930",
          []
        ],
        [
          "90 years , 48 days",
          []
        ]
      ],
      [
        [
          "Nancy Johnson",
          [
            "/wiki/Nancy_Johnson"
          ]
        ],
        [
          "Connecticut",
          [
            "/wiki/List_of_United_States_Representatives_from_Connecticut"
          ]
        ],
        [
          "6 5",
          [
            "/wiki/Connecticut's_6th_congressional_district",
            "/wiki/Connecticut's_5th_congressional_district"
          ]
        ],
        [
          "1983-2007",
          []
        ],
        [
          "Republican",
          [
            "/wiki/Republican_Party_(United_States)"
          ]
        ],
        [
          "January 5 , 1935",
          []
        ],
        [
          "85 years , 197 days",
          []
        ]
      ],
      [
        [
          "Tim ( P. ) Johnson",
          [
            "/wiki/Tim_Johnson_(South_Dakota_politician)"
          ]
        ],
        [
          "South Dakota",
          [
            "/wiki/List_of_United_States_Representatives_from_South_Dakota"
          ]
        ],
        [
          "At-large",
          [
            "/wiki/South_Dakota's_at-large_congressional_district"
          ]
        ],
        [
          "1987-1997",
          []
        ],
        [
          "Democratic",
          [
            "/wiki/Democratic_Party_(United_States)"
          ]
        ],
        [
          "December 28 , 1946",
          []
        ],
        [
          "73 years , 205 days",
          []
        ]
      ],
      [
        [
          "Tim ( V. ) Johnson",
          [
            "/wiki/Tim_Johnson_(Illinois_politician)"
          ]
        ],
        [
          "Illinois",
          [
            "/wiki/List_of_United_States_Representatives_from_Illinois"
          ]
        ],
        [
          "15",
          [
            "/wiki/Illinois's_15th_congressional_district"
          ]
        ],
        [
          "2001-2013",
          []
        ],
        [
          "Republican",
          [
            "/wiki/Republican_Party_(United_States)"
          ]
        ],
        [
          "July 23 , 1946",
          []
        ],
        [
          "73 years , 363 days",
          []
        ]
      ],
      [
        [
          "Harry Johnston",
          [
            "/wiki/Harry_Johnston_(politician)"
          ]
        ],
        [
          "Florida",
          [
            "/wiki/List_of_United_States_Representatives_from_Florida"
          ]
        ],
        [
          "14 19",
          [
            "/wiki/Florida's_14th_congressional_district",
            "/wiki/Florida's_19th_congressional_district"
          ]
        ],
        [
          "1989-1997",
          []
        ],
        [
          "Democratic",
          [
            "/wiki/Democratic_Party_(United_States)"
          ]
        ],
        [
          "December 2 , 1931",
          []
        ],
        [
          "88 years , 231 days",
          []
        ]
      ],
      [
        [
          "David Jolly",
          [
            "/wiki/David_Jolly"
          ]
        ],
        [
          "Florida",
          [
            "/wiki/List_of_United_States_Representatives_from_Florida"
          ]
        ],
        [
          "13",
          [
            "/wiki/Florida's_13th_congressional_district"
          ]
        ],
        [
          "2014-2017",
          []
        ],
        [
          "Republican",
          [
            "/wiki/Republican_Party_(United_States)"
          ]
        ],
        [
          "October 31 , 1972",
          []
        ],
        [
          "47 years , 263 days",
          []
        ]
      ],
      [
        [
          "Ben L. Jones",
          [
            "/wiki/Ben_Jones_(American_actor_and_politician)"
          ]
        ],
        [
          "Georgia",
          [
            "/wiki/List_of_United_States_Representatives_from_Georgia"
          ]
        ],
        [
          "4",
          [
            "/wiki/Georgia's_4th_congressional_district"
          ]
        ],
        [
          "1989-1993",
          []
        ],
        [
          "Democratic",
          [
            "/wiki/Democratic_Party_(United_States)"
          ]
        ],
        [
          "August 30 , 1941",
          []
        ],
        [
          "78 years , 325 days",
          []
        ]
      ],
      [
        [
          "Brenda Jones",
          [
            "/wiki/Brenda_Jones_(politician)"
          ]
        ],
        [
          "Michigan",
          [
            "/wiki/List_of_United_States_Representatives_from_Michigan"
          ]
        ],
        [
          "13",
          [
            "/wiki/Michigan's_13th_congressional_district"
          ]
        ],
        [
          "2018-2019",
          []
        ],
        [
          "Democratic",
          [
            "/wiki/Democratic_Party_(United_States)"
          ]
        ],
        [
          "October 24 , 1959",
          []
        ],
        [
          "60 years , 270 days",
          []
        ]
      ],
      [
        [
          "James R. Jones",
          [
            "/wiki/James_R._Jones"
          ]
        ],
        [
          "Oklahoma",
          [
            "/wiki/List_of_United_States_Representatives_from_Oklahoma"
          ]
        ],
        [
          "1",
          [
            "/wiki/Oklahoma's_1st_congressional_district"
          ]
        ],
        [
          "1973-1987",
          []
        ],
        [
          "Democratic",
          [
            "/wiki/Democratic_Party_(United_States)"
          ]
        ],
        [
          "May 5 , 1939",
          []
        ],
        [
          "81 years , 76 days",
          []
        ]
      ]
    ],
    "section_title": "J",
    "section_text": "",
    "uid": "List_of_living_former_members_of_the_United_States_House_of_Representatives_(J)_0",
    "intro": ""
  },
  "ICD-10_Chapter_XIII:_Diseases_of_the_musculoskeletal_system_and_connective_tissue_0": {
    "url": "https://en.wikipedia.org/wiki/ICD-10_Chapter_XIII:_Diseases_of_the_musculoskeletal_system_and_connective_tissue",
    "title": "ICD-10 Chapter XIII: Diseases of the musculoskeletal system and connective tissue",
    "header": [
      [
        "Chapter",
        []
      ],
      [
        "Block",
        []
      ],
      [
        "Title",
        []
      ]
    ],
    "data": [
      [
        [
          "I",
          []
        ],
        [
          "A00-B99",
          [
            "/wiki/ICD-10_Chapter_I:_Certain_infectious_and_parasitic_diseases"
          ]
        ],
        [
          "Certain infectious and parasitic diseases",
          []
        ]
      ],
      [
        [
          "II",
          []
        ],
        [
          "C00-D48",
          [
            "/wiki/ICD-10_Chapter_II:_Neoplasms"
          ]
        ],
        [
          "Neoplasms",
          []
        ]
      ],
      [
        [
          "III",
          []
        ],
        [
          "D50-D89",
          [
            "/wiki/ICD-10_Chapter_III:_Diseases_of_the_blood_and_blood-forming_organs,_and_certain_disorders_involving_the_immune_mechanism"
          ]
        ],
        [
          "Diseases of the blood and blood-forming organs and certain disorders involving the immune mechanism",
          []
        ]
      ],
      [
        [
          "IV",
          []
        ],
        [
          "E00-E90",
          [
            "/wiki/ICD-10_Chapter_IV:_Endocrine,_nutritional_and_metabolic_diseases"
          ]
        ],
        [
          "Endocrine , nutritional and metabolic diseases",
          []
        ]
      ],
      [
        [
          "V",
          []
        ],
        [
          "F00-F99",
          [
            "/wiki/ICD-10_Chapter_V:_Mental_and_behavioural_disorders"
          ]
        ],
        [
          "Mental and behavioural disorders",
          []
        ]
      ],
      [
        [
          "VI",
          []
        ],
        [
          "G00-G99",
          [
            "/wiki/ICD-10_Chapter_VI:_Diseases_of_the_nervous_system"
          ]
        ],
        [
          "Diseases of the nervous system",
          []
        ]
      ],
      [
        [
          "VII",
          []
        ],
        [
          "H00-H59",
          [
            "/wiki/ICD-10_Chapter_VII:_Diseases_of_the_eye,_adnexa"
          ]
        ],
        [
          "Diseases of the eye and adnexa",
          []
        ]
      ],
      [
        [
          "VIII",
          []
        ],
        [
          "H60-H95",
          [
            "/wiki/ICD-10_Chapter_VIII:_Diseases_of_the_ear_and_mastoid_process"
          ]
        ],
        [
          "Diseases of the ear and mastoid process",
          []
        ]
      ],
      [
        [
          "IX",
          []
        ],
        [
          "I00-I99",
          [
            "/wiki/ICD-10_Chapter_IX:_Diseases_of_the_circulatory_system"
          ]
        ],
        [
          "Diseases of the circulatory system",
          []
        ]
      ],
      [
        [
          "X",
          []
        ],
        [
          "J00-J99",
          [
            "/wiki/ICD-10_Chapter_X:_Diseases_of_the_respiratory_system"
          ]
        ],
        [
          "Diseases of the respiratory system",
          []
        ]
      ],
      [
        [
          "XI",
          []
        ],
        [
          "K00-K93",
          [
            "/wiki/ICD-10_Chapter_XI:_Diseases_of_the_digestive_system"
          ]
        ],
        [
          "Diseases of the digestive system",
          []
        ]
      ],
      [
        [
          "XII",
          []
        ],
        [
          "L00-L99",
          [
            "/wiki/ICD-10_Chapter_XII:_Diseases_of_the_skin_and_subcutaneous_tissue"
          ]
        ],
        [
          "Diseases of the skin and subcutaneous tissue",
          []
        ]
      ],
      [
        [
          "XIII",
          []
        ],
        [
          "M00-M99",
          []
        ],
        [
          "Diseases of the musculoskeletal system and connective tissue",
          []
        ]
      ],
      [
        [
          "XIV",
          []
        ],
        [
          "N00-N99",
          [
            "/wiki/ICD-10_Chapter_XIV:_Diseases_of_the_genitourinary_system"
          ]
        ],
        [
          "Diseases of the genitourinary system",
          []
        ]
      ],
      [
        [
          "XV",
          []
        ],
        [
          "O00-O99",
          [
            "/wiki/ICD-10_Chapter_XV:_Pregnancy,_childbirth_and_the_puerperium"
          ]
        ],
        [
          "Pregnancy , childbirth and the puerperium",
          []
        ]
      ],
      [
        [
          "XVI",
          []
        ],
        [
          "P00-P96",
          [
            "/wiki/ICD-10_Chapter_XVI:_Certain_conditions_originating_in_the_perinatal_period"
          ]
        ],
        [
          "Certain conditions originating in the perinatal period",
          []
        ]
      ],
      [
        [
          "XVII",
          []
        ],
        [
          "Q00-Q99",
          [
            "/wiki/ICD-10_Chapter_XVII:_Congenital_malformations,_deformations_and_chromosomal_abnormalities"
          ]
        ],
        [
          "Congenital malformations , deformations and chromosomal abnormalities",
          []
        ]
      ],
      [
        [
          "XVIII",
          []
        ],
        [
          "R00-R99",
          [
            "/wiki/ICD-10_Chapter_XVIII:_Symptoms,_signs_and_abnormal_clinical_and_laboratory_findings"
          ]
        ],
        [
          "Symptoms , signs and abnormal clinical and laboratory findings , not elsewhere classified",
          []
        ]
      ],
      [
        [
          "XIX",
          []
        ],
        [
          "S00-T98",
          [
            "/wiki/ICD-10_Chapter_XIX:_Injury,_poisoning_and_certain_other_consequences_of_external_causes"
          ]
        ],
        [
          "Injury , poisoning and certain other consequences of external causes",
          []
        ]
      ],
      [
        [
          "XX",
          []
        ],
        [
          "V01-Y98",
          [
            "/wiki/ICD-10_Chapter_XX:_External_causes_of_morbidity_and_mortality"
          ]
        ],
        [
          "External causes of morbidity and mortality",
          []
        ]
      ]
    ],
    "section_title": "",
    "section_text": "",
    "uid": "ICD-10_Chapter_XIII:_Diseases_of_the_musculoskeletal_system_and_connective_tissue_0",
    "intro": "ICD-10 is an international statistical classification used in health care and related industries. Produced by the World Health Organization, it is used in several countries around the world. Some have gone on to develop their own national enhancements, building off the international version of the classification. Chapter XIII of ICD-10 deals with conditions effecting the musculoskeletal system and connective tissue. Examples of conditions captured using codes from Chapter XIII include; arthritis, spinal stenosis, and tendinitis."
  },
  "Threatened_species_known_to_occur_in_the_Great_Barrier_Reef_World_Heritage_Area_1": {
    "url": "https://en.wikipedia.org/wiki/Threatened_species_known_to_occur_in_the_Great_Barrier_Reef_World_Heritage_Area",
    "title": "Threatened species known to occur in the Great Barrier Reef World Heritage Area",
    "header": [
      [
        "Latin name",
        []
      ],
      [
        "Common names",
        []
      ],
      [
        "Bonn Convention classification",
        []
      ],
      [
        "CITES species classification",
        []
      ],
      [
        "IUCN status",
        []
      ]
    ],
    "data": [
      [
        [
          "Natator depressus",
          [
            "/wiki/Flatback_sea_turtle"
          ]
        ],
        [
          "Flatback sea turtle",
          [
            "/wiki/Flatback_sea_turtle"
          ]
        ],
        [
          "",
          []
        ],
        [
          "Appendix I : species that are the most endangered",
          []
        ],
        [
          "Least Concern ( LC or LR/lc ) Lowest risk . Does not qualify for a more at risk category . Widespread and abundant taxa are included in this category",
          []
        ]
      ],
      [
        [
          "Chelonia mydas",
          [
            "/wiki/Green_sea_turtle"
          ]
        ],
        [
          "Green sea turtle",
          [
            "/wiki/Green_sea_turtle"
          ]
        ],
        [
          "Appendix I : Endangered migratory species Appendix II : Migratory species conserved through Agreements",
          []
        ],
        [
          "Appendix I : species that are the most endangered",
          []
        ],
        [
          "Endangered ( EN ) Considered to be facing a very high risk of extinction in the wild",
          []
        ]
      ],
      [
        [
          "Eretmochelys imbricata",
          [
            "/wiki/Hawksbill_sea_turtle"
          ]
        ],
        [
          "Hawksbill sea turtle",
          [
            "/wiki/Hawksbill_sea_turtle"
          ]
        ],
        [
          "Appendix I : Endangered migratory species Appendix II : Migratory species conserved through Agreements",
          []
        ],
        [
          "Appendix I : species that are the most endangered",
          []
        ],
        [
          "Critically Endangered ( CR ) Facing an extremely high risk of extinction in the wild",
          []
        ]
      ],
      [
        [
          "Dermochelys coriacea",
          [
            "/wiki/Leatherback_sea_turtle"
          ]
        ],
        [
          "Leatherback sea turtle lute turtle",
          [
            "/wiki/Leatherback_sea_turtle"
          ]
        ],
        [
          "Appendix I : Endangered migratory species Appendix II : Migratory species conserved through Agreements",
          []
        ],
        [
          "Appendix I : species that are the most endangered",
          []
        ],
        [
          "Vulnerable ( VU ) Considered to be facing a high risk of extinction in the wild",
          []
        ]
      ],
      [
        [
          "Caretta caretta",
          [
            "/wiki/Loggerhead_sea_turtle"
          ]
        ],
        [
          "Loggerhead sea turtle",
          [
            "/wiki/Loggerhead_sea_turtle"
          ]
        ],
        [
          "Appendix I : Endangered migratory species Appendix II : Migratory species conserved through Agreements",
          []
        ],
        [
          "Appendix I : species that are the most endangered",
          []
        ],
        [
          "Endangered ( EN ) Considered to be facing a very high risk of extinction in the wild",
          []
        ]
      ],
      [
        [
          "Lepidochelys olivacea",
          [
            "/wiki/Olive_ridley_sea_turtle"
          ]
        ],
        [
          "Olive ridley sea turtle",
          [
            "/wiki/Olive_ridley_sea_turtle"
          ]
        ],
        [
          "Appendix I : Endangered migratory species Appendix II : Migratory species conserved through Agreements",
          []
        ],
        [
          "Appendix I : species that are the most endangered",
          []
        ],
        [
          "Vulnerable ( VU ) Considered to be facing a high risk of extinction in the wild",
          []
        ]
      ],
      [
        [
          "Crocodylus porosus",
          [
            "/wiki/Saltwater_crocodile"
          ]
        ],
        [
          "Saltwater crocodile Saltie Estuarine Indo-Pacific crocodile",
          [
            "/wiki/Saltwater_crocodile"
          ]
        ],
        [
          "Appendix II : Migratory species conserved through Agreements",
          []
        ],
        [
          "Appendix I : species that are the most endangered",
          []
        ],
        [
          "Least Concern ( LC or LR/lc ) Lowest risk . Does not qualify for a more at risk category . Widespread and abundant taxa are included in this category",
          []
        ]
      ],
      [
        [
          "Crocodylus johnsoni or Crocodylus johnstoni",
          [
            "/wiki/Freshwater_crocodile"
          ]
        ],
        [
          "Freshwater crocodile Australian freshwater crocodile Johnston 's crocodile Freshie",
          [
            "/wiki/Freshwater_crocodile"
          ]
        ],
        [
          "",
          []
        ],
        [
          "Appendix II : may become endangered unless trade is closely controlled",
          []
        ],
        [
          "Least Concern ( LC or LR/lc ) Lowest risk . Does not qualify for a more at risk category . Widespread and abundant taxa are included in this category",
          []
        ]
      ]
    ],
    "section_title": "Reptiles",
    "section_text": "",
    "uid": "Threatened_species_known_to_occur_in_the_Great_Barrier_Reef_World_Heritage_Area_1",
    "intro": "Threatened species known to occur in the Great Barrier Reef World Heritage Area and listed under the Convention on the Conservation of Migratory Species of Wild Animals (Bonn Convention), CITES (CITES) Agreement, China-Australia Migratory Bird Agreement (CAMBA), Japan-Australia Migratory Bird Agreement and the International Union for the Conservation of Nature Red List (IUCN Red List) status for the species."
  }
}