{
  "List_of_international_cricket_five-wicket_hauls_on_Bangladeshi_cricket_grounds_3": {
    "url": "https://en.wikipedia.org/wiki/List_of_international_cricket_five-wicket_hauls_on_Bangladeshi_cricket_grounds",
    "title": "List of international cricket five-wicket hauls on Bangladeshi cricket grounds",
    "header": [
      [
        "No",
        []
      ],
      [
        "Bowler",
        []
      ],
      [
        "Date",
        []
      ],
      [
        "Team",
        []
      ],
      [
        "Opposing Team",
        []
      ],
      [
        "Inn",
        []
      ],
      [
        "O",
        []
      ],
      [
        "R",
        []
      ],
      [
        "W",
        []
      ],
      [
        "Result",
        []
      ]
    ],
    "data": [
      [
        [
          "1",
          []
        ],
        [
          "Saqlain Mushtaq",
          [
            "/wiki/Saqlain_Mushtaq"
          ]
        ],
        [
          "16 January 2020",
          []
        ],
        [
          "Pakistan",
          [
            "/wiki/Pakistan_national_cricket_team"
          ]
        ],
        [
          "Bangladesh",
          [
            "/wiki/Bangladesh_national_cricket_team"
          ]
        ],
        [
          "1",
          []
        ],
        [
          "16.4",
          []
        ],
        [
          "35",
          []
        ],
        [
          "5",
          []
        ],
        [
          "Pakistan won",
          []
        ]
      ],
      [
        [
          "2",
          []
        ],
        [
          "Paul Adams",
          [
            "/wiki/Paul_Adams_(cricketer)"
          ]
        ],
        [
          "24 April 2003",
          []
        ],
        [
          "South Africa",
          [
            "/wiki/South_Africa_national_cricket_team"
          ]
        ],
        [
          "Bangladesh",
          [
            "/wiki/Bangladesh_national_cricket_team"
          ]
        ],
        [
          "1",
          []
        ],
        [
          "12.3",
          []
        ],
        [
          "37",
          []
        ],
        [
          "5",
          []
        ],
        [
          "South Africa won",
          []
        ]
      ],
      [
        [
          "3",
          []
        ],
        [
          "Paul Adams",
          [
            "/wiki/Paul_Adams_(cricketer)"
          ]
        ],
        [
          "24 April 2003",
          []
        ],
        [
          "South Africa",
          [
            "/wiki/South_Africa_national_cricket_team"
          ]
        ],
        [
          "Bangladesh",
          [
            "/wiki/Bangladesh_national_cricket_team"
          ]
        ],
        [
          "3",
          []
        ],
        [
          "18.4",
          []
        ],
        [
          "69",
          []
        ],
        [
          "5",
          []
        ],
        [
          "South Africa won",
          []
        ]
      ],
      [
        [
          "4",
          []
        ],
        [
          "Richard Johnson",
          [
            "/wiki/Richard_Johnson_(cricketer,_born_1974)"
          ]
        ],
        [
          "29 October 2003",
          []
        ],
        [
          "England",
          [
            "/wiki/England_cricket_team"
          ]
        ],
        [
          "Bangladesh",
          [
            "/wiki/Bangladesh_national_cricket_team"
          ]
        ],
        [
          "2",
          []
        ],
        [
          "21.0",
          []
        ],
        [
          "49",
          []
        ],
        [
          "5",
          []
        ],
        [
          "England won",
          []
        ]
      ],
      [
        [
          "5",
          []
        ],
        [
          "Daniel Vettori",
          [
            "/wiki/Daniel_Vettori"
          ]
        ],
        [
          "26 October 2004",
          []
        ],
        [
          "New Zealand",
          [
            "/wiki/New_Zealand_national_cricket_team"
          ]
        ],
        [
          "Bangladesh",
          [
            "/wiki/Bangladesh_national_cricket_team"
          ]
        ],
        [
          "2",
          []
        ],
        [
          "32.2",
          []
        ],
        [
          "70",
          []
        ],
        [
          "6",
          []
        ],
        [
          "New Zealand won",
          []
        ]
      ],
      [
        [
          "6",
          []
        ],
        [
          "Daniel Vettori",
          [
            "/wiki/Daniel_Vettori"
          ]
        ],
        [
          "29 October 2004",
          []
        ],
        [
          "New Zealand",
          [
            "/wiki/New_Zealand_national_cricket_team"
          ]
        ],
        [
          "Bangladesh",
          [
            "/wiki/Bangladesh_national_cricket_team"
          ]
        ],
        [
          "3",
          []
        ],
        [
          "28.2",
          []
        ],
        [
          "100",
          []
        ],
        [
          "6",
          []
        ],
        [
          "New Zealand won",
          []
        ]
      ],
      [
        [
          "7",
          []
        ],
        [
          "Irfan Pathan",
          [
            "/wiki/Irfan_Pathan"
          ]
        ],
        [
          "17 December 2004",
          []
        ],
        [
          "India",
          [
            "/wiki/India_national_cricket_team"
          ]
        ],
        [
          "Bangladesh",
          [
            "/wiki/Bangladesh_national_cricket_team"
          ]
        ],
        [
          "3",
          []
        ],
        [
          "9",
          []
        ],
        [
          "35",
          []
        ],
        [
          "5",
          []
        ],
        [
          "India won",
          []
        ]
      ],
      [
        [
          "8",
          []
        ],
        [
          "Mohammad Rafique",
          [
            "/wiki/Mohammad_Rafique_(cricketer)"
          ]
        ],
        [
          "6 January 2005",
          []
        ],
        [
          "Bangladesh",
          [
            "/wiki/Bangladesh_national_cricket_team"
          ]
        ],
        [
          "Zimbabwe",
          [
            "/wiki/Zimbabwe_national_cricket_team"
          ]
        ],
        [
          "2",
          []
        ],
        [
          "41.4",
          []
        ],
        [
          "65",
          []
        ],
        [
          "5",
          []
        ],
        [
          "Bangladesh won",
          []
        ]
      ],
      [
        [
          "9",
          []
        ],
        [
          "Elton Chigumbura",
          [
            "/wiki/Elton_Chigumbura"
          ]
        ],
        [
          "6 January 2005",
          []
        ],
        [
          "Zimbabwe",
          [
            "/wiki/Zimbabwe_national_cricket_team"
          ]
        ],
        [
          "Bangladesh",
          [
            "/wiki/Bangladesh_national_cricket_team"
          ]
        ],
        [
          "3",
          []
        ],
        [
          "16.5",
          []
        ],
        [
          "54",
          []
        ],
        [
          "5",
          []
        ],
        [
          "Bangladesh won",
          []
        ]
      ],
      [
        [
          "10",
          []
        ],
        [
          "Enamul Haque",
          [
            "/wiki/Enamul_Haque_(cricketer,_born_1986)"
          ]
        ],
        [
          "6 January 2005",
          []
        ],
        [
          "Bangladesh",
          [
            "/wiki/Bangladesh_national_cricket_team"
          ]
        ],
        [
          "Zimbabwe",
          [
            "/wiki/Zimbabwe_national_cricket_team"
          ]
        ],
        [
          "4",
          []
        ],
        [
          "22.2",
          []
        ],
        [
          "45",
          []
        ],
        [
          "6",
          []
        ],
        [
          "Bangladesh won",
          []
        ]
      ]
    ],
    "section_title": "MA Aziz Stadium , Chattogram",
    "section_text": "As of 20 March 2020",
    "uid": "List_of_international_cricket_five-wicket_hauls_on_Bangladeshi_cricket_grounds_3",
    "intro": "Bangladesh played its first Test match in November 2000 against India in Dhaka, becoming the tenth Test-playing nation. Bangladesh's first official foray into international cricket came in the 1979 ICC Trophy in England. On 31 March 1986, Bangladesh played its first ODI match, against Pakistan in the Asia Cup. For a long time, football was the most popular sport in Bangladesh, but cricket gradually became very popular - particularly in urban areas - and by the late 1990s had surpassed football. There are many famous cricket grounds in Bangladesh. These pitches are renowned for slow spinning tracks, where most of the non-Indian subcontinent nations playing with more difficulty. Shere Bangla National Stadium in Dhaka is the most famous of all Bangladeshi grounds, where it held many big events of cricket. Most of the grounds are used for all three forms of the game, where they are no categorized as Test venues, limited over venues. In cricket, a five-wicket haul (also known as a five-for or fifer) refers to a bowler taking five or more wickets in a single innings. This is regarded as a notable achievement. The following list is about the five-wicket hauls taken at New Zealand cricket grounds."
  }
}