{
  "List_of_United_States_local_officials_convicted_of_federal_corruption_offenses_1": {
    "url": "https://en.wikipedia.org/wiki/List_of_United_States_local_officials_convicted_of_federal_corruption_offenses",
    "title": "List of United States local officials convicted of federal corruption offenses",
    "header": [
      [
        "City council member",
        []
      ],
      [
        "Office",
        []
      ],
      [
        "Crime ( s )",
        []
      ]
    ],
    "data": [
      [
        [
          "Robert Burke",
          []
        ],
        [
          "Alderman of Holly Springs , Mississippi",
          []
        ],
        [
          "Hobbs Act and Travel Act",
          [
            "/wiki/Hobbs_Act",
            "/wiki/Travel_Act"
          ]
        ]
      ],
      [
        [
          "George Bush , Sr",
          []
        ],
        [
          "Alderman of East St. Louis , Missouri",
          []
        ],
        [
          "Hobbs Act",
          [
            "/wiki/Hobbs_Act"
          ]
        ]
      ],
      [
        [
          "James Callaghan",
          []
        ],
        [
          "Newark Councilman",
          []
        ],
        [
          "Hobbs Act",
          [
            "/wiki/Hobbs_Act"
          ]
        ]
      ],
      [
        [
          "Isaac Carothers",
          [
            "/wiki/Isaac_Carothers"
          ]
        ],
        [
          "Chicago Alderman",
          []
        ],
        [
          "",
          []
        ]
      ],
      [
        [
          "William Carothers",
          []
        ],
        [
          "Chicago Alderman",
          []
        ],
        [
          "Hobbs Act",
          [
            "/wiki/Hobbs_Act"
          ]
        ]
      ],
      [
        [
          "Monica Conyers",
          [
            "/wiki/Monica_Conyers"
          ]
        ],
        [
          "Detroit City Council",
          []
        ],
        [
          "Program bribery",
          []
        ]
      ],
      [
        [
          "Michael D'Amico",
          []
        ],
        [
          "City Councillor of Quincy , Massachusetts",
          []
        ],
        [
          "Hobbs Act",
          [
            "/wiki/Hobbs_Act"
          ]
        ]
      ],
      [
        [
          "Wallace Davis",
          [
            "/wiki/Wallace_Davis"
          ]
        ],
        [
          "Chicago Alderman",
          []
        ],
        [
          "Hobbs Act and RICO",
          [
            "/wiki/Hobbs_Act",
            "/wiki/Racketeer_Influenced_and_Corrupt_Organizations_Act"
          ]
        ]
      ],
      [
        [
          "Walter J. Egan",
          []
        ],
        [
          "City Council of Carson , California",
          []
        ],
        [
          "Hobbs Act and mail fraud",
          [
            "/wiki/Hobbs_Act",
            "/wiki/Mail_and_wire_fraud"
          ]
        ]
      ],
      [
        [
          "Jesse Evans",
          []
        ],
        [
          "Chicago Alderman",
          []
        ],
        [
          "Hobbs Act , mail fraud , and RICO",
          [
            "/wiki/Hobbs_Act",
            "/wiki/Mail_and_wire_fraud",
            "/wiki/Racketeer_Influenced_and_Corrupt_Organizations_Act"
          ]
        ]
      ],
      [
        [
          "Louis Farina",
          []
        ],
        [
          "Chicago Alderman",
          []
        ],
        [
          "Hobbs Act",
          [
            "/wiki/Hobbs_Act"
          ]
        ]
      ],
      [
        [
          "Thomas Flaherty",
          []
        ],
        [
          "Jersey City Council",
          []
        ],
        [
          "Hobbs Act",
          [
            "/wiki/Hobbs_Act"
          ]
        ]
      ],
      [
        [
          "Jack Foster",
          []
        ],
        [
          "Alderman of Pine Bluff , Arkansas",
          []
        ],
        [
          "Hobbs Act",
          [
            "/wiki/Hobbs_Act"
          ]
        ]
      ],
      [
        [
          "Percy Giles",
          []
        ],
        [
          "Chicago Alderman",
          []
        ],
        [
          "Hobbs Act , mail fraud , and RICO",
          [
            "/wiki/Hobbs_Act",
            "/wiki/Mail_and_wire_fraud",
            "/wiki/Racketeer_Influenced_and_Corrupt_Organizations_Act"
          ]
        ]
      ],
      [
        [
          "Arthur Gilmore , Jr",
          []
        ],
        [
          "Monroe City Council",
          []
        ],
        [
          "Hobbs Act and RICO",
          [
            "/wiki/Hobbs_Act",
            "/wiki/Racketeer_Influenced_and_Corrupt_Organizations_Act"
          ]
        ]
      ],
      [
        [
          "John M. Gliottoni , Jr",
          []
        ],
        [
          "City Council Commissioner of Chicago Heights , Illinois",
          []
        ],
        [
          "Hobbs Act and RICO",
          [
            "/wiki/Hobbs_Act",
            "/wiki/Racketeer_Influenced_and_Corrupt_Organizations_Act"
          ]
        ]
      ],
      [
        [
          "Patrick T. Hairston",
          []
        ],
        [
          "Winston-Salem , North Carolina , Board of Aldermen",
          []
        ],
        [
          "Hobbs Act , mail fraud , RICO , and Travel Act",
          [
            "/wiki/Hobbs_Act",
            "/wiki/Mail_and_wire_fraud",
            "/wiki/Racketeer_Influenced_and_Corrupt_Organizations_Act",
            "/wiki/Travel_Act"
          ]
        ]
      ],
      [
        [
          "John J. Hamilton , Jr",
          []
        ],
        [
          "Councilman of Asbury Park , New Jersey",
          []
        ],
        [
          "Hobbs Act and program bribery",
          [
            "/wiki/Hobbs_Act"
          ]
        ]
      ],
      [
        [
          "Gwendolyn Cheek Hedgepeth",
          []
        ],
        [
          "Richmond City Council",
          []
        ],
        [
          "Hobbs Act and mail fraud",
          [
            "/wiki/Hobbs_Act",
            "/wiki/Mail_and_wire_fraud"
          ]
        ]
      ],
      [
        [
          "Fred Hubbard",
          []
        ],
        [
          "Chicago Alderman",
          []
        ],
        [
          "Program bribery",
          []
        ]
      ]
    ],
    "section_title": "City council members",
    "section_text": "",
    "uid": "List_of_United_States_local_officials_convicted_of_federal_corruption_offenses_1",
    "intro": "This is a list of notable United States local officials convicted of federal public corruption offenses for conduct while in office. The list is organized by office. Non-notable officials, such as sewer inspectors and zoning commissioners, are not included on this list, although they are routinely prosecuted for the same offenses. Acquitted officials are not listed (if an official was acquitted on some counts, and convicted on others, the counts of conviction are listed). Officials convicted of state crimes are not listed. For a more complete list see: List of American state and local politicians convicted of crimes. The criminal statute(s) under which the conviction(s) were obtained are noted, as are the names of notable investigations or scandals, if applicable. If a defendant is convicted of a conspiracy to commit a corruption offense, the substantive offense is listed. Convictions of non-corruption offenses, such as making false statements, perjury, obstruction of justice, electoral fraud, and campaign finance regulations, even if related, are not noted. Nor are derivative convictions, such as tax evasion or money laundering. Officials convicted only of non-corruption offenses are not included on this list, even if indicted on corruption offenses as well. Certain details, including post-conviction relief, if applicable, are included in footnotes."
  },
  "List_of_killings_by_law_enforcement_officers_in_the_United_States,_September_2012_0": {
    "url": "https://en.wikipedia.org/wiki/List_of_killings_by_law_enforcement_officers_in_the_United_States,_September_2012",
    "title": "List of killings by law enforcement officers in the United States, September 2012",
    "header": [
      [
        "Date",
        []
      ],
      [
        "Name ( Age ) of Deceased",
        []
      ],
      [
        "State ( City )",
        []
      ],
      [
        "Description",
        []
      ]
    ],
    "data": [
      [
        [
          "2012 - 09 - 30",
          []
        ],
        [
          "Arnold , Eugene Leroy , Jr. ( 36 )",
          []
        ],
        [
          "Texas ( Shamrock )",
          [
            "/wiki/Shamrock,_Texas"
          ]
        ],
        [
          "Arnold fled from police in Oklahoma and crossed into Texas . The vehicle chase ended when Arnold crashed into a field . A struggle ensued between Arnold and a Texas DPS officer . During the struggle , Arnold was fatally wounded by a gunshot",
          [
            "/wiki/Texas_Department_of_Public_Safety"
          ]
        ]
      ],
      [
        [
          "2012-09-29",
          []
        ],
        [
          "Buquet , Christian Nicholas ( 19 )",
          []
        ],
        [
          "Idaho ( Coeur d'Alene )",
          [
            "/wiki/Coeur_d'Alene,_Idaho"
          ]
        ],
        [
          "Buquet was leading the police on a high speed chase after he had shot someone . Buquet lost control of his vehicle and spun out . Buquet then exited the vehicle and fired at officers . The officers returned fire , fatally striking Buquet",
          []
        ]
      ],
      [
        [
          "2012-09-29",
          []
        ],
        [
          "Wycoff , Stephen Robert ( 39 )",
          []
        ],
        [
          "Maryland ( California )",
          [
            "/wiki/California,_Maryland"
          ]
        ],
        [
          "Wycoff got into a violent struggle with an officer that was responding to a disturbance call . During the struggle , the officer fatally shot Wycoff",
          []
        ]
      ],
      [
        [
          "2012-09-28",
          []
        ],
        [
          "Alvarado , Valeria ( 32 )",
          []
        ],
        [
          "California ( Chula Vista )",
          [
            "/wiki/Chula_Vista,_California"
          ]
        ],
        [
          "Alvarado allegedly struck a plainclothes Border Patrol agent with her car . The agent was allegedly on the hood of the car when he shot Alvarado",
          []
        ]
      ],
      [
        [
          "2012-09-28",
          []
        ],
        [
          "Davis Jr. , Alton ( 32 )",
          []
        ],
        [
          "Louisiana ( Henderson )",
          [
            "/wiki/Henderson,_Louisiana"
          ]
        ],
        [
          "Deputies were approaching a vehicle in which Davis was behind the wheel . Davis put the vehicle into reverse and struck one of the officers . The officers fired at the vehicle , fatally wounding Davis",
          []
        ]
      ],
      [
        [
          "2012-09-28",
          []
        ],
        [
          "Helvik , Thomas ( 41 )",
          []
        ],
        [
          "Louisiana ( Lafayette )",
          [
            "/wiki/Lafayette,_Louisiana"
          ]
        ],
        [
          "Helvik was being pursued following a bank robbery . Helvik drove his truck through a field and struck a fence . He was then shot and killed by a pursuing officer",
          []
        ]
      ],
      [
        [
          "2012-09-27",
          []
        ],
        [
          "Brown , Earl ( 73 )",
          []
        ],
        [
          "Florida ( Lauderhill )",
          [
            "/wiki/Lauderhill,_Florida"
          ]
        ],
        [
          "Officers responded to report of an intruder at a recycling center . When they saw Brown with a weapon , they fired multiple times . Brown was a security guard who had worked at the center for 35 years , but was not wearing a uniform . Brown died in the hospital on October 12 , 2012",
          []
        ]
      ],
      [
        [
          "2012-09-27",
          []
        ],
        [
          "Mayhew , Anthony ( 37 )",
          []
        ],
        [
          "Utah ( Salt Lake City )",
          [
            "/wiki/Salt_Lake_City"
          ]
        ],
        [
          "Mayhew was in a 2-hour standoff with police that started with a bomb scare at a downtown bus station . Mayhew was fatally shot when he allegedly stopped listening to the officers commands and started to approach them",
          []
        ]
      ],
      [
        [
          "2012-09-27",
          []
        ],
        [
          "Rodriguez Jr. , Jose ( 14 )",
          []
        ],
        [
          "California ( Santa Ana )",
          [
            "/wiki/Santa_Ana,_California"
          ]
        ],
        [
          "Rodriguez allegedly called 9-1-1 to report a man with a gun outside of his house . When officers arrived at the scene , they found Rodriguez standing by the road armed with a shotgun . Rodriguez ignored orders to drop the weapon . Officers fatally shot Rodriguez when he allegedly pointed the weapon at them",
          []
        ]
      ],
      [
        [
          "2012-09-26",
          []
        ],
        [
          "Murray , Dennis Ray Jr",
          []
        ],
        [
          "Texas ( Beaumont )",
          [
            "/wiki/Beaumont,_Texas"
          ]
        ],
        [
          "Officers identified and pursued Murray regarding allegations of sexual assault . Murray fled to his home , retrieved a rifle and shot at officers . During a struggle for the rifle , officers fatally shot Murray",
          []
        ]
      ],
      [
        [
          "2012-09-26",
          []
        ],
        [
          "Worley , Kevin ( 25 )",
          []
        ],
        [
          "Missouri ( Rock Hill )",
          [
            "/wiki/Rock_Hill,_Missouri"
          ]
        ],
        [
          "Worley was a suspect in recent home invasions . An officer spotted him sitting in a car at a gas station . When the officer approached and ordered Worley to show his hands , Worley pulled out a gun . Worley was fatally shot when he allegedly pointed the weapon at the officer",
          []
        ]
      ],
      [
        [
          "2012-09-25",
          []
        ],
        [
          "Bah , Mohamed ( 28 )",
          []
        ],
        [
          "New York ( New York )",
          [
            "/wiki/New_York_City"
          ]
        ],
        [
          "Bah was fatally shot by three officers as he was stabbing a fourth officer . Police were at Bah 's apartment after receiving a call from his mother . Bah 's mother was worried that her son might hurt himself or someone else . Police used a taser and rubber bullet prior to using their regular firearms",
          []
        ]
      ],
      [
        [
          "2012-09-25",
          []
        ],
        [
          "Paladino , Maurice Chad ( 42 )",
          []
        ],
        [
          "Texas ( Austin )",
          [
            "/wiki/Austin,_Texas"
          ]
        ],
        [
          "Paladino stole an SUV from a car dealership earlier in the day . When police found the vehicle in a hotel parking lot , they attempted to arrest Paladino . Paladino got in the vehicle and allegedly drove at an officer . The officer shot Paladino , who died the following day from his wounds",
          []
        ]
      ],
      [
        [
          "2012-09-24",
          []
        ],
        [
          "Thompson , Justin ( 15 )",
          []
        ],
        [
          "Tennessee ( Memphis )",
          [
            "/wiki/Memphis,_Tennessee"
          ]
        ],
        [
          "The teenager was shot and killed by off-duty police officer Terrance Shaw . Police say Thompson had attempted to rob Shaw",
          []
        ]
      ],
      [
        [
          "2012-09-24",
          []
        ],
        [
          "Alvarez , Edgar ( 24 )",
          []
        ],
        [
          "California ( Hayward )",
          [
            "/wiki/Hayward,_California"
          ]
        ],
        [
          "Police were searching for the suspect in an earlier shooting at a bar . When police attempted to stop a vehicle for questioning , the driver put the car in reverse and drove at the officers . The officers then fatally shot the driver",
          []
        ]
      ],
      [
        [
          "2012-09-23",
          []
        ],
        [
          "Lopez , Joshua Michael ( 22 )",
          []
        ],
        [
          "Maryland ( Dundalk )",
          [
            "/wiki/Dundalk,_Maryland"
          ]
        ],
        [
          "Officers were talking to the man after calls about a suspicious person in the area . The suspect allegedly went for the officer 's gun . A second officer then fatally shot him",
          []
        ]
      ],
      [
        [
          "2012-09-23",
          []
        ],
        [
          "Lee , Henry , Sr. ( 77 )",
          []
        ],
        [
          "Washington ( Seattle )",
          [
            "/wiki/Seattle"
          ]
        ],
        [
          "The man used a medical alert system to request help because of a suspicious activity in the area . When officers arrived at his house , he came outside with a gun . Two of the officers shot him when he allegedly raised the weapon towards them",
          []
        ]
      ],
      [
        [
          "2012-09-22",
          []
        ],
        [
          "Barnes , Samuel William ( 49 )",
          []
        ],
        [
          "Arizona ( Phoenix )",
          [
            "/wiki/Phoenix,_Arizona"
          ]
        ],
        [
          "Officers were responding to a domestic dispute call when they encountered Barnes pointing an AK-47 at his wife . Officers shot him when he refused to lower the weapon . After being hit , Barnes pointed the weapon towards one of the officers , and the officer fired a second time . Barnes died later at the hospital",
          []
        ]
      ],
      [
        [
          "2012-09-22",
          []
        ],
        [
          "McDonnell , Patrick ( 51 )",
          []
        ],
        [
          "Wisconsin ( Eau Galle )",
          []
        ],
        [
          "Police were called to house of a man said to be suicidal and armed . The man came out of the house with three weapons . He fired at least two shots at officers , striking one of their patrol cars . The officers then returned fire , fatally hitting the suspect",
          []
        ]
      ],
      [
        [
          "2012-09-22",
          []
        ],
        [
          "Storey , Paul Lawson ( 35 )",
          []
        ],
        [
          "California ( Roseville )",
          [
            "/wiki/Roseville,_California"
          ]
        ],
        [
          "Suspect was fleeing from the scene of a domestic dispute . When an officer caught him and attempted to arrest him , a struggle ensued . A second officer , fearing for the safety of the other officer , fatally shot the suspect",
          []
        ]
      ]
    ],
    "section_title": "September 2012",
    "section_text": "",
    "uid": "List_of_killings_by_law_enforcement_officers_in_the_United_States,_September_2012_0",
    "intro": ""
  }
}