{
  "List_of_Canadian_submissions_for_the_Academy_Award_for_Best_Foreign_Language_Film_0": {
    "url": "https://en.wikipedia.org/wiki/List_of_Canadian_submissions_for_the_Academy_Award_for_Best_International_Feature_Film",
    "title": "List of Canadian submissions for the Academy Award for Best International Feature Film",
    "header": [
      [
        "Year ( Ceremony )",
        []
      ],
      [
        "Film title used in nomination",
        []
      ],
      [
        "Original title",
        []
      ],
      [
        "Director",
        []
      ],
      [
        "Result",
        []
      ]
    ],
    "data": [
      [
        [
          "1971 ( 44th )",
          [
            "/wiki/1971_in_film",
            "/wiki/44th_Academy_Awards"
          ]
        ],
        [
          "Mon oncle Antoine",
          [
            "/wiki/Mon_oncle_Antoine"
          ]
        ],
        [
          "Mon oncle Antoine",
          []
        ],
        [
          "Claude Jutra",
          [
            "/wiki/Claude_Jutra"
          ]
        ],
        [
          "Not Nominated",
          []
        ]
      ],
      [
        [
          "1972 ( 45th )",
          [
            "/wiki/1972_in_film",
            "/wiki/45th_Academy_Awards"
          ]
        ],
        [
          "The True Nature of Bernadette",
          [
            "/wiki/The_True_Nature_of_Bernadette"
          ]
        ],
        [
          "La Vraie nature de Bernadette",
          []
        ],
        [
          "Gilles Carle",
          [
            "/wiki/Gilles_Carle"
          ]
        ],
        [
          "Not Nominated",
          []
        ]
      ],
      [
        [
          "1975 ( 48th )",
          [
            "/wiki/1975_in_film",
            "/wiki/48th_Academy_Awards"
          ]
        ],
        [
          "Orders",
          [
            "/wiki/Les_Ordres"
          ]
        ],
        [
          "Les Ordres",
          []
        ],
        [
          "Michel Brault",
          [
            "/wiki/Michel_Brault"
          ]
        ],
        [
          "Not Nominated",
          []
        ]
      ],
      [
        [
          "1977 ( 50th )",
          [
            "/wiki/1977_in_film",
            "/wiki/50th_Academy_Awards"
          ]
        ],
        [
          "J.A . Martin Photographer",
          [
            "/wiki/J.A._Martin_Photographer"
          ]
        ],
        [
          "J.A . Martin photographe",
          []
        ],
        [
          "Jean Beaudin",
          [
            "/wiki/Jean_Beaudin"
          ]
        ],
        [
          "Not Nominated",
          []
        ]
      ],
      [
        [
          "1979 ( 52nd )",
          [
            "/wiki/1979_in_film",
            "/wiki/52nd_Academy_Awards"
          ]
        ],
        [
          "A Scream from Silence",
          [
            "/wiki/A_Scream_from_Silence"
          ]
        ],
        [
          "Mourir \u00e0 tue-t\u00eate",
          []
        ],
        [
          "Anne Claire Poirier",
          [
            "/wiki/Anne_Claire_Poirier"
          ]
        ],
        [
          "Not Nominated",
          []
        ]
      ],
      [
        [
          "1980 ( 53rd )",
          [
            "/wiki/1980_in_film",
            "/wiki/53rd_Academy_Awards"
          ]
        ],
        [
          "Good Riddance",
          [
            "/wiki/Good_Riddance_(film)"
          ]
        ],
        [
          "Les Bons d\u00e9barras",
          []
        ],
        [
          "Francis Mankiewicz",
          [
            "/wiki/Francis_Mankiewicz"
          ]
        ],
        [
          "Not Nominated",
          []
        ]
      ],
      [
        [
          "1981 ( 54th )",
          [
            "/wiki/1981_in_film",
            "/wiki/54th_Academy_Awards"
          ]
        ],
        [
          "The Plouffe Family",
          [
            "/wiki/The_Plouffe_Family_(film)"
          ]
        ],
        [
          "Les Plouffe",
          []
        ],
        [
          "Gilles Carle",
          [
            "/wiki/Gilles_Carle"
          ]
        ],
        [
          "Not Nominated",
          []
        ]
      ],
      [
        [
          "1982 ( 55th )",
          [
            "/wiki/1982_in_film",
            "/wiki/55th_Academy_Awards"
          ]
        ],
        [
          "Wild Flowers",
          [
            "/wiki/Wild_Flowers_(1982_film)"
          ]
        ],
        [
          "Les Fleurs savages",
          []
        ],
        [
          "Jean Pierre Lefebvre",
          [
            "/wiki/Jean_Pierre_Lefebvre"
          ]
        ],
        [
          "Not Nominated",
          []
        ]
      ],
      [
        [
          "1983 ( 56th )",
          [
            "/wiki/1983_in_film",
            "/wiki/56th_Academy_Awards"
          ]
        ],
        [
          "The Tin Flute",
          [
            "/wiki/The_Tin_Flute_(film)"
          ]
        ],
        [
          "Bonheur d'occasion",
          []
        ],
        [
          "Claude Fournier",
          [
            "/wiki/Claude_Fournier_(filmmaker)"
          ]
        ],
        [
          "Not Nominated",
          []
        ]
      ],
      [
        [
          "1984 ( 57th )",
          [
            "/wiki/1984_in_film",
            "/wiki/57th_Academy_Awards"
          ]
        ],
        [
          "Sonatine",
          [
            "/wiki/Sonatine_(1984_film)"
          ]
        ],
        [
          "Sonatine",
          []
        ],
        [
          "Micheline Lanct\u00f4t",
          [
            "/wiki/Micheline_Lanct\u00f4t"
          ]
        ],
        [
          "Not Nominated",
          []
        ]
      ],
      [
        [
          "1985 ( 58th )",
          [
            "/wiki/1985_in_film",
            "/wiki/58th_Academy_Awards"
          ]
        ],
        [
          "Jacques and November",
          [
            "/wiki/Jacques_and_November"
          ]
        ],
        [
          "Jacques et novembre",
          []
        ],
        [
          "Fran\u00e7ois Bouvier",
          [
            "/wiki/Fran\u00e7ois_Bouvier"
          ]
        ],
        [
          "Not Nominated",
          []
        ]
      ],
      [
        [
          "1986 ( 59th )",
          [
            "/wiki/1986_in_film",
            "/wiki/59th_Academy_Awards"
          ]
        ],
        [
          "The Decline of the American Empire",
          [
            "/wiki/The_Decline_of_the_American_Empire"
          ]
        ],
        [
          "Le D\u00e9clin de l'empire am\u00e9ricain",
          []
        ],
        [
          "Denys Arcand",
          [
            "/wiki/Denys_Arcand"
          ]
        ],
        [
          "Nominated",
          []
        ]
      ],
      [
        [
          "1987 ( 60th )",
          [
            "/wiki/1987_in_film",
            "/wiki/60th_Academy_Awards"
          ]
        ],
        [
          "Night Zoo",
          [
            "/wiki/Night_Zoo"
          ]
        ],
        [
          "Un Zoo la Nuit",
          []
        ],
        [
          "Jean-Claude Lauzon",
          [
            "/wiki/Jean-Claude_Lauzon"
          ]
        ],
        [
          "Not Nominated",
          []
        ]
      ],
      [
        [
          "1988 ( 61st )",
          [
            "/wiki/1988_in_film",
            "/wiki/61st_Academy_Awards"
          ]
        ],
        [
          "The Revolving Doors",
          [
            "/wiki/The_Revolving_Doors"
          ]
        ],
        [
          "Les portes tournantes",
          []
        ],
        [
          "Francis Mankiewicz",
          [
            "/wiki/Francis_Mankiewicz"
          ]
        ],
        [
          "Not Nominated",
          []
        ]
      ],
      [
        [
          "1989 ( 62nd )",
          [
            "/wiki/1989_in_film",
            "/wiki/62nd_Academy_Awards"
          ]
        ],
        [
          "Jesus of Montreal",
          [
            "/wiki/Jesus_of_Montreal"
          ]
        ],
        [
          "J\u00e9sus de Montr\u00e9al",
          []
        ],
        [
          "Denys Arcand",
          [
            "/wiki/Denys_Arcand"
          ]
        ],
        [
          "Nominated",
          []
        ]
      ],
      [
        [
          "1990 ( 63rd )",
          [
            "/wiki/1990_in_film",
            "/wiki/63rd_Academy_Awards"
          ]
        ],
        [
          "An Imaginary Tale",
          [
            "/wiki/An_Imaginary_Tale"
          ]
        ],
        [
          "Une histoire invent\u00e9e",
          []
        ],
        [
          "Andr\u00e9 Forcier",
          [
            "/wiki/Andr\u00e9_Forcier"
          ]
        ],
        [
          "Not Nominated",
          []
        ]
      ],
      [
        [
          "1991 ( 64th )",
          [
            "/wiki/1991_in_film",
            "/wiki/64th_Academy_Awards"
          ]
        ],
        [
          "A Bullet in the Head",
          [
            "/wiki/A_Bullet_in_the_Head_(1990_film)"
          ]
        ],
        [
          "A Bullet in the Head",
          []
        ],
        [
          "Attila Bertalan",
          [
            "/wiki/Attila_Bertalan"
          ]
        ],
        [
          "Not Nominated",
          []
        ]
      ],
      [
        [
          "1992 ( 65th )",
          [
            "/wiki/1992_in_film",
            "/wiki/65th_Academy_Awards"
          ]
        ],
        [
          "L\u00e9olo",
          [
            "/wiki/L\u00e9olo"
          ]
        ],
        [
          "L\u00e9olo",
          []
        ],
        [
          "Jean-Claude Lauzon",
          [
            "/wiki/Jean-Claude_Lauzon"
          ]
        ],
        [
          "Not Nominated",
          []
        ]
      ],
      [
        [
          "1993 ( 66th )",
          [
            "/wiki/1993_in_film",
            "/wiki/66th_Academy_Awards"
          ]
        ],
        [
          "The Sex of the Stars",
          [
            "/wiki/The_Sex_of_the_Stars"
          ]
        ],
        [
          "Le Sexe des \u00e9toiles",
          []
        ],
        [
          "Paule Baillargeon",
          [
            "/wiki/Paule_Baillargeon"
          ]
        ],
        [
          "Not Nominated",
          []
        ]
      ],
      [
        [
          "1994 ( 67th )",
          [
            "/wiki/1994_in_film",
            "/wiki/67th_Academy_Awards"
          ]
        ],
        [
          "My Friend Max",
          [
            "/wiki/My_Friend_Max"
          ]
        ],
        [
          "Mon amie Max",
          []
        ],
        [
          "Michel Brault",
          [
            "/wiki/Michel_Brault"
          ]
        ],
        [
          "Not Nominated",
          []
        ]
      ]
    ],
    "section_title": "Submissions",
    "section_text": "The Academy of Motion Picture Arts and Sciences has invited the film industries of various countries to submit their best film for the Academy Award for Best Foreign Language Film since 1956 . [ 4 ] The Foreign Language Film Award Committee oversees the process and reviews all the submitted films . Following this , they vote via secret ballot to determine the five nominees for the award . [ 3 ] Below is a list of the films that have been submitted by Canada for review by the Academy for the award by year and the respective Academy Awards ceremony . With two exceptions ( 2001 's Inuktitut Atanarjuat and 2005 's Hindi Water ) , all submissions were Qu\u00e9b\u00e9cois films . All of these were in French , except for A Bullet in the Head which was spoken entirely in an invented language . [ 10 ] Other French-language submissions have featured a substantial amount of Inuktitut ( The Necessities of Life ) , Lingala ( War Witch ) , Yiddish ( Felix and Meira ) , [ 11 ] and Mohawk and Algonquin ( Hochelaga , Land of Souls ) . [ 12 ]",
    "uid": "List_of_Canadian_submissions_for_the_Academy_Award_for_Best_Foreign_Language_Film_0",
    "intro": "Canada has submitted films for the Academy Award for Best International Feature Film[nb 1] since 1971. The award is handed out annually by the United States Academy of Motion Picture Arts and Sciences to a feature-length motion picture produced outside the United States that contains primarily non-English dialogue. It was not created until the 1956 Academy Awards, in which a competitive Academy Award of Merit, known as the Best Foreign Language Film Award, was created for non-English speaking films, and has been given annually since. As of 2019[update], seven Canadian films have been nominated, including one winner, for the Academy Award for Best Foreign Language Film. Of these films, three have been directed by Denys Arcand: Jesus of Montreal, nominated at the 62nd Academy Awards; The Decline of the American Empire, nominated at the 59th Academy Awards; and its sequel, The Barbarian Invasions, which was the winner at the 76th Academy Awards. Arcand's Days of Darkness was shortlisted for the Oscar, but was not nominated. The other four Canadian directors to have their films nominated are Deepa Mehta for Water at the 79th Academy Awards, Denis Villeneuve for Incendies at the 83rd Academy Awards, Philippe Falardeau for Monsieur Lazhar at the 84th Academy Awards, and Kim Nguyen for War Witch at the 85th Academy Awards. Of the 45 films selected to date as Canada's submission to the Academy Awards, 18 of them have also won the Academy of Canadian Cinema and Television Award for Best Motion Picture."
  }
}