{
  "Cinema_Audio_Society_Award_for_Outstanding_Achievement_in_Sound_Mixing_for_a_Motion_Picture_\u2013_Animated_0": {
    "url": "https://en.wikipedia.org/wiki/Cinema_Audio_Society_Award_for_Outstanding_Achievement_in_Sound_Mixing_for_a_Motion_Picture_\u2013_Animated",
    "title": "Cinema Audio Society Award for Outstanding Achievement in Sound Mixing for a Motion Picture \u2013 Animated",
    "header": [
      [
        "Year",
        []
      ],
      [
        "Film",
        []
      ],
      [
        "Nominees",
        []
      ]
    ],
    "data": [
      [
        [
          "1993 ( 1st )",
          []
        ],
        [
          "The Fugitive",
          [
            "/wiki/The_Fugitive_(1993_film)"
          ]
        ],
        [
          "Donald O. Mitchell , Michael Herbick , Frank A. Monta\u00f1o ( re-recording mixers ) ; Scott D. Smith ( production mixer )",
          [
            "/wiki/Donald_O._Mitchell",
            "/wiki/Michael_Herbick",
            "/wiki/Frank_A._Monta\u00f1o",
            "/wiki/Scott_D._Smith"
          ]
        ]
      ],
      [
        [
          "1993 ( 1st )",
          []
        ],
        [
          "Cliffhanger",
          [
            "/wiki/Cliffhanger_(film)"
          ]
        ],
        [
          "Tim Cooney ( production mixer ) ; Bob Beemer , Michael Minkler ( re-recording mixers )",
          [
            "/wiki/Tim_Cooney_(sound_engineer)",
            "/wiki/Bob_Beemer",
            "/wiki/Michael_Minkler"
          ]
        ]
      ],
      [
        [
          "1993 ( 1st )",
          []
        ],
        [
          "In the Line of Fire",
          [
            "/wiki/In_the_Line_of_Fire"
          ]
        ],
        [
          "Willie D. Burton ( production mixer ) ; Kevin O'Connell , Rick Kline ( re-recording mixers )",
          [
            "/wiki/Willie_D._Burton",
            "/wiki/Kevin_O'Connell_(sound_mixer)",
            "/wiki/Rick_Kline"
          ]
        ]
      ],
      [
        [
          "1993 ( 1st )",
          []
        ],
        [
          "Jurassic Park",
          [
            "/wiki/Jurassic_Park_(film)"
          ]
        ],
        [
          "Ron Judkins ( production mixer ) ; Gary Rydstrom , Gary Summers , Shawn Murphy ( re-recording mixers )",
          [
            "/wiki/Ron_Judkins",
            "/wiki/Gary_Rydstrom",
            "/wiki/Gary_Summers",
            "/wiki/Shawn_Murphy_(sound_engineer)"
          ]
        ]
      ],
      [
        [
          "1993 ( 1st )",
          []
        ],
        [
          "Schindler 's List",
          [
            "/wiki/Schindler's_List"
          ]
        ],
        [
          "Ron Judkins ( production mixer ) ; Andy Nelson , Steve Pederson , Scott Millan ( re-recording mixers )",
          [
            "/wiki/Ron_Judkins",
            "/wiki/Andy_Nelson_(sound_engineer)",
            "/wiki/Steve_Pederson_(sound_engineer)",
            "/wiki/Scott_Millan"
          ]
        ]
      ],
      [
        [
          "1994 ( 2nd )",
          []
        ],
        [
          "Forrest Gump",
          [
            "/wiki/Forrest_Gump"
          ]
        ],
        [
          "William B. Kaplan ( production mixer ) ; Randy Thom , Tom Johnson , Dennis S. Sands ( re-recording mixers )",
          [
            "/wiki/William_B._Kaplan",
            "/wiki/Randy_Thom",
            "/wiki/Tom_Johnson_(sound_engineer)",
            "/wiki/Dennis_S._Sands"
          ]
        ]
      ],
      [
        [
          "1994 ( 2nd )",
          []
        ],
        [
          "Clear and Present Danger",
          [
            "/wiki/Clear_and_Present_Danger_(film)"
          ]
        ],
        [
          "Art Rochester ( production mixer ) ; Donald O. Mitchell , Michael Herbick , Frank A. Monta\u00f1o ( re-recording mixers )",
          [
            "/wiki/Art_Rochester",
            "/wiki/Donald_O._Mitchell",
            "/wiki/Michael_Herbick",
            "/wiki/Frank_A._Monta\u00f1o"
          ]
        ]
      ],
      [
        [
          "1994 ( 2nd )",
          []
        ],
        [
          "The Lion King",
          [
            "/wiki/The_Lion_King"
          ]
        ],
        [
          "Doc Kane ( original dialogue recording ) ; Terry Porter , Mel Metcalfe , David J. Hudson ( re-recording mixers )",
          [
            "/wiki/Doc_Kane",
            "/wiki/Terry_Porter_(sound_engineer)",
            "/wiki/Mel_Metcalfe",
            "/wiki/David_J._Hudson"
          ]
        ]
      ],
      [
        [
          "1994 ( 2nd )",
          []
        ],
        [
          "Speed",
          [
            "/wiki/Speed_(1994_film)"
          ]
        ],
        [
          "David MacMillan ( production mixer ) ; Gregg Landaker , Steve Maslow , Bob Beemer ( re-recording mixers )",
          [
            "/wiki/David_MacMillan_(sound_engineer)",
            "/wiki/Gregg_Landaker",
            "/wiki/Steve_Maslow",
            "/wiki/Bob_Beemer"
          ]
        ]
      ],
      [
        [
          "1994 ( 2nd )",
          []
        ],
        [
          "True Lies",
          [
            "/wiki/True_Lies"
          ]
        ],
        [
          "Lee Orloff ( production mixer ) ; Michael Minkler , Bob Beemer ( re-recording mixers )",
          [
            "/wiki/Lee_Orloff",
            "/wiki/Michael_Minkler",
            "/wiki/Bob_Beemer"
          ]
        ]
      ],
      [
        [
          "1995 ( 3rd )",
          []
        ],
        [
          "Apollo 13",
          [
            "/wiki/Apollo_13_(film)"
          ]
        ],
        [
          "David MacMillan ( production mixer ) ; Rick Dior , Steve Pederson , Scott Millan ( re-recording mixers )",
          [
            "/wiki/David_MacMillan_(sound_engineer)",
            "/wiki/Rick_Dior",
            "/wiki/Steve_Pederson_(sound_engineer)",
            "/wiki/Scott_Millan"
          ]
        ]
      ],
      [
        [
          "1995 ( 3rd )",
          []
        ],
        [
          "Braveheart",
          [
            "/wiki/Braveheart"
          ]
        ],
        [
          "Brian Simmons ( production mixer ) ; Andy Nelson , Scott Millan , Anna Behlmer ( re-recording mixers )",
          [
            "/wiki/Brian_Simmons_(sound_engineer)",
            "/wiki/Andy_Nelson_(sound_engineer)",
            "/wiki/Scott_Millan",
            "/wiki/Anna_Behlmer"
          ]
        ]
      ],
      [
        [
          "1995 ( 3rd )",
          []
        ],
        [
          "Crimson Tide",
          [
            "/wiki/Crimson_Tide_(film)"
          ]
        ],
        [
          "William B. Kaplan ( production mixer ) ; Kevin O'Connell , Rick Kline , Gregory H. Watkins ( re-recording mixers )",
          [
            "/wiki/William_B._Kaplan",
            "/wiki/Kevin_O'Connell_(sound_mixer)",
            "/wiki/Rick_Kline",
            "/wiki/Gregory_H._Watkins"
          ]
        ]
      ],
      [
        [
          "1995 ( 3rd )",
          []
        ],
        [
          "Heat",
          [
            "/wiki/Heat_(1995_film)"
          ]
        ],
        [
          "Lee Orloff ( production mixer ) ; Chris Jenkins , Ron Bartlett , Mark Smith ( re-recording mixers )",
          [
            "/wiki/Lee_Orloff",
            "/wiki/Chris_Jenkins_(sound_engineer)",
            "/wiki/Ron_Bartlett",
            "/wiki/Mark_Smith_(sound_engineer)"
          ]
        ]
      ],
      [
        [
          "1995 ( 3rd )",
          []
        ],
        [
          "Jumanji",
          [
            "/wiki/Jumanji"
          ]
        ],
        [
          "Rob Young ( production mixer ) ; Randy Thom , Gary Summers , Shawn Murphy ( re-recording mixers )",
          [
            "/wiki/Rob_Young_(sound_engineer)",
            "/wiki/Randy_Thom",
            "/wiki/Gary_Summers",
            "/wiki/Shawn_Murphy_(sound_engineer)"
          ]
        ]
      ],
      [
        [
          "1996 ( 4th )",
          []
        ],
        [
          "The English Patient",
          [
            "/wiki/The_English_Patient_(film)"
          ]
        ],
        [
          "Christopher Newman ( production mixer ) ; Walter Murch , Mark Berger , David Parker ( re-recording mixers )",
          [
            "/wiki/Chris_Newman_(sound_engineer)",
            "/wiki/Walter_Murch",
            "/wiki/Mark_Berger_(sound_engineer)",
            "/wiki/David_Parker_(sound_engineer)"
          ]
        ]
      ],
      [
        [
          "1996 ( 4th )",
          []
        ],
        [
          "The Birdcage",
          [
            "/wiki/The_Birdcage"
          ]
        ],
        [
          "Gene Cantamessa ( production mixer ) , Lee Dichter ( re-recording mixer )",
          [
            "/wiki/Gene_Cantamessa"
          ]
        ]
      ],
      [
        [
          "1996 ( 4th )",
          []
        ],
        [
          "Independence Day",
          [
            "/wiki/Independence_Day_(1996_film)"
          ]
        ],
        [
          "Jeff Wexler ( production mixer ) ; Chris Carpenter , Bob Beemer , Bill W. Benton ( re-recording mixers )",
          [
            "/wiki/Jeff_Wexler",
            "/wiki/Chris_Carpenter_(sound_engineer)",
            "/wiki/Bob_Beemer",
            "/wiki/Bill_W._Benton"
          ]
        ]
      ],
      [
        [
          "1996 ( 4th )",
          []
        ],
        [
          "The Rock",
          [
            "/wiki/The_Rock_(film)"
          ]
        ],
        [
          "Keith A. Wester ( production mixer ) ; Kevin O'Connell , Greg P. Russell ( re-recording mixers )",
          [
            "/wiki/Keith_A._Wester",
            "/wiki/Kevin_O'Connell_(sound_mixer)",
            "/wiki/Greg_P._Russell"
          ]
        ]
      ],
      [
        [
          "1996 ( 4th )",
          []
        ],
        [
          "Twister",
          [
            "/wiki/Twister_(1996_film)"
          ]
        ],
        [
          "Geoffrey Patterson ( production mixer ) ; Steve Maslow , Gregg Landaker , Kevin O'Connell ( re-recording mixers )",
          [
            "/wiki/Geoffrey_Patterson",
            "/wiki/Steve_Maslow",
            "/wiki/Gregg_Landaker",
            "/wiki/Kevin_O'Connell_(sound_mixer)"
          ]
        ]
      ]
    ],
    "section_title": "Winners and nominees -- 1990s",
    "section_text": "Outstanding Achievement in Sound Mixing for Motion Pictures",
    "uid": "Cinema_Audio_Society_Award_for_Outstanding_Achievement_in_Sound_Mixing_for_a_Motion_Picture_\u2013_Animated_0",
    "intro": "The Cinema Audio Society Award for Outstanding Achievement in Sound Mixing for a Motion Picture - Animated is an annual award given by the Cinema Audio Society to live action motion picture sound mixer for their outstanding achievements in sound mixing. The award came to its current title in 2013, when feature motion pictures were separated into two categories; achievement in live action sound mixing, and achievement in animated sound mixing (later, documentary features would get their own category as well). Before this, the category was labeled Outstanding Achievement in Sound Mixing for Motion Pictures, and was given annually starting in 1994 (for films released the previous year)."
  }
}