{
  "List_of_bridges_documented_by_the_Historic_American_Engineering_Record_in_Rhode_Island_0": {
    "url": "https://en.wikipedia.org/wiki/List_of_bridges_documented_by_the_Historic_American_Engineering_Record_in_Rhode_Island",
    "title": "List of bridges documented by the Historic American Engineering Record in Rhode Island",
    "header": [
      [
        "Survey No",
        []
      ],
      [
        "Name ( as assigned by HAER )",
        []
      ],
      [
        "Built",
        []
      ],
      [
        "Documented",
        []
      ],
      [
        "Carries",
        []
      ],
      [
        "Crosses",
        []
      ],
      [
        "Location",
        []
      ],
      [
        "County",
        []
      ]
    ],
    "data": [
      [
        [
          "RI-14",
          []
        ],
        [
          "Union Station Viaduct ( demolished )",
          [
            "/wiki/Union_Station_(Providence)"
          ]
        ],
        [
          "1893",
          []
        ],
        [
          "1984",
          []
        ],
        [
          "Former New York , New Haven and Hartford Railroad",
          [
            "/wiki/New_York,_New_Haven_and_Hartford_Railroad"
          ]
        ],
        [
          "Gaspee , Francis , Promenade , and Canal Streets",
          []
        ],
        [
          "Providence",
          [
            "/wiki/Providence,_Rhode_Island"
          ]
        ],
        [
          "Providence",
          [
            "/wiki/Providence_County,_Rhode_Island"
          ]
        ]
      ],
      [
        [
          "RI-17",
          []
        ],
        [
          "Exchange Bridge ( demolished )",
          []
        ],
        [
          "1896",
          []
        ],
        [
          "1984",
          []
        ],
        [
          "",
          []
        ],
        [
          "Providence River",
          [
            "/wiki/Providence_River"
          ]
        ],
        [
          "Providence",
          [
            "/wiki/Providence,_Rhode_Island"
          ]
        ],
        [
          "Providence",
          [
            "/wiki/Providence_County,_Rhode_Island"
          ]
        ]
      ],
      [
        [
          "RI-21",
          []
        ],
        [
          "Albion Bridge",
          [
            "/wiki/Albion,_Rhode_Island"
          ]
        ],
        [
          "",
          []
        ],
        [
          "1988",
          []
        ],
        [
          "School Street",
          []
        ],
        [
          "Blackstone River",
          [
            "/wiki/Blackstone_River"
          ]
        ],
        [
          "Cumberland and Lincoln",
          [
            "/wiki/Cumberland,_Rhode_Island",
            "/wiki/Lincoln,_Rhode_Island"
          ]
        ],
        [
          "Providence",
          [
            "/wiki/Providence_County,_Rhode_Island"
          ]
        ]
      ],
      [
        [
          "RI-22",
          []
        ],
        [
          "Albion Trench Bridge",
          [
            "/wiki/Albion,_Rhode_Island"
          ]
        ],
        [
          "",
          []
        ],
        [
          "1988",
          []
        ],
        [
          "School Street",
          []
        ],
        [
          "Albion Mill Race",
          []
        ],
        [
          "Lincoln",
          [
            "/wiki/Lincoln,_Rhode_Island"
          ]
        ],
        [
          "Providence",
          [
            "/wiki/Providence_County,_Rhode_Island"
          ]
        ]
      ],
      [
        [
          "RI-25",
          []
        ],
        [
          "Stillwater Road Bridge ( demolished )",
          []
        ],
        [
          "1886",
          []
        ],
        [
          "1989",
          []
        ],
        [
          "Stillwater Road",
          []
        ],
        [
          "Woonasquatucket River",
          [
            "/wiki/Woonasquatucket_River"
          ]
        ],
        [
          "Smithfield",
          [
            "/wiki/Smithfield,_Rhode_Island"
          ]
        ],
        [
          "Providence",
          [
            "/wiki/Providence_County,_Rhode_Island"
          ]
        ]
      ],
      [
        [
          "RI-28",
          []
        ],
        [
          "Woonasquatucket Bridge ( demolished )",
          []
        ],
        [
          "1893",
          []
        ],
        [
          "1983",
          []
        ],
        [
          "",
          []
        ],
        [
          "Woonasquatucket River",
          [
            "/wiki/Woonasquatucket_River"
          ]
        ],
        [
          "Providence",
          [
            "/wiki/Providence,_Rhode_Island"
          ]
        ],
        [
          "Providence",
          [
            "/wiki/Providence_County,_Rhode_Island"
          ]
        ]
      ],
      [
        [
          "RI-30",
          []
        ],
        [
          "Promenade Street Bridge ( demolished )",
          []
        ],
        [
          "1894",
          []
        ],
        [
          "1983",
          []
        ],
        [
          "Former Providence and Worcester Railroad",
          [
            "/wiki/Providence_and_Worcester_Railroad"
          ]
        ],
        [
          "Woonasquatucket and Moshassuck rivers",
          [
            "/wiki/Woonasquatucket_River",
            "/wiki/Moshassuck_River"
          ]
        ],
        [
          "Providence",
          [
            "/wiki/Providence,_Rhode_Island"
          ]
        ],
        [
          "Providence",
          [
            "/wiki/Providence_County,_Rhode_Island"
          ]
        ]
      ],
      [
        [
          "RI-31",
          []
        ],
        [
          "Post Office Covered Walkway ( demolished )",
          []
        ],
        [
          "",
          []
        ],
        [
          "1983",
          []
        ],
        [
          "",
          []
        ],
        [
          "",
          []
        ],
        [
          "Providence",
          [
            "/wiki/Providence,_Rhode_Island"
          ]
        ],
        [
          "Providence",
          [
            "/wiki/Providence_County,_Rhode_Island"
          ]
        ]
      ],
      [
        [
          "RI-32",
          []
        ],
        [
          "Gaspee Street Bridge ( demolished )",
          []
        ],
        [
          "1894",
          []
        ],
        [
          "1983",
          []
        ],
        [
          "Former New York , New Haven and Hartford Railroad",
          [
            "/wiki/New_York,_New_Haven_and_Hartford_Railroad"
          ]
        ],
        [
          "Gaspee Street",
          []
        ],
        [
          "Providence",
          [
            "/wiki/Providence,_Rhode_Island"
          ]
        ],
        [
          "Providence",
          [
            "/wiki/Providence_County,_Rhode_Island"
          ]
        ]
      ],
      [
        [
          "RI-33",
          []
        ],
        [
          "Francis Street Bridge ( demolished )",
          []
        ],
        [
          "1894",
          []
        ],
        [
          "1983",
          []
        ],
        [
          "Former New York , New Haven and Hartford Railroad",
          [
            "/wiki/New_York,_New_Haven_and_Hartford_Railroad"
          ]
        ],
        [
          "Francis Street",
          []
        ],
        [
          "Providence",
          [
            "/wiki/Providence,_Rhode_Island"
          ]
        ],
        [
          "Providence",
          [
            "/wiki/Providence_County,_Rhode_Island"
          ]
        ]
      ],
      [
        [
          "RI-34",
          []
        ],
        [
          "Charles Street Bridge ( replaced )",
          []
        ],
        [
          "1894",
          []
        ],
        [
          "1991",
          []
        ],
        [
          "RI 246 ( Charles Street )",
          [
            "/wiki/Rhode_Island_Route_246"
          ]
        ],
        [
          "West River",
          [
            "/wiki/West_River_(Rhode_Island)"
          ]
        ],
        [
          "Providence",
          [
            "/wiki/Providence,_Rhode_Island"
          ]
        ],
        [
          "Providence",
          [
            "/wiki/Providence_County,_Rhode_Island"
          ]
        ]
      ],
      [
        [
          "RI-39",
          []
        ],
        [
          "White Rock Bridge ( replaced )",
          []
        ],
        [
          "1906",
          []
        ],
        [
          "1994",
          []
        ],
        [
          "Bridge Road",
          []
        ],
        [
          "Pawcatuck River and White Rock Canal",
          [
            "/wiki/Pawcatuck_River"
          ]
        ],
        [
          "Westerly",
          [
            "/wiki/Westerly,_Rhode_Island"
          ]
        ],
        [
          "Washington",
          [
            "/wiki/Washington_County,_Rhode_Island"
          ]
        ]
      ],
      [
        [
          "RI-40",
          []
        ],
        [
          "Warren Bridge ( replaced )",
          []
        ],
        [
          "1916",
          []
        ],
        [
          "1994",
          []
        ],
        [
          "RI 114",
          [
            "/wiki/Rhode_Island_Route_114"
          ]
        ],
        [
          "Palmer River",
          [
            "/wiki/Palmer_River_(Massachusetts\u2013Rhode_Island)"
          ]
        ],
        [
          "Warren",
          [
            "/wiki/Warren,_Rhode_Island"
          ]
        ],
        [
          "Bristol",
          [
            "/wiki/Bristol_County,_Rhode_Island"
          ]
        ]
      ],
      [
        [
          "RI-41",
          []
        ],
        [
          "Barrington Bridge ( replaced )",
          []
        ],
        [
          "1916",
          []
        ],
        [
          "1994",
          []
        ],
        [
          "RI 114",
          [
            "/wiki/Rhode_Island_Route_114"
          ]
        ],
        [
          "Barrington River",
          [
            "/wiki/Barrington_River_(Rhode_Island)"
          ]
        ],
        [
          "Barrington",
          [
            "/wiki/Barrington,_Rhode_Island"
          ]
        ],
        [
          "Bristol",
          [
            "/wiki/Bristol_County,_Rhode_Island"
          ]
        ]
      ],
      [
        [
          "RI-42",
          []
        ],
        [
          "New Shoreham Bridge ( replaced )",
          []
        ],
        [
          "1917",
          []
        ],
        [
          "1996",
          []
        ],
        [
          "Beach Avenue",
          []
        ],
        [
          "Harbor Pond",
          []
        ],
        [
          "New Shoreham",
          [
            "/wiki/New_Shoreham,_Rhode_Island"
          ]
        ],
        [
          "Washington",
          [
            "/wiki/Washington_County,_Rhode_Island"
          ]
        ]
      ],
      [
        [
          "RI-43",
          []
        ],
        [
          "Ashton Viaduct ( replaced )",
          []
        ],
        [
          "1945",
          []
        ],
        [
          "1996",
          []
        ],
        [
          "RI 116 ( George Washington Highway )",
          [
            "/wiki/Rhode_Island_Route_116"
          ]
        ],
        [
          "Blackstone River",
          [
            "/wiki/Blackstone_River"
          ]
        ],
        [
          "Ashton and Lincoln",
          [
            "/wiki/Ashton_Historic_District_(Cumberland,_Rhode_Island)",
            "/wiki/Lincoln,_Rhode_Island"
          ]
        ],
        [
          "Providence",
          [
            "/wiki/Providence_County,_Rhode_Island"
          ]
        ]
      ],
      [
        [
          "RI-44",
          []
        ],
        [
          "Pawtuxet River Railroad Bridge ( altered )",
          []
        ],
        [
          "1906",
          []
        ],
        [
          "1996",
          []
        ],
        [
          "Former New York , New Haven and Hartford Railroad",
          [
            "/wiki/New_York,_New_Haven_and_Hartford_Railroad"
          ]
        ],
        [
          "Pawtuxet River and Wellington Avenue",
          [
            "/wiki/Pawtuxet_River"
          ]
        ],
        [
          "Cranston and Warwick",
          [
            "/wiki/Cranston,_Rhode_Island",
            "/wiki/Warwick,_Rhode_Island"
          ]
        ],
        [
          "Providence and Kent",
          [
            "/wiki/Providence_County,_Rhode_Island",
            "/wiki/Kent_County,_Rhode_Island"
          ]
        ]
      ],
      [
        [
          "RI-45",
          []
        ],
        [
          "Court Street Bridge ( replaced )",
          []
        ],
        [
          "1895",
          []
        ],
        [
          "1996",
          []
        ],
        [
          "RI 104 ( Court Street )",
          [
            "/wiki/Rhode_Island_Route_104"
          ]
        ],
        [
          "Blackstone River and Truman Drive",
          [
            "/wiki/Blackstone_River"
          ]
        ],
        [
          "Woonsocket",
          [
            "/wiki/Woonsocket,_Rhode_Island"
          ]
        ],
        [
          "Providence",
          [
            "/wiki/Providence_County,_Rhode_Island"
          ]
        ]
      ],
      [
        [
          "RI-46",
          []
        ],
        [
          "West Street Bridge ( demolished )",
          []
        ],
        [
          "1913",
          []
        ],
        [
          "",
          []
        ],
        [
          "West Street",
          []
        ],
        [
          "Former New York , New Haven and Hartford Railroad",
          [
            "/wiki/New_York,_New_Haven_and_Hartford_Railroad"
          ]
        ],
        [
          "Westerly",
          [
            "/wiki/Westerly,_Rhode_Island"
          ]
        ],
        [
          "Washington",
          [
            "/wiki/Washington_County,_Rhode_Island"
          ]
        ]
      ],
      [
        [
          "RI-47",
          []
        ],
        [
          "Main Street Bridge",
          []
        ],
        [
          "1936",
          []
        ],
        [
          "1996",
          []
        ],
        [
          "RI 138 ( Main Street )",
          [
            "/wiki/Rhode_Island_Route_138"
          ]
        ],
        [
          "Former New York , New Haven and Hartford Railroad",
          [
            "/wiki/New_York,_New_Haven_and_Hartford_Railroad"
          ]
        ],
        [
          "West Kingston",
          [
            "/wiki/West_Kingston,_Rhode_Island"
          ]
        ],
        [
          "Washington",
          [
            "/wiki/Washington_County,_Rhode_Island"
          ]
        ]
      ]
    ],
    "section_title": "Bridges",
    "section_text": "",
    "uid": "List_of_bridges_documented_by_the_Historic_American_Engineering_Record_in_Rhode_Island_0",
    "intro": "This is a list of bridges documented by the Historic American Engineering Record in the U.S. state of Rhode Island."
  }
}