{
  "Newspaper_endorsements_for_Barack_Obama_in_the_2008_United_States_presidential_election_0": {
    "url": "https://en.wikipedia.org/wiki/Newspaper_endorsements_for_Barack_Obama_in_the_2008_United_States_presidential_election",
    "title": "Newspaper endorsements for Barack Obama in the 2008 United States presidential election",
    "header": [
      [
        "Newspaper",
        []
      ],
      [
        "Largest Reported Circulation",
        []
      ],
      [
        "Paid or Free",
        []
      ],
      [
        "State",
        []
      ],
      [
        "2004 endorsement",
        [
          "/wiki/Newspaper_endorsements_in_the_United_States_presidential_election,_2004"
        ]
      ]
    ],
    "data": [
      [
        [
          "The Seattle Times",
          [
            "/wiki/The_Seattle_Times"
          ]
        ],
        [
          "409,231",
          []
        ],
        [
          "Paid",
          []
        ],
        [
          "Washington",
          [
            "/wiki/Washington_(state)"
          ]
        ],
        [
          "Kerry",
          []
        ]
      ],
      [
        [
          "The Columbian ( Vancouver )",
          [
            "/wiki/The_Columbian"
          ]
        ],
        [
          "50,277",
          []
        ],
        [
          "Paid",
          []
        ],
        [
          "Washington",
          [
            "/wiki/Washington_(state)"
          ]
        ],
        [
          "Bush",
          []
        ]
      ],
      [
        [
          "The Modesto Bee",
          [
            "/wiki/The_Modesto_Bee"
          ]
        ],
        [
          "83,576",
          []
        ],
        [
          "Paid",
          []
        ],
        [
          "California",
          [
            "/wiki/California"
          ]
        ],
        [
          "Kerry",
          []
        ]
      ],
      [
        [
          "San Mateo County Times",
          [
            "/wiki/San_Mateo_County_Times"
          ]
        ],
        [
          "28,788",
          []
        ],
        [
          "Paid",
          []
        ],
        [
          "California",
          [
            "/wiki/California"
          ]
        ],
        [
          "Kerry",
          []
        ]
      ],
      [
        [
          "Fort Wayne Journal Gazette",
          [
            "/wiki/The_Journal_Gazette"
          ]
        ],
        [
          "111,485",
          []
        ],
        [
          "Paid",
          []
        ],
        [
          "Indiana",
          [
            "/wiki/Indiana"
          ]
        ],
        [
          "Kerry",
          []
        ]
      ],
      [
        [
          "Tri Valley Herald ( Pleasanton )",
          [
            "/wiki/Bay_Area_News_Group"
          ]
        ],
        [
          "30,243",
          []
        ],
        [
          "Paid",
          []
        ],
        [
          "California",
          [
            "/wiki/California"
          ]
        ],
        [
          "Bush",
          []
        ]
      ],
      [
        [
          "The Lufkin Daily News",
          [
            "/wiki/The_Lufkin_Daily_News"
          ]
        ],
        [
          "13,618",
          []
        ],
        [
          "Paid",
          []
        ],
        [
          "Texas",
          [
            "/wiki/Texas"
          ]
        ],
        [
          "Kerry",
          []
        ]
      ],
      [
        [
          "Oakland Tribune",
          [
            "/wiki/Oakland_Tribune"
          ]
        ],
        [
          "96,535",
          []
        ],
        [
          "Paid",
          []
        ],
        [
          "California",
          [
            "/wiki/California"
          ]
        ],
        [
          "Kerry",
          []
        ]
      ],
      [
        [
          "Honolulu Star-Bulletin",
          [
            "/wiki/Honolulu_Star-Bulletin"
          ]
        ],
        [
          "63,692",
          []
        ],
        [
          "Paid",
          []
        ],
        [
          "Hawaii",
          [
            "/wiki/Hawaii"
          ]
        ],
        [
          "Kerry",
          []
        ]
      ],
      [
        [
          "Chattanooga Times Free Press",
          [
            "/wiki/Chattanooga_Times_Free_Press"
          ]
        ],
        [
          "95,039",
          []
        ],
        [
          "Paid",
          []
        ],
        [
          "Tennessee",
          [
            "/wiki/Tennessee"
          ]
        ],
        [
          "Kerry",
          []
        ]
      ],
      [
        [
          "Durango Herald",
          [
            "/wiki/The_Durango_Herald"
          ]
        ],
        [
          "9,250",
          []
        ],
        [
          "Paid",
          []
        ],
        [
          "Colorado",
          [
            "/wiki/Colorado"
          ]
        ],
        [
          "Kerry",
          []
        ]
      ],
      [
        [
          "The Commercial Appeal ( Memphis )",
          [
            "/wiki/The_Commercial_Appeal"
          ]
        ],
        [
          "188,040",
          []
        ],
        [
          "Paid",
          []
        ],
        [
          "Tennessee",
          [
            "/wiki/Tennessee"
          ]
        ],
        [
          "Kerry",
          []
        ]
      ],
      [
        [
          "The Standard-Times ( New Bedford )",
          [
            "/wiki/The_Standard-Times_(New_Bedford)"
          ]
        ],
        [
          "30,549",
          []
        ],
        [
          "Paid",
          []
        ],
        [
          "Massachusetts",
          [
            "/wiki/Massachusetts"
          ]
        ],
        [
          "Kerry",
          []
        ]
      ],
      [
        [
          "The Record ( Stockton )",
          [
            "/wiki/The_Record_(Stockton,_California)"
          ]
        ],
        [
          "62,585",
          []
        ],
        [
          "Paid",
          []
        ],
        [
          "California",
          [
            "/wiki/California"
          ]
        ],
        [
          "Bush",
          []
        ]
      ],
      [
        [
          "The Repository ( Canton )",
          [
            "/wiki/The_Repository"
          ]
        ],
        [
          "78,066",
          []
        ],
        [
          "Paid",
          []
        ],
        [
          "Ohio",
          [
            "/wiki/Ohio"
          ]
        ],
        [
          "Bush",
          []
        ]
      ],
      [
        [
          "San Jose Mercury News",
          [
            "/wiki/The_Mercury_News"
          ]
        ],
        [
          "251,851",
          []
        ],
        [
          "Paid",
          []
        ],
        [
          "California",
          [
            "/wiki/California"
          ]
        ],
        [
          "Kerry",
          []
        ]
      ],
      [
        [
          "Seattle Post-Intelligencer",
          [
            "/wiki/Seattle_Post-Intelligencer"
          ]
        ],
        [
          "129,563",
          []
        ],
        [
          "Paid",
          []
        ],
        [
          "Washington",
          [
            "/wiki/Washington_(state)"
          ]
        ],
        [
          "Kerry",
          []
        ]
      ],
      [
        [
          "The Santa Fe New Mexican",
          [
            "/wiki/The_Santa_Fe_New_Mexican"
          ]
        ],
        [
          "26,114",
          []
        ],
        [
          "Paid",
          []
        ],
        [
          "New Mexico",
          [
            "/wiki/New_Mexico"
          ]
        ],
        [
          "Kerry",
          []
        ]
      ],
      [
        [
          "The Charleston Gazette",
          [
            "/wiki/Charleston_Gazette-Mail"
          ]
        ],
        [
          "74,556",
          []
        ],
        [
          "Paid",
          []
        ],
        [
          "West Virginia",
          [
            "/wiki/West_Virginia"
          ]
        ],
        [
          "Kerry",
          []
        ]
      ],
      [
        [
          "St. Louis Post-Dispatch",
          [
            "/wiki/St._Louis_Post-Dispatch"
          ]
        ],
        [
          "414,564",
          []
        ],
        [
          "Paid",
          []
        ],
        [
          "Missouri",
          [
            "/wiki/Missouri"
          ]
        ],
        [
          "Kerry",
          []
        ]
      ]
    ],
    "section_title": "Daily newspapers for Obama",
    "section_text": "",
    "uid": "Newspaper_endorsements_for_Barack_Obama_in_the_2008_United_States_presidential_election_0",
    "intro": "During the 2008 United States presidential election, newspapers, magazines, and other publications made general election endorsements. As of November 4, 2008, Barack Obama had received more than twice as many publication endorsements as John McCain; in terms of circulation, the ratio was more than 3 to 1, according to the detailed tables below. In summary:\nAccording to Editor & Publisher magazine, as of November 3, 2008, there were 273 newspapers endorsing Barack Obama compared to 172 for John McCain. By comparison, the magazine reported that before election day in 2004, John Kerry received 213 endorsements compared to 205 for George W. Bush. UWIRE, in its Presidential Scorecard, reported that Barack Obama led John McCain by 94 to 2 in college newspaper endorsements, as of November 4. The Association of Alternative Newsweeklies reported that Barack Obama led John McCain by 57 to 0 in endorsements among its 123 member newspapers as of October 31, 2008. For a full list of newspapers that have endorsed John McCain, see Newspaper endorsements in the United States presidential election, 2008, for John McCain. For a list of newspapers that have chosen not to endorse a candidate, see Newspaper endorsements in the United States presidential election, 2008."
  }
}