{
  "List_of_Algerian_submissions_for_the_Academy_Award_for_Best_International_Feature_Film_0": {
    "url": "https://en.wikipedia.org/wiki/List_of_Algerian_submissions_for_the_Academy_Award_for_Best_International_Feature_Film",
    "title": "List of Algerian submissions for the Academy Award for Best International Feature Film",
    "header": [
      [
        "Year ( Ceremony )",
        []
      ],
      [
        "Film title used in nomination",
        []
      ],
      [
        "Original title",
        []
      ],
      [
        "Director",
        []
      ],
      [
        "Result",
        []
      ]
    ],
    "data": [
      [
        [
          "1969 ( 42nd )",
          [
            "/wiki/1969_in_film",
            "/wiki/42nd_Academy_Awards"
          ]
        ],
        [
          "Z",
          [
            "/wiki/Z_(1969_film)"
          ]
        ],
        [
          "Z",
          []
        ],
        [
          "Costa Gavras",
          [
            "/wiki/Costa-Gavras"
          ]
        ],
        [
          "Won Academy Award",
          []
        ]
      ],
      [
        [
          "1975 ( 48th )",
          [
            "/wiki/1975_in_film",
            "/wiki/48th_Academy_Awards"
          ]
        ],
        [
          "Chronicle of the Years of Fire",
          [
            "/wiki/Chronicle_of_the_Years_of_Fire"
          ]
        ],
        [
          "Chronique des ann\u00e9es de braise \u0648\u0642\u0627\u0626\u0639 \u0633\u0646\u064a\u0646 \u0627\u0644\u062c\u0645\u0631",
          []
        ],
        [
          "Mohammed Lakhdar-Hamina",
          [
            "/wiki/Mohammed_Lakhdar-Hamina"
          ]
        ],
        [
          "Not Nominated",
          []
        ]
      ],
      [
        [
          "1982 ( 55th )",
          [
            "/wiki/1982_in_film",
            "/wiki/55th_Academy_Awards"
          ]
        ],
        [
          "Sandstorm",
          [
            "/wiki/Sandstorm_(1982_film)"
          ]
        ],
        [
          "Vent de sable",
          []
        ],
        [
          "Mohammed Lakhdar-Hamina",
          [
            "/wiki/Mohammed_Lakhdar-Hamina"
          ]
        ],
        [
          "Not Nominated",
          []
        ]
      ],
      [
        [
          "1983 ( 56th )",
          [
            "/wiki/1983_in_film",
            "/wiki/56th_Academy_Awards"
          ]
        ],
        [
          "Le Bal",
          [
            "/wiki/Le_Bal_(1983_film)"
          ]
        ],
        [
          "Le Bal",
          []
        ],
        [
          "Ettore Scola",
          [
            "/wiki/Ettore_Scola"
          ]
        ],
        [
          "Nominated",
          []
        ]
      ],
      [
        [
          "1987 ( 60th )",
          [
            "/wiki/1987_in_film",
            "/wiki/60th_Academy_Awards"
          ]
        ],
        [
          "The Last Image",
          [
            "/wiki/The_Last_Image"
          ]
        ],
        [
          "La Derni\u00e8re image",
          []
        ],
        [
          "Mohammed Lakhdar-Hamina",
          [
            "/wiki/Mohammed_Lakhdar-Hamina"
          ]
        ],
        [
          "Not Nominated",
          []
        ]
      ],
      [
        [
          "1991 ( 64th )",
          [
            "/wiki/1991_in_film",
            "/wiki/64th_Academy_Awards"
          ]
        ],
        [
          "Cheb",
          [
            "/wiki/Cheb_(film)"
          ]
        ],
        [
          "Cheb",
          []
        ],
        [
          "Rachid Bouchareb",
          [
            "/wiki/Rachid_Bouchareb"
          ]
        ],
        [
          "Not Nominated",
          []
        ]
      ],
      [
        [
          "1994 ( 67th )",
          [
            "/wiki/1994_in_film",
            "/wiki/67th_Academy_Awards"
          ]
        ],
        [
          "Autumn : October in Algiers",
          [
            "/wiki/Autumn:_October_in_Algiers"
          ]
        ],
        [
          "Automne ... Octobre \u00e0 Alger",
          []
        ],
        [
          "Malik Lakhdar-Hamina",
          []
        ],
        [
          "Not Nominated",
          []
        ]
      ],
      [
        [
          "1995 ( 68th )",
          [
            "/wiki/1995_in_film",
            "/wiki/68th_Academy_Awards"
          ]
        ],
        [
          "Dust of Life",
          [
            "/wiki/Dust_of_Life_(1995_film)"
          ]
        ],
        [
          "Poussi\u00e8res de vie",
          [
            "/wiki/Dust_of_Life_(1995_film)"
          ]
        ],
        [
          "Rachid Bouchareb",
          [
            "/wiki/Rachid_Bouchareb"
          ]
        ],
        [
          "Nominated",
          []
        ]
      ],
      [
        [
          "1996 ( 69th )",
          [
            "/wiki/1996_in_film",
            "/wiki/69th_Academy_Awards"
          ]
        ],
        [
          "Hi Cousin !",
          [
            "/wiki/Hi_Cousin!"
          ]
        ],
        [
          "Salut cousin !",
          []
        ],
        [
          "Merzak Allouache",
          [
            "/wiki/Merzak_Allouache"
          ]
        ],
        [
          "Not Nominated",
          []
        ]
      ],
      [
        [
          "2000 ( 73rd )",
          [
            "/wiki/2000_in_film",
            "/wiki/73rd_Academy_Awards"
          ]
        ],
        [
          "Little Senegal",
          [
            "/wiki/Little_Senegal_(film)"
          ]
        ],
        [
          "Little Senegal",
          []
        ],
        [
          "Rachid Bouchareb",
          [
            "/wiki/Rachid_Bouchareb"
          ]
        ],
        [
          "Not Nominated",
          []
        ]
      ],
      [
        [
          "2001 ( 74th )",
          [
            "/wiki/2001_in_film",
            "/wiki/74th_Academy_Awards"
          ]
        ],
        [
          "Inch'Allah Dimanche",
          [
            "/wiki/Inch'Allah_Dimanche"
          ]
        ],
        [
          "Inch'Allah dimanche",
          []
        ],
        [
          "Yamina Benguigui",
          [
            "/wiki/Yamina_Benguigui"
          ]
        ],
        [
          "Not Nominated",
          []
        ]
      ],
      [
        [
          "2002 ( 75th )",
          [
            "/wiki/2002_in_film",
            "/wiki/75th_Academy_Awards"
          ]
        ],
        [
          "Rachida",
          [
            "/wiki/Rachida"
          ]
        ],
        [
          "Rachida",
          []
        ],
        [
          "Yamina Bachir Chouikh",
          [
            "/wiki/Yamina_Bachir"
          ]
        ],
        [
          "Not Nominated",
          []
        ]
      ],
      [
        [
          "2006 ( 79th )",
          [
            "/wiki/2006_in_film",
            "/wiki/79th_Academy_Awards"
          ]
        ],
        [
          "Days of Glory",
          [
            "/wiki/Days_of_Glory_(2006_film)"
          ]
        ],
        [
          "Indig\u00e8nes \u0625\u0646\u062f\u064a\u062c\u0627\u0646",
          []
        ],
        [
          "Rachid Bouchareb",
          [
            "/wiki/Rachid_Bouchareb"
          ]
        ],
        [
          "Nominated",
          []
        ]
      ],
      [
        [
          "2008 ( 81st )",
          [
            "/wiki/2008_in_film",
            "/wiki/81st_Academy_Awards"
          ]
        ],
        [
          "Masquerades",
          [
            "/wiki/Masquerades_(film)"
          ]
        ],
        [
          "Mascarades \u0645\u0633\u062e\u0631\u0629",
          []
        ],
        [
          "Lyes Salem",
          [
            "/wiki/Lyes_Salem"
          ]
        ],
        [
          "Not Nominated",
          []
        ]
      ],
      [
        [
          "2010 ( 83rd )",
          [
            "/wiki/2010_in_film",
            "/wiki/83rd_Academy_Awards"
          ]
        ],
        [
          "Outside the Law",
          [
            "/wiki/Outside_the_Law_(2010_film)"
          ]
        ],
        [
          "Hors-la-loi",
          []
        ],
        [
          "Rachid Bouchareb",
          [
            "/wiki/Rachid_Bouchareb"
          ]
        ],
        [
          "Nominated",
          []
        ]
      ],
      [
        [
          "2012 ( 85th )",
          [
            "/wiki/2012_in_film",
            "/wiki/85th_Academy_Awards"
          ]
        ],
        [
          "Zabana !",
          [
            "/wiki/Zabana!"
          ]
        ],
        [
          "\u0632\u0628\u0627\u0646\u0629",
          []
        ],
        [
          "Sa\u00efd Ould Khelifa",
          []
        ],
        [
          "Not Nominated",
          []
        ]
      ],
      [
        [
          "2015 ( 88th )",
          [
            "/wiki/2015_in_film",
            "/wiki/88th_Academy_Awards"
          ]
        ],
        [
          "Twilight of Shadows",
          [
            "/wiki/Twilight_of_Shadows"
          ]
        ],
        [
          "\u063a\u0631\u0648\u0628 \u0627\u0644\u0638\u0644\u0627\u0644",
          []
        ],
        [
          "Mohammed Lakhdar-Hamina",
          [
            "/wiki/Mohammed_Lakhdar-Hamina"
          ]
        ],
        [
          "Not Nominated",
          []
        ]
      ],
      [
        [
          "2016 ( 89th )",
          [
            "/wiki/2016_in_film",
            "/wiki/89th_Academy_Awards"
          ]
        ],
        [
          "The Well",
          [
            "/wiki/The_Well_(2015_film)"
          ]
        ],
        [
          "Le puits",
          []
        ],
        [
          "Lotfi Bouchouchi",
          []
        ],
        [
          "Not Nominated",
          []
        ]
      ],
      [
        [
          "2017 ( 90th )",
          [
            "/wiki/2017_in_film",
            "/wiki/90th_Academy_Awards"
          ]
        ],
        [
          "Road to Istanbul",
          [
            "/wiki/Road_to_Istanbul"
          ]
        ],
        [
          "La Route d'Istanbul",
          []
        ],
        [
          "Rachid Bouchareb",
          [
            "/wiki/Rachid_Bouchareb"
          ]
        ],
        [
          "Not Nominated",
          []
        ]
      ],
      [
        [
          "2018 ( 91st )",
          [
            "/wiki/2018_in_film",
            "/wiki/91st_Academy_Awards"
          ]
        ],
        [
          "Until the End of Time",
          [
            "/wiki/Until_the_End_of_Time_(film)"
          ]
        ],
        [
          "Akher Ezaman-\u0625\u0644\u0649 \u0622\u062e\u0631 \u0627\u0644\u0632\u0645\u0627\u0646",
          []
        ],
        [
          "Yasmine Chouikh",
          [
            "/wiki/Yasmine_Chouikh"
          ]
        ],
        [
          "Not Nominated",
          []
        ]
      ]
    ],
    "section_title": "Submissions",
    "section_text": "The Academy of Motion Picture Arts and Sciences has invited the film industries of various countries to submit their best film for the Academy Award for Best Foreign Language Film since 1956 . [ 4 ] The Foreign Language Film Award Committee oversees the process and reviews all the submitted films . Following this , they vote via secret ballot to determine the five nominees for the award . [ 3 ] Below is a list of the films that have been submitted by Algeria for review by the Academy for the award by year and the respective Academy Awards ceremony .",
    "uid": "List_of_Algerian_submissions_for_the_Academy_Award_for_Best_International_Feature_Film_0",
    "intro": "Algeria has submitted films for the Academy Award for Best International Feature Film[nb 1] since 1969. The award is handed out annually by the United States Academy of Motion Picture Arts and Sciences to a feature-length motion picture produced outside the United States that contains primarily non-English dialogue. It was not created until the 1956 Academy Awards, in which a competitive Academy Award of Merit, known as the Best Foreign Language Film Award, was created for non-English speaking films, and has been given annually since. As of 2019[update], four Algerian films have been nominated for Academy Award for Best Foreign Language Film, and one of these films, Costa-Gavras' Z, has won the award. The other two directors to have Algerian films accepted as nominees are Ettore Scola and Rachid Bouchareb. Scola's Le Bal was accepted as a nominee at the 56th Academy Awards. Bouchareb has had two films accepted as nominees: Dust of Life at the 68th Academy Awards and Days of Glory at the 79th Academy Awards, but neither of his other submissions were accepted as nominees."
  }
}