{
  "Screen_Actors_Guild_Award_for_Outstanding_Performance_by_a_Female_Actor_in_a_Leading_Role_2": {
    "url": "https://en.wikipedia.org/wiki/Screen_Actors_Guild_Award_for_Outstanding_Performance_by_a_Female_Actor_in_a_Leading_Role",
    "title": "Screen Actors Guild Award for Outstanding Performance by a Female Actor in a Leading Role",
    "header": [
      [
        "Year",
        []
      ],
      [
        "Nominee",
        []
      ],
      [
        "Film",
        []
      ],
      [
        "Role ( s )",
        []
      ]
    ],
    "data": [
      [
        [
          "2010 ( 17th )",
          [
            "/wiki/17th_Screen_Actors_Guild_Awards"
          ]
        ],
        [
          "Natalie Portman",
          [
            "/wiki/Natalie_Portman"
          ]
        ],
        [
          "Black Swan",
          [
            "/wiki/Black_Swan_(film)"
          ]
        ],
        [
          "Nina Sayers",
          []
        ]
      ],
      [
        [
          "2010 ( 17th )",
          [
            "/wiki/17th_Screen_Actors_Guild_Awards"
          ]
        ],
        [
          "Annette Bening",
          [
            "/wiki/Annette_Bening"
          ]
        ],
        [
          "The Kids Are All Right",
          [
            "/wiki/The_Kids_Are_All_Right_(film)"
          ]
        ],
        [
          "Dr. Nicole Nic Allgood",
          []
        ]
      ],
      [
        [
          "2010 ( 17th )",
          [
            "/wiki/17th_Screen_Actors_Guild_Awards"
          ]
        ],
        [
          "Nicole Kidman",
          [
            "/wiki/Nicole_Kidman"
          ]
        ],
        [
          "Rabbit Hole",
          [
            "/wiki/Rabbit_Hole_(film)"
          ]
        ],
        [
          "Becca Corbett",
          []
        ]
      ],
      [
        [
          "2010 ( 17th )",
          [
            "/wiki/17th_Screen_Actors_Guild_Awards"
          ]
        ],
        [
          "Jennifer Lawrence",
          [
            "/wiki/Jennifer_Lawrence"
          ]
        ],
        [
          "Winter 's Bone",
          [
            "/wiki/Winter's_Bone"
          ]
        ],
        [
          "Ree Dolly",
          []
        ]
      ],
      [
        [
          "2010 ( 17th )",
          [
            "/wiki/17th_Screen_Actors_Guild_Awards"
          ]
        ],
        [
          "Hilary Swank",
          [
            "/wiki/Hilary_Swank"
          ]
        ],
        [
          "Conviction",
          [
            "/wiki/Conviction_(2010_film)"
          ]
        ],
        [
          "Betty Anne Waters",
          []
        ]
      ],
      [
        [
          "2011 ( 18th )",
          [
            "/wiki/18th_Screen_Actors_Guild_Awards"
          ]
        ],
        [
          "Viola Davis",
          [
            "/wiki/Viola_Davis"
          ]
        ],
        [
          "The Help",
          [
            "/wiki/The_Help_(film)"
          ]
        ],
        [
          "Aibileen Clark",
          []
        ]
      ],
      [
        [
          "2011 ( 18th )",
          [
            "/wiki/18th_Screen_Actors_Guild_Awards"
          ]
        ],
        [
          "Glenn Close",
          [
            "/wiki/Glenn_Close"
          ]
        ],
        [
          "Albert Nobbs",
          [
            "/wiki/Albert_Nobbs"
          ]
        ],
        [
          "Albert Nobbs",
          []
        ]
      ],
      [
        [
          "2011 ( 18th )",
          [
            "/wiki/18th_Screen_Actors_Guild_Awards"
          ]
        ],
        [
          "Meryl Streep",
          [
            "/wiki/Meryl_Streep"
          ]
        ],
        [
          "The Iron Lady",
          [
            "/wiki/The_Iron_Lady_(film)"
          ]
        ],
        [
          "Margaret Thatcher",
          [
            "/wiki/Margaret_Thatcher"
          ]
        ]
      ],
      [
        [
          "2011 ( 18th )",
          [
            "/wiki/18th_Screen_Actors_Guild_Awards"
          ]
        ],
        [
          "Tilda Swinton",
          [
            "/wiki/Tilda_Swinton"
          ]
        ],
        [
          "We Need to Talk About Kevin",
          [
            "/wiki/We_Need_to_Talk_About_Kevin_(film)"
          ]
        ],
        [
          "Eva Khatchadourian",
          []
        ]
      ],
      [
        [
          "2011 ( 18th )",
          [
            "/wiki/18th_Screen_Actors_Guild_Awards"
          ]
        ],
        [
          "Michelle Williams",
          [
            "/wiki/Michelle_Williams_(actress)"
          ]
        ],
        [
          "My Week with Marilyn",
          [
            "/wiki/My_Week_with_Marilyn"
          ]
        ],
        [
          "Marilyn Monroe",
          [
            "/wiki/Marilyn_Monroe"
          ]
        ]
      ],
      [
        [
          "2012 ( 19th )",
          [
            "/wiki/19th_Screen_Actors_Guild_Awards"
          ]
        ],
        [
          "Jennifer Lawrence",
          [
            "/wiki/Jennifer_Lawrence"
          ]
        ],
        [
          "Silver Linings Playbook",
          [
            "/wiki/Silver_Linings_Playbook"
          ]
        ],
        [
          "Tiffany Maxwell",
          []
        ]
      ],
      [
        [
          "2012 ( 19th )",
          [
            "/wiki/19th_Screen_Actors_Guild_Awards"
          ]
        ],
        [
          "Jessica Chastain",
          [
            "/wiki/Jessica_Chastain"
          ]
        ],
        [
          "Zero Dark Thirty",
          [
            "/wiki/Zero_Dark_Thirty"
          ]
        ],
        [
          "Maya",
          []
        ]
      ],
      [
        [
          "2012 ( 19th )",
          [
            "/wiki/19th_Screen_Actors_Guild_Awards"
          ]
        ],
        [
          "Marion Cotillard",
          [
            "/wiki/Marion_Cotillard"
          ]
        ],
        [
          "Rust and Bone ( De rouille et d'os )",
          [
            "/wiki/Rust_and_Bone"
          ]
        ],
        [
          "St\u00e9phanie",
          []
        ]
      ],
      [
        [
          "2012 ( 19th )",
          [
            "/wiki/19th_Screen_Actors_Guild_Awards"
          ]
        ],
        [
          "Helen Mirren",
          [
            "/wiki/Helen_Mirren"
          ]
        ],
        [
          "Hitchcock",
          [
            "/wiki/Hitchcock_(film)"
          ]
        ],
        [
          "Alma Reville",
          [
            "/wiki/Alma_Reville"
          ]
        ]
      ],
      [
        [
          "2012 ( 19th )",
          [
            "/wiki/19th_Screen_Actors_Guild_Awards"
          ]
        ],
        [
          "Naomi Watts",
          [
            "/wiki/Naomi_Watts"
          ]
        ],
        [
          "The Impossible",
          [
            "/wiki/The_Impossible_(2012_film)"
          ]
        ],
        [
          "Maria Bennett",
          [
            "/wiki/Mar\u00eda_Bel\u00f3n"
          ]
        ]
      ],
      [
        [
          "2013 ( 20th )",
          [
            "/wiki/20th_Screen_Actors_Guild_Awards"
          ]
        ],
        [
          "Cate Blanchett",
          [
            "/wiki/Cate_Blanchett"
          ]
        ],
        [
          "Blue Jasmine",
          [
            "/wiki/Blue_Jasmine"
          ]
        ],
        [
          "Jeanette Jasmine Francis",
          []
        ]
      ],
      [
        [
          "2013 ( 20th )",
          [
            "/wiki/20th_Screen_Actors_Guild_Awards"
          ]
        ],
        [
          "Sandra Bullock",
          [
            "/wiki/Sandra_Bullock"
          ]
        ],
        [
          "Gravity",
          [
            "/wiki/Gravity_(2013_film)"
          ]
        ],
        [
          "Dr. Ryan Stone",
          []
        ]
      ],
      [
        [
          "2013 ( 20th )",
          [
            "/wiki/20th_Screen_Actors_Guild_Awards"
          ]
        ],
        [
          "Judi Dench",
          [
            "/wiki/Judi_Dench"
          ]
        ],
        [
          "Philomena",
          [
            "/wiki/Philomena_(film)"
          ]
        ],
        [
          "Philomena Lee",
          [
            "/wiki/Philomena_Lee"
          ]
        ]
      ],
      [
        [
          "2013 ( 20th )",
          [
            "/wiki/20th_Screen_Actors_Guild_Awards"
          ]
        ],
        [
          "Meryl Streep",
          [
            "/wiki/Meryl_Streep"
          ]
        ],
        [
          "August : Osage County",
          [
            "/wiki/August:_Osage_County_(film)"
          ]
        ],
        [
          "Violet Weston",
          []
        ]
      ],
      [
        [
          "2013 ( 20th )",
          [
            "/wiki/20th_Screen_Actors_Guild_Awards"
          ]
        ],
        [
          "Emma Thompson",
          [
            "/wiki/Emma_Thompson"
          ]
        ],
        [
          "Saving Mr. Banks",
          [
            "/wiki/Saving_Mr._Banks"
          ]
        ],
        [
          "P. L. Travers",
          [
            "/wiki/P._L._Travers"
          ]
        ]
      ]
    ],
    "section_title": "Winners and nominees -- 2010s",
    "section_text": "",
    "uid": "Screen_Actors_Guild_Award_for_Outstanding_Performance_by_a_Female_Actor_in_a_Leading_Role_2",
    "intro": "The Screen Actors Guild Award for Outstanding Performance by a Female Actor in a Leading Role in a Motion Picture is an award given by the Screen Actors Guild to honor the finest acting achievements in film."
  }
}