{
  "2018\u201319_Pro14_7": {
    "url": "https://en.wikipedia.org/wiki/2018\u201319_Pro14",
    "title": "2018\u201319 Pro14",
    "header": [
      [
        "Rank",
        []
      ],
      [
        "Player",
        []
      ],
      [
        "Club",
        []
      ],
      [
        "Points",
        []
      ]
    ],
    "data": [
      [
        [
          "1",
          []
        ],
        [
          "Jack Carty",
          [
            "/wiki/Jack_Carty_(rugby_union)"
          ]
        ],
        [
          "Connacht",
          [
            "/wiki/Connacht_Rugby"
          ]
        ],
        [
          "157",
          []
        ]
      ],
      [
        [
          "2",
          []
        ],
        [
          "Sam Davies",
          [
            "/wiki/Sam_Davies_(rugby_player)"
          ]
        ],
        [
          "Ospreys",
          [
            "/wiki/Ospreys_(rugby_union)"
          ]
        ],
        [
          "153",
          []
        ]
      ],
      [
        [
          "3",
          []
        ],
        [
          "Gareth Anscombe",
          [
            "/wiki/Gareth_Anscombe"
          ]
        ],
        [
          "Cardiff Blues",
          [
            "/wiki/Cardiff_Blues"
          ]
        ],
        [
          "143",
          []
        ]
      ],
      [
        [
          "4",
          []
        ],
        [
          "Adam Hastings",
          [
            "/wiki/Adam_Hastings"
          ]
        ],
        [
          "Glasgow Warriors",
          [
            "/wiki/Glasgow_Warriors"
          ]
        ],
        [
          "136",
          []
        ]
      ],
      [
        [
          "5",
          []
        ],
        [
          "Tian Schoeman",
          [
            "/wiki/Tian_Schoeman"
          ]
        ],
        [
          "Cheetahs",
          [
            "/wiki/Cheetahs_(rugby_union)"
          ]
        ],
        [
          "134",
          []
        ]
      ]
    ],
    "section_title": "Most points",
    "section_text": "",
    "uid": "2018\u201319_Pro14_7",
    "intro": "The 2018-19 Pro14 (also known as the Guinness Pro14 for sponsorship reasons) is the eighteenth season of the professional rugby union competition originally known as the Celtic League. It was the second season to be referred to as the Pro14 (the competition was named the Pro12 immediately prior to the addition of two South African teams). Fourteen teams competed in 2018-19 - four Irish teams: Connacht, Leinster, Munster and Ulster; two Italian teams: Benetton and Zebre; two Scottish teams: Edinburgh and Glasgow Warriors; two South African teams: Cheetahs and the Southern Kings; and four Welsh teams: Cardiff Blues, Dragons, Ospreys and Scarlets. Leinster were the defending champions, having won the 2017-18 final at the Aviva Stadium to take their fifth title in the competition's various iterations and seal a domestic league and European Cup double, becoming only the sixth team to do so and the first from the Pro14."
  }
}