{
  "2008\u201309_Serie_D_3": {
    "url": "https://en.wikipedia.org/wiki/2008\u201309_Serie_D",
    "title": "2008\u201309 Serie D",
    "header": [
      [
        "Pos",
        []
      ],
      [
        "Club",
        []
      ],
      [
        "Pld",
        []
      ],
      [
        "Pts",
        []
      ]
    ],
    "data": [
      [
        [
          "1",
          []
        ],
        [
          "Sacilese ( P )",
          [
            "/wiki/A.S.D._Sacilese_Calcio"
          ]
        ],
        [
          "34",
          []
        ],
        [
          "73",
          []
        ]
      ],
      [
        [
          "2",
          []
        ],
        [
          "Eurotezze ( R )",
          [
            "/wiki/S.S.D._Eurotezze"
          ]
        ],
        [
          "34",
          []
        ],
        [
          "65",
          []
        ]
      ],
      [
        [
          "3",
          []
        ],
        [
          "Domegliara",
          [
            "/wiki/S.S.D._Domegliara"
          ]
        ],
        [
          "34",
          []
        ],
        [
          "59",
          []
        ]
      ],
      [
        [
          "4",
          []
        ],
        [
          "Union Quinto",
          [
            "/wiki/A.S.D._Union_Quinto"
          ]
        ],
        [
          "34",
          []
        ],
        [
          "58",
          []
        ]
      ],
      [
        [
          "5",
          []
        ],
        [
          "Chioggia S",
          [
            "/wiki/Clodiense_S.S.D."
          ]
        ],
        [
          "34",
          []
        ],
        [
          "54",
          []
        ]
      ],
      [
        [
          "6",
          []
        ],
        [
          "Pordenone",
          [
            "/wiki/Pordenone_Calcio"
          ]
        ],
        [
          "34",
          []
        ],
        [
          "50",
          []
        ]
      ],
      [
        [
          "7",
          []
        ],
        [
          "Belluno",
          [
            "/wiki/A.C._Belluno_1905"
          ]
        ],
        [
          "34",
          []
        ],
        [
          "49",
          []
        ]
      ],
      [
        [
          "8",
          []
        ],
        [
          "Tamai",
          [
            "/wiki/A.S.D._Pol._Tamai"
          ]
        ],
        [
          "34",
          []
        ],
        [
          "46",
          []
        ]
      ],
      [
        [
          "9",
          []
        ],
        [
          "Virtus Verona",
          [
            "/wiki/Virtus_Verona"
          ]
        ],
        [
          "34",
          []
        ],
        [
          "44",
          []
        ]
      ],
      [
        [
          "10",
          []
        ],
        [
          "Sanvitese",
          [
            "/wiki/A.S.D._Sanvitese"
          ]
        ],
        [
          "34",
          []
        ],
        [
          "44",
          []
        ]
      ],
      [
        [
          "11",
          []
        ],
        [
          "Jesolo",
          [
            "/wiki/U.S._Citt\u00e0_di_Jesolo"
          ]
        ],
        [
          "34",
          []
        ],
        [
          "42",
          []
        ]
      ],
      [
        [
          "12",
          []
        ],
        [
          "Sagittaria Julia",
          [
            "/wiki/A.C.D._Citt\u00e0_di_Concordia"
          ]
        ],
        [
          "34",
          []
        ],
        [
          "42",
          []
        ]
      ],
      [
        [
          "13",
          []
        ],
        [
          "Trento ( R )",
          [
            "/wiki/A.C._Trento_S.C.S.D."
          ]
        ],
        [
          "34",
          []
        ],
        [
          "37",
          []
        ]
      ],
      [
        [
          "14",
          []
        ],
        [
          "Somma ( R )",
          [
            "/wiki/A.C._Somma"
          ]
        ],
        [
          "34",
          []
        ],
        [
          "35",
          []
        ]
      ],
      [
        [
          "15",
          []
        ],
        [
          "Montebelluna",
          [
            "/wiki/Calcio_Montebelluna"
          ]
        ],
        [
          "34",
          []
        ],
        [
          "35",
          []
        ]
      ],
      [
        [
          "16",
          []
        ],
        [
          "Montecchio M",
          [
            "/wiki/U.C._Montecchio_Maggiore"
          ]
        ],
        [
          "34",
          []
        ],
        [
          "33",
          []
        ]
      ],
      [
        [
          "17",
          []
        ],
        [
          "Sandon\u00e0 ( R )",
          [
            "/wiki/S.S.D._Calcio_San_Don\u00e0"
          ]
        ],
        [
          "34",
          []
        ],
        [
          "30",
          []
        ]
      ],
      [
        [
          "18",
          []
        ],
        [
          "Bolzano ( R )",
          [
            "/wiki/F.C._Bolzano_1996"
          ]
        ],
        [
          "34",
          []
        ],
        [
          "21",
          []
        ]
      ]
    ],
    "section_title": "Girone C",
    "section_text": "teams from Veneto , Friuli-Venezia Giulia & Trentino-Alto Adige/S\u00fcdtirol",
    "uid": "2008\u201309_Serie_D_3",
    "intro": "Serie D, the fifth level of Italian Football, is usually composed of 162 teams divided into nine 18-team divisions. Special relegation of four teams from the professional leagues above Serie D after the team list had been set increased the total number of teams for this season to 166. One division will have 20 teams, two will have 19, while the other six will remain at 18 teams. The regular Serie D season started September 7, 2008. Each team will play two matches against every other team in its own division; a total of 34 matches for 18-team divisions, 36 matches for the 19-team divisions, and 38 matches for the 20-team division. The nine division winners are automatically promoted to Lega Pro Seconda Divisione for the 2009-10 season, while the two last-placed teams are automatically relegated to Eccellenza. After the regular season is complete, teams placed 6th-last through to 3rd-last in each division play a double-leg series (6th-last vs 3rd-last, 5th-last vs 4th-last) where the winners remain in Serie D the following season and the two losers are also relegated to Eccellenza for a total of 4 relegations in each division, 36 in total for the league. The nine division winners enter a tournament to determine the over-all Serie D champion and is awarded the Scudetto Dilettanti. Teams placed second through fifth in each division enter a playoff tournament after the regular season as well. Eventually, a final game determines which team finishes first and which teams comes in second in this 36-team playoff, and these teams may be bumped up to Lega Pro Seconda Divisione if one or more current Seconda Divisione teams runs into financial difficulties or is penalized."
  },
  "2000\u201301_UEFA_Cup_6": {
    "url": "https://en.wikipedia.org/wiki/2000\u201301_UEFA_Cup",
    "title": "2000\u201301 UEFA Cup",
    "header": [
      [
        "Team 1",
        []
      ],
      [
        "Agg",
        [
          "/wiki/Playoff_format"
        ]
      ],
      [
        "Team 2",
        []
      ],
      [
        "1st leg",
        []
      ],
      [
        "2nd leg",
        []
      ]
    ],
    "data": [
      [
        [
          "Zimbru Chi\u0219in\u0103u",
          [
            "/wiki/FC_Zimbru_Chi\u0219in\u0103u"
          ]
        ],
        [
          "1-4",
          []
        ],
        [
          "Hertha BSC",
          [
            "/wiki/Hertha_BSC"
          ]
        ],
        [
          "1-2",
          []
        ],
        [
          "0-2",
          []
        ]
      ],
      [
        [
          "Antalyaspor",
          [
            "/wiki/Antalyaspor"
          ]
        ],
        [
          "2-6",
          []
        ],
        [
          "Werder Bremen",
          [
            "/wiki/SV_Werder_Bremen"
          ]
        ],
        [
          "2-0",
          []
        ],
        [
          "0-6",
          []
        ]
      ],
      [
        [
          "Bohemian",
          [
            "/wiki/Bohemian_F.C."
          ]
        ],
        [
          "2-3",
          []
        ],
        [
          "Kaiserslautern",
          [
            "/wiki/1._FC_Kaiserslautern"
          ]
        ],
        [
          "1-3",
          []
        ],
        [
          "1-0",
          []
        ]
      ],
      [
        [
          "Stuttgart",
          [
            "/wiki/VfB_Stuttgart"
          ]
        ],
        [
          "( a ) 3-3",
          [
            "/wiki/Away_goals_rule"
          ]
        ],
        [
          "Hearts",
          [
            "/wiki/Heart_of_Midlothian_F.C."
          ]
        ],
        [
          "1-0",
          []
        ],
        [
          "2-3",
          []
        ]
      ],
      [
        [
          "Drnovice",
          [
            "/wiki/1._FK_Drnovice"
          ]
        ],
        [
          "0-1",
          []
        ],
        [
          "1860 Munich",
          [
            "/wiki/TSV_1860_Munich"
          ]
        ],
        [
          "0-0",
          []
        ],
        [
          "0-1",
          []
        ]
      ],
      [
        [
          "Lokomotiv Moscow",
          [
            "/wiki/FC_Lokomotiv_Moscow"
          ]
        ],
        [
          "4-2",
          []
        ],
        [
          "Naftex Burgas",
          [
            "/wiki/PFC_Naftex_Burgas"
          ]
        ],
        [
          "4-2",
          []
        ],
        [
          "0-0",
          []
        ]
      ],
      [
        [
          "Norrk\u00f6ping",
          [
            "/wiki/IFK_Norrk\u00f6ping"
          ]
        ],
        [
          "3-4",
          []
        ],
        [
          "Slovan Liberec",
          [
            "/wiki/FC_Slovan_Liberec"
          ]
        ],
        [
          "2-2",
          []
        ],
        [
          "1-2",
          []
        ]
      ],
      [
        [
          "Rapid Bucure\u0219ti",
          [
            "/wiki/FC_Rapid_Bucure\u0219ti"
          ]
        ],
        [
          "0-1",
          []
        ],
        [
          "Liverpool",
          [
            "/wiki/Liverpool_F.C."
          ]
        ],
        [
          "0-1",
          []
        ],
        [
          "0-0",
          []
        ]
      ],
      [
        [
          "Z\u00fcrich",
          [
            "/wiki/FC_Z\u00fcrich"
          ]
        ],
        [
          "1-4",
          []
        ],
        [
          "Genk",
          [
            "/wiki/K.R.C._Genk"
          ]
        ],
        [
          "1-2",
          []
        ],
        [
          "0-2",
          []
        ]
      ],
      [
        [
          "Olimpija Ljubljana",
          [
            "/wiki/NK_Olimpija_Ljubljana_(1945\u20132005)"
          ]
        ],
        [
          "2-3",
          []
        ],
        [
          "Espanyol",
          [
            "/wiki/RCD_Espanyol"
          ]
        ],
        [
          "2-1",
          []
        ],
        [
          "0-2",
          []
        ]
      ],
      [
        [
          "Vorskla Poltava",
          [
            "/wiki/FC_Vorskla_Poltava"
          ]
        ],
        [
          "2-4",
          []
        ],
        [
          "Boavista",
          [
            "/wiki/Boavista_F.C."
          ]
        ],
        [
          "1-2",
          []
        ],
        [
          "1-2",
          []
        ]
      ],
      [
        [
          "Br\u00f8ndby",
          [
            "/wiki/Br\u00f8ndby_IF"
          ]
        ],
        [
          "1-2",
          []
        ],
        [
          "Osijek",
          [
            "/wiki/NK_Osijek"
          ]
        ],
        [
          "1-2",
          []
        ],
        [
          "0-0",
          []
        ]
      ],
      [
        [
          "Ruch Chorz\u00f3w",
          [
            "/wiki/Ruch_Chorz\u00f3w"
          ]
        ],
        [
          "1-7",
          []
        ],
        [
          "Internazionale",
          [
            "/wiki/Inter_Milan"
          ]
        ],
        [
          "0-3",
          []
        ],
        [
          "1-4",
          []
        ]
      ],
      [
        [
          "Pobeda",
          [
            "/wiki/FK_Pobeda"
          ]
        ],
        [
          "0-6",
          []
        ],
        [
          "Parma",
          [
            "/wiki/Parma_Calcio_1913"
          ]
        ],
        [
          "0-2",
          []
        ],
        [
          "0-4",
          []
        ]
      ],
      [
        [
          "Lausanne",
          [
            "/wiki/FC_Lausanne-Sport"
          ]
        ],
        [
          "5-2",
          []
        ],
        [
          "Torpedo Moscow",
          [
            "/wiki/FC_Torpedo_Moscow"
          ]
        ],
        [
          "3-2",
          []
        ],
        [
          "2-0",
          []
        ]
      ],
      [
        [
          "Celta Vigo",
          [
            "/wiki/RC_Celta_de_Vigo"
          ]
        ],
        [
          "1-0",
          []
        ],
        [
          "Rijeka",
          [
            "/wiki/HNK_Rijeka"
          ]
        ],
        [
          "0-0",
          []
        ],
        [
          "1-0 ( a.e.t . )",
          [
            "/wiki/Overtime_(sports)"
          ]
        ]
      ],
      [
        [
          "Leicester City",
          [
            "/wiki/Leicester_City_F.C."
          ]
        ],
        [
          "2-4",
          []
        ],
        [
          "Red Star Belgrade",
          [
            "/wiki/Red_Star_Belgrade"
          ]
        ],
        [
          "1-1",
          []
        ],
        [
          "1-3",
          []
        ]
      ],
      [
        [
          "Roda JC",
          [
            "/wiki/Roda_JC_Kerkrade"
          ]
        ],
        [
          "1-4",
          []
        ],
        [
          "Inter Bratislava",
          [
            "/wiki/FK_Inter_Bratislava"
          ]
        ],
        [
          "0-2",
          []
        ],
        [
          "1-2",
          []
        ]
      ],
      [
        [
          "Kryvbas Kryvyi Rih",
          [
            "/wiki/FC_Kryvbas_Kryvyi_Rih"
          ]
        ],
        [
          "0-6",
          []
        ],
        [
          "Nantes",
          [
            "/wiki/FC_Nantes"
          ]
        ],
        [
          "0-1",
          []
        ],
        [
          "0-5",
          []
        ]
      ],
      [
        [
          "PAOK",
          [
            "/wiki/PAOK_FC"
          ]
        ],
        [
          "6-4",
          []
        ],
        [
          "Beitar Jerusalem",
          [
            "/wiki/Beitar_Jerusalem_F.C."
          ]
        ],
        [
          "3-1",
          []
        ],
        [
          "3-3",
          []
        ]
      ]
    ],
    "section_title": "First round",
    "section_text": "Main article : 2000\u201301 UEFA Cup first round",
    "uid": "2000\u201301_UEFA_Cup_6",
    "intro": "Liverpool won the 2000-01 UEFA Cup with a golden goal in the final against Alav\u00e9s for their third title in the competition. It completed a cup treble for the club, as they also won the FA Cup and the League Cup that season. The conclusion of the tournament by a golden goal is the only instance in any of the major European club cup competitions until the abolition of the rule in 2002. English clubs had been banned from European competitions between 1985 and 1990 as a result of the Heysel disaster, and Liverpool were the first English side of the post-Heysel era to win the trophy. The previous English winners were Tottenham Hotspur in 1984. It was also Liverpool's first European trophy of the post-Heysel era."
  },
  "2015\u201316_Serie_D_7": {
    "url": "https://en.wikipedia.org/wiki/2015\u201316_Serie_D",
    "title": "2015\u201316 Serie D",
    "header": [
      [
        "Club",
        []
      ],
      [
        "City",
        []
      ],
      [
        "Stadium",
        []
      ],
      [
        "Capacity",
        []
      ],
      [
        "2014-15 season",
        []
      ]
    ],
    "data": [
      [
        [
          "Aprilia",
          [
            "/wiki/F.C._Aprilia"
          ]
        ],
        [
          "Aprilia",
          [
            "/wiki/Aprilia,_Lazio"
          ]
        ],
        [
          "Quinto Ricci",
          []
        ],
        [
          "2,000",
          []
        ],
        [
          "11th in Serie D Girone G",
          [
            "/wiki/2014\u201315_Serie_D"
          ]
        ]
      ],
      [
        [
          "AZ Picerno",
          [
            "/wiki/AZ_Picerno"
          ]
        ],
        [
          "Picerno",
          [
            "/wiki/Picerno"
          ]
        ],
        [
          "Donato Curcio",
          []
        ],
        [
          "",
          []
        ],
        [
          "1st in Eccellenza Basilicata",
          []
        ]
      ],
      [
        [
          "Bisceglie",
          [
            "/wiki/A.S._Bisceglie_Calcio_1913"
          ]
        ],
        [
          "Bisceglie",
          [
            "/wiki/Bisceglie"
          ]
        ],
        [
          "Gustavo Ventura",
          []
        ],
        [
          "5,000",
          []
        ],
        [
          "4th in Serie D Girone H",
          [
            "/wiki/2014\u201315_Serie_D"
          ]
        ]
      ],
      [
        [
          "Fondi",
          [
            "/wiki/S.S._Racing_Club_Fondi"
          ]
        ],
        [
          "Fondi",
          [
            "/wiki/Fondi"
          ]
        ],
        [
          "Domenico Purificato",
          []
        ],
        [
          "2,500",
          []
        ],
        [
          "8th in Serie D Girone G",
          [
            "/wiki/2014\u201315_Serie_D"
          ]
        ]
      ],
      [
        [
          "Francavilla",
          [
            "/wiki/F.C._Francavilla"
          ]
        ],
        [
          "Francavilla in Sinni",
          [
            "/wiki/Francavilla_in_Sinni"
          ]
        ],
        [
          "Nunzio Fittipaldi",
          []
        ],
        [
          "1,200",
          []
        ],
        [
          "11th in Serie D Girone H",
          [
            "/wiki/2014\u201315_Serie_D"
          ]
        ]
      ],
      [
        [
          "Gallipoli",
          [
            "/wiki/A.S.D._Gallipoli_Football_1909"
          ]
        ],
        [
          "Gallipoli",
          [
            "/wiki/Gallipoli,_Apulia"
          ]
        ],
        [
          "Antonio Bianco",
          [
            "/wiki/Stadio_Antonio_Bianco"
          ]
        ],
        [
          "5,000",
          []
        ],
        [
          "7th in Serie D Girone H",
          [
            "/wiki/2014\u201315_Serie_D"
          ]
        ]
      ],
      [
        [
          "Isola Liri",
          [
            "/wiki/A.C._Isola_Liri"
          ]
        ],
        [
          "Isola del Liri",
          [
            "/wiki/Isola_del_Liri"
          ]
        ],
        [
          "Conte Arduino Mangoni",
          []
        ],
        [
          "3,008",
          []
        ],
        [
          "15th in Serie D Girone G",
          [
            "/wiki/2014\u201315_Serie_D"
          ]
        ]
      ],
      [
        [
          "Manfredonia",
          [
            "/wiki/Manfredonia_Calcio"
          ]
        ],
        [
          "Manfredonia",
          [
            "/wiki/Manfredonia"
          ]
        ],
        [
          "Miramare",
          [
            "/wiki/Stadio_Miramare"
          ]
        ],
        [
          "4,076",
          []
        ],
        [
          "9th in Serie D Girone H",
          [
            "/wiki/2014\u201315_Serie_D"
          ]
        ]
      ],
      [
        [
          "Progreditur Marcianise",
          [
            "/wiki/A.S.D._Progreditur_Marcianise"
          ]
        ],
        [
          "Marcianise",
          [
            "/wiki/Marcianise"
          ]
        ],
        [
          "Progreditur",
          []
        ],
        [
          "4,550",
          []
        ],
        [
          "9th in Serie D Girone I",
          [
            "/wiki/2014\u201315_Serie_D"
          ]
        ]
      ],
      [
        [
          "Nard\u00f2",
          [
            "/wiki/A.C.D._Nard\u00f2"
          ]
        ],
        [
          "Nard\u00f2",
          [
            "/wiki/Nard\u00f2"
          ]
        ],
        [
          "Giovanni Paolo II",
          []
        ],
        [
          "5,000",
          []
        ],
        [
          "2nd in Eccellenza Apulia",
          []
        ]
      ],
      [
        [
          "Pomigliano",
          [
            "/wiki/A.S.D.C._Pomigliano"
          ]
        ],
        [
          "Pomigliano d'Arco",
          [
            "/wiki/Pomigliano_d'Arco"
          ]
        ],
        [
          "Ugo Gobbato",
          []
        ],
        [
          "1,600",
          []
        ],
        [
          "13th in Serie D Girone H",
          [
            "/wiki/2014\u201315_Serie_D"
          ]
        ]
      ],
      [
        [
          "Potenza",
          [
            "/wiki/Potenza_Calcio"
          ]
        ],
        [
          "Potenza",
          [
            "/wiki/Potenza"
          ]
        ],
        [
          "Alfredo Viviani",
          [
            "/wiki/Stadio_Alfredo_Viviani"
          ]
        ],
        [
          "5,500",
          []
        ],
        [
          "3rd in Serie D Girone H",
          [
            "/wiki/2014\u201315_Serie_D"
          ]
        ]
      ],
      [
        [
          "San Severo",
          [
            "/wiki/U.S.D._San_Severo"
          ]
        ],
        [
          "San Severo",
          [
            "/wiki/San_Severo"
          ]
        ],
        [
          "Ricciardelli",
          []
        ],
        [
          "300",
          []
        ],
        [
          "12th in Serie D Girone H",
          [
            "/wiki/2014\u201315_Serie_D"
          ]
        ]
      ],
      [
        [
          "Serpentara",
          []
        ],
        [
          "Bellegra and Olevano Romano",
          [
            "/wiki/Bellegra",
            "/wiki/Olevano_Romano"
          ]
        ],
        [
          "Giovanni Savoia",
          []
        ],
        [
          "",
          []
        ],
        [
          "2nd in Eccellenza Lazio Girone B",
          []
        ]
      ],
      [
        [
          "Taranto",
          [
            "/wiki/Taranto_F.C._1927"
          ]
        ],
        [
          "Taranto",
          [
            "/wiki/Taranto"
          ]
        ],
        [
          "Erasmo Iacovone",
          [
            "/wiki/Stadio_Erasmo_Iacovone"
          ]
        ],
        [
          "27,584",
          []
        ],
        [
          "2nd in Serie D Girone H",
          [
            "/wiki/2014\u201315_Serie_D"
          ]
        ]
      ],
      [
        [
          "Torrecuso",
          [
            "/wiki/A.S.D._Torrecuso_Calcio"
          ]
        ],
        [
          "Torrecuso",
          [
            "/wiki/Torrecuso"
          ]
        ],
        [
          "G. Ocone",
          []
        ],
        [
          "1,500",
          []
        ],
        [
          "4th in Serie D Girone I",
          [
            "/wiki/2014\u201315_Serie_D"
          ]
        ]
      ],
      [
        [
          "Turris",
          [
            "/wiki/A.S.D._Turris_Calcio"
          ]
        ],
        [
          "Torre del Greco",
          [
            "/wiki/Torre_del_Greco"
          ]
        ],
        [
          "Amerigo Liguori",
          []
        ],
        [
          "5,300",
          []
        ],
        [
          "1st in Eccellenza Campania Girone A",
          []
        ]
      ],
      [
        [
          "Virtus Francavilla",
          [
            "/wiki/Virtus_Francavilla_Calcio"
          ]
        ],
        [
          "Francavilla Fontana",
          [
            "/wiki/Francavilla_Fontana"
          ]
        ],
        [
          "Giovanni Paolo II",
          []
        ],
        [
          "5,000",
          []
        ],
        [
          "1st in Eccellenza Apulia",
          []
        ]
      ]
    ],
    "section_title": "Standings -- Girone H",
    "section_text": "Teams from Apulia , Basilicata , Campania and Lazio .",
    "uid": "2015\u201316_Serie_D_7",
    "intro": "The 2015-16 Serie D was the sixty-eighth edition of the top level Italian non-professional football championship. It represents the fourth tier in the Italian football league system."
  },
  "1985\u201386_La_Liga_3": {
    "url": "https://en.wikipedia.org/wiki/1985\u201386_La_Liga",
    "title": "1985\u201386 La Liga",
    "header": [
      [
        "Goalscorers",
        []
      ],
      [
        "Goal",
        []
      ],
      [
        "Team",
        []
      ]
    ],
    "data": [
      [
        [
          "Hugo S\u00e1nchez",
          [
            "/wiki/Hugo_S\u00e1nchez"
          ]
        ],
        [
          "22",
          []
        ],
        [
          "Real Madrid",
          [
            "/wiki/Real_Madrid_CF"
          ]
        ]
      ],
      [
        [
          "Jorge Valdano",
          [
            "/wiki/Jorge_Valdano"
          ]
        ],
        [
          "16",
          []
        ],
        [
          "Real Madrid",
          [
            "/wiki/Real_Madrid_CF"
          ]
        ]
      ],
      [
        [
          "Juan Antonio Se\u00f1or",
          [
            "/wiki/Juan_Antonio_Se\u00f1or"
          ]
        ],
        [
          "15",
          []
        ],
        [
          "Zaragoza",
          [
            "/wiki/Real_Zaragoza"
          ]
        ]
      ],
      [
        [
          "Luis Mario Cabrera",
          [
            "/wiki/Mario_Cabrera"
          ]
        ],
        [
          "13",
          []
        ],
        [
          "Atl\u00e9tico Madrid",
          [
            "/wiki/Atl\u00e9tico_Madrid"
          ]
        ]
      ],
      [
        [
          "Jorge da Silva",
          [
            "/wiki/Jorge_da_Silva"
          ]
        ],
        [
          "13",
          []
        ],
        [
          "Atl\u00e9tico Madrid",
          [
            "/wiki/Atl\u00e9tico_Madrid"
          ]
        ]
      ]
    ],
    "section_title": "Pichichi Trophy",
    "section_text": "",
    "uid": "1985\u201386_La_Liga_3",
    "intro": "The 1985-86 La Liga season, the 55th since its establishment, started on August 31, 1985, and finished on April 20, 1986. Barcelona lost their defence of the title to Real Madrid, who won the title by an 11-point margin. This season marked Valencia CF's only relegation from La Liga."
  },
  "2018\u201319_Serie_C_2": {
    "url": "https://en.wikipedia.org/wiki/2018\u201319_Serie_C",
    "title": "2018\u201319 Serie C",
    "header": [
      [
        "Club",
        []
      ],
      [
        "City",
        []
      ],
      [
        "Stadium",
        []
      ],
      [
        "Capacity",
        []
      ]
    ],
    "data": [
      [
        [
          "Bisceglie",
          [
            "/wiki/A.S._Bisceglie_Calcio_1913"
          ]
        ],
        [
          "Bisceglie",
          [
            "/wiki/Bisceglie"
          ]
        ],
        [
          "Gustavo Ventura",
          []
        ],
        [
          "5,000",
          []
        ]
      ],
      [
        [
          "Casertana",
          [
            "/wiki/Casertana_F.C."
          ]
        ],
        [
          "Caserta",
          [
            "/wiki/Caserta"
          ]
        ],
        [
          "Alberto Pinto",
          [
            "/wiki/Stadio_Alberto_Pinto"
          ]
        ],
        [
          "12,000",
          []
        ]
      ],
      [
        [
          "Catania",
          [
            "/wiki/Calcio_Catania"
          ]
        ],
        [
          "Catania",
          [
            "/wiki/Catania"
          ]
        ],
        [
          "Angelo Massimino",
          [
            "/wiki/Stadio_Angelo_Massimino"
          ]
        ],
        [
          "20,266",
          []
        ]
      ],
      [
        [
          "Catanzaro",
          [
            "/wiki/U.S._Catanzaro_1929"
          ]
        ],
        [
          "Catanzaro",
          [
            "/wiki/Catanzaro"
          ]
        ],
        [
          "Nicola Ceravolo",
          [
            "/wiki/Stadio_Nicola_Ceravolo"
          ]
        ],
        [
          "14,650",
          []
        ]
      ],
      [
        [
          "Cavese",
          [
            "/wiki/Cavese_1919"
          ]
        ],
        [
          "Cava de ' Tirreni",
          [
            "/wiki/Cava_de'_Tirreni"
          ]
        ],
        [
          "Simonetta Lamberti",
          [
            "/wiki/Stadio_Simonetta_Lamberti"
          ]
        ],
        [
          "5,200",
          []
        ]
      ],
      [
        [
          "Juve Stabia",
          [
            "/wiki/S.S._Juve_Stabia"
          ]
        ],
        [
          "Castellammare di Stabia",
          [
            "/wiki/Castellammare_di_Stabia"
          ]
        ],
        [
          "Romeo Menti",
          [
            "/wiki/Stadio_Romeo_Menti_(Castellammare_di_Stabia)"
          ]
        ],
        [
          "7,642",
          []
        ]
      ],
      [
        [
          "Matera",
          [
            "/wiki/Matera_Calcio"
          ]
        ],
        [
          "Matera",
          [
            "/wiki/Matera"
          ]
        ],
        [
          "Stadio XXI Settembre-Franco Salerno",
          [
            "/wiki/Stadio_XXI_Settembre-Franco_Salerno"
          ]
        ],
        [
          "8,500",
          []
        ]
      ],
      [
        [
          "Monopoli",
          [
            "/wiki/S.S._Monopoli_1966"
          ]
        ],
        [
          "Monopoli",
          [
            "/wiki/Monopoli"
          ]
        ],
        [
          "Vito Simone Veneziani",
          [
            "/wiki/Stadio_Vito_Simone_Veneziani"
          ]
        ],
        [
          "6,880",
          []
        ]
      ],
      [
        [
          "Paganese",
          [
            "/wiki/Paganese_Calcio_1926"
          ]
        ],
        [
          "Pagani",
          [
            "/wiki/Pagani,_Campania"
          ]
        ],
        [
          "Marcello Torre",
          [
            "/wiki/Stadio_Marcello_Torre"
          ]
        ],
        [
          "5,900",
          []
        ]
      ],
      [
        [
          "Potenza",
          [
            "/wiki/Potenza_Calcio"
          ]
        ],
        [
          "Potenza",
          [
            "/wiki/Potenza"
          ]
        ],
        [
          "Alfredo Viviani",
          [
            "/wiki/Stadio_Alfredo_Viviani"
          ]
        ],
        [
          "6,000",
          []
        ]
      ],
      [
        [
          "Reggina",
          [
            "/wiki/Reggina_1914"
          ]
        ],
        [
          "Reggio Calabria",
          [
            "/wiki/Reggio_Calabria"
          ]
        ],
        [
          "Oreste Granillo",
          [
            "/wiki/Stadio_Oreste_Granillo"
          ]
        ],
        [
          "27,454",
          []
        ]
      ],
      [
        [
          "Rende",
          [
            "/wiki/Rende_Calcio_1968"
          ]
        ],
        [
          "Rende",
          [
            "/wiki/Rende"
          ]
        ],
        [
          "Marco Lorenzon",
          [
            "/wiki/Stadio_Marco_Lorenzon"
          ]
        ],
        [
          "5,000",
          []
        ]
      ],
      [
        [
          "Rieti",
          [
            "/wiki/F.C._Rieti"
          ]
        ],
        [
          "Rieti",
          [
            "/wiki/Rieti"
          ]
        ],
        [
          "Manlio Scopigno",
          [
            "/wiki/Stadio_Centro_d'Italia_\u2013_Manlio_Scopigno"
          ]
        ],
        [
          "10,163",
          []
        ]
      ],
      [
        [
          "Sicula Leonzio",
          [
            "/wiki/Sicula_Leonzio"
          ]
        ],
        [
          "Lentini",
          [
            "/wiki/Lentini"
          ]
        ],
        [
          "Angelino Nobile",
          []
        ],
        [
          "2,500",
          []
        ]
      ],
      [
        [
          "Siracusa",
          [
            "/wiki/A.S.D._Citt\u00e0_di_Siracusa"
          ]
        ],
        [
          "Siracusa",
          [
            "/wiki/Syracuse,_Sicily"
          ]
        ],
        [
          "Nicola De Simone",
          [
            "/wiki/Stadio_Nicola_De_Simone"
          ]
        ],
        [
          "6,870",
          []
        ]
      ],
      [
        [
          "Trapani",
          [
            "/wiki/Trapani_Calcio"
          ]
        ],
        [
          "Trapani",
          [
            "/wiki/Trapani"
          ]
        ],
        [
          "Polisportivo Provinciale ( Erice )",
          [
            "/wiki/Stadio_Polisportivo_Provinciale",
            "/wiki/Erice"
          ]
        ],
        [
          "7,000",
          []
        ]
      ],
      [
        [
          "Vibonese",
          [
            "/wiki/U.S._Vibonese_Calcio"
          ]
        ],
        [
          "Vibo Valentia",
          [
            "/wiki/Vibo_Valentia"
          ]
        ],
        [
          "Luigi Razza",
          []
        ],
        [
          "6,500",
          []
        ]
      ],
      [
        [
          "Virtus Francavilla",
          [
            "/wiki/Virtus_Francavilla_Calcio"
          ]
        ],
        [
          "Francavilla Fontana",
          [
            "/wiki/Francavilla_Fontana"
          ]
        ],
        [
          "Giovanni Paolo II",
          []
        ],
        [
          "5,000",
          []
        ]
      ],
      [
        [
          "Viterbese Castrense",
          [
            "/wiki/A.S._Viterbese_Castrense"
          ]
        ],
        [
          "Viterbo",
          [
            "/wiki/Viterbo"
          ]
        ],
        [
          "Enrico Rocchi",
          [
            "/wiki/Stadio_Enrico_Rocchi"
          ]
        ],
        [
          "5,460",
          []
        ]
      ]
    ],
    "section_title": "Teams -- Stadia and locations",
    "section_text": "4 teams from Calabria , 4 teams from Campania , 4 teams from Sicily , 3 teams from Apulia , 2 teams from Basilicata , 2 teams from Lazio . BisceglieCasertanaCataniaCatanzaroCaveseJuve StabiaMateraMonopoliPaganesePotenzaRegginaRendeRietiSicula LeonzioSiracusaTrapaniViboneseVirtus FrancavillaViterbese Castrense Location of teams in Serie C ( Group C ) 2018\u201319",
    "uid": "2018\u201319_Serie_C_2",
    "intro": "The 2018-19 Serie C was the fifth season of the unified Serie C division, the third tier of the Italian football league system."
  },
  "2000\u201301_A_Group_1": {
    "url": "https://en.wikipedia.org/wiki/2000\u201301_A_Group",
    "title": "2000\u201301 A Group",
    "header": [
      [
        "Team",
        []
      ],
      [
        "Manager",
        []
      ],
      [
        "Captain",
        []
      ],
      [
        "Kit manufacturer",
        []
      ],
      [
        "Shirt sponsor",
        []
      ]
    ],
    "data": [
      [
        [
          "Beroe",
          []
        ],
        [
          "Tsvetomir Parvanov",
          [
            "/wiki/Tsvetomir_Parvanov"
          ]
        ],
        [
          "",
          []
        ],
        [
          "Erima",
          []
        ],
        [
          "AKSA",
          [
            "/wiki/AKSA_Power_Generation"
          ]
        ]
      ],
      [
        [
          "Botev Plovdiv",
          []
        ],
        [
          "Georgi Lazarov",
          []
        ],
        [
          "",
          []
        ],
        [
          "",
          []
        ],
        [
          "Vitosha AD",
          []
        ]
      ],
      [
        [
          "Cherno More",
          []
        ],
        [
          "Bozhil Kolev",
          [
            "/wiki/Bozhil_Kolev"
          ]
        ],
        [
          "Ventsislav Marinov",
          []
        ],
        [
          "Asics",
          []
        ],
        [
          "VAI Holding",
          []
        ]
      ],
      [
        [
          "Chernomorets",
          []
        ],
        [
          "Nikolay Rusev",
          [
            "/wiki/Nikolay_Rusev"
          ]
        ],
        [
          "Angel Stoykov",
          [
            "/wiki/Angel_Stoykov"
          ]
        ],
        [
          "",
          []
        ],
        [
          "",
          []
        ]
      ],
      [
        [
          "CSKA Sofia",
          []
        ],
        [
          "Enrico Catuzzi",
          []
        ],
        [
          "",
          []
        ],
        [
          "Lotto",
          [
            "/wiki/Lotto_Sport_Italia"
          ]
        ],
        [
          "",
          []
        ]
      ],
      [
        [
          "Levski Sofia",
          []
        ],
        [
          "Ljupko Petrovi\u0107",
          [
            "/wiki/Ljupko_Petrovi\u0107"
          ]
        ],
        [
          "Stanimir Stoilov",
          [
            "/wiki/Stanimir_Stoilov"
          ]
        ],
        [
          "Diadora",
          [
            "/wiki/Diadora"
          ]
        ],
        [
          "Mobiltel",
          [
            "/wiki/A1_Bulgaria"
          ]
        ]
      ],
      [
        [
          "Lokomotiv Sofia",
          []
        ],
        [
          "Angel Kolev",
          [
            "/wiki/Angel_Kolev"
          ]
        ],
        [
          "",
          []
        ],
        [
          "Adidas",
          [
            "/wiki/Adidas"
          ]
        ],
        [
          "Delta-G",
          []
        ]
      ],
      [
        [
          "Lovech",
          []
        ],
        [
          "Ferario Spasov",
          [
            "/wiki/Ferario_Spasov"
          ]
        ],
        [
          "Vitomir Vutov",
          [
            "/wiki/Vitomir_Vutov"
          ]
        ],
        [
          "Asics",
          []
        ],
        [
          "Litex Commerce",
          []
        ]
      ],
      [
        [
          "Minyor",
          []
        ],
        [
          "Ventsislav Arsov",
          []
        ],
        [
          "",
          []
        ],
        [
          "Nike",
          [
            "/wiki/Nike,_Inc."
          ]
        ],
        [
          "",
          []
        ]
      ],
      [
        [
          "Neftochimic",
          []
        ],
        [
          "Dimitar Stoychev",
          []
        ],
        [
          "Veliyan Parushev",
          [
            "/wiki/Veliyan_Parushev"
          ]
        ],
        [
          "Puma",
          [
            "/wiki/Puma_(brand)"
          ]
        ],
        [
          "Petrol AD",
          [
            "/wiki/Petrol_AD"
          ]
        ]
      ],
      [
        [
          "Slavia Sofia",
          []
        ],
        [
          "Kiril Kachamanov",
          [
            "/wiki/Kiril_Kachamanov"
          ]
        ],
        [
          "Veselin Vachev",
          [
            "/wiki/Veselin_Vachev"
          ]
        ],
        [
          "Adidas",
          [
            "/wiki/Adidas"
          ]
        ],
        [
          "Sofiyski Imoti",
          []
        ]
      ],
      [
        [
          "Velbazhd",
          []
        ],
        [
          "Dimitar Dimitrov",
          [
            "/wiki/Dimitar_Dimitrov_(football_manager)"
          ]
        ],
        [
          "Slavcho Pavlov",
          [
            "/wiki/Slavcho_Pavlov"
          ]
        ],
        [
          "Nike",
          [
            "/wiki/Nike,_Inc."
          ]
        ],
        [
          "VIS-2",
          [
            "/wiki/Vasil_Iliev_Security"
          ]
        ]
      ]
    ],
    "section_title": "Teams -- Personnel and kits",
    "section_text": "",
    "uid": "2000\u201301_A_Group_1",
    "intro": "The 2000-01 A Group was the 53th season of the A Football Group, the top Bulgarian professional league for association football clubs, since its establishment in 1948. The league was contested by the top 12 teams from the 1999-2000 season as well as Cherno More Varna and Hebar Pazardzhik, who joined as the promoted clubs from the 1999-2000 B Group. Defending champions Levski Sofia won their 22nd Bulgarian league title overall. Botev Plovdiv and Minyor Pernik were relegated at the end of the season by finishing in the last two places."
  },
  "2006\u201307_Serie_D_7": {
    "url": "https://en.wikipedia.org/wiki/2006\u201307_Serie_D",
    "title": "2006\u201307 Serie D",
    "header": [
      [
        "Pos",
        []
      ],
      [
        "Club",
        []
      ],
      [
        "Pld",
        []
      ],
      [
        "Pts",
        []
      ]
    ],
    "data": [
      [
        [
          "1",
          []
        ],
        [
          "Scafatese",
          [
            "/wiki/S.S._Scafatese_Calcio_1922"
          ]
        ],
        [
          "34",
          []
        ],
        [
          "80",
          []
        ]
      ],
      [
        [
          "2",
          []
        ],
        [
          "Sibilla Cuma",
          [
            "/wiki/A.S.D._Bacoli_Sibilla_Flegrea"
          ]
        ],
        [
          "34",
          []
        ],
        [
          "75",
          []
        ]
      ],
      [
        [
          "3",
          []
        ],
        [
          "Isola Liri",
          [
            "/wiki/A.C._Isola_Liri"
          ]
        ],
        [
          "34",
          []
        ],
        [
          "64",
          []
        ]
      ],
      [
        [
          "4",
          []
        ],
        [
          "Albalonga",
          [
            "/wiki/A.S.D._Albalonga"
          ]
        ],
        [
          "34",
          []
        ],
        [
          "60",
          []
        ]
      ],
      [
        [
          "5",
          []
        ],
        [
          "Campobasso",
          [
            "/wiki/S.S.D._Citt\u00e0_di_Campobasso"
          ]
        ],
        [
          "34",
          []
        ],
        [
          "54",
          []
        ]
      ],
      [
        [
          "6",
          []
        ],
        [
          "Ferentino",
          [
            "/wiki/A.S.D._Ferentino_Calcio"
          ]
        ],
        [
          "34",
          []
        ],
        [
          "53",
          []
        ]
      ],
      [
        [
          "7",
          []
        ],
        [
          "Ostiamare",
          [
            "/wiki/A.S._Ostia_Mare_Lido_Calcio"
          ]
        ],
        [
          "34",
          []
        ],
        [
          "46",
          []
        ]
      ],
      [
        [
          "8",
          []
        ],
        [
          "Bojano",
          [
            "/wiki/A.S.D._Bojano"
          ]
        ],
        [
          "34",
          []
        ],
        [
          "46",
          []
        ]
      ],
      [
        [
          "9",
          []
        ],
        [
          "Guidonia",
          [
            "/wiki/A.C.D._Guidonia_Montecelio"
          ]
        ],
        [
          "34",
          []
        ],
        [
          "44",
          []
        ]
      ],
      [
        [
          "10",
          []
        ],
        [
          "Narnese",
          [
            "/wiki/A.S.D._Narnese_Calcio"
          ]
        ],
        [
          "34",
          []
        ],
        [
          "42",
          []
        ]
      ],
      [
        [
          "11",
          []
        ],
        [
          "Monterotondo",
          [
            "/wiki/Pol._Monterotondo_Lupa"
          ]
        ],
        [
          "34",
          []
        ],
        [
          "41",
          []
        ]
      ],
      [
        [
          "12",
          []
        ],
        [
          "Astrea",
          [
            "/wiki/A.S.D._Astrea"
          ]
        ],
        [
          "34",
          []
        ],
        [
          "40",
          []
        ]
      ],
      [
        [
          "13",
          []
        ],
        [
          "Venafro",
          [
            "/wiki/U.S._Venafro"
          ]
        ],
        [
          "34",
          []
        ],
        [
          "39",
          []
        ]
      ],
      [
        [
          "14",
          []
        ],
        [
          "Morolo",
          [
            "/wiki/A.S._Morolo_Calcio"
          ]
        ],
        [
          "34",
          []
        ],
        [
          "37",
          []
        ]
      ],
      [
        [
          "15",
          []
        ],
        [
          "Tivoli",
          [
            "/wiki/S.S.D._Tivoli_Calcio_1919"
          ]
        ],
        [
          "34",
          []
        ],
        [
          "33",
          []
        ]
      ],
      [
        [
          "16",
          []
        ],
        [
          "Pisoniano",
          [
            "/wiki/A.S.D._Pisoniano"
          ]
        ],
        [
          "34",
          []
        ],
        [
          "32",
          []
        ]
      ],
      [
        [
          "17",
          []
        ],
        [
          "Anziolavinio",
          [
            "/wiki/A.S.D._Anziolavinio"
          ]
        ],
        [
          "34",
          []
        ],
        [
          "27",
          []
        ]
      ],
      [
        [
          "18",
          []
        ],
        [
          "Civitavecchiese",
          [
            "/wiki/A.S.D._Civitavecchia_1920"
          ]
        ],
        [
          "34",
          []
        ],
        [
          "24",
          []
        ]
      ]
    ],
    "section_title": "Girone G",
    "section_text": "Teams from Umbria , Lazio , Molise & Campania",
    "uid": "2006\u201307_Serie_D_7",
    "intro": "The 2006-07 Serie D was the fifty-ninth edition of the top level Italian non-professional football championship. It represented the fifth tier in the Italian football league system. The regular season started September 17, 2006 and continued through to May 6, 2007."
  },
  "2016\u201317_Serie_D_5": {
    "url": "https://en.wikipedia.org/wiki/2016\u201317_Serie_D",
    "title": "2016\u201317 Serie D",
    "header": [
      [
        "Club",
        []
      ],
      [
        "City",
        []
      ],
      [
        "Stadium",
        []
      ],
      [
        "Capacity",
        []
      ],
      [
        "2015-16 season",
        []
      ]
    ],
    "data": [
      [
        [
          "Alfonsine",
          []
        ],
        [
          "Alfonsine",
          [
            "/wiki/Alfonsine"
          ]
        ],
        [
          "Comunale",
          []
        ],
        [
          "",
          []
        ],
        [
          "1st in Eccellenza Emilia Romagna Girone B",
          []
        ]
      ],
      [
        [
          "Campobasso",
          [
            "/wiki/S.S.D._Citt\u00e0_di_Campobasso"
          ]
        ],
        [
          "Campobasso",
          [
            "/wiki/Campobasso"
          ]
        ],
        [
          "Romagnoli",
          [
            "/wiki/Stadio_Nuovo_Romagnoli"
          ]
        ],
        [
          "4,000",
          []
        ],
        [
          "3rd in Serie D Girone F",
          [
            "/wiki/2015\u201316_Serie_D"
          ]
        ]
      ],
      [
        [
          "Castelfidardo",
          [
            "/wiki/G.S.D._Castelfidardo_Calcio"
          ]
        ],
        [
          "Castelfidardo",
          [
            "/wiki/Castelfidardo"
          ]
        ],
        [
          "G. Mancini",
          []
        ],
        [
          "2,000",
          []
        ],
        [
          "12th in Serie D Girone F",
          [
            "/wiki/2015\u201316_Serie_D"
          ]
        ]
      ],
      [
        [
          "Chieti",
          [
            "/wiki/S.S._Chieti_Calcio"
          ]
        ],
        [
          "Chieti",
          [
            "/wiki/Chieti"
          ]
        ],
        [
          "Guido Angelini",
          [
            "/wiki/Stadio_Guido_Angelini"
          ]
        ],
        [
          "12,750",
          []
        ],
        [
          "6th in Serie D Girone F",
          [
            "/wiki/2015\u201316_Serie_D"
          ]
        ]
      ],
      [
        [
          "Civitanovese",
          [
            "/wiki/Civitanovese_Calcio"
          ]
        ],
        [
          "Civitanova Marche",
          [
            "/wiki/Civitanova_Marche"
          ]
        ],
        [
          "Comunale",
          []
        ],
        [
          "4,000",
          []
        ],
        [
          "1st in Eccellenza Marche",
          []
        ]
      ],
      [
        [
          "Fermana",
          [
            "/wiki/Fermana_F.C."
          ]
        ],
        [
          "Fermo",
          [
            "/wiki/Fermo"
          ]
        ],
        [
          "Bruno Recchioni",
          [
            "/wiki/Stadio_Bruno_Recchioni"
          ]
        ],
        [
          "9,500",
          []
        ],
        [
          "5th in Serie D Girone F",
          [
            "/wiki/2015\u201316_Serie_D"
          ]
        ]
      ],
      [
        [
          "Jesina",
          [
            "/wiki/S.S.D._Jesina_Calcio"
          ]
        ],
        [
          "Jesi",
          [
            "/wiki/Iesi"
          ]
        ],
        [
          "Pacifico Carotti",
          []
        ],
        [
          "5,000",
          []
        ],
        [
          "8th in Serie D Girone F",
          [
            "/wiki/2015\u201316_Serie_D"
          ]
        ]
      ],
      [
        [
          "Matelica",
          [
            "/wiki/S.S._Matelica_Calcio"
          ]
        ],
        [
          "Matelica",
          [
            "/wiki/Matelica"
          ]
        ],
        [
          "Giovanni Paolo II",
          []
        ],
        [
          "500",
          []
        ],
        [
          "4th in Serie D Girone F",
          [
            "/wiki/2014\u201315_Serie_D"
          ]
        ]
      ],
      [
        [
          "Monticelli",
          []
        ],
        [
          "Ascoli Piceno",
          [
            "/wiki/Ascoli_Piceno"
          ]
        ],
        [
          "Cino e Lillo Del Duca",
          [
            "/wiki/Stadio_Cino_e_Lillo_Del_Duca"
          ]
        ],
        [
          "10,887",
          []
        ],
        [
          "14th in Serie D Girone F",
          [
            "/wiki/2015\u201316_Serie_D"
          ]
        ]
      ],
      [
        [
          "Olympia Agnonese",
          [
            "/wiki/Pol._Olympia_Agnonese"
          ]
        ],
        [
          "Agnone",
          [
            "/wiki/Agnone"
          ]
        ],
        [
          "Civitelle",
          []
        ],
        [
          "4,000",
          []
        ],
        [
          "13th in Serie D Girone F",
          [
            "/wiki/2015\u201316_Serie_D"
          ]
        ]
      ],
      [
        [
          "Pineto",
          []
        ],
        [
          "Pineto",
          [
            "/wiki/Pineto"
          ]
        ],
        [
          "Mimmo Pavone",
          []
        ],
        [
          "1,000",
          []
        ],
        [
          "3rd in Eccellenza Abruzzo",
          []
        ]
      ],
      [
        [
          "Recanatese",
          [
            "/wiki/U.S.D._Recanatese_1923"
          ]
        ],
        [
          "Recanati",
          [
            "/wiki/Recanati"
          ]
        ],
        [
          "Nicola Tubaldi",
          []
        ],
        [
          "2,000",
          []
        ],
        [
          "7th in Serie D Girone F",
          [
            "/wiki/2015\u201316_Serie_D"
          ]
        ]
      ],
      [
        [
          "Romagna Centro",
          [
            "/wiki/Cesena_F.C."
          ]
        ],
        [
          "Cesena",
          [
            "/wiki/Cesena"
          ]
        ],
        [
          "Dino Manuzzi",
          [
            "/wiki/Stadio_Dino_Manuzzi"
          ]
        ],
        [
          "23,860",
          []
        ],
        [
          "14th in Serie D Girone D",
          [
            "/wiki/2015\u201316_Serie_D"
          ]
        ]
      ],
      [
        [
          "Sammaurese",
          []
        ],
        [
          "San Mauro Pascoli",
          [
            "/wiki/San_Mauro_Pascoli"
          ]
        ],
        [
          "Macrelli",
          []
        ],
        [
          "700",
          []
        ],
        [
          "10th in Serie D Girone D",
          [
            "/wiki/2015\u201316_Serie_D"
          ]
        ]
      ],
      [
        [
          "San Marino",
          [
            "/wiki/San_Marino_Calcio"
          ]
        ],
        [
          "Serravalle",
          [
            "/wiki/Serravalle_(San_Marino)"
          ]
        ],
        [
          "San Marino",
          [
            "/wiki/San_Marino_Stadium"
          ]
        ],
        [
          "4,877",
          []
        ],
        [
          "4th in Serie D Girone D",
          [
            "/wiki/2015\u201316_Serie_D"
          ]
        ]
      ],
      [
        [
          "San Nicol\u00f2",
          [
            "/wiki/S.S.D._San_Nicol\u00f2_Calcio"
          ]
        ],
        [
          "San Nicol\u00f2 a Tordino",
          [
            "/wiki/San_Nicol\u00f2_a_Tordino"
          ]
        ],
        [
          "Gaetano Bonolis ( Teramo )",
          [
            "/wiki/Stadio_Gaetano_Bonolis"
          ]
        ],
        [
          "7,498",
          []
        ],
        [
          "9th in Serie D Girone F",
          [
            "/wiki/2015\u201316_Serie_D"
          ]
        ]
      ],
      [
        [
          "Vastese",
          [
            "/wiki/Vastese_Calcio_1902"
          ]
        ],
        [
          "Vasto",
          [
            "/wiki/Vasto"
          ]
        ],
        [
          "Aragona",
          [
            "/wiki/Stadio_Aragona"
          ]
        ],
        [
          "5,374",
          []
        ],
        [
          "1st in Eccellenza Abruzzo",
          []
        ]
      ],
      [
        [
          "Vis Pesaro",
          [
            "/wiki/Vis_Pesaro_dal_1898"
          ]
        ],
        [
          "Pesaro",
          [
            "/wiki/Pesaro"
          ]
        ],
        [
          "Tonino Benelli",
          [
            "/wiki/Stadio_Tonino_Benelli"
          ]
        ],
        [
          "5,000",
          []
        ],
        [
          "11th in Serie D Girone F",
          [
            "/wiki/2015\u201316_Serie_D"
          ]
        ]
      ]
    ],
    "section_title": "Girone F -- Teams",
    "section_text": "8 teams from Marche , 4 teams from Abruzzo , 3 teams from Emilia-Romagna , 2 teams from Molise and 1 team from San Marino",
    "uid": "2016\u201317_Serie_D_5",
    "intro": "The 2016-17 Serie D was the sixty-ninth edition of the top level Italian non-professional football championship. It represents the fourth tier in the Italian football league system. A total of 162 teams, divided on geographical grounds into 9 groups of 18 teams each, competed. Compared to the previous season there were nine teams less, as no team was admitted supernumerary."
  },
  "2002\u201303_UEFA_Cup_2": {
    "url": "https://en.wikipedia.org/wiki/2002\u201303_UEFA_Cup",
    "title": "2002\u201303 UEFA Cup",
    "header": [
      [
        "Rank",
        []
      ],
      [
        "Association",
        []
      ],
      [
        "Coeff",
        []
      ],
      [
        "Teams",
        []
      ]
    ],
    "data": [
      [
        [
          "35",
          []
        ],
        [
          "Moldova",
          [
            "/wiki/Moldovan_Football_Federation"
          ]
        ],
        [
          "4.499",
          []
        ],
        [
          "2",
          []
        ]
      ],
      [
        [
          "36",
          []
        ],
        [
          "Lithuania",
          [
            "/wiki/Lithuanian_Football_Federation"
          ]
        ],
        [
          "4.498",
          []
        ],
        [
          "2",
          []
        ]
      ],
      [
        [
          "37",
          []
        ],
        [
          "Macedonia",
          [
            "/wiki/Football_Federation_of_Macedonia"
          ]
        ],
        [
          "3.497",
          []
        ],
        [
          "2",
          []
        ]
      ],
      [
        [
          "38",
          []
        ],
        [
          "Republic of Ireland",
          [
            "/wiki/Football_Association_of_Ireland"
          ]
        ],
        [
          "2.998",
          []
        ],
        [
          "2",
          []
        ]
      ],
      [
        [
          "39",
          []
        ],
        [
          "Estonia",
          [
            "/wiki/Estonian_Football_Association"
          ]
        ],
        [
          "2.498",
          []
        ],
        [
          "2",
          []
        ]
      ],
      [
        [
          "40",
          []
        ],
        [
          "Armenia",
          [
            "/wiki/Football_Federation_of_Armenia"
          ]
        ],
        [
          "2.165",
          []
        ],
        [
          "2",
          []
        ]
      ],
      [
        [
          "41",
          []
        ],
        [
          "Wales",
          [
            "/wiki/Football_Association_of_Wales"
          ]
        ],
        [
          "2.165",
          []
        ],
        [
          "2",
          []
        ]
      ],
      [
        [
          "42",
          []
        ],
        [
          "Azerbaijan",
          [
            "/wiki/Association_of_Football_Federations_of_Azerbaijan"
          ]
        ],
        [
          "1.665",
          []
        ],
        [
          "2",
          []
        ]
      ],
      [
        [
          "43",
          []
        ],
        [
          "Malta",
          [
            "/wiki/Malta_Football_Association"
          ]
        ],
        [
          "1.665",
          []
        ],
        [
          "2",
          []
        ]
      ],
      [
        [
          "44",
          []
        ],
        [
          "Liechtenstein",
          [
            "/wiki/Liechtenstein_Football_Association"
          ]
        ],
        [
          "1.500",
          []
        ],
        [
          "1",
          []
        ]
      ],
      [
        [
          "45",
          []
        ],
        [
          "Northern Ireland",
          [
            "/wiki/Irish_Football_Association"
          ]
        ],
        [
          "1.331",
          []
        ],
        [
          "2",
          []
        ]
      ],
      [
        [
          "46",
          []
        ],
        [
          "Bosnia and Herzegovina",
          [
            "/wiki/Football_Association_of_Bosnia_and_Herzegovina"
          ]
        ],
        [
          "1.000",
          []
        ],
        [
          "2",
          []
        ]
      ],
      [
        [
          "47",
          []
        ],
        [
          "Luxembourg",
          [
            "/wiki/Luxembourg_Football_Federation"
          ]
        ],
        [
          "0.665",
          []
        ],
        [
          "2",
          []
        ]
      ],
      [
        [
          "48",
          []
        ],
        [
          "Faroe Islands",
          [
            "/wiki/Faroe_Islands_Football_Association"
          ]
        ],
        [
          "0.665",
          []
        ],
        [
          "2",
          []
        ]
      ],
      [
        [
          "49",
          []
        ],
        [
          "Albania",
          [
            "/wiki/Albanian_Football_Association"
          ]
        ],
        [
          "0.499",
          []
        ],
        [
          "2",
          []
        ]
      ],
      [
        [
          "50",
          []
        ],
        [
          "San Marino",
          [
            "/wiki/San_Marino_Football_Federation"
          ]
        ],
        [
          "0.000",
          []
        ],
        [
          "1",
          []
        ]
      ],
      [
        [
          "51",
          []
        ],
        [
          "Andorra",
          [
            "/wiki/Andorran_Football_Federation"
          ]
        ],
        [
          "0.000",
          []
        ],
        [
          "1",
          []
        ]
      ]
    ],
    "section_title": "",
    "section_text": "",
    "uid": "2002\u201303_UEFA_Cup_2",
    "intro": "The 2002-03 UEFA Cup was the 32nd edition of the UEFA Cup, the second-tier European club football tournament organised by UEFA. The final was played between Portuguese side Porto and Scottish side Celtic at the Estadio Ol\u00edmpico de Sevilla, Seville, on 21 May 2003. Porto won 3-2 through a silver goal in extra time and became the first Portuguese team to win the competition."
  },
  "1993\u201394_La_Liga_5": {
    "url": "https://en.wikipedia.org/wiki/1993\u201394_La_Liga",
    "title": "1993\u201394 La Liga",
    "header": [
      [
        "Rank",
        []
      ],
      [
        "Player",
        []
      ],
      [
        "Club",
        []
      ],
      [
        "Goals",
        []
      ]
    ],
    "data": [
      [
        [
          "1",
          []
        ],
        [
          "Rom\u00e1rio ( BRA )",
          [
            "/wiki/Rom\u00e1rio"
          ]
        ],
        [
          "Barcelona",
          []
        ],
        [
          "30",
          []
        ]
      ],
      [
        [
          "2",
          []
        ],
        [
          "Davor \u0160uker ( CRO )",
          [
            "/wiki/Davor_\u0160uker"
          ]
        ],
        [
          "Sevilla",
          []
        ],
        [
          "24",
          []
        ]
      ],
      [
        [
          "3",
          []
        ],
        [
          "Meho Kodro ( BIH )",
          [
            "/wiki/Meho_Kodro"
          ]
        ],
        [
          "Real Sociedad",
          []
        ],
        [
          "23",
          []
        ]
      ],
      [
        [
          "4",
          []
        ],
        [
          "Carlos Mu\u00f1oz ( ESP )",
          [
            "/wiki/Carlos_Mu\u00f1oz_(footballer,_born_1961)"
          ]
        ],
        [
          "Oviedo",
          []
        ],
        [
          "20",
          []
        ]
      ],
      [
        [
          "5",
          []
        ],
        [
          "Julen Guerrero ( ESP )",
          [
            "/wiki/Julen_Guerrero"
          ]
        ],
        [
          "Athletic Bilbao",
          []
        ],
        [
          "18",
          []
        ]
      ],
      [
        [
          "6",
          []
        ],
        [
          "Cuco Ziganda ( ESP )",
          [
            "/wiki/Jos\u00e9_\u00c1ngel_Ziganda"
          ]
        ],
        [
          "Athletic Bilbao",
          []
        ],
        [
          "17",
          []
        ]
      ],
      [
        [
          "7",
          []
        ],
        [
          "Bebeto ( BRA )",
          [
            "/wiki/Bebeto"
          ]
        ],
        [
          "Deportivo La Coru\u00f1a",
          []
        ],
        [
          "16",
          []
        ]
      ],
      [
        [
          "7",
          []
        ],
        [
          "Hugo S\u00e1nchez ( MEX )",
          [
            "/wiki/Hugo_S\u00e1nchez"
          ]
        ],
        [
          "Rayo Vallecano",
          []
        ],
        [
          "16",
          []
        ]
      ],
      [
        [
          "7",
          []
        ],
        [
          "Predrag Mijatovi\u0107 ( FRY )",
          [
            "/wiki/Predrag_Mijatovi\u0107"
          ]
        ],
        [
          "Valencia",
          []
        ],
        [
          "16",
          []
        ]
      ],
      [
        [
          "7",
          []
        ],
        [
          "Hristo Stoichkov ( BUL )",
          [
            "/wiki/Hristo_Stoichkov"
          ]
        ],
        [
          "Barcelona",
          []
        ],
        [
          "16",
          []
        ]
      ],
      [
        [
          "7",
          []
        ],
        [
          "Oleg Salenko ( RUS )",
          [
            "/wiki/Oleg_Salenko"
          ]
        ],
        [
          "Logro\u00f1\u00e9s",
          []
        ],
        [
          "16",
          []
        ]
      ]
    ],
    "section_title": "Pichichi Trophy",
    "section_text": "",
    "uid": "1993\u201394_La_Liga_5",
    "intro": "The 1993-94 La Liga season, the 63rd since its establishment, started on September 4, 1993, and finished on May 15, 1994. The league was won by Barcelona for the fourth consecutive season, their fourteenth league title."
  }
}