{
  "2002\u201303_UEFA_Cup_6": {
    "url": "https://en.wikipedia.org/wiki/2002\u201303_UEFA_Cup",
    "title": "2002\u201303 UEFA Cup",
    "header": [
      [
        "Team 1",
        []
      ],
      [
        "Agg",
        [
          "/wiki/Playoff_format"
        ]
      ],
      [
        "Team 2",
        []
      ],
      [
        "1st leg",
        []
      ],
      [
        "2nd leg",
        []
      ]
    ],
    "data": [
      [
        [
          "Litex Lovech",
          [
            "/wiki/PFC_Litex_Lovech"
          ]
        ],
        [
          "8-1",
          []
        ],
        [
          "Atlantas",
          [
            "/wiki/FK_Atlantas"
          ]
        ],
        [
          "5-0",
          [
            "/wiki/2002\u201303_UEFA_Cup_qualifying_round"
          ]
        ],
        [
          "3-1",
          [
            "/wiki/2002\u201303_UEFA_Cup_qualifying_round"
          ]
        ]
      ],
      [
        [
          "Encamp",
          [
            "/wiki/FC_Encamp"
          ]
        ],
        [
          "0-13",
          []
        ],
        [
          "Zenit Saint Petersburg",
          [
            "/wiki/FC_Zenit_Saint_Petersburg"
          ]
        ],
        [
          "0-5",
          [
            "/wiki/2002\u201303_UEFA_Cup_qualifying_round"
          ]
        ],
        [
          "0-8",
          [
            "/wiki/2002\u201303_UEFA_Cup_qualifying_round"
          ]
        ]
      ],
      [
        [
          "Atyrau",
          [
            "/wiki/FC_Atyrau"
          ]
        ],
        [
          "0-2",
          []
        ],
        [
          "Matador P\u00fachov",
          [
            "/wiki/M\u0160K_P\u00fachov"
          ]
        ],
        [
          "0-0",
          [
            "/wiki/2002\u201303_UEFA_Cup_qualifying_round"
          ]
        ],
        [
          "0-2",
          [
            "/wiki/2002\u201303_UEFA_Cup_qualifying_round"
          ]
        ]
      ],
      [
        [
          "Glentoran",
          [
            "/wiki/Glentoran_F.C."
          ]
        ],
        [
          "0-6",
          []
        ],
        [
          "Wis\u0142a Krak\u00f3w",
          [
            "/wiki/Wis\u0142a_Krak\u00f3w"
          ]
        ],
        [
          "0-2",
          [
            "/wiki/2002\u201303_UEFA_Cup_qualifying_round"
          ]
        ],
        [
          "0-4",
          [
            "/wiki/2002\u201303_UEFA_Cup_qualifying_round"
          ]
        ]
      ],
      [
        [
          "Pobeda",
          [
            "/wiki/FK_Pobeda"
          ]
        ],
        [
          "2-3",
          []
        ],
        [
          "Midtjylland",
          [
            "/wiki/FC_Midtjylland"
          ]
        ],
        [
          "2-0",
          [
            "/wiki/2002\u201303_UEFA_Cup_qualifying_round"
          ]
        ],
        [
          "0-3 ( a.e.t . )",
          [
            "/wiki/2002\u201303_UEFA_Cup_qualifying_round",
            "/wiki/Overtime_(sports)"
          ]
        ]
      ],
      [
        [
          "Primorje",
          [
            "/wiki/NK_Primorje"
          ]
        ],
        [
          "6-3",
          []
        ],
        [
          "Zvartnots Yerevan",
          [
            "/wiki/Zvartnots-AAL_FC"
          ]
        ],
        [
          "6-1",
          [
            "/wiki/2002\u201303_UEFA_Cup_qualifying_round"
          ]
        ],
        [
          "0-2",
          [
            "/wiki/2002\u201303_UEFA_Cup_qualifying_round"
          ]
        ]
      ],
      [
        [
          "Ventspils",
          [
            "/wiki/FK_Ventspils"
          ]
        ],
        [
          "3-1",
          []
        ],
        [
          "Lugano",
          [
            "/wiki/FC_Lugano"
          ]
        ],
        [
          "3-0",
          [
            "/wiki/2002\u201303_UEFA_Cup_qualifying_round"
          ]
        ],
        [
          "0-1",
          [
            "/wiki/2002\u201303_UEFA_Cup_qualifying_round"
          ]
        ]
      ],
      [
        [
          "Hapoel Tel Aviv",
          [
            "/wiki/Hapoel_Tel_Aviv_F.C."
          ]
        ],
        [
          "5-1",
          []
        ],
        [
          "Partizani",
          [
            "/wiki/FK_Partizani_Tirana"
          ]
        ],
        [
          "1-0",
          [
            "/wiki/2002\u201303_UEFA_Cup_qualifying_round"
          ]
        ],
        [
          "4-1",
          [
            "/wiki/2002\u201303_UEFA_Cup_qualifying_round"
          ]
        ]
      ],
      [
        [
          "Ferencv\u00e1ros",
          [
            "/wiki/Ferencv\u00e1rosi_TC"
          ]
        ],
        [
          "5-2",
          []
        ],
        [
          "AEL Limassol",
          [
            "/wiki/AEL_Limassol"
          ]
        ],
        [
          "4-0",
          [
            "/wiki/2002\u201303_UEFA_Cup_qualifying_round"
          ]
        ],
        [
          "1-2",
          [
            "/wiki/2002\u201303_UEFA_Cup_qualifying_round"
          ]
        ]
      ],
      [
        [
          "Hajduk Split",
          [
            "/wiki/HNK_Hajduk_Split"
          ]
        ],
        [
          "11-0",
          []
        ],
        [
          "G\u00cd G\u00f8ta",
          [
            "/wiki/G\u00f8tu_\u00cdtr\u00f3ttarfelag"
          ]
        ],
        [
          "3-0",
          [
            "/wiki/2002\u201303_UEFA_Cup_qualifying_round"
          ]
        ],
        [
          "8-0",
          [
            "/wiki/2002\u201303_UEFA_Cup_qualifying_round"
          ]
        ]
      ],
      [
        [
          "Brann",
          [
            "/wiki/SK_Brann"
          ]
        ],
        [
          "4-6",
          []
        ],
        [
          "S\u016bduva Marijampol\u0117",
          [
            "/wiki/FK_S\u016bduva"
          ]
        ],
        [
          "2-3",
          [
            "/wiki/2002\u201303_UEFA_Cup_qualifying_round"
          ]
        ],
        [
          "2-3",
          [
            "/wiki/2002\u201303_UEFA_Cup_qualifying_round"
          ]
        ]
      ],
      [
        [
          "Amica Wronki",
          [
            "/wiki/Amica_Wronki"
          ]
        ],
        [
          "12-2",
          []
        ],
        [
          "Total Network Solutions",
          [
            "/wiki/The_New_Saints_F.C."
          ]
        ],
        [
          "5-0",
          [
            "/wiki/2002\u201303_UEFA_Cup_qualifying_round"
          ]
        ],
        [
          "7-2",
          [
            "/wiki/2002\u201303_UEFA_Cup_qualifying_round"
          ]
        ]
      ],
      [
        [
          "Copenhagen",
          [
            "/wiki/F.C._Copenhagen"
          ]
        ],
        [
          "7-2",
          []
        ],
        [
          "Lokomotivi Tbilisi",
          [
            "/wiki/FC_Locomotive_Tbilisi"
          ]
        ],
        [
          "3-1",
          [
            "/wiki/2002\u201303_UEFA_Cup_qualifying_round"
          ]
        ],
        [
          "4-1",
          [
            "/wiki/2002\u201303_UEFA_Cup_qualifying_round"
          ]
        ]
      ],
      [
        [
          "Liep\u0101jas Metalurgs",
          [
            "/wiki/FK_Liep\u0101jas_Metalurgs"
          ]
        ],
        [
          "2-6",
          []
        ],
        [
          "K\u00e4rnten",
          [
            "/wiki/FC_K\u00e4rnten"
          ]
        ],
        [
          "0-2",
          [
            "/wiki/2002\u201303_UEFA_Cup_qualifying_round"
          ]
        ],
        [
          "2-4",
          [
            "/wiki/2002\u201303_UEFA_Cup_qualifying_round"
          ]
        ]
      ],
      [
        [
          "Vaduz",
          [
            "/wiki/FC_Vaduz"
          ]
        ],
        [
          "1-1 ( a )",
          [
            "/wiki/Away_goals_rule"
          ]
        ],
        [
          "Livingston",
          [
            "/wiki/Livingston_F.C."
          ]
        ],
        [
          "1-1",
          [
            "/wiki/2002\u201303_UEFA_Cup_qualifying_round"
          ]
        ],
        [
          "0-0",
          [
            "/wiki/2002\u201303_UEFA_Cup_qualifying_round"
          ]
        ]
      ],
      [
        [
          "Sliema Wanderers",
          [
            "/wiki/Sliema_Wanderers_F.C."
          ]
        ],
        [
          "1-5",
          []
        ],
        [
          "Polonia Warsaw",
          [
            "/wiki/Polonia_Warsaw"
          ]
        ],
        [
          "1-3",
          [
            "/wiki/2002\u201303_UEFA_Cup_qualifying_round"
          ]
        ],
        [
          "0-2",
          [
            "/wiki/2002\u201303_UEFA_Cup_qualifying_round"
          ]
        ]
      ],
      [
        [
          "Anorthosis Famagusta",
          [
            "/wiki/Anorthosis_Famagusta_FC"
          ]
        ],
        [
          "3-2",
          []
        ],
        [
          "Grevenmacher",
          [
            "/wiki/CS_Grevenmacher"
          ]
        ],
        [
          "3-0",
          [
            "/wiki/2002\u201303_UEFA_Cup_qualifying_round"
          ]
        ],
        [
          "0-2",
          [
            "/wiki/2002\u201303_UEFA_Cup_qualifying_round"
          ]
        ]
      ],
      [
        [
          "Levadia Tallinn",
          [
            "/wiki/FCI_Levadia_U21"
          ]
        ],
        [
          "0-4",
          []
        ],
        [
          "Maccabi Tel Aviv",
          [
            "/wiki/Maccabi_Tel_Aviv_F.C."
          ]
        ],
        [
          "0-2",
          [
            "/wiki/2002\u201303_UEFA_Cup_qualifying_round"
          ]
        ],
        [
          "0-2",
          [
            "/wiki/2002\u201303_UEFA_Cup_qualifying_round"
          ]
        ]
      ],
      [
        [
          "Leix\u00f5es",
          [
            "/wiki/Leix\u00f5es_S.C."
          ]
        ],
        [
          "4-3",
          []
        ],
        [
          "Belasica",
          [
            "/wiki/FK_Belasica"
          ]
        ],
        [
          "2-2",
          [
            "/wiki/2002\u201303_UEFA_Cup_qualifying_round"
          ]
        ],
        [
          "2-1",
          [
            "/wiki/2002\u201303_UEFA_Cup_qualifying_round"
          ]
        ]
      ],
      [
        [
          "Sigma Olomouc",
          [
            "/wiki/SK_Sigma_Olomouc"
          ]
        ],
        [
          "3-3 ( 3-5 p )",
          [
            "/wiki/Penalty_shoot-out_(association_football)"
          ]
        ],
        [
          "Sarajevo",
          [
            "/wiki/FK_Sarajevo"
          ]
        ],
        [
          "2-1",
          [
            "/wiki/2002\u201303_UEFA_Cup_qualifying_round"
          ]
        ],
        [
          "1-2 ( a.e.t . )",
          [
            "/wiki/2002\u201303_UEFA_Cup_qualifying_round",
            "/wiki/Overtime_(sports)"
          ]
        ]
      ]
    ],
    "section_title": "Qualifying round",
    "section_text": "Main article : 2002\u201303 UEFA Cup qualifying round In the qualifying round , teams were divided into seeded and unseeded teams based on their 2002 UEFA club coefficients , [ 8 ] and then drawn into two-legged home-and-away ties . Teams from the same association could not be drawn against each other . The draw was held on 21 June 2002 in Geneva , Switzerland . The first leg was played on 13 and 15 August , and the second leg was played on 29 August 2002 .",
    "uid": "2002\u201303_UEFA_Cup_6",
    "intro": "The 2002-03 UEFA Cup was the 32nd edition of the UEFA Cup, the second-tier European club football tournament organised by UEFA. The final was played between Portuguese side Porto and Scottish side Celtic at the Estadio Ol\u00edmpico de Sevilla, Seville, on 21 May 2003. Porto won 3-2 through a silver goal in extra time and became the first Portuguese team to win the competition."
  },
  "2008\u201309_Serie_D_7": {
    "url": "https://en.wikipedia.org/wiki/2008\u201309_Serie_D",
    "title": "2008\u201309 Serie D",
    "header": [
      [
        "Pos",
        []
      ],
      [
        "Club",
        []
      ],
      [
        "Pld",
        []
      ],
      [
        "Pts",
        []
      ]
    ],
    "data": [
      [
        [
          "1",
          []
        ],
        [
          "Villacidrese ( P )",
          [
            "/wiki/S.S._Villacidrese_Calcio"
          ]
        ],
        [
          "34",
          []
        ],
        [
          "67",
          []
        ]
      ],
      [
        [
          "2",
          []
        ],
        [
          "Tavolara",
          [
            "/wiki/S.S._Tavolara_Calcio"
          ]
        ],
        [
          "34",
          []
        ],
        [
          "61",
          []
        ]
      ],
      [
        [
          "3",
          []
        ],
        [
          "Viterbese",
          [
            "/wiki/A.S._Viterbese_Castrense"
          ]
        ],
        [
          "34",
          []
        ],
        [
          "60",
          []
        ]
      ],
      [
        [
          "4",
          []
        ],
        [
          "Gaeta",
          [
            "/wiki/Gaeta_Calcio_1931"
          ]
        ],
        [
          "34",
          []
        ],
        [
          "57",
          []
        ]
      ],
      [
        [
          "5",
          []
        ],
        [
          "Arzachena",
          [
            "/wiki/Arzachena_Academy_Costa_Smeralda"
          ]
        ],
        [
          "34",
          []
        ],
        [
          "56",
          []
        ]
      ],
      [
        [
          "6",
          []
        ],
        [
          "Boville Ernica",
          [
            "/wiki/A.S.D._Atletico_Boville_Ernica"
          ]
        ],
        [
          "34",
          []
        ],
        [
          "50",
          []
        ]
      ],
      [
        [
          "7",
          []
        ],
        [
          "Budoni",
          [
            "/wiki/A.S.D._Pol._Calcio_Budoni"
          ]
        ],
        [
          "34",
          []
        ],
        [
          "49",
          []
        ]
      ],
      [
        [
          "8",
          []
        ],
        [
          "Cynthia",
          [
            "/wiki/A.S.D._Cynthia_1920"
          ]
        ],
        [
          "34",
          []
        ],
        [
          "49",
          []
        ]
      ],
      [
        [
          "9",
          []
        ],
        [
          "Civita Castellana",
          [
            "/wiki/A.S.D._Flaminia_Civita_Castellana"
          ]
        ],
        [
          "34",
          []
        ],
        [
          "44",
          []
        ]
      ],
      [
        [
          "10",
          []
        ],
        [
          "Monterotondo",
          [
            "/wiki/Pol._Monterotondo_Lupa"
          ]
        ],
        [
          "34",
          []
        ],
        [
          "44",
          []
        ]
      ],
      [
        [
          "11",
          []
        ],
        [
          "Astrea",
          [
            "/wiki/A.S.D._Astrea"
          ]
        ],
        [
          "34",
          []
        ],
        [
          "42",
          []
        ]
      ],
      [
        [
          "12",
          []
        ],
        [
          "Morolo",
          [
            "/wiki/A.S._Morolo_Calcio"
          ]
        ],
        [
          "34",
          []
        ],
        [
          "40",
          []
        ]
      ],
      [
        [
          "13",
          []
        ],
        [
          "Lupa Frascati ( R )",
          [
            "/wiki/Lupa_Roma_F.C."
          ]
        ],
        [
          "34",
          []
        ],
        [
          "40",
          []
        ]
      ],
      [
        [
          "14",
          []
        ],
        [
          "Castelsardo",
          [
            "/wiki/U.S.D._Castelsardo"
          ]
        ],
        [
          "34",
          []
        ],
        [
          "40",
          []
        ]
      ],
      [
        [
          "15",
          []
        ],
        [
          "Guidonia M",
          [
            "/wiki/A.C.D._Guidonia_Montecelio"
          ]
        ],
        [
          "34",
          []
        ],
        [
          "38",
          []
        ]
      ],
      [
        [
          "16",
          []
        ],
        [
          "Ferentino ( R )",
          [
            "/wiki/A.S.D._Ferentino_Calcio"
          ]
        ],
        [
          "34",
          []
        ],
        [
          "38",
          []
        ]
      ],
      [
        [
          "17",
          []
        ],
        [
          "Civitavecchia ( R )",
          [
            "/wiki/A.S.D._Civitavecchia_1920"
          ]
        ],
        [
          "34",
          []
        ],
        [
          "36",
          []
        ]
      ],
      [
        [
          "18",
          []
        ],
        [
          "Calangianus ( R )",
          [
            "/wiki/F.B.C._Calangianus_1905"
          ]
        ],
        [
          "34",
          []
        ],
        [
          "12",
          []
        ]
      ]
    ],
    "section_title": "Girone G",
    "section_text": "teams from Lazio & Sardinia",
    "uid": "2008\u201309_Serie_D_7",
    "intro": "Serie D, the fifth level of Italian Football, is usually composed of 162 teams divided into nine 18-team divisions. Special relegation of four teams from the professional leagues above Serie D after the team list had been set increased the total number of teams for this season to 166. One division will have 20 teams, two will have 19, while the other six will remain at 18 teams. The regular Serie D season started September 7, 2008. Each team will play two matches against every other team in its own division; a total of 34 matches for 18-team divisions, 36 matches for the 19-team divisions, and 38 matches for the 20-team division. The nine division winners are automatically promoted to Lega Pro Seconda Divisione for the 2009-10 season, while the two last-placed teams are automatically relegated to Eccellenza. After the regular season is complete, teams placed 6th-last through to 3rd-last in each division play a double-leg series (6th-last vs 3rd-last, 5th-last vs 4th-last) where the winners remain in Serie D the following season and the two losers are also relegated to Eccellenza for a total of 4 relegations in each division, 36 in total for the league. The nine division winners enter a tournament to determine the over-all Serie D champion and is awarded the Scudetto Dilettanti. Teams placed second through fifth in each division enter a playoff tournament after the regular season as well. Eventually, a final game determines which team finishes first and which teams comes in second in this 36-team playoff, and these teams may be bumped up to Lega Pro Seconda Divisione if one or more current Seconda Divisione teams runs into financial difficulties or is penalized."
  },
  "2001\u201302_UEFA_Cup_8": {
    "url": "https://en.wikipedia.org/wiki/2001\u201302_UEFA_Cup",
    "title": "2001\u201302 UEFA Cup",
    "header": [
      [
        "Team 1",
        []
      ],
      [
        "Agg",
        [
          "/wiki/Playoff_format"
        ]
      ],
      [
        "Team 2",
        []
      ],
      [
        "1st leg",
        []
      ],
      [
        "2nd leg",
        []
      ]
    ],
    "data": [
      [
        [
          "Roda JC",
          [
            "/wiki/Roda_JC_Kerkrade"
          ]
        ],
        [
          "5-3",
          []
        ],
        [
          "Maccabi Tel Aviv",
          [
            "/wiki/Maccabi_Tel_Aviv_F.C."
          ]
        ],
        [
          "4-1",
          []
        ],
        [
          "1-2",
          []
        ]
      ],
      [
        [
          "Legia Warsaw",
          [
            "/wiki/Legia_Warsaw"
          ]
        ],
        [
          "2-7",
          []
        ],
        [
          "Valencia",
          [
            "/wiki/Valencia_CF"
          ]
        ],
        [
          "1-1",
          []
        ],
        [
          "1-6",
          []
        ]
      ],
      [
        [
          "Freiburg",
          [
            "/wiki/SC_Freiburg"
          ]
        ],
        [
          "4-2",
          []
        ],
        [
          "St. Gallen",
          [
            "/wiki/FC_St._Gallen"
          ]
        ],
        [
          "0-1",
          []
        ],
        [
          "4-1",
          []
        ]
      ],
      [
        [
          "Bordeaux",
          [
            "/wiki/FC_Girondins_de_Bordeaux"
          ]
        ],
        [
          "4-0",
          []
        ],
        [
          "Standard Li\u00e8ge",
          [
            "/wiki/Standard_Li\u00e8ge"
          ]
        ],
        [
          "2-0",
          []
        ],
        [
          "2-0",
          []
        ]
      ],
      [
        [
          "Fiorentina",
          [
            "/wiki/ACF_Fiorentina"
          ]
        ],
        [
          "4-2",
          []
        ],
        [
          "Tirol Innsbruck",
          [
            "/wiki/FC_Tirol_Innsbruck"
          ]
        ],
        [
          "2-0",
          []
        ],
        [
          "2-2",
          []
        ]
      ],
      [
        [
          "Ipswich Town",
          [
            "/wiki/Ipswich_Town_F.C."
          ]
        ],
        [
          "3-1",
          []
        ],
        [
          "Helsingborg",
          [
            "/wiki/Helsingborgs_IF"
          ]
        ],
        [
          "0-0",
          []
        ],
        [
          "3-1",
          []
        ]
      ],
      [
        [
          "Paris Saint-Germain",
          [
            "/wiki/Paris_Saint-Germain_F.C."
          ]
        ],
        [
          "6-2",
          []
        ],
        [
          "Rapid Wien",
          [
            "/wiki/SK_Rapid_Wien"
          ]
        ],
        [
          "4-0",
          []
        ],
        [
          "2-2",
          []
        ]
      ],
      [
        [
          "Union Berlin",
          [
            "/wiki/1._FC_Union_Berlin"
          ]
        ],
        [
          "0-2",
          []
        ],
        [
          "Litex Lovech",
          [
            "/wiki/PFC_Litex_Lovech"
          ]
        ],
        [
          "0-2",
          []
        ],
        [
          "0-0",
          []
        ]
      ],
      [
        [
          "Copenhagen",
          [
            "/wiki/F.C._Copenhagen"
          ]
        ],
        [
          "1-0",
          []
        ],
        [
          "Ajax",
          [
            "/wiki/AFC_Ajax"
          ]
        ],
        [
          "0-0",
          []
        ],
        [
          "1-0",
          []
        ]
      ],
      [
        [
          "Internazionale",
          [
            "/wiki/Inter_Milan"
          ]
        ],
        [
          "2-1",
          []
        ],
        [
          "Wis\u0142a Krak\u00f3w",
          [
            "/wiki/Wis\u0142a_Krak\u00f3w"
          ]
        ],
        [
          "2-0",
          []
        ],
        [
          "0-1",
          []
        ]
      ],
      [
        [
          "PAOK",
          [
            "/wiki/PAOK_FC"
          ]
        ],
        [
          "8-3",
          []
        ],
        [
          "Marila P\u0159\u00edbram",
          [
            "/wiki/1._FK_P\u0159\u00edbram"
          ]
        ],
        [
          "6-1",
          []
        ],
        [
          "2-2",
          []
        ]
      ],
      [
        [
          "Rangers",
          [
            "/wiki/Rangers_F.C."
          ]
        ],
        [
          "7-2",
          []
        ],
        [
          "Dynamo Moscow",
          [
            "/wiki/FC_Dynamo_Moscow"
          ]
        ],
        [
          "3-1",
          []
        ],
        [
          "4-1",
          []
        ]
      ],
      [
        [
          "Halmstad",
          [
            "/wiki/Halmstads_BK"
          ]
        ],
        [
          "1-7",
          []
        ],
        [
          "Sporting CP",
          [
            "/wiki/Sporting_CP"
          ]
        ],
        [
          "0-1",
          []
        ],
        [
          "1-6",
          []
        ]
      ],
      [
        [
          "Zaragoza",
          [
            "/wiki/Real_Zaragoza"
          ]
        ],
        [
          "0-1",
          []
        ],
        [
          "Servette",
          [
            "/wiki/Servette_FC"
          ]
        ],
        [
          "0-0",
          []
        ],
        [
          "0-1",
          []
        ]
      ],
      [
        [
          "Leeds United",
          [
            "/wiki/Leeds_United_F.C."
          ]
        ],
        [
          "6-5",
          []
        ],
        [
          "Troyes",
          [
            "/wiki/Troyes_AC"
          ]
        ],
        [
          "4-2",
          []
        ],
        [
          "2-3",
          []
        ]
      ],
      [
        [
          "CSKA Kyiv",
          [
            "/wiki/FC_Arsenal_Kyiv"
          ]
        ],
        [
          "0-7",
          []
        ],
        [
          "Club Brugge",
          [
            "/wiki/Club_Brugge_KV"
          ]
        ],
        [
          "0-2",
          []
        ],
        [
          "0-5",
          []
        ]
      ],
      [
        [
          "Utrecht",
          [
            "/wiki/FC_Utrecht"
          ]
        ],
        [
          "1-3",
          []
        ],
        [
          "Parma",
          [
            "/wiki/Parma_Calcio_1913"
          ]
        ],
        [
          "1-3",
          []
        ],
        [
          "0-0",
          []
        ]
      ],
      [
        [
          "Osijek",
          [
            "/wiki/NK_Osijek"
          ]
        ],
        [
          "3-5",
          []
        ],
        [
          "AEK Athens",
          [
            "/wiki/AEK_Athens_F.C."
          ]
        ],
        [
          "1-2",
          []
        ],
        [
          "2-3",
          []
        ]
      ],
      [
        [
          "Viking",
          [
            "/wiki/Viking_FK"
          ]
        ],
        [
          "0-3",
          []
        ],
        [
          "Hertha BSC",
          [
            "/wiki/Hertha_BSC"
          ]
        ],
        [
          "0-1",
          []
        ],
        [
          "0-2",
          []
        ]
      ],
      [
        [
          "Grasshopper",
          [
            "/wiki/Grasshopper_Club_Z\u00fcrich"
          ]
        ],
        [
          "6-4",
          []
        ],
        [
          "Twente",
          [
            "/wiki/FC_Twente"
          ]
        ],
        [
          "4-1",
          []
        ],
        [
          "2-3",
          []
        ]
      ]
    ],
    "section_title": "Second round",
    "section_text": "",
    "uid": "2001\u201302_UEFA_Cup_8",
    "intro": "The 2001-02 UEFA Cup was won by Feyenoord at their home ground in the final against Borussia Dortmund. It was the second time they won the competition."
  },
  "2017\u201318_Serie_C_8": {
    "url": "https://en.wikipedia.org/wiki/2017\u201318_Serie_C",
    "title": "2017\u201318 Serie C",
    "header": [
      [
        "Team 1",
        []
      ],
      [
        "Agg",
        [
          "/wiki/Playoff_format"
        ]
      ],
      [
        "Team 2",
        []
      ],
      [
        "1st leg",
        []
      ],
      [
        "2nd leg",
        []
      ]
    ],
    "data": [
      [
        [
          "Viterbese",
          [
            "/wiki/A.S._Viterbese_Castrense"
          ]
        ],
        [
          "4-2",
          []
        ],
        [
          "Pisa",
          [
            "/wiki/A.C._Pisa_1909"
          ]
        ],
        [
          "1-0",
          []
        ],
        [
          "3-2",
          []
        ]
      ],
      [
        [
          "Piacenza",
          [
            "/wiki/Piacenza_Calcio_1919"
          ]
        ],
        [
          "3-4",
          []
        ],
        [
          "Sambenedettese",
          [
            "/wiki/S.S._Sambenedettese_Calcio"
          ]
        ],
        [
          "2-1",
          []
        ],
        [
          "1-3",
          []
        ]
      ],
      [
        [
          "Cosenza",
          [
            "/wiki/Cosenza_Calcio"
          ]
        ],
        [
          "4-1",
          []
        ],
        [
          "Trapani",
          [
            "/wiki/Trapani_Calcio"
          ]
        ],
        [
          "2-1",
          []
        ],
        [
          "2-0",
          []
        ]
      ],
      [
        [
          "FeralpiSal\u00f2",
          [
            "/wiki/FeralpiSal\u00f2"
          ]
        ],
        [
          "5-4",
          []
        ],
        [
          "Alessandria",
          [
            "/wiki/U.S._Alessandria_Calcio_1912"
          ]
        ],
        [
          "2-3",
          []
        ],
        [
          "3-1",
          []
        ]
      ],
      [
        [
          "Juve Stabia",
          [
            "/wiki/S.S._Juve_Stabia"
          ]
        ],
        [
          "1-1",
          []
        ],
        [
          "Reggiana",
          [
            "/wiki/Reggio_Audace_F.C."
          ]
        ],
        [
          "0-0",
          []
        ],
        [
          "1-1",
          []
        ]
      ]
    ],
    "section_title": "Promotion play-offs -- Third Round",
    "section_text": "If tied on aggregate , higher-placed team advances",
    "uid": "2017\u201318_Serie_C_8",
    "intro": "The 2017-18 Serie C was the fourth season of the unified Serie C (formerly Lega Pro) division, the third tier of the Italian football league system."
  },
  "2018\u201319_Serie_C_6": {
    "url": "https://en.wikipedia.org/wiki/2018\u201319_Serie_C",
    "title": "2018\u201319 Serie C",
    "header": [
      [
        "Team 1",
        []
      ],
      [
        "Score",
        []
      ],
      [
        "Team 2",
        []
      ]
    ],
    "data": [
      [
        [
          "Pro Vercelli",
          [
            "/wiki/F.C._Pro_Vercelli_1892"
          ]
        ],
        [
          "3-1",
          []
        ],
        [
          "Alessandria",
          [
            "/wiki/U.S._Alessandria_Calcio_1912"
          ]
        ]
      ],
      [
        [
          "Robur Siena",
          [
            "/wiki/Robur_Siena"
          ]
        ],
        [
          "0-1",
          []
        ],
        [
          "Novara",
          [
            "/wiki/Novara_Calcio"
          ]
        ]
      ],
      [
        [
          "Carrarese",
          [
            "/wiki/Carrarese_Calcio"
          ]
        ],
        [
          "2-0",
          []
        ],
        [
          "Pro Patria",
          [
            "/wiki/Aurora_Pro_Patria_1919"
          ]
        ]
      ],
      [
        [
          "Monza",
          [
            "/wiki/A.C._Monza"
          ]
        ],
        [
          "2-0",
          []
        ],
        [
          "Fermana",
          [
            "/wiki/Fermana_F.C."
          ]
        ]
      ],
      [
        [
          "S\u00fcdtirol",
          [
            "/wiki/F.C._S\u00fcdtirol"
          ]
        ],
        [
          "1-0",
          []
        ],
        [
          "Sambenedettese",
          [
            "/wiki/S.S._Sambenedettese_Calcio"
          ]
        ]
      ],
      [
        [
          "Ravenna",
          [
            "/wiki/Ravenna_F.C."
          ]
        ],
        [
          "1-1",
          []
        ],
        [
          "L.R . Vicenza",
          [
            "/wiki/L.R._Vicenza_Virtus"
          ]
        ]
      ],
      [
        [
          "Potenza",
          [
            "/wiki/Potenza_Calcio"
          ]
        ],
        [
          "0-0",
          []
        ],
        [
          "Rende",
          [
            "/wiki/Rende_Calcio_1968"
          ]
        ]
      ],
      [
        [
          "Virtus Francavilla",
          [
            "/wiki/Virtus_Francavilla_Calcio"
          ]
        ],
        [
          "1-0",
          []
        ],
        [
          "Casertana",
          [
            "/wiki/Casertana_F.C."
          ]
        ]
      ],
      [
        [
          "Reggina",
          [
            "/wiki/Reggina_1914"
          ]
        ],
        [
          "1-1",
          []
        ],
        [
          "Monopoli",
          [
            "/wiki/S.S._Monopoli_1966"
          ]
        ]
      ]
    ],
    "section_title": "Promotion play-offs -- First Round",
    "section_text": "If tied , higher-placed team advances .",
    "uid": "2018\u201319_Serie_C_6",
    "intro": "The 2018-19 Serie C was the fifth season of the unified Serie C division, the third tier of the Italian football league system."
  },
  "1978\u201379_La_Liga_3": {
    "url": "https://en.wikipedia.org/wiki/1978\u201379_La_Liga",
    "title": "1978\u201379 La Liga",
    "header": [
      [
        "Rank",
        []
      ],
      [
        "Player",
        []
      ],
      [
        "Goals",
        []
      ],
      [
        "Team",
        []
      ]
    ],
    "data": [
      [
        [
          "1",
          []
        ],
        [
          "Hans Krankl",
          [
            "/wiki/Hans_Krankl"
          ]
        ],
        [
          "29",
          []
        ],
        [
          "FC Barcelona",
          [
            "/wiki/FC_Barcelona"
          ]
        ]
      ],
      [
        [
          "2",
          []
        ],
        [
          "Quini",
          [
            "/wiki/Quini"
          ]
        ],
        [
          "23",
          []
        ],
        [
          "Sporting de Gij\u00f3n",
          [
            "/wiki/Sporting_de_Gij\u00f3n"
          ]
        ]
      ],
      [
        [
          "3",
          []
        ],
        [
          "Jes\u00fas Mar\u00eda Satr\u00fastegui",
          [
            "/wiki/Jes\u00fas_Mar\u00eda_Satr\u00fastegui"
          ]
        ],
        [
          "20",
          []
        ],
        [
          "Real Sociedad",
          [
            "/wiki/Real_Sociedad"
          ]
        ]
      ],
      [
        [
          "4",
          []
        ],
        [
          "Rub\u00e9n Cano",
          [
            "/wiki/Rub\u00e9n_Cano"
          ]
        ],
        [
          "19",
          []
        ],
        [
          "Atl\u00e9tico Madrid",
          [
            "/wiki/Atl\u00e9tico_Madrid"
          ]
        ]
      ],
      [
        [
          "4",
          []
        ],
        [
          "Pichi Alonso",
          [
            "/wiki/Pichi_Alonso"
          ]
        ],
        [
          "19",
          []
        ],
        [
          "Zaragoza",
          [
            "/wiki/Real_Zaragoza"
          ]
        ]
      ],
      [
        [
          "6",
          []
        ],
        [
          "Santillana",
          [
            "/wiki/Santillana_(footballer)"
          ]
        ],
        [
          "18",
          []
        ],
        [
          "Real Madrid",
          [
            "/wiki/Real_Madrid_CF"
          ]
        ]
      ],
      [
        [
          "7",
          []
        ],
        [
          "Carlos Morete",
          [
            "/wiki/Carlos_Morete"
          ]
        ],
        [
          "16",
          []
        ],
        [
          "UD Las Palmas",
          [
            "/wiki/UD_Las_Palmas"
          ]
        ]
      ],
      [
        [
          "8",
          []
        ],
        [
          "Miguel Brindisi",
          [
            "/wiki/Miguel_\u00c1ngel_Brindisi"
          ]
        ],
        [
          "14",
          []
        ],
        [
          "UD Las Palmas",
          [
            "/wiki/UD_Las_Palmas"
          ]
        ]
      ],
      [
        [
          "9",
          []
        ],
        [
          "Dani",
          [
            "/wiki/Dani_(footballer,_born_1951)"
          ]
        ],
        [
          "13",
          []
        ],
        [
          "Athletic Bilbao",
          [
            "/wiki/Athletic_Bilbao"
          ]
        ]
      ]
    ],
    "section_title": "Pichichi Trophy",
    "section_text": "",
    "uid": "1978\u201379_La_Liga_3",
    "intro": "The 1978-79 La Liga was the 48th season since its establishment. It started on September 2, 1978, and finished on June 3, 1979."
  },
  "2003\u201304_UEFA_Cup_4": {
    "url": "https://en.wikipedia.org/wiki/2003\u201304_UEFA_Cup",
    "title": "2003\u201304 UEFA Cup",
    "header": [
      [
        "Team 1",
        []
      ],
      [
        "Agg",
        [
          "/wiki/Playoff_format"
        ]
      ],
      [
        "Team 2",
        []
      ],
      [
        "1st leg",
        []
      ],
      [
        "2nd leg",
        []
      ]
    ],
    "data": [
      [
        [
          "Br\u00f8ndby",
          [
            "/wiki/Br\u00f8ndby_IF"
          ]
        ],
        [
          "1-3",
          []
        ],
        [
          "Barcelona",
          [
            "/wiki/FC_Barcelona"
          ]
        ],
        [
          "0-1",
          []
        ],
        [
          "1-2",
          []
        ]
      ],
      [
        [
          "Parma",
          [
            "/wiki/Parma_Calcio_1913"
          ]
        ],
        [
          "0-4",
          []
        ],
        [
          "Gen\u00e7lerbirli\u011fi",
          [
            "/wiki/Gen\u00e7lerbirli\u011fi_S.K."
          ]
        ],
        [
          "0-1",
          []
        ],
        [
          "0-3",
          []
        ]
      ],
      [
        [
          "Benfica",
          [
            "/wiki/S.L._Benfica"
          ]
        ],
        [
          "2-2 ( a )",
          [
            "/wiki/Away_goals_rule"
          ]
        ],
        [
          "Rosenborg",
          [
            "/wiki/Rosenborg_BK"
          ]
        ],
        [
          "1-0",
          []
        ],
        [
          "1-2",
          []
        ]
      ],
      [
        [
          "Marseille",
          [
            "/wiki/Olympique_de_Marseille"
          ]
        ],
        [
          "1-0",
          []
        ],
        [
          "Dnipro Dnipropetrovsk",
          [
            "/wiki/FC_Dnipro_Dnipropetrovsk"
          ]
        ],
        [
          "1-0",
          []
        ],
        [
          "0-0",
          []
        ]
      ],
      [
        [
          "Celtic",
          [
            "/wiki/Celtic_F.C."
          ]
        ],
        [
          "3-1",
          []
        ],
        [
          "Teplice",
          [
            "/wiki/FK_Teplice"
          ]
        ],
        [
          "3-0",
          []
        ],
        [
          "0-1",
          []
        ]
      ],
      [
        [
          "Perugia",
          [
            "/wiki/A.C._Perugia_Calcio"
          ]
        ],
        [
          "1-3",
          []
        ],
        [
          "PSV Eindhoven",
          [
            "/wiki/PSV_Eindhoven"
          ]
        ],
        [
          "0-0",
          []
        ],
        [
          "1-3",
          []
        ]
      ],
      [
        [
          "Groclin",
          [
            "/wiki/Dyskobolia_Grodzisk_Wielkopolski"
          ]
        ],
        [
          "1-5",
          []
        ],
        [
          "Bordeaux",
          [
            "/wiki/FC_Girondins_de_Bordeaux"
          ]
        ],
        [
          "0-1",
          []
        ],
        [
          "1-4",
          []
        ]
      ],
      [
        [
          "Valencia",
          [
            "/wiki/Valencia_CF"
          ]
        ],
        [
          "5-2",
          []
        ],
        [
          "Be\u015fikta\u015f",
          [
            "/wiki/Be\u015fikta\u015f_J.K."
          ]
        ],
        [
          "3-2",
          []
        ],
        [
          "2-0",
          []
        ]
      ],
      [
        [
          "Galatasaray",
          [
            "/wiki/Galatasaray_S.K._(football)"
          ]
        ],
        [
          "2-5",
          []
        ],
        [
          "Villarreal",
          [
            "/wiki/Villarreal_CF"
          ]
        ],
        [
          "2-2",
          []
        ],
        [
          "0-3",
          []
        ]
      ],
      [
        [
          "Club Brugge",
          [
            "/wiki/Club_Brugge_KV"
          ]
        ],
        [
          "1-0",
          []
        ],
        [
          "Debrecen",
          [
            "/wiki/Debreceni_VSC"
          ]
        ],
        [
          "1-0",
          []
        ],
        [
          "0-0",
          []
        ]
      ],
      [
        [
          "Sochaux",
          [
            "/wiki/FC_Sochaux-Montb\u00e9liard"
          ]
        ],
        [
          "2-2 ( a )",
          [
            "/wiki/Away_goals_rule"
          ]
        ],
        [
          "Internazionale",
          [
            "/wiki/Inter_Milan"
          ]
        ],
        [
          "2-2",
          []
        ],
        [
          "0-0",
          []
        ]
      ],
      [
        [
          "Liverpool",
          [
            "/wiki/Liverpool_F.C."
          ]
        ],
        [
          "6-2",
          []
        ],
        [
          "Levski Sofia",
          [
            "/wiki/PFC_Levski_Sofia"
          ]
        ],
        [
          "2-0",
          []
        ],
        [
          "4-2",
          []
        ]
      ],
      [
        [
          "Spartak Moscow",
          [
            "/wiki/FC_Spartak_Moscow"
          ]
        ],
        [
          "1-3",
          []
        ],
        [
          "Mallorca",
          [
            "/wiki/RCD_Mallorca"
          ]
        ],
        [
          "0-3",
          []
        ],
        [
          "1-0",
          []
        ]
      ],
      [
        [
          "Gaziantepspor",
          [
            "/wiki/Gaziantepspor"
          ]
        ],
        [
          "1-2",
          []
        ],
        [
          "Roma",
          [
            "/wiki/A.S._Roma"
          ]
        ],
        [
          "1-0",
          []
        ],
        [
          "0-2",
          []
        ]
      ],
      [
        [
          "Auxerre",
          [
            "/wiki/AJ_Auxerre"
          ]
        ],
        [
          "1-0",
          []
        ],
        [
          "Panathinaikos",
          [
            "/wiki/Panathinaikos_F.C."
          ]
        ],
        [
          "0-0",
          []
        ],
        [
          "1-0",
          []
        ]
      ],
      [
        [
          "V\u00e5lerenga",
          [
            "/wiki/V\u00e5lerenga_Fotball"
          ]
        ],
        [
          "2-4",
          []
        ],
        [
          "Newcastle United",
          [
            "/wiki/Newcastle_United_F.C."
          ]
        ],
        [
          "1-1",
          []
        ],
        [
          "1-3",
          []
        ]
      ]
    ],
    "section_title": "Third round",
    "section_text": "",
    "uid": "2003\u201304_UEFA_Cup_4",
    "intro": "The 2003-04 UEFA Cup was won by Valencia in the final against Marseille. It wrapped up a league and UEFA Cup double for Valencia."
  },
  "2004\u201305_UEFA_Cup_2": {
    "url": "https://en.wikipedia.org/wiki/2004\u201305_UEFA_Cup",
    "title": "2004\u201305 UEFA Cup",
    "header": [
      [
        "Team 1",
        []
      ],
      [
        "Agg",
        [
          "/wiki/Playoff_format"
        ]
      ],
      [
        "Team 2",
        []
      ],
      [
        "1st leg",
        []
      ],
      [
        "2nd leg",
        []
      ]
    ],
    "data": [
      [
        [
          "Glentoran",
          [
            "/wiki/Glentoran_F.C."
          ]
        ],
        [
          "1-3",
          []
        ],
        [
          "Elfsborg",
          [
            "/wiki/IF_Elfsborg"
          ]
        ],
        [
          "0-1",
          []
        ],
        [
          "1-2",
          []
        ]
      ],
      [
        [
          "Odd Grenland",
          [
            "/wiki/Odds_BK"
          ]
        ],
        [
          "4-3",
          []
        ],
        [
          "Ekranas",
          [
            "/wiki/FK_Ekranas"
          ]
        ],
        [
          "3-1",
          []
        ],
        [
          "1-2",
          []
        ]
      ],
      [
        [
          "Beveren",
          [
            "/wiki/K.S.K._Beveren"
          ]
        ],
        [
          "5-2",
          []
        ],
        [
          "Vaduz",
          [
            "/wiki/FC_Vaduz"
          ]
        ],
        [
          "3-1",
          []
        ],
        [
          "2-1",
          []
        ]
      ],
      [
        [
          "Ventspils",
          [
            "/wiki/FK_Ventspils"
          ]
        ],
        [
          "1-1 ( a )",
          [
            "/wiki/Away_goals_rule"
          ]
        ],
        [
          "Br\u00f8ndby",
          [
            "/wiki/Br\u00f8ndby_IF"
          ]
        ],
        [
          "0-0",
          []
        ],
        [
          "1-1",
          []
        ]
      ],
      [
        [
          "Hammarby",
          [
            "/wiki/Hammarby_IF"
          ]
        ],
        [
          "4-1",
          []
        ],
        [
          "\u00cdA Akranes",
          [
            "/wiki/\u00cd\u00fer\u00f3ttabandalag_Akraness"
          ]
        ],
        [
          "2-0",
          []
        ],
        [
          "2-1",
          []
        ]
      ],
      [
        [
          "Stab\u00e6k",
          [
            "/wiki/Stab\u00e6k_Fotball"
          ]
        ],
        [
          "6-2",
          []
        ],
        [
          "Haka",
          [
            "/wiki/FC_Haka"
          ]
        ],
        [
          "3-1",
          []
        ],
        [
          "3-1",
          []
        ]
      ],
      [
        [
          "Bod\u00f8/Glimt",
          [
            "/wiki/FK_Bod\u00f8/Glimt"
          ]
        ],
        [
          "3-3 ( 8-7 p )",
          [
            "/wiki/Penalty_shoot-out_(association_football)"
          ]
        ],
        [
          "Levadia",
          [
            "/wiki/FCI_Levadia_Tallinn"
          ]
        ],
        [
          "2-1",
          []
        ],
        [
          "1-2 ( a.e.t . )",
          [
            "/wiki/Overtime_(sports)"
          ]
        ]
      ],
      [
        [
          "FH",
          [
            "/wiki/Fimleikaf\u00e9lag_Hafnarfjar\u00f0ar"
          ]
        ],
        [
          "4-3",
          []
        ],
        [
          "Dunfermline Athletic",
          [
            "/wiki/Dunfermline_Athletic_F.C."
          ]
        ],
        [
          "2-2",
          []
        ],
        [
          "2-1",
          []
        ]
      ],
      [
        [
          "\u017dalgiris Vilnius",
          [
            "/wiki/FK_\u017dalgiris"
          ]
        ],
        [
          "1-3",
          []
        ],
        [
          "Aalborg BK",
          [
            "/wiki/AaB_Fodbold"
          ]
        ],
        [
          "1-3",
          []
        ],
        [
          "0-0",
          []
        ]
      ],
      [
        [
          "\u00d6ster",
          [
            "/wiki/\u00d6sters_IF"
          ]
        ],
        [
          "3-3 ( a )",
          [
            "/wiki/Away_goals_rule"
          ]
        ],
        [
          "Liep\u0101jas Metalurgs",
          [
            "/wiki/FK_Liep\u0101jas_Metalurgs"
          ]
        ],
        [
          "2-2",
          []
        ],
        [
          "1-1",
          []
        ]
      ],
      [
        [
          "Gen\u00e7lerbirli\u011fi",
          [
            "/wiki/Gen\u00e7lerbirli\u011fi_S.K."
          ]
        ],
        [
          "2-2 ( a )",
          [
            "/wiki/Away_goals_rule"
          ]
        ],
        [
          "Rijeka",
          [
            "/wiki/HNK_Rijeka"
          ]
        ],
        [
          "1-0",
          []
        ],
        [
          "1-2",
          []
        ]
      ],
      [
        [
          "Levski Sofia",
          [
            "/wiki/PFC_Levski_Sofia"
          ]
        ],
        [
          "8-0",
          []
        ],
        [
          "Modri\u010da",
          [
            "/wiki/FK_Modri\u010da"
          ]
        ],
        [
          "5-0",
          []
        ],
        [
          "3-0",
          []
        ]
      ],
      [
        [
          "Hapoel Bnei Sakhnin",
          [
            "/wiki/Bnei_Sakhnin_F.C."
          ]
        ],
        [
          "6-1",
          []
        ],
        [
          "Partizani",
          [
            "/wiki/FK_Partizani_Tirana"
          ]
        ],
        [
          "3-0",
          []
        ],
        [
          "3-1",
          []
        ]
      ],
      [
        [
          "\u017deleznik",
          [
            "/wiki/FK_\u017deleznik"
          ]
        ],
        [
          "4-5",
          []
        ],
        [
          "Steaua Bucure\u0219ti",
          [
            "/wiki/FCSB"
          ]
        ],
        [
          "2-4",
          []
        ],
        [
          "2-1",
          []
        ]
      ],
      [
        [
          "Budu\u0107nost Banatski Dvor",
          [
            "/wiki/FK_Budu\u0107nost_Banatski_Dvor"
          ]
        ],
        [
          "2-2 ( a )",
          [
            "/wiki/Away_goals_rule"
          ]
        ],
        [
          "Maribor",
          [
            "/wiki/NK_Maribor"
          ]
        ],
        [
          "1-2",
          []
        ],
        [
          "1-0",
          []
        ]
      ],
      [
        [
          "\u017deljezni\u010dar Sarajevo",
          [
            "/wiki/FK_\u017deljezni\u010dar_Sarajevo"
          ]
        ],
        [
          "1-9",
          []
        ],
        [
          "Litex Lovech",
          [
            "/wiki/PFC_Litex_Lovech"
          ]
        ],
        [
          "1-2",
          []
        ],
        [
          "0-7",
          []
        ]
      ],
      [
        [
          "Dinamo Zagreb",
          [
            "/wiki/GNK_Dinamo_Zagreb"
          ]
        ],
        [
          "4-2",
          []
        ],
        [
          "Primorje",
          [
            "/wiki/NK_Primorje"
          ]
        ],
        [
          "4-0",
          []
        ],
        [
          "0-2",
          []
        ]
      ],
      [
        [
          "Omonia",
          [
            "/wiki/AC_Omonia"
          ]
        ],
        [
          "2-4",
          []
        ],
        [
          "CSKA Sofia",
          [
            "/wiki/PFC_CSKA_Sofia"
          ]
        ],
        [
          "1-1",
          []
        ],
        [
          "1-3 ( a.e.t . )",
          [
            "/wiki/Overtime_(sports)"
          ]
        ]
      ],
      [
        [
          "O\u0163elul Gala\u0163i",
          [
            "/wiki/ASC_O\u021belul_Gala\u021bi"
          ]
        ],
        [
          "0-1",
          []
        ],
        [
          "Partizan",
          [
            "/wiki/FK_Partizan"
          ]
        ],
        [
          "0-0",
          []
        ],
        [
          "0-1",
          []
        ]
      ],
      [
        [
          "AEK Larnaca",
          [
            "/wiki/AEK_Larnaca_FC"
          ]
        ],
        [
          "3-4",
          []
        ],
        [
          "Maccabi Petah Tikva",
          [
            "/wiki/Maccabi_Petah_Tikva_F.C."
          ]
        ],
        [
          "3-0",
          []
        ],
        [
          "0-4",
          []
        ]
      ]
    ],
    "section_title": "Qualifying rounds -- Second qualifying round",
    "section_text": "Matches were played on 12 August and 26 August 2004",
    "uid": "2004\u201305_UEFA_Cup_2",
    "intro": "The 2004-05 UEFA Cup was the 34th edition of the UEFA Cup. The format of the competition had changed from previous seasons, replacing that from the previous one after the defunction of the Cup Winners' Cup in 1999; an extra qualifying round was introduced, as was a group phase after the first round. The group stage operated in a single round-robin format consisting of eight groups of five teams, each team plays two games at home and two away and the top three finishers of each group progress to the knock-out round, joining the eight third-placed teams from the UEFA Champions League group stage. The tournament was won by CSKA Moscow, coming from behind in the final against Sporting Clube de Portugal. It was the first win by a Russian side in any European competition, and was even more impressive considering that the final was held at the Jos\u00e9 Alvalade Stadium, the home of Sporting. The match was refereed by Graham Poll. Valencia were the defending champions, but were eliminated by Steaua Bucure\u0219ti in the Round of 32 after dropping out of the UEFA Champions League Group Stage."
  },
  "1995\u201396_La_Liga_5": {
    "url": "https://en.wikipedia.org/wiki/1995\u201396_La_Liga",
    "title": "1995\u201396 La Liga",
    "header": [
      [
        "Name",
        []
      ],
      [
        "Team",
        []
      ],
      [
        "Goals",
        []
      ]
    ],
    "data": [
      [
        [
          "Juan Antonio Pizzi",
          [
            "/wiki/Juan_Antonio_Pizzi"
          ]
        ],
        [
          "Tenerife",
          [
            "/wiki/CD_Tenerife"
          ]
        ],
        [
          "31",
          []
        ]
      ],
      [
        [
          "Predrag Mijatovi\u0107",
          [
            "/wiki/Predrag_Mijatovi\u0107"
          ]
        ],
        [
          "Valencia",
          [
            "/wiki/Valencia_CF"
          ]
        ],
        [
          "28",
          []
        ]
      ],
      [
        [
          "Bebeto",
          [
            "/wiki/Bebeto"
          ]
        ],
        [
          "Deportivo de La Coru\u00f1a",
          [
            "/wiki/Deportivo_de_La_Coru\u00f1a"
          ]
        ],
        [
          "25",
          []
        ]
      ],
      [
        [
          "Alen Peternac",
          [
            "/wiki/Alen_Peternac"
          ]
        ],
        [
          "Valladolid",
          [
            "/wiki/Real_Valladolid"
          ]
        ],
        [
          "23",
          []
        ]
      ],
      [
        [
          "Ra\u00fal",
          [
            "/wiki/Ra\u00fal_(footballer)"
          ]
        ],
        [
          "Real Madrid",
          [
            "/wiki/Real_Madrid_CF"
          ]
        ],
        [
          "19",
          []
        ]
      ],
      [
        [
          "Julio Salinas",
          [
            "/wiki/Julio_Salinas"
          ]
        ],
        [
          "Sporting de Gij\u00f3n",
          [
            "/wiki/Sporting_de_Gij\u00f3n"
          ]
        ],
        [
          "18",
          []
        ]
      ],
      [
        [
          "Jordi Lard\u00edn",
          [
            "/wiki/Jordi_Lard\u00edn"
          ]
        ],
        [
          "Espanyol",
          [
            "/wiki/RCD_Espanyol"
          ]
        ],
        [
          "17",
          []
        ]
      ],
      [
        [
          "Lyuboslav Penev",
          [
            "/wiki/Lyuboslav_Penev"
          ]
        ],
        [
          "Atl\u00e9tico Madrid",
          [
            "/wiki/Atl\u00e9tico_Madrid"
          ]
        ],
        [
          "16",
          []
        ]
      ],
      [
        [
          "Davor \u0160uker",
          [
            "/wiki/Davor_\u0160uker"
          ]
        ],
        [
          "Sevilla",
          [
            "/wiki/Sevilla_FC"
          ]
        ],
        [
          "16",
          []
        ]
      ],
      [
        [
          "Vladimir Gudelj",
          [
            "/wiki/Vladimir_Gudelj"
          ]
        ],
        [
          "Celta de Vigo",
          [
            "/wiki/RC_Celta_de_Vigo"
          ]
        ],
        [
          "15",
          []
        ]
      ],
      [
        [
          "Juan Manuel Prieto Velasco",
          []
        ],
        [
          "M\u00e9rida",
          [
            "/wiki/CP_M\u00e9rida"
          ]
        ],
        [
          "15",
          []
        ]
      ]
    ],
    "section_title": "Pichichi Trophy",
    "section_text": "[ 1 ]",
    "uid": "1995\u201396_La_Liga_5",
    "intro": "The 1995-96 La Liga season, the 65th since its establishment, started on September 9, 1995, and finished on May 26, 1996."
  },
  "1997\u201398_La_Liga_1": {
    "url": "https://en.wikipedia.org/wiki/1997\u201398_La_Liga",
    "title": "1997\u201398 La Liga",
    "header": [
      [
        "Rank",
        []
      ],
      [
        "Goalscorers",
        []
      ],
      [
        "Goals",
        []
      ],
      [
        "Club",
        []
      ]
    ],
    "data": [
      [
        [
          "1",
          []
        ],
        [
          "Christian Vieri",
          [
            "/wiki/Christian_Vieri"
          ]
        ],
        [
          "24",
          []
        ],
        [
          "Atl\u00e9tico Madrid",
          [
            "/wiki/Atl\u00e9tico_Madrid"
          ]
        ]
      ],
      [
        [
          "2",
          []
        ],
        [
          "Rivaldo",
          [
            "/wiki/Rivaldo"
          ]
        ],
        [
          "19",
          []
        ],
        [
          "Barcelona",
          [
            "/wiki/FC_Barcelona"
          ]
        ]
      ],
      [
        [
          "3",
          []
        ],
        [
          "Luis Enrique",
          [
            "/wiki/Luis_Enrique"
          ]
        ],
        [
          "18",
          []
        ],
        [
          "Barcelona",
          [
            "/wiki/FC_Barcelona"
          ]
        ]
      ],
      [
        [
          "4",
          []
        ],
        [
          "Darko Kova\u010devi\u0107",
          [
            "/wiki/Darko_Kova\u010devi\u0107"
          ]
        ],
        [
          "17",
          []
        ],
        [
          "Real Sociedad",
          [
            "/wiki/Real_Sociedad"
          ]
        ]
      ],
      [
        [
          "5",
          []
        ],
        [
          "Lyuboslav Penev",
          [
            "/wiki/Lyuboslav_Penev"
          ]
        ],
        [
          "16",
          []
        ],
        [
          "Compostela",
          [
            "/wiki/SD_Compostela"
          ]
        ]
      ],
      [
        [
          "6",
          []
        ],
        [
          "Pauleta",
          [
            "/wiki/Pauleta"
          ]
        ],
        [
          "15",
          []
        ],
        [
          "Salamanca",
          [
            "/wiki/UD_Salamanca"
          ]
        ]
      ],
      [
        [
          "7",
          []
        ],
        [
          "Fernando Correa",
          [
            "/wiki/Fernando_Correa"
          ]
        ],
        [
          "14",
          []
        ],
        [
          "Racing Santander",
          [
            "/wiki/Racing_de_Santander"
          ]
        ]
      ],
      [
        [
          "8",
          []
        ],
        [
          "Juan Esn\u00e1ider",
          [
            "/wiki/Juan_Esn\u00e1ider"
          ]
        ],
        [
          "13",
          []
        ],
        [
          "Espanyol",
          [
            "/wiki/RCD_Espanyol"
          ]
        ]
      ],
      [
        [
          "8",
          []
        ],
        [
          "Alen Peternac",
          [
            "/wiki/Alen_Peternac"
          ]
        ],
        [
          "13",
          []
        ],
        [
          "Valladolid",
          [
            "/wiki/Real_Valladolid"
          ]
        ]
      ],
      [
        [
          "8",
          []
        ],
        [
          "Gabriel Amato",
          [
            "/wiki/Gabriel_Amato"
          ]
        ],
        [
          "13",
          []
        ],
        [
          "Mallorca",
          [
            "/wiki/RCD_Mallorca"
          ]
        ]
      ]
    ],
    "section_title": "Awards -- Pichichi Trophy",
    "section_text": "The Pichichi Trophy is awarded to the player who scores the most goals in a season .",
    "uid": "1997\u201398_La_Liga_1",
    "intro": "The 1997-98 La Liga season, the 67th since its establishment, started on 30 August 1997 and finished on 16 May 1998. On 29 March 1998, Sporting Gij\u00f3n drew 0-0 with Real Zaragoza while Racing Santander, who were 19th in the table at the time, lost by Athletic Bilbao 4-3, to make Sporting Gij\u00f3n the first team in La Liga history to be relegated in March, ending the season with a League record low points tally of just 13."
  },
  "2015\u201316_FA_Vase_10": {
    "url": "https://en.wikipedia.org/wiki/2015\u201316_FA_Vase",
    "title": "2015\u201316 FA Vase",
    "header": [
      [
        "Tie",
        []
      ],
      [
        "Home team ( Tier )",
        []
      ],
      [
        "Score",
        []
      ],
      [
        "Away team ( Tier )",
        []
      ],
      [
        "Att",
        []
      ]
    ],
    "data": [
      [
        [
          "17",
          []
        ],
        [
          "AFC Dunstable ( 9 )",
          [
            "/wiki/AFC_Dunstable"
          ]
        ],
        [
          "4-0",
          []
        ],
        [
          "Basildon United ( 9 )",
          [
            "/wiki/Basildon_United_F.C."
          ]
        ],
        [
          "87",
          []
        ]
      ],
      [
        [
          "18",
          []
        ],
        [
          "Edgware Town ( 10 )",
          [
            "/wiki/Edgware_Town_F.C."
          ]
        ],
        [
          "0-3",
          []
        ],
        [
          "Ipswich Wanderers ( 9 )",
          [
            "/wiki/Ipswich_Wanderers_F.C."
          ]
        ],
        [
          "137",
          []
        ]
      ],
      [
        [
          "19",
          []
        ],
        [
          "Yaxley ( 9 )",
          [
            "/wiki/Yaxley_F.C."
          ]
        ],
        [
          "3-4 ( a.e.t . )",
          [
            "/wiki/Overtime_(sports)"
          ]
        ],
        [
          "Sleaford Town ( 9 )",
          [
            "/wiki/Sleaford_Town_F.C."
          ]
        ],
        [
          "108",
          []
        ]
      ],
      [
        [
          "20",
          []
        ],
        [
          "Hertford Town ( 9 )",
          [
            "/wiki/Hertford_Town_F.C."
          ]
        ],
        [
          "0-2",
          []
        ],
        [
          "FC Romania ( 9 )",
          [
            "/wiki/F.C._Romania"
          ]
        ],
        [
          "231",
          []
        ]
      ],
      [
        [
          "21",
          []
        ],
        [
          "Colliers Wood United ( 9 )",
          [
            "/wiki/Colliers_Wood_United_F.C."
          ]
        ],
        [
          "1-3",
          []
        ],
        [
          "Hartley Wintney ( 9 )",
          [
            "/wiki/Hartley_Wintney_F.C."
          ]
        ],
        [
          "40",
          []
        ]
      ],
      [
        [
          "22",
          []
        ],
        [
          "Thame United ( 9 )",
          [
            "/wiki/Thame_United_F.C."
          ]
        ],
        [
          "1-2",
          []
        ],
        [
          "Kidlington ( 9 )",
          [
            "/wiki/Kidlington_F.C."
          ]
        ],
        [
          "132",
          []
        ]
      ],
      [
        [
          "23",
          []
        ],
        [
          "Ascot United ( 9 )",
          [
            "/wiki/Ascot_United_F.C."
          ]
        ],
        [
          "0-0",
          []
        ],
        [
          "Camberley Town ( 9 )",
          [
            "/wiki/Camberley_Town_F.C."
          ]
        ],
        [
          "240",
          []
        ]
      ],
      [
        [
          "replay",
          []
        ],
        [
          "Camberley Town ( 9 )",
          [
            "/wiki/Camberley_Town_F.C."
          ]
        ],
        [
          "4-1",
          []
        ],
        [
          "Ascot United ( 9 )",
          [
            "/wiki/Ascot_United_F.C."
          ]
        ],
        [
          "194",
          []
        ]
      ],
      [
        [
          "24",
          []
        ],
        [
          "Lordswood ( 9 )",
          [
            "/wiki/Lordswood_F.C."
          ]
        ],
        [
          "1-5",
          []
        ],
        [
          "Ashford United ( 9 )",
          [
            "/wiki/Ashford_United_F.C."
          ]
        ],
        [
          "90",
          []
        ]
      ],
      [
        [
          "25",
          []
        ],
        [
          "Eastbourne Town ( 9 )",
          [
            "/wiki/Eastbourne_Town_F.C."
          ]
        ],
        [
          "2-3",
          []
        ],
        [
          "Sutton Common Rovers ( 9 )",
          [
            "/wiki/Sutton_Common_Rovers_F.C."
          ]
        ],
        [
          "142",
          []
        ]
      ],
      [
        [
          "26",
          []
        ],
        [
          "Tadley Calleva ( 10 )",
          [
            "/wiki/Tadley_Calleva_F.C."
          ]
        ],
        [
          "2-2",
          []
        ],
        [
          "Newport IW ( 9 )",
          [
            "/wiki/Newport_(IOW)_F.C."
          ]
        ],
        [
          "105",
          []
        ]
      ],
      [
        [
          "replay",
          []
        ],
        [
          "Newport IW ( 9 )",
          [
            "/wiki/Newport_(IOW)_F.C."
          ]
        ],
        [
          "4-2 ( a.e.t . )",
          [
            "/wiki/Overtime_(sports)"
          ]
        ],
        [
          "Tadley Calleva ( 10 )",
          [
            "/wiki/Tadley_Calleva_F.C."
          ]
        ],
        [
          "164",
          []
        ]
      ],
      [
        [
          "27",
          []
        ],
        [
          "Canterbury City ( 9 )",
          [
            "/wiki/Canterbury_City_F.C."
          ]
        ],
        [
          "1-3",
          []
        ],
        [
          "Knaphill ( 9 )",
          [
            "/wiki/Knaphill_F.C."
          ]
        ],
        [
          "81",
          []
        ]
      ],
      [
        [
          "28",
          []
        ],
        [
          "Moneyfields ( 9 )",
          [
            "/wiki/Moneyfields_F.C."
          ]
        ],
        [
          "0-0",
          []
        ],
        [
          "Brimscombe & Thrupp ( 9 )",
          [
            "/wiki/Brimscombe_&_Thrupp_F.C."
          ]
        ],
        [
          "70",
          []
        ]
      ],
      [
        [
          "replay",
          []
        ],
        [
          "Brimscombe & Thrupp ( 9 )",
          [
            "/wiki/Brimscombe_&_Thrupp_F.C."
          ]
        ],
        [
          "0-2",
          []
        ],
        [
          "Moneyfields ( 9 )",
          [
            "/wiki/Moneyfields_F.C."
          ]
        ],
        [
          "152",
          []
        ]
      ],
      [
        [
          "29",
          []
        ],
        [
          "Buckland Athletic ( 9 )",
          [
            "/wiki/Buckland_Athletic_F.C."
          ]
        ],
        [
          "1-2",
          []
        ],
        [
          "Bradford Town ( 9 )",
          [
            "/wiki/Bradford_Town_F.C."
          ]
        ],
        [
          "149",
          []
        ]
      ],
      [
        [
          "30",
          []
        ],
        [
          "Highworth Town ( 9 )",
          [
            "/wiki/Highworth_Town_F.C."
          ]
        ],
        [
          "1-5",
          []
        ],
        [
          "Salisbury ( 9 )",
          [
            "/wiki/Salisbury_F.C."
          ]
        ],
        [
          "357",
          []
        ]
      ],
      [
        [
          "31",
          []
        ],
        [
          "Welton Rovers ( 9 )",
          [
            "/wiki/Welton_Rovers_F.C."
          ]
        ],
        [
          "0-2",
          []
        ],
        [
          "Bodmin Town ( 10 )",
          [
            "/wiki/Bodmin_Town_F.C."
          ]
        ],
        [
          "117",
          []
        ]
      ],
      [
        [
          "32",
          []
        ],
        [
          "Bristol Manor Farm ( 9 )",
          [
            "/wiki/Bristol_Manor_Farm_F.C."
          ]
        ],
        [
          "7-1",
          []
        ],
        [
          "Hengrove Athletic ( 10 )",
          [
            "/wiki/Hengrove_Athletic_F.C."
          ]
        ],
        [
          "131",
          []
        ]
      ]
    ],
    "section_title": "",
    "section_text": "",
    "uid": "2015\u201316_FA_Vase_10",
    "intro": "The 2015-16 FA Vase is the 42nd season of the FA Vase, an annual football competition for teams playing below Step 4 of the English National League System. The competition is to be played with two qualifying rounds preceding the six proper rounds, semi-finals (played over two legs) and final to be played at Wembley Stadium. All ties before the semi-finals are played with extra-time if drawn, with penalty kicks if still drawn after extra-time in the return fixture (or after the first match if both clubs agree). Therefore, all matches listed as draws were finished after extra time. The winners were Morpeth Town, who beat Hereford 4-1 on 22 May at Wembley Stadium."
  },
  "2011\u201312_B_Group_0": {
    "url": "https://en.wikipedia.org/wiki/2011\u201312_B_Group",
    "title": "2011\u201312 B Group",
    "header": [
      [
        "Team",
        []
      ],
      [
        "City",
        []
      ],
      [
        "Stadium",
        []
      ],
      [
        "Capacity",
        []
      ]
    ],
    "data": [
      [
        [
          "Botev",
          [
            "/wiki/PFC_Botev_Plovdiv"
          ]
        ],
        [
          "Plovdiv",
          [
            "/wiki/Plovdiv"
          ]
        ],
        [
          "Hristo Botev",
          [
            "/wiki/Stadion_Hristo_Botev_(Plovdiv)"
          ]
        ],
        [
          "22,000",
          []
        ]
      ],
      [
        [
          "Chernomorets",
          [
            "/wiki/OFC_Pomorie"
          ]
        ],
        [
          "Pomorie",
          [
            "/wiki/Pomorie"
          ]
        ],
        [
          "Pomorie",
          [
            "/wiki/Stadion_Pomorie"
          ]
        ],
        [
          "3,000",
          []
        ]
      ],
      [
        [
          "Dobrudzha",
          [
            "/wiki/FC_Dobrudzha_Dobrich"
          ]
        ],
        [
          "Dobrich",
          [
            "/wiki/Dobrich"
          ]
        ],
        [
          "Druzhba",
          [
            "/wiki/Stadion_Druzhba_(Dobrich)"
          ]
        ],
        [
          "12,500",
          []
        ]
      ],
      [
        [
          "Dorostol",
          [
            "/wiki/FC_Dorostol_Silistra"
          ]
        ],
        [
          "Silistra",
          [
            "/wiki/Silistra"
          ]
        ],
        [
          "Louis Ayer",
          []
        ],
        [
          "12,000",
          []
        ]
      ],
      [
        [
          "Etar",
          [
            "/wiki/FC_Etar_1924_Veliko_Tarnovo"
          ]
        ],
        [
          "Veliko Tarnovo",
          [
            "/wiki/Veliko_Tarnovo"
          ]
        ],
        [
          "Ivaylo",
          [
            "/wiki/Stadion_Ivaylo"
          ]
        ],
        [
          "18,000",
          []
        ]
      ],
      [
        [
          "Lyubimetz 2007",
          [
            "/wiki/FC_Lyubimets"
          ]
        ],
        [
          "Lyubimets",
          [
            "/wiki/Lyubimets"
          ]
        ],
        [
          "Lyubimetz",
          []
        ],
        [
          "5,000",
          []
        ]
      ],
      [
        [
          "Neftochimic",
          [
            "/wiki/PFC_Neftochimic_Burgas_(2009\u201314)"
          ]
        ],
        [
          "Burgas",
          [
            "/wiki/Burgas"
          ]
        ],
        [
          "Lazur",
          [
            "/wiki/Stadion_Lazur"
          ]
        ],
        [
          "18,037",
          []
        ]
      ],
      [
        [
          "Nesebar",
          [
            "/wiki/OFC_Nesebar"
          ]
        ],
        [
          "Nesebar",
          [
            "/wiki/Nesebar"
          ]
        ],
        [
          "Nesebar",
          [
            "/wiki/Stadion_Nesebar"
          ]
        ],
        [
          "10,000",
          []
        ]
      ],
      [
        [
          "Spartak",
          [
            "/wiki/FC_Spartak_Varna"
          ]
        ],
        [
          "Varna",
          [
            "/wiki/Varna"
          ]
        ],
        [
          "Spartak",
          [
            "/wiki/Stadion_Spartak_(Varna)"
          ]
        ],
        [
          "13,000",
          []
        ]
      ],
      [
        [
          "Sliven 2000",
          [
            "/wiki/OFC_Sliven_2000"
          ]
        ],
        [
          "Sliven",
          [
            "/wiki/Sliven"
          ]
        ],
        [
          "Hadzhi Dimitar",
          [
            "/wiki/Stadion_Hadzhi_Dimitar"
          ]
        ],
        [
          "10,000",
          []
        ]
      ]
    ],
    "section_title": "East B Group -- Stadia and locations",
    "section_text": "BotevChernomoretsDobrudzhaDorostolEtar 1924LyubimetsNeftochimic 1986NesebarSpartak 1918Sliven 2000 Location of teams in East B Group 2011-12",
    "uid": "2011\u201312_B_Group_0",
    "intro": "The 2011-12 B Group was the 57th season of the Bulgarian B Football Group, the second tier of the Bulgarian football league system. The season started on 13 August 2011 and finished in June 2012 with the A Group promotion play-off. On 9 June the Executive Committee of Bulgarian Football Union decided to reduce further the number of teams in both West and East B PFG due licensing problems in most of the clubs. The new format consisted of ten teams in each group playing three times against all the others during the season. There were no draws for the matches between fixture 19 and fixture 27. The program was issued depending the position of each club after the completion of fixture 18. Like in the previous season, the A Group promotion play-off was played in two stages. The first was the match between the runners-up from the West and East B PFG. The final stage was played between the 14th finished team from A Group and the winner from the first stage."
  }
}