{
  "2009\u201310_Serie_D_18": {
    "url": "https://en.wikipedia.org/wiki/2009\u201310_Serie_D",
    "title": "2009\u201310 Serie D",
    "header": [
      [
        "Team 1",
        []
      ],
      [
        "Score",
        []
      ],
      [
        "Team 2",
        []
      ]
    ],
    "data": [
      [
        [
          "Virtus Entella ( A2 )",
          [
            "/wiki/Virtus_Entella"
          ]
        ],
        [
          "3-1",
          []
        ],
        [
          "( A5 ) Sarzanese",
          [
            "/wiki/A.S.D._Sarzanese_Calcio_1906"
          ]
        ]
      ],
      [
        [
          "Casale Calcio ( A3 )",
          [
            "/wiki/Casale_F.B.C."
          ]
        ],
        [
          "2-1",
          []
        ],
        [
          "( A4 ) Albese",
          [
            "/wiki/A.S.D._Albese_Calcio"
          ]
        ]
      ],
      [
        [
          "AlzanoCene ( B2 )",
          [
            "/wiki/Virtus_Bergamo_Alzano_Seriate_1909"
          ]
        ],
        [
          "0-3",
          []
        ],
        [
          "( B5 ) Renate",
          [
            "/wiki/A.C._Renate"
          ]
        ]
      ],
      [
        [
          "Pontisola ( B3 )",
          [
            "/wiki/A.C._Ponte_San_Pietro_Isola_S.S.D."
          ]
        ],
        [
          "0-3",
          []
        ],
        [
          "( B4 ) Darfo Boario",
          [
            "/wiki/U.S._Darfo_Boario_S.S.D."
          ]
        ]
      ],
      [
        [
          "Este ( C2 )",
          [
            "/wiki/A.C._Este"
          ]
        ],
        [
          "1-2",
          []
        ],
        [
          "( C5 ) Union Quinto",
          [
            "/wiki/A.S.D._Union_Quinto"
          ]
        ]
      ],
      [
        [
          "Venezia ( C3 )",
          [
            "/wiki/Venezia_F.C."
          ]
        ],
        [
          "1-0",
          []
        ],
        [
          "( C4 ) Jesolo",
          [
            "/wiki/U.S._Citt\u00e0_di_Jesolo"
          ]
        ]
      ],
      [
        [
          "Carpi ( D2 )",
          [
            "/wiki/Carpi_F.C._1909"
          ]
        ],
        [
          "6-0",
          []
        ],
        [
          "( D5 ) Santarcangelo",
          [
            "/wiki/Santarcangelo_Calcio"
          ]
        ]
      ],
      [
        [
          "Fossombrone ( D3 )",
          [
            "/wiki/F.C._Fossombrone"
          ]
        ],
        [
          "0-1",
          []
        ],
        [
          "( D4 ) Chioggia Sottomarina",
          [
            "/wiki/Clodiense_S.S.D."
          ]
        ]
      ],
      [
        [
          "Guidonia ( E2 )",
          [
            "/wiki/A.C.D._Guidonia_Montecelio"
          ]
        ],
        [
          "2-1",
          []
        ],
        [
          "( E5 ) Monterotondo",
          [
            "/wiki/Pol._Monterotondo_Lupa"
          ]
        ]
      ],
      [
        [
          "Castel Rigone ( E3 )",
          [
            "/wiki/Castel_Rigone_Calcio"
          ]
        ],
        [
          "1-0",
          []
        ],
        [
          "( E4 ) Group Castello",
          [
            "/wiki/S.S.D._Group_Citt\u00e0_di_Castello"
          ]
        ]
      ],
      [
        [
          "Santegidiese ( F2 )",
          [
            "/wiki/Santegidiese_Calcio_S.S.D."
          ]
        ],
        [
          "5-3",
          []
        ],
        [
          "( F5 ) Civitanovese",
          [
            "/wiki/Civitanovese_Calcio"
          ]
        ]
      ],
      [
        [
          "Val di Sangro ( F3 )",
          [
            "/wiki/Atessa_Val_di_Sangro_S.S.D."
          ]
        ],
        [
          "1-0",
          []
        ],
        [
          "( F4 ) L'Aquila",
          [
            "/wiki/L'Aquila_Calcio_1927"
          ]
        ]
      ],
      [
        [
          "Gaeta ( G2 )",
          [
            "/wiki/Gaeta_Calcio_1931"
          ]
        ],
        [
          "1-2",
          []
        ],
        [
          "( G5 ) Selargius",
          [
            "/wiki/A.S.D._Selargius_Calcio"
          ]
        ]
      ],
      [
        [
          "Pomezia ( G3 )",
          [
            "/wiki/S.S.D._Pomezia_Calcio"
          ]
        ],
        [
          "2-2 ( aet )",
          [
            "/wiki/Overtime_(sports)"
          ]
        ],
        [
          "( G4 ) Sanluri",
          [
            "/wiki/A.S.D._Sanluri_Calcio"
          ]
        ]
      ],
      [
        [
          "Pianura ( H2 )",
          [
            "/wiki/A.S.D._Pianura"
          ]
        ],
        [
          "6-1",
          []
        ],
        [
          "( H5 ) Sant'Antonio Abate",
          [
            "/wiki/F.C._Sant'Antonio_Abate"
          ]
        ]
      ],
      [
        [
          "Virtus Casarano ( H4 )",
          [
            "/wiki/S.S.D._Casarano_Calcio"
          ]
        ],
        [
          "2-3",
          []
        ],
        [
          "( H4 ) Forza e Coraggio",
          [
            "/wiki/A.S.D._Forza_e_Coraggio"
          ]
        ]
      ],
      [
        [
          "Trapani ( I2 )",
          [
            "/wiki/Trapani_Calcio"
          ]
        ],
        [
          "1-2 ( aet )",
          [
            "/wiki/Overtime_(sports)"
          ]
        ],
        [
          "( I5 ) Avellino",
          [
            "/wiki/U.S._Avellino_1912"
          ]
        ]
      ],
      [
        [
          "Rosarno ( I3 )",
          [
            "/wiki/A.S.D._Cittanova_Interpiana_Calcio"
          ]
        ],
        [
          "0-2",
          []
        ],
        [
          "( I4 ) Vigor Lamezia",
          [
            "/wiki/Vigor_Lamezia"
          ]
        ]
      ]
    ],
    "section_title": "Promotion playoffs -- First round",
    "section_text": "Played on May 26 , 2010 Single-legged matches played at best placed club home field : 2nd-placed team plays home 5th-placed team , 3rd-placed home team plays home 4th placed team Games ending in a tie are extended to extra time , if still tied , the higher-classified team wins",
    "uid": "2009\u201310_Serie_D_18",
    "intro": "The 2009-10 Serie D was the sixty-second edition of the top level Italian non-professional football championship. It represented the fourth tier in the Italian football league system. It consisted of 167 divided into six 18-team divisions, one 19-team division and two 20-team divisions. The regular Serie D season started September 6, 2009. Each team played two matches against every other team in its own division; a total of 34 matches for 18-team divisions, 36 matches for the 19-team divisions, and 38 matches for the 20-team division. The nine division winners were automatically promoted to Lega Pro Seconda Divisione for the 2009-10 season, while the two last-placed teams are automatically relegated to Eccellenza. After the regular season is complete, teams placed 6th-last through to 3rd-last in each division play a double-leg series (6th-last vs 3rd-last, 5th-last vs 4th-last) where the winners remain in Serie D the following season and the two losers are also relegated to Eccellenza for a total of 4 relegations in each division, 36 in total for the league. There are no playoffs if the difference between two teams is bigger than eight points. The nine division winners enter a tournament to determine the over-all Serie D champion and is awarded the Scudetto Dilettanti. Teams placed second through fifth in each division enter a playoff tournament after the regular season as well. Eventually, a final game determines which team finishes first and which teams comes in second in this 36-team playoff, and these teams may be bumped up to Lega Pro Seconda Divisione if one or more current Seconda Divisione teams runs into financial difficulties or is penalized."
  },
  "2006\u201307_Serie_D_24": {
    "url": "https://en.wikipedia.org/wiki/2006\u201307_Serie_D",
    "title": "2006\u201307 Serie D",
    "header": [
      [
        "Team 1",
        []
      ],
      [
        "Agg",
        [
          "/wiki/Playoff_format"
        ]
      ],
      [
        "Team 2",
        []
      ],
      [
        "1st leg",
        []
      ],
      [
        "2nd leg",
        []
      ]
    ],
    "data": [
      [
        [
          "Canelli ( A16 )",
          [
            "/wiki/A.S.D.C._Canelli"
          ]
        ],
        [
          "1-1",
          []
        ],
        [
          "( A13 ) Vado",
          [
            "/wiki/F.C._Vado"
          ]
        ],
        [
          "1-0",
          []
        ],
        [
          "0-1",
          []
        ]
      ],
      [
        [
          "Saluzzo ( A15 )",
          [
            "/wiki/A.C.S.D._Saluzzo"
          ]
        ],
        [
          "3-3",
          []
        ],
        [
          "( A14 ) Sestri Levante",
          [
            "/wiki/U.S.D._Sestri_Levante_1919"
          ]
        ],
        [
          "2-1",
          []
        ],
        [
          "1-2",
          []
        ]
      ],
      [
        [
          "Calangianus ( B16 )",
          [
            "/wiki/F.B.C._Calangianus_1905"
          ]
        ],
        [
          "4-3",
          []
        ],
        [
          "( B13 ) Renate",
          [
            "/wiki/A.C._Renate"
          ]
        ],
        [
          "3-0",
          []
        ],
        [
          "1-3",
          []
        ]
      ],
      [
        [
          "Palazzolo ( B15 )",
          [
            "/wiki/A.C._Palazzolo"
          ]
        ],
        [
          "1-1",
          []
        ],
        [
          "( B14 ) Fanfulla",
          [
            "/wiki/A.S.D._Fanfulla"
          ]
        ],
        [
          "0-1",
          []
        ],
        [
          "1-0",
          []
        ]
      ],
      [
        [
          "Rivignano ( C16 )",
          [
            "/wiki/A.S.D._Rivignano"
          ]
        ],
        [
          "1-1",
          []
        ],
        [
          "( C13 ) Trento",
          [
            "/wiki/A.C._Trento_S.C.S.D."
          ]
        ],
        [
          "1-1",
          []
        ],
        [
          "0-0",
          []
        ]
      ],
      [
        [
          "Bolzano ( C15 )",
          [
            "/wiki/F.C._Bolzano_1996"
          ]
        ],
        [
          "4-4",
          []
        ],
        [
          "( C14 ) Sanvitese",
          [
            "/wiki/A.S.D._Sanvitese"
          ]
        ],
        [
          "3-0",
          []
        ],
        [
          "1-4",
          []
        ]
      ],
      [
        [
          "Reno Centese ( D16 )",
          [
            "/wiki/S.P._Reno_Centese_A.S.D."
          ]
        ],
        [
          "1-2",
          []
        ],
        [
          "( D13 ) Este",
          [
            "/wiki/A.C._Este"
          ]
        ],
        [
          "0-1",
          []
        ],
        [
          "1-1",
          []
        ]
      ],
      [
        [
          "Santarcangelo ( D15 )",
          [
            "/wiki/Santarcangelo_Calcio"
          ]
        ],
        [
          "4-2",
          []
        ],
        [
          "( D14 ) Fidenza",
          [
            "/wiki/A.C._Fidenza_1922"
          ]
        ],
        [
          "2-2",
          []
        ],
        [
          "2-0",
          []
        ]
      ],
      [
        [
          "Sestese ( E16 )",
          [
            "/wiki/A.S._Sestese_Calcio"
          ]
        ],
        [
          "4-4",
          []
        ],
        [
          "( E13 ) Sansepolcro",
          [
            "/wiki/S.S.D._Vivi_Altotevere_Sansepolcro"
          ]
        ],
        [
          "1-0",
          []
        ],
        [
          "3-4",
          []
        ]
      ],
      [
        [
          "Aglianese ( E15 )",
          [
            "/wiki/Aglianese_Calcio_1923"
          ]
        ],
        [
          "2-2",
          []
        ],
        [
          "( E14 ) Fortis Juventus",
          [
            "/wiki/A.S.D._Fortis_Juventus_1909"
          ]
        ],
        [
          "1-1",
          []
        ],
        [
          "1-1",
          []
        ]
      ],
      [
        [
          "Penne ( F16 )",
          [
            "/wiki/A.S.D._Penne_Calcio"
          ]
        ],
        [
          "0-1",
          []
        ],
        [
          "( F13 ) Centobuchi",
          [
            "/wiki/S.S.D._Centobuchi"
          ]
        ],
        [
          "0-1",
          []
        ],
        [
          "0-0",
          []
        ]
      ],
      [
        [
          "Verucchio ( F15 )",
          [
            "/wiki/A.S.D._Verucchio"
          ]
        ],
        [
          "4-3",
          []
        ],
        [
          "( F14 ) Pergolese",
          [
            "/wiki/U.S._Pergolese"
          ]
        ],
        [
          "1-1",
          []
        ],
        [
          "3-2",
          []
        ]
      ],
      [
        [
          "Pisoniano ( G16 )",
          [
            "/wiki/A.S.D._Pisoniano"
          ]
        ],
        [
          "1-3",
          []
        ],
        [
          "( G13 ) Venafro",
          [
            "/wiki/U.S._Venafro"
          ]
        ],
        [
          "0-1",
          []
        ],
        [
          "1-2",
          []
        ]
      ],
      [
        [
          "Tivoli ( G15 )",
          [
            "/wiki/S.S.D._Tivoli_Calcio_1919"
          ]
        ],
        [
          "2-4",
          []
        ],
        [
          "( G14 ) Morolo",
          [
            "/wiki/A.S._Morolo_Calcio"
          ]
        ],
        [
          "1-0",
          []
        ],
        [
          "1-4",
          []
        ]
      ],
      [
        [
          "Sporting Genzano ( H16 )",
          [
            "/wiki/F.C._Sporting_Genzano"
          ]
        ],
        [
          "1-1",
          []
        ],
        [
          "( H13 ) Bitonto",
          [
            "/wiki/U.S._Bitonto"
          ]
        ],
        [
          "0-0",
          []
        ],
        [
          "1-1",
          []
        ]
      ],
      [
        [
          "Lavello ( H15 )",
          [
            "/wiki/Pol._F.C._Lavello"
          ]
        ],
        [
          "2-1",
          []
        ],
        [
          "( H14 ) Ebolitana",
          [
            "/wiki/S.S._Ebolitana_1925"
          ]
        ],
        [
          "2-1",
          []
        ],
        [
          "0-0",
          []
        ]
      ],
      [
        [
          "Campobello ( I16 )",
          [
            "/wiki/A.S.D._Campobello"
          ]
        ],
        [
          "3-1",
          []
        ],
        [
          "( I13 ) Giarre",
          [
            "/wiki/A.S.D._Giarre_Calcio_1946"
          ]
        ],
        [
          "2-0",
          []
        ],
        [
          "1-1",
          []
        ]
      ],
      [
        [
          "Licata ( I15 )",
          [
            "/wiki/A.S.D._Licata_1931"
          ]
        ],
        [
          "1-4",
          []
        ],
        [
          "( I14 ) Acicatena",
          [
            "/wiki/A.C.R.D._Acicatena"
          ]
        ],
        [
          "1-1",
          []
        ],
        [
          "0-3",
          []
        ]
      ]
    ],
    "section_title": "Relegations -- Relegation playoffs",
    "section_text": "Played May 20 & 27 , 2007 In case of aggregate tie score , higher classified team wins Team highlighted in green saved , the others are relegated to Eccellenza",
    "uid": "2006\u201307_Serie_D_24",
    "intro": "The 2006-07 Serie D was the fifty-ninth edition of the top level Italian non-professional football championship. It represented the fifth tier in the Italian football league system. The regular season started September 17, 2006 and continued through to May 6, 2007."
  },
  "2008\u201309_Serie_D_20": {
    "url": "https://en.wikipedia.org/wiki/2008\u201309_Serie_D",
    "title": "2008\u201309 Serie D",
    "header": [
      [
        "Team 1",
        []
      ],
      [
        "Score",
        []
      ],
      [
        "Team 2",
        []
      ]
    ],
    "data": [
      [
        [
          "Spezia ( A2 )",
          [
            "/wiki/Spezia_Calcio"
          ]
        ],
        [
          "2-1",
          []
        ],
        [
          "( A5 ) Albese",
          [
            "/wiki/A.S.D._Albese_Calcio"
          ]
        ]
      ],
      [
        [
          "Casale Calcio ( A3 )",
          [
            "/wiki/Casale_F.B.C."
          ]
        ],
        [
          "4-2",
          []
        ],
        [
          "( A4 ) Sarzanese",
          [
            "/wiki/A.S.D._Sarzanese_Calcio_1906"
          ]
        ]
      ],
      [
        [
          "Renate ( B2 )",
          [
            "/wiki/A.C._Renate"
          ]
        ],
        [
          "3-0",
          []
        ],
        [
          "( B5 ) AlzanoCene",
          [
            "/wiki/Virtus_Bergamo_Alzano_Seriate_1909"
          ]
        ]
      ],
      [
        [
          "Colognese ( B3 )",
          [
            "/wiki/U.S.C._Colognese"
          ]
        ],
        [
          "2-1",
          []
        ],
        [
          "( B4 ) US Sestese",
          [
            "/wiki/U.S._Sestese_Calcio"
          ]
        ]
      ],
      [
        [
          "Eurotezze ( C2 )",
          [
            "/wiki/S.S.D._Eurotezze"
          ]
        ],
        [
          "0-1",
          []
        ],
        [
          "( C5 ) Chioggia S",
          [
            "/wiki/Clodiense_S.S.D."
          ]
        ]
      ],
      [
        [
          "Domegliara ( C3 )",
          [
            "/wiki/S.S.D._Domegliara"
          ]
        ],
        [
          "0-2 ( aet )",
          [
            "/wiki/Overtime_(sports)"
          ]
        ],
        [
          "( C4 ) Union Quinto",
          [
            "/wiki/A.S.D._Union_Quinto"
          ]
        ]
      ],
      [
        [
          "Castellarano ( D2 )",
          [
            "/wiki/P.D._Castellarano"
          ]
        ],
        [
          "2-1",
          []
        ],
        [
          "( D5 ) Castel San Pietro",
          [
            "/wiki/S.S.D._Castel_San_Pietro_Terme_Calcio"
          ]
        ]
      ],
      [
        [
          "Fiorenzuola ( D3 )",
          [
            "/wiki/U.S._Fiorenzuola_1922_S.S."
          ]
        ],
        [
          "2-3",
          []
        ],
        [
          "( D4 ) Sal\u00f2",
          [
            "/wiki/A.C._Sal\u00f2"
          ]
        ]
      ],
      [
        [
          "Sansepolcro ( E2 )",
          [
            "/wiki/S.S.D._Vivi_Altotevere_Sansepolcro"
          ]
        ],
        [
          "2-1",
          []
        ],
        [
          "( E5 ) AS Sestese",
          [
            "/wiki/A.S._Sestese_Calcio"
          ]
        ]
      ],
      [
        [
          "Gavorrano ( E3 )",
          [
            "/wiki/U.S._Gavorrano"
          ]
        ],
        [
          "2-0",
          []
        ],
        [
          "( E4 ) Montevarchi",
          [
            "/wiki/Montevarchi_Calcio_Aquila_1902"
          ]
        ]
      ],
      [
        [
          "Fano ( F2 )",
          [
            "/wiki/Alma_Juventus_Fano_1906"
          ]
        ],
        [
          "3-2 ( aet )",
          [
            "/wiki/Overtime_(sports)"
          ]
        ],
        [
          "( F5 ) Nuovo Campobasso",
          [
            "/wiki/S.S.D._Citt\u00e0_di_Campobasso"
          ]
        ]
      ],
      [
        [
          "Casoli ( F3 )",
          [
            "/wiki/A.S.D._Casoli_Calcio"
          ]
        ],
        [
          "2-1",
          []
        ],
        [
          "( F4 ) Chieti",
          [
            "/wiki/S.S._Chieti_Calcio"
          ]
        ]
      ],
      [
        [
          "Tavolara ( G2 )",
          [
            "/wiki/S.S._Tavolara_Calcio"
          ]
        ],
        [
          "1-2",
          []
        ],
        [
          "( G5 ) Arzachena",
          [
            "/wiki/Arzachena_Academy_Costa_Smeralda"
          ]
        ]
      ],
      [
        [
          "Viterbese ( G3 )",
          [
            "/wiki/A.S._Viterbese_Castrense"
          ]
        ],
        [
          "2-1",
          []
        ],
        [
          "( G4 ) Gaeta",
          [
            "/wiki/Gaeta_Calcio_1931"
          ]
        ]
      ],
      [
        [
          "Nocerina ( H2 )",
          [
            "/wiki/A.S.G._Nocerina"
          ]
        ],
        [
          "5-0",
          []
        ],
        [
          "( H5 ) Ischia",
          [
            "/wiki/S.S._Ischia_Isolaverde"
          ]
        ]
      ],
      [
        [
          "Pianura ( H3 )",
          [
            "/wiki/A.S.D._Pianura"
          ]
        ],
        [
          "3-2",
          []
        ],
        [
          "( H4 ) Pomigliano",
          [
            "/wiki/A.S.D.C._Pomigliano"
          ]
        ]
      ],
      [
        [
          "Vico Equense ( I2 )",
          [
            "/wiki/F.C._Real_Citt\u00e0_di_Vico_Equense"
          ]
        ],
        [
          "3-0",
          []
        ],
        [
          "( I6 ) Rosarno",
          [
            "/wiki/A.S.D._Cittanova_Interpiana_Calcio"
          ]
        ]
      ],
      [
        [
          "Nissa ( I4 )",
          [
            "/wiki/A.S.D._S.C._Nissa_1962"
          ]
        ],
        [
          "0-1 ( aet )",
          [
            "/wiki/Overtime_(sports)"
          ]
        ],
        [
          "( I5 ) Adrano",
          [
            "/wiki/Adrano_Calcio_1922"
          ]
        ]
      ]
    ],
    "section_title": "Promotion playoffs -- First round",
    "section_text": "Played on May 27 , 2009 ; single-legged matches played at best placed club home field 2nd-placed team plays 5th-placed team , 3rd-placed team plays 4th placed team games ending in a tie are extended to extra time , if still tied , the higher-classified team wins",
    "uid": "2008\u201309_Serie_D_20",
    "intro": "Serie D, the fifth level of Italian Football, is usually composed of 162 teams divided into nine 18-team divisions. Special relegation of four teams from the professional leagues above Serie D after the team list had been set increased the total number of teams for this season to 166. One division will have 20 teams, two will have 19, while the other six will remain at 18 teams. The regular Serie D season started September 7, 2008. Each team will play two matches against every other team in its own division; a total of 34 matches for 18-team divisions, 36 matches for the 19-team divisions, and 38 matches for the 20-team division. The nine division winners are automatically promoted to Lega Pro Seconda Divisione for the 2009-10 season, while the two last-placed teams are automatically relegated to Eccellenza. After the regular season is complete, teams placed 6th-last through to 3rd-last in each division play a double-leg series (6th-last vs 3rd-last, 5th-last vs 4th-last) where the winners remain in Serie D the following season and the two losers are also relegated to Eccellenza for a total of 4 relegations in each division, 36 in total for the league. The nine division winners enter a tournament to determine the over-all Serie D champion and is awarded the Scudetto Dilettanti. Teams placed second through fifth in each division enter a playoff tournament after the regular season as well. Eventually, a final game determines which team finishes first and which teams comes in second in this 36-team playoff, and these teams may be bumped up to Lega Pro Seconda Divisione if one or more current Seconda Divisione teams runs into financial difficulties or is penalized."
  },
  "2018\u201319_I-League_2": {
    "url": "https://en.wikipedia.org/wiki/2018\u201319_I-League",
    "title": "2018\u201319 I-League",
    "header": [
      [
        "Team",
        []
      ],
      [
        "Outgoing coach",
        []
      ],
      [
        "Manner of departure",
        []
      ],
      [
        "Position in table",
        []
      ],
      [
        "Incoming coach",
        []
      ],
      [
        "Date of appointment",
        []
      ]
    ],
    "data": [
      [
        [
          "Chennai City",
          [
            "/wiki/Chennai_City_F.C."
          ]
        ],
        [
          "V. Soundararajan",
          [
            "/wiki/V._Soundararajan"
          ]
        ],
        [
          "Contract finished",
          []
        ],
        [
          "Pre-season",
          []
        ],
        [
          "Akbar Nawas",
          [
            "/wiki/Akbar_Nawas"
          ]
        ],
        [
          "20 March 2018",
          []
        ]
      ],
      [
        [
          "Aizawl",
          [
            "/wiki/Aizawl_F.C."
          ]
        ],
        [
          "Santosh Kashyap",
          [
            "/wiki/Santosh_Kashyap"
          ]
        ],
        [
          "Contract finished",
          []
        ],
        [
          "Pre-season",
          []
        ],
        [
          "Gift Raikhan",
          [
            "/wiki/Gift_Raikhan"
          ]
        ],
        [
          "6 June 2018",
          []
        ]
      ],
      [
        [
          "NEROCA",
          [
            "/wiki/NEROCA_F.C."
          ]
        ],
        [
          "Gift Raikhan",
          [
            "/wiki/Gift_Raikhan"
          ]
        ],
        [
          "Contract finished",
          []
        ],
        [
          "Pre-season",
          []
        ],
        [
          "Manuel Retamero Fraile",
          [
            "/wiki/Manuel_Retamero_Fraile"
          ]
        ],
        [
          "6 July 2018",
          []
        ]
      ],
      [
        [
          "Indian Arrows",
          [
            "/wiki/Indian_Arrows"
          ]
        ],
        [
          "Lu\u00eds Norton de Matos",
          [
            "/wiki/Lu\u00eds_Norton_de_Matos"
          ]
        ],
        [
          "Contract finished",
          []
        ],
        [
          "Pre-season",
          []
        ],
        [
          "Floyd Pinto",
          [
            "/wiki/Floyd_Pinto"
          ]
        ],
        [
          "25 July 2018",
          []
        ]
      ],
      [
        [
          "Minerva Punjab",
          [
            "/wiki/Punjab_F.C."
          ]
        ],
        [
          "Khogen Singh",
          [
            "/wiki/Khogen_Singh"
          ]
        ],
        [
          "Contract finished",
          []
        ],
        [
          "Pre-season",
          []
        ],
        [
          "Paul Munster",
          [
            "/wiki/Paul_Munster"
          ]
        ],
        [
          "9 August 2018",
          []
        ]
      ],
      [
        [
          "East Bengal",
          [
            "/wiki/East_Bengal_F.C."
          ]
        ],
        [
          "Khalid Jamil",
          [
            "/wiki/Khalid_Jamil"
          ]
        ],
        [
          "Mutual consent",
          []
        ],
        [
          "Pre-season",
          []
        ],
        [
          "Alejandro Men\u00e9ndez",
          [
            "/wiki/Alejandro_Men\u00e9ndez"
          ]
        ],
        [
          "20 August 2018",
          []
        ]
      ],
      [
        [
          "Mohun Bagan",
          [
            "/wiki/Mohun_Bagan_A.C."
          ]
        ],
        [
          "Sankarlal Chakraborty",
          [
            "/wiki/Sankarlal_Chakraborty"
          ]
        ],
        [
          "Resigned",
          []
        ],
        [
          "6th ( 11 game in )",
          []
        ],
        [
          "Khalid Jamil",
          [
            "/wiki/Khalid_Jamil"
          ]
        ],
        [
          "7 January 2019",
          []
        ]
      ],
      [
        [
          "Aizawl",
          [
            "/wiki/Aizawl_F.C."
          ]
        ],
        [
          "Gift Raikhan",
          [
            "/wiki/Gift_Raikhan"
          ]
        ],
        [
          "Resigned",
          []
        ],
        [
          "10th ( 11 game in )",
          []
        ],
        [
          "Stanley Rozario",
          [
            "/wiki/Stanley_Rozario"
          ]
        ],
        [
          "9 January 2019",
          []
        ]
      ],
      [
        [
          "Minerva Punjab",
          [
            "/wiki/Punjab_F.C."
          ]
        ],
        [
          "Paul Munster",
          [
            "/wiki/Paul_Munster"
          ]
        ],
        [
          "Resigned",
          []
        ],
        [
          "9th ( 16 game in )",
          []
        ],
        [
          "Sachin Badadhe ( interim )",
          []
        ],
        [
          "12 February 2019",
          []
        ]
      ],
      [
        [
          "Gokulam Kerala",
          [
            "/wiki/Gokulam_Kerala_F.C."
          ]
        ],
        [
          "Bino George",
          [
            "/wiki/Bino_George"
          ]
        ],
        [
          "Move To Technical Director",
          []
        ],
        [
          "10th ( 18 game in )",
          []
        ],
        [
          "Gift Raikhan",
          [
            "/wiki/Gift_Raikhan"
          ]
        ],
        [
          "28 February 2019",
          []
        ]
      ]
    ],
    "section_title": "Teams -- Head coaching changes",
    "section_text": "",
    "uid": "2018\u201319_I-League_2",
    "intro": "The 2018-19 I-League was the 12th season of the I-League, the top Indian professional football league, since its establishment in 2007. The season started on 26 October 2018 and is scheduled to conclude in March 2019. Unlike the Indian Super League, the I-League did not take a mid-season break during the 2019 AFC Asian Cup. Minerva Punjab was the defending champions having won the previous season. Real Kashmir joined as a promoted club from the I-League 2nd Division. Churchill Brothers, having been relegated the previous season, were given an exemption by the All India Football Federation for this season. Chennai City FC were the champions for this season, winning the title on the last day. This was their first title win in the history of the club. The top scorer in the league was Chennai City FCs Pedro Manzi, who finished the season with 21 goals."
  },
  "2017\u201318_I-League_4": {
    "url": "https://en.wikipedia.org/wiki/2017\u201318_I-League",
    "title": "2017\u201318 I-League",
    "header": [
      [
        "Club",
        []
      ],
      [
        "Foreigner 1",
        []
      ],
      [
        "Foreigner 2",
        []
      ],
      [
        "Foreigner 3",
        []
      ],
      [
        "Foreigner 4",
        []
      ],
      [
        "AFC Foreigner 1",
        []
      ],
      [
        "AFC Foreigner 2",
        []
      ]
    ],
    "data": [
      [
        [
          "Aizawl",
          [
            "/wiki/Aizawl_F.C."
          ]
        ],
        [
          "L\u00e9once Dodoz",
          [
            "/wiki/L\u00e9once_Dodoz"
          ]
        ],
        [
          "Alfred Jaryan",
          [
            "/wiki/Alfred_Jaryan"
          ]
        ],
        [
          "Kareem Omolaja",
          [
            "/wiki/Kareem_Omolaja"
          ]
        ],
        [
          "Andrei Ionescu",
          [
            "/wiki/Andrei_Ionescu"
          ]
        ],
        [
          "Masih Saighani",
          [
            "/wiki/Masih_Saighani"
          ]
        ],
        [
          "Yugo Kobayashi",
          [
            "/wiki/Yugo_Kobayashi_(footballer)"
          ]
        ]
      ],
      [
        [
          "Chennai City",
          [
            "/wiki/Chennai_City_F.C."
          ]
        ],
        [
          "Jean-Michel Joachim",
          [
            "/wiki/Jean-Michel_Joachim"
          ]
        ],
        [
          "Aleksandar Raki\u0107",
          [
            "/wiki/Aleksandar_Raki\u0107"
          ]
        ],
        [
          "Uro\u0161 Poljanec",
          [
            "/wiki/Uro\u0161_Poljanec"
          ]
        ],
        [
          "",
          []
        ],
        [
          "Venyamin Shumeyko",
          [
            "/wiki/Veniamin_Shumeyko"
          ]
        ],
        [
          "Kim Dong-hyeon",
          [
            "/wiki/Kim_Dong-hyeon_(footballer,_born_1994)"
          ]
        ]
      ],
      [
        [
          "Churchill Brothers",
          [
            "/wiki/Churchill_Brothers_S.C."
          ]
        ],
        [
          "Dawda Ceesay",
          [
            "/wiki/Dawda_Ceesay"
          ]
        ],
        [
          "Francis Onyeama",
          [
            "/wiki/Onyeama_Francis_Okechukwu"
          ]
        ],
        [
          "Monday Osagie",
          [
            "/wiki/Monday_Osagie"
          ]
        ],
        [
          "Willis Plaza",
          [
            "/wiki/Willis_Plaza"
          ]
        ],
        [
          "Bektur Talgat Uulu",
          [
            "/wiki/Bektur_Talgat_Uulu"
          ]
        ],
        [
          "Hussein Eldor",
          [
            "/wiki/Hussein_Eldor"
          ]
        ]
      ],
      [
        [
          "East Bengal",
          [
            "/wiki/East_Bengal_F.C."
          ]
        ],
        [
          "Eduardo Ferreira",
          [
            "/wiki/Eduardo_Ferreira"
          ]
        ],
        [
          "Ansumana Kromah",
          [
            "/wiki/Ansumana_Kromah"
          ]
        ],
        [
          "Dudu Omagbemi",
          [
            "/wiki/Dudu_Omagbemi"
          ]
        ],
        [
          "",
          []
        ],
        [
          "Katsumi Yusa",
          []
        ],
        [
          "Mahmoud Amnah",
          [
            "/wiki/Mahmoud_Amnah"
          ]
        ]
      ],
      [
        [
          "Gokulam Kerala",
          [
            "/wiki/Gokulam_Kerala_F.C."
          ]
        ],
        [
          "Daniel Addo",
          [
            "/wiki/Daniel_Addo_(footballer,_born_1989)"
          ]
        ],
        [
          "Emmanuel Chigozie",
          [
            "/wiki/Emmanuel_Chigozie"
          ]
        ],
        [
          "Henry Kisekka",
          [
            "/wiki/Henry_Kisekka"
          ]
        ],
        [
          "Musa Mudde",
          [
            "/wiki/Musa_Mudde"
          ]
        ],
        [
          "Mahmood Al-Ajmi",
          [
            "/wiki/Mahmood_Al-Ajmi"
          ]
        ],
        [
          "Gulom Urunov",
          []
        ]
      ],
      [
        [
          "Minerva Punjab",
          [
            "/wiki/Punjab_F.C."
          ]
        ],
        [
          "William Opoku",
          [
            "/wiki/William_Opoku"
          ]
        ],
        [
          "Bazie Armand",
          [
            "/wiki/Bazie_Armand"
          ]
        ],
        [
          "Guy Eric Dano",
          [
            "/wiki/Guy_Eric_Dano"
          ]
        ],
        [
          "Kassim Aidara",
          [
            "/wiki/Kassim_Aidara"
          ]
        ],
        [
          "Chencho Gyeltshen",
          [
            "/wiki/Chencho_Gyeltshen"
          ]
        ],
        [
          "Kiran Chemjong",
          [
            "/wiki/Kiran_Chemjong"
          ]
        ]
      ],
      [
        [
          "Mohun Bagan",
          [
            "/wiki/Mohun_Bagan_A.C."
          ]
        ],
        [
          "Aser Pierrick Dipanda",
          [
            "/wiki/Aser_Pierrick_Dipanda"
          ]
        ],
        [
          "Akram Moghrabi",
          [
            "/wiki/Akram_Moghrabi"
          ]
        ],
        [
          "Bimal Gharti Magar",
          [
            "/wiki/Bimal_Gharti_Magar"
          ]
        ],
        [
          "Kingsley Obumneme",
          [
            "/wiki/Kingsley_Obumneme"
          ]
        ],
        [
          "Cameron Watson",
          [
            "/wiki/Cameron_Watson_(soccer)"
          ]
        ],
        [
          "Yuta Kinowaki",
          []
        ]
      ],
      [
        [
          "NEROCA",
          [
            "/wiki/NEROCA_F.C."
          ]
        ],
        [
          "Nedo Turkovi\u0107",
          [
            "/wiki/Nedo_Turkovi\u0107"
          ]
        ],
        [
          "Fabien Vorbe",
          [
            "/wiki/Fabien_Vorbe"
          ]
        ],
        [
          "Varney Kallon",
          [
            "/wiki/Varney_Kallon"
          ]
        ],
        [
          "Felix Chidi Odili",
          [
            "/wiki/Felix_Chidi_Odili"
          ]
        ],
        [
          "Nick Ward",
          [
            "/wiki/Nick_Ward_(footballer,_born_1985)"
          ]
        ],
        [
          "Aryn Williams",
          [
            "/wiki/Aryn_Williams"
          ]
        ]
      ],
      [
        [
          "Shillong Lajong",
          [
            "/wiki/Shillong_Lajong_F.C."
          ]
        ],
        [
          "Lawrence Doe",
          [
            "/wiki/Lawrence_Doe"
          ]
        ],
        [
          "Abdoulaye Koffi",
          [
            "/wiki/Abdoulaye_Koffi"
          ]
        ],
        [
          "Daniel Odafin",
          [
            "/wiki/Daniel_Odafin"
          ]
        ],
        [
          "Saihou Jagne",
          [
            "/wiki/Saihou_Jagne"
          ]
        ],
        [
          "Oh Joo-ho",
          [
            "/wiki/Oh_Joo-ho"
          ]
        ],
        [
          "",
          []
        ]
      ]
    ],
    "section_title": "Teams -- Foreign players",
    "section_text": "On 2 August 2017 , it was announced by the All India Football Federation that the number of foreigners for each I-League club would go up to six , with two of the six having to be born in Asia or registered with the AFC . [ 13 ] Indian Arrows can not sign any foreign players as they are the AIFF developmental team .",
    "uid": "2017\u201318_I-League_4",
    "intro": "The 2017-18 I-League is the 11th season of the I-League. Aizawl were the defending champions. NEROCA entered as the promoted team from the 2016-17 I-League 2nd Division. The season began on 25 November 2017."
  },
  "2016\u201317_I-League_6": {
    "url": "https://en.wikipedia.org/wiki/2016\u201317_I-League",
    "title": "2016\u201317 I-League",
    "header": [
      [
        "Rank",
        []
      ],
      [
        "Home team",
        []
      ],
      [
        "Score",
        []
      ],
      [
        "Away team",
        []
      ],
      [
        "Attendance",
        []
      ],
      [
        "Date",
        []
      ],
      [
        "Stadium",
        []
      ]
    ],
    "data": [
      [
        [
          "1",
          []
        ],
        [
          "East Bengal",
          [
            "/wiki/East_Bengal_F.C."
          ]
        ],
        [
          "0-0",
          []
        ],
        [
          "Mohun Bagan",
          [
            "/wiki/Mohun_Bagan_A.C."
          ]
        ],
        [
          "29,067",
          []
        ],
        [
          "12 February 2017 ( 2017-02-12 )",
          []
        ],
        [
          "Kanchenjunga Stadium",
          [
            "/wiki/Kanchenjunga_Stadium"
          ]
        ]
      ],
      [
        [
          "2",
          []
        ],
        [
          "Mohun Bagan",
          [
            "/wiki/Mohun_Bagan_A.C."
          ]
        ],
        [
          "2-1",
          []
        ],
        [
          "East Bengal",
          [
            "/wiki/East_Bengal_F.C."
          ]
        ],
        [
          "23,859",
          []
        ],
        [
          "9 April 2017 ( 2017-04-09 )",
          []
        ],
        [
          "Kanchenjunga Stadium",
          [
            "/wiki/Kanchenjunga_Stadium"
          ]
        ]
      ],
      [
        [
          "3",
          []
        ],
        [
          "Shillong Lajong",
          [
            "/wiki/Shillong_Lajong_F.C."
          ]
        ],
        [
          "1-1",
          []
        ],
        [
          "Aizawl",
          [
            "/wiki/Aizawl_F.C."
          ]
        ],
        [
          "23,700",
          []
        ],
        [
          "30 April 2017 ( 2017-04-30 )",
          []
        ],
        [
          "JLN Stadium",
          [
            "/wiki/Jawaharlal_Nehru_Stadium_(Shillong)"
          ]
        ]
      ],
      [
        [
          "4",
          []
        ],
        [
          "East Bengal",
          [
            "/wiki/East_Bengal_F.C."
          ]
        ],
        [
          "1-1",
          []
        ],
        [
          "Aizawl",
          [
            "/wiki/Aizawl_F.C."
          ]
        ],
        [
          "12,700",
          []
        ],
        [
          "7 January 2017 ( 2017-01-07 )",
          []
        ],
        [
          "Barasat Stadium",
          [
            "/wiki/Barasat_Stadium"
          ]
        ]
      ],
      [
        [
          "5",
          []
        ],
        [
          "Bengaluru FC",
          [
            "/wiki/Bengaluru_FC"
          ]
        ],
        [
          "1-3",
          []
        ],
        [
          "East Bengal",
          [
            "/wiki/East_Bengal_F.C."
          ]
        ],
        [
          "12,642",
          []
        ],
        [
          "25 February 2017 ( 2017-02-25 )",
          []
        ],
        [
          "Sree Kanteerava Stadium",
          [
            "/wiki/Sree_Kanteerava_Stadium"
          ]
        ]
      ]
    ],
    "section_title": "Attendance -- Highest attendances",
    "section_text": "",
    "uid": "2016\u201317_I-League_6",
    "intro": "The 2016-17 I-League was the 10th season of the I-League, the top Indian professional league for association football clubs, since its establishment in 2007. The season began on 7 January 2017 and concluded on 30 April 2017. Aizawl won their first title on the final day after securing a draw against Shillong Lajong on 30 April 2017. Defending champions Bengaluru FC finished in the fourth place. Dempo had entered the league after being promoted from the I-League 2nd Division but withdrew from the league along with Salgaocar and Sporting Goa. Aizawl were reinstated into the league after being relegated while Churchill Brothers, Chennai City, and Minerva Punjab were granted direct-entry into the I-League."
  },
  "2016\u201317_Serie_D_22": {
    "url": "https://en.wikipedia.org/wiki/2016\u201317_Serie_D",
    "title": "2016\u201317 Serie D",
    "header": [
      [
        "Team 1",
        []
      ],
      [
        "Score",
        []
      ],
      [
        "Team 2",
        []
      ]
    ],
    "data": [
      [
        [
          "Varese ( A2 )",
          [
            "/wiki/Varese_Calcio"
          ]
        ],
        [
          "0-2",
          []
        ],
        [
          "Gozzano ( A4 )",
          [
            "/wiki/A.C._Gozzano"
          ]
        ]
      ],
      [
        [
          "Ciliverghe Mazzano ( B2 )",
          [
            "/wiki/A.S.D.P._Ciliverghe_di_Mazzano"
          ]
        ],
        [
          "2-1",
          []
        ],
        [
          "Virtus Bergamo ( B4 )",
          [
            "/wiki/Virtus_Bergamo_Alzano_Seriate_1909"
          ]
        ]
      ],
      [
        [
          "Triestina ( C2 )",
          [
            "/wiki/Unione_Triestina_2012_S.S.D."
          ]
        ],
        [
          "1-1 ( a.e.t . )",
          [
            "/wiki/Overtime_(sports)"
          ]
        ],
        [
          "Virtus Verona ( C4 )",
          [
            "/wiki/Virtus_Verona"
          ]
        ]
      ],
      [
        [
          "Imolese ( D2 )",
          [
            "/wiki/Imolese_Calcio_1919"
          ]
        ],
        [
          "1-0",
          []
        ],
        [
          "Delta Rovigo ( D3 )",
          [
            "/wiki/A.C._Delta_Calcio_Rovigo"
          ]
        ]
      ],
      [
        [
          "Massese ( E2 )",
          [
            "/wiki/U.S._Massese_1919"
          ]
        ],
        [
          "2-1",
          []
        ],
        [
          "Savona ( E3 )",
          [
            "/wiki/Savona_F.B.C."
          ]
        ]
      ],
      [
        [
          "Vis Pesaro ( F4 )",
          [
            "/wiki/Vis_Pesaro_dal_1898"
          ]
        ],
        [
          "1-1 ( a.e.t . )",
          [
            "/wiki/Overtime_(sports)"
          ]
        ],
        [
          "Olympia Agnonese ( F5 )",
          [
            "/wiki/Pol._Olympia_Agnonese"
          ]
        ]
      ],
      [
        [
          "Rieti ( G3 )",
          [
            "/wiki/F.C._Rieti"
          ]
        ],
        [
          "4-1",
          []
        ],
        [
          "L'Aquila ( G5 )",
          [
            "/wiki/L'Aquila_Calcio_1927"
          ]
        ]
      ],
      [
        [
          "Trastevere ( H2 )",
          [
            "/wiki/A.S.D._Trastevere_Calcio"
          ]
        ],
        [
          "0-2",
          []
        ],
        [
          "Nocerina ( H3 )",
          [
            "/wiki/A.S.D._Nocerina_1910"
          ]
        ]
      ],
      [
        [
          "Rende ( I2 )",
          [
            "/wiki/S.S._Rende"
          ]
        ],
        [
          "2-1",
          []
        ],
        [
          "Cavese ( I3 )",
          [
            "/wiki/Cavese_1919"
          ]
        ]
      ]
    ],
    "section_title": "Honorific play-off",
    "section_text": "Teams placed between second and fifth in each group enter a playoff tournament after the regular season . The tournament provides a priority list for entry into the next year Lega Pro in the case any of the professional teams fail to meet the minimum criteria to participate . Rules The two rounds were one-legged matches played in the home field of the best-placed team . The games ending in ties were extended to extra time . The higher classified team was declared the winner if the game was still tied after extra time . Penalty kicks were not taken . Round one matched 2nd & 5th-placed teams and 3rd & 4th-placed teams within each division . The two winners from each division played each other in the second round . The tournament results provide a list , starting with the winner , by which vacancies could be filled in Serie C. If the winner is not admitted to this league it gets \u20ac30,000 , while the replacement ( the finalist ) instead gets \u20ac15,000 . First round Single-legged matches played at best-placed club 's home field : the 2nd-placed team plays the 5th-placed team at home , the 3rd-placed team plays the 4th placed team at home Games ending in a tie are extended to extra time ; if still tied , the higher-classified team wins Team 1 Score Team 2 Varese ( A2 ) 1\u20130 Caronnese ( A5 ) Borgosesia ( A3 ) 1\u20132 Gozzano ( A4 ) Ciliverghe Mazzano ( B2 ) 2\u20131 Pro Patria ( B5 ) Pergolettese ( B3 ) 1\u20132 Virtus Bergamo ( B4 ) Triestina ( C2 ) 1\u20131 ( a.e.t . ) Abano ( C5 ) Campodarsego ( C3 ) 0\u20132 ( a.e.t . ) Virtus Verona ( C4 ) Imolese ( D2 ) 3\u20133 ( a.e.t . ) Correggese ( D5 ) Delta Rovigo ( D3 ) 1\u20131 ( a.e.t . ) Lentigione ( D4 ) Massese ( E2 ) 2\u20131 FBC Finale ( E5 ) Savona ( E3 ) 1\u20130 Lavagnese ( E4 ) Matelica ( F2 ) 1\u20133 Olympia Agnonese ( F5 ) San Nicol\u00f2 ( F3 ) 0\u20131 Vis Pesaro ( F4 ) Nuova Monterosi ( G2 ) 2\u20133 L'Aquila ( G5 ) Rieti ( G3 ) 3\u20131 Ostia Mare ( G4 ) Trastevere ( H2 ) 3\u20131 ( a.e.t . ) Nard\u00f2 ( H5 ) Nocerina ( H3 ) 4\u20131 Gravina ( H4 ) Rende ( I2 ) 2\u20131 Gela ( I5 ) Cavese ( I3 ) 0\u20130 ( a.e.t . ) Igea Virtus ( I4 ) Second round Single-legged matches played at best-placed club 's home field Games ending in a tie are extended to extra time ; if still tied , the higher-classified team wins",
    "uid": "2016\u201317_Serie_D_22",
    "intro": "The 2016-17 Serie D was the sixty-ninth edition of the top level Italian non-professional football championship. It represents the fourth tier in the Italian football league system. A total of 162 teams, divided on geographical grounds into 9 groups of 18 teams each, competed. Compared to the previous season there were nine teams less, as no team was admitted supernumerary."
  },
  "2002\u201303_UEFA_Cup_10": {
    "url": "https://en.wikipedia.org/wiki/2002\u201303_UEFA_Cup",
    "title": "2002\u201303 UEFA Cup",
    "header": [
      [
        "Team 1",
        []
      ],
      [
        "Agg",
        [
          "/wiki/Playoff_format"
        ]
      ],
      [
        "Team 2",
        []
      ],
      [
        "1st leg",
        []
      ],
      [
        "2nd leg",
        []
      ]
    ],
    "data": [
      [
        [
          "Hertha BSC",
          [
            "/wiki/Hertha_BSC"
          ]
        ],
        [
          "3-3 ( a )",
          [
            "/wiki/Away_goals_rule"
          ]
        ],
        [
          "Boavista",
          [
            "/wiki/Boavista_F.C."
          ]
        ],
        [
          "3-2",
          [
            "/wiki/2002\u201303_UEFA_Cup_final_phase"
          ]
        ],
        [
          "0-1",
          [
            "/wiki/2002\u201303_UEFA_Cup_final_phase"
          ]
        ]
      ],
      [
        [
          "Panathinaikos",
          [
            "/wiki/Panathinaikos_F.C."
          ]
        ],
        [
          "3-2",
          []
        ],
        [
          "Anderlecht",
          [
            "/wiki/R.S.C._Anderlecht"
          ]
        ],
        [
          "3-0",
          [
            "/wiki/2002\u201303_UEFA_Cup_final_phase"
          ]
        ],
        [
          "0-2",
          [
            "/wiki/2002\u201303_UEFA_Cup_final_phase"
          ]
        ]
      ],
      [
        [
          "Slavia Prague",
          [
            "/wiki/SK_Slavia_Prague"
          ]
        ],
        [
          "3-4",
          []
        ],
        [
          "Be\u015fikta\u015f",
          [
            "/wiki/Be\u015fikta\u015f_J.K."
          ]
        ],
        [
          "1-0",
          [
            "/wiki/2002\u201303_UEFA_Cup_final_phase"
          ]
        ],
        [
          "2-4",
          [
            "/wiki/2002\u201303_UEFA_Cup_final_phase"
          ]
        ]
      ],
      [
        [
          "Auxerre",
          [
            "/wiki/AJ_Auxerre"
          ]
        ],
        [
          "0-3",
          []
        ],
        [
          "Liverpool",
          [
            "/wiki/Liverpool_F.C."
          ]
        ],
        [
          "0-1",
          [
            "/wiki/2002\u201303_UEFA_Cup_final_phase"
          ]
        ],
        [
          "0-2",
          [
            "/wiki/2002\u201303_UEFA_Cup_final_phase"
          ]
        ]
      ],
      [
        [
          "Lazio",
          [
            "/wiki/S.S._Lazio"
          ]
        ],
        [
          "5-4",
          []
        ],
        [
          "Wis\u0142a Krak\u00f3w",
          [
            "/wiki/Wis\u0142a_Krak\u00f3w"
          ]
        ],
        [
          "3-3",
          [
            "/wiki/2002\u201303_UEFA_Cup_final_phase"
          ]
        ],
        [
          "2-1",
          [
            "/wiki/2002\u201303_UEFA_Cup_final_phase"
          ]
        ]
      ],
      [
        [
          "M\u00e1laga",
          [
            "/wiki/M\u00e1laga_CF"
          ]
        ],
        [
          "1-0",
          []
        ],
        [
          "AEK Athens",
          [
            "/wiki/AEK_Athens_F.C."
          ]
        ],
        [
          "0-0",
          [
            "/wiki/2002\u201303_UEFA_Cup_final_phase"
          ]
        ],
        [
          "1-0",
          [
            "/wiki/2002\u201303_UEFA_Cup_final_phase"
          ]
        ]
      ],
      [
        [
          "Celtic",
          [
            "/wiki/Celtic_F.C."
          ]
        ],
        [
          "5-4",
          []
        ],
        [
          "Stuttgart",
          [
            "/wiki/VfB_Stuttgart"
          ]
        ],
        [
          "3-1",
          [
            "/wiki/2002\u201303_UEFA_Cup_final_phase"
          ]
        ],
        [
          "2-3",
          [
            "/wiki/2002\u201303_UEFA_Cup_final_phase"
          ]
        ]
      ],
      [
        [
          "Porto",
          [
            "/wiki/FC_Porto"
          ]
        ],
        [
          "8-3",
          []
        ],
        [
          "Denizlispor",
          [
            "/wiki/Denizlispor"
          ]
        ],
        [
          "6-1",
          [
            "/wiki/2002\u201303_UEFA_Cup_final_phase"
          ]
        ],
        [
          "2-2",
          [
            "/wiki/2002\u201303_UEFA_Cup_final_phase"
          ]
        ]
      ]
    ],
    "section_title": "Final phase -- Fourth round",
    "section_text": "The draw for the fourth round and quarter-finals was held on 13 December 2002 . [ 10 ] The first leg was played on 20 February , and the second leg was played on 27 February 2003 .",
    "uid": "2002\u201303_UEFA_Cup_10",
    "intro": "The 2002-03 UEFA Cup was the 32nd edition of the UEFA Cup, the second-tier European club football tournament organised by UEFA. The final was played between Portuguese side Porto and Scottish side Celtic at the Estadio Ol\u00edmpico de Sevilla, Seville, on 21 May 2003. Porto won 3-2 through a silver goal in extra time and became the first Portuguese team to win the competition."
  }
}