{
  "2019_Paris\u2013Nice_13": {
    "url": "https://en.wikipedia.org/wiki/2019_Paris\u2013Nice",
    "title": "2019 Paris\u2013Nice",
    "header": [
      [
        "Rank",
        []
      ],
      [
        "Rider",
        []
      ],
      [
        "Team",
        []
      ],
      [
        "Time",
        []
      ]
    ],
    "data": [
      [
        [
          "1",
          []
        ],
        [
          "Daniel Felipe Mart\u00ednez ( COL )",
          [
            "/wiki/Daniel_Felipe_Mart\u00ednez"
          ]
        ],
        [
          "EF Education First",
          [
            "/wiki/EF_Pro_Cycling"
          ]
        ],
        [
          "4h 55 ' 49",
          []
        ]
      ],
      [
        [
          "2",
          []
        ],
        [
          "Miguel \u00c1ngel L\u00f3pez ( COL )",
          [
            "/wiki/Miguel_\u00c1ngel_L\u00f3pez_(cyclist)"
          ]
        ],
        [
          "Astana",
          [
            "/wiki/Astana_Pro_Team"
          ]
        ],
        [
          "+ 6",
          []
        ]
      ],
      [
        [
          "3",
          []
        ],
        [
          "Nicolas Edet ( FRA )",
          [
            "/wiki/Nicolas_Edet"
          ]
        ],
        [
          "Cofidis",
          [
            "/wiki/Cofidis_(cycling_team)"
          ]
        ],
        [
          "+ 20",
          []
        ]
      ],
      [
        [
          "4",
          []
        ],
        [
          "Simon Yates ( GBR )",
          [
            "/wiki/Simon_Yates_(cyclist)"
          ]
        ],
        [
          "Mitchelton-Scott",
          [
            "/wiki/Mitchelton\u2013Scott_(men's_team)"
          ]
        ],
        [
          "+ 20",
          []
        ]
      ],
      [
        [
          "5",
          []
        ],
        [
          "Jonathan Hivert ( FRA )",
          [
            "/wiki/Jonathan_Hivert"
          ]
        ],
        [
          "Direct \u00c9nergie",
          [
            "/wiki/Total_Direct_\u00c9nergie_(cycling_team)"
          ]
        ],
        [
          "+ 55",
          []
        ]
      ],
      [
        [
          "6",
          []
        ],
        [
          "Giulio Ciccone ( ITA )",
          [
            "/wiki/Giulio_Ciccone"
          ]
        ],
        [
          "Trek-Segafredo",
          [
            "/wiki/Trek\u2013Segafredo_(men's_team)"
          ]
        ],
        [
          "+ 2 ' 03",
          []
        ]
      ],
      [
        [
          "7",
          []
        ],
        [
          "Julien El Fares ( FRA )",
          [
            "/wiki/Julien_El_Fares"
          ]
        ],
        [
          "Delko-Marseille Provence",
          [
            "/wiki/Nippo\u2013Delko\u2013One_Provence"
          ]
        ],
        [
          "+ 2 ' 03",
          []
        ]
      ],
      [
        [
          "8",
          []
        ],
        [
          "Sergio Henao ( COL )",
          [
            "/wiki/Sergio_Henao"
          ]
        ],
        [
          "UAE Team Emirates",
          [
            "/wiki/UAE_Team_Emirates"
          ]
        ],
        [
          "+ 2 ' 08",
          []
        ]
      ],
      [
        [
          "9",
          []
        ],
        [
          "Victor de la Parte ( ESP )",
          [
            "/wiki/V\u00edctor_de_la_Parte"
          ]
        ],
        [
          "CCC Team",
          [
            "/wiki/CCC_Pro_Team"
          ]
        ],
        [
          "+ 2 ' 13",
          []
        ]
      ],
      [
        [
          "10",
          []
        ],
        [
          "Alessandro De Marchi ( ITA )",
          [
            "/wiki/Alessandro_De_Marchi_(cyclist)"
          ]
        ],
        [
          "CCC Team",
          [
            "/wiki/CCC_Pro_Team"
          ]
        ],
        [
          "+ 2 ' 15",
          []
        ]
      ]
    ],
    "section_title": "",
    "section_text": "",
    "uid": "2019_Paris\u2013Nice_13",
    "intro": "The 2019 Paris-Nice was a road cycling stage race that was held between 10 and 17 March 2019 in France. It was the 77th edition of Paris-Nice and the sixth race of the 2019 UCI World Tour. Spaniard Marc Soler was the defending champion. The race was won by Egan Bernal of , making it the team's 6th win overall and 4th win in the last 5 years. Bernal also took the young rider classification. Nairo Quintana of finished second, with Bernal's teammate Michal Kwiatkowski rounding out the podium as well as taking the points classification. Thomas De Gendt of took the mountains classification, and Team Sky won the team classification."
  },
  "2013\u201314_PlusLiga_20": {
    "url": "https://en.wikipedia.org/wiki/2013\u201314_PlusLiga",
    "title": "2013\u201314 PlusLiga",
    "header": [
      [
        "Date",
        []
      ],
      [
        "Time",
        []
      ],
      [
        "",
        []
      ],
      [
        "Score",
        []
      ],
      [
        "",
        []
      ],
      [
        "Set 1",
        []
      ],
      [
        "Set 2",
        []
      ],
      [
        "Set 3",
        []
      ],
      [
        "Set 4",
        []
      ],
      [
        "Total",
        []
      ],
      [
        "Report",
        []
      ]
    ],
    "data": [
      [
        [
          "3 Mar",
          []
        ],
        [
          "18:00",
          []
        ],
        [
          "AZS Politechnika Warszawska",
          [
            "/wiki/VERVA_Warszawa_ORLEN_Paliwa"
          ]
        ],
        [
          "3-1",
          []
        ],
        [
          "BBTS Bielsko-Bia\u0142a",
          [
            "/wiki/BBTS_Bielsko-Bia\u0142a"
          ]
        ],
        [
          "16-25",
          []
        ],
        [
          "25-21",
          []
        ],
        [
          "25-20",
          []
        ],
        [
          "25-20",
          []
        ],
        [
          "91-86",
          []
        ],
        [
          "[ 73 ]",
          []
        ]
      ],
      [
        [
          "5 Mar",
          []
        ],
        [
          "18:00",
          []
        ],
        [
          "PGE Skra Be\u0142chat\u00f3w",
          [
            "/wiki/PGE_Skra_Be\u0142chat\u00f3w"
          ]
        ],
        [
          "2-3",
          []
        ],
        [
          "Effector Kielce",
          [
            "/wiki/Buskowianka_Kielce"
          ]
        ],
        [
          "25-23",
          []
        ],
        [
          "22-25",
          []
        ],
        [
          "32-30",
          []
        ],
        [
          "22-25",
          []
        ],
        [
          "115-119",
          []
        ],
        [
          "[ 74 ]",
          []
        ]
      ],
      [
        [
          "5 Mar",
          []
        ],
        [
          "18:00",
          []
        ],
        [
          "Transfer Bydgoszcz",
          [
            "/wiki/BKS_Vis\u0142a_Bydgoszcz"
          ]
        ],
        [
          "3-2",
          []
        ],
        [
          "Lotos Trefl Gda\u0144sk",
          [
            "/wiki/Trefl_Gda\u0144sk"
          ]
        ],
        [
          "17-25",
          []
        ],
        [
          "18-25",
          []
        ],
        [
          "28-26",
          []
        ],
        [
          "27-25",
          []
        ],
        [
          "107-116",
          []
        ],
        [
          "[ 75 ]",
          []
        ]
      ],
      [
        [
          "28 Feb",
          []
        ],
        [
          "18:00",
          []
        ],
        [
          "Jastrz\u0119bski W\u0119giel",
          [
            "/wiki/Jastrz\u0119bski_W\u0119giel"
          ]
        ],
        [
          "3-1",
          []
        ],
        [
          "AZS Cz\u0119stochowa",
          [
            "/wiki/AZS_Cz\u0119stochowa"
          ]
        ],
        [
          "25-27",
          []
        ],
        [
          "25-20",
          []
        ],
        [
          "25-19",
          []
        ],
        [
          "25-20",
          []
        ],
        [
          "100-86",
          []
        ],
        [
          "[ 76 ]",
          []
        ]
      ],
      [
        [
          "2 Mar",
          []
        ],
        [
          "14:45",
          []
        ],
        [
          "ZAKSA K\u0119dzierzyn-Ko\u017ale",
          [
            "/wiki/ZAKSA_K\u0119dzierzyn-Ko\u017ale"
          ]
        ],
        [
          "3-0",
          []
        ],
        [
          "Indykpol AZS Olsztyn",
          [
            "/wiki/Indykpol_AZS_Olsztyn"
          ]
        ],
        [
          "25-18",
          []
        ],
        [
          "25-15",
          []
        ],
        [
          "25-21",
          []
        ],
        [
          "",
          []
        ],
        [
          "75-54",
          []
        ],
        [
          "[ 77 ]",
          []
        ]
      ],
      [
        [
          "1 Mar",
          []
        ],
        [
          "14:45",
          []
        ],
        [
          "Asseco Resovia Rzesz\u00f3w",
          [
            "/wiki/Asseco_Resovia_Rzesz\u00f3w"
          ]
        ],
        [
          "3-0",
          []
        ],
        [
          "Cerrad Czarni Radom",
          [
            "/wiki/Czarni_Radom"
          ]
        ],
        [
          "25-12",
          []
        ],
        [
          "25-13",
          []
        ],
        [
          "25-13",
          []
        ],
        [
          "",
          []
        ],
        [
          "75-38",
          []
        ],
        [
          "[ 78 ]",
          []
        ]
      ]
    ],
    "section_title": "Regular season -- 13th round",
    "section_text": "",
    "uid": "2013\u201314_PlusLiga_20",
    "intro": "2013-14 PlusLiga - is 78th season of Polish Championship (14th season as professional league - PlusLiga) organized by Professional Volleyball League SA () under the supervision of Polish Volleyball Federation (). Professional Volleyball League SA decided to add to PlusLiga two teams - Cerrad Czarni Radom and BBTS Bielsko-Bia\u0142a. In season 2013/2014 Asseco Resovia Rzesz\u00f3w, ZAKSA K\u0119dzierzyn-Ko\u017ale and Jastrz\u0119bski W\u0119giel have been played in CEV Champions League, PGE Skra Be\u0142chat\u00f3w in CEV Cup because of withdrawal by Transfer Bydgoszcz, AZS Politechnika Warszawska in Challenge Cup. On October 16, 2013 Asseco Resovia Rzesz\u00f3w beat ZAKSA K\u0119dzierzyn-Ko\u017ale (3-2) and won ENEA Polish SuperCup2013 in Pozna\u0144. Most Valuable Player was Dawid Konarski. PGE Skra Be\u0142chat\u00f3w achieved 8th title of Polish Champion."
  },
  "1968\u201369_FDGB-Pokal_0": {
    "url": "https://en.wikipedia.org/wiki/1968\u201369_FDGB-Pokal",
    "title": "1968\u201369 FDGB-Pokal",
    "header": [
      [
        "Home team",
        []
      ],
      [
        "",
        []
      ],
      [
        "Away team",
        []
      ],
      [
        "Result",
        []
      ]
    ],
    "data": [
      [
        [
          "Berliner FC Dynamo II*",
          [
            "/wiki/Berliner_FC_Dynamo"
          ]
        ],
        [
          "-",
          []
        ],
        [
          "BSG Post Neubrandenburg",
          [
            "/wiki/1._FC_Neubrandenburg_04"
          ]
        ],
        [
          "3-1",
          []
        ]
      ],
      [
        [
          "BSG Chemie Veritas Wittenberge*",
          []
        ],
        [
          "-",
          []
        ],
        [
          "SG Lichtenberg 47",
          [
            "/wiki/SV_Lichtenberg_47"
          ]
        ],
        [
          "6-1",
          []
        ]
      ],
      [
        [
          "BSG Post Neubrandenburg II*",
          []
        ],
        [
          "-",
          []
        ],
        [
          "FC Hansa Rostock II",
          [
            "/wiki/F.C._Hansa_Rostock"
          ]
        ],
        [
          "2-3",
          []
        ]
      ],
      [
        [
          "BSG Motor Ludwigsfelde*",
          [
            "/wiki/Ludwigsfelder_FC"
          ]
        ],
        [
          "-",
          []
        ],
        [
          "SG Dynamo Schwerin",
          [
            "/wiki/FC_Mecklenburg_Schwerin"
          ]
        ],
        [
          "0-2",
          []
        ]
      ],
      [
        [
          "SG Dynamo Frankfurt/Oder*",
          []
        ],
        [
          "-",
          []
        ],
        [
          "BSG Lokomotive Stendal",
          [
            "/wiki/1._FC_Lok_Stendal"
          ]
        ],
        [
          "1-5",
          []
        ]
      ],
      [
        [
          "BSG Motor Grimma*",
          []
        ],
        [
          "-",
          []
        ],
        [
          "BSG Aktivist Karl-Marx Zwickau",
          []
        ],
        [
          "3-2",
          []
        ]
      ],
      [
        [
          "ASG Vorw\u00e4rts Cottbus II*",
          [
            "/wiki/ASG_Vorw\u00e4rts_Cottbus"
          ]
        ],
        [
          "-",
          []
        ],
        [
          "BSG Motor Hennigsdorf",
          []
        ],
        [
          "2-5",
          []
        ]
      ],
      [
        [
          "BSG Lokomotive Halberstadt*",
          [
            "/wiki/VfB_Germania_Halberstadt"
          ]
        ],
        [
          "-",
          []
        ],
        [
          "SG Dynamo Eisleben",
          []
        ],
        [
          "2-3",
          []
        ]
      ],
      [
        [
          "SG Dynamo Dresden II*",
          [
            "/wiki/Dynamo_Dresden"
          ]
        ],
        [
          "-",
          []
        ],
        [
          "ASG Vorw\u00e4rts Leipzig",
          [
            "/wiki/Vorw\u00e4rts_Leipzig"
          ]
        ],
        [
          "0-1",
          []
        ]
      ],
      [
        [
          "BSG Chemie Buna Schkopau*",
          []
        ],
        [
          "-",
          []
        ],
        [
          "FC Rot-Wei\u00df Erfurt II",
          [
            "/wiki/FC_Rot-Wei\u00df_Erfurt"
          ]
        ],
        [
          "2-3",
          []
        ]
      ],
      [
        [
          "BSG Motor Gotha*",
          [
            "/wiki/FSV_Wacker_03_Gotha"
          ]
        ],
        [
          "-",
          []
        ],
        [
          "ASG Vorw\u00e4rts Meiningen",
          []
        ],
        [
          "2-4",
          []
        ]
      ],
      [
        [
          "SG Blau-Wei\u00df Reichenbach*",
          []
        ],
        [
          "-",
          []
        ],
        [
          "FSV Lokomotive Dresden",
          [
            "/wiki/Dresdner_SC"
          ]
        ],
        [
          "2-1",
          []
        ]
      ],
      [
        [
          "BSG Chemie Schwarza*",
          []
        ],
        [
          "-",
          []
        ],
        [
          "BSG Motor Wema Plauen",
          [
            "/wiki/VFC_Plauen"
          ]
        ],
        [
          "0-1 a.e.t",
          [
            "/wiki/Overtime_(sports)"
          ]
        ]
      ],
      [
        [
          "SG Dernbach*",
          []
        ],
        [
          "-",
          []
        ],
        [
          "BSG Wismut Gera",
          [
            "/wiki/BSG_Wismut_Gera"
          ]
        ],
        [
          "1-4",
          []
        ]
      ],
      [
        [
          "BSG Einheit Greifswald*",
          []
        ],
        [
          "-",
          []
        ],
        [
          "ASG Vorw\u00e4rts Neubrandenburg",
          []
        ],
        [
          "2-2 a.e.t",
          [
            "/wiki/Overtime_(sports)"
          ]
        ]
      ],
      [
        [
          "BSG Motor Bautzen",
          [
            "/wiki/FSV_Budissa_Bautzen"
          ]
        ],
        [
          "-",
          []
        ],
        [
          "SG Dynamo Dresden",
          [
            "/wiki/Dynamo_Dresden"
          ]
        ],
        [
          "0-3",
          []
        ]
      ],
      [
        [
          "BSG Motor Babelsberg",
          [
            "/wiki/SV_Babelsberg_03"
          ]
        ],
        [
          "-",
          []
        ],
        [
          "FC Energie Cottbus",
          [
            "/wiki/FC_Energie_Cottbus"
          ]
        ],
        [
          "2-1",
          []
        ]
      ],
      [
        [
          "TSG Wismar",
          [
            "/wiki/FC_Anker_Wismar"
          ]
        ],
        [
          "-",
          []
        ],
        [
          "ASG Vorw\u00e4rts Stralsund",
          []
        ],
        [
          "0-1 a.e.t",
          [
            "/wiki/Overtime_(sports)"
          ]
        ]
      ],
      [
        [
          "SC Fortschritt Wei\u00dfenfels",
          []
        ],
        [
          "-",
          []
        ],
        [
          "FC Carl Zeiss Jena II",
          [
            "/wiki/FC_Carl_Zeiss_Jena"
          ]
        ],
        [
          "0-2",
          []
        ]
      ],
      [
        [
          "BSG Aktivist Schwarze Pumpe",
          []
        ],
        [
          "-",
          []
        ],
        [
          "BSG Stahl Eisenh\u00fcttenstadt",
          [
            "/wiki/Eisenh\u00fcttenst\u00e4dter_FC_Stahl"
          ]
        ],
        [
          "2-1",
          []
        ]
      ]
    ],
    "section_title": "First round",
    "section_text": "Matches played on 11 August 1968 .",
    "uid": "1968\u201369_FDGB-Pokal_0",
    "intro": "The 1968-69 season saw the 18th competition for the FDGB-Pokal, the East German national football cup. The first round was competed with 46 teams: 15 Bezirkspokal winners (indicated by an asterisk), 29 teams from the DDR-Liga and the two teams relegated from the DDR-Oberliga in the previous season. BSG Chemie Premnitz, a DDR-Liga side, were given a bye to the intermediate round. The competition was played in a knock-out format; if scores were level after 90 minutes, the match went into extra time. If the scores were still level after this, a replay was played. After an intermediate round, the participants of which were determined by a draw - three Bezirkspokal winners and nine DDR-Liga sides - the 14 current Oberliga teams joined the competition. Three Oberliga sides were already eliminated at this stage: F.C. Hansa Rostock, FC Rot-Wei\u00df Erfurt and BSG Stahl Riesa. 1967 Oberliga champions FC Carl Zeiss Jena needed a replay against Motor Grimma that they won convincingly; 10-1 was the final score. The only other remaining Bezirkspokal winner, Berliner FC Dynamo II was eliminated after a 1-2 loss to DDR-Liga side SG Dynamo Dresden. The third round saw the repeat of last year's final between 1. FC Union Berlin and Jena."
  },
  "2009_Paris\u2013Nice_14": {
    "url": "https://en.wikipedia.org/wiki/2009_Paris\u2013Nice",
    "title": "2009 Paris\u2013Nice",
    "header": [
      [
        "",
        []
      ],
      [
        "Cyclist",
        []
      ],
      [
        "Team",
        []
      ],
      [
        "Time",
        []
      ]
    ],
    "data": [
      [
        [
          "1",
          []
        ],
        [
          "Antonio Colom ( ESP )",
          [
            "/wiki/Antonio_Colom"
          ]
        ],
        [
          "Team Katusha",
          [
            "/wiki/Katusha\u2013Alpecin"
          ]
        ],
        [
          "2h 47 ' 49",
          []
        ]
      ],
      [
        [
          "2",
          []
        ],
        [
          "Alberto Contador ( ESP )",
          [
            "/wiki/Alberto_Contador"
          ]
        ],
        [
          "Astana",
          [
            "/wiki/Astana_Pro_Team"
          ]
        ],
        [
          "s.t",
          []
        ]
      ],
      [
        [
          "3",
          []
        ],
        [
          "Fr\u00e4nk Schleck ( LUX )",
          [
            "/wiki/Fr\u00e4nk_Schleck"
          ]
        ],
        [
          "Team Saxo Bank",
          [
            "/wiki/Tinkoff_(cycling_team)"
          ]
        ],
        [
          "+ 1",
          []
        ]
      ],
      [
        [
          "4",
          []
        ],
        [
          "Jonathan Hivert ( FRA )",
          [
            "/wiki/Jonathan_Hivert"
          ]
        ],
        [
          "Skil-Shimano",
          [
            "/wiki/Team_Sunweb_(men's_team)"
          ]
        ],
        [
          "+ 17",
          []
        ]
      ],
      [
        [
          "5",
          []
        ],
        [
          "Christophe Moreau ( FRA )",
          [
            "/wiki/Christophe_Moreau"
          ]
        ],
        [
          "Agritubel",
          [
            "/wiki/Agritubel"
          ]
        ],
        [
          "s.t",
          []
        ]
      ],
      [
        [
          "6",
          []
        ],
        [
          "Sylvain Chavanel ( FRA )",
          [
            "/wiki/Sylvain_Chavanel"
          ]
        ],
        [
          "Quick-Step",
          [
            "/wiki/Deceuninck\u2013Quick-Step"
          ]
        ],
        [
          "s.t",
          []
        ]
      ],
      [
        [
          "7",
          []
        ],
        [
          "Juan Manuel G\u00e1rate ( ESP )",
          [
            "/wiki/Juan_Manuel_G\u00e1rate"
          ]
        ],
        [
          "Rabobank",
          [
            "/wiki/Team_Jumbo\u2013Visma"
          ]
        ],
        [
          "s.t",
          []
        ]
      ],
      [
        [
          "8",
          []
        ],
        [
          "Christophe Le M\u00e9vel ( FRA )",
          [
            "/wiki/Christophe_Le_M\u00e9vel"
          ]
        ],
        [
          "Fran\u00e7aise des Jeux",
          [
            "/wiki/Groupama\u2013FDJ"
          ]
        ],
        [
          "s.t",
          []
        ]
      ],
      [
        [
          "9",
          []
        ],
        [
          "Jens Voigt ( GER )",
          [
            "/wiki/Jens_Voigt"
          ]
        ],
        [
          "Team Saxo Bank",
          [
            "/wiki/Tinkoff_(cycling_team)"
          ]
        ],
        [
          "s.t",
          []
        ]
      ],
      [
        [
          "10",
          []
        ],
        [
          "Sandy Casar ( FRA )",
          [
            "/wiki/Sandy_Casar"
          ]
        ],
        [
          "Fran\u00e7aise des Jeux",
          [
            "/wiki/Groupama\u2013FDJ"
          ]
        ],
        [
          "s.t",
          []
        ]
      ]
    ],
    "section_title": "",
    "section_text": "Stage 8 results",
    "uid": "2009_Paris\u2013Nice_14",
    "intro": "The 2009 Paris-Nice, the 67th running of the race, started on 8 March in Amilly, and concluded on 15 March in Nice. It was won by Luis Le\u00f3n S\u00e1nchez. Favorites to win included Alberto Contador, who won in 2007, Cadel Evans, and Fr\u00e4nk Schleck. The 2008 winner, Davide Rebellin, did not take part in the event. The race was the second event in the inaugural UCI World Ranking."
  },
  "2013\u201314_PlusLiga_11": {
    "url": "https://en.wikipedia.org/wiki/2013\u201314_PlusLiga",
    "title": "2013\u201314 PlusLiga",
    "header": [
      [
        "Date",
        []
      ],
      [
        "Time",
        []
      ],
      [
        "",
        []
      ],
      [
        "Score",
        []
      ],
      [
        "",
        []
      ],
      [
        "Set 1",
        []
      ],
      [
        "Set 2",
        []
      ],
      [
        "Set 3",
        []
      ],
      [
        "Set 4",
        []
      ],
      [
        "Total",
        []
      ],
      [
        "Report",
        []
      ]
    ],
    "data": [
      [
        [
          "2 Nov",
          []
        ],
        [
          "17:00",
          []
        ],
        [
          "BBTS Bielsko-Bia\u0142a",
          [
            "/wiki/BBTS_Bielsko-Bia\u0142a"
          ]
        ],
        [
          "0-3",
          []
        ],
        [
          "LOTOS Trefl Gda\u0144sk",
          [
            "/wiki/Trefl_Gda\u0144sk"
          ]
        ],
        [
          "22-25",
          []
        ],
        [
          "15-25",
          []
        ],
        [
          "21-25",
          []
        ],
        [
          "",
          []
        ],
        [
          "58-75",
          []
        ],
        [
          "[ 19 ]",
          []
        ]
      ],
      [
        [
          "1 Nov",
          []
        ],
        [
          "18:00",
          []
        ],
        [
          "AZS Cz\u0119stochowa",
          [
            "/wiki/AZS_Cz\u0119stochowa"
          ]
        ],
        [
          "1-3",
          []
        ],
        [
          "Effector Kielce",
          [
            "/wiki/Buskowianka_Kielce"
          ]
        ],
        [
          "24-26",
          []
        ],
        [
          "25-18",
          []
        ],
        [
          "20-25",
          []
        ],
        [
          "",
          []
        ],
        [
          "90-94",
          []
        ],
        [
          "[ 20 ]",
          []
        ]
      ],
      [
        [
          "2 Nov",
          []
        ],
        [
          "17:00",
          []
        ],
        [
          "Indykpol AZS Olsztyn",
          [
            "/wiki/Indykpol_AZS_Olsztyn"
          ]
        ],
        [
          "3-0",
          []
        ],
        [
          "AZS Politechnika Warszawska",
          [
            "/wiki/VERVA_Warszawa_ORLEN_Paliwa"
          ]
        ],
        [
          "25-21",
          []
        ],
        [
          "25-12",
          []
        ],
        [
          "25-18",
          []
        ],
        [
          "",
          []
        ],
        [
          "75-51",
          []
        ],
        [
          "[ 21 ]",
          []
        ]
      ],
      [
        [
          "2 Nov",
          []
        ],
        [
          "17:00",
          []
        ],
        [
          "Cerrad Czarni Radom",
          [
            "/wiki/Czarni_Radom"
          ]
        ],
        [
          "3-1",
          []
        ],
        [
          "PGE Skra Be\u0142chat\u00f3w",
          [
            "/wiki/PGE_Skra_Be\u0142chat\u00f3w"
          ]
        ],
        [
          "29-27",
          []
        ],
        [
          "21-25",
          []
        ],
        [
          "25-22",
          []
        ],
        [
          "25-22",
          []
        ],
        [
          "100-96",
          []
        ],
        [
          "[ 22 ]",
          []
        ]
      ],
      [
        [
          "2 Nov",
          []
        ],
        [
          "17:00",
          []
        ],
        [
          "Asseco Resovia Rzesz\u00f3w",
          [
            "/wiki/Asseco_Resovia_Rzesz\u00f3w"
          ]
        ],
        [
          "3-1",
          []
        ],
        [
          "Transfer Bydgoszcz",
          [
            "/wiki/BKS_Vis\u0142a_Bydgoszcz"
          ]
        ],
        [
          "25-18",
          []
        ],
        [
          "25-13",
          []
        ],
        [
          "21-25",
          []
        ],
        [
          "25-21",
          []
        ],
        [
          "96-77",
          []
        ],
        [
          "[ 23 ]",
          []
        ]
      ],
      [
        [
          "2 Nov",
          []
        ],
        [
          "14:45",
          []
        ],
        [
          "ZAKSA K\u0119dzierzyn-Ko\u017ale",
          [
            "/wiki/ZAKSA_K\u0119dzierzyn-Ko\u017ale"
          ]
        ],
        [
          "2-3",
          []
        ],
        [
          "Jastrz\u0119bski W\u0119giel",
          [
            "/wiki/Jastrz\u0119bski_W\u0119giel"
          ]
        ],
        [
          "18-25",
          []
        ],
        [
          "18-25",
          []
        ],
        [
          "25-17",
          []
        ],
        [
          "25-20",
          []
        ],
        [
          "95-102",
          []
        ],
        [
          "[ 24 ]",
          []
        ]
      ]
    ],
    "section_title": "Regular season -- 4th round",
    "section_text": "",
    "uid": "2013\u201314_PlusLiga_11",
    "intro": "2013-14 PlusLiga - is 78th season of Polish Championship (14th season as professional league - PlusLiga) organized by Professional Volleyball League SA () under the supervision of Polish Volleyball Federation (). Professional Volleyball League SA decided to add to PlusLiga two teams - Cerrad Czarni Radom and BBTS Bielsko-Bia\u0142a. In season 2013/2014 Asseco Resovia Rzesz\u00f3w, ZAKSA K\u0119dzierzyn-Ko\u017ale and Jastrz\u0119bski W\u0119giel have been played in CEV Champions League, PGE Skra Be\u0142chat\u00f3w in CEV Cup because of withdrawal by Transfer Bydgoszcz, AZS Politechnika Warszawska in Challenge Cup. On October 16, 2013 Asseco Resovia Rzesz\u00f3w beat ZAKSA K\u0119dzierzyn-Ko\u017ale (3-2) and won ENEA Polish SuperCup2013 in Pozna\u0144. Most Valuable Player was Dawid Konarski. PGE Skra Be\u0142chat\u00f3w achieved 8th title of Polish Champion."
  },
  "2019_Paris\u2013Nice_22": {
    "url": "https://en.wikipedia.org/wiki/2019_Paris\u2013Nice",
    "title": "2019 Paris\u2013Nice",
    "header": [
      [
        "Rank",
        []
      ],
      [
        "Rider",
        []
      ],
      [
        "Team",
        []
      ],
      [
        "Points",
        []
      ]
    ],
    "data": [
      [
        [
          "1",
          []
        ],
        [
          "Micha\u0142 Kwiatkowski ( POL )",
          [
            "/wiki/Micha\u0142_Kwiatkowski"
          ]
        ],
        [
          "Team Sky",
          [
            "/wiki/Team_Ineos"
          ]
        ],
        [
          "33",
          []
        ]
      ],
      [
        [
          "2",
          []
        ],
        [
          "Daniel Felipe Mart\u00ednez ( COL )",
          [
            "/wiki/Daniel_Felipe_Mart\u00ednez"
          ]
        ],
        [
          "EF Education First",
          [
            "/wiki/EF_Pro_Cycling"
          ]
        ],
        [
          "28",
          []
        ]
      ],
      [
        [
          "3",
          []
        ],
        [
          "Simon Yates ( GBR )",
          [
            "/wiki/Simon_Yates_(cyclist)"
          ]
        ],
        [
          "Mitchelton-Scott",
          [
            "/wiki/Mitchelton\u2013Scott_(men's_team)"
          ]
        ],
        [
          "25",
          []
        ]
      ],
      [
        [
          "4",
          []
        ],
        [
          "Luis Le\u00f3n S\u00e1nchez ( ESP )",
          [
            "/wiki/Luis_Le\u00f3n_S\u00e1nchez"
          ]
        ],
        [
          "Astana",
          [
            "/wiki/Astana_Pro_Team"
          ]
        ],
        [
          "24",
          []
        ]
      ],
      [
        [
          "5",
          []
        ],
        [
          "Matteo Trentin ( ITA )",
          [
            "/wiki/Matteo_Trentin"
          ]
        ],
        [
          "Mitchelton-Scott",
          [
            "/wiki/Mitchelton\u2013Scott_(men's_team)"
          ]
        ],
        [
          "24",
          []
        ]
      ],
      [
        [
          "6",
          []
        ],
        [
          "Arnaud D\u00e9mare ( FRA )",
          [
            "/wiki/Arnaud_D\u00e9mare"
          ]
        ],
        [
          "Groupama-FDJ",
          [
            "/wiki/Groupama\u2013FDJ"
          ]
        ],
        [
          "22",
          []
        ]
      ],
      [
        [
          "7",
          []
        ],
        [
          "Magnus Cort ( DEN )",
          [
            "/wiki/Magnus_Cort"
          ]
        ],
        [
          "Astana",
          [
            "/wiki/Astana_Pro_Team"
          ]
        ],
        [
          "18",
          []
        ]
      ],
      [
        [
          "8",
          []
        ],
        [
          "Ion Izagirre ( ESP )",
          [
            "/wiki/Ion_Izagirre"
          ]
        ],
        [
          "Astana",
          [
            "/wiki/Astana_Pro_Team"
          ]
        ],
        [
          "18",
          []
        ]
      ],
      [
        [
          "9",
          []
        ],
        [
          "Philippe Gilbert ( BEL )",
          [
            "/wiki/Philippe_Gilbert"
          ]
        ],
        [
          "Deceuninck-Quick-Step",
          [
            "/wiki/Deceuninck\u2013Quick-Step"
          ]
        ],
        [
          "16",
          []
        ]
      ],
      [
        [
          "10",
          []
        ],
        [
          "Oliver Naesen ( BEL )",
          [
            "/wiki/Oliver_Naesen"
          ]
        ],
        [
          "AG2R La Mondiale",
          [
            "/wiki/AG2R_La_Mondiale_(cycling_team)"
          ]
        ],
        [
          "16",
          []
        ]
      ]
    ],
    "section_title": "Points classification",
    "section_text": "",
    "uid": "2019_Paris\u2013Nice_22",
    "intro": "The 2019 Paris-Nice was a road cycling stage race that was held between 10 and 17 March 2019 in France. It was the 77th edition of Paris-Nice and the sixth race of the 2019 UCI World Tour. Spaniard Marc Soler was the defending champion. The race was won by Egan Bernal of , making it the team's 6th win overall and 4th win in the last 5 years. Bernal also took the young rider classification. Nairo Quintana of finished second, with Bernal's teammate Michal Kwiatkowski rounding out the podium as well as taking the points classification. Thomas De Gendt of took the mountains classification, and Team Sky won the team classification."
  }
}