{
  "2010\u201311_Hazfi_Cup_4": {
    "url": "https://en.wikipedia.org/wiki/2010\u201311_Hazfi_Cup",
    "title": "2010\u201311 Hazfi Cup",
    "header": [
      [
        "No",
        []
      ],
      [
        "Date",
        []
      ],
      [
        "Home team",
        []
      ],
      [
        "Score",
        []
      ],
      [
        "Away team",
        []
      ]
    ],
    "data": [
      [
        [
          "17",
          []
        ],
        [
          "November 8 , 2010",
          []
        ],
        [
          "Foolad",
          [
            "/wiki/Foolad_F.C."
          ]
        ],
        [
          "( w/o )",
          [
            "/wiki/Walkover"
          ]
        ],
        [
          "Shahrdari Bandar Abbas",
          [
            "/wiki/F.C._Shahrdari_Bandar_Abbas"
          ]
        ]
      ],
      [
        [
          "18",
          []
        ],
        [
          "November 19 , 2010",
          []
        ],
        [
          "Malavan",
          [
            "/wiki/Malavan_F.C."
          ]
        ],
        [
          "3 -0",
          []
        ],
        [
          "Foolad Natanz",
          [
            "/wiki/Foolad_Natanz_F.C."
          ]
        ]
      ],
      [
        [
          "19",
          []
        ],
        [
          "November 20 , 2010",
          []
        ],
        [
          "Steel Azin",
          [
            "/wiki/Steel_Azin_F.C."
          ]
        ],
        [
          "2 -1",
          []
        ],
        [
          "Naft Ahvaz",
          [
            "/wiki/Naft_Masjed_Soleyman_F.C."
          ]
        ]
      ],
      [
        [
          "20",
          []
        ],
        [
          "November 20 , 2010",
          []
        ],
        [
          "Esteghlal",
          [
            "/wiki/Esteghlal_F.C."
          ]
        ],
        [
          "1 -0",
          []
        ],
        [
          "Shahin Bushehr",
          [
            "/wiki/Shahin_Bushehr_F.C."
          ]
        ]
      ],
      [
        [
          "21",
          []
        ],
        [
          "November 21 , 2010",
          []
        ],
        [
          "Shahrdari Tabriz",
          [
            "/wiki/Shahrdari_Tabriz_F.C."
          ]
        ],
        [
          "2- 5",
          []
        ],
        [
          "Tractor Sazi",
          [
            "/wiki/Tractor_S.C."
          ]
        ]
      ],
      [
        [
          "22",
          []
        ],
        [
          "November 21 , 2010",
          []
        ],
        [
          "Damash Gilan",
          [
            "/wiki/S.C._Damash_Gilan"
          ]
        ],
        [
          "1- 2",
          []
        ],
        [
          "Persepolis",
          [
            "/wiki/Persepolis_F.C."
          ]
        ]
      ],
      [
        [
          "23",
          []
        ],
        [
          "December 13 , 2010",
          []
        ],
        [
          "Sepahan",
          [
            "/wiki/Sepahan_S.C."
          ]
        ],
        [
          "4 -0",
          []
        ],
        [
          "Rah Ahan",
          [
            "/wiki/Rah_Ahan_Tehran_F.C."
          ]
        ]
      ],
      [
        [
          "24",
          []
        ],
        [
          "December 13 , 2010",
          []
        ],
        [
          "Shahrdari Yasuj",
          [
            "/wiki/Zagros_Yasouj_F.C."
          ]
        ],
        [
          "1 -0",
          []
        ],
        [
          "Sanati Kaveh Tehran",
          [
            "/wiki/Sanati_Kaveh_Tehran_F.C."
          ]
        ]
      ]
    ],
    "section_title": "Second stage -- Fifth Round ( Round of 16 )",
    "section_text": "",
    "uid": "2010\u201311_Hazfi_Cup_4",
    "intro": "The 2010-11 Hazfi Cup was the 24th season of the Iranian football knockout competition. Persepolis was the defending champion. The cup winner were guaranteed a place in the 2012 AFC Champions League."
  },
  "2013\u201314_ABA_League_1": {
    "url": "https://en.wikipedia.org/wiki/2013\u201314_ABA_League",
    "title": "2013\u201314 ABA League",
    "header": [
      [
        "Pos",
        []
      ],
      [
        "Team",
        []
      ],
      [
        "GP",
        []
      ],
      [
        "Average",
        []
      ],
      [
        "High",
        []
      ],
      [
        "Low",
        []
      ]
    ],
    "data": [
      [
        [
          "1",
          []
        ],
        [
          "Partizan NIS",
          [
            "/wiki/KK_Partizan"
          ]
        ],
        [
          "12",
          []
        ],
        [
          "5,775",
          []
        ],
        [
          "6,700",
          []
        ],
        [
          "4,500",
          []
        ]
      ],
      [
        [
          "2",
          []
        ],
        [
          "MZT Skopje Aerodrom",
          [
            "/wiki/KK_MZT_Skopje"
          ]
        ],
        [
          "13",
          []
        ],
        [
          "3,204",
          []
        ],
        [
          "6,200",
          []
        ],
        [
          "1,800",
          []
        ]
      ],
      [
        [
          "3",
          []
        ],
        [
          "\u0160iroki Primorka",
          [
            "/wiki/HKK_\u0160iroki"
          ]
        ],
        [
          "13",
          []
        ],
        [
          "2,923",
          []
        ],
        [
          "4,000",
          []
        ],
        [
          "1,500",
          []
        ]
      ],
      [
        [
          "4",
          []
        ],
        [
          "Crvena Zvezda",
          [
            "/wiki/KK_Crvena_zvezda"
          ]
        ],
        [
          "13",
          []
        ],
        [
          "2,855",
          []
        ],
        [
          "4,500",
          []
        ],
        [
          "1,129",
          []
        ]
      ],
      [
        [
          "5",
          []
        ],
        [
          "Zadar",
          [
            "/wiki/KK_Zadar"
          ]
        ],
        [
          "13",
          []
        ],
        [
          "2,808",
          []
        ],
        [
          "5,000",
          []
        ],
        [
          "2,000",
          []
        ]
      ],
      [
        [
          "6",
          []
        ],
        [
          "Budu\u0107nost VOLI",
          [
            "/wiki/KK_Budu\u0107nost"
          ]
        ],
        [
          "13",
          []
        ],
        [
          "2,496",
          []
        ],
        [
          "5,100",
          []
        ],
        [
          "1,500",
          []
        ]
      ],
      [
        [
          "7",
          []
        ],
        [
          "Radni\u010dki",
          [
            "/wiki/KK_Radni\u010dki_Kragujevac_(2009\u20132014)"
          ]
        ],
        [
          "13",
          []
        ],
        [
          "2,446",
          []
        ],
        [
          "4,000",
          []
        ],
        [
          "1,500",
          []
        ]
      ],
      [
        [
          "8",
          []
        ],
        [
          "Cibona",
          [
            "/wiki/KK_Cibona"
          ]
        ],
        [
          "13",
          []
        ],
        [
          "2,150",
          []
        ],
        [
          "5,200",
          []
        ],
        [
          "750",
          []
        ]
      ],
      [
        [
          "9",
          []
        ],
        [
          "Union Olimpija",
          [
            "/wiki/KK_Olimpija"
          ]
        ],
        [
          "13",
          []
        ],
        [
          "2,031",
          []
        ],
        [
          "3,800",
          []
        ],
        [
          "500",
          []
        ]
      ],
      [
        [
          "10",
          []
        ],
        [
          "Szolnoki Olaj",
          [
            "/wiki/Szolnoki_Olaj_KK"
          ]
        ],
        [
          "13",
          []
        ],
        [
          "1,570",
          []
        ],
        [
          "1,900",
          []
        ],
        [
          "1,000",
          []
        ]
      ],
      [
        [
          "11",
          []
        ],
        [
          "Cedevita",
          [
            "/wiki/KK_Cedevita_Junior"
          ]
        ],
        [
          "13",
          []
        ],
        [
          "1,498",
          []
        ],
        [
          "3,200",
          []
        ],
        [
          "627",
          []
        ]
      ],
      [
        [
          "12",
          []
        ],
        [
          "Igokea",
          [
            "/wiki/KK_Igokea"
          ]
        ],
        [
          "13",
          []
        ],
        [
          "1,392",
          []
        ],
        [
          "3,100",
          []
        ],
        [
          "500",
          []
        ]
      ],
      [
        [
          "13",
          []
        ],
        [
          "Krka",
          [
            "/wiki/KK_Krka"
          ]
        ],
        [
          "13",
          []
        ],
        [
          "1,342",
          []
        ],
        [
          "2,000",
          []
        ],
        [
          "1,000",
          []
        ]
      ],
      [
        [
          "14",
          []
        ],
        [
          "Mega Leks",
          [
            "/wiki/KK_Mega_Basket"
          ]
        ],
        [
          "13",
          []
        ],
        [
          "1,273",
          []
        ],
        [
          "2,600",
          []
        ],
        [
          "500",
          []
        ]
      ]
    ],
    "section_title": "Top 10 attendances -- Average",
    "section_text": "",
    "uid": "2013\u201314_ABA_League_1",
    "intro": "The 2013-14 ABA League was the 13th season of the ABA League, with 14 teams from Serbia, Slovenia, Montenegro, Croatia, Bosnia and Herzegovina, Macedonia and Hungary participating in it. Regular season started on October 4, 2013, and lasted until March 31, 2014. The Final Four took place from April 24 to 27, 2014."
  },
  "2003\u201304_Czech_Cup_5": {
    "url": "https://en.wikipedia.org/wiki/2003\u201304_Czech_Cup",
    "title": "2003\u201304 Czech Cup",
    "header": [
      [
        "Team 1",
        []
      ],
      [
        "Score",
        []
      ],
      [
        "Team 2",
        []
      ]
    ],
    "data": [
      [
        [
          "Sparta Prague",
          [
            "/wiki/AC_Sparta_Prague"
          ]
        ],
        [
          "2-0",
          []
        ],
        [
          "Opava",
          [
            "/wiki/SFC_Opava"
          ]
        ]
      ],
      [
        [
          "1.FKD",
          [
            "/wiki/1._FK_Drnovice"
          ]
        ],
        [
          "0-2",
          []
        ],
        [
          "1.FC Brno",
          [
            "/wiki/FC_Zbrojovka_Brno"
          ]
        ]
      ],
      [
        [
          "Strakonice",
          [
            "/wiki/SK_Strakonice_1908"
          ]
        ],
        [
          "0-2",
          []
        ],
        [
          "Slovan Liberec",
          [
            "/wiki/FC_Slovan_Liberec"
          ]
        ]
      ],
      [
        [
          "Choce\u0148",
          [
            "/wiki/FK_Agria_Choce\u0148"
          ]
        ],
        [
          "0-2",
          []
        ],
        [
          "Chmel Bl\u0161any",
          [
            "/wiki/FK_Chmel_Bl\u0161any"
          ]
        ]
      ],
      [
        [
          "Marila P\u0159\u00edbram",
          [
            "/wiki/1._FK_P\u0159\u00edbram"
          ]
        ],
        [
          "2-0",
          []
        ],
        [
          "Tescoma Zl\u00edn",
          [
            "/wiki/FC_Fastav_Zl\u00edn"
          ]
        ]
      ],
      [
        [
          "Uni\u010dov",
          [
            "/wiki/SK_Uni\u010dov"
          ]
        ],
        [
          "1-2",
          []
        ],
        [
          "FK Teplice",
          [
            "/wiki/FK_Teplice"
          ]
        ]
      ],
      [
        [
          "Ban\u00edk Ostrava",
          [
            "/wiki/FC_Ban\u00edk_Ostrava"
          ]
        ],
        [
          "1-0",
          []
        ],
        [
          "Jablonec",
          [
            "/wiki/FK_Jablonec"
          ]
        ]
      ],
      [
        [
          "Vyso\u010dina Jihlava",
          [
            "/wiki/FC_Vyso\u010dina_Jihlava"
          ]
        ],
        [
          "2-1",
          []
        ],
        [
          "Viktoria Plze\u0148",
          [
            "/wiki/FC_Viktoria_Plze\u0148"
          ]
        ]
      ]
    ],
    "section_title": "Round 4",
    "section_text": "",
    "uid": "2003\u201304_Czech_Cup_5",
    "intro": "The 2003-04 Czech Cup was the eleventh season of the annual football knock-out tournament of the Czech Republic."
  },
  "2004\u201305_Czech_Cup_3": {
    "url": "https://en.wikipedia.org/wiki/2004\u201305_Czech_Cup",
    "title": "2004\u201305 Czech Cup",
    "header": [
      [
        "Team 1",
        []
      ],
      [
        "Score",
        []
      ],
      [
        "Team 2",
        []
      ]
    ],
    "data": [
      [
        [
          "Karvin\u00e1",
          [
            "/wiki/MFK_Karvin\u00e1"
          ]
        ],
        [
          "0-4",
          []
        ],
        [
          "Ban\u00edk Ostrava",
          [
            "/wiki/FC_Ban\u00edk_Ostrava"
          ]
        ]
      ],
      [
        [
          "D\u011btmarovice",
          []
        ],
        [
          "1-1 4-2 pen",
          [
            "/wiki/Penalty_shoot-out_(association_football)"
          ]
        ],
        [
          "Byst\u0159ice pod Host\u00fdnem",
          []
        ]
      ],
      [
        [
          "Brno Kohoutovice",
          []
        ],
        [
          "0-4",
          []
        ],
        [
          "FK Drnovice",
          [
            "/wiki/1._FK_Drnovice"
          ]
        ]
      ],
      [
        [
          "Horka n. Moravou",
          []
        ],
        [
          "1-3",
          []
        ],
        [
          "Uni\u010dov",
          [
            "/wiki/SK_Uni\u010dov"
          ]
        ]
      ],
      [
        [
          "1 . Vala\u0161sk\u00fd FC",
          []
        ],
        [
          "1-6",
          []
        ],
        [
          "1 . FC Slov\u00e1cko",
          [
            "/wiki/1._FC_Slov\u00e1cko"
          ]
        ]
      ],
      [
        [
          "Mut\u011bnice",
          [
            "/wiki/FK_Mut\u011bnice"
          ]
        ],
        [
          "1-1 5-4 pen",
          [
            "/wiki/Penalty_shoot-out_(association_football)"
          ]
        ],
        [
          "Po\u0161torn\u00e1",
          []
        ]
      ],
      [
        [
          "Doln\u00ed Bene\u0161ov",
          [
            "/wiki/FC_Doln\u00ed_Bene\u0161ov"
          ]
        ],
        [
          "0-6",
          []
        ],
        [
          "SFC Opava",
          [
            "/wiki/SFC_Opava"
          ]
        ]
      ],
      [
        [
          "M\u011bsto Albrechtice",
          []
        ],
        [
          "0-3",
          []
        ],
        [
          "Hlu\u010d\u00edn",
          [
            "/wiki/FC_Hlu\u010d\u00edn"
          ]
        ]
      ],
      [
        [
          "\u010cesk\u00fd Dub",
          [
            "/wiki/PFC_\u010cesk\u00fd_Dub"
          ]
        ],
        [
          "0-2",
          []
        ],
        [
          "FK Jablonec 97",
          [
            "/wiki/FK_Jablonec"
          ]
        ]
      ],
      [
        [
          "Sparta Kr\u010d",
          [
            "/wiki/SK_Sparta_Kr\u010d"
          ]
        ],
        [
          "0-0 5-4 pen",
          [
            "/wiki/Penalty_shoot-out_(association_football)"
          ]
        ],
        [
          "Viktoria \u017di\u017ekov",
          [
            "/wiki/FK_Viktoria_\u017di\u017ekov"
          ]
        ]
      ],
      [
        [
          "T\u0159ebo\u0148",
          [
            "/wiki/FK_Jiskra_T\u0159ebo\u0148"
          ]
        ],
        [
          "1-4",
          []
        ],
        [
          "\u010cesk\u00e9 Bud\u011bjovice",
          [
            "/wiki/SK_Dynamo_\u010cesk\u00e9_Bud\u011bjovice"
          ]
        ]
      ],
      [
        [
          "Sezimovo \u00dast\u00ed",
          [
            "/wiki/FC_MAS_T\u00e1borsko"
          ]
        ],
        [
          "0-2",
          []
        ],
        [
          "Prachatice",
          [
            "/wiki/FK_Tatran_Prachatice"
          ]
        ]
      ],
      [
        [
          "Viktoria Plze\u0148",
          [
            "/wiki/FC_Viktoria_Plze\u0148"
          ]
        ],
        [
          "1-0",
          []
        ],
        [
          "Chmel Bl\u0161any",
          [
            "/wiki/FK_Chmel_Bl\u0161any"
          ]
        ]
      ],
      [
        [
          "Vejprnice",
          []
        ],
        [
          "1-2",
          []
        ],
        [
          "Karlovy Vary-Dvory",
          [
            "/wiki/FC_Slavia_Karlovy_Vary"
          ]
        ]
      ],
      [
        [
          "Hranice",
          [
            "/wiki/SK_Hranice"
          ]
        ],
        [
          "0-0 4-3 pen",
          [
            "/wiki/Penalty_shoot-out_(association_football)"
          ]
        ],
        [
          "SK Sigma Olomouc",
          [
            "/wiki/SK_Sigma_Olomouc"
          ]
        ]
      ],
      [
        [
          "Z\u00e1b\u0159eh",
          [
            "/wiki/SK_Sulko_Z\u00e1b\u0159eh"
          ]
        ],
        [
          "0-2",
          []
        ],
        [
          "HFK Olomouc",
          [
            "/wiki/1._HFK_Olomouc"
          ]
        ]
      ],
      [
        [
          "Bystrc-Kn\u00edni\u010dky",
          [
            "/wiki/FC_Dosta_Bystrc-Kn\u00edni\u010dky"
          ]
        ],
        [
          "0-3",
          []
        ],
        [
          "Slavia Prague",
          [
            "/wiki/SK_Slavia_Prague"
          ]
        ]
      ],
      [
        [
          "Velk\u00e9 Mezi\u0159\u00ed\u010d\u00ed",
          [
            "/wiki/FC_Velk\u00e9_Mezi\u0159\u00ed\u010d\u00ed"
          ]
        ],
        [
          "1-6",
          []
        ],
        [
          "Jihlava",
          [
            "/wiki/FC_Vyso\u010dina_Jihlava"
          ]
        ]
      ],
      [
        [
          "Hru\u0161ovany",
          []
        ],
        [
          "1-4",
          []
        ],
        [
          "1 . FC Brno",
          [
            "/wiki/FC_Zbrojovka_Brno"
          ]
        ]
      ],
      [
        [
          "Slavi\u010d\u00edn",
          [
            "/wiki/FC_TVD_Slavi\u010d\u00edn"
          ]
        ],
        [
          "2-2 6-5 pen",
          [
            "/wiki/Penalty_shoot-out_(association_football)"
          ]
        ],
        [
          "Kunovice",
          [
            "/wiki/Fotbal_Kunovice"
          ]
        ]
      ]
    ],
    "section_title": "Round 2",
    "section_text": "The second round was played on 22 September 2004 .",
    "uid": "2004\u201305_Czech_Cup_3",
    "intro": "The 2004-05 Czech Cup was the twelfth season of the annual football knock-out tournament of the Czech Republic. The competition offered a place in the first round of the 2005-06 UEFA Cup for the winner."
  },
  "2005\u201306_Czech_Cup_1": {
    "url": "https://en.wikipedia.org/wiki/2005\u201306_Czech_Cup",
    "title": "2005\u201306 Czech Cup",
    "header": [
      [
        "Team 1",
        []
      ],
      [
        "Score",
        []
      ],
      [
        "Team 2",
        []
      ]
    ],
    "data": [
      [
        [
          "Bzov\u00e1",
          []
        ],
        [
          "0-5",
          []
        ],
        [
          "Vejprnice",
          []
        ]
      ],
      [
        [
          "Horn\u00ed M\u011bcholupy",
          [
            "/wiki/SK_Horn\u00ed_M\u011bcholupy"
          ]
        ],
        [
          "1-1 3-4 pen",
          [
            "/wiki/Penalty_shoot-out_(association_football)"
          ]
        ],
        [
          "Velim",
          []
        ]
      ],
      [
        [
          "Admira/Slavoj",
          [
            "/wiki/FK_Admira_Prague"
          ]
        ],
        [
          "3-0",
          []
        ],
        [
          "\u010cesk\u00fd Brod",
          [
            "/wiki/SK_\u010cesk\u00fd_Brod"
          ]
        ]
      ],
      [
        [
          "Ro\u017emit\u00e1l",
          []
        ],
        [
          "0-0 2-4 pen",
          [
            "/wiki/Penalty_shoot-out_(association_football)"
          ]
        ],
        [
          "K\u00e1cov",
          []
        ]
      ],
      [
        [
          "Vod\u0148any",
          []
        ],
        [
          "1-2",
          []
        ],
        [
          "FK T\u00e1bor",
          [
            "/wiki/FK_T\u00e1bor"
          ]
        ]
      ],
      [
        [
          "Z\u010cE Plze\u0148",
          []
        ],
        [
          "2-3",
          []
        ],
        [
          "Ho\u0159ovice",
          []
        ]
      ],
      [
        [
          "Chodov u Karlov\u00fdch Var\u016f",
          []
        ],
        [
          "0-6",
          []
        ],
        [
          "Doubravka",
          [
            "/wiki/SK_Senco_Doubravka"
          ]
        ]
      ],
      [
        [
          "FK Brandov",
          []
        ],
        [
          "2-1",
          []
        ],
        [
          "Rakovn\u00edk",
          []
        ]
      ],
      [
        [
          "Skalice u \u010cesk\u00e9 L\u00edpy",
          []
        ],
        [
          "2-0",
          []
        ],
        [
          "Libi\u0161",
          []
        ]
      ],
      [
        [
          "Nov\u00fd Byd\u017eov",
          []
        ],
        [
          "2-1",
          []
        ],
        [
          "Choce\u0148",
          [
            "/wiki/FK_Agria_Choce\u0148"
          ]
        ]
      ],
      [
        [
          "Holice v \u010cech\u00e1ch",
          []
        ],
        [
          "1-3",
          []
        ],
        [
          "\u00dast\u00ed nad Orlic\u00ed",
          [
            "/wiki/TJ_Jiskra_\u00dast\u00ed_nad_Orlic\u00ed"
          ]
        ]
      ],
      [
        [
          "Slavoj Poln\u00e1",
          []
        ],
        [
          "1-1 4-5 pen",
          [
            "/wiki/Penalty_shoot-out_(association_football)"
          ]
        ],
        [
          "\u017dd\u00edrec nad Doubravou",
          []
        ]
      ],
      [
        [
          "P\u00e1lava Mikulov",
          []
        ],
        [
          "1-2",
          []
        ],
        [
          "Hru\u0161ovany nad Jevi\u0161ovkou",
          []
        ]
      ],
      [
        [
          "Ostro\u017esk\u00e1 Nov\u00e1 Ves",
          []
        ],
        [
          "2-1",
          []
        ],
        [
          "Kyjov",
          []
        ]
      ],
      [
        [
          "Dolany",
          []
        ],
        [
          "0-0 3-4 pen",
          [
            "/wiki/Penalty_shoot-out_(association_football)"
          ]
        ],
        [
          "Horka",
          []
        ]
      ],
      [
        [
          "Slavia Stachovice",
          []
        ],
        [
          "0-4",
          []
        ],
        [
          "Fulnek",
          [
            "/wiki/Fotbal_Fulnek"
          ]
        ]
      ],
      [
        [
          "Morkovice",
          [
            "/wiki/FC_Morkovice"
          ]
        ],
        [
          "4-2",
          []
        ],
        [
          "Vy\u0161kov",
          [
            "/wiki/MFK_Vy\u0161kov"
          ]
        ]
      ],
      [
        [
          "Konice",
          []
        ],
        [
          "2-0",
          []
        ],
        [
          "Velk\u00e9 Losiny",
          []
        ]
      ],
      [
        [
          "Ban\u00edk Albrechtice",
          []
        ],
        [
          "1-1 3-2 pen",
          [
            "/wiki/Penalty_shoot-out_(association_football)"
          ]
        ],
        [
          "D\u011btmarovice",
          []
        ]
      ]
    ],
    "section_title": "Preliminary round",
    "section_text": "The preliminary round took place on 24 July 2005 .",
    "uid": "2005\u201306_Czech_Cup_1",
    "intro": "The 2005-06 Czech Cup was the thirteenth season of the annual football knock-out tournament of the Czech Republic. It began on 24 July 2005 with the preliminary round and concluded with the final on 19 May 2006. The competition offered a place in the first round of the 2006-07 UEFA Cup for the winner."
  },
  "2011\u201312_ABA_League_5": {
    "url": "https://en.wikipedia.org/wiki/2011\u201312_ABA_League",
    "title": "2011\u201312 ABA League",
    "header": [
      [
        "Rank",
        []
      ],
      [
        "Name",
        []
      ],
      [
        "Team",
        []
      ],
      [
        "Rebounds",
        []
      ],
      [
        "Games",
        []
      ],
      [
        "RPG",
        []
      ]
    ],
    "data": [
      [
        [
          "1",
          []
        ],
        [
          "Mike Scott",
          [
            "/wiki/Michael_Scott_(basketball)"
          ]
        ],
        [
          "Radni\u010dki",
          [
            "/wiki/KK_Radni\u010dki_Kragujevac_(2009\u20132014)"
          ]
        ],
        [
          "145",
          []
        ],
        [
          "22",
          []
        ],
        [
          "6.59",
          []
        ]
      ],
      [
        [
          "2",
          []
        ],
        [
          "David Simon",
          [
            "/wiki/David_Simon_(basketball)"
          ]
        ],
        [
          "Radni\u010dki",
          [
            "/wiki/KK_Radni\u010dki_Kragujevac_(2009\u20132014)"
          ]
        ],
        [
          "170",
          []
        ],
        [
          "26",
          []
        ],
        [
          "6.54",
          []
        ]
      ],
      [
        [
          "3",
          []
        ],
        [
          "Smiljan Pavi\u010d",
          [
            "/wiki/Smiljan_Pavi\u010d"
          ]
        ],
        [
          "Krka",
          [
            "/wiki/KK_Krka"
          ]
        ],
        [
          "148",
          []
        ],
        [
          "23",
          []
        ],
        [
          "6.43",
          []
        ]
      ],
      [
        [
          "4",
          []
        ],
        [
          "Drago Pa\u0161ali\u0107",
          [
            "/wiki/Drago_Pa\u0161ali\u0107"
          ]
        ],
        [
          "Helios Dom\u017eale",
          [
            "/wiki/Helios_Suns"
          ]
        ],
        [
          "161",
          []
        ],
        [
          "26",
          []
        ],
        [
          "6.19",
          []
        ]
      ],
      [
        [
          "5",
          []
        ],
        [
          "Alen Omi\u0107",
          [
            "/wiki/Alen_Omi\u0107"
          ]
        ],
        [
          "Zlatorog La\u0161ko",
          [
            "/wiki/KK_Zlatorog_La\u0161ko"
          ]
        ],
        [
          "160",
          []
        ],
        [
          "26",
          []
        ],
        [
          "6.15",
          []
        ]
      ]
    ],
    "section_title": "Stats leaders -- Rebounds",
    "section_text": "",
    "uid": "2011\u201312_ABA_League_5",
    "intro": "The 2011-12 ABA League was the 11th season of the Adriatic League, with 14 teams from Serbia, Slovenia, Montenegro, Croatia, Bosnia and Herzegovina and Israel participating in it. This was the second time a team from Israel, Maccabi Tel Aviv, participated in the league. 2011-12 ABA League Final Four was held in Yad Eliyahu Arena, Tel Aviv."
  }
}