{
  "2011\u201312_Welsh_Cup_2": {
    "url": "https://en.wikipedia.org/wiki/2011\u201312_Welsh_Cup",
    "title": "2011\u201312 Welsh Cup",
    "header": [
      [
        "Team 1",
        []
      ],
      [
        "Score",
        []
      ],
      [
        "Team 2",
        []
      ]
    ],
    "data": [
      [
        [
          "Barmouth & Dyffryn",
          [
            "/wiki/Barmouth_&_Dyffryn_United_F.C."
          ]
        ],
        [
          "4 \u2212 1",
          []
        ],
        [
          "Hawarden Rangers",
          [
            "/wiki/Hawarden_Rangers_F.C."
          ]
        ]
      ],
      [
        [
          "Brickfield Rangers",
          [
            "/wiki/Brickfield_Rangers_F.C."
          ]
        ],
        [
          "1 \u2212 4",
          []
        ],
        [
          "Builth Wells",
          [
            "/wiki/Builth_Wells_F.C."
          ]
        ]
      ],
      [
        [
          "Caernarfon Town",
          [
            "/wiki/Caernarfon_Town_F.C."
          ]
        ],
        [
          "8 \u2212 0",
          []
        ],
        [
          "Penmaenmawr Phoenix",
          []
        ]
      ],
      [
        [
          "Caernarfon Wanderers",
          []
        ],
        [
          "1 \u2212 5",
          []
        ],
        [
          "Bethesda Athletic",
          [
            "/wiki/Bethesda_Athletic_F.C."
          ]
        ]
      ],
      [
        [
          "Chirk AAA",
          [
            "/wiki/Chirk_AAA_F.C."
          ]
        ],
        [
          "1 \u2212 0",
          []
        ],
        [
          "Berriew",
          [
            "/wiki/Berriew"
          ]
        ]
      ],
      [
        [
          "Coedpoeth United",
          []
        ],
        [
          "5 \u2212 1",
          []
        ],
        [
          "Gaerwen",
          [
            "/wiki/Gaerwen"
          ]
        ]
      ],
      [
        [
          "FC Cefn",
          []
        ],
        [
          "3 \u2212 1 ( aet )",
          [
            "/wiki/Overtime_(sports)"
          ]
        ],
        [
          "Connah 's Quay Nomads F.C",
          [
            "/wiki/Connah's_Quay_Nomads_F.C."
          ]
        ]
      ],
      [
        [
          "Glantraeth",
          [
            "/wiki/Glantraeth_F.C."
          ]
        ],
        [
          "9 \u2212 0",
          []
        ],
        [
          "Pontrhydfendigaid",
          []
        ]
      ],
      [
        [
          "Gresford Athletic",
          []
        ],
        [
          "3 \u2212 2 ( aet )",
          [
            "/wiki/Overtime_(sports)"
          ]
        ],
        [
          "Mold Alexandra",
          [
            "/wiki/Mold_Alexandra_F.C."
          ]
        ]
      ],
      [
        [
          "Gwalchmai",
          [
            "/wiki/C.P.D._Gwalchmai"
          ]
        ],
        [
          "3 \u2212 2",
          []
        ],
        [
          "Llansantffraid Village",
          []
        ]
      ],
      [
        [
          "Holyhead Hotspur",
          [
            "/wiki/Holyhead_Hotspur_F.C."
          ]
        ],
        [
          "4 \u2212 3 ( aet )",
          [
            "/wiki/Overtime_(sports)"
          ]
        ],
        [
          "Llanfair United",
          []
        ]
      ],
      [
        [
          "Lex XI",
          []
        ],
        [
          "1 \u2212 3",
          []
        ],
        [
          "Connah 's Quay Town",
          []
        ]
      ],
      [
        [
          "Llandyrnog United",
          []
        ],
        [
          "1 \u2212 2",
          []
        ],
        [
          "Llanrug United",
          []
        ]
      ],
      [
        [
          "Llangollen United",
          []
        ],
        [
          "1 \u2212 2",
          []
        ],
        [
          "Carno",
          [
            "/wiki/Carno"
          ]
        ]
      ],
      [
        [
          "Llanidloes Town",
          []
        ],
        [
          "4 \u2212 3",
          []
        ],
        [
          "Glan Conwy",
          [
            "/wiki/Glan_Conwy"
          ]
        ]
      ],
      [
        [
          "Llanllyfni",
          [
            "/wiki/Llanllyfni"
          ]
        ],
        [
          "0 \u2212 3",
          []
        ],
        [
          "Venture Community",
          []
        ]
      ],
      [
        [
          "Montgomery Town",
          []
        ],
        [
          "5 \u2212 0",
          []
        ],
        [
          "Bro Goronwy",
          []
        ]
      ],
      [
        [
          "Nefyn United",
          []
        ],
        [
          "2 \u2212 3",
          []
        ],
        [
          "Llandrindod Wells",
          [
            "/wiki/Llandrindod_Wells"
          ]
        ]
      ],
      [
        [
          "Rhydymwyn",
          [
            "/wiki/Rhydymwyn"
          ]
        ],
        [
          "0 \u2212 5",
          []
        ],
        [
          "Denbigh Town",
          []
        ]
      ],
      [
        [
          "Rhosgoch Rangers",
          []
        ],
        [
          "2 \u2212 1",
          []
        ],
        [
          "Corwen Amateurs",
          [
            "/wiki/Corwen_F.C."
          ]
        ]
      ]
    ],
    "section_title": "North",
    "section_text": "",
    "uid": "2011\u201312_Welsh_Cup_2",
    "intro": "The 2011-12 FAW Welsh Cup was the 125th season of the annual knockout tournament for competitive football teams in Wales. The 2011-12 tournament commenced on 13 August 2011, and ran until the final in May 2012. The winner of the Cup qualified to the first qualifying round of the 2012-13 UEFA Europa League. The 2011-12 Welsh Cup saw the return of Western League side Merthyr Town and Conference National sides Newport County and Wrexham. Football League side Cardiff City, Conference North side Colwyn Bay, and Premier League side Swansea City rejected the invitation to participate in this season's Welsh Cup. Nevertheless, the UEFA barred these teams from competing in the Europa League even if they had won."
  },
  "2012\u201313_Welsh_Cup_0": {
    "url": "https://en.wikipedia.org/wiki/2012\u201313_Welsh_Cup",
    "title": "2012\u201313 Welsh Cup",
    "header": [
      [
        "Team 1",
        []
      ],
      [
        "Score",
        []
      ],
      [
        "Team 2",
        []
      ]
    ],
    "data": [
      [
        [
          "Amlwch Town",
          [
            "/wiki/Amlwch_Town_F.C."
          ]
        ],
        [
          "0 \u2212 3",
          []
        ],
        [
          "Corwen",
          [
            "/wiki/Corwen_F.C."
          ]
        ]
      ],
      [
        [
          "Connah 's Quay Town",
          []
        ],
        [
          "4 \u2212 0",
          []
        ],
        [
          "Flint Mountain",
          []
        ]
      ],
      [
        [
          "Greenfield",
          [
            "/wiki/Greenfield_F.C."
          ]
        ],
        [
          "w/o",
          []
        ],
        [
          "West Shore",
          []
        ]
      ],
      [
        [
          "Gresford Athletic",
          [
            "/wiki/Gresford_Athletic_F.C."
          ]
        ],
        [
          "2 \u2212 1",
          []
        ],
        [
          "New Brighton Villa",
          []
        ]
      ],
      [
        [
          "Halkyn United",
          [
            "/wiki/Halkyn_United_F.C."
          ]
        ],
        [
          "w/o",
          []
        ],
        [
          "Caernarfon Wanderers",
          []
        ]
      ],
      [
        [
          "Johnstown Youth",
          []
        ],
        [
          "0 \u2212 6",
          []
        ],
        [
          "Llanuwchllyn",
          [
            "/wiki/Llanuwchllyn_F.C."
          ]
        ]
      ],
      [
        [
          "Knighton Town",
          [
            "/wiki/Knighton_Town_F.C."
          ]
        ],
        [
          "4 \u2212 1",
          []
        ],
        [
          "Gaerwen",
          []
        ]
      ],
      [
        [
          "Lex XI",
          [
            "/wiki/Lex_XI_F.C."
          ]
        ],
        [
          "3 \u2212 1",
          []
        ],
        [
          "Machynlleth",
          [
            "/wiki/Machynlleth_F.C."
          ]
        ]
      ],
      [
        [
          "Llandyrnog United",
          [
            "/wiki/Llandyrnog_United_F.C."
          ]
        ],
        [
          "3 \u2212 4",
          []
        ],
        [
          "Bodedern Athletic",
          [
            "/wiki/Bodedern_Athletic_F.C."
          ]
        ]
      ],
      [
        [
          "Llanfairpwll",
          [
            "/wiki/Llanfairpwll_F.C."
          ]
        ],
        [
          "3 \u2212 1",
          []
        ],
        [
          "Dyffryn Nantle Vale",
          []
        ]
      ],
      [
        [
          "Llanfyllin",
          []
        ],
        [
          "2 \u2212 6",
          []
        ],
        [
          "Bethel",
          []
        ]
      ],
      [
        [
          "Llanllyfni",
          []
        ],
        [
          "4 \u2212 3",
          []
        ],
        [
          "Castell Alun Colts",
          [
            "/wiki/Castell_Alun_Colts_F.C."
          ]
        ]
      ],
      [
        [
          "Llanystumdwy",
          []
        ],
        [
          "0 \u2212 2",
          []
        ],
        [
          "Caerwys",
          [
            "/wiki/Caerwys_F.C."
          ]
        ]
      ],
      [
        [
          "Montgomery Town",
          [
            "/wiki/Montgomery_Town_F.C."
          ]
        ],
        [
          "7 \u2212 1",
          []
        ],
        [
          "Blaenau Amateurs",
          []
        ]
      ],
      [
        [
          "Nomads of Connah 's Quay",
          [
            "/wiki/Connah's_Quay_Nomads_F.C."
          ]
        ],
        [
          "3 \u2212 1",
          []
        ],
        [
          "Kinmel Bay Sports",
          []
        ]
      ],
      [
        [
          "Pen y Ffordd",
          []
        ],
        [
          "1 \u2212 0",
          []
        ],
        [
          "Penmaenmawr Phoenix",
          []
        ]
      ],
      [
        [
          "Penrhyndeudraeth",
          [
            "/wiki/Penrhyndeudraeth_F.C."
          ]
        ],
        [
          "w/o",
          []
        ],
        [
          "Acton Village",
          []
        ]
      ],
      [
        [
          "Presteigne St Andrews",
          [
            "/wiki/Presteigne_St._Andrews_F.C."
          ]
        ],
        [
          "4 \u2212 1",
          []
        ],
        [
          "Kerry",
          [
            "/wiki/Kerry_GAA"
          ]
        ]
      ],
      [
        [
          "Trearddur Bay United",
          []
        ],
        [
          "10 \u2212 0",
          []
        ],
        [
          "Penley",
          []
        ]
      ]
    ],
    "section_title": "North",
    "section_text": "",
    "uid": "2012\u201313_Welsh_Cup_0",
    "intro": "The 2012-13 FAW Welsh Cup was the 126th season of the annual knockout tournament for competitive football teams in Wales. The 2012-13 tournament commenced on 18 August 2012, and will run until the final in May 2013. The winner of the Cup qualifies to the first qualifying round of the 2013-14 UEFA Europa League. Back in 2013 Prestatyn Town F.C beat wrexham F.c 3-1 with youngster Alan Barret scoring the 91st Minute Winner"
  },
  "2004\u201305_Irish_Cup_2": {
    "url": "https://en.wikipedia.org/wiki/2004\u201305_Irish_Cup",
    "title": "2004\u201305 Irish Cup",
    "header": [
      [
        "Team 1",
        []
      ],
      [
        "Score",
        []
      ],
      [
        "Team 2",
        []
      ]
    ],
    "data": [
      [
        [
          "Ballymena United",
          [
            "/wiki/Ballymena_United_F.C."
          ]
        ],
        [
          "4-1",
          []
        ],
        [
          "Kilmore Recreation",
          [
            "/wiki/Kilmore_Recreation_F.C."
          ]
        ]
      ],
      [
        [
          "Crusaders",
          [
            "/wiki/Crusaders_F.C."
          ]
        ],
        [
          "0-1",
          []
        ],
        [
          "Coleraine",
          [
            "/wiki/Coleraine_F.C."
          ]
        ]
      ],
      [
        [
          "Dungannon Swifts",
          [
            "/wiki/Dungannon_Swifts_F.C."
          ]
        ],
        [
          "1-2",
          []
        ],
        [
          "Larne",
          [
            "/wiki/Larne_F.C."
          ]
        ]
      ],
      [
        [
          "Glentoran",
          [
            "/wiki/Glentoran_F.C."
          ]
        ],
        [
          "1-1",
          []
        ],
        [
          "Linfield",
          [
            "/wiki/Linfield_F.C."
          ]
        ]
      ],
      [
        [
          "Institute",
          [
            "/wiki/Institute_F.C."
          ]
        ],
        [
          "1-2",
          []
        ],
        [
          "Ards",
          [
            "/wiki/Ards_F.C."
          ]
        ]
      ],
      [
        [
          "Lisburn Distillery",
          [
            "/wiki/Lisburn_Distillery_F.C."
          ]
        ],
        [
          "1-1",
          []
        ],
        [
          "Harland & Wolff Welders",
          [
            "/wiki/Harland_&_Wolff_Welders_F.C."
          ]
        ]
      ],
      [
        [
          "Loughgall",
          [
            "/wiki/Loughgall_F.C."
          ]
        ],
        [
          "0-0",
          []
        ],
        [
          "Banbridge Town",
          [
            "/wiki/Banbridge_Town_F.C."
          ]
        ]
      ],
      [
        [
          "Portadown",
          [
            "/wiki/Portadown_F.C."
          ]
        ],
        [
          "2-1",
          []
        ],
        [
          "Bangor",
          [
            "/wiki/Bangor_F.C."
          ]
        ]
      ]
    ],
    "section_title": "Sixth round",
    "section_text": "",
    "uid": "2004\u201305_Irish_Cup_2",
    "intro": "The 2004-05 Irish Cup was the 125th edition of Northern Ireland's premier football knock-out cup competition. It concluded on 7 May 2005 with the final. Glentoran were the defending champions, winning their 20th Irish Cup last season after a 1-0 win over Coleraine in the 2004 final. This season the Glens reached the semi-final stage, but were defeated by Portadown, who then went on to lift the cup for the third time with a 5-1 victory over Larne in the final. It was the highest scoring final in 36 years, since the 1969 final replay when Ards defeated Distillery 4-2. It was also the first time in 43 years that the final had been won by a four-goal margin, when Linfield defeated Portadown 4-0 in 1962. This was Larne's fifth appearance in the final without ever winning; a record in the competition that still stands. They had previously been runners-up in the 1928, 1935, 1987 and 1989 finals. Derry Celtic (1898 and 1904) and Limavady (1885 and 1886) are the only other clubs to have reached the final more than once, but never won."
  },
  "Liga_ASOBAL_2010\u201311_0": {
    "url": "https://en.wikipedia.org/wiki/Liga_ASOBAL_2010\u201311",
    "title": "Liga ASOBAL 2010\u201311",
    "header": [
      [
        "Team",
        []
      ],
      [
        "Venue",
        []
      ],
      [
        "Capacity",
        []
      ]
    ],
    "data": [
      [
        [
          "Alcobendas",
          [
            "/wiki/BM_Alcobendas"
          ]
        ],
        [
          "Severo Ochoa",
          []
        ],
        [
          "3,000",
          []
        ]
      ],
      [
        [
          "Antequera",
          [
            "/wiki/BM_Antequera"
          ]
        ],
        [
          "Fernando Arg\u00fcelles",
          [
            "/wiki/Pabell\u00f3n_Polideportivo_Municipal_Fernando_Arg\u00fcelles"
          ]
        ],
        [
          "2,575",
          []
        ]
      ],
      [
        [
          "Arrate",
          [
            "/wiki/JD_Arrate"
          ]
        ],
        [
          "Polideportivo Ipurua",
          [
            "/wiki/Pabell\u00f3n_Polideportivo_Ipurua"
          ]
        ],
        [
          "3,500",
          []
        ]
      ],
      [
        [
          "CAI BM Arag\u00f3n",
          [
            "/wiki/BM_Arag\u00f3n"
          ]
        ],
        [
          "Pr\u00edncipe Felipe",
          [
            "/wiki/Pabell\u00f3n_Pr\u00edncipe_Felipe"
          ]
        ],
        [
          "12,000",
          []
        ]
      ],
      [
        [
          "Barcelona Borges",
          [
            "/wiki/FC_Barcelona_Handbol"
          ]
        ],
        [
          "Palau Blaugrana",
          [
            "/wiki/Palau_Blaugrana"
          ]
        ],
        [
          "8,250",
          []
        ]
      ],
      [
        [
          "Renovalia Ciudad Real",
          [
            "/wiki/BM_Ciudad_Real"
          ]
        ],
        [
          "Quijote Arena",
          [
            "/wiki/Quijote_Arena"
          ]
        ],
        [
          "5,107",
          []
        ]
      ],
      [
        [
          "Cuenca 2016",
          [
            "/wiki/BM_Ciudad_Encantada"
          ]
        ],
        [
          "El Sargal",
          []
        ],
        [
          "1,900",
          []
        ]
      ],
      [
        [
          "Fraikin Granollers",
          [
            "/wiki/BM_Granollers"
          ]
        ],
        [
          "Palau D'Esports",
          [
            "/wiki/Palau_d'Esports_de_Granollers"
          ]
        ],
        [
          "6,500",
          []
        ]
      ],
      [
        [
          "Alser Puerto Sagunto",
          [
            "/wiki/BM_Puerto_Sagunto"
          ]
        ],
        [
          "Pabell\u00f3n Municipal",
          []
        ],
        [
          "1,500",
          []
        ]
      ],
      [
        [
          "Toledo",
          [
            "/wiki/Toledo_BM"
          ]
        ],
        [
          "Javier Lozano Cid",
          []
        ],
        [
          "2,500",
          []
        ]
      ],
      [
        [
          "Naturhouse La Rioja",
          [
            "/wiki/CB_Ciudad_de_Logro\u00f1o"
          ]
        ],
        [
          "Palacio de los Deportes",
          [
            "/wiki/Palacio_de_los_Deportes_de_La_Rioja"
          ]
        ],
        [
          "3,851",
          []
        ]
      ],
      [
        [
          "Quabit Guadalajara",
          [
            "/wiki/AD_Ciudad_de_Guadalajara"
          ]
        ],
        [
          "Multiusos de Guadalajara",
          [
            "/wiki/Palacio_Multiusos_de_Guadalajara"
          ]
        ],
        [
          "5,894",
          []
        ]
      ],
      [
        [
          "Cuatro Rayas Valladolid",
          [
            "/wiki/BM_Valladolid"
          ]
        ],
        [
          "Huerta del Rey",
          [
            "/wiki/Polideportivo_Huerta_del_Rey"
          ]
        ],
        [
          "3,500",
          []
        ]
      ],
      [
        [
          "AMAYA Sport S.A",
          [
            "/wiki/SDC_San_Antonio"
          ]
        ],
        [
          "Pabell\u00f3n Universitario",
          [
            "/wiki/Pabell\u00f3n_Universitario_de_Navarra"
          ]
        ],
        [
          "3,000",
          []
        ]
      ],
      [
        [
          "Reale Ademar Le\u00f3n",
          [
            "/wiki/CB_Ademar_Le\u00f3n"
          ]
        ],
        [
          "Palacio Municipal",
          [
            "/wiki/Palacio_de_los_Deportes_de_Le\u00f3n"
          ]
        ],
        [
          "6,000",
          []
        ]
      ],
      [
        [
          "Torrevieja",
          [
            "/wiki/CB_Torrevieja"
          ]
        ],
        [
          "Palacio de los Deportes",
          [
            "/wiki/Palacio_de_los_Deportes_de_Torrevieja"
          ]
        ],
        [
          "4,500",
          []
        ]
      ]
    ],
    "section_title": "Team information",
    "section_text": "AlcobendasAntequeraArrateCAI BM Arag\u00f3nBarcelona BorgesRenovalia Ciudad RealCuenca 2016Fraikin GranollersAlser Puerto SaguntoNaturhouse La RiojaL\u00e1baro ToledoQuabit GuadalajaraCuatro Rayas ValladolidAMAYA Sport S.A.Reale AdemarTorrevieja 2010\u201311 Liga Asobal teams",
    "uid": "Liga_ASOBAL_2010\u201311_0",
    "intro": "Liga ASOBAL 2010-11 season was the 21st since its establishment. Ciudad Real were the defending champions, having won their 5th La Liga title in the previous season. The campaign began on Saturday, 11 September 2010. The league was originally scheduled to end on 21 May 2011. A total of 16 teams contested the league, 14 of which had already contested in the 2009-10 season, and two of which were promoted from the Divisi\u00f3n de Plata. Barcelona Borges won their tenth ASOBAL title."
  },
  "2010\u201311_Welsh_Cup_4": {
    "url": "https://en.wikipedia.org/wiki/2010\u201311_Welsh_Cup",
    "title": "2010\u201311 Welsh Cup",
    "header": [
      [
        "Team 1",
        []
      ],
      [
        "Score",
        []
      ],
      [
        "Team 2",
        []
      ]
    ],
    "data": [
      [
        [
          "Abertillery Bluebirds",
          [
            "/wiki/Abertillery_Bluebirds_F.C."
          ]
        ],
        [
          "1-2",
          []
        ],
        [
          "Pontyclun",
          [
            "/wiki/Pontyclun_F.C."
          ]
        ]
      ],
      [
        [
          "Ammanford",
          [
            "/wiki/Ammanford_A.F.C."
          ]
        ],
        [
          "3-0",
          []
        ],
        [
          "Presteigne St. Andrews",
          [
            "/wiki/Presteigne_St._Andrews_F.C."
          ]
        ]
      ],
      [
        [
          "Bridgend Street",
          [
            "/wiki/Bridgend_Street_A.F.C."
          ]
        ],
        [
          "11-1",
          []
        ],
        [
          "Fochrhiw",
          []
        ]
      ],
      [
        [
          "Briton Ferry Llansawel",
          [
            "/wiki/Briton_Ferry_Llansawel_A.F.C."
          ]
        ],
        [
          "1-2 ( a.e.t . )",
          [
            "/wiki/Overtime_(sports)"
          ]
        ],
        [
          "Pontypridd Town",
          [
            "/wiki/Pontypridd_Town_A.F.C."
          ]
        ]
      ],
      [
        [
          "Caerau",
          [
            "/wiki/Caerau_F.C."
          ]
        ],
        [
          "4-1",
          []
        ],
        [
          "Newport YMCA",
          [
            "/wiki/Newport_YMCA_A.F.C."
          ]
        ]
      ],
      [
        [
          "Cardiff Grange Harlequins",
          [
            "/wiki/Cardiff_Grange_Harlequins_A.F.C."
          ]
        ],
        [
          "2-1",
          []
        ],
        [
          "Llanwern",
          [
            "/wiki/Newport_City_F.C."
          ]
        ]
      ],
      [
        [
          "Corus Steel",
          [
            "/wiki/Tata_Steel_United_F.C."
          ]
        ],
        [
          "3-2",
          []
        ],
        [
          "Llwydcoed",
          [
            "/wiki/A.F.C._Llwydcoed"
          ]
        ]
      ],
      [
        [
          "Cwmaman Institute",
          [
            "/wiki/Cwmaman_Institute_F.C."
          ]
        ],
        [
          "1-0",
          []
        ],
        [
          "Aberbargoed Buds",
          [
            "/wiki/Aberbargoed_Buds_F.C."
          ]
        ]
      ],
      [
        [
          "Ely Rangers",
          [
            "/wiki/Ely_Rangers_A.F.C."
          ]
        ],
        [
          "3-2",
          []
        ],
        [
          "Caerleon",
          [
            "/wiki/Caerleon_A.F.C."
          ]
        ]
      ],
      [
        [
          "Goytre",
          [
            "/wiki/Goytre_A.F.C."
          ]
        ],
        [
          "5-4 ( a.e.t . )",
          [
            "/wiki/Overtime_(sports)"
          ]
        ],
        [
          "Llangeinor",
          [
            "/wiki/Llangeinor_A.F.C."
          ]
        ]
      ],
      [
        [
          "Hay St. Marys",
          [
            "/wiki/Hay_St_Marys_F.C."
          ]
        ],
        [
          "1-5",
          []
        ],
        [
          "Porth",
          [
            "/wiki/A.F.C._Porth"
          ]
        ]
      ],
      [
        [
          "Nelson Cavaliers",
          []
        ],
        [
          "2-4",
          []
        ],
        [
          "Monmouth Town",
          [
            "/wiki/Monmouth_Town_F.C."
          ]
        ]
      ],
      [
        [
          "Newbridge on Wye",
          []
        ],
        [
          "3-5",
          []
        ],
        [
          "South Gower",
          [
            "/wiki/South_Gower_A.F.C."
          ]
        ]
      ],
      [
        [
          "Newcastle Emlyn",
          [
            "/wiki/Newcastle_Emlyn_F.C."
          ]
        ],
        [
          "2-1",
          []
        ],
        [
          "Dinas Powys",
          [
            "/wiki/Dinas_Powys_F.C."
          ]
        ]
      ],
      [
        [
          "RTB Ebbw Vale",
          [
            "/wiki/RTB_Ebbw_Vale_F.C."
          ]
        ],
        [
          "1-4",
          []
        ],
        [
          "Fleur de Lys",
          []
        ]
      ],
      [
        [
          "Seven Sisters",
          [
            "/wiki/Seven_Sisters_A.F.C."
          ]
        ],
        [
          "0-1",
          []
        ],
        [
          "Croesyceiliog",
          [
            "/wiki/Croesyceiliog_A.F.C."
          ]
        ]
      ],
      [
        [
          "STM Sports",
          [
            "/wiki/STM_Sports_F.C."
          ]
        ],
        [
          "4-3",
          []
        ],
        [
          "Trethomas Bluebirds",
          []
        ]
      ],
      [
        [
          "Ton Pentre",
          [
            "/wiki/Ton_Pentre_F.C."
          ]
        ],
        [
          "0-1",
          []
        ],
        [
          "Bettws",
          [
            "/wiki/Bettws_F.C."
          ]
        ]
      ],
      [
        [
          "Treowen Stars",
          [
            "/wiki/Treowen_Stars_F.C."
          ]
        ],
        [
          "2-3",
          []
        ],
        [
          "Treharris Athletic Western",
          [
            "/wiki/Treharris_Athletic_Western_F.C."
          ]
        ]
      ],
      [
        [
          "UWIC",
          [
            "/wiki/Cardiff_Metropolitan_University_F.C."
          ]
        ],
        [
          "2-1",
          []
        ],
        [
          "Cwmbran Town",
          [
            "/wiki/Cwmbr\u00e2n_Town_A.F.C."
          ]
        ]
      ]
    ],
    "section_title": "Qualifying round two -- South",
    "section_text": "",
    "uid": "2010\u201311_Welsh_Cup_4",
    "intro": "The 2010-11 FAW Welsh Cup was the 124th season of the annual knockout tournament for competitive football teams in Wales, excluding those who play in the English League System. The 2010-11 tournament commenced on 14 August 2010, and ran until the final in May 2011. The winner of the Cup will qualify to the second qualifying round of the 2011-12 UEFA Europa League."
  },
  "1969\u201370_FA_Trophy_7": {
    "url": "https://en.wikipedia.org/wiki/1969\u201370_FA_Trophy",
    "title": "1969\u201370 FA Trophy",
    "header": [
      [
        "Tie",
        []
      ],
      [
        "Home Team",
        []
      ],
      [
        "Score",
        []
      ],
      [
        "Away Team",
        []
      ]
    ],
    "data": [
      [
        [
          "1",
          []
        ],
        [
          "Altrincham",
          [
            "/wiki/Altrincham_F.C."
          ]
        ],
        [
          "1-1",
          []
        ],
        [
          "Buxton",
          [
            "/wiki/Buxton_F.C."
          ]
        ]
      ],
      [
        [
          "2",
          []
        ],
        [
          "Arnold",
          [
            "/wiki/Arnold_Town_F.C."
          ]
        ],
        [
          "3-2",
          []
        ],
        [
          "Ashton United",
          [
            "/wiki/Ashton_United_F.C."
          ]
        ]
      ],
      [
        [
          "3",
          []
        ],
        [
          "Atherstone Town",
          [
            "/wiki/Atherstone_Town_F.C."
          ]
        ],
        [
          "0-1",
          []
        ],
        [
          "Winsford United",
          [
            "/wiki/Winsford_United_F.C."
          ]
        ]
      ],
      [
        [
          "4",
          []
        ],
        [
          "Bedford Town",
          [
            "/wiki/Bedford_Town_F.C."
          ]
        ],
        [
          "5-1",
          []
        ],
        [
          "Ramsgate Athletic",
          [
            "/wiki/Ramsgate_F.C."
          ]
        ]
      ],
      [
        [
          "5",
          []
        ],
        [
          "Bexley United",
          [
            "/wiki/Bexley_United_F.C."
          ]
        ],
        [
          "1-2",
          []
        ],
        [
          "Hastings United",
          [
            "/wiki/Hastings_United_F.C._(1948)"
          ]
        ]
      ],
      [
        [
          "6",
          []
        ],
        [
          "Bourne Town",
          [
            "/wiki/Bourne_Town_F.C."
          ]
        ],
        [
          "2-5",
          []
        ],
        [
          "Chelmsford City",
          [
            "/wiki/Chelmsford_City_F.C."
          ]
        ]
      ],
      [
        [
          "7",
          []
        ],
        [
          "Brentwood Town",
          [
            "/wiki/Brentwood_Town_F.C."
          ]
        ],
        [
          "3-1",
          []
        ],
        [
          "Cambridge City",
          [
            "/wiki/Cambridge_City_F.C."
          ]
        ]
      ],
      [
        [
          "8",
          []
        ],
        [
          "Bridgend Town",
          [
            "/wiki/Bridgend_Town_A.F.C."
          ]
        ],
        [
          "1-1",
          []
        ],
        [
          "Minehead",
          [
            "/wiki/Minehead_A.F.C."
          ]
        ]
      ],
      [
        [
          "9",
          []
        ],
        [
          "Bridlington Trinity",
          [
            "/wiki/Bridlington_Trinity_F.C."
          ]
        ],
        [
          "2-1",
          []
        ],
        [
          "Fleetwood",
          [
            "/wiki/Fleetwood_Town_F.C."
          ]
        ]
      ],
      [
        [
          "10",
          []
        ],
        [
          "Brierley Hill Alliance",
          [
            "/wiki/Brierley_Hill_Alliance_F.C."
          ]
        ],
        [
          "1-1",
          []
        ],
        [
          "Stonehouse",
          [
            "/wiki/Stonehouse_Town_F.C."
          ]
        ]
      ],
      [
        [
          "11",
          []
        ],
        [
          "Burton Albion",
          [
            "/wiki/Burton_Albion_F.C."
          ]
        ],
        [
          "1-1",
          []
        ],
        [
          "St Helens Town",
          [
            "/wiki/St_Helens_Town_A.F.C."
          ]
        ]
      ],
      [
        [
          "12",
          []
        ],
        [
          "Corby Town",
          [
            "/wiki/Corby_Town_F.C."
          ]
        ],
        [
          "2-1",
          []
        ],
        [
          "Basingstoke Town",
          [
            "/wiki/Basingstoke_Town_F.C."
          ]
        ]
      ],
      [
        [
          "13",
          []
        ],
        [
          "Dover",
          [
            "/wiki/Dover_F.C."
          ]
        ],
        [
          "1-0",
          []
        ],
        [
          "Sheppey United",
          [
            "/wiki/Sheppey_United_F.C."
          ]
        ]
      ],
      [
        [
          "14",
          []
        ],
        [
          "Frome Town",
          [
            "/wiki/Frome_Town_F.C."
          ]
        ],
        [
          "0-3",
          []
        ],
        [
          "Bath City",
          [
            "/wiki/Bath_City_F.C."
          ]
        ]
      ],
      [
        [
          "15",
          []
        ],
        [
          "Gateshead",
          [
            "/wiki/Gateshead_A.F.C."
          ]
        ],
        [
          "0-1",
          []
        ],
        [
          "Denaby United",
          [
            "/wiki/Denaby_United_F.C."
          ]
        ]
      ],
      [
        [
          "16",
          []
        ],
        [
          "Gloucester City",
          [
            "/wiki/Gloucester_City_A.F.C."
          ]
        ],
        [
          "0-1",
          []
        ],
        [
          "Cheltenham Town",
          [
            "/wiki/Cheltenham_Town_F.C."
          ]
        ]
      ],
      [
        [
          "17",
          []
        ],
        [
          "Grantham",
          [
            "/wiki/Grantham_Town_F.C."
          ]
        ],
        [
          "2-1",
          []
        ],
        [
          "Bury Town",
          [
            "/wiki/Bury_Town_F.C."
          ]
        ]
      ],
      [
        [
          "18",
          []
        ],
        [
          "Gravesend & Northfleet",
          [
            "/wiki/Ebbsfleet_United_F.C."
          ]
        ],
        [
          "2-0",
          []
        ],
        [
          "Guildford City",
          [
            "/wiki/Guildford_City_F.C."
          ]
        ]
      ],
      [
        [
          "19",
          []
        ],
        [
          "Great Yarmouth Town",
          [
            "/wiki/Great_Yarmouth_Town_F.C."
          ]
        ],
        [
          "1-1",
          []
        ],
        [
          "Dartford",
          [
            "/wiki/Dartford_F.C."
          ]
        ]
      ],
      [
        [
          "20",
          []
        ],
        [
          "Hereford United",
          [
            "/wiki/Hereford_United_F.C."
          ]
        ],
        [
          "2-0",
          []
        ],
        [
          "Andover",
          [
            "/wiki/Andover_F.C."
          ]
        ]
      ]
    ],
    "section_title": "Third Round Qualifying -- Ties",
    "section_text": "",
    "uid": "1969\u201370_FA_Trophy_7",
    "intro": "The 1969-70 FA Trophy was the first season of the FA Trophy. The competition was set up for non-league clubs which paid their players and were therefore not eligible to enter the FA Amateur Cup."
  },
  "2005\u201306_Irish_Cup_0": {
    "url": "https://en.wikipedia.org/wiki/2005\u201306_Irish_Cup",
    "title": "2005\u201306 Irish Cup",
    "header": [
      [
        "Team 1",
        []
      ],
      [
        "Score",
        []
      ],
      [
        "Team 2",
        []
      ]
    ],
    "data": [
      [
        [
          "Ards",
          [
            "/wiki/Ards_F.C."
          ]
        ],
        [
          "1-2",
          []
        ],
        [
          "Glentoran",
          [
            "/wiki/Glentoran_F.C."
          ]
        ]
      ],
      [
        [
          "Ballymena United",
          [
            "/wiki/Ballymena_United_F.C."
          ]
        ],
        [
          "4-0",
          []
        ],
        [
          "Kilmore Recreation",
          [
            "/wiki/Kilmore_Recreation_F.C."
          ]
        ]
      ],
      [
        [
          "Ballymoney United",
          [
            "/wiki/Ballymoney_United_F.C."
          ]
        ],
        [
          "1-2",
          []
        ],
        [
          "Carrick Rangers",
          [
            "/wiki/Carrick_Rangers_F.C."
          ]
        ]
      ],
      [
        [
          "Ballynure Old Boys",
          [
            "/wiki/Ballynure_Old_Boys_F.C."
          ]
        ],
        [
          "0-4",
          []
        ],
        [
          "Ballyclare Comrades",
          [
            "/wiki/Ballyclare_Comrades_F.C."
          ]
        ]
      ],
      [
        [
          "Banbridge Town",
          [
            "/wiki/Banbridge_Town_F.C."
          ]
        ],
        [
          "0-0",
          []
        ],
        [
          "Loughgall",
          [
            "/wiki/Loughgall_F.C."
          ]
        ]
      ],
      [
        [
          "Cliftonville",
          [
            "/wiki/Cliftonville_F.C."
          ]
        ],
        [
          "1-1",
          []
        ],
        [
          "Dungannon Swifts",
          [
            "/wiki/Dungannon_Swifts_F.C."
          ]
        ]
      ],
      [
        [
          "Coleraine",
          [
            "/wiki/Coleraine_F.C."
          ]
        ],
        [
          "1-1",
          []
        ],
        [
          "Newry City",
          [
            "/wiki/Newry_City_F.C."
          ]
        ]
      ],
      [
        [
          "Crusaders",
          [
            "/wiki/Crusaders_F.C."
          ]
        ],
        [
          "2-2",
          []
        ],
        [
          "Portadown",
          [
            "/wiki/Portadown_F.C."
          ]
        ]
      ],
      [
        [
          "Glenavon",
          [
            "/wiki/Glenavon_F.C."
          ]
        ],
        [
          "2-1",
          []
        ],
        [
          "Dundela",
          [
            "/wiki/Dundela_F.C."
          ]
        ]
      ],
      [
        [
          "Harland & Wolff Welders",
          [
            "/wiki/Harland_&_Wolff_Welders_F.C."
          ]
        ],
        [
          "1-1",
          []
        ],
        [
          "Bangor",
          [
            "/wiki/Bangor_F.C."
          ]
        ]
      ],
      [
        [
          "Institute",
          [
            "/wiki/Institute_F.C."
          ]
        ],
        [
          "1-3",
          []
        ],
        [
          "Lisburn Distillery",
          [
            "/wiki/Lisburn_Distillery_F.C."
          ]
        ]
      ],
      [
        [
          "Larne",
          [
            "/wiki/Larne_F.C."
          ]
        ],
        [
          "1-1",
          []
        ],
        [
          "Donegal Celtic",
          [
            "/wiki/Donegal_Celtic_F.C."
          ]
        ]
      ],
      [
        [
          "Linfield",
          [
            "/wiki/Linfield_F.C."
          ]
        ],
        [
          "5-0",
          []
        ],
        [
          "Armagh City",
          [
            "/wiki/Armagh_City_F.C."
          ]
        ]
      ],
      [
        [
          "Newington Youth Club",
          [
            "/wiki/Newington_F.C."
          ]
        ],
        [
          "1-1",
          []
        ],
        [
          "Coagh United",
          [
            "/wiki/Coagh_United_F.C."
          ]
        ]
      ],
      [
        [
          "PSNI",
          [
            "/wiki/PSNI_F.C."
          ]
        ],
        [
          "0-5",
          []
        ],
        [
          "Limavady United",
          [
            "/wiki/Limavady_United_F.C."
          ]
        ]
      ],
      [
        [
          "Tobermore United",
          [
            "/wiki/Tobermore_United_F.C."
          ]
        ],
        [
          "2-3",
          []
        ],
        [
          "Portstewart",
          [
            "/wiki/Portstewart_F.C."
          ]
        ]
      ]
    ],
    "section_title": "Fifth round",
    "section_text": "",
    "uid": "2005\u201306_Irish_Cup_0",
    "intro": "The 2005-06 Irish Cup was the 126th edition of Northern Ireland's premier football knock-out cup competition. It concluded on 6 May 2006 with the final. Portadown were the defending champions, winning their 3rd Irish Cup last season after a 5-1 win over Larne in the 2005 final. This season Portadown reached the quarter-finals, but were defeated by Glentoran. Linfield went on to lift the cup for the 37th time, defeating archrivals Glentoran 2-1 in the final. This was the 15th and to date, last time that both clubs have met in the final."
  },
  "1981\u201382_Greek_Cup_1": {
    "url": "https://en.wikipedia.org/wiki/1981\u201382_Greek_Football_Cup",
    "title": "1981\u201382 Greek Football Cup",
    "header": [
      [
        "Home team",
        []
      ],
      [
        "Score",
        []
      ],
      [
        "Away team",
        []
      ]
    ],
    "data": [
      [
        [
          "Makedonikos",
          [
            "/wiki/Makedonikos_F.C."
          ]
        ],
        [
          "0-2",
          []
        ],
        [
          "Iraklis",
          [
            "/wiki/Iraklis_F.C._(Thessaloniki)"
          ]
        ]
      ],
      [
        [
          "Larissa",
          [
            "/wiki/Athlitiki_Enosi_Larissa_F.C."
          ]
        ],
        [
          "1-0",
          []
        ],
        [
          "Xanthi",
          [
            "/wiki/Xanthi_F.C."
          ]
        ]
      ],
      [
        [
          "Doxa Drama",
          [
            "/wiki/Doxa_Drama_F.C."
          ]
        ],
        [
          "0-1",
          []
        ],
        [
          "Diagoras",
          [
            "/wiki/Diagoras_F.C."
          ]
        ]
      ],
      [
        [
          "Egaleo",
          [
            "/wiki/Egaleo_F.C."
          ]
        ],
        [
          "2-1",
          []
        ],
        [
          "Kozani",
          [
            "/wiki/Kozani_F.C."
          ]
        ]
      ],
      [
        [
          "Kastoria",
          [
            "/wiki/Kastoria_F.C."
          ]
        ],
        [
          "3-1",
          []
        ],
        [
          "Atromitos",
          [
            "/wiki/Atromitos_F.C."
          ]
        ]
      ],
      [
        [
          "Eordaikos",
          [
            "/wiki/Eordaikos_2007_F.C."
          ]
        ],
        [
          "0-2",
          []
        ],
        [
          "Ethnikos Piraeus",
          [
            "/wiki/Ethnikos_Piraeus_F.C."
          ]
        ]
      ],
      [
        [
          "Fostiras",
          [
            "/wiki/Fostiras_F.C."
          ]
        ],
        [
          "2-1",
          []
        ],
        [
          "Panserraikos",
          [
            "/wiki/Panserraikos_F.C."
          ]
        ]
      ],
      [
        [
          "Panionios",
          [
            "/wiki/Panionios_F.C."
          ]
        ],
        [
          "3-0",
          []
        ],
        [
          "Irodotos",
          [
            "/wiki/P.A.S.A._Ir\u00f3dotos"
          ]
        ]
      ],
      [
        [
          "OFI",
          [
            "/wiki/OFI_Crete_F.C."
          ]
        ],
        [
          "1-0",
          []
        ],
        [
          "Panetolikos",
          [
            "/wiki/Panetolikos_F.C."
          ]
        ]
      ],
      [
        [
          "Panathinaikos",
          [
            "/wiki/Panathinaikos_F.C."
          ]
        ],
        [
          "3-2 ( a.e.t . )",
          [
            "/wiki/Overtime_(sports)"
          ]
        ],
        [
          "Olympiacos",
          [
            "/wiki/Olympiacos_F.C."
          ]
        ]
      ],
      [
        [
          "Toxotis Volos",
          []
        ],
        [
          "2-1 ( a.e.t . )",
          [
            "/wiki/Overtime_(sports)"
          ]
        ],
        [
          "Chalkida",
          [
            "/wiki/Chalkida_F.C."
          ]
        ]
      ],
      [
        [
          "Anagennisi Epanomi",
          []
        ],
        [
          "0-0 ( 5-4 p . )",
          [
            "/wiki/Penalty_shoot-out_(association_football)"
          ]
        ],
        [
          "Rodos",
          [
            "/wiki/Rodos_F.C."
          ]
        ]
      ],
      [
        [
          "Kallithea",
          [
            "/wiki/Kallithea_F.C."
          ]
        ],
        [
          "0-2",
          []
        ],
        [
          "Panegialios",
          [
            "/wiki/Panegialios_F.C."
          ]
        ]
      ],
      [
        [
          "PAOK",
          [
            "/wiki/PAOK_FC"
          ]
        ],
        [
          "bye",
          [
            "/wiki/Bye_(sports)"
          ]
        ],
        [
          "",
          []
        ]
      ],
      [
        [
          "AEK Athens",
          [
            "/wiki/AEK_Athens_F.C."
          ]
        ],
        [
          "bye",
          [
            "/wiki/Bye_(sports)"
          ]
        ],
        [
          "",
          []
        ]
      ],
      [
        [
          "Korinthos",
          [
            "/wiki/P.A.S._Korinthos"
          ]
        ],
        [
          "bye",
          [
            "/wiki/Bye_(sports)"
          ]
        ],
        [
          "",
          []
        ]
      ]
    ],
    "section_title": "Second round",
    "section_text": "",
    "uid": "1981\u201382_Greek_Cup_1",
    "intro": "N/A"
  }
}