{
  "2009\u201310_Bundesliga_2": {
    "url": "https://en.wikipedia.org/wiki/2009\u201310_Bundesliga",
    "title": "2009\u201310 Bundesliga",
    "header": [
      [
        "Team",
        []
      ],
      [
        "Outgoing manager ( s )",
        []
      ],
      [
        "Manner of departure",
        []
      ],
      [
        "Date of vacancy",
        []
      ],
      [
        "Position in table",
        []
      ],
      [
        "Replaced by",
        []
      ],
      [
        "Date of appointment",
        []
      ]
    ],
    "data": [
      [
        [
          "Eintracht Frankfurt",
          [
            "/wiki/Eintracht_Frankfurt"
          ]
        ],
        [
          "Friedhelm Funkel",
          [
            "/wiki/Friedhelm_Funkel"
          ]
        ],
        [
          "Resigned",
          []
        ],
        [
          "21 May 2009",
          []
        ],
        [
          "off-season",
          []
        ],
        [
          "Michael Skibbe",
          [
            "/wiki/Michael_Skibbe"
          ]
        ],
        [
          "1 July 2009",
          []
        ]
      ],
      [
        [
          "Hamburger SV",
          [
            "/wiki/Hamburger_SV"
          ]
        ],
        [
          "Martin Jol",
          [
            "/wiki/Martin_Jol"
          ]
        ],
        [
          "Ajax purchased rights",
          [
            "/wiki/AFC_Ajax"
          ]
        ],
        [
          "26 May 2009",
          []
        ],
        [
          "off-season",
          []
        ],
        [
          "Bruno Labbadia",
          [
            "/wiki/Bruno_Labbadia"
          ]
        ],
        [
          "1 July 2009",
          []
        ]
      ],
      [
        [
          "Borussia M\u00f6nchengladbach",
          [
            "/wiki/Borussia_M\u00f6nchengladbach"
          ]
        ],
        [
          "Hans Meyer",
          [
            "/wiki/Hans_Meyer_(footballer)"
          ]
        ],
        [
          "Retired",
          []
        ],
        [
          "28 May 2009",
          []
        ],
        [
          "off-season",
          []
        ],
        [
          "Michael Frontzeck",
          [
            "/wiki/Michael_Frontzeck"
          ]
        ],
        [
          "1 July 2009",
          []
        ]
      ],
      [
        [
          "1 . FC K\u00f6ln",
          [
            "/wiki/1._FC_K\u00f6ln"
          ]
        ],
        [
          "Christoph Daum",
          [
            "/wiki/Christoph_Daum"
          ]
        ],
        [
          "Contract terminated",
          []
        ],
        [
          "2 June 2009",
          []
        ],
        [
          "off-season",
          []
        ],
        [
          "Zvonimir Soldo",
          [
            "/wiki/Zvonimir_Soldo"
          ]
        ],
        [
          "1 July 2009",
          []
        ]
      ],
      [
        [
          "Bayer Leverkusen",
          [
            "/wiki/Bayer_04_Leverkusen"
          ]
        ],
        [
          "Bruno Labbadia",
          [
            "/wiki/Bruno_Labbadia"
          ]
        ],
        [
          "Hamburg purchased rights",
          [
            "/wiki/Hamburger_SV"
          ]
        ],
        [
          "5 June 2009",
          []
        ],
        [
          "off-season",
          []
        ],
        [
          "Jupp Heynckes",
          [
            "/wiki/Jupp_Heynckes"
          ]
        ],
        [
          "1 July 2009",
          []
        ]
      ],
      [
        [
          "Bayern Munich",
          [
            "/wiki/FC_Bayern_Munich"
          ]
        ],
        [
          "Jupp Heynckes",
          [
            "/wiki/Jupp_Heynckes"
          ]
        ],
        [
          "End of caretaker contract",
          []
        ],
        [
          "30 June 2009",
          []
        ],
        [
          "off-season",
          []
        ],
        [
          "Louis van Gaal",
          [
            "/wiki/Louis_van_Gaal"
          ]
        ],
        [
          "1 July 2009",
          []
        ]
      ],
      [
        [
          "Schalke 04",
          [
            "/wiki/FC_Schalke_04"
          ]
        ],
        [
          "Mike B\u00fcskens , Youri Mulder & Oliver Reck",
          [
            "/wiki/Mike_B\u00fcskens",
            "/wiki/Youri_Mulder",
            "/wiki/Oliver_Reck"
          ]
        ],
        [
          "End of tenure as caretakers",
          []
        ],
        [
          "30 June 2009",
          []
        ],
        [
          "off-season",
          []
        ],
        [
          "Felix Magath",
          [
            "/wiki/Felix_Magath"
          ]
        ],
        [
          "1 July 2009",
          []
        ]
      ],
      [
        [
          "VfL Wolfsburg",
          [
            "/wiki/VfL_Wolfsburg"
          ]
        ],
        [
          "Felix Magath",
          [
            "/wiki/Felix_Magath"
          ]
        ],
        [
          "End of contract",
          []
        ],
        [
          "30 June 2009",
          []
        ],
        [
          "off-season",
          []
        ],
        [
          "Armin Veh",
          [
            "/wiki/Armin_Veh"
          ]
        ],
        [
          "1 July 2009",
          []
        ]
      ],
      [
        [
          "Mainz 05",
          [
            "/wiki/1._FSV_Mainz_05"
          ]
        ],
        [
          "J\u00f8rn Andersen",
          [
            "/wiki/J\u00f8rn_Andersen"
          ]
        ],
        [
          "Sacked",
          []
        ],
        [
          "3 August 2009",
          []
        ],
        [
          "pre-season",
          []
        ],
        [
          "Thomas Tuchel",
          [
            "/wiki/Thomas_Tuchel"
          ]
        ],
        [
          "3 August 2009",
          []
        ]
      ],
      [
        [
          "Hannover 96",
          [
            "/wiki/Hannover_96"
          ]
        ],
        [
          "Dieter Hecking",
          [
            "/wiki/Dieter_Hecking"
          ]
        ],
        [
          "Resigned",
          []
        ],
        [
          "19 August 2009",
          []
        ],
        [
          "14th",
          []
        ],
        [
          "Andreas Bergmann",
          [
            "/wiki/Andreas_Bergmann"
          ]
        ],
        [
          "30 August 2009",
          []
        ]
      ],
      [
        [
          "VfL Bochum",
          [
            "/wiki/VfL_Bochum"
          ]
        ],
        [
          "Marcel Koller",
          [
            "/wiki/Marcel_Koller"
          ]
        ],
        [
          "Sacked",
          []
        ],
        [
          "20 September 2009",
          []
        ],
        [
          "17th",
          []
        ],
        [
          "Frank Heinemann ( caretaker )",
          [
            "/wiki/Frank_Heinemann"
          ]
        ],
        [
          "20 September 2009",
          []
        ]
      ],
      [
        [
          "Hertha BSC",
          [
            "/wiki/Hertha_BSC"
          ]
        ],
        [
          "Lucien Favre",
          [
            "/wiki/Lucien_Favre"
          ]
        ],
        [
          "Sacked",
          []
        ],
        [
          "28 September 2009",
          []
        ],
        [
          "18th",
          []
        ],
        [
          "Friedhelm Funkel",
          [
            "/wiki/Friedhelm_Funkel"
          ]
        ],
        [
          "3 October 2009",
          []
        ]
      ],
      [
        [
          "VfL Bochum",
          [
            "/wiki/VfL_Bochum"
          ]
        ],
        [
          "Frank Heinemann ( caretaker )",
          [
            "/wiki/Frank_Heinemann"
          ]
        ],
        [
          "End as caretaker",
          []
        ],
        [
          "27 October 2009",
          []
        ],
        [
          "17th",
          []
        ],
        [
          "Heiko Herrlich",
          [
            "/wiki/Heiko_Herrlich"
          ]
        ],
        [
          "27 October 2009",
          []
        ]
      ],
      [
        [
          "VfB Stuttgart",
          [
            "/wiki/VfB_Stuttgart"
          ]
        ],
        [
          "Markus Babbel",
          [
            "/wiki/Markus_Babbel"
          ]
        ],
        [
          "Sacked",
          []
        ],
        [
          "6 December 2009",
          []
        ],
        [
          "16th",
          []
        ],
        [
          "Christian Gross",
          [
            "/wiki/Christian_Gross"
          ]
        ],
        [
          "6 December 2009",
          []
        ]
      ],
      [
        [
          "1 . FC N\u00fcrnberg",
          [
            "/wiki/1._FC_N\u00fcrnberg"
          ]
        ],
        [
          "Michael Oenning",
          [
            "/wiki/Michael_Oenning"
          ]
        ],
        [
          "Sacked",
          []
        ],
        [
          "21 December 2009",
          []
        ],
        [
          "17th",
          []
        ],
        [
          "Dieter Hecking",
          [
            "/wiki/Dieter_Hecking"
          ]
        ],
        [
          "22 December 2009",
          []
        ]
      ],
      [
        [
          "Hannover 96",
          [
            "/wiki/Hannover_96"
          ]
        ],
        [
          "Andreas Bergmann",
          [
            "/wiki/Andreas_Bergmann"
          ]
        ],
        [
          "Sacked",
          []
        ],
        [
          "19 January 2010",
          []
        ],
        [
          "16th",
          []
        ],
        [
          "Mirko Slomka",
          [
            "/wiki/Mirko_Slomka"
          ]
        ],
        [
          "19 January 2010",
          []
        ]
      ],
      [
        [
          "VfL Wolfsburg",
          [
            "/wiki/VfL_Wolfsburg"
          ]
        ],
        [
          "Armin Veh",
          [
            "/wiki/Armin_Veh"
          ]
        ],
        [
          "Sacked",
          []
        ],
        [
          "25 January 2010",
          []
        ],
        [
          "10th",
          []
        ],
        [
          "Lorenz-G\u00fcnther K\u00f6stner",
          [
            "/wiki/Lorenz-G\u00fcnther_K\u00f6stner"
          ]
        ],
        [
          "25 January 2010",
          []
        ]
      ],
      [
        [
          "Hamburger SV",
          [
            "/wiki/Hamburger_SV"
          ]
        ],
        [
          "Bruno Labbadia",
          [
            "/wiki/Bruno_Labbadia"
          ]
        ],
        [
          "Sacked",
          []
        ],
        [
          "26 April 2010",
          []
        ],
        [
          "7th",
          []
        ],
        [
          "Ricardo Moniz ( Interim )",
          [
            "/wiki/Ricardo_Moniz"
          ]
        ],
        [
          "26 April 2010",
          []
        ]
      ],
      [
        [
          "VfL Bochum",
          [
            "/wiki/VfL_Bochum"
          ]
        ],
        [
          "Heiko Herrlich",
          [
            "/wiki/Heiko_Herrlich"
          ]
        ],
        [
          "Sacked",
          []
        ],
        [
          "29 April 2010",
          []
        ],
        [
          "16th",
          []
        ],
        [
          "Dariusz Wosz ( Interim )",
          [
            "/wiki/Dariusz_Wosz"
          ]
        ],
        [
          "29 April 2010",
          []
        ]
      ]
    ],
    "section_title": "Teams -- Managerial changes",
    "section_text": "Eight teams underwent coaching changes during the off-season , among them champions VfL Wolfsburg and runners-up Bayern Munich . Christoph Daum made use of a unilateral contract option to terminate his contract at 1 . FC K\u00f6ln .",
    "uid": "2009\u201310_Bundesliga_2",
    "intro": "The 2009-10 Bundesliga was the 47th season of the Bundesliga, Germany's premier football league. The season commenced on 7 August 2009 with the traditional season-opening match involving the defending champions VfL Wolfsburg and VfB Stuttgart. The last games were played on 8 May 2010. There was a winter break between 21 December 2009 and 14 January 2010, though the period was reduced from six to three weeks."
  },
  "2006\u201307_NHL_season_12": {
    "url": "https://en.wikipedia.org/wiki/2006\u201307_NHL_season",
    "title": "2006\u201307 NHL season",
    "header": [
      [
        "First Team",
        []
      ],
      [
        "Position",
        []
      ],
      [
        "Second Team",
        []
      ]
    ],
    "data": [
      [
        [
          "Martin Brodeur , New Jersey Devils",
          [
            "/wiki/Martin_Brodeur",
            "/wiki/New_Jersey_Devils"
          ]
        ],
        [
          "G",
          [
            "/wiki/Goaltender"
          ]
        ],
        [
          "Roberto Luongo , Vancouver Canucks",
          [
            "/wiki/Roberto_Luongo",
            "/wiki/Vancouver_Canucks"
          ]
        ]
      ],
      [
        [
          "Nicklas Lidstrom , Detroit Red Wings",
          [
            "/wiki/Nicklas_Lidstr\u00f6m",
            "/wiki/Detroit_Red_Wings"
          ]
        ],
        [
          "D",
          [
            "/wiki/Defenceman"
          ]
        ],
        [
          "Dan Boyle , Tampa Bay Lightning",
          [
            "/wiki/Dan_Boyle_(ice_hockey)",
            "/wiki/Tampa_Bay_Lightning"
          ]
        ]
      ],
      [
        [
          "Scott Niedermayer , Anaheim Ducks",
          [
            "/wiki/Scott_Niedermayer",
            "/wiki/Anaheim_Ducks"
          ]
        ],
        [
          "D",
          []
        ],
        [
          "Chris Pronger , Anaheim Ducks",
          [
            "/wiki/Chris_Pronger",
            "/wiki/Anaheim_Ducks"
          ]
        ]
      ],
      [
        [
          "Sidney Crosby , Pittsburgh Penguins",
          [
            "/wiki/Sidney_Crosby",
            "/wiki/Pittsburgh_Penguins"
          ]
        ],
        [
          "C",
          [
            "/wiki/Centre_(ice_hockey)"
          ]
        ],
        [
          "Vincent Lecavalier , Tampa Bay Lightning",
          [
            "/wiki/Vincent_Lecavalier",
            "/wiki/Tampa_Bay_Lightning"
          ]
        ]
      ],
      [
        [
          "Dany Heatley , Ottawa Senators",
          [
            "/wiki/Dany_Heatley",
            "/wiki/Ottawa_Senators"
          ]
        ],
        [
          "RW",
          [
            "/wiki/Winger_(ice_hockey)"
          ]
        ],
        [
          "Martin St. Louis , Tampa Bay Lightning",
          [
            "/wiki/Martin_St._Louis",
            "/wiki/Tampa_Bay_Lightning"
          ]
        ]
      ],
      [
        [
          "Alexander Ovechkin , Washington Capitals",
          [
            "/wiki/Alexander_Ovechkin",
            "/wiki/Washington_Capitals"
          ]
        ],
        [
          "LW",
          [
            "/wiki/Winger_(ice_hockey)"
          ]
        ],
        [
          "Thomas Vanek , Buffalo Sabres",
          [
            "/wiki/Thomas_Vanek",
            "/wiki/Buffalo_Sabres"
          ]
        ]
      ]
    ],
    "section_title": "Awards -- All-Star teams",
    "section_text": "",
    "uid": "2006\u201307_NHL_season_12",
    "intro": "The 2006-07 NHL season was the 90th season of operation (89th season of play) of the National Hockey League (NHL). The 2007 Stanley Cup Playoffs began on April 11, 2007, and concluded on June 6, with the Anaheim Ducks defeating the Ottawa Senators to win their first Stanley Cup, becoming the first team from California to do so."
  },
  "2014\u201315_Copa_Chile_17": {
    "url": "https://en.wikipedia.org/wiki/2014\u201315_Copa_Chile",
    "title": "2014\u201315 Copa Chile",
    "header": [
      [
        "Team 1",
        []
      ],
      [
        "Agg",
        [
          "/wiki/Playoff_format"
        ]
      ],
      [
        "Team 2",
        []
      ],
      [
        "1st leg",
        []
      ],
      [
        "2nd leg",
        []
      ]
    ],
    "data": [
      [
        [
          "San Luis",
          [
            "/wiki/San_Luis_de_Quillota"
          ]
        ],
        [
          "3-3 ( 5-6 p )",
          [
            "/wiki/Penalty_shoot-out_(association_football)"
          ]
        ],
        [
          "Uni\u00f3n Espa\u00f1ola",
          [
            "/wiki/Uni\u00f3n_Espa\u00f1ola"
          ]
        ],
        [
          "3-0",
          []
        ],
        [
          "0-3",
          []
        ]
      ],
      [
        [
          "Cobresal",
          [
            "/wiki/C.D._Cobresal"
          ]
        ],
        [
          "2-2 ( 4-5 p )",
          [
            "/wiki/Penalty_shoot-out_(association_football)"
          ]
        ],
        [
          "San Marcos de Arica",
          [
            "/wiki/San_Marcos_de_Arica"
          ]
        ],
        [
          "1-1",
          []
        ],
        [
          "1-1",
          []
        ]
      ],
      [
        [
          "Uni\u00f3n San Felipe",
          [
            "/wiki/Uni\u00f3n_San_Felipe"
          ]
        ],
        [
          "2-2 ( 6-5 p )",
          [
            "/wiki/Penalty_shoot-out_(association_football)"
          ]
        ],
        [
          "Santiago Wanderers",
          [
            "/wiki/Santiago_Wanderers"
          ]
        ],
        [
          "1-2",
          []
        ],
        [
          "1-0",
          []
        ]
      ],
      [
        [
          "Magallanes",
          [
            "/wiki/CD_Magallanes"
          ]
        ],
        [
          "3-4",
          []
        ],
        [
          "Palestino",
          [
            "/wiki/Club_Deportivo_Palestino"
          ]
        ],
        [
          "2-0",
          []
        ],
        [
          "1-4",
          []
        ]
      ],
      [
        [
          "Lota Schwager",
          [
            "/wiki/Lota_Schwager"
          ]
        ],
        [
          "2-4",
          []
        ],
        [
          "Universidad de Concepci\u00f3n",
          [
            "/wiki/C.D._Universidad_de_Concepci\u00f3n"
          ]
        ],
        [
          "0-0",
          []
        ],
        [
          "2-4",
          []
        ]
      ],
      [
        [
          "Deportes Temuco",
          [
            "/wiki/Deportes_Temuco"
          ]
        ],
        [
          "3-3 ( 4-2 p )",
          [
            "/wiki/Penalty_shoot-out_(association_football)"
          ]
        ],
        [
          "\u00d1ublense",
          [
            "/wiki/\u00d1ublense"
          ]
        ],
        [
          "2-0",
          []
        ],
        [
          "1-3",
          []
        ]
      ],
      [
        [
          "Coquimbo Unido",
          [
            "/wiki/Coquimbo_Unido"
          ]
        ],
        [
          "0-8",
          []
        ],
        [
          "Deportes Antofagasta",
          [
            "/wiki/C.D._Antofagasta"
          ]
        ],
        [
          "0-3",
          []
        ],
        [
          "0-5",
          []
        ]
      ],
      [
        [
          "Curic\u00f3 Unido",
          [
            "/wiki/Curic\u00f3_Unido"
          ]
        ],
        [
          "1-4",
          []
        ],
        [
          "Audax Italiano",
          [
            "/wiki/Audax_Italiano"
          ]
        ],
        [
          "0-0",
          []
        ],
        [
          "1-4",
          []
        ]
      ]
    ],
    "section_title": "Second round",
    "section_text": "",
    "uid": "2014\u201315_Copa_Chile_17",
    "intro": "The 2014-15 Copa Chile, (officially known as Copa Chile MTS 2014/15 because of its sponsorship), was the 35th edition of the Copa Chile, the country's national cup tournament. The competition started on May 16, 2014 with the First Round and concludes on 2015 with the Final. The winner qualifies for the 2015 Copa Sudamericana and the 2015 Supercopa de Chile."
  },
  "2015\u201316_NHL_season_12": {
    "url": "https://en.wikipedia.org/wiki/2015\u201316_NHL_season",
    "title": "2015\u201316 NHL season",
    "header": [
      [
        "Player",
        []
      ],
      [
        "Team",
        []
      ],
      [
        "Notability",
        []
      ]
    ],
    "data": [
      [
        [
          "Niklas Backstrom",
          [
            "/wiki/Niklas_B\u00e4ckstr\u00f6m"
          ]
        ],
        [
          "Calgary Flames",
          [
            "/wiki/Calgary_Flames"
          ]
        ],
        [
          "Roger Crozier Saving Grace Award winner , William M. Jennings Trophy winner",
          [
            "/wiki/Roger_Crozier_Saving_Grace_Award",
            "/wiki/William_M._Jennings_Trophy"
          ]
        ]
      ],
      [
        [
          "Dan Boyle",
          [
            "/wiki/Dan_Boyle_(ice_hockey)"
          ]
        ],
        [
          "New York Rangers",
          [
            "/wiki/New_York_Rangers"
          ]
        ],
        [
          "Over 1,000 games played",
          []
        ]
      ],
      [
        [
          "Pavel Datsyuk",
          [
            "/wiki/Pavel_Datsyuk"
          ]
        ],
        [
          "Detroit Red Wings",
          [
            "/wiki/Detroit_Red_Wings"
          ]
        ],
        [
          "9-time NHL All Star , 4-time Lady Byng Memorial Trophy winner , 3-time Frank J. Selke Trophy winner , over 1,000 games played",
          [
            "/wiki/Lady_Byng_Memorial_Trophy",
            "/wiki/Frank_J._Selke_Trophy"
          ]
        ]
      ],
      [
        [
          "Patrik Elias",
          [
            "/wiki/Patrik_Eli\u00e1\u0161"
          ]
        ],
        [
          "New Jersey Devils",
          [
            "/wiki/New_Jersey_Devils"
          ]
        ],
        [
          "Over 1,200 games played",
          []
        ]
      ],
      [
        [
          "Andrew Ference",
          [
            "/wiki/Andrew_Ference"
          ]
        ],
        [
          "Edmonton Oilers",
          [
            "/wiki/Edmonton_Oilers"
          ]
        ],
        [
          "King Clancy Memorial Trophy winner",
          [
            "/wiki/King_Clancy_Memorial_Trophy"
          ]
        ]
      ],
      [
        [
          "Scott Gomez",
          [
            "/wiki/Scott_Gomez"
          ]
        ],
        [
          "Ottawa Senators",
          [
            "/wiki/Ottawa_Senators"
          ]
        ],
        [
          "Calder Memorial Trophy winner , over 1,000 games played",
          [
            "/wiki/Calder_Memorial_Trophy"
          ]
        ]
      ],
      [
        [
          "Shawn Horcoff",
          [
            "/wiki/Shawn_Horcoff"
          ]
        ],
        [
          "Anaheim Ducks",
          [
            "/wiki/Anaheim_Ducks"
          ]
        ],
        [
          "Over 1,000 games played",
          []
        ]
      ],
      [
        [
          "Barret Jackman",
          [
            "/wiki/Barret_Jackman"
          ]
        ],
        [
          "Nashville Predators",
          [
            "/wiki/Nashville_Predators"
          ]
        ],
        [
          "Calder Memorial Trophy winner",
          []
        ]
      ],
      [
        [
          "Vincent Lecavalier",
          [
            "/wiki/Vincent_Lecavalier"
          ]
        ],
        [
          "Los Angeles Kings",
          [
            "/wiki/Los_Angeles_Kings"
          ]
        ],
        [
          "Maurice Rocket Richard Trophy winner , King Clancy Memorial Trophy winner , over 1,200 games played",
          [
            "/wiki/Maurice_\"Rocket\"_Richard_Trophy",
            "/wiki/King_Clancy_Memorial_Trophy"
          ]
        ]
      ],
      [
        [
          "David Legwand",
          [
            "/wiki/David_Legwand"
          ]
        ],
        [
          "Buffalo Sabres",
          [
            "/wiki/Buffalo_Sabres"
          ]
        ],
        [
          "Over 1,100 games played",
          []
        ]
      ],
      [
        [
          "Brad Richards",
          [
            "/wiki/Brad_Richards"
          ]
        ],
        [
          "Detroit Red Wings",
          [
            "/wiki/Detroit_Red_Wings"
          ]
        ],
        [
          "Lady Byng Memorial Trophy winner , Conn Smythe Trophy winner , over 1,100 games played",
          [
            "/wiki/Lady_Byng_Memorial_Trophy",
            "/wiki/Conn_Smythe_Trophy"
          ]
        ]
      ],
      [
        [
          "Alex Tanguay",
          [
            "/wiki/Alex_Tanguay"
          ]
        ],
        [
          "Arizona Coyotes",
          [
            "/wiki/Arizona_Coyotes"
          ]
        ],
        [
          "Over 1,000 games played",
          []
        ]
      ],
      [
        [
          "Dainius Zubrus",
          [
            "/wiki/Dainius_Zubrus"
          ]
        ],
        [
          "San Jose Sharks",
          [
            "/wiki/San_Jose_Sharks"
          ]
        ],
        [
          "Over 1,200 games played",
          []
        ]
      ]
    ],
    "section_title": "Milestones -- Last games",
    "section_text": "",
    "uid": "2015\u201316_NHL_season_12",
    "intro": "The 2015-16 NHL season was the 99th season of operation (98th season of play) of the National Hockey League (NHL). Thirty teams competed in 82-game regular season schedules from October 7, 2015 to April 10, 2016. The 2016 Stanley Cup playoffs following the regular season began on April 13 and ended June 12 with the Pittsburgh Penguins winning their fourth Stanley Cup. None of the seven Canadian-based teams qualified for the playoffs; this was the second season in league history that the playoff field consisted of only United States-based teams. The only other time in league history that no Canadian teams qualified for the postseason was in 1970."
  },
  "2014\u201315_Bundesliga_1": {
    "url": "https://en.wikipedia.org/wiki/2014\u201315_Bundesliga",
    "title": "2014\u201315 Bundesliga",
    "header": [
      [
        "Team",
        []
      ],
      [
        "Manager",
        []
      ],
      [
        "Captain",
        []
      ],
      [
        "Kit manufacturer",
        []
      ],
      [
        "Shirt sponsor",
        []
      ]
    ],
    "data": [
      [
        [
          "FC Augsburg",
          []
        ],
        [
          "Markus Weinzierl",
          [
            "/wiki/Markus_Weinzierl"
          ]
        ],
        [
          "Paul Verhaegh",
          [
            "/wiki/Paul_Verhaegh"
          ]
        ],
        [
          "Nike",
          [
            "/wiki/Nike,_Inc."
          ]
        ],
        [
          "AL-KO",
          []
        ]
      ],
      [
        [
          "Bayer Leverkusen",
          []
        ],
        [
          "Roger Schmidt",
          [
            "/wiki/Roger_Schmidt_(football_manager)"
          ]
        ],
        [
          "Simon Rolfes",
          [
            "/wiki/Simon_Rolfes"
          ]
        ],
        [
          "adidas",
          [
            "/wiki/Adidas"
          ]
        ],
        [
          "LG",
          [
            "/wiki/LG_Corporation"
          ]
        ]
      ],
      [
        [
          "Bayern Munich",
          []
        ],
        [
          "Pep Guardiola",
          [
            "/wiki/Pep_Guardiola"
          ]
        ],
        [
          "Philipp Lahm",
          [
            "/wiki/Philipp_Lahm"
          ]
        ],
        [
          "adidas",
          []
        ],
        [
          "T-Mobile",
          [
            "/wiki/Deutsche_Telekom"
          ]
        ]
      ],
      [
        [
          "Borussia Dortmund",
          []
        ],
        [
          "J\u00fcrgen Klopp",
          [
            "/wiki/J\u00fcrgen_Klopp"
          ]
        ],
        [
          "Mats Hummels",
          [
            "/wiki/Mats_Hummels"
          ]
        ],
        [
          "Puma",
          [
            "/wiki/Puma_(brand)"
          ]
        ],
        [
          "Evonik",
          [
            "/wiki/Evonik_Industries"
          ]
        ]
      ],
      [
        [
          "Borussia M\u00f6nchengladbach",
          []
        ],
        [
          "Lucien Favre",
          [
            "/wiki/Lucien_Favre"
          ]
        ],
        [
          "Filip Daems",
          [
            "/wiki/Filip_Daems"
          ]
        ],
        [
          "Kappa",
          [
            "/wiki/Kappa_(company)"
          ]
        ],
        [
          "Postbank",
          [
            "/wiki/Deutsche_Postbank"
          ]
        ]
      ],
      [
        [
          "Eintracht Frankfurt",
          []
        ],
        [
          "Thomas Schaaf",
          [
            "/wiki/Thomas_Schaaf"
          ]
        ],
        [
          "Kevin Trapp",
          [
            "/wiki/Kevin_Trapp"
          ]
        ],
        [
          "Nike",
          []
        ],
        [
          "Alfa Romeo",
          [
            "/wiki/Alfa_Romeo"
          ]
        ]
      ],
      [
        [
          "SC Freiburg",
          []
        ],
        [
          "Christian Streich",
          [
            "/wiki/Christian_Streich"
          ]
        ],
        [
          "Julian Schuster",
          [
            "/wiki/Julian_Schuster"
          ]
        ],
        [
          "Nike",
          []
        ],
        [
          "Ehrmann",
          []
        ]
      ],
      [
        [
          "Hamburger SV",
          []
        ],
        [
          "Bruno Labbadia",
          [
            "/wiki/Bruno_Labbadia"
          ]
        ],
        [
          "Rafael van der Vaart",
          [
            "/wiki/Rafael_van_der_Vaart"
          ]
        ],
        [
          "adidas",
          []
        ],
        [
          "Emirates",
          [
            "/wiki/Emirates_(airline)"
          ]
        ]
      ],
      [
        [
          "Hannover 96",
          []
        ],
        [
          "Michael Frontzeck",
          [
            "/wiki/Michael_Frontzeck"
          ]
        ],
        [
          "Lars Stindl",
          [
            "/wiki/Lars_Stindl"
          ]
        ],
        [
          "Jako",
          []
        ],
        [
          "Heinz von Heiden",
          []
        ]
      ],
      [
        [
          "Hertha BSC",
          []
        ],
        [
          "P\u00e1l D\u00e1rdai",
          [
            "/wiki/P\u00e1l_D\u00e1rdai"
          ]
        ],
        [
          "Fabian Lustenberger",
          [
            "/wiki/Fabian_Lustenberger"
          ]
        ],
        [
          "Nike",
          []
        ],
        [
          "Deutsche Bahn",
          [
            "/wiki/Deutsche_Bahn"
          ]
        ]
      ],
      [
        [
          "TSG 1899 Hoffenheim",
          []
        ],
        [
          "Markus Gisdol",
          [
            "/wiki/Markus_Gisdol"
          ]
        ],
        [
          "Andreas Beck",
          [
            "/wiki/Andreas_Beck_(footballer)"
          ]
        ],
        [
          "Lotto",
          [
            "/wiki/Lotto_Sport_Italia"
          ]
        ],
        [
          "SAP",
          [
            "/wiki/SAP"
          ]
        ]
      ],
      [
        [
          "1 . FC K\u00f6ln",
          []
        ],
        [
          "Peter St\u00f6ger",
          [
            "/wiki/Peter_St\u00f6ger"
          ]
        ],
        [
          "Mi\u0161o Bre\u010dko",
          [
            "/wiki/Mi\u0161o_Bre\u010dko"
          ]
        ],
        [
          "Erima",
          []
        ],
        [
          "REWE",
          [
            "/wiki/REWE"
          ]
        ]
      ],
      [
        [
          "1 . FSV Mainz 05",
          []
        ],
        [
          "Martin Schmidt",
          [
            "/wiki/Martin_Schmidt_(football_manager)"
          ]
        ],
        [
          "Nikol\u010de Noveski",
          [
            "/wiki/Nikol\u010de_Noveski"
          ]
        ],
        [
          "Nike",
          []
        ],
        [
          "Entega",
          []
        ]
      ],
      [
        [
          "SC Paderborn 07",
          []
        ],
        [
          "Andr\u00e9 Breitenreiter",
          [
            "/wiki/Andr\u00e9_Breitenreiter"
          ]
        ],
        [
          "Uwe H\u00fcnemeier",
          [
            "/wiki/Uwe_H\u00fcnemeier"
          ]
        ],
        [
          "Saller",
          []
        ],
        [
          "kfzteile24",
          []
        ]
      ],
      [
        [
          "Schalke 04",
          []
        ],
        [
          "Roberto Di Matteo",
          [
            "/wiki/Roberto_Di_Matteo"
          ]
        ],
        [
          "Benedikt H\u00f6wedes",
          [
            "/wiki/Benedikt_H\u00f6wedes"
          ]
        ],
        [
          "adidas",
          []
        ],
        [
          "Gazprom",
          [
            "/wiki/Gazprom"
          ]
        ]
      ],
      [
        [
          "VfB Stuttgart",
          []
        ],
        [
          "Huub Stevens",
          [
            "/wiki/Huub_Stevens"
          ]
        ],
        [
          "Christian Gentner",
          [
            "/wiki/Christian_Gentner"
          ]
        ],
        [
          "Puma",
          []
        ],
        [
          "Mercedes-Benz Bank",
          [
            "/wiki/Mercedes-Benz_Bank"
          ]
        ]
      ],
      [
        [
          "Werder Bremen",
          []
        ],
        [
          "Viktor Skrypnyk",
          [
            "/wiki/Viktor_Skrypnyk"
          ]
        ],
        [
          "Clemens Fritz",
          [
            "/wiki/Clemens_Fritz"
          ]
        ],
        [
          "Nike",
          []
        ],
        [
          "Wiesenhof",
          []
        ]
      ],
      [
        [
          "VfL Wolfsburg",
          []
        ],
        [
          "Dieter Hecking",
          [
            "/wiki/Dieter_Hecking"
          ]
        ],
        [
          "Diego Benaglio",
          [
            "/wiki/Diego_Benaglio"
          ]
        ],
        [
          "Kappa",
          []
        ],
        [
          "Volkswagen",
          [
            "/wiki/Volkswagen"
          ]
        ]
      ]
    ],
    "section_title": "Teams -- Personnel and kits",
    "section_text": "",
    "uid": "2014\u201315_Bundesliga_1",
    "intro": "The 2014-15 Bundesliga was the 52nd season of the Bundesliga, Germany's premier football competition. The season started on 22 August 2014 and the final matchday took place on 23 May 2015. Bayern Munich won their 25th German title on 26 April 2015."
  },
  "2016\u201317_NHL_season_10": {
    "url": "https://en.wikipedia.org/wiki/2016\u201317_NHL_season",
    "title": "2016\u201317 NHL season",
    "header": [
      [
        "Position",
        []
      ],
      [
        "First Team",
        []
      ],
      [
        "Second Team",
        []
      ],
      [
        "Position",
        []
      ],
      [
        "All-Rookie",
        []
      ]
    ],
    "data": [
      [
        [
          "G",
          [
            "/wiki/Goaltender"
          ]
        ],
        [
          "Sergei Bobrovsky , Columbus Blue Jackets",
          [
            "/wiki/Sergei_Bobrovsky"
          ]
        ],
        [
          "Braden Holtby , Washington Capitals",
          [
            "/wiki/Braden_Holtby"
          ]
        ],
        [
          "G",
          [
            "/wiki/Goaltender"
          ]
        ],
        [
          "Matt Murray , Pittsburgh Penguins",
          [
            "/wiki/Matt_Murray_(ice_hockey)"
          ]
        ]
      ],
      [
        [
          "D",
          [
            "/wiki/Defenceman"
          ]
        ],
        [
          "Erik Karlsson , Ottawa Senators",
          [
            "/wiki/Erik_Karlsson"
          ]
        ],
        [
          "Victor Hedman , Tampa Bay Lightning",
          [
            "/wiki/Victor_Hedman"
          ]
        ],
        [
          "D",
          [
            "/wiki/Defenceman"
          ]
        ],
        [
          "Brady Skjei , New York Rangers",
          [
            "/wiki/Brady_Skjei"
          ]
        ]
      ],
      [
        [
          "D",
          [
            "/wiki/Defenceman"
          ]
        ],
        [
          "Brent Burns , San Jose Sharks",
          [
            "/wiki/Brent_Burns"
          ]
        ],
        [
          "Duncan Keith , Chicago Blackhawks",
          [
            "/wiki/Duncan_Keith"
          ]
        ],
        [
          "D",
          [
            "/wiki/Defenceman"
          ]
        ],
        [
          "Zach Werenski , Columbus Blue Jackets",
          [
            "/wiki/Zach_Werenski"
          ]
        ]
      ],
      [
        [
          "C",
          [
            "/wiki/Centre_(ice_hockey)"
          ]
        ],
        [
          "Connor McDavid , Edmonton Oilers",
          [
            "/wiki/Connor_McDavid"
          ]
        ],
        [
          "Sidney Crosby , Pittsburgh Penguins",
          [
            "/wiki/Sidney_Crosby"
          ]
        ],
        [
          "F",
          [
            "/wiki/Forward_(ice_hockey)"
          ]
        ],
        [
          "Auston Matthews , Toronto Maple Leafs",
          [
            "/wiki/Auston_Matthews"
          ]
        ]
      ],
      [
        [
          "RW",
          [
            "/wiki/Winger_(ice_hockey)"
          ]
        ],
        [
          "Patrick Kane , Chicago Blackhawks",
          [
            "/wiki/Patrick_Kane"
          ]
        ],
        [
          "Nikita Kucherov , Tampa Bay Lightning",
          [
            "/wiki/Nikita_Kucherov"
          ]
        ],
        [
          "F",
          [
            "/wiki/Forward_(ice_hockey)"
          ]
        ],
        [
          "Patrik Laine , Winnipeg Jets",
          [
            "/wiki/Patrik_Laine"
          ]
        ]
      ],
      [
        [
          "LW",
          [
            "/wiki/Winger_(ice_hockey)"
          ]
        ],
        [
          "Brad Marchand , Boston Bruins",
          [
            "/wiki/Brad_Marchand"
          ]
        ],
        [
          "Artemi Panarin , Chicago Blackhawks",
          [
            "/wiki/Artemi_Panarin"
          ]
        ],
        [
          "F",
          [
            "/wiki/Forward_(ice_hockey)"
          ]
        ],
        [
          "Mitch Marner , Toronto Maple Leafs",
          [
            "/wiki/Mitch_Marner"
          ]
        ]
      ]
    ],
    "section_title": "NHL awards -- All-Star teams",
    "section_text": "",
    "uid": "2016\u201317_NHL_season_10",
    "intro": "The 2016-17 NHL season was the 100th season of operation (99th season of play) of the National Hockey League. Thirty teams were competing in an 82-game regular season from October 12, 2016, to April 9, 2017. The 2017 Stanley Cup playoffs began on April 12 and concluded on June 11, with the Pittsburgh Penguins winning the Stanley Cup over the Nashville Predators in six games. On June 11, the Pittsburgh Penguins became the first team to repeat as Stanley Cup champions since the Detroit Red Wings in 1997-98, winning the franchise's fifth Stanley Cup and their third in nine seasons."
  },
  "2019\u201320_Bundesliga_0": {
    "url": "https://en.wikipedia.org/wiki/2019\u201320_Bundesliga",
    "title": "2019\u201320 Bundesliga",
    "header": [
      [
        "Team",
        []
      ],
      [
        "Location",
        []
      ],
      [
        "Stadium",
        []
      ],
      [
        "Capacity",
        []
      ]
    ],
    "data": [
      [
        [
          "FC Augsburg",
          [
            "/wiki/FC_Augsburg"
          ]
        ],
        [
          "Augsburg",
          [
            "/wiki/Augsburg"
          ]
        ],
        [
          "WWK Arena",
          [
            "/wiki/Augsburg_Arena"
          ]
        ],
        [
          "30,660",
          []
        ]
      ],
      [
        [
          "Hertha BSC",
          [
            "/wiki/Hertha_BSC"
          ]
        ],
        [
          "Berlin",
          [
            "/wiki/Berlin"
          ]
        ],
        [
          "Olympiastadion",
          [
            "/wiki/Olympiastadion_(Berlin)"
          ]
        ],
        [
          "74,649",
          []
        ]
      ],
      [
        [
          "Union Berlin",
          [
            "/wiki/1._FC_Union_Berlin"
          ]
        ],
        [
          "Berlin",
          []
        ],
        [
          "Stadion An der Alten F\u00f6rsterei",
          [
            "/wiki/Stadion_An_der_Alten_F\u00f6rsterei"
          ]
        ],
        [
          "22,012",
          []
        ]
      ],
      [
        [
          "Werder Bremen",
          [
            "/wiki/SV_Werder_Bremen"
          ]
        ],
        [
          "Bremen",
          [
            "/wiki/Bremen"
          ]
        ],
        [
          "Wohninvest Weserstadion",
          [
            "/wiki/Weser-Stadion"
          ]
        ],
        [
          "42,100",
          []
        ]
      ],
      [
        [
          "Borussia Dortmund",
          [
            "/wiki/Borussia_Dortmund"
          ]
        ],
        [
          "Dortmund",
          [
            "/wiki/Dortmund"
          ]
        ],
        [
          "Signal Iduna Park",
          [
            "/wiki/Westfalenstadion"
          ]
        ],
        [
          "81,365",
          []
        ]
      ],
      [
        [
          "Fortuna D\u00fcsseldorf",
          [
            "/wiki/Fortuna_D\u00fcsseldorf"
          ]
        ],
        [
          "D\u00fcsseldorf",
          [
            "/wiki/D\u00fcsseldorf"
          ]
        ],
        [
          "Merkur Spiel-Arena",
          [
            "/wiki/Merkur_Spiel-Arena"
          ]
        ],
        [
          "54,600",
          []
        ]
      ],
      [
        [
          "Eintracht Frankfurt",
          [
            "/wiki/Eintracht_Frankfurt"
          ]
        ],
        [
          "Frankfurt",
          [
            "/wiki/Frankfurt"
          ]
        ],
        [
          "Commerzbank-Arena",
          [
            "/wiki/Waldstadion_(Frankfurt)"
          ]
        ],
        [
          "51,500",
          []
        ]
      ],
      [
        [
          "SC Freiburg",
          [
            "/wiki/SC_Freiburg"
          ]
        ],
        [
          "Freiburg im Breisgau",
          [
            "/wiki/Freiburg_im_Breisgau"
          ]
        ],
        [
          "Schwarzwald-Stadion",
          [
            "/wiki/Schwarzwald-Stadion"
          ]
        ],
        [
          "24,000",
          []
        ]
      ],
      [
        [
          "1899 Hoffenheim",
          [
            "/wiki/TSG_1899_Hoffenheim"
          ]
        ],
        [
          "Sinsheim",
          [
            "/wiki/Sinsheim"
          ]
        ],
        [
          "PreZero Arena",
          [
            "/wiki/Rhein-Neckar-Arena"
          ]
        ],
        [
          "30,150",
          []
        ]
      ],
      [
        [
          "1 . FC K\u00f6ln",
          [
            "/wiki/1._FC_K\u00f6ln"
          ]
        ],
        [
          "Cologne",
          [
            "/wiki/Cologne"
          ]
        ],
        [
          "RheinEnergieStadion",
          [
            "/wiki/RheinEnergieStadion"
          ]
        ],
        [
          "49,698",
          []
        ]
      ],
      [
        [
          "RB Leipzig",
          [
            "/wiki/RB_Leipzig"
          ]
        ],
        [
          "Leipzig",
          [
            "/wiki/Leipzig"
          ]
        ],
        [
          "Red Bull Arena",
          [
            "/wiki/Red_Bull_Arena_(Leipzig)"
          ]
        ],
        [
          "42,558",
          []
        ]
      ],
      [
        [
          "Bayer Leverkusen",
          [
            "/wiki/Bayer_04_Leverkusen"
          ]
        ],
        [
          "Leverkusen",
          [
            "/wiki/Leverkusen"
          ]
        ],
        [
          "BayArena",
          [
            "/wiki/BayArena"
          ]
        ],
        [
          "30,210",
          []
        ]
      ],
      [
        [
          "Mainz 05",
          [
            "/wiki/1._FSV_Mainz_05"
          ]
        ],
        [
          "Mainz",
          [
            "/wiki/Mainz"
          ]
        ],
        [
          "Opel Arena",
          [
            "/wiki/Opel_Arena_(stadium)"
          ]
        ],
        [
          "34,000",
          []
        ]
      ],
      [
        [
          "Borussia M\u00f6nchengladbach",
          [
            "/wiki/Borussia_M\u00f6nchengladbach"
          ]
        ],
        [
          "M\u00f6nchengladbach",
          [
            "/wiki/M\u00f6nchengladbach"
          ]
        ],
        [
          "Borussia-Park",
          [
            "/wiki/Borussia-Park"
          ]
        ],
        [
          "59,724",
          []
        ]
      ],
      [
        [
          "Bayern Munich",
          [
            "/wiki/FC_Bayern_Munich"
          ]
        ],
        [
          "Munich",
          [
            "/wiki/Munich"
          ]
        ],
        [
          "Allianz Arena",
          [
            "/wiki/Allianz_Arena"
          ]
        ],
        [
          "75,000",
          []
        ]
      ],
      [
        [
          "SC Paderborn",
          [
            "/wiki/SC_Paderborn_07"
          ]
        ],
        [
          "Paderborn",
          [
            "/wiki/Paderborn"
          ]
        ],
        [
          "Benteler-Arena",
          [
            "/wiki/Benteler-Arena"
          ]
        ],
        [
          "15,000",
          []
        ]
      ],
      [
        [
          "Schalke 04",
          [
            "/wiki/FC_Schalke_04"
          ]
        ],
        [
          "Gelsenkirchen",
          [
            "/wiki/Gelsenkirchen"
          ]
        ],
        [
          "Veltins-Arena",
          [
            "/wiki/Arena_AufSchalke"
          ]
        ],
        [
          "62,271",
          []
        ]
      ],
      [
        [
          "VfL Wolfsburg",
          [
            "/wiki/VfL_Wolfsburg"
          ]
        ],
        [
          "Wolfsburg",
          [
            "/wiki/Wolfsburg"
          ]
        ],
        [
          "Volkswagen Arena",
          [
            "/wiki/Volkswagen_Arena"
          ]
        ],
        [
          "30,000",
          []
        ]
      ]
    ],
    "section_title": "Teams -- Stadiums and locations",
    "section_text": "",
    "uid": "2019\u201320_Bundesliga_0",
    "intro": "The 2019-20 Bundesliga is the 57th season of the Bundesliga, Germany's premier football competition. It began on 16 August 2019 and will conclude on 16 May 2020. Bayern Munich are the seven-time defending champions. The number of substitutes allowed on the bench was increased from seven to nine for the 2019-20 season."
  },
  "2008\u201309_Slovak_Cup_2": {
    "url": "https://en.wikipedia.org/wiki/2008\u201309_Slovak_Cup",
    "title": "2008\u201309 Slovak Cup",
    "header": [
      [
        "Team 1",
        []
      ],
      [
        "Score",
        []
      ],
      [
        "Team 2",
        []
      ]
    ],
    "data": [
      [
        [
          "FC Artmedia Petr\u017ealka",
          [
            "/wiki/FC_Petr\u017ealka"
          ]
        ],
        [
          "2-0",
          []
        ],
        [
          "FK LAFC Lu\u010denec",
          [
            "/wiki/M\u0160K_Novohrad_Lu\u010denec"
          ]
        ]
      ],
      [
        [
          "\u0160K Odeva Lipany",
          [
            "/wiki/\u0160K_Odeva_Lipany"
          ]
        ],
        [
          "0-1",
          []
        ],
        [
          "FK DAC 1904 Dunajsk\u00e1 Streda",
          [
            "/wiki/FC_DAC_1904_Dunajsk\u00e1_Streda"
          ]
        ]
      ],
      [
        [
          "FK Slovan Duslo \u0160a\u013ea",
          [
            "/wiki/FK_Slovan_Duslo_\u0160a\u013ea"
          ]
        ],
        [
          "1-4",
          []
        ],
        [
          "MFK Ru\u017eomberok",
          [
            "/wiki/MFK_Ru\u017eomberok"
          ]
        ]
      ],
      [
        [
          "MFK Doln\u00fd Kub\u00edn",
          [
            "/wiki/MFK_Doln\u00fd_Kub\u00edn"
          ]
        ],
        [
          "0-2",
          []
        ],
        [
          "\u0160K Slovan Bratislava",
          [
            "/wiki/\u0160K_Slovan_Bratislava"
          ]
        ]
      ],
      [
        [
          "MFK Topvar Topo\u013e\u010dany",
          [
            "/wiki/MFK_Topvar_Topo\u013e\u010dany"
          ]
        ],
        [
          "2-3",
          []
        ],
        [
          "MFK Ko\u0161ice",
          [
            "/wiki/FC_VSS_Ko\u0161ice"
          ]
        ]
      ],
      [
        [
          "FK P\u00fachov",
          [
            "/wiki/M\u0160K_P\u00fachov"
          ]
        ],
        [
          "0-0 ( a.e.t . ) , ( 3-4 p )",
          [
            "/wiki/Overtime_(sports)",
            "/wiki/Penalty_shoot-out_(association_football)"
          ]
        ],
        [
          "FC ViOn Zlat\u00e9 Moravce",
          [
            "/wiki/FC_ViOn_Zlat\u00e9_Moravce"
          ]
        ]
      ],
      [
        [
          "M\u0160K \u017dilina",
          [
            "/wiki/M\u0160K_\u017dilina"
          ]
        ],
        [
          "1-0",
          []
        ],
        [
          "FC Spartak Trnava",
          [
            "/wiki/FC_Spartak_Trnava"
          ]
        ]
      ],
      [
        [
          "MFK Dubnica",
          [
            "/wiki/FK_Dubnica"
          ]
        ],
        [
          "2-0",
          []
        ],
        [
          "MFK Zempl\u00edn Michalovce",
          [
            "/wiki/MFK_Zempl\u00edn_Michalovce"
          ]
        ]
      ]
    ],
    "section_title": "Round 3",
    "section_text": "The games were played on 24 September 2008 ( 1 game ) , 30 September 2008 ( 4 games ) , 1 October 2008 ( 2 games ) & 21 October 2008 ( 1 game ) .",
    "uid": "2008\u201309_Slovak_Cup_2",
    "intro": "The 2008-09 Slovak Cup was the 40th season of Slovakia's annual knock-out cup competition and the sixteenth since the independence of Slovakia. It began on 5 August 2008 with Round 1 and ended on 20 May 2009 with the Final. The winners of the competition earned a place in the third qualifying round of the UEFA Europa League. Artmedia Petr\u017ealka were the defending champions."
  },
  "2008\u201309_KHL_season_11": {
    "url": "https://en.wikipedia.org/wiki/2008\u201309_KHL_season",
    "title": "2008\u201309 KHL season",
    "header": [
      [
        "Month",
        []
      ],
      [
        "Goaltender",
        []
      ],
      [
        "Defense",
        []
      ],
      [
        "Forward",
        []
      ],
      [
        "Rookie",
        []
      ]
    ],
    "data": [
      [
        [
          "September",
          []
        ],
        [
          "Alexander Eremenko ( Ufa )",
          [
            "/wiki/Alexander_Yeryomenko"
          ]
        ],
        [
          "Magnus Johansson ( Atlant )",
          [
            "/wiki/Magnus_Johansson_(ice_hockey)"
          ]
        ],
        [
          "Sergei Mozyakin ( Atlant )",
          [
            "/wiki/Sergei_Mozyakin"
          ]
        ],
        [
          "Maxim Kitsyn ( Novokuznetsk )",
          [
            "/wiki/Maxim_Kitsyn"
          ]
        ]
      ],
      [
        [
          "October",
          []
        ],
        [
          "Vitaly Kolesnik ( Atlant )",
          [
            "/wiki/Vitali_Kolesnik"
          ]
        ],
        [
          "Ilya Nikulin ( Kazan )",
          [
            "/wiki/Ilya_Nikulin"
          ]
        ],
        [
          "Jan Marek ( Magnitogorsk )",
          [
            "/wiki/Jan_Marek_(ice_hockey,_born_1979)"
          ]
        ],
        [
          "Andrei Kolesnikov ( Chekhov )",
          [
            "/wiki/Andrei_Kolesnikov_(ice_hockey)"
          ]
        ]
      ],
      [
        [
          "November",
          []
        ],
        [
          "Robert Esche ( St. Petersburg )",
          [
            "/wiki/Robert_Esche"
          ]
        ],
        [
          "Konstantin Korneyev ( CSKA )",
          [
            "/wiki/Konstantin_Korneyev"
          ]
        ],
        [
          "Alexei Tereshchenko ( Ufa )",
          [
            "/wiki/Alexei_Tereshchenko"
          ]
        ],
        [
          "Stanislav Galimov ( Kazan )",
          [
            "/wiki/Stanislav_Galimov"
          ]
        ]
      ],
      [
        [
          "December",
          []
        ],
        [
          "Martin Prusek ( Riga )",
          [
            "/wiki/Martin_Prusek"
          ]
        ],
        [
          "Karel Rach\u016fnek ( Dynamo M )",
          [
            "/wiki/Karel_Rach\u016fnek"
          ]
        ],
        [
          "Danis Zaripov ( Kazan )",
          [
            "/wiki/Danis_Zaripov"
          ]
        ],
        [
          "Alexandr Vasiliev ( Chekhov )",
          [
            "/wiki/Alexandr_Vasiliev_(ice_hockey,_born_1989)"
          ]
        ]
      ],
      [
        [
          "January",
          []
        ],
        [
          "Vitaliy Yeremeyev ( Dynamo M )",
          [
            "/wiki/Vitali_Yeremeyev"
          ]
        ],
        [
          "Vitali Proshkin ( Ufa )",
          [
            "/wiki/Vitali_Proshkin"
          ]
        ],
        [
          "Alexander Korolyuk ( Atlant )",
          [
            "/wiki/Alexander_Korolyuk"
          ]
        ],
        [
          "Alexandr Vasiliev ( Chekhov )",
          [
            "/wiki/Alexandr_Vasiliev_(ice_hockey,_born_1989)"
          ]
        ]
      ],
      [
        [
          "February",
          []
        ],
        [
          "Dimitrij Kotschnew ( Spartak )",
          [
            "/wiki/Dimitrij_Kotschnew"
          ]
        ],
        [
          "Peter Podhradsk\u00fd ( Torpedo )",
          [
            "/wiki/Peter_Podhradsk\u00fd"
          ]
        ],
        [
          "Danis Zaripov ( Kazan )",
          [
            "/wiki/Danis_Zaripov"
          ]
        ],
        [
          "Stepan Zakharchuk ( Togliatti )",
          [
            "/wiki/Stepan_Zakharchuk"
          ]
        ]
      ],
      [
        [
          "March",
          []
        ],
        [
          "Georgi Gelashvili ( Yaroslavl )",
          [
            "/wiki/Georgy_Gelashvili"
          ]
        ],
        [
          "Ilya Nikulin ( Kazan )",
          [
            "/wiki/Ilya_Nikulin"
          ]
        ],
        [
          "Mattias Weinhandl ( Dynamo M )",
          [
            "/wiki/Mattias_Weinhandl"
          ]
        ],
        [
          "",
          []
        ]
      ]
    ],
    "section_title": "Awards -- Players of the Month",
    "section_text": "Best KHL players of each month . [ 16 ]",
    "uid": "2008\u201309_KHL_season_11",
    "intro": "The 2008-09 KHL season was the inaugural season of the Kontinental Hockey League. It started on September 2, 2008, and finished on April 12, 2009. 24 teams each played 56 games."
  }
}