{
  "2016\u201317_S\u00fcper_Lig_2": {
    "url": "https://en.wikipedia.org/wiki/2016\u201317_S\u00fcper_Lig",
    "title": "2016\u201317 S\u00fcper Lig",
    "header": [
      [
        "Team",
        []
      ],
      [
        "Outgoing manager",
        []
      ],
      [
        "Manner of departure",
        []
      ],
      [
        "Date of vacancy",
        []
      ],
      [
        "Position in table",
        []
      ],
      [
        "Replaced by",
        []
      ],
      [
        "Date of appointment",
        []
      ]
    ],
    "data": [
      [
        [
          "Trabzonspor",
          [
            "/wiki/Trabzonspor"
          ]
        ],
        [
          "Hami Mand\u0131ral\u0131",
          [
            "/wiki/Hami_Mand\u0131ral\u0131"
          ]
        ],
        [
          "Sacked",
          []
        ],
        [
          "13 May 2016",
          []
        ],
        [
          "Last season",
          []
        ],
        [
          "Ersun Yanal",
          [
            "/wiki/Ersun_Yanal"
          ]
        ],
        [
          "17 May 2016",
          []
        ]
      ],
      [
        [
          "Gaziantepspor",
          [
            "/wiki/Gaziantepspor"
          ]
        ],
        [
          "Sergen Yal\u00e7\u0131n",
          [
            "/wiki/Sergen_Yal\u00e7\u0131n"
          ]
        ],
        [
          "Contract expired",
          []
        ],
        [
          "30 May 2016",
          []
        ],
        [
          "Pre-season",
          []
        ],
        [
          "\u0130smail Kartal",
          [
            "/wiki/\u0130smail_Kartal"
          ]
        ],
        [
          "21 July 2016",
          []
        ]
      ],
      [
        [
          "Kardemir Karab\u00fckspor",
          [
            "/wiki/Kardemir_Karab\u00fckspor"
          ]
        ],
        [
          "Y\u00fccel \u0130ldiz",
          [
            "/wiki/Y\u00fccel_\u0130ldiz"
          ]
        ],
        [
          "Contract expired",
          []
        ],
        [
          "3 June 2016",
          []
        ],
        [
          "Pre-season",
          []
        ],
        [
          "Igor Tudor",
          [
            "/wiki/Igor_Tudor"
          ]
        ],
        [
          "18 June 2016",
          []
        ]
      ],
      [
        [
          "Fenerbah\u00e7e",
          [
            "/wiki/Fenerbah\u00e7e_S.K._(football)"
          ]
        ],
        [
          "V\u00edtor Pereira",
          [
            "/wiki/V\u00edtor_Pereira_(footballer,_born_1968)"
          ]
        ],
        [
          "Sacked",
          []
        ],
        [
          "11 August 2016",
          []
        ],
        [
          "Pre-season",
          []
        ],
        [
          "Dick Advocaat",
          [
            "/wiki/Dick_Advocaat"
          ]
        ],
        [
          "17 August 2016",
          []
        ]
      ],
      [
        [
          "Adanaspor",
          [
            "/wiki/Adanaspor"
          ]
        ],
        [
          "Engin \u0130peko\u011flu",
          [
            "/wiki/Engin_\u0130peko\u011flu"
          ]
        ],
        [
          "Mutual agreement",
          []
        ],
        [
          "18 August 2016",
          []
        ],
        [
          "Pre-season",
          []
        ],
        [
          "Krunoslav Jur\u010di\u0107",
          [
            "/wiki/Krunoslav_Jur\u010di\u0107"
          ]
        ],
        [
          "28 August 2016",
          []
        ]
      ],
      [
        [
          "Akhisar Belediyespor",
          [
            "/wiki/Akhisar_Belediyespor"
          ]
        ],
        [
          "Cihat Arslan",
          [
            "/wiki/Cihat_Arslan"
          ]
        ],
        [
          "Mutual agreement",
          []
        ],
        [
          "1 September 2016",
          []
        ],
        [
          "7th",
          []
        ],
        [
          "Tolunay Kafkas",
          [
            "/wiki/Tolunay_Kafkas"
          ]
        ],
        [
          "4 September 2016",
          []
        ]
      ],
      [
        [
          "Kas\u0131mpa\u015fa",
          [
            "/wiki/Kas\u0131mpa\u015fa_S.K."
          ]
        ],
        [
          "R\u0131za \u00c7al\u0131mbay",
          [
            "/wiki/R\u0131za_\u00c7al\u0131mbay"
          ]
        ],
        [
          "Sacked",
          []
        ],
        [
          "13 September 2016",
          []
        ],
        [
          "18th",
          []
        ],
        [
          "Kemal \u00d6zde\u015f",
          [
            "/wiki/Kemal_\u00d6zde\u015f"
          ]
        ],
        [
          "16 September 2016",
          []
        ]
      ],
      [
        [
          "Antalyaspor",
          [
            "/wiki/Antalyaspor"
          ]
        ],
        [
          "Jos\u00e9 Morais",
          [
            "/wiki/Jos\u00e9_Morais"
          ]
        ],
        [
          "Mutual agreement",
          []
        ],
        [
          "6 October 2016",
          []
        ],
        [
          "18th",
          []
        ],
        [
          "R\u0131za \u00c7al\u0131mbay",
          [
            "/wiki/R\u0131za_\u00c7al\u0131mbay"
          ]
        ],
        [
          "7 October 2016",
          []
        ]
      ],
      [
        [
          "Gen\u00e7lerbirli\u011fi",
          [
            "/wiki/Gen\u00e7lerbirli\u011fi_S.K."
          ]
        ],
        [
          "\u0130brahim \u00dcz\u00fclmez",
          [
            "/wiki/\u0130brahim_\u00dcz\u00fclmez"
          ]
        ],
        [
          "Mutual agreement",
          []
        ],
        [
          "7 November 2016",
          []
        ],
        [
          "9th",
          []
        ],
        [
          "\u00dcmit \u00d6zat",
          [
            "/wiki/\u00dcmit_\u00d6zat"
          ]
        ],
        [
          "7 November 2016",
          []
        ]
      ],
      [
        [
          "Adanaspor",
          [
            "/wiki/Adanaspor"
          ]
        ],
        [
          "Krunoslav Jur\u010di\u0107",
          [
            "/wiki/Krunoslav_Jur\u010di\u0107"
          ]
        ],
        [
          "Sacked",
          []
        ],
        [
          "5 December 2016",
          []
        ],
        [
          "18th",
          []
        ],
        [
          "Levent \u015eahin",
          [
            "/wiki/Levent_\u015eahin"
          ]
        ],
        [
          "23 December 2016",
          []
        ]
      ],
      [
        [
          "Gaziantepspor",
          [
            "/wiki/Gaziantepspor"
          ]
        ],
        [
          "\u0130smail Kartal",
          [
            "/wiki/\u0130smail_Kartal"
          ]
        ],
        [
          "Sacked",
          []
        ],
        [
          "5 December 2016",
          []
        ],
        [
          "15th",
          []
        ],
        [
          "\u0130brahim \u00dcz\u00fclmez",
          [
            "/wiki/\u0130brahim_\u00dcz\u00fclmez"
          ]
        ],
        [
          "12 December 2016",
          []
        ]
      ],
      [
        [
          "Kayserispor",
          [
            "/wiki/Kayserispor"
          ]
        ],
        [
          "Hakan Kutlu",
          [
            "/wiki/Hakan_Kutlu"
          ]
        ],
        [
          "Resigned",
          []
        ],
        [
          "6 December 2016",
          []
        ],
        [
          "17th",
          []
        ],
        [
          "Sergen Yal\u00e7\u0131n",
          [
            "/wiki/Sergen_Yal\u00e7\u0131n"
          ]
        ],
        [
          "4 January 2017",
          []
        ]
      ],
      [
        [
          "Alanyaspor",
          [
            "/wiki/Alanyaspor"
          ]
        ],
        [
          "H\u00fcseyin Kalpar",
          [
            "/wiki/H\u00fcseyin_Kalpar"
          ]
        ],
        [
          "Resigned",
          []
        ],
        [
          "16 January 2017",
          []
        ],
        [
          "14th",
          []
        ],
        [
          "Safet Su\u0161i\u0107",
          [
            "/wiki/Safet_Su\u0161i\u0107"
          ]
        ],
        [
          "27 January 2017",
          []
        ]
      ],
      [
        [
          "Bursaspor",
          [
            "/wiki/Bursaspor"
          ]
        ],
        [
          "Hamza Hamzao\u011flu",
          [
            "/wiki/Hamza_Hamzao\u011flu"
          ]
        ],
        [
          "Sacked",
          []
        ],
        [
          "21 January 2017",
          []
        ],
        [
          "6th",
          []
        ],
        [
          "Mutlu Top\u00e7u",
          [
            "/wiki/Mutlu_Top\u00e7u"
          ]
        ],
        [
          "30 January 2017",
          []
        ]
      ],
      [
        [
          "Gaziantepspor",
          [
            "/wiki/Gaziantepspor"
          ]
        ],
        [
          "\u0130brahim \u00dcz\u00fclmez",
          [
            "/wiki/\u0130brahim_\u00dcz\u00fclmez"
          ]
        ],
        [
          "Mutual agreement",
          []
        ],
        [
          "24 January 2017",
          []
        ],
        [
          "18th",
          []
        ],
        [
          "B\u00fclent Uygun",
          [
            "/wiki/B\u00fclent_Uygun"
          ]
        ],
        [
          "24 January 2017",
          []
        ]
      ],
      [
        [
          "Galatasaray",
          [
            "/wiki/Galatasaray_S.K."
          ]
        ],
        [
          "Jan Olde Riekerink",
          [
            "/wiki/Jan_Olde_Riekerink"
          ]
        ],
        [
          "Sacked",
          []
        ],
        [
          "15 February 2017",
          []
        ],
        [
          "3rd",
          []
        ],
        [
          "Igor Tudor",
          [
            "/wiki/Igor_Tudor"
          ]
        ],
        [
          "15 February 2017",
          []
        ]
      ],
      [
        [
          "Kardemir Karab\u00fckspor",
          [
            "/wiki/Kardemir_Karab\u00fckspor"
          ]
        ],
        [
          "Igor Tudor",
          [
            "/wiki/Igor_Tudor"
          ]
        ],
        [
          "Signed by Galatasaray",
          [
            "/wiki/Galatasaray_S.K."
          ]
        ],
        [
          "15 February 2017",
          []
        ],
        [
          "10th",
          []
        ],
        [
          "Zoran Barisic",
          [
            "/wiki/Zoran_Barisic"
          ]
        ],
        [
          "17 February 2017",
          []
        ]
      ],
      [
        [
          "Osmanl\u0131spor",
          [
            "/wiki/Osmanl\u0131spor"
          ]
        ],
        [
          "Mustafa Re\u015fit Ak\u00e7ay",
          [
            "/wiki/Mustafa_Re\u015fit_Ak\u00e7ay"
          ]
        ],
        [
          "Resigned",
          []
        ],
        [
          "18 March 2017",
          []
        ],
        [
          "12th",
          []
        ],
        [
          "Hamza Hamzao\u011flu",
          [
            "/wiki/Hamza_Hamzao\u011flu"
          ]
        ],
        [
          "22 March 2017",
          []
        ]
      ],
      [
        [
          "Akhisar Belediyespor",
          [
            "/wiki/Akhisar_Belediyespor"
          ]
        ],
        [
          "Tolunay Kafkas",
          [
            "/wiki/Tolunay_Kafkas"
          ]
        ],
        [
          "Resigned",
          []
        ],
        [
          "18 March 2017",
          []
        ],
        [
          "15th",
          []
        ],
        [
          "Okan Buruk",
          [
            "/wiki/Okan_Buruk"
          ]
        ],
        [
          "23 March 2017",
          []
        ]
      ],
      [
        [
          "Adanaspor",
          [
            "/wiki/Adanaspor"
          ]
        ],
        [
          "Levent \u015eahin",
          [
            "/wiki/Levent_\u015eahin"
          ]
        ],
        [
          "Resigned",
          []
        ],
        [
          "9 April 2017",
          []
        ],
        [
          "18th",
          []
        ],
        [
          "Ey\u00fcp Ar\u0131n",
          [
            "/wiki/Ey\u00fcp_Ar\u0131n"
          ]
        ],
        [
          "10 April 2017",
          []
        ]
      ]
    ],
    "section_title": "Teams -- Managerial changes",
    "section_text": "",
    "uid": "2016\u201317_S\u00fcper_Lig_2",
    "intro": "The 2016-17 S\u00fcper Lig (known as the Spor Toto S\u00fcper Lig for sponsorship reasons) is the 59th season of the S\u00fcper Lig, the highest tier football league of Turkey."
  },
  "1998\u201399_NBL_season_21": {
    "url": "https://en.wikipedia.org/wiki/1998\u201399_NBL_season",
    "title": "1998\u201399 NBL season",
    "header": [
      [
        "Date",
        []
      ],
      [
        "Home team",
        []
      ],
      [
        "Score",
        []
      ],
      [
        "Away team",
        []
      ],
      [
        "Venue",
        []
      ],
      [
        "Box Score",
        []
      ],
      [
        "Report",
        []
      ]
    ],
    "data": [
      [
        [
          "4 March",
          []
        ],
        [
          "Townsville Crocodiles",
          [
            "/wiki/Townsville_Crocodiles"
          ]
        ],
        [
          "118-113",
          []
        ],
        [
          "West Sydney Razorbacks",
          [
            "/wiki/West_Sydney_Razorbacks"
          ]
        ],
        [
          "Townsville Entertainment Centre",
          [
            "/wiki/Townsville_Entertainment_and_Convention_Centre"
          ]
        ],
        [
          "box score",
          []
        ],
        [
          "report",
          []
        ]
      ],
      [
        [
          "5 March",
          []
        ],
        [
          "Canberra Cannons",
          [
            "/wiki/Canberra_Cannons"
          ]
        ],
        [
          "115-119",
          []
        ],
        [
          "Adelaide 36ers",
          [
            "/wiki/Adelaide_36ers"
          ]
        ],
        [
          "AIS Arena",
          [
            "/wiki/AIS_Arena"
          ]
        ],
        [
          "box score",
          []
        ],
        [
          "report",
          []
        ]
      ],
      [
        [
          "5 March",
          []
        ],
        [
          "Perth Wildcats",
          [
            "/wiki/Perth_Wildcats"
          ]
        ],
        [
          "105-84",
          []
        ],
        [
          "Brisbane Bullets",
          [
            "/wiki/Brisbane_Bullets"
          ]
        ],
        [
          "Perth Entertainment Centre",
          [
            "/wiki/Perth_Entertainment_Centre"
          ]
        ],
        [
          "box score",
          []
        ],
        [
          "report",
          []
        ]
      ],
      [
        [
          "5 March",
          []
        ],
        [
          "Victoria Titans",
          [
            "/wiki/Victoria_Giants"
          ]
        ],
        [
          "101-75",
          []
        ],
        [
          "Newcastle Falcons",
          [
            "/wiki/Newcastle_Falcons_(basketball)"
          ]
        ],
        [
          "Rod Laver Arena",
          [
            "/wiki/Rod_Laver_Arena"
          ]
        ],
        [
          "box score",
          []
        ],
        [
          "report",
          []
        ]
      ],
      [
        [
          "6 March",
          []
        ],
        [
          "West Sydney Razorbacks",
          [
            "/wiki/West_Sydney_Razorbacks"
          ]
        ],
        [
          "92-77",
          []
        ],
        [
          "Wollongong Hawks",
          [
            "/wiki/Illawarra_Hawks"
          ]
        ],
        [
          "Whitlam Centre",
          [
            "/wiki/Whitlam_Leisure_Centre"
          ]
        ],
        [
          "box score",
          []
        ],
        [
          "report",
          []
        ]
      ],
      [
        [
          "6 March",
          []
        ],
        [
          "Melbourne Tigers",
          [
            "/wiki/Melbourne_United"
          ]
        ],
        [
          "86-92",
          []
        ],
        [
          "Canberra Cannons",
          [
            "/wiki/Canberra_Cannons"
          ]
        ],
        [
          "Rod Laver Arena",
          [
            "/wiki/Rod_Laver_Arena"
          ]
        ],
        [
          "box score",
          []
        ],
        [
          "report",
          []
        ]
      ],
      [
        [
          "6 March",
          []
        ],
        [
          "Sydney Kings",
          [
            "/wiki/Sydney_Kings"
          ]
        ],
        [
          "119-101",
          []
        ],
        [
          "Townsville Crocodiles",
          [
            "/wiki/Townsville_Crocodiles"
          ]
        ],
        [
          "Sydney Entertainment Centre",
          [
            "/wiki/Sydney_Entertainment_Centre"
          ]
        ],
        [
          "box score",
          []
        ],
        [
          "report",
          []
        ]
      ]
    ],
    "section_title": "Regular season -- Round 22",
    "section_text": "",
    "uid": "1998\u201399_NBL_season_21",
    "intro": "The 1998-99 NBL season was the 21st season of competition since its establishment in 1979. A total of 11 teams contested the league. This season marked the first summer season for the NBL. The Townsville Suns were renamed the Townsville Crocodiles"
  },
  "2006\u201307_S\u00fcper_Lig_4": {
    "url": "https://en.wikipedia.org/wiki/2006\u201307_S\u00fcper_Lig",
    "title": "2006\u201307 S\u00fcper Lig",
    "header": [
      [
        "Name",
        []
      ],
      [
        "Team",
        []
      ],
      [
        "Assists",
        []
      ]
    ],
    "data": [
      [
        [
          "G\u00f6kdeniz Karadeniz",
          [
            "/wiki/G\u00f6kdeniz_Karadeniz"
          ]
        ],
        [
          "Trabzonspor",
          [
            "/wiki/Trabzonspor"
          ]
        ],
        [
          "16",
          []
        ]
      ],
      [
        [
          "Ceyhun Eris",
          [
            "/wiki/Ceyhun_Eri\u015f"
          ]
        ],
        [
          "Ankarag\u00fcc\u00fc",
          [
            "/wiki/MKE_Ankarag\u00fcc\u00fc"
          ]
        ],
        [
          "14",
          []
        ]
      ],
      [
        [
          "Alex",
          [
            "/wiki/Alex_(footballer,_born_1977)"
          ]
        ],
        [
          "Fenerbah\u00e7e",
          [
            "/wiki/Fenerbah\u00e7e_S.K._(football)"
          ]
        ],
        [
          "12",
          []
        ]
      ],
      [
        [
          "Arda Turan",
          [
            "/wiki/Arda_Turan"
          ]
        ],
        [
          "Galatasaray",
          [
            "/wiki/Galatasaray_S.K._(football)"
          ]
        ],
        [
          "9",
          []
        ]
      ],
      [
        [
          "Mehmet Topuz",
          [
            "/wiki/Mehmet_Topuz"
          ]
        ],
        [
          "Kayserispor",
          [
            "/wiki/Kayserispor"
          ]
        ],
        [
          "9",
          []
        ]
      ],
      [
        [
          "Ibrahima Yattara",
          [
            "/wiki/Ibrahim_Yattara"
          ]
        ],
        [
          "Trabzonspor",
          [
            "/wiki/Trabzonspor"
          ]
        ],
        [
          "8",
          []
        ]
      ],
      [
        [
          "Kau\u00ea",
          [
            "/wiki/Kau\u00ea_(footballer,_born_1983)"
          ]
        ],
        [
          "Konyaspor",
          [
            "/wiki/Konyaspor"
          ]
        ],
        [
          "8",
          []
        ]
      ],
      [
        [
          "Mehmet \u00c7ak\u0131r",
          [
            "/wiki/Mehmet_\u00c7ak\u0131r"
          ]
        ],
        [
          "Gen\u00e7lerbirli\u011fi",
          [
            "/wiki/Gen\u00e7lerbirli\u011fi_S.K."
          ]
        ],
        [
          "8",
          []
        ]
      ],
      [
        [
          "Sinan Kalo\u011flu",
          [
            "/wiki/Sinan_Kalo\u011flu"
          ]
        ],
        [
          "Bursaspor",
          [
            "/wiki/Bursaspor"
          ]
        ],
        [
          "8",
          []
        ]
      ],
      [
        [
          "G\u00f6khan \u00dcnal",
          [
            "/wiki/G\u00f6khan_\u00dcnal"
          ]
        ],
        [
          "Kayserispor",
          [
            "/wiki/Kayserispor"
          ]
        ],
        [
          "7",
          []
        ]
      ],
      [
        [
          "Hasan \u015ea\u015f",
          [
            "/wiki/Hasan_\u015ea\u015f"
          ]
        ],
        [
          "Galatasaray",
          [
            "/wiki/Galatasaray_S.K._(football)"
          ]
        ],
        [
          "7",
          []
        ]
      ],
      [
        [
          "Ricardinho",
          [
            "/wiki/Ricardinho"
          ]
        ],
        [
          "Be\u015fikta\u015f",
          [
            "/wiki/Be\u015fikta\u015f_J.K."
          ]
        ],
        [
          "7",
          []
        ]
      ],
      [
        [
          "Tuncay",
          [
            "/wiki/Tuncay_\u015eanl\u0131"
          ]
        ],
        [
          "Fenerbah\u00e7e",
          [
            "/wiki/Fenerbah\u00e7e_S.K._(football)"
          ]
        ],
        [
          "7",
          []
        ]
      ]
    ],
    "section_title": "Statistics -- Assist table",
    "section_text": "Last updated on December 21 , 2008",
    "uid": "2006\u201307_S\u00fcper_Lig_4",
    "intro": "The 2006-07 S\u00fcper Lig was the 49th edition of the top-flight professional football league in Turkey. The season began on 4 August 2006 with a match between Ankaraspor and Galatasaray, resulting in a 1-1 draw. Fenerbah\u00e7e became champions after drawing Trabzonspor 2-2, while Be\u015fikta\u015f lost 3-0 to Bursaspor and Galatasaray drew 1-1 with Sivasspor. Kayseri Erciyesspor gained qualification to the UEFA Cup because of Be\u015fikta\u015f' qualification to the UEFA Champions League Second Qualifying Round. Since Turkey dropped from 11th to 15th place in the UEFA association coefficient rankings at the end of the 2005-06 season, the cup winner (or the third-placed team if the domestic cup winner already qualified for UEFA Champions League) will not directly be entered into the first round of the UEFA Cup, but would begin in the second qualification round."
  },
  "2007\u201308_S\u00fcper_Lig_2": {
    "url": "https://en.wikipedia.org/wiki/2007\u201308_S\u00fcper_Lig",
    "title": "2007\u201308 S\u00fcper Lig",
    "header": [
      [
        "Team",
        []
      ],
      [
        "Stadium",
        []
      ],
      [
        "Capacity",
        []
      ]
    ],
    "data": [
      [
        [
          "B\u00fcy\u00fck\u015fehir Belediyespor",
          []
        ],
        [
          "Atat\u00fcrk Olympic Stadium",
          [
            "/wiki/Atat\u00fcrk_Olympic_Stadium"
          ]
        ],
        [
          "82,000",
          []
        ]
      ],
      [
        [
          "Fenerbah\u00e7e",
          []
        ],
        [
          "FB \u015e\u00fckr\u00fc Saraco\u011flu Stadium",
          [
            "/wiki/\u015e\u00fckr\u00fc_Saraco\u011flu_Stadium"
          ]
        ],
        [
          "55,509",
          []
        ]
      ],
      [
        [
          "Be\u015fikta\u015f",
          []
        ],
        [
          "BJK \u0130n\u00f6n\u00fc Stadium",
          [
            "/wiki/BJK_\u0130n\u00f6n\u00fc_Stadium"
          ]
        ],
        [
          "32,086",
          []
        ]
      ],
      [
        [
          "Kayserispor",
          []
        ],
        [
          "Kayseri Atat\u00fcrk Stadium",
          [
            "/wiki/Kayseri_Atat\u00fcrk_Stadium"
          ]
        ],
        [
          "25,918",
          []
        ]
      ],
      [
        [
          "Galatasaray",
          []
        ],
        [
          "Ali Sami Yen Stadium",
          [
            "/wiki/Ali_Sami_Yen_Stadium"
          ]
        ],
        [
          "23,785",
          []
        ]
      ],
      [
        [
          "Konyaspor",
          []
        ],
        [
          "Konya Atat\u00fcrk Stadium",
          [
            "/wiki/Konya_Atat\u00fcrk_Stadium"
          ]
        ],
        [
          "22,459",
          []
        ]
      ],
      [
        [
          "Trabzonspor",
          []
        ],
        [
          "H\u00fcseyin Avni Aker Stadium",
          [
            "/wiki/H\u00fcseyin_Avni_Aker_Stadium"
          ]
        ],
        [
          "19,649",
          []
        ]
      ],
      [
        [
          "MKE Ankarag\u00fcc\u00fc",
          []
        ],
        [
          "Ankara 19 May\u0131s Stadium",
          [
            "/wiki/Ankara_19_May\u0131s_Stadium"
          ]
        ],
        [
          "19,209",
          []
        ]
      ],
      [
        [
          "Gen\u00e7lerbirli\u011fi",
          []
        ],
        [
          "Ankara 19 May\u0131s Stadium",
          [
            "/wiki/Ankara_19_May\u0131s_Stadium"
          ]
        ],
        [
          "19,209",
          []
        ]
      ],
      [
        [
          "Gen\u00e7lerbirli\u011fi Ofta\u015fspor",
          []
        ],
        [
          "Ankara 19 May\u0131s Stadium",
          [
            "/wiki/Ankara_19_May\u0131s_Stadium"
          ]
        ],
        [
          "19,209",
          []
        ]
      ],
      [
        [
          "Bursaspor",
          []
        ],
        [
          "Bursa Atat\u00fcrk Stadium",
          [
            "/wiki/Bursa_Atat\u00fcrk_Stadium"
          ]
        ],
        [
          "18,587",
          []
        ]
      ],
      [
        [
          "Denizlispor",
          []
        ],
        [
          "Denizli Atat\u00fcrk Stadium",
          [
            "/wiki/Denizli_Atat\u00fcrk_Stadium"
          ]
        ],
        [
          "15,459",
          []
        ]
      ],
      [
        [
          "Kas\u0131mpa\u015fa",
          []
        ],
        [
          "Recep Tayyip Erdo\u011fan Stadium",
          [
            "/wiki/Recep_Tayyip_Erdo\u011fan_Stadium"
          ]
        ],
        [
          "13,500",
          []
        ]
      ],
      [
        [
          "Gaziantepspor",
          []
        ],
        [
          "Gaziantep Kamil Ocak Stadium",
          [
            "/wiki/Gaziantep_Kamil_Ocak_Stadium"
          ]
        ],
        [
          "14,325",
          []
        ]
      ],
      [
        [
          "Sivasspor",
          []
        ],
        [
          "Sivas 4 Eyl\u00fcl Stadium",
          [
            "/wiki/Sivas_4_Eyl\u00fcl_Stadium"
          ]
        ],
        [
          "11,500",
          []
        ]
      ],
      [
        [
          "\u00c7aykur Rizespor",
          []
        ],
        [
          "Rize Atat\u00fcrk Stadium",
          [
            "/wiki/Rize_Atat\u00fcrk_Stadium"
          ]
        ],
        [
          "10,459",
          []
        ]
      ],
      [
        [
          "Vestel Manisaspor",
          []
        ],
        [
          "Manisa 19 May\u0131s Stadium",
          [
            "/wiki/Manisa_19_May\u0131s_Stadium"
          ]
        ],
        [
          "10,025",
          []
        ]
      ],
      [
        [
          "Ankaraspor",
          []
        ],
        [
          "Yenikent Asa\u015f Stadium",
          [
            "/wiki/Osmanl\u0131_Stadium"
          ]
        ],
        [
          "25,000",
          []
        ]
      ]
    ],
    "section_title": "Stadiums",
    "section_text": "",
    "uid": "2007\u201308_S\u00fcper_Lig_2",
    "intro": "The 2007-08 S\u00fcper Lig season, (also known as the Turkcell S\u00fcper Lig for sponsorship reasons), was the 50th anniversary of top-flight professional football in Turkey. It was won by Galatasaray, who won their 17th championship. Since Turkey had climbed from 15th to 14th position in the UEFA association coefficient rankings at the end of the 2006-07 season, and UEFA Champions League-bound Zenit Saint Petersburg won the 2007-08 UEFA Cup, the domestic cup winner, Kayserispor, which had qualified for the second qualifying round of the 2008-09 UEFA Cup, was promoted to the first round, filling the unused title holder spot. The league began on 10 August 2007 with the \u0130stanbul B.B.-Fenerbah\u00e7e match at Atat\u00fcrk Olympic Stadium. The three relegated clubs would be replaced by three promoted clubs from the Bank Asya 1. Lig. Gen\u00e7lerbirli\u011fi OFTA\u015e and \u0130stanbul B.B. both earned automatic promotion, while Altay, Diyarbak\u0131rspor, Kas\u0131mpa\u015fa and Malatyaspor played in the play-off tournament with Kas\u0131mpa\u015fa coming out victorious, becoming the third and last club to be promoted to the S\u00fcper Lig for 2007-08."
  },
  "Lee\u2013Lin_rivalry_2": {
    "url": "https://en.wikipedia.org/wiki/Lee\u2013Lin_rivalry",
    "title": "Lee\u2013Lin rivalry",
    "header": [
      [
        "Tournament",
        []
      ],
      [
        "Lee",
        []
      ],
      [
        "Lin",
        []
      ]
    ],
    "data": [
      [
        [
          "Super Series Finals",
          [
            "/wiki/BWF_Super_Series_Finals"
          ]
        ],
        [
          "4",
          []
        ],
        [
          "1",
          []
        ]
      ],
      [
        [
          "All England Open",
          [
            "/wiki/All_England_Open_Badminton_Championships"
          ]
        ],
        [
          "4",
          []
        ],
        [
          "6",
          []
        ]
      ],
      [
        [
          "Australian Open",
          [
            "/wiki/Australian_Open_(badminton)"
          ]
        ],
        [
          "0",
          []
        ],
        [
          "1",
          []
        ]
      ],
      [
        [
          "Brasil Open",
          [
            "/wiki/Brasil_Open_(badminton)"
          ]
        ],
        [
          "0",
          []
        ],
        [
          "1",
          []
        ]
      ],
      [
        [
          "China Masters",
          [
            "/wiki/Fuzhou_China_Open"
          ]
        ],
        [
          "0",
          []
        ],
        [
          "6",
          []
        ]
      ],
      [
        [
          "Canadian Open",
          [
            "/wiki/Canadian_Open_(badminton)"
          ]
        ],
        [
          "1",
          []
        ],
        [
          "0",
          []
        ]
      ],
      [
        [
          "China Open",
          [
            "/wiki/China_Open_(badminton)"
          ]
        ],
        [
          "1",
          []
        ],
        [
          "5",
          []
        ]
      ],
      [
        [
          "Chinese Taipei Open",
          [
            "/wiki/Taipei_Open_(badminton)"
          ]
        ],
        [
          "1",
          []
        ],
        [
          "2",
          []
        ]
      ],
      [
        [
          "Denmark Open",
          [
            "/wiki/Denmark_Open"
          ]
        ],
        [
          "2",
          []
        ],
        [
          "3",
          []
        ]
      ],
      [
        [
          "French Open",
          [
            "/wiki/French_Open_(badminton)"
          ]
        ],
        [
          "3",
          []
        ],
        [
          "1",
          []
        ]
      ],
      [
        [
          "German Open",
          [
            "/wiki/German_Open_(badminton)"
          ]
        ],
        [
          "0",
          []
        ],
        [
          "6",
          []
        ]
      ],
      [
        [
          "Hong Kong Open",
          [
            "/wiki/Hong_Kong_Open_(badminton)"
          ]
        ],
        [
          "5",
          []
        ],
        [
          "5",
          []
        ]
      ],
      [
        [
          "India Open",
          [
            "/wiki/India_Open"
          ]
        ],
        [
          "3",
          []
        ],
        [
          "0",
          []
        ]
      ],
      [
        [
          "India Satellite",
          []
        ],
        [
          "1",
          []
        ],
        [
          "0",
          []
        ]
      ],
      [
        [
          "Indonesia Open",
          [
            "/wiki/Indonesia_Open_(badminton)"
          ]
        ],
        [
          "6",
          []
        ],
        [
          "0",
          []
        ]
      ],
      [
        [
          "Japan Open",
          [
            "/wiki/Japan_Open_(badminton)"
          ]
        ],
        [
          "6",
          []
        ],
        [
          "3",
          []
        ]
      ],
      [
        [
          "Korea Open",
          [
            "/wiki/Korea_Open_(badminton)"
          ]
        ],
        [
          "3",
          []
        ],
        [
          "3",
          []
        ]
      ],
      [
        [
          "Macau Open",
          [
            "/wiki/Macau_Open_Badminton_Championships"
          ]
        ],
        [
          "2",
          []
        ],
        [
          "1",
          []
        ]
      ],
      [
        [
          "Malaysia Masters",
          [
            "/wiki/Malaysia_Masters"
          ]
        ],
        [
          "5",
          []
        ],
        [
          "0",
          []
        ]
      ],
      [
        [
          "Malaysia Open",
          [
            "/wiki/Malaysia_Open_(badminton)"
          ]
        ],
        [
          "12",
          []
        ],
        [
          "2",
          []
        ]
      ]
    ],
    "section_title": "Analysis -- Comparison by titles",
    "section_text": "",
    "uid": "Lee\u2013Lin_rivalry_2",
    "intro": "The Lee-Lin rivalry was a rivalry between two professional badminton players, Lee Chong Wei and Lin Dan. The rivalry is widely considered the greatest rivalry the world has ever witnessed in the history of badminton. Of their 40 meetings, Lin won the head to head by 28-12."
  },
  "1998\u201399_NBL_season_12": {
    "url": "https://en.wikipedia.org/wiki/1998\u201399_NBL_season",
    "title": "1998\u201399 NBL season",
    "header": [
      [
        "Date",
        []
      ],
      [
        "Home team",
        []
      ],
      [
        "Score",
        []
      ],
      [
        "Away team",
        []
      ],
      [
        "Venue",
        []
      ],
      [
        "Box Score",
        []
      ],
      [
        "Report",
        []
      ]
    ],
    "data": [
      [
        [
          "31 December",
          []
        ],
        [
          "Wollongong Hawks",
          [
            "/wiki/Illawarra_Hawks"
          ]
        ],
        [
          "110-94",
          []
        ],
        [
          "Melbourne Tigers",
          [
            "/wiki/Melbourne_United"
          ]
        ],
        [
          "WIN Entertainment Centre",
          [
            "/wiki/WIN_Entertainment_Centre"
          ]
        ],
        [
          "box score",
          []
        ],
        [
          "report",
          []
        ]
      ],
      [
        [
          "31 December",
          []
        ],
        [
          "Townsville Crocodiles",
          [
            "/wiki/Townsville_Crocodiles"
          ]
        ],
        [
          "74-65",
          []
        ],
        [
          "Victoria Titans",
          [
            "/wiki/Victoria_Giants"
          ]
        ],
        [
          "Townsville Entertainment Centre",
          [
            "/wiki/Townsville_Entertainment_and_Convention_Centre"
          ]
        ],
        [
          "box score",
          []
        ],
        [
          "report",
          []
        ]
      ],
      [
        [
          "31 December",
          []
        ],
        [
          "Adelaide 36ers",
          [
            "/wiki/Adelaide_36ers"
          ]
        ],
        [
          "104-91",
          []
        ],
        [
          "Brisbane Bullets",
          [
            "/wiki/Brisbane_Bullets"
          ]
        ],
        [
          "Clipsal Powerhouse",
          [
            "/wiki/Adelaide_Arena"
          ]
        ],
        [
          "box score",
          []
        ],
        [
          "report",
          []
        ]
      ],
      [
        [
          "1 January",
          []
        ],
        [
          "West Sydney Razorbacks",
          [
            "/wiki/West_Sydney_Razorbacks"
          ]
        ],
        [
          "92-87",
          []
        ],
        [
          "Melbourne Tigers",
          [
            "/wiki/Melbourne_United"
          ]
        ],
        [
          "Whitlam Centre",
          [
            "/wiki/Whitlam_Leisure_Centre"
          ]
        ],
        [
          "box score",
          []
        ],
        [
          "report",
          []
        ]
      ],
      [
        [
          "2 January",
          []
        ],
        [
          "Canberra Cannons",
          [
            "/wiki/Canberra_Cannons"
          ]
        ],
        [
          "113-90",
          []
        ],
        [
          "Sydney Kings",
          [
            "/wiki/Sydney_Kings"
          ]
        ],
        [
          "AIS Arena",
          [
            "/wiki/AIS_Arena"
          ]
        ],
        [
          "box score",
          []
        ],
        [
          "report",
          []
        ]
      ],
      [
        [
          "2 January",
          []
        ],
        [
          "Brisbane Bullets",
          [
            "/wiki/Brisbane_Bullets"
          ]
        ],
        [
          "82-99",
          []
        ],
        [
          "Victoria Titans",
          [
            "/wiki/Victoria_Giants"
          ]
        ],
        [
          "Brisbane Convention & Exhibition Centre",
          [
            "/wiki/Brisbane_Convention_&_Exhibition_Centre"
          ]
        ],
        [
          "box score",
          []
        ],
        [
          "report",
          []
        ]
      ],
      [
        [
          "2 January",
          []
        ],
        [
          "Newcastle Falcons",
          [
            "/wiki/Newcastle_Falcons_(basketball)"
          ]
        ],
        [
          "77-105",
          []
        ],
        [
          "Perth Wildcats",
          [
            "/wiki/Perth_Wildcats"
          ]
        ],
        [
          "Newcastle Entertainment Centre",
          [
            "/wiki/Newcastle_Entertainment_Centre"
          ]
        ],
        [
          "box score",
          []
        ],
        [
          "report",
          []
        ]
      ]
    ],
    "section_title": "Regular season -- Round 13",
    "section_text": "",
    "uid": "1998\u201399_NBL_season_12",
    "intro": "The 1998-99 NBL season was the 21st season of competition since its establishment in 1979. A total of 11 teams contested the league. This season marked the first summer season for the NBL. The Townsville Suns were renamed the Townsville Crocodiles"
  },
  "2015\u201316_S\u00fcper_Lig_4": {
    "url": "https://en.wikipedia.org/wiki/2015\u201316_S\u00fcper_Lig",
    "title": "2015\u201316 S\u00fcper Lig",
    "header": [
      [
        "Date",
        []
      ],
      [
        "Player",
        []
      ],
      [
        "For",
        []
      ],
      [
        "Against",
        []
      ],
      [
        "Result",
        []
      ]
    ],
    "data": [
      [
        [
          "16 August 2015",
          []
        ],
        [
          "Cenk Tosun",
          [
            "/wiki/Cenk_Tosun"
          ]
        ],
        [
          "Be\u015fikta\u015f",
          [
            "/wiki/Be\u015fikta\u015f_J.K."
          ]
        ],
        [
          "Mersin \u0130dmanyurdu",
          [
            "/wiki/Mersin_\u0130dman_Yurdu"
          ]
        ],
        [
          "5-2",
          []
        ]
      ],
      [
        [
          "23 August 2015",
          []
        ],
        [
          "Theofanis Gekas",
          [
            "/wiki/Theofanis_Gekas"
          ]
        ],
        [
          "Eski\u015fehirspor",
          [
            "/wiki/Eski\u015fehirspor"
          ]
        ],
        [
          "Sivasspor",
          [
            "/wiki/Sivasspor"
          ]
        ],
        [
          "4-2",
          []
        ]
      ],
      [
        [
          "18 September 2015",
          []
        ],
        [
          "Papa Alioune Ndiaye",
          [
            "/wiki/Badou_Ndiaye"
          ]
        ],
        [
          "Osmanl\u0131spor",
          [
            "/wiki/Osmanl\u0131spor"
          ]
        ],
        [
          "Mersin \u0130dmanyurdu",
          [
            "/wiki/Mersin_\u0130dman_Yurdu"
          ]
        ],
        [
          "4-0",
          []
        ]
      ],
      [
        [
          "19 September 2015",
          []
        ],
        [
          "Deniz Kadah",
          [
            "/wiki/Deniz_Kadah"
          ]
        ],
        [
          "\u00c7aykur Rizespor",
          [
            "/wiki/\u00c7aykur_Rizespor"
          ]
        ],
        [
          "Antalyaspor",
          [
            "/wiki/Antalyaspor"
          ]
        ],
        [
          "5-1",
          []
        ]
      ],
      [
        [
          "4 October 2015",
          []
        ],
        [
          "Tom\u00e1\u0161 Necid",
          [
            "/wiki/Tom\u00e1\u0161_Necid"
          ]
        ],
        [
          "Bursaspor",
          [
            "/wiki/Bursaspor"
          ]
        ],
        [
          "\u00c7aykur Rizespor",
          [
            "/wiki/\u00c7aykur_Rizespor"
          ]
        ],
        [
          "3-2",
          []
        ]
      ],
      [
        [
          "23 April 2016",
          []
        ],
        [
          "Hugo Rodallega",
          [
            "/wiki/Hugo_Rodallega"
          ]
        ],
        [
          "Akhisar Belediyespor",
          [
            "/wiki/Akhisar_Belediyespor"
          ]
        ],
        [
          "Be\u015fikta\u015f",
          [
            "/wiki/Be\u015fikta\u015f_J.K."
          ]
        ],
        [
          "3-3",
          []
        ]
      ],
      [
        [
          "13 May 2016",
          []
        ],
        [
          "\u00d6mer \u015ei\u015fmano\u011flu",
          [
            "/wiki/\u00d6mer_\u015ei\u015fmano\u011flu"
          ]
        ],
        [
          "Antalyaspor",
          [
            "/wiki/Antalyaspor"
          ]
        ],
        [
          "Trabzonspor",
          [
            "/wiki/Trabzonspor"
          ]
        ],
        [
          "7-0",
          []
        ]
      ],
      [
        [
          "15 May 2016",
          []
        ],
        [
          "\u00d3scar Scarione",
          [
            "/wiki/Ezequiel_\u00d3scar_Scarione"
          ]
        ],
        [
          "Kas\u0131mpa\u015fa",
          [
            "/wiki/Kas\u0131mpa\u015fa_S.K."
          ]
        ],
        [
          "Mersin \u0130dmanyurdu",
          [
            "/wiki/Mersin_\u0130dman_Yurdu"
          ]
        ],
        [
          "7-0",
          []
        ]
      ],
      [
        [
          "19 May 2016",
          []
        ],
        [
          "Sinan G\u00fcm\u00fc\u015f",
          [
            "/wiki/Sinan_G\u00fcm\u00fc\u015f"
          ]
        ],
        [
          "Galatasaray",
          [
            "/wiki/Galatasaray_S.K._(football)"
          ]
        ],
        [
          "Kayserispor",
          [
            "/wiki/Kayserispor"
          ]
        ],
        [
          "6-0",
          []
        ]
      ]
    ],
    "section_title": "Statistics -- Hat-tricks",
    "section_text": "As of 19 May\u0131s 2016",
    "uid": "2015\u201316_S\u00fcper_Lig_4",
    "intro": "The 2015-16 S\u00fcper Lig (known as the Spor Toto S\u00fcper Lig for sponsorship reasons) is the 58th season of the S\u00fcper Lig, the highest tier football league of Turkey."
  },
  "2018\u201319_Eredivisie_6": {
    "url": "https://en.wikipedia.org/wiki/2018\u201319_Eredivisie",
    "title": "2018\u201319 Eredivisie",
    "header": [
      [
        "Rank",
        []
      ],
      [
        "Player",
        []
      ],
      [
        "Club",
        []
      ],
      [
        "Games",
        []
      ],
      [
        "Goals",
        []
      ],
      [
        "Penalties",
        []
      ],
      [
        "Average per game",
        []
      ]
    ],
    "data": [
      [
        [
          "1",
          []
        ],
        [
          "Luuk de Jong",
          [
            "/wiki/Luuk_de_Jong"
          ]
        ],
        [
          "PSV Eindhoven",
          [
            "/wiki/PSV_Eindhoven"
          ]
        ],
        [
          "34",
          []
        ],
        [
          "28",
          []
        ],
        [
          "0 0",
          []
        ],
        [
          "0.82",
          []
        ]
      ],
      [
        [
          "1",
          []
        ],
        [
          "Du\u0161an Tadi\u0107",
          [
            "/wiki/Du\u0161an_Tadi\u0107"
          ]
        ],
        [
          "Ajax",
          [
            "/wiki/AFC_Ajax"
          ]
        ],
        [
          "34",
          []
        ],
        [
          "28",
          []
        ],
        [
          "11",
          []
        ],
        [
          "0.82",
          []
        ]
      ],
      [
        [
          "3",
          []
        ],
        [
          "Adri\u00e1n Dalmau",
          [
            "/wiki/Adri\u00e1n_Dalmau"
          ]
        ],
        [
          "Heracles Almelo",
          [
            "/wiki/Heracles_Almelo"
          ]
        ],
        [
          "31",
          []
        ],
        [
          "19",
          []
        ],
        [
          "0 0",
          []
        ],
        [
          "0.61",
          []
        ]
      ],
      [
        [
          "4",
          []
        ],
        [
          "Hirving Lozano",
          [
            "/wiki/Hirving_Lozano"
          ]
        ],
        [
          "PSV Eindhoven",
          [
            "/wiki/PSV_Eindhoven"
          ]
        ],
        [
          "30",
          []
        ],
        [
          "17",
          []
        ],
        [
          "0 4",
          []
        ],
        [
          "0.57",
          []
        ]
      ],
      [
        [
          "4",
          []
        ],
        [
          "Abdenasser El Khayati",
          [
            "/wiki/Abdenasser_El_Khayati"
          ]
        ],
        [
          "ADO Den Haag",
          [
            "/wiki/ADO_Den_Haag"
          ]
        ],
        [
          "33",
          []
        ],
        [
          "17",
          []
        ],
        [
          "0 6",
          []
        ],
        [
          "0.52",
          []
        ]
      ],
      [
        [
          "6",
          []
        ],
        [
          "Robin van Persie",
          [
            "/wiki/Robin_van_Persie"
          ]
        ],
        [
          "Feyenoord",
          [
            "/wiki/Feyenoord"
          ]
        ],
        [
          "25",
          []
        ],
        [
          "16",
          []
        ],
        [
          "0 0",
          []
        ],
        [
          "0.64",
          []
        ]
      ],
      [
        [
          "6",
          []
        ],
        [
          "Klaas-Jan Huntelaar",
          [
            "/wiki/Klaas-Jan_Huntelaar"
          ]
        ],
        [
          "Ajax",
          [
            "/wiki/AFC_Ajax"
          ]
        ],
        [
          "28",
          []
        ],
        [
          "16",
          []
        ],
        [
          "0 1",
          []
        ],
        [
          "0.57",
          []
        ]
      ],
      [
        [
          "6",
          []
        ],
        [
          "Hakim Ziyech",
          [
            "/wiki/Hakim_Ziyech"
          ]
        ],
        [
          "Ajax",
          [
            "/wiki/AFC_Ajax"
          ]
        ],
        [
          "29",
          []
        ],
        [
          "16",
          []
        ],
        [
          "0 0",
          []
        ],
        [
          "0.55",
          []
        ]
      ],
      [
        [
          "6",
          []
        ],
        [
          "Sam Lammers",
          [
            "/wiki/Sam_Lammers"
          ]
        ],
        [
          "Heerenveen",
          [
            "/wiki/SC_Heerenveen"
          ]
        ],
        [
          "31",
          []
        ],
        [
          "16",
          []
        ],
        [
          "0 5",
          []
        ],
        [
          "0.52",
          []
        ]
      ],
      [
        [
          "6",
          []
        ],
        [
          "Michel Vlap",
          [
            "/wiki/Michel_Vlap"
          ]
        ],
        [
          "Heerenveen",
          [
            "/wiki/SC_Heerenveen"
          ]
        ],
        [
          "34",
          []
        ],
        [
          "16",
          []
        ],
        [
          "0 0",
          []
        ],
        [
          "0.47",
          []
        ]
      ]
    ],
    "section_title": "Season statistics -- Top scorers",
    "section_text": "",
    "uid": "2018\u201319_Eredivisie_6",
    "intro": "The 2018-19 Eredivisie was the 63rd season of the Eredivisie since its establishment in 1955. The season began on 10 August 2018 and concluded on 15 May 2019; the Europa League and relegation play-offs will take place later that month. PSV were the defending champions. Emmen, De Graafschap and Fortuna Sittard joined as the promoted clubs from the 2017-18 Eerste Divisie. They replaced Sparta Rotterdam, Twente and Roda JC who were relegated to the 2018-19 Eerste Divisie."
  },
  "2007\u201308_Euroleague_5": {
    "url": "https://en.wikipedia.org/wiki/2007\u201308_Euroleague",
    "title": "2007\u201308 Euroleague",
    "header": [
      [
        "Category",
        []
      ],
      [
        "Name",
        []
      ],
      [
        "Team",
        []
      ],
      [
        "Games",
        []
      ],
      [
        "Stat",
        []
      ]
    ],
    "data": [
      [
        [
          "Steals per game",
          []
        ],
        [
          "/ Shaun Stonerook",
          [
            "/wiki/Shaun_Stonerook"
          ]
        ],
        [
          "Montepaschi Siena",
          [
            "/wiki/Mens_Sana_1871_Basket"
          ]
        ],
        [
          "24",
          []
        ],
        [
          "2.58",
          []
        ]
      ],
      [
        [
          "Blocks per game",
          []
        ],
        [
          "\u00d6mer A\u015f\u0131k",
          [
            "/wiki/\u00d6mer_A\u015f\u0131k"
          ]
        ],
        [
          "Fenerbah\u00e7e \u00dclker",
          [
            "/wiki/Fenerbah\u00e7e_Basketball"
          ]
        ],
        [
          "15",
          []
        ],
        [
          "2.07",
          []
        ]
      ],
      [
        [
          "Turnovers per game",
          []
        ],
        [
          "Milt Palacio",
          [
            "/wiki/Milt_Palacio"
          ]
        ],
        [
          "Partizan",
          [
            "/wiki/KK_Partizan"
          ]
        ],
        [
          "23",
          []
        ],
        [
          "3.39",
          []
        ]
      ],
      [
        [
          "Fouls drawn per game",
          []
        ],
        [
          "Marc Salyers",
          [
            "/wiki/Marc_Salyers"
          ]
        ],
        [
          "Roanne",
          [
            "/wiki/Chorale_Roanne_Basket"
          ]
        ],
        [
          "14",
          []
        ],
        [
          "6.14",
          []
        ]
      ],
      [
        [
          "Minutes per game",
          []
        ],
        [
          "Marc Salyers",
          [
            "/wiki/Marc_Salyers"
          ]
        ],
        [
          "Roanne",
          [
            "/wiki/Chorale_Roanne_Basket"
          ]
        ],
        [
          "14",
          []
        ],
        [
          "33:54",
          []
        ]
      ],
      [
        [
          "2FG%",
          []
        ],
        [
          "Marijonas Petravi\u010dius",
          [
            "/wiki/Marijonas_Petravi\u010dius"
          ]
        ],
        [
          "Lietuvos Rytas",
          [
            "/wiki/BC_Rytas"
          ]
        ],
        [
          "17",
          []
        ],
        [
          "0.721",
          []
        ]
      ],
      [
        [
          "3FG%",
          []
        ],
        [
          "K\u0161y\u0161tof Lavrinovi\u010d",
          [
            "/wiki/K\u0161y\u0161tof_Lavrinovi\u010d"
          ]
        ],
        [
          "Montepaschi Siena",
          [
            "/wiki/Mens_Sana_1871_Basket"
          ]
        ],
        [
          "22",
          []
        ],
        [
          "0.578",
          []
        ]
      ],
      [
        [
          "FT%",
          []
        ],
        [
          "\u0160ar\u016bnas Jasikevi\u010dius",
          [
            "/wiki/\u0160ar\u016bnas_Jasikevi\u010dius"
          ]
        ],
        [
          "Panathinaikos",
          [
            "/wiki/Panathinaikos_B.C."
          ]
        ],
        [
          "20",
          []
        ],
        [
          "0.938",
          []
        ]
      ]
    ],
    "section_title": "Individual statistics -- Other Stats",
    "section_text": "",
    "uid": "2007\u201308_Euroleague_5",
    "intro": "The 2007-08 Euroleague was the 8th season of the professional basketball competition for elite clubs throughout Europe, organised by Euroleague Basketball Company, and it was the 51st season of the premier competition for European men's clubs overall. The 2007-08 season featured 24 competing teams. The Euroleague Regular Season draw was held on 30 June 2007, in Jesolo, Italy, during the inaugural Euroleague summer league. The official inauguration was held on October 22, at Hala Olivia in Gda\u0144sk, Poland, before the season's opening game between Prokom Trefl Sopot and CSKA Moscow. The 2008 Final Four was held on May 2-4, 2008, at the Palacio de Deportes de la Comunidad de Madrid in Madrid, Spain. Russian power CSKA Moscow became the champion for the sixth time, placing them second in all-time European championships to Real Madrid."
  },
  "2006\u201307_Euroleague_7": {
    "url": "https://en.wikipedia.org/wiki/2006\u201307_Euroleague",
    "title": "2006\u201307 Euroleague",
    "header": [
      [
        "Game",
        []
      ],
      [
        "Player",
        []
      ],
      [
        "Team",
        []
      ],
      [
        "Rating",
        []
      ]
    ],
    "data": [
      [
        [
          "1",
          []
        ],
        [
          "Carlos Cabezas",
          [
            "/wiki/Carlos_Cabezas"
          ]
        ],
        [
          "Unicaja",
          [
            "/wiki/Baloncesto_M\u00e1laga"
          ]
        ],
        [
          "41",
          []
        ]
      ],
      [
        [
          "2",
          []
        ],
        [
          "Eric Campbell",
          [
            "/wiki/Eric_Campbell_(basketball)"
          ]
        ],
        [
          "Le Mans Sarthe",
          [
            "/wiki/Le_Mans_Sarthe_Basket"
          ]
        ],
        [
          "32",
          []
        ]
      ],
      [
        [
          "3",
          []
        ],
        [
          "Juan Carlos Navarro",
          [
            "/wiki/Juan_Carlos_Navarro_(basketball)"
          ]
        ],
        [
          "Winterthur FC Barcelona",
          [
            "/wiki/FC_Barcelona_B\u00e0squet"
          ]
        ],
        [
          "35",
          []
        ]
      ],
      [
        [
          "4",
          []
        ],
        [
          "Ronnie Burrell",
          [
            "/wiki/Ronnie_Burrell"
          ]
        ],
        [
          "RheinEnergie K\u00f6ln",
          [
            "/wiki/RheinStars_K\u00f6ln"
          ]
        ],
        [
          "36",
          []
        ]
      ],
      [
        [
          "5",
          []
        ],
        [
          "Teemu Rannikko",
          [
            "/wiki/Teemu_Rannikko"
          ]
        ],
        [
          "Union Olimpija",
          [
            "/wiki/KK_Olimpija"
          ]
        ],
        [
          "33",
          []
        ]
      ],
      [
        [
          "6",
          []
        ],
        [
          "Nikola Vuj\u010di\u0107",
          [
            "/wiki/Nikola_Vuj\u010di\u0107"
          ]
        ],
        [
          "Maccabi Elite Tel Aviv",
          [
            "/wiki/Maccabi_Tel_Aviv_B.C."
          ]
        ],
        [
          "46",
          []
        ]
      ],
      [
        [
          "7",
          []
        ],
        [
          "Brent Wright",
          [
            "/wiki/Brent_Wright"
          ]
        ],
        [
          "Cibona VIP",
          [
            "/wiki/KK_Cibona"
          ]
        ],
        [
          "35",
          []
        ]
      ],
      [
        [
          "8",
          []
        ],
        [
          "Lazaros Papadopoulos",
          [
            "/wiki/Lazaros_Papadopoulos"
          ]
        ],
        [
          "Dynamo Moscow",
          [
            "/wiki/MBC_Dynamo_Moscow"
          ]
        ],
        [
          "38",
          []
        ]
      ],
      [
        [
          "9",
          []
        ],
        [
          "Marcus Haislip",
          [
            "/wiki/Marcus_Haislip"
          ]
        ],
        [
          "Efes Pilsen",
          [
            "/wiki/Anadolu_Efes_S.K."
          ]
        ],
        [
          "41",
          []
        ]
      ],
      [
        [
          "10",
          []
        ],
        [
          "Nikola Vuj\u010di\u0107 ( 2 )",
          [
            "/wiki/Nikola_Vuj\u010di\u0107"
          ]
        ],
        [
          "Maccabi Elite Tel Aviv",
          [
            "/wiki/Maccabi_Tel_Aviv_B.C."
          ]
        ],
        [
          "40",
          []
        ]
      ],
      [
        [
          "11",
          []
        ],
        [
          "Tanoka Beard",
          [
            "/wiki/Tanoka_Beard"
          ]
        ],
        [
          "\u017dalgiris",
          [
            "/wiki/BC_\u017dalgiris"
          ]
        ],
        [
          "31",
          []
        ]
      ],
      [
        [
          "12",
          []
        ],
        [
          "Nikola Vuj\u010di\u0107 ( 3 )",
          [
            "/wiki/Nikola_Vuj\u010di\u0107"
          ]
        ],
        [
          "Maccabi Elite Tel Aviv",
          [
            "/wiki/Maccabi_Tel_Aviv_B.C."
          ]
        ],
        [
          "34",
          []
        ]
      ],
      [
        [
          "12",
          []
        ],
        [
          "James Thomas",
          [
            "/wiki/James_Thomas_(basketball)"
          ]
        ],
        [
          "Climamio Bologna",
          [
            "/wiki/Fortitudo_Bologna"
          ]
        ],
        [
          "34",
          []
        ]
      ],
      [
        [
          "13",
          []
        ],
        [
          "Terrell Lyday",
          [
            "/wiki/Terrell_Lyday"
          ]
        ],
        [
          "Benetton Treviso",
          [
            "/wiki/Pallacanestro_Treviso"
          ]
        ],
        [
          "40",
          []
        ]
      ],
      [
        [
          "14",
          []
        ],
        [
          "Vassil Evtimov",
          [
            "/wiki/Vassil_Evtimov"
          ]
        ],
        [
          "Climamio Bologna",
          [
            "/wiki/Fortitudo_Bologna"
          ]
        ],
        [
          "38",
          []
        ]
      ]
    ],
    "section_title": "Awards -- Club Executive of the Year",
    "section_text": "Main article : EuroLeague MVP of the Round",
    "uid": "2006\u201307_Euroleague_7",
    "intro": "The 2006-07 Euroleague was the 7th season of the professional basketball competition for elite clubs throughout Europe, organised by Euroleague Basketball Company, and it was the 50th season of the premier competition for European men's clubs overall. The season featured 24 competing teams from 13 different countries. The competition began on October 24, 2006, at the Olympic Pavilion in Badalona, Spain, with Panathinaikos winning 82-79 against DKV Joventut. The final of the competition was held on May 6, 2007, in the Olympic Indoor Hall in Athens, Greece, the home court of Panathinaikos, with Panathinaikos defeating the defending champions, CSKA Moscow, by a score of 93-91."
  },
  "2017\u201318_S\u00fcper_Lig_0": {
    "url": "https://en.wikipedia.org/wiki/2017\u201318_S\u00fcper_Lig",
    "title": "2017\u201318 S\u00fcper Lig",
    "header": [
      [
        "Team",
        []
      ],
      [
        "Home city",
        []
      ],
      [
        "Stadium",
        []
      ],
      [
        "Capacity",
        []
      ]
    ],
    "data": [
      [
        [
          "Akhisar Belediyespor",
          [
            "/wiki/Akhisar_Belediyespor"
          ]
        ],
        [
          "Akhisar",
          [
            "/wiki/Akhisar"
          ]
        ],
        [
          "Spor Toto Akhisar Stadium",
          [
            "/wiki/Spor_Toto_Akhisar_Stadium"
          ]
        ],
        [
          "12,139",
          []
        ]
      ],
      [
        [
          "Alanyaspor",
          [
            "/wiki/Alanyaspor"
          ]
        ],
        [
          "Alanya",
          [
            "/wiki/Alanya"
          ]
        ],
        [
          "Alanya Oba Stadium",
          [
            "/wiki/Bah\u00e7e\u015fehir_Okullar\u0131_Stadium"
          ]
        ],
        [
          "10,842",
          []
        ]
      ],
      [
        [
          "Antalyaspor",
          [
            "/wiki/Antalyaspor"
          ]
        ],
        [
          "Antalya",
          [
            "/wiki/Antalya"
          ]
        ],
        [
          "Antalya Stadium",
          [
            "/wiki/New_Antalya_Stadium"
          ]
        ],
        [
          "33,032",
          []
        ]
      ],
      [
        [
          "Be\u015fikta\u015f",
          [
            "/wiki/Be\u015fikta\u015f_J.K."
          ]
        ],
        [
          "Istanbul ( Be\u015fikta\u015f )",
          [
            "/wiki/Istanbul",
            "/wiki/Be\u015fikta\u015f"
          ]
        ],
        [
          "Vodafone Park",
          [
            "/wiki/Vodafone_Park"
          ]
        ],
        [
          "43,500",
          []
        ]
      ],
      [
        [
          "Bursaspor",
          [
            "/wiki/Bursaspor"
          ]
        ],
        [
          "Bursa",
          [
            "/wiki/Bursa"
          ]
        ],
        [
          "Timsah Arena",
          [
            "/wiki/Timsah_Arena"
          ]
        ],
        [
          "43,877",
          []
        ]
      ],
      [
        [
          "Fenerbah\u00e7e",
          [
            "/wiki/Fenerbah\u00e7e_S.K._(football)"
          ]
        ],
        [
          "Istanbul ( Kad\u0131k\u00f6y )",
          [
            "/wiki/Kad\u0131k\u00f6y"
          ]
        ],
        [
          "\u00dclker Stadium",
          [
            "/wiki/\u015e\u00fckr\u00fc_Saraco\u011flu_Stadium"
          ]
        ],
        [
          "50,509",
          []
        ]
      ],
      [
        [
          "Galatasaray",
          [
            "/wiki/Galatasaray_S.K._(football)"
          ]
        ],
        [
          "Istanbul ( \u015ei\u015fli )",
          [
            "/wiki/\u015ei\u015fli"
          ]
        ],
        [
          "T\u00fcrk Telekom Stadium",
          [
            "/wiki/T\u00fcrk_Telekom_Stadium"
          ]
        ],
        [
          "52,652",
          []
        ]
      ],
      [
        [
          "Gen\u00e7lerbirli\u011fi",
          [
            "/wiki/Gen\u00e7lerbirli\u011fi_S.K."
          ]
        ],
        [
          "Ankara ( Ulus )",
          [
            "/wiki/Ankara",
            "/wiki/Ulus,_Ankara"
          ]
        ],
        [
          "Ankara 19 May\u0131s Stadium",
          [
            "/wiki/Ankara_19_May\u0131s_Stadium"
          ]
        ],
        [
          "19,209",
          []
        ]
      ],
      [
        [
          "G\u00f6ztepe",
          [
            "/wiki/G\u00f6ztepe_S.K."
          ]
        ],
        [
          "\u0130zmir",
          [
            "/wiki/\u0130zmir"
          ]
        ],
        [
          "Bornova Stadium",
          [
            "/wiki/Bornova_Stadium"
          ]
        ],
        [
          "12,500",
          []
        ]
      ],
      [
        [
          "\u0130stanbul Ba\u015fak\u015fehir",
          [
            "/wiki/\u0130stanbul_Ba\u015fak\u015fehir_F.K."
          ]
        ],
        [
          "Istanbul ( Ba\u015fak\u015fehir )",
          [
            "/wiki/Ba\u015fak\u015fehir"
          ]
        ],
        [
          "Ba\u015fak\u015fehir Fatih Terim Stadium",
          [
            "/wiki/Ba\u015fak\u015fehir_Fatih_Terim_Stadium"
          ]
        ],
        [
          "17,801",
          []
        ]
      ],
      [
        [
          "Kardemir Karab\u00fckspor",
          [
            "/wiki/Kardemir_Karab\u00fckspor"
          ]
        ],
        [
          "Karab\u00fck",
          [
            "/wiki/Karab\u00fck"
          ]
        ],
        [
          "Dr. Necmettin \u015eeyho\u011flu Stadium",
          [
            "/wiki/Dr._Necmettin_\u015eeyho\u011flu_Stadium"
          ]
        ],
        [
          "14,200",
          []
        ]
      ],
      [
        [
          "Kas\u0131mpa\u015fa",
          [
            "/wiki/Kas\u0131mpa\u015fa_S.K."
          ]
        ],
        [
          "Istanbul ( Beyo\u011flu )",
          [
            "/wiki/Beyo\u011flu"
          ]
        ],
        [
          "Recep Tayyip Erdo\u011fan Stadium",
          [
            "/wiki/Recep_Tayyip_Erdo\u011fan_Stadium"
          ]
        ],
        [
          "14,234",
          []
        ]
      ],
      [
        [
          "Kayserispor",
          [
            "/wiki/Kayserispor"
          ]
        ],
        [
          "Kayseri",
          [
            "/wiki/Kayseri"
          ]
        ],
        [
          "Kadir Has Stadium",
          [
            "/wiki/Kadir_Has_Stadium"
          ]
        ],
        [
          "32,864",
          []
        ]
      ],
      [
        [
          "Konyaspor",
          [
            "/wiki/Konyaspor"
          ]
        ],
        [
          "Konya",
          [
            "/wiki/Konya"
          ]
        ],
        [
          "Konya B\u00fcy\u00fck\u015fehir Stadium",
          [
            "/wiki/Konya_B\u00fcy\u00fck\u015fehir_Stadium"
          ]
        ],
        [
          "42,276",
          []
        ]
      ],
      [
        [
          "Osmanl\u0131spor",
          [
            "/wiki/Osmanl\u0131spor"
          ]
        ],
        [
          "Ankara ( Sincan )",
          [
            "/wiki/Sincan,_Ankara"
          ]
        ],
        [
          "Osmanl\u0131 Stadyumu",
          [
            "/wiki/Osmanl\u0131_Stadyumu"
          ]
        ],
        [
          "19,626",
          []
        ]
      ],
      [
        [
          "Sivasspor",
          [
            "/wiki/Sivasspor"
          ]
        ],
        [
          "Sivas",
          [
            "/wiki/Sivas"
          ]
        ],
        [
          "Sivas Arena",
          [
            "/wiki/New_Sivas_4_Eyl\u00fcl_Stadium"
          ]
        ],
        [
          "27,532",
          []
        ]
      ],
      [
        [
          "Trabzonspor",
          [
            "/wiki/Trabzonspor"
          ]
        ],
        [
          "Trabzon",
          [
            "/wiki/Trabzon"
          ]
        ],
        [
          "\u015eenol G\u00fcne\u015f Stadium",
          [
            "/wiki/\u015eenol_G\u00fcne\u015f_Stadium"
          ]
        ],
        [
          "41,513",
          []
        ]
      ],
      [
        [
          "Yeni Malatyaspor",
          [
            "/wiki/Yeni_Malatyaspor"
          ]
        ],
        [
          "Malatya",
          [
            "/wiki/Malatya"
          ]
        ],
        [
          "Malatya Arena",
          [
            "/wiki/Malatya_Arena"
          ]
        ],
        [
          "27,044",
          []
        ]
      ]
    ],
    "section_title": "Teams -- Stadia and locations",
    "section_text": "IstanbulAkhisarsporAlanyasporAntalyasporBursasporGen\u00e7lerbirli\u011fiOsmanl\u0131sporG\u00f6ztepeKarab\u00fcksporKayserisporKonyasporSivassporTrabzonsporYeni Malatyaspor Location of teams in 2017\u201318 S\u00fcper Lig Be\u015fikta\u015fFenerbah\u00e7eGalatasaray\u0130stanbul Ba\u015fak\u015fehirKas\u0131mpa\u015fa Istanbul S\u00fcper Lig football clubs",
    "uid": "2017\u201318_S\u00fcper_Lig_0",
    "intro": "The 2017-18 S\u00fcper Lig, officially called the S\u00fcper Lig \u0130lhan Cavcav season, was the 60th season of the S\u00fcper Lig, the highest tier football league of Turkey. The season was named after \u0130lhan Cavcav, the longtime chairman of Gen\u00e7lerbirli\u011fi S.K."
  }
}