{
  "2009\u201310_Liga_Leumit_0": {
    "url": "https://en.wikipedia.org/wiki/2009\u201310_Liga_Leumit",
    "title": "2009\u201310 Liga Leumit",
    "header": [
      [
        "Club",
        []
      ],
      [
        "Stadium",
        []
      ],
      [
        "Capacity",
        []
      ]
    ],
    "data": [
      [
        [
          "Ahva Arraba",
          [
            "/wiki/Ahva_Arraba_F.C."
          ]
        ],
        [
          "Doha Stadium",
          [
            "/wiki/Doha_Stadium"
          ]
        ],
        [
          "0 8,500",
          []
        ]
      ],
      [
        [
          "Beitar Shimshon Tel Aviv",
          [
            "/wiki/Beitar_Tel_Aviv_Bat_Yam_F.C."
          ]
        ],
        [
          "Hatikva Neighborhood Stadium",
          [
            "/wiki/Hatikva_Neighborhood_Stadium"
          ]
        ],
        [
          "0 6,500",
          []
        ]
      ],
      [
        [
          "Hakoah Ramat Gan",
          [
            "/wiki/Hakoah_Amidar_Ramat_Gan_F.C."
          ]
        ],
        [
          "Winter Stadium",
          [
            "/wiki/Winter_Stadium"
          ]
        ],
        [
          "0 8,000",
          []
        ]
      ],
      [
        [
          "Hapoel Ashkelon",
          [
            "/wiki/Hapoel_Ashkelon_F.C."
          ]
        ],
        [
          "Sala Stadium",
          [
            "/wiki/Sala_Stadium"
          ]
        ],
        [
          "5,250",
          []
        ]
      ],
      [
        [
          "Hapoel Bnei Lod",
          [
            "/wiki/Hapoel_Bnei_Lod_F.C."
          ]
        ],
        [
          "Lod Municipal Stadium",
          [
            "/wiki/Lod_Municipal_Stadium"
          ]
        ],
        [
          "0 3,000",
          []
        ]
      ],
      [
        [
          "Hapoel Jerusalem",
          [
            "/wiki/Hapoel_Jerusalem_F.C."
          ]
        ],
        [
          "Teddy Stadium",
          [
            "/wiki/Teddy_Stadium"
          ]
        ],
        [
          "21,600",
          []
        ]
      ],
      [
        [
          "Hapoel Kfar Saba",
          [
            "/wiki/Hapoel_Kfar_Saba_F.C."
          ]
        ],
        [
          "Levita Stadium",
          [
            "/wiki/Levita_Stadium"
          ]
        ],
        [
          "0 5,800",
          []
        ]
      ],
      [
        [
          "Hapoel Marmorek",
          [
            "/wiki/Hapoel_Marmorek_F.C."
          ]
        ],
        [
          "Haberfeld Stadium",
          [
            "/wiki/Haberfeld_Stadium"
          ]
        ],
        [
          "0 6,000",
          []
        ]
      ],
      [
        [
          "Hapoel Nazareth Illit",
          [
            "/wiki/Hapoel_Nof_HaGalil_F.C."
          ]
        ],
        [
          "Green Stadium",
          [
            "/wiki/Green_Stadium,_Nof_HaGalil"
          ]
        ],
        [
          "0 4,000",
          []
        ]
      ],
      [
        [
          "Ironi Bat Yam",
          [
            "/wiki/Maccabi_Ironi_Bat_Yam_F.C."
          ]
        ],
        [
          "Bat Yam Municipal Stadium",
          [
            "/wiki/Bat_Yam_Municipal_Stadium"
          ]
        ],
        [
          "0 3,100",
          []
        ]
      ],
      [
        [
          "Ironi Kiryat Shmona",
          [
            "/wiki/Hapoel_Ironi_Kiryat_Shmona_F.C."
          ]
        ],
        [
          "Kiryat Shmona Municipal Stadium",
          [
            "/wiki/Kiryat_Shmona_Municipal_Stadium"
          ]
        ],
        [
          "0 5,300",
          []
        ]
      ],
      [
        [
          "Ironi Ramat HaSharon",
          [
            "/wiki/Hapoel_Nir_Ramat_HaSharon_F.C."
          ]
        ],
        [
          "Grundman Stadium",
          [
            "/wiki/Grundman_Stadium"
          ]
        ],
        [
          "0 2,200",
          []
        ]
      ],
      [
        [
          "Hapoel Rishon LeZion",
          [
            "/wiki/Hapoel_Rishon_LeZion_F.C."
          ]
        ],
        [
          "Haberfeld Stadium",
          [
            "/wiki/Haberfeld_Stadium"
          ]
        ],
        [
          "0 6,000",
          []
        ]
      ],
      [
        [
          "Maccabi Be'er Sheva",
          [
            "/wiki/Maccabi_Be'er_Sheva_F.C."
          ]
        ],
        [
          "Vasermil Stadium",
          [
            "/wiki/Vasermil_Stadium"
          ]
        ],
        [
          "13,000",
          []
        ]
      ],
      [
        [
          "Maccabi Herzliya",
          [
            "/wiki/Maccabi_Herzliya_F.C."
          ]
        ],
        [
          "Herzliya Municipal Stadium",
          [
            "/wiki/Herzliya_Municipal_Stadium"
          ]
        ],
        [
          "0 8,100",
          []
        ]
      ],
      [
        [
          "Sektzia Nes Tziona",
          [
            "/wiki/Sektzia_Nes_Tziona_F.C."
          ]
        ],
        [
          "Ness Ziona Stadium",
          [
            "/wiki/Ness_Ziona_Stadium"
          ]
        ],
        [
          "0 6,000",
          []
        ]
      ]
    ],
    "section_title": "Overview -- Stadia and locations",
    "section_text": "",
    "uid": "2009\u201310_Liga_Leumit_0",
    "intro": "The 2009-10 Liga Leumit was the 11th season since it became the second-tier in 1999 and the 68th season of second-tier football in Israel. It began on 21 August 2009 and ended on 15 May 2010."
  },
  "2009\u201310_Serbian_Cup_1": {
    "url": "https://en.wikipedia.org/wiki/2009\u201310_Serbian_Cup",
    "title": "2009\u201310 Serbian Cup",
    "header": [
      [
        "Team 1",
        []
      ],
      [
        "Score",
        []
      ],
      [
        "Team 2",
        []
      ]
    ],
    "data": [
      [
        [
          "OFK Beograd",
          [
            "/wiki/OFK_Beograd"
          ]
        ],
        [
          "1-1 ( p. 5-4 )",
          [
            "/wiki/Penalty_shoot-out_(association_football)"
          ]
        ],
        [
          "Novi Sad ( II )",
          [
            "/wiki/RFK_Novi_Sad_1921"
          ]
        ]
      ],
      [
        [
          "\u010cukari\u010dki",
          [
            "/wiki/FK_\u010cukari\u010dki"
          ]
        ],
        [
          "1-1 ( p. 3-5 )",
          [
            "/wiki/Penalty_shoot-out_(association_football)"
          ]
        ],
        [
          "Metalac",
          [
            "/wiki/FK_Metalac_Gornji_Milanovac"
          ]
        ]
      ],
      [
        [
          "Partizan",
          [
            "/wiki/FK_Partizan"
          ]
        ],
        [
          "3-0",
          []
        ],
        [
          "In\u0111ija ( II )",
          [
            "/wiki/FK_In\u0111ija"
          ]
        ]
      ],
      [
        [
          "Vojvodina",
          [
            "/wiki/FK_Vojvodina"
          ]
        ],
        [
          "4-0",
          []
        ],
        [
          "Dinamo Vranje ( II )",
          [
            "/wiki/FK_Dinamo_Vranje"
          ]
        ]
      ],
      [
        [
          "Red Star",
          [
            "/wiki/Red_Star_Belgrade"
          ]
        ],
        [
          "6-1",
          []
        ],
        [
          "Mladost Apatin ( II )",
          [
            "/wiki/FK_Mladost_Apatin"
          ]
        ]
      ],
      [
        [
          "BSK Bor\u010da",
          [
            "/wiki/FK_BSK_Bor\u010da"
          ]
        ],
        [
          "1-1 ( p. 4-5 )",
          [
            "/wiki/Penalty_shoot-out_(association_football)"
          ]
        ],
        [
          "Sevojno ( II )",
          [
            "/wiki/FK_Sevojno"
          ]
        ]
      ],
      [
        [
          "Hajduk Kula",
          [
            "/wiki/FK_Hajduk_Kula"
          ]
        ],
        [
          "1-1 ( p. 5-3 )",
          [
            "/wiki/Penalty_shoot-out_(association_football)"
          ]
        ],
        [
          "\u010cSK ( II )",
          [
            "/wiki/FK_\u010cSK_\u010celarevo"
          ]
        ]
      ],
      [
        [
          "Rad",
          [
            "/wiki/FK_Rad"
          ]
        ],
        [
          "2-3",
          []
        ],
        [
          "Mladost Lu\u010dani ( II )",
          [
            "/wiki/FK_Mladost_Lu\u010dani"
          ]
        ]
      ],
      [
        [
          "Smederevo",
          [
            "/wiki/FK_Smederevo_1924"
          ]
        ],
        [
          "4-0",
          []
        ],
        [
          "Kolubara ( II )",
          [
            "/wiki/FK_Kolubara"
          ]
        ]
      ],
      [
        [
          "Spartak Zlatibor Voda",
          [
            "/wiki/FK_Spartak_Subotica"
          ]
        ],
        [
          "3-0",
          []
        ],
        [
          "Be\u017eanija ( II )",
          [
            "/wiki/FK_Be\u017eanija"
          ]
        ]
      ],
      [
        [
          "Proleter Novi Sad ( II )",
          [
            "/wiki/FK_Proleter_Novi_Sad"
          ]
        ],
        [
          "3-1",
          []
        ],
        [
          "Javor",
          [
            "/wiki/FK_Javor_Ivanjica"
          ]
        ]
      ],
      [
        [
          "Srem ( II )",
          [
            "/wiki/FK_Srem"
          ]
        ],
        [
          "1-1 ( p. 1-4 )",
          [
            "/wiki/Penalty_shoot-out_(association_football)"
          ]
        ],
        [
          "Borac \u010ca\u010dak",
          [
            "/wiki/FK_Borac_\u010ca\u010dak"
          ]
        ]
      ],
      [
        [
          "Novi Pazar ( II )",
          [
            "/wiki/FK_Novi_Pazar"
          ]
        ],
        [
          "2-1",
          []
        ],
        [
          "Mladi Radnik",
          [
            "/wiki/FK_Mladi_Radnik"
          ]
        ]
      ],
      [
        [
          "Vo\u017edovac ( III )",
          [
            "/wiki/FK_Vo\u017edovac"
          ]
        ],
        [
          "0-1",
          []
        ],
        [
          "Jagodina",
          [
            "/wiki/FK_Jagodina"
          ]
        ]
      ],
      [
        [
          "Partizan Kosovska Mitrovica ( IV )",
          [
            "/wiki/FK_Trep\u010da"
          ]
        ],
        [
          "0-0 ( p. 5-4 )",
          [
            "/wiki/Penalty_shoot-out_(association_football)"
          ]
        ],
        [
          "Napredak",
          [
            "/wiki/FK_Napredak_Kru\u0161evac"
          ]
        ]
      ],
      [
        [
          "Radni\u010dki Svilajnac ( III )",
          [
            "/wiki/FK_Radni\u010dki_Svilajnac"
          ]
        ],
        [
          "1-3",
          []
        ],
        [
          "Banat Zrenjanin ( II )",
          [
            "/wiki/FK_Banat_Zrenjanin"
          ]
        ]
      ]
    ],
    "section_title": "Round of 32",
    "section_text": "In this round entered three winners from the previous round as well as all 12 teams from Serbian SuperLiga from 2008\u201309 and all 18 teams from Serbian First League from 2008\u201309 . The matches were played on 22\u201323 September 2009 .",
    "uid": "2009\u201310_Serbian_Cup_1",
    "intro": "The 2009-10 Serbian Cup season was the fourth season of the Serbian national football tournament. The competition started on 2 September 2009 and ended with the Final on 5 May 2010. The defending champions are FK Partizan. Red Star Belgrade won the cup after a 3-0 win against Vojvodina."
  },
  "2011\u201312_Liga_Leumit_5": {
    "url": "https://en.wikipedia.org/wiki/2011\u201312_Liga_Leumit",
    "title": "2011\u201312 Liga Leumit",
    "header": [
      [
        "Home \\ Away",
        []
      ],
      [
        "HJE",
        [
          "/wiki/Hapoel_Jerusalem_F.C."
        ]
      ],
      [
        "HRA",
        [
          "/wiki/Hapoel_Ra'anana_A.F.C."
        ]
      ],
      [
        "MAN",
        [
          "/wiki/Maccabi_Ahi_Nazareth_F.C."
        ]
      ]
    ],
    "data": [
      [
        [
          "Hapoel Bnei Lod",
          [
            "/wiki/Hapoel_Bnei_Lod_F.C."
          ]
        ],
        [
          "4-3",
          []
        ],
        [
          "1-0",
          []
        ],
        [
          "",
          []
        ]
      ],
      [
        [
          "Hapoel Jerusalem",
          [
            "/wiki/Hapoel_Jerusalem_F.C."
          ]
        ],
        [
          "",
          []
        ],
        [
          "0-1",
          []
        ],
        [
          "0-1",
          []
        ]
      ],
      [
        [
          "Hapoel Ramat Gan",
          [
            "/wiki/Hapoel_Ramat_Gan_Givatayim_F.C."
          ]
        ],
        [
          "0-2",
          []
        ],
        [
          "",
          []
        ],
        [
          "3-0",
          []
        ]
      ],
      [
        [
          "Maccabi Ahi Nazareth",
          [
            "/wiki/Maccabi_Ahi_Nazareth_F.C."
          ]
        ],
        [
          "",
          []
        ],
        [
          "1-0",
          []
        ],
        [
          "",
          []
        ]
      ],
      [
        [
          "Maccabi Herzliya",
          [
            "/wiki/Maccabi_Herzliya_F.C."
          ]
        ],
        [
          "1-0",
          []
        ],
        [
          "",
          []
        ],
        [
          "2-0",
          []
        ]
      ]
    ],
    "section_title": "",
    "section_text": "",
    "uid": "2011\u201312_Liga_Leumit_5",
    "intro": "The 2011-12 Liga Leumit was the thirteen season since its introduction in 1999 and the 70th season of second-tier football in Israel. It began on 19 August 2011 and ended on 18 May 2012. A total of sixteen teams were contesting in the league, including twelfth sides from the 2010-11 season, two promoted teams from the 2010-11 Liga Alef and two relegated teams from the 2010-11 Israeli Premier League."
  },
  "List_of_historical_period_drama_films_and_series_set_in_Near_Eastern_and_Western_civilization_9": {
    "url": "https://en.wikipedia.org/wiki/List_of_historical_drama_films_and_series_set_in_Near_Eastern_and_Western_civilization",
    "title": "List of historical drama films and series set in Near Eastern and Western civilization",
    "header": [
      [
        "Title",
        []
      ],
      [
        "Release date",
        []
      ],
      [
        "Time period",
        []
      ],
      [
        "Notes on setting",
        []
      ]
    ],
    "data": [
      [
        [
          "The Spanish Princess ( TV series )",
          [
            "/wiki/The_Spanish_Princess"
          ]
        ],
        [
          "2019",
          []
        ],
        [
          "1501-1509",
          []
        ],
        [
          "Catherine of Aragon",
          [
            "/wiki/Catherine_of_Aragon"
          ]
        ]
      ],
      [
        [
          "Wara Wara",
          [
            "/wiki/Wara_Wara"
          ]
        ],
        [
          "1930",
          []
        ],
        [
          "16th century",
          []
        ],
        [
          "romance set at the time of the Spanish conquest of Bolivia",
          [
            "/wiki/History_of_Bolivia"
          ]
        ]
      ],
      [
        [
          "Apocalypto",
          [
            "/wiki/Apocalypto"
          ]
        ],
        [
          "2006",
          []
        ],
        [
          "1502",
          []
        ],
        [
          "Yucat\u00e1n Peninsula , Mexico , the declining period of the Maya civilization",
          [
            "/wiki/Yucat\u00e1n_Peninsula",
            "/wiki/Maya_civilization"
          ]
        ]
      ],
      [
        [
          "La corona partida",
          []
        ],
        [
          "2016",
          []
        ],
        [
          "1504-1516",
          []
        ],
        [
          "After the death of Queen Isabella I of Castile , both Ferdinand II of Aragon and Felipe el Hermoso fight to succeed him",
          [
            "/wiki/Isabella_I_of_Castile",
            "/wiki/Ferdinand_II_of_Aragon",
            "/wiki/Philip_I_of_Castile"
          ]
        ]
      ],
      [
        [
          "Luther",
          [
            "/wiki/Luther_(2003_film)"
          ]
        ],
        [
          "2003",
          []
        ],
        [
          "1505-1530",
          []
        ],
        [
          "Martin Luther",
          [
            "/wiki/Martin_Luther"
          ]
        ]
      ],
      [
        [
          "The Agony and the Ecstasy",
          [
            "/wiki/The_Agony_and_the_Ecstasy_(film)"
          ]
        ],
        [
          "1965",
          []
        ],
        [
          "1508-1512",
          []
        ],
        [
          "the painting of the Sistine Chapel",
          [
            "/wiki/Sistine_Chapel"
          ]
        ]
      ],
      [
        [
          "Henry VIII and His Six Wives",
          [
            "/wiki/Henry_VIII_and_His_Six_Wives"
          ]
        ],
        [
          "1972",
          []
        ],
        [
          "1509-1547",
          []
        ],
        [
          "Henry VIII of England",
          [
            "/wiki/Henry_VIII_of_England"
          ]
        ]
      ],
      [
        [
          "The Private Life of Henry VIII",
          [
            "/wiki/The_Private_Life_of_Henry_VIII"
          ]
        ],
        [
          "1933",
          []
        ],
        [
          "1509-1547",
          []
        ],
        [
          "Henry VIII of England",
          [
            "/wiki/Henry_VIII_of_England"
          ]
        ]
      ],
      [
        [
          "Monarch",
          [
            "/wiki/Monarch_(film)"
          ]
        ],
        [
          "2000",
          []
        ],
        [
          "1509-1547",
          []
        ],
        [
          "Henry VIII of England",
          [
            "/wiki/Henry_VIII_of_England"
          ]
        ]
      ],
      [
        [
          "Henry VIII",
          [
            "/wiki/Henry_VIII_(TV_serial)"
          ]
        ],
        [
          "2003",
          []
        ],
        [
          "1509-1547",
          []
        ],
        [
          "Henry VIII of England",
          [
            "/wiki/Henry_VIII_of_England"
          ]
        ]
      ],
      [
        [
          "The Tudors",
          [
            "/wiki/The_Tudors"
          ]
        ],
        [
          "2007-2010",
          []
        ],
        [
          "1514-1547",
          []
        ],
        [
          "Henry VIII of England",
          [
            "/wiki/Henry_VIII_of_England"
          ]
        ]
      ],
      [
        [
          "Judgement",
          [
            "/wiki/Judgement"
          ]
        ],
        [
          "1970",
          []
        ],
        [
          "1514",
          []
        ],
        [
          "Rebellion of Gy\u00f6rgy D\u00f3zsa , Hungary",
          []
        ]
      ],
      [
        [
          "Carlos , rey emperador",
          [
            "/wiki/Carlos,_rey_emperador"
          ]
        ],
        [
          "2015-2016",
          []
        ],
        [
          "1516-1558",
          []
        ],
        [
          "The series tells the story of Charles I or Charles V , Holy Roman Emperor , one of the most powerful men Europe has met",
          [
            "/wiki/Charles_V,_Holy_Roman_Emperor"
          ]
        ]
      ],
      [
        [
          "The Other Conquest",
          [
            "/wiki/The_Other_Conquest"
          ]
        ],
        [
          "1998",
          []
        ],
        [
          "1521",
          []
        ],
        [
          "Mexico , depicting the secret adherence to traditional religious beliefs of the converted Aztec survivors",
          [
            "/wiki/History_of_Mexico"
          ]
        ]
      ],
      [
        [
          "The Headsman",
          [
            "/wiki/The_Headsman"
          ]
        ],
        [
          "2005",
          []
        ],
        [
          "1525",
          []
        ],
        [
          "an executioner in Tyrol ( part of the Holy Roman Empire )",
          [
            "/wiki/Executioner",
            "/wiki/County_of_Tyrol",
            "/wiki/Holy_Roman_Empire"
          ]
        ]
      ],
      [
        [
          "A Man for All Seasons",
          [
            "/wiki/A_Man_for_All_Seasons_(1966_film)"
          ]
        ],
        [
          "1966",
          []
        ],
        [
          "1525-1535",
          []
        ],
        [
          "Thomas More",
          [
            "/wiki/Thomas_More"
          ]
        ]
      ],
      [
        [
          "Anne of the Thousand Days",
          [
            "/wiki/Anne_of_the_Thousand_Days"
          ]
        ],
        [
          "1969",
          []
        ],
        [
          "1524-1536",
          []
        ],
        [
          "Anne Boleyn , Queen Consort of King Henry VIII and the mother of Queen Elizabeth I",
          [
            "/wiki/Anne_Boleyn"
          ]
        ]
      ],
      [
        [
          "The Other Boleyn Girl",
          [
            "/wiki/The_Other_Boleyn_Girl_(2008_film)"
          ]
        ],
        [
          "2008",
          []
        ],
        [
          "1520-1536",
          []
        ],
        [
          "Anne and Mary Boleyn",
          [
            "/wiki/Anne_Boleyn",
            "/wiki/Mary_Boleyn"
          ]
        ]
      ],
      [
        [
          "Wolf Hall",
          [
            "/wiki/Wolf_Hall_(miniseries)"
          ]
        ],
        [
          "2015",
          []
        ],
        [
          "1529-1536",
          []
        ],
        [
          "the court of Henry VIII of England through the eyes of Thomas Cromwell",
          [
            "/wiki/Henry_VIII_of_England",
            "/wiki/Thomas_Cromwell"
          ]
        ]
      ],
      [
        [
          "Ivan the Terrible",
          [
            "/wiki/Ivan_the_Terrible_(1944_film)"
          ]
        ],
        [
          "1944 , 1958",
          []
        ],
        [
          "1530-1584",
          []
        ],
        [
          "Two-part film about Ivan IV of Russia",
          [
            "/wiki/Ivan_the_Terrible"
          ]
        ]
      ]
    ],
    "section_title": "Renaissance era ( 1500\u20131700 ) -- Films set in 16th century",
    "section_text": "",
    "uid": "List_of_historical_period_drama_films_and_series_set_in_Near_Eastern_and_Western_civilization_9",
    "intro": "The historical drama or period drama is a film genre in which stories are based upon historical events and famous people. Some historical dramas are docudramas , which attempt an accurate portrayal of a historical event or biography, to the degree that the available historical research will allow. Other historical dramas are fictionalized tales that are based on an actual person and their deeds, such as Braveheart , which is loosely based on the 13th-century knight William Wallace 's fight for Scotland 's independence. Due to the sheer volume of films included in this genre and in the interest of continuity, this list is primarily focused on films pertaining to the history of Near Eastern and Western civilization . For films pertaining to the history of East Asia, Central Asia, and South Asia, please refer also to the list of Asian historical drama films ."
  },
  "2007\u201308_Euroleague_27": {
    "url": "https://en.wikipedia.org/wiki/2007\u201308_Euroleague",
    "title": "2007\u201308 Euroleague",
    "header": [
      [
        "Month",
        []
      ],
      [
        "Player",
        []
      ],
      [
        "Team",
        []
      ]
    ],
    "data": [
      [
        [
          "November 2007",
          []
        ],
        [
          "Arvydas Macijauskas",
          [
            "/wiki/Arvydas_Macijauskas"
          ]
        ],
        [
          "Olympiacos",
          [
            "/wiki/Olympiacos_B.C."
          ]
        ]
      ],
      [
        [
          "December 2007",
          []
        ],
        [
          "Marcus Brown",
          [
            "/wiki/Marcus_Brown"
          ]
        ],
        [
          "\u017dalgiris",
          [
            "/wiki/BC_\u017dalgiris"
          ]
        ]
      ],
      [
        [
          "January 2008",
          []
        ],
        [
          "Terence Morris",
          [
            "/wiki/Terence_Morris"
          ]
        ],
        [
          "Maccabi Elite",
          [
            "/wiki/Maccabi_Tel_Aviv_B.C."
          ]
        ]
      ],
      [
        [
          "February 2008",
          []
        ],
        [
          "Bootsy Thornton",
          [
            "/wiki/Bootsy_Thornton"
          ]
        ],
        [
          "Montepaschi Siena",
          [
            "/wiki/Mens_Sana_1871_Basket"
          ]
        ]
      ],
      [
        [
          "March 2009",
          []
        ],
        [
          "Milt Palacio",
          [
            "/wiki/Milt_Palacio"
          ]
        ],
        [
          "Partizan",
          [
            "/wiki/KK_Partizan"
          ]
        ]
      ],
      [
        [
          "April 2008",
          []
        ],
        [
          "Ram\u016bnas \u0160i\u0161kauskas",
          [
            "/wiki/Ram\u016bnas_\u0160i\u0161kauskas"
          ]
        ],
        [
          "CSKA Moscow",
          [
            "/wiki/PBC_CSKA_Moscow"
          ]
        ]
      ]
    ],
    "section_title": "Awards -- MVP of the Month",
    "section_text": "Main article : EuroLeague MVP of the Month",
    "uid": "2007\u201308_Euroleague_27",
    "intro": "The 2007-08 Euroleague was the 8th season of the professional basketball competition for elite clubs throughout Europe, organised by Euroleague Basketball Company, and it was the 51st season of the premier competition for European men's clubs overall. The 2007-08 season featured 24 competing teams. The Euroleague Regular Season draw was held on 30 June 2007, in Jesolo, Italy, during the inaugural Euroleague summer league. The official inauguration was held on October 22, at Hala Olivia in Gda\u0144sk, Poland, before the season's opening game between Prokom Trefl Sopot and CSKA Moscow. The 2008 Final Four was held on May 2-4, 2008, at the Palacio de Deportes de la Comunidad de Madrid in Madrid, Spain. Russian power CSKA Moscow became the champion for the sixth time, placing them second in all-time European championships to Real Madrid."
  },
  "2010\u201311_Magyar_Kupa_2": {
    "url": "https://en.wikipedia.org/wiki/2010\u201311_Magyar_Kupa",
    "title": "2010\u201311 Magyar Kupa",
    "header": [
      [
        "Team # 1",
        []
      ],
      [
        "Score",
        []
      ],
      [
        "Team # 2",
        []
      ]
    ],
    "data": [
      [
        [
          "Fels\u0151t\u00e1rk\u00e1ny SC",
          [
            "/wiki/Fels\u0151t\u00e1rk\u00e1ny_SC"
          ]
        ],
        [
          "2-0",
          []
        ],
        [
          "FC Tisza\u00fajv\u00e1ros",
          [
            "/wiki/FC_Tisza\u00fajv\u00e1ros"
          ]
        ]
      ],
      [
        [
          "P\u00e1lhalma SE",
          [
            "/wiki/Duna\u00fajv\u00e1ros_PASE"
          ]
        ],
        [
          "0-3",
          []
        ],
        [
          "R\u00e1kospalota",
          [
            "/wiki/R\u00e1kospalotai_EAC"
          ]
        ]
      ],
      [
        [
          "ETE SE",
          []
        ],
        [
          "0-5",
          []
        ],
        [
          "Gy\u0151r II",
          [
            "/wiki/Gy\u0151ri_ETO_FC"
          ]
        ]
      ],
      [
        [
          "\u00dark\u00fat SK",
          [
            "/wiki/\u00dark\u00fat_SK"
          ]
        ],
        [
          "1-4",
          []
        ],
        [
          "Soproni VSE",
          [
            "/wiki/Soproni_VSE"
          ]
        ]
      ],
      [
        [
          "\u00d6ttev\u00e9ny TC",
          []
        ],
        [
          "1-2",
          []
        ],
        [
          "Tatab\u00e1nya",
          [
            "/wiki/FC_Tatab\u00e1nya"
          ]
        ]
      ],
      [
        [
          "ZTE II",
          [
            "/wiki/Zalaegerszegi_TE"
          ]
        ],
        [
          "4-4 a.e.t . ; 4-5 pen",
          [
            "/wiki/Overtime_(sports)",
            "/wiki/Penalty_shoot-out_(association_football)"
          ]
        ],
        [
          "Veszpr\u00e9m FC",
          [
            "/wiki/FC_Veszpr\u00e9m"
          ]
        ]
      ],
      [
        [
          "Let 's Do It Technoroll",
          []
        ],
        [
          "3-0",
          []
        ],
        [
          "K\u00f6rmendi FC",
          [
            "/wiki/K\u00f6rmendi_FC"
          ]
        ]
      ],
      [
        [
          "Angol Foci Suli P\u00e1terdomb",
          []
        ],
        [
          "0-5",
          []
        ],
        [
          "Kaposv\u00f6lgye",
          [
            "/wiki/Kaposv\u00f6lgye_VSC"
          ]
        ]
      ],
      [
        [
          "Hartai SE",
          []
        ],
        [
          "2-4",
          []
        ],
        [
          "Bajai LSE",
          [
            "/wiki/Bajai_LSE"
          ]
        ]
      ],
      [
        [
          "Mez\u0151csokonya SE",
          []
        ],
        [
          "0-2",
          []
        ],
        [
          "Kakasd SE",
          []
        ]
      ],
      [
        [
          "Tisza Vol\u00e1n SC",
          []
        ],
        [
          "3-2",
          []
        ],
        [
          "Gyulai FC",
          [
            "/wiki/Gyulai_FC"
          ]
        ]
      ],
      [
        [
          "Szegedi VSE",
          [
            "/wiki/Szegedi_VSE"
          ]
        ],
        [
          "1-3",
          []
        ],
        [
          "B\u00e9k\u00e9scsaba",
          [
            "/wiki/B\u00e9k\u00e9scsaba_1912_El\u0151re"
          ]
        ]
      ],
      [
        [
          "T\u00f6rteli KSK",
          []
        ],
        [
          "1-5",
          []
        ],
        [
          "Buda\u00f6rs",
          [
            "/wiki/Buda\u00f6rsi_SC"
          ]
        ]
      ],
      [
        [
          "Cs\u00e1kv\u00e1ri TK",
          [
            "/wiki/Aqvital_FC_Cs\u00e1kv\u00e1r"
          ]
        ],
        [
          "2-2 a.e.t . ; 5-6 pen",
          [
            "/wiki/Overtime_(sports)",
            "/wiki/Penalty_shoot-out_(association_football)"
          ]
        ],
        [
          "MTK II",
          [
            "/wiki/MTK_Budapest_FC"
          ]
        ]
      ],
      [
        [
          "Csepel FC",
          [
            "/wiki/Csepel_FC"
          ]
        ],
        [
          "0-5",
          []
        ],
        [
          "Dunaharaszti MTK",
          [
            "/wiki/Dunaharaszti_MTK"
          ]
        ]
      ],
      [
        [
          "P\u00fcsp\u00f6klad\u00e1nyi LE",
          []
        ],
        [
          "0-2",
          []
        ],
        [
          "Debreceni EAC",
          [
            "/wiki/Debreceni_EAC_(football)"
          ]
        ]
      ],
      [
        [
          "Karcagi SE",
          []
        ],
        [
          "2-3",
          []
        ],
        [
          "B\u00e1r\u00e1ndi KSE",
          []
        ]
      ],
      [
        [
          "Cig\u00e1nd SE",
          [
            "/wiki/Cig\u00e1nd_SE"
          ]
        ],
        [
          "0-3",
          []
        ],
        [
          "Ny\u00edregyh\u00e1za",
          [
            "/wiki/Ny\u00edregyh\u00e1za_Spartacus_FC"
          ]
        ]
      ],
      [
        [
          "T\u00e1llya KSE",
          [
            "/wiki/T\u00e1llya_KSE"
          ]
        ],
        [
          "5-6 a.e.t",
          [
            "/wiki/Overtime_(sports)"
          ]
        ],
        [
          "Nagyecsed RSE",
          []
        ]
      ],
      [
        [
          "Tiszal\u00fac NKSE",
          []
        ],
        [
          "0-3",
          []
        ],
        [
          "Tiszakany\u00e1r SE",
          []
        ]
      ]
    ],
    "section_title": "",
    "section_text": "",
    "uid": "2010\u201311_Magyar_Kupa_2",
    "intro": "The 2010-11 Magyar Kupa (English: Hungarian Cup) was the 71st season of Hungary's annual knock-out cup football competition. It started with the first match of Round 1 on 7 August 2010 and ended with the Final held on 17 May 2011 at Stadium Pusk\u00e1s Ferenc, Budapest. The winners, Kecskem\u00e9t, earned a place in the second qualifying round of the 2011-12 UEFA Europa League. Debrecen were the defending champions, having won their fourth cup competition last season."
  }
}