{
  "2015\u201316_Ranji_Trophy_0": {
    "url": "https://en.wikipedia.org/wiki/2015\u201316_Ranji_Trophy",
    "title": "2015\u201316 Ranji Trophy",
    "header": [
      [
        "Player",
        []
      ],
      [
        "From",
        []
      ],
      [
        "To",
        []
      ],
      [
        "Role",
        []
      ]
    ],
    "data": [
      [
        [
          "Sarfaraz Khan",
          [
            "/wiki/Sarfaraz_Khan_(cricketer)"
          ]
        ],
        [
          "Mumbai",
          [
            "/wiki/Mumbai_cricket_team"
          ]
        ],
        [
          "Uttar Pradesh",
          [
            "/wiki/Uttar_Pradesh_cricket_team"
          ]
        ],
        [
          "Batsman",
          []
        ]
      ],
      [
        [
          "Tashuk Ali",
          []
        ],
        [
          "Himachal Pradesh",
          [
            "/wiki/Delhi_cricket_team"
          ]
        ],
        [
          "Mumbai",
          [
            "/wiki/Himachal_Pradesh_cricket_team"
          ]
        ],
        [
          "All rounder",
          []
        ]
      ],
      [
        [
          "Pragyan Ojha",
          [
            "/wiki/Pragyan_Ojha"
          ]
        ],
        [
          "Hyderabad",
          [
            "/wiki/Hyderabad_cricket_team"
          ]
        ],
        [
          "Bengal",
          [
            "/wiki/Bengal_cricket_team"
          ]
        ],
        [
          "Spinner",
          []
        ]
      ],
      [
        [
          "Wasim Jaffer",
          [
            "/wiki/Wasim_Jaffer"
          ]
        ],
        [
          "Mumbai",
          [
            "/wiki/Mumbai_cricket_team"
          ]
        ],
        [
          "Vidarbha",
          [
            "/wiki/Vidarbha_cricket_team"
          ]
        ],
        [
          "Opening Batsman",
          []
        ]
      ],
      [
        [
          "Virender Sehwag",
          [
            "/wiki/Virender_Sehwag"
          ]
        ],
        [
          "Delhi",
          [
            "/wiki/Delhi_cricket_team"
          ]
        ],
        [
          "Haryana",
          [
            "/wiki/Haryana_cricket_team"
          ]
        ],
        [
          "Opening Batsman",
          []
        ]
      ],
      [
        [
          "Mithun Manhas",
          [
            "/wiki/Mithun_Manhas"
          ]
        ],
        [
          "Delhi",
          [
            "/wiki/Delhi_cricket_team"
          ]
        ],
        [
          "J & K",
          [
            "/wiki/Jammu_and_Kashmir_cricket_team"
          ]
        ],
        [
          "Batsman",
          []
        ]
      ],
      [
        [
          "RP Singh",
          [
            "/wiki/R._P._Singh"
          ]
        ],
        [
          "Uttar Pradesh",
          [
            "/wiki/Uttar_Pradesh_cricket_team"
          ]
        ],
        [
          "Gujarat",
          [
            "/wiki/Gujarat_cricket_team"
          ]
        ],
        [
          "Seam Bowler",
          []
        ]
      ],
      [
        [
          "Prasanth Parameswaran",
          [
            "/wiki/Prasanth_Parameswaran"
          ]
        ],
        [
          "Tamil Nadu",
          [
            "/wiki/Tamil_Nadu_cricket_team"
          ]
        ],
        [
          "Goa",
          [
            "/wiki/Goa_cricket_team"
          ]
        ],
        [
          "Seam Bowler",
          []
        ]
      ],
      [
        [
          "Amit Verma",
          [
            "/wiki/Amit_Verma_(cricketer)"
          ]
        ],
        [
          "Kerala",
          [
            "/wiki/Kerala_cricket_team"
          ]
        ],
        [
          "Assam",
          [
            "/wiki/Assam_cricket_team"
          ]
        ],
        [
          "Batsman",
          []
        ]
      ]
    ],
    "section_title": "Personnel changes -- Players",
    "section_text": "",
    "uid": "2015\u201316_Ranji_Trophy_0",
    "intro": "The 2015-16 Ranji Trophy was the 82nd season of the Ranji Trophy, the premier first-class cricket tournament in India. It was contested by 27 teams divided into three groups of nine teams each. The top three teams from Groups A and B advanced to the quarterfinals along with the top two teams from Group C. For this season the schedule splits into two stages, the first is a league stage and the second being a knock-out stage. The league stage starts on 1 October 2015 and ends on 4 December 2015 and the knock-out stage starts on 3 February 2016 and ends on 28 February 2016. The 2015-16 Ranji Trophy will be followed by the Vijay Hazare Trophy, Syed Mushtaq Ali Trophy and Deodhar Trophy. The final was contested by Saurashtra and Mumbai, a repeat of the 2012-13 final. Mumbai won the match by an innings and 21 runs to claim their 41st title."
  },
  "1990\u201391_European_Cup_5": {
    "url": "https://en.wikipedia.org/wiki/1990\u201391_European_Cup",
    "title": "1990\u201391 European Cup",
    "header": [
      [
        "Rank",
        []
      ],
      [
        "Name",
        []
      ],
      [
        "Team",
        []
      ],
      [
        "Goals",
        []
      ]
    ],
    "data": [
      [
        [
          "1",
          []
        ],
        [
          "Peter Pacult",
          [
            "/wiki/Peter_Pacult"
          ]
        ],
        [
          "Swarovski Tirol",
          [
            "/wiki/FC_Swarovski_Tirol"
          ]
        ],
        [
          "6",
          []
        ]
      ],
      [
        [
          "1",
          []
        ],
        [
          "Jean-Pierre Papin",
          [
            "/wiki/Jean-Pierre_Papin"
          ]
        ],
        [
          "Olympique Marseille",
          [
            "/wiki/Olympique_de_Marseille"
          ]
        ],
        [
          "6",
          []
        ]
      ],
      [
        [
          "3",
          []
        ],
        [
          "Torsten G\u00fctschow",
          [
            "/wiki/Torsten_G\u00fctschow"
          ]
        ],
        [
          "Dynamo Dresden",
          [
            "/wiki/Dynamo_Dresden"
          ]
        ],
        [
          "5",
          []
        ]
      ],
      [
        [
          "3",
          []
        ],
        [
          "Mo Johnston",
          [
            "/wiki/Mo_Johnston"
          ]
        ],
        [
          "Rangers",
          [
            "/wiki/Rangers_F.C."
          ]
        ],
        [
          "5",
          []
        ]
      ],
      [
        [
          "3",
          []
        ],
        [
          "Sebasti\u00e1n Losada",
          [
            "/wiki/Sebasti\u00e1n_Losada"
          ]
        ],
        [
          "Real Madrid",
          [
            "/wiki/Real_Madrid_CF"
          ]
        ],
        [
          "5",
          []
        ]
      ],
      [
        [
          "3",
          []
        ],
        [
          "Darko Pan\u010dev",
          [
            "/wiki/Darko_Pan\u010dev"
          ]
        ],
        [
          "Red Star Belgrade",
          [
            "/wiki/Red_Star_Belgrade"
          ]
        ],
        [
          "5",
          []
        ]
      ],
      [
        [
          "3",
          []
        ],
        [
          "Hugo S\u00e1nchez",
          [
            "/wiki/Hugo_S\u00e1nchez"
          ]
        ],
        [
          "Real Madrid",
          [
            "/wiki/Real_Madrid_CF"
          ]
        ],
        [
          "5",
          []
        ]
      ],
      [
        [
          "3",
          []
        ],
        [
          "Philippe Vercruysse",
          [
            "/wiki/Philippe_Vercruysse"
          ]
        ],
        [
          "Olympique Marseille",
          [
            "/wiki/Olympique_de_Marseille"
          ]
        ],
        [
          "5",
          []
        ]
      ],
      [
        [
          "9",
          []
        ],
        [
          "Emilio Butrague\u00f1o",
          [
            "/wiki/Emilio_Butrague\u00f1o"
          ]
        ],
        [
          "Real Madrid",
          [
            "/wiki/Real_Madrid_CF"
          ]
        ],
        [
          "4",
          []
        ]
      ],
      [
        [
          "9",
          []
        ],
        [
          "Rabah Madjer",
          [
            "/wiki/Rabah_Madjer"
          ]
        ],
        [
          "Porto",
          [
            "/wiki/FC_Porto"
          ]
        ],
        [
          "4",
          []
        ]
      ],
      [
        [
          "9",
          []
        ],
        [
          "Robert Prosine\u010dki",
          [
            "/wiki/Robert_Prosine\u010dki"
          ]
        ],
        [
          "Red Star Belgrade",
          [
            "/wiki/Red_Star_Belgrade"
          ]
        ],
        [
          "4",
          []
        ]
      ]
    ],
    "section_title": "Top scorers",
    "section_text": "The top scorers from the 1990\u201391 European Cup are as follows :",
    "uid": "1990\u201391_European_Cup_5",
    "intro": "The 1990-91 European Cup was the 36th season of the European Cup, a tournament for men's football clubs in nations affiliated to the Union of European Football Associations (UEFA). It was won for the first time by Red Star Belgrade on penalties in the final against Marseille; both were first-time finalists. This was only the second time that an Eastern European side had won the competition, after Steaua Bucure\u0219ti of Romania in 1986. It was also the last tournament to be solely knock-out based, with a group stage added for the next season. Red Star won the tournament as the only Yugoslavian club shortly before the breakup of Yugoslavia. This was also the last season to feature a team from East Germany, since the East and its West counterpart reunified in October 1990. This tournament would have marked the return of English clubs after a five-year ban resulting from the Heysel Stadium disaster in 1985 but English champions Liverpool had been banned for an additional year, so could not participate. Ajax, the Dutch champions, were not allowed to participate in a European Cup competition because of the poor behaviour of their fans during a game the previous season, so their spot in the qualification was simply vacated, giving Milan a first-round bye. Milan were the defending champions and were given a bye to the second round due to the absence of both an English and a Dutch side in the tournament, before being eliminated by Marseille in the quarter-finals after the second leg had been awarded as a 3-0 win for Marseille when the eventual runners-up were leading 1-0, and 2-1 on aggregate, in injury time, when the floodlights failed. Milan refused to play on when floodlights were fixed and were banned, giving Marseille a 3-0 automatic win."
  },
  "2004\u201305_Coppa_Italia_16": {
    "url": "https://en.wikipedia.org/wiki/2004\u201305_Coppa_Italia",
    "title": "2004\u201305 Coppa Italia",
    "header": [
      [
        "Team # 1",
        []
      ],
      [
        "Team # 2",
        []
      ],
      [
        "Results",
        []
      ]
    ],
    "data": [
      [
        [
          "Acireale",
          [
            "/wiki/S.S.D._Acireale_Calcio_1946"
          ]
        ],
        [
          "Crotone",
          [
            "/wiki/F.C._Crotone"
          ]
        ],
        [
          "1-1",
          []
        ]
      ],
      [
        [
          "Bari",
          [
            "/wiki/S.S.C._Bari"
          ]
        ],
        [
          "Messina",
          [
            "/wiki/A.C.R._Messina"
          ]
        ],
        [
          "1-2",
          []
        ]
      ],
      [
        [
          "Crotone",
          [
            "/wiki/F.C._Crotone"
          ]
        ],
        [
          "Bari",
          [
            "/wiki/S.S.C._Bari"
          ]
        ],
        [
          "4-0",
          []
        ]
      ],
      [
        [
          "Messina",
          [
            "/wiki/A.C.R._Messina"
          ]
        ],
        [
          "Acireale",
          [
            "/wiki/S.S.D._Acireale_Calcio_1946"
          ]
        ],
        [
          "4-0",
          []
        ]
      ],
      [
        [
          "Bari",
          [
            "/wiki/S.S.C._Bari"
          ]
        ],
        [
          "Acireale",
          [
            "/wiki/S.S.D._Acireale_Calcio_1946"
          ]
        ],
        [
          "2-1",
          []
        ]
      ],
      [
        [
          "Crotone",
          [
            "/wiki/F.C._Crotone"
          ]
        ],
        [
          "Messina",
          [
            "/wiki/A.C.R._Messina"
          ]
        ],
        [
          "0-1",
          []
        ]
      ]
    ],
    "section_title": "Group stage -- Group 8",
    "section_text": "Pos Team Pld W D L GF GA GD Pts 1 Messina 3 3 0 0 7 1 +6 9 2 Crotone 3 1 1 1 5 2 +3 4 3 Bari 3 1 0 2 3 7 \u22124 3 4 Acireale 3 0 1 2 2 6 \u22124 1",
    "uid": "2004\u201305_Coppa_Italia_16",
    "intro": "The 2004-05 Coppa Italia was the 58th edition of the Italian football tournament. Roma and Internazionale were the finalists. Inter won the tournament by a score of 3-0 aggregate in the final."
  },
  "1965\u201366_European_Cup_1": {
    "url": "https://en.wikipedia.org/wiki/1965\u201366_European_Cup",
    "title": "1965\u201366 European Cup",
    "header": [
      [
        "Team 1",
        []
      ],
      [
        "Agg",
        [
          "/wiki/Playoff_format"
        ]
      ],
      [
        "Team 2",
        []
      ],
      [
        "1st leg",
        []
      ],
      [
        "2nd leg",
        []
      ]
    ],
    "data": [
      [
        [
          "Anderlecht",
          [
            "/wiki/R.S.C._Anderlecht"
          ]
        ],
        [
          "9-0",
          []
        ],
        [
          "Derry City",
          [
            "/wiki/Derry_City_F.C."
          ]
        ],
        [
          "9-0",
          []
        ],
        [
          "( w/o )",
          []
        ]
      ],
      [
        [
          "Kilmarnock",
          [
            "/wiki/Kilmarnock_F.C."
          ]
        ],
        [
          "3-7",
          []
        ],
        [
          "Real Madrid",
          [
            "/wiki/Real_Madrid_CF"
          ]
        ],
        [
          "2-2",
          []
        ],
        [
          "1-5",
          []
        ]
      ],
      [
        [
          "Dinamo Bucure\u0219ti",
          [
            "/wiki/FC_Dinamo_Bucure\u0219ti"
          ]
        ],
        [
          "2-3",
          []
        ],
        [
          "Internazionale",
          [
            "/wiki/Inter_Milan"
          ]
        ],
        [
          "2-1",
          []
        ],
        [
          "0-2",
          []
        ]
      ],
      [
        [
          "Ferencv\u00e1ros",
          [
            "/wiki/Ferencv\u00e1rosi_TC"
          ]
        ],
        [
          "3-1",
          []
        ],
        [
          "Panathinaikos",
          [
            "/wiki/Panathinaikos_F.C."
          ]
        ],
        [
          "0-0",
          []
        ],
        [
          "3-1",
          []
        ]
      ],
      [
        [
          "Sparta Prague",
          [
            "/wiki/AC_Sparta_Prague"
          ]
        ],
        [
          "5-1",
          []
        ],
        [
          "G\u00f3rnik Zabrze",
          [
            "/wiki/G\u00f3rnik_Zabrze"
          ]
        ],
        [
          "3-0",
          []
        ],
        [
          "2-1",
          []
        ]
      ],
      [
        [
          "Partizan",
          [
            "/wiki/FK_Partizan"
          ]
        ],
        [
          "3-1",
          []
        ],
        [
          "Werder Bremen",
          [
            "/wiki/SV_Werder_Bremen"
          ]
        ],
        [
          "3-0",
          []
        ],
        [
          "0-1",
          []
        ]
      ],
      [
        [
          "Vorw\u00e4rts Berlin",
          [
            "/wiki/1._FC_Frankfurt"
          ]
        ],
        [
          "1-5",
          []
        ],
        [
          "Manchester United",
          [
            "/wiki/Manchester_United_F.C."
          ]
        ],
        [
          "0-2",
          []
        ],
        [
          "1-3",
          []
        ]
      ],
      [
        [
          "Levski Sofia",
          [
            "/wiki/PFC_Levski_Sofia"
          ]
        ],
        [
          "4-5",
          []
        ],
        [
          "Benfica",
          [
            "/wiki/S.L._Benfica"
          ]
        ],
        [
          "2-2",
          []
        ],
        [
          "2-3",
          []
        ]
      ]
    ],
    "section_title": "First round",
    "section_text": "",
    "uid": "1965\u201366_European_Cup_1",
    "intro": "The 1965-66 season of the European Cup football club tournament was won by Real Madrid, winners of the first five European Cups from 1956 to 1960, for the sixth time in a close final against Partizan. Real Madrid eliminated title-holders Internazionale in the semi-finals."
  },
  "1969\u201370_European_Cup_2": {
    "url": "https://en.wikipedia.org/wiki/1969\u201370_European_Cup",
    "title": "1969\u201370 European Cup",
    "header": [
      [
        "Team 1",
        []
      ],
      [
        "Agg",
        [
          "/wiki/Playoff_format"
        ]
      ],
      [
        "Team 2",
        []
      ],
      [
        "1st leg",
        []
      ],
      [
        "2nd leg",
        []
      ]
    ],
    "data": [
      [
        [
          "Spartak Trnava",
          [
            "/wiki/FC_Spartak_Trnava"
          ]
        ],
        [
          "1-1 ( c/t )",
          [
            "/wiki/Coin_flipping"
          ]
        ],
        [
          "Galatasaray",
          [
            "/wiki/Galatasaray_S.K._(football)"
          ]
        ],
        [
          "1-0",
          []
        ],
        [
          "0-1",
          []
        ]
      ],
      [
        [
          "Legia Warsaw",
          [
            "/wiki/Legia_Warsaw"
          ]
        ],
        [
          "3-1",
          []
        ],
        [
          "Saint-\u00c9tienne",
          [
            "/wiki/AS_Saint-\u00c9tienne"
          ]
        ],
        [
          "2-1",
          []
        ],
        [
          "1-0",
          []
        ]
      ],
      [
        [
          "Vorw\u00e4rts Berlin",
          [
            "/wiki/1._FC_Frankfurt"
          ]
        ],
        [
          "4-4 ( a )",
          [
            "/wiki/Away_goals_rule"
          ]
        ],
        [
          "Red Star Belgrade",
          [
            "/wiki/Red_Star_Belgrade"
          ]
        ],
        [
          "2-1",
          []
        ],
        [
          "2-3",
          []
        ]
      ],
      [
        [
          "Milan",
          [
            "/wiki/A.C._Milan"
          ]
        ],
        [
          "1-2",
          []
        ],
        [
          "Feyenoord",
          [
            "/wiki/Feyenoord"
          ]
        ],
        [
          "1-0",
          []
        ],
        [
          "0-2",
          []
        ]
      ],
      [
        [
          "Standard Li\u00e8ge",
          [
            "/wiki/Standard_Li\u00e8ge"
          ]
        ],
        [
          "4-2",
          []
        ],
        [
          "Real Madrid",
          [
            "/wiki/Real_Madrid_CF"
          ]
        ],
        [
          "1-0",
          []
        ],
        [
          "3-2",
          []
        ]
      ],
      [
        [
          "Leeds United",
          [
            "/wiki/Leeds_United_F.C."
          ]
        ],
        [
          "6-0",
          []
        ],
        [
          "Ferencv\u00e1ros",
          [
            "/wiki/Ferencv\u00e1rosi_TC"
          ]
        ],
        [
          "3-0",
          []
        ],
        [
          "3-0",
          []
        ]
      ],
      [
        [
          "Celtic",
          [
            "/wiki/Celtic_F.C."
          ]
        ],
        [
          "3-3 ( c/t )",
          [
            "/wiki/Coin_flipping"
          ]
        ],
        [
          "Benfica",
          [
            "/wiki/S.L._Benfica"
          ]
        ],
        [
          "3-0",
          []
        ],
        [
          "0-3",
          []
        ]
      ],
      [
        [
          "Dynamo Kyiv",
          [
            "/wiki/FC_Dynamo_Kyiv"
          ]
        ],
        [
          "1-2",
          []
        ],
        [
          "Fiorentina",
          [
            "/wiki/ACF_Fiorentina"
          ]
        ],
        [
          "1-2",
          []
        ],
        [
          "0-0",
          []
        ]
      ]
    ],
    "section_title": "Second round",
    "section_text": "",
    "uid": "1969\u201370_European_Cup_2",
    "intro": "The 1969-70 European Cup football club tournament was won by Feyenoord in an extra time final victory against Celtic. It was the first time the cup was won by a Dutch club, as well as the first of four-straight years the tournament would be won by Dutch clubs. During this tournament, tiebreaker playoffs were abandoned in favour of away goals; if both teams had scored the same number of away goals, one side was eliminated by the toss of a coin, something that was required in two of the matches (marked on the table below by c/t). Milan, the defending champions, were eliminated by Feyenoord in the second round."
  },
  "1963\u201364_Copa_M\u00e9xico_0": {
    "url": "https://en.wikipedia.org/wiki/1963\u201364_Copa_M\u00e9xico",
    "title": "1963\u201364 Copa M\u00e9xico",
    "header": [
      [
        "Team 1",
        []
      ],
      [
        "Agg",
        [
          "/wiki/Playoff_format"
        ]
      ],
      [
        "Team 2",
        []
      ],
      [
        "1st leg",
        []
      ],
      [
        "2nd leg",
        []
      ]
    ],
    "data": [
      [
        [
          "Monterrey",
          [
            "/wiki/C.F._Monterrey"
          ]
        ],
        [
          "5-1",
          []
        ],
        [
          "Ciudad Madero",
          [
            "/wiki/Petroleros_de_Ciudad_Madero"
          ]
        ],
        [
          "2-0",
          []
        ],
        [
          "3-1",
          []
        ]
      ],
      [
        [
          "Tampico",
          [
            "/wiki/Jaibos_Tampico_Madero"
          ]
        ],
        [
          "2-5",
          []
        ],
        [
          "Nuevo Le\u00f3n",
          [
            "/wiki/C.F._Jabatos_de_Nuevo_Le\u00f3n"
          ]
        ],
        [
          "0-2",
          []
        ],
        [
          "2-3",
          []
        ]
      ],
      [
        [
          "Necaxa",
          [
            "/wiki/Club_Necaxa"
          ]
        ],
        [
          "4-1",
          []
        ],
        [
          "Cruz Azul",
          [
            "/wiki/Cruz_Azul"
          ]
        ],
        [
          "1-0",
          []
        ],
        [
          "3-1",
          []
        ]
      ],
      [
        [
          "Irapuato",
          [
            "/wiki/Irapuato_FC"
          ]
        ],
        [
          "10-1",
          []
        ],
        [
          "La Piedad",
          [
            "/wiki/C.F._La_Piedad"
          ]
        ],
        [
          "7-1",
          []
        ],
        [
          "3-0",
          []
        ]
      ],
      [
        [
          "Poza Rica F.C",
          []
        ],
        [
          "3-0",
          []
        ],
        [
          "Ciudad Victoria F.C",
          []
        ],
        [
          "1-0",
          []
        ],
        [
          "2-0",
          []
        ]
      ],
      [
        [
          "Pachuca",
          [
            "/wiki/C.F._Pachuca"
          ]
        ],
        [
          "0-1",
          []
        ],
        [
          "Atlante F.C",
          [
            "/wiki/Atlante_F.C."
          ]
        ],
        [
          "0-1",
          []
        ],
        [
          "unk",
          []
        ]
      ],
      [
        [
          "Orizaba",
          [
            "/wiki/Albinegros_de_Orizaba"
          ]
        ],
        [
          "4-2",
          []
        ],
        [
          "Veracruz",
          [
            "/wiki/C.D._Veracruz"
          ]
        ],
        [
          "4-1",
          []
        ],
        [
          "0-1",
          []
        ]
      ],
      [
        [
          "Morelia",
          [
            "/wiki/Monarcas_Morelia"
          ]
        ],
        [
          "1-3",
          []
        ],
        [
          "Le\u00f3n",
          [
            "/wiki/Club_Le\u00f3n"
          ]
        ],
        [
          "1-1",
          []
        ],
        [
          "0-2",
          []
        ]
      ],
      [
        [
          "Laguna",
          [
            "/wiki/San_Isidro_Laguna"
          ]
        ],
        [
          "2-0",
          []
        ],
        [
          "Torre\u00f3n",
          [
            "/wiki/C.F._Torre\u00f3n"
          ]
        ],
        [
          "1-0",
          []
        ],
        [
          "1-0",
          []
        ]
      ],
      [
        [
          "Tepic",
          [
            "/wiki/Coras_de_Nayarit_F.C."
          ]
        ],
        [
          "3-6",
          []
        ],
        [
          "Guadalajara",
          [
            "/wiki/C.D._Guadalajara"
          ]
        ],
        [
          "3-3",
          []
        ],
        [
          "0-3",
          []
        ]
      ],
      [
        [
          "Texcoco F.C",
          []
        ],
        [
          "1-6",
          []
        ],
        [
          "Toluca",
          [
            "/wiki/Deportivo_Toluca_F.C."
          ]
        ],
        [
          "1-1",
          []
        ],
        [
          "0-5",
          []
        ]
      ],
      [
        [
          "Zacatepec",
          [
            "/wiki/Atl\u00e9tico_Zacatepec"
          ]
        ],
        [
          "2-1",
          []
        ],
        [
          "UNAM",
          [
            "/wiki/Club_Universidad_Nacional"
          ]
        ],
        [
          "1-0",
          []
        ],
        [
          "1-1",
          []
        ]
      ],
      [
        [
          "Nacional",
          [
            "/wiki/Club_Deportivo_Nacional"
          ]
        ],
        [
          "5-3",
          []
        ],
        [
          "Zamora",
          [
            "/wiki/Club_Deportivo_Zamora"
          ]
        ],
        [
          "3-1",
          []
        ],
        [
          "2-2",
          []
        ]
      ],
      [
        [
          "Celaya",
          [
            "/wiki/Atl\u00e9tico_Celaya"
          ]
        ],
        [
          "1-4",
          []
        ],
        [
          "Oro",
          [
            "/wiki/CD_Oro"
          ]
        ],
        [
          "1-1",
          []
        ],
        [
          "0-3",
          []
        ]
      ]
    ],
    "section_title": "First round",
    "section_text": "Am\u00e9rica and Atlas bye to next round",
    "uid": "1963\u201364_Copa_M\u00e9xico_0",
    "intro": "The Copa M\u00e9xico 1963-64 also known as the Copa Presidente Adolfo Lopez Mateo is the 48th staging of the Copa M\u00e9xico, a Mexican football cup competition that existed from 1907 to 1997, but the 21st staging in the professional era. The competition started on February 23, 1964, and concluded on April 21, 1964, with the Final, held at the Estadio Ol\u00edmpico Universitario in Mexico City, in which Am\u00e9rica lifted the trophy for the third time ever with a 6-5 victory over Monterrey in penalty kicks."
  },
  "1983\u201384_European_Cup_1": {
    "url": "https://en.wikipedia.org/wiki/1983\u201384_European_Cup",
    "title": "1983\u201384 European Cup",
    "header": [
      [
        "Team 1",
        []
      ],
      [
        "Agg",
        [
          "/wiki/Playoff_format"
        ]
      ],
      [
        "Team 2",
        []
      ],
      [
        "1st leg",
        []
      ],
      [
        "2nd leg",
        []
      ]
    ],
    "data": [
      [
        [
          "Liverpool",
          [
            "/wiki/Liverpool_F.C."
          ]
        ],
        [
          "1-0",
          []
        ],
        [
          "Athletic Bilbao",
          [
            "/wiki/Athletic_Bilbao"
          ]
        ],
        [
          "0-0",
          []
        ],
        [
          "1-0",
          []
        ]
      ],
      [
        [
          "Olympiacos",
          [
            "/wiki/Olympiacos_F.C."
          ]
        ],
        [
          "1-3",
          []
        ],
        [
          "Benfica",
          [
            "/wiki/S.L._Benfica"
          ]
        ],
        [
          "1-0",
          []
        ],
        [
          "0-3",
          []
        ]
      ],
      [
        [
          "R\u00e1ba ETO Gy\u0151r",
          [
            "/wiki/Gy\u0151ri_ETO_FC"
          ]
        ],
        [
          "4-9",
          []
        ],
        [
          "Dinamo Minsk",
          [
            "/wiki/FC_Dinamo_Minsk"
          ]
        ],
        [
          "3-6",
          []
        ],
        [
          "1-3",
          []
        ]
      ],
      [
        [
          "Dinamo Bucure\u0219ti",
          [
            "/wiki/FC_Dinamo_Bucure\u0219ti"
          ]
        ],
        [
          "5-3",
          []
        ],
        [
          "Hamburg",
          [
            "/wiki/Hamburger_SV"
          ]
        ],
        [
          "3-0",
          []
        ],
        [
          "2-3",
          []
        ]
      ],
      [
        [
          "Bohemians Prague",
          [
            "/wiki/Bohemians_1905"
          ]
        ],
        [
          "2-2 ( a )",
          [
            "/wiki/Away_goals_rule"
          ]
        ],
        [
          "Rapid Wien",
          [
            "/wiki/SK_Rapid_Wien"
          ]
        ],
        [
          "2-1",
          []
        ],
        [
          "0-1",
          []
        ]
      ],
      [
        [
          "Standard Li\u00e8ge",
          [
            "/wiki/Standard_Li\u00e8ge"
          ]
        ],
        [
          "0-4",
          []
        ],
        [
          "Dundee United",
          [
            "/wiki/Dundee_United_F.C."
          ]
        ],
        [
          "0-0",
          []
        ],
        [
          "0-4",
          []
        ]
      ],
      [
        [
          "CSKA Sofia",
          [
            "/wiki/PFC_CSKA_Sofia"
          ]
        ],
        [
          "0-2",
          []
        ],
        [
          "Roma",
          [
            "/wiki/A.S._Roma"
          ]
        ],
        [
          "0-1",
          []
        ],
        [
          "0-1",
          []
        ]
      ],
      [
        [
          "BFC Dynamo",
          [
            "/wiki/Berliner_FC_Dynamo"
          ]
        ],
        [
          "2-1",
          []
        ],
        [
          "Partizan",
          [
            "/wiki/FK_Partizan"
          ]
        ],
        [
          "2-0",
          []
        ],
        [
          "0-1",
          []
        ]
      ]
    ],
    "section_title": "Second round",
    "section_text": "",
    "uid": "1983\u201384_European_Cup_1",
    "intro": "The 1983-84 season of the European Cup football club tournament was won for a fourth time by Liverpool in a penalty shootout in the final against Roma. The game had finished 1-1. Phil Neal had scored for Liverpool and Roberto Pruzzo for Roma. It was the seventh title in eight seasons for English clubs. Hamburg, the defending champions, were eliminated by Dinamo Bucure\u0219ti in the second round."
  },
  "2005\u201306_Scottish_Cup_3": {
    "url": "https://en.wikipedia.org/wiki/2005\u201306_Scottish_Cup",
    "title": "2005\u201306 Scottish Cup",
    "header": [
      [
        "Home team",
        []
      ],
      [
        "Score",
        []
      ],
      [
        "Away team",
        []
      ]
    ],
    "data": [
      [
        [
          "Alloa Athletic",
          [
            "/wiki/Alloa_Athletic_F.C."
          ]
        ],
        [
          "1 - 0",
          []
        ],
        [
          "Montrose",
          [
            "/wiki/Montrose_F.C."
          ]
        ]
      ],
      [
        [
          "Arbroath",
          [
            "/wiki/Arbroath_F.C."
          ]
        ],
        [
          "1 - 0",
          []
        ],
        [
          "Dumbarton",
          [
            "/wiki/Dumbarton_F.C."
          ]
        ]
      ],
      [
        [
          "Ayr United",
          [
            "/wiki/Ayr_United_F.C."
          ]
        ],
        [
          "3 - 2",
          []
        ],
        [
          "Greenock Morton",
          [
            "/wiki/Greenock_Morton_F.C."
          ]
        ]
      ],
      [
        [
          "East Fife",
          [
            "/wiki/East_Fife_F.C."
          ]
        ],
        [
          "0 - 3",
          []
        ],
        [
          "Peterhead",
          [
            "/wiki/Peterhead_F.C."
          ]
        ]
      ],
      [
        [
          "Gretna",
          [
            "/wiki/Gretna_F.C."
          ]
        ],
        [
          "6 - 1",
          []
        ],
        [
          "Cove Rangers",
          [
            "/wiki/Cove_Rangers_F.C."
          ]
        ]
      ],
      [
        [
          "Lossiemouth",
          [
            "/wiki/Lossiemouth_F.C."
          ]
        ],
        [
          "0 - 5",
          []
        ],
        [
          "Spartans",
          [
            "/wiki/Spartans_F.C."
          ]
        ]
      ],
      [
        [
          "Queen 's Park",
          [
            "/wiki/Queen's_Park_F.C."
          ]
        ],
        [
          "2 - 0",
          []
        ],
        [
          "Raith Rovers",
          [
            "/wiki/Raith_Rovers_F.C."
          ]
        ]
      ],
      [
        [
          "Stenhousemuir",
          [
            "/wiki/Stenhousemuir_F.C."
          ]
        ],
        [
          "1 - 4",
          []
        ],
        [
          "Partick Thistle",
          [
            "/wiki/Partick_Thistle_F.C."
          ]
        ]
      ],
      [
        [
          "Stirling Albion",
          [
            "/wiki/Stirling_Albion_F.C."
          ]
        ],
        [
          "1 - 0",
          []
        ],
        [
          "Inverurie Loco Works",
          [
            "/wiki/Inverurie_Loco_Works_F.C."
          ]
        ]
      ],
      [
        [
          "Threave Rovers",
          [
            "/wiki/Threave_Rovers_F.C."
          ]
        ],
        [
          "0 - 4",
          []
        ],
        [
          "Forfar Athletic",
          [
            "/wiki/Forfar_Athletic_F.C."
          ]
        ]
      ]
    ],
    "section_title": "Second round",
    "section_text": "",
    "uid": "2005\u201306_Scottish_Cup_3",
    "intro": "The 2005-06 Scottish Cup was the 121st season of Scotland's most prestigious football knockout competition, also known for sponsorship reasons as the Tennent's Scottish Cup. The Cup was won by SPL club Heart of Midlothian who defeated Second Division side Gretna on penalties after a 1-1 draw in the final. Hearts became the first non-Old Firm club to win the Cup since they themselves won it in 1997-98. Gretna earned a place in the UEFA Cup with Hearts having already qualified for the Champions League via the SPL. A major shock occurred in the third round when First Division side Clyde defeated Cup holders Celtic 2-1. Rangers were knocked out of at the fourth round stage, losing 3-0 at home to Hibernian. East of Scotland League club Spartans reached the fourth round before eventually losing to St Mirren after a replay."
  },
  "1901\u201302_Scottish_Cup_3": {
    "url": "https://en.wikipedia.org/wiki/1901\u201302_Scottish_Cup",
    "title": "1901\u201302 Scottish Cup",
    "header": [
      [
        "Home team",
        []
      ],
      [
        "Score",
        []
      ],
      [
        "Away team",
        []
      ]
    ],
    "data": [
      [
        [
          "Arbroath",
          [
            "/wiki/Arbroath_F.C."
          ]
        ],
        [
          "2 - 3",
          []
        ],
        [
          "Celtic",
          [
            "/wiki/Celtic_F.C."
          ]
        ]
      ],
      [
        [
          "Falkirk",
          [
            "/wiki/Falkirk_F.C."
          ]
        ],
        [
          "2 - 0",
          []
        ],
        [
          "St Bernard 's",
          [
            "/wiki/St_Bernard's_F.C."
          ]
        ]
      ],
      [
        [
          "Forfar Athletic",
          [
            "/wiki/Forfar_Athletic_F.C."
          ]
        ],
        [
          "1 - 4",
          []
        ],
        [
          "Queen 's Park",
          [
            "/wiki/Queen's_Park_F.C."
          ]
        ]
      ],
      [
        [
          "Heart of Midlothian",
          [
            "/wiki/Heart_of_Midlothian_F.C."
          ]
        ],
        [
          "4 - 1",
          []
        ],
        [
          "3rd Lanark RV",
          [
            "/wiki/Third_Lanark_A.C."
          ]
        ]
      ],
      [
        [
          "Kilmarnock",
          [
            "/wiki/Kilmarnock_F.C."
          ]
        ],
        [
          "2 - 0",
          []
        ],
        [
          "Dundee",
          [
            "/wiki/Dundee_F.C."
          ]
        ]
      ],
      [
        [
          "Port Glasgow Athletic",
          [
            "/wiki/Port_Glasgow_Athletic_F.C."
          ]
        ],
        [
          "1 - 5",
          []
        ],
        [
          "Hibernian",
          [
            "/wiki/Hibernian_F.C."
          ]
        ]
      ],
      [
        [
          "Rangers",
          [
            "/wiki/Rangers_F.C."
          ]
        ],
        [
          "5 - 1",
          []
        ],
        [
          "Inverness Caledonian",
          [
            "/wiki/Caledonian_F.C."
          ]
        ]
      ],
      [
        [
          "St Mirren",
          [
            "/wiki/St_Mirren_F.C."
          ]
        ],
        [
          "6 - 0",
          []
        ],
        [
          "Stenhousemuir",
          [
            "/wiki/Stenhousemuir_F.C."
          ]
        ]
      ]
    ],
    "section_title": "Second round",
    "section_text": "",
    "uid": "1901\u201302_Scottish_Cup_3",
    "intro": "The 1901-02 Scottish Cup was the 29th season of Scotland's most prestigious football knockout competition. The Cup was won by Hibernian, who defeated Celtic 1-0 in the Final. This gave Hibs their second Scottish Cup, a tally they would not add to until 2016. The Final was due to be played at Ibrox on 12 April, but the first Ibrox disaster happened a week earlier during the annual Scotland v England fixture. This meant that the Final was delayed by two weeks and moved to Celtic Park, even though Celtic were one of the finalists."
  },
  "1902\u201303_Scottish_Cup_1": {
    "url": "https://en.wikipedia.org/wiki/1902\u201303_Scottish_Cup",
    "title": "1902\u201303 Scottish Cup",
    "header": [
      [
        "Home team",
        []
      ],
      [
        "Score",
        []
      ],
      [
        "Away team",
        []
      ]
    ],
    "data": [
      [
        [
          "Abercorn",
          [
            "/wiki/Abercorn_F.C."
          ]
        ],
        [
          "2 - 2",
          []
        ],
        [
          "Douglas Wanderers",
          []
        ]
      ],
      [
        [
          "Arbroath",
          [
            "/wiki/Arbroath_F.C."
          ]
        ],
        [
          "1 - 3",
          []
        ],
        [
          "Kilmarnock",
          [
            "/wiki/Kilmarnock_F.C."
          ]
        ]
      ],
      [
        [
          "Ayr",
          [
            "/wiki/Ayr_F.C."
          ]
        ],
        [
          "2 - 0",
          []
        ],
        [
          "Camelon",
          [
            "/wiki/Camelon_Juniors_F.C."
          ]
        ]
      ],
      [
        [
          "Celtic",
          [
            "/wiki/Celtic_F.C."
          ]
        ],
        [
          "0 - 0",
          []
        ],
        [
          "St Mirren",
          [
            "/wiki/St_Mirren_F.C."
          ]
        ]
      ],
      [
        [
          "Clyde",
          [
            "/wiki/Clyde_F.C."
          ]
        ],
        [
          "1 - 2",
          []
        ],
        [
          "Heart of Midlothian",
          [
            "/wiki/Heart_of_Midlothian_F.C."
          ]
        ]
      ],
      [
        [
          "Dundee",
          [
            "/wiki/Dundee_F.C."
          ]
        ],
        [
          "Walkover",
          [
            "/wiki/Walkover"
          ]
        ],
        [
          "Barholm Rovers",
          [
            "/wiki/Barholm_Rovers_F.C."
          ]
        ]
      ],
      [
        [
          "Hamilton Academical",
          [
            "/wiki/Hamilton_Academical_F.C."
          ]
        ],
        [
          "5 - 0",
          []
        ],
        [
          "Airdrieonians",
          [
            "/wiki/Airdrieonians_F.C._(1878)"
          ]
        ]
      ],
      [
        [
          "Hibernian",
          [
            "/wiki/Hibernian_F.C."
          ]
        ],
        [
          "7 - 0",
          []
        ],
        [
          "Greenock Morton",
          [
            "/wiki/Greenock_Morton_F.C."
          ]
        ]
      ],
      [
        [
          "Leith Athletic",
          [
            "/wiki/Leith_Athletic_F.C."
          ]
        ],
        [
          "4 - 1",
          []
        ],
        [
          "Broxburn United",
          [
            "/wiki/Broxburn_United_F.C."
          ]
        ]
      ],
      [
        [
          "Nithsdale Wanderers",
          [
            "/wiki/Nithsdale_Wanderers_F.C."
          ]
        ],
        [
          "1 - 0",
          []
        ],
        [
          "Orion",
          [
            "/wiki/Orion_F.C."
          ]
        ]
      ],
      [
        [
          "Queen 's Park",
          [
            "/wiki/Queen's_Park_F.C."
          ]
        ],
        [
          "1 - 2",
          []
        ],
        [
          "Motherwell",
          [
            "/wiki/Motherwell_F.C."
          ]
        ]
      ],
      [
        [
          "Rangers",
          [
            "/wiki/Rangers_F.C."
          ]
        ],
        [
          "7 - 0",
          []
        ],
        [
          "Auchterarder Thistle",
          []
        ]
      ],
      [
        [
          "St Bernard 's",
          [
            "/wiki/St_Bernard's_F.C."
          ]
        ],
        [
          "1 - 2",
          []
        ],
        [
          "Port Glasgow Athletic",
          [
            "/wiki/Port_Glasgow_Athletic_F.C."
          ]
        ]
      ],
      [
        [
          "Stenhousemuir",
          [
            "/wiki/Stenhousemuir_F.C."
          ]
        ],
        [
          "2 - 1",
          []
        ],
        [
          "Inverness Caledonian",
          [
            "/wiki/Inverness_Caledonian_Thistle_F.C."
          ]
        ]
      ],
      [
        [
          "St Johnstone",
          [
            "/wiki/St_Johnstone_F.C."
          ]
        ],
        [
          "1 - 10",
          []
        ],
        [
          "Third Lanark",
          [
            "/wiki/Third_Lanark_A.C."
          ]
        ]
      ],
      [
        [
          "Vale of Leven",
          [
            "/wiki/Vale_of_Leven_F.C."
          ]
        ],
        [
          "0 - 4",
          []
        ],
        [
          "Partick Thistle",
          [
            "/wiki/Partick_Thistle_F.C."
          ]
        ]
      ]
    ],
    "section_title": "First round",
    "section_text": "",
    "uid": "1902\u201303_Scottish_Cup_1",
    "intro": "The 1902-03 Scottish Cup was the 30th season of Scotland's most prestigious football knockout competition. The Cup was won by Rangers when they beat Heart of Midlothian 2-0 in the final after two replays."
  },
  "2012\u201313_Top_14_season_0": {
    "url": "https://en.wikipedia.org/wiki/2012\u201313_Top_14_season",
    "title": "2012\u201313 Top 14 season",
    "header": [
      [
        "Club",
        []
      ],
      [
        "Full name",
        []
      ],
      [
        "City ( department )",
        []
      ],
      [
        "Stadium",
        []
      ]
    ],
    "data": [
      [
        [
          "SU Agen",
          [
            "/wiki/SU_Agen_Lot-et-Garonne"
          ]
        ],
        [
          "Sporting Union Agen Lot-et-Garonne",
          []
        ],
        [
          "Agen ( Lot-et-Garonne )",
          [
            "/wiki/Agen",
            "/wiki/Lot-et-Garonne"
          ]
        ],
        [
          "Stade Armandie",
          [
            "/wiki/Stade_Armandie"
          ]
        ]
      ],
      [
        [
          "Aviron Bayonnais",
          [
            "/wiki/Aviron_Bayonnais"
          ]
        ],
        [
          "Aviron Bayonnais",
          []
        ],
        [
          "Bayonne ( Pyr\u00e9n\u00e9es-Atlantiques )",
          [
            "/wiki/Bayonne",
            "/wiki/Pyr\u00e9n\u00e9es-Atlantiques"
          ]
        ],
        [
          "Stade Jean Dauger",
          [
            "/wiki/Stade_Jean_Dauger"
          ]
        ]
      ],
      [
        [
          "Biarritz Olympique",
          [
            "/wiki/Biarritz_Olympique"
          ]
        ],
        [
          "Biarritz Olympique Pays Basque",
          []
        ],
        [
          "Biarritz ( Pyr\u00e9n\u00e9es-Atlantiques )",
          [
            "/wiki/Biarritz",
            "/wiki/Pyr\u00e9n\u00e9es-Atlantiques"
          ]
        ],
        [
          "Parc des Sports Aguil\u00e9ra",
          [
            "/wiki/Parc_des_Sports_Aguil\u00e9ra"
          ]
        ]
      ],
      [
        [
          "Union Bordeaux B\u00e8gles",
          [
            "/wiki/Union_Bordeaux_B\u00e8gles"
          ]
        ],
        [
          "Union Bordeaux B\u00e8gles",
          []
        ],
        [
          "Bordeaux ( Gironde )",
          [
            "/wiki/Bordeaux",
            "/wiki/Gironde"
          ]
        ],
        [
          "Stade Chaban-Delmas ( Bordeaux ) Stade Andr\u00e9 Moga ( B\u00e8gles )",
          [
            "/wiki/Stade_Chaban-Delmas",
            "/wiki/Bordeaux",
            "/wiki/Stade_Andr\u00e9_Moga",
            "/wiki/B\u00e8gles"
          ]
        ]
      ],
      [
        [
          "Castres Olympique",
          [
            "/wiki/Castres_Olympique"
          ]
        ],
        [
          "Castres Olympique",
          []
        ],
        [
          "Castres ( Tarn )",
          [
            "/wiki/Castres",
            "/wiki/Tarn_(department)"
          ]
        ],
        [
          "Stade Pierre-Antoine",
          [
            "/wiki/Stade_Pierre-Fabre"
          ]
        ]
      ],
      [
        [
          "ASM Clermont Auvergne",
          [
            "/wiki/ASM_Clermont_Auvergne"
          ]
        ],
        [
          "Association Sportive Montferrandaise Clermont Auvergne",
          []
        ],
        [
          "Clermont-Ferrand ( Puy-de-D\u00f4me )",
          [
            "/wiki/Clermont-Ferrand",
            "/wiki/Puy-de-D\u00f4me"
          ]
        ],
        [
          "Parc des Sports Marcel Michelin",
          [
            "/wiki/Parc_des_Sports_Marcel_Michelin"
          ]
        ]
      ],
      [
        [
          "FC Grenoble",
          [
            "/wiki/FC_Grenoble"
          ]
        ],
        [
          "Football Club Grenoble Rugby",
          []
        ],
        [
          "Grenoble ( Is\u00e8re )",
          [
            "/wiki/Grenoble",
            "/wiki/Is\u00e8re"
          ]
        ],
        [
          "Stade Lesdigui\u00e8res",
          [
            "/wiki/Stade_Lesdigui\u00e8res"
          ]
        ]
      ],
      [
        [
          "Stade Montois",
          [
            "/wiki/Stade_Montois"
          ]
        ],
        [
          "Stade Montois",
          []
        ],
        [
          "Mont-de-Marsan ( Landes )",
          [
            "/wiki/Mont-de-Marsan",
            "/wiki/Landes_(department)"
          ]
        ],
        [
          "Stade Guy Boniface",
          [
            "/wiki/Stade_Guy_Boniface"
          ]
        ]
      ],
      [
        [
          "Montpellier H\u00e9rault Rugby",
          [
            "/wiki/Montpellier_H\u00e9rault_Rugby"
          ]
        ],
        [
          "Montpellier H\u00e9rault Rugby",
          []
        ],
        [
          "Montpellier ( H\u00e9rault )",
          [
            "/wiki/Montpellier",
            "/wiki/H\u00e9rault"
          ]
        ],
        [
          "Stade Yves-du-Manoir",
          [
            "/wiki/Altrad_Stadium"
          ]
        ]
      ],
      [
        [
          "USA Perpignan",
          [
            "/wiki/USA_Perpignan"
          ]
        ],
        [
          "Union Sportive Arlequins Perpignanais",
          []
        ],
        [
          "Perpignan ( Pyr\u00e9n\u00e9es-Orientales )",
          [
            "/wiki/Perpignan",
            "/wiki/Pyr\u00e9n\u00e9es-Orientales"
          ]
        ],
        [
          "Stade Aim\u00e9 Giral",
          [
            "/wiki/Stade_Aim\u00e9_Giral"
          ]
        ]
      ],
      [
        [
          "Racing M\u00e9tro",
          [
            "/wiki/Racing_92"
          ]
        ],
        [
          "Racing M\u00e9tro 92",
          []
        ],
        [
          "Colombes ( Hauts-de-Seine )",
          [
            "/wiki/Colombes",
            "/wiki/Hauts-de-Seine"
          ]
        ],
        [
          "Stade Olympique Yves-du-Manoir",
          [
            "/wiki/Stade_Olympique_Yves-du-Manoir"
          ]
        ]
      ],
      [
        [
          "Stade Fran\u00e7ais Paris",
          [
            "/wiki/Stade_Fran\u00e7ais"
          ]
        ],
        [
          "Stade Fran\u00e7ais Club Athl\u00e9tique des Sports G\u00e9n\u00e9raux Paris",
          []
        ],
        [
          "Paris , 16th arrondissement",
          [
            "/wiki/16th_arrondissement_of_Paris"
          ]
        ],
        [
          "Stade Charl\u00e9ty",
          [
            "/wiki/Stade_S\u00e9bastien_Charl\u00e9ty"
          ]
        ]
      ],
      [
        [
          "RC Toulonnais",
          [
            "/wiki/RC_Toulonnais"
          ]
        ],
        [
          "Rugby Club Toulonnais",
          []
        ],
        [
          "Toulon ( Var )",
          [
            "/wiki/Toulon",
            "/wiki/Var_(department)"
          ]
        ],
        [
          "Stade Mayol",
          [
            "/wiki/Stade_Mayol"
          ]
        ]
      ],
      [
        [
          "Stade Toulousain",
          [
            "/wiki/Stade_Toulousain"
          ]
        ],
        [
          "Stade Toulousain",
          []
        ],
        [
          "Toulouse ( Haute-Garonne )",
          [
            "/wiki/Toulouse",
            "/wiki/Haute-Garonne"
          ]
        ],
        [
          "Stade Ernest-Wallon",
          [
            "/wiki/Stade_Ernest-Wallon"
          ]
        ]
      ]
    ],
    "section_title": "Teams",
    "section_text": "AgenBayonneBiarritzBordeaux B\u00e8glesCastresClermontGrenobleMont-de-MarsanMontpellierPerpignanRacing M\u00e9troStade Fran\u00e7aisToulonToulouse Locations of the 2012\u201313 Top 14 teams",
    "uid": "2012\u201313_Top_14_season_0",
    "intro": "The 2012-13 Top 14 competition was a French domestic rugby union club competition operated by the Ligue Nationale de Rugby (LNR). Two new teams from the 2011-12 Pro D2 season were promoted to Top 14 this year, Grenoble and Stade Montois in place of the two relegated teams, CA Brive and Lyon OU. Home-and-away play began on 17 August 2012 and continued through to 5 May 2013. The regular season was followed by a three-round playoff involving the top six sides. The final was contested at the Stade de France between Toulon and Castres; the match was won 19-14 by Castres to earn them their first title since the controversial final in 1993."
  },
  "2018\u201319_MPBL_Datu_Cup_13": {
    "url": "https://en.wikipedia.org/wiki/2018\u201319_MPBL_Datu_Cup",
    "title": "2018\u201319 MPBL Datu Cup",
    "header": [
      [
        "Category",
        []
      ],
      [
        "Player",
        []
      ],
      [
        "Team",
        []
      ],
      [
        "Statistic",
        []
      ]
    ],
    "data": [
      [
        [
          "Points",
          []
        ],
        [
          "Leomer Losentes",
          []
        ],
        [
          "General Santos Warriors",
          [
            "/wiki/General_Santos_Warriors"
          ]
        ],
        [
          "41",
          []
        ]
      ],
      [
        [
          "Rebounds",
          []
        ],
        [
          "JR Taganas",
          []
        ],
        [
          "Bulacan Kuyas",
          [
            "/wiki/Bulacan_Kuyas"
          ]
        ],
        [
          "26",
          []
        ]
      ],
      [
        [
          "Assists",
          []
        ],
        [
          "Allan Mangahas",
          []
        ],
        [
          "Muntinlupa Cagers",
          [
            "/wiki/Muntinlupa_Cagers"
          ]
        ],
        [
          "17",
          []
        ]
      ],
      [
        [
          "Steals",
          []
        ],
        [
          "Warren Ybanez",
          [
            "/wiki/Warren_Yba\u00f1ez"
          ]
        ],
        [
          "Marikina Shoemasters",
          [
            "/wiki/Marikina_Shoemasters"
          ]
        ],
        [
          "8",
          []
        ]
      ],
      [
        [
          "Blocks",
          []
        ],
        [
          "Eduardo Doroteo",
          []
        ],
        [
          "Pasig Pirates",
          [
            "/wiki/Pasig_Sta._Lucia_Realtors"
          ]
        ],
        [
          "7",
          []
        ]
      ],
      [
        [
          "Three-pointers",
          []
        ],
        [
          "Yves Sazon",
          []
        ],
        [
          "Marikina Shoemasters",
          [
            "/wiki/Marikina_Shoemasters"
          ]
        ],
        [
          "7",
          []
        ]
      ]
    ],
    "section_title": "Statistics -- Individual game highs",
    "section_text": "",
    "uid": "2018\u201319_MPBL_Datu_Cup_13",
    "intro": "The 2018-19 MPBL Datu Cup was the second tournament of the Maharlika Pilipinas Basketball League and the first full season with a national scope. The tournament is patterned after the current format of the National Basketball Association of the United States and the now-defunct Metropolitan Basketball Association in the Philippines, which it is divided into two divisions: The Northern and the Southern Divisions. A record of 26 teams played in the conference, which ran for over 10 months, according to league commissioner Kenneth Duremdes. The almost year-long conference opened in June 12, 2018, which coincided with the Philippine Independence Day at the Smart Araneta Coliseum, Quezon City and ended with the final game of the MPBL Finals in April 25, 2019 where San Juan Knights prevailed over the Davao Occidental Tigers, 3 games to 2."
  },
  "1974\u201375_European_Cup_1": {
    "url": "https://en.wikipedia.org/wiki/1974\u201375_European_Cup",
    "title": "1974\u201375 European Cup",
    "header": [
      [
        "Team 1",
        []
      ],
      [
        "Agg",
        [
          "/wiki/Playoff_format"
        ]
      ],
      [
        "Team 2",
        []
      ],
      [
        "1st leg",
        []
      ],
      [
        "2nd leg",
        []
      ]
    ],
    "data": [
      [
        [
          "Ruch Chorz\u00f3w",
          [
            "/wiki/Ruch_Chorz\u00f3w"
          ]
        ],
        [
          "4-1",
          []
        ],
        [
          "Fenerbah\u00e7e",
          [
            "/wiki/Fenerbah\u00e7e_S.K."
          ]
        ],
        [
          "2-1",
          []
        ],
        [
          "2-0",
          []
        ]
      ],
      [
        [
          "Hajduk Split",
          [
            "/wiki/HNK_Hajduk_Split"
          ]
        ],
        [
          "5-6",
          []
        ],
        [
          "Saint-\u00c9tienne",
          [
            "/wiki/AS_Saint-\u00c9tienne"
          ]
        ],
        [
          "4-1",
          []
        ],
        [
          "1-5",
          []
        ]
      ],
      [
        [
          "Bayern Munich",
          [
            "/wiki/FC_Bayern_Munich"
          ]
        ],
        [
          "5-3",
          []
        ],
        [
          "Magdeburg",
          [
            "/wiki/1._FC_Magdeburg"
          ]
        ],
        [
          "3-2",
          []
        ],
        [
          "2-1",
          []
        ]
      ],
      [
        [
          "Cork Celtic",
          [
            "/wiki/Cork_Celtic_F.C."
          ]
        ],
        [
          "1-7",
          []
        ],
        [
          "Ararat Yerevan",
          [
            "/wiki/FC_Ararat_Yerevan"
          ]
        ],
        [
          "1-2",
          []
        ],
        [
          "0-5",
          []
        ]
      ],
      [
        [
          "\u00dajpesti D\u00f3zsa",
          [
            "/wiki/\u00dajpest_FC"
          ]
        ],
        [
          "1-5",
          []
        ],
        [
          "Leeds United",
          [
            "/wiki/Leeds_United_F.C."
          ]
        ],
        [
          "1-2",
          []
        ],
        [
          "0-3",
          []
        ]
      ],
      [
        [
          "Anderlecht",
          [
            "/wiki/R.S.C._Anderlecht"
          ]
        ],
        [
          "5-4",
          []
        ],
        [
          "Olympiacos",
          [
            "/wiki/Olympiacos_F.C."
          ]
        ],
        [
          "5-1",
          []
        ],
        [
          "0-3",
          []
        ]
      ],
      [
        [
          "Feyenoord",
          [
            "/wiki/Feyenoord"
          ]
        ],
        [
          "0-3",
          []
        ],
        [
          "Barcelona",
          [
            "/wiki/FC_Barcelona"
          ]
        ],
        [
          "0-0",
          []
        ],
        [
          "0-3",
          []
        ]
      ],
      [
        [
          "HJK",
          [
            "/wiki/Helsingin_Jalkapalloklubi"
          ]
        ],
        [
          "0-4",
          []
        ],
        [
          "\u00c5tvidaberg",
          [
            "/wiki/\u00c5tvidabergs_FF"
          ]
        ],
        [
          "0-3",
          []
        ],
        [
          "0-1",
          []
        ]
      ]
    ],
    "section_title": "Second round",
    "section_text": "1 . FC Magdeburg v. Bayern Munich",
    "uid": "1974\u201375_European_Cup_1",
    "intro": "The 1974-75 season was the 20th season of the European Cup, an annual football tournament for the champion clubs of the member nations of UEFA (the Union of European Football Associations). It was won for the second consecutive time by Bayern Munich in the final against Leeds United, the first English side to reach the final since Manchester United won it seven years earlier and only the second in the history of the competition."
  }
}