{
  "1972\u201373_Scottish_Cup_2": {
    "url": "https://en.wikipedia.org/wiki/1972\u201373_Scottish_Cup",
    "title": "1972\u201373 Scottish Cup",
    "header": [
      [
        "Home team",
        []
      ],
      [
        "Score",
        []
      ],
      [
        "Away team",
        []
      ]
    ],
    "data": [
      [
        [
          "Queen of the South",
          [
            "/wiki/Queen_of_the_South_F.C."
          ]
        ],
        [
          "2 - 0",
          []
        ],
        [
          "Forfar Athletic",
          [
            "/wiki/Forfar_Athletic_F.C."
          ]
        ]
      ],
      [
        [
          "Alloa Athletic",
          [
            "/wiki/Alloa_Athletic_F.C."
          ]
        ],
        [
          "0 - 2",
          []
        ],
        [
          "Berwick Rangers",
          [
            "/wiki/Berwick_Rangers_F.C."
          ]
        ]
      ],
      [
        [
          "Brechin City",
          [
            "/wiki/Brechin_City_F.C."
          ]
        ],
        [
          "0 - 0",
          []
        ],
        [
          "East Stirlingshire",
          [
            "/wiki/East_Stirlingshire_F.C."
          ]
        ]
      ],
      [
        [
          "Brora Rangers",
          [
            "/wiki/Brora_Rangers_F.C."
          ]
        ],
        [
          "0 - 4",
          []
        ],
        [
          "Hamilton Academical",
          [
            "/wiki/Hamilton_Academical_F.C."
          ]
        ]
      ],
      [
        [
          "Ferranti Thistle",
          [
            "/wiki/Livingston_F.C."
          ]
        ],
        [
          "2 - 2",
          []
        ],
        [
          "Elgin City",
          [
            "/wiki/Elgin_City_F.C."
          ]
        ]
      ],
      [
        [
          "Inverness Thistle",
          [
            "/wiki/Inverness_Thistle_F.C."
          ]
        ],
        [
          "2 - 1",
          []
        ],
        [
          "Queens Park",
          [
            "/wiki/Queen's_Park_F.C."
          ]
        ]
      ],
      [
        [
          "Stenhousemuir",
          [
            "/wiki/Stenhousemuir_F.C."
          ]
        ],
        [
          "0 - 0",
          []
        ],
        [
          "Raith Rovers",
          [
            "/wiki/Raith_Rovers_F.C."
          ]
        ]
      ],
      [
        [
          "Vale of Leithen",
          [
            "/wiki/Vale_of_Leithen_F.C."
          ]
        ],
        [
          "0 - 3",
          []
        ],
        [
          "Montrose",
          [
            "/wiki/Montrose_F.C."
          ]
        ]
      ]
    ],
    "section_title": "Second round",
    "section_text": "",
    "uid": "1972\u201373_Scottish_Cup_2",
    "intro": "The 1972-73 Scottish Cup was the 88th staging of Scotland's most prestigious football knockout competition. The Cup was won by Rangers who defeated Celtic in the final."
  },
  "1973\u201374_Scottish_Cup_0": {
    "url": "https://en.wikipedia.org/wiki/1973\u201374_Scottish_Cup",
    "title": "1973\u201374 Scottish Cup",
    "header": [
      [
        "Home team",
        []
      ],
      [
        "Score",
        []
      ],
      [
        "Away team",
        []
      ]
    ],
    "data": [
      [
        [
          "Berwick Rangers",
          [
            "/wiki/Berwick_Rangers_F.C."
          ]
        ],
        [
          "0 - 0",
          []
        ],
        [
          "Albion Rovers",
          [
            "/wiki/Albion_Rovers_F.C."
          ]
        ]
      ],
      [
        [
          "East Stirlingshire",
          [
            "/wiki/East_Stirlingshire_F.C."
          ]
        ],
        [
          "0 - 0",
          []
        ],
        [
          "Clydebank",
          [
            "/wiki/Clydebank_F.C."
          ]
        ]
      ],
      [
        [
          "Hamilton Academical",
          [
            "/wiki/Hamilton_Academical_F.C."
          ]
        ],
        [
          "0 - 0",
          []
        ],
        [
          "Alloa Athletic",
          [
            "/wiki/Alloa_Athletic_F.C."
          ]
        ]
      ],
      [
        [
          "Lossiemouth",
          [
            "/wiki/Lossiemouth_F.C."
          ]
        ],
        [
          "3 - 3",
          []
        ],
        [
          "Fraserburgh",
          [
            "/wiki/Fraserburgh_F.C."
          ]
        ]
      ],
      [
        [
          "Queens Park",
          [
            "/wiki/Queen's_Park_F.C."
          ]
        ],
        [
          "1 - 0",
          []
        ],
        [
          "Edinburgh University",
          [
            "/wiki/Edinburgh_University_A.F.C."
          ]
        ]
      ]
    ],
    "section_title": "First round",
    "section_text": "",
    "uid": "1973\u201374_Scottish_Cup_0",
    "intro": "The 1973-74 Scottish Cup was the 89th staging of Scotland's most prestigious football knockout competition. The Cup was won by Celtic who defeated Dundee United in the final."
  },
  "1990\u201391_Scottish_Cup_2": {
    "url": "https://en.wikipedia.org/wiki/1990\u201391_Scottish_Cup",
    "title": "1990\u201391 Scottish Cup",
    "header": [
      [
        "Home team",
        []
      ],
      [
        "Score",
        []
      ],
      [
        "Away team",
        []
      ]
    ],
    "data": [
      [
        [
          "Ross County",
          [
            "/wiki/Ross_County_F.C."
          ]
        ],
        [
          "2 - 2",
          []
        ],
        [
          "Queen of the South",
          [
            "/wiki/Queen_of_the_South_F.C."
          ]
        ]
      ],
      [
        [
          "Spartans",
          [
            "/wiki/Spartans_F.C."
          ]
        ],
        [
          "0 - 0",
          []
        ],
        [
          "Cowdenbeath",
          [
            "/wiki/Cowdenbeath_F.C."
          ]
        ]
      ],
      [
        [
          "Inverness Thistle",
          [
            "/wiki/Inverness_Thistle_F.C."
          ]
        ],
        [
          "1 - 1",
          []
        ],
        [
          "East Fife",
          [
            "/wiki/East_Fife_F.C."
          ]
        ]
      ],
      [
        [
          "Berwick Rangers",
          [
            "/wiki/Berwick_Rangers_F.C."
          ]
        ],
        [
          "1 - 0",
          []
        ],
        [
          "Albion Rovers",
          [
            "/wiki/Albion_Rovers_F.C."
          ]
        ]
      ],
      [
        [
          "Fraserburgh",
          [
            "/wiki/Fraserburgh_F.C."
          ]
        ],
        [
          "1 - 4",
          []
        ],
        [
          "Cove Rangers",
          [
            "/wiki/Cove_Rangers_F.C."
          ]
        ]
      ],
      [
        [
          "Montrose",
          [
            "/wiki/Montrose_F.C."
          ]
        ],
        [
          "0 - 2",
          []
        ],
        [
          "Arbroath",
          [
            "/wiki/Arbroath_F.C."
          ]
        ]
      ],
      [
        [
          "Queens Park",
          [
            "/wiki/Queen's_Park_F.C."
          ]
        ],
        [
          "1 - 2",
          []
        ],
        [
          "Stranraer",
          [
            "/wiki/Stranraer_F.C."
          ]
        ]
      ],
      [
        [
          "Stirling Albion",
          [
            "/wiki/Stirling_Albion_F.C."
          ]
        ],
        [
          "2 - 0",
          []
        ],
        [
          "Stenhousemuir",
          [
            "/wiki/Stenhousemuir_F.C."
          ]
        ]
      ]
    ],
    "section_title": "Second round",
    "section_text": "",
    "uid": "1990\u201391_Scottish_Cup_2",
    "intro": "The 1990-91 Scottish Cup was the 106th staging of Scotland's most prestigious football knockout competition. The Cup was won by Motherwell who defeated Dundee United F.C. in the final."
  },
  "2011\u201312_TT_Pro_League_6": {
    "url": "https://en.wikipedia.org/wiki/2011\u201312_TT_Pro_League",
    "title": "2011\u201312 TT Pro League",
    "header": [
      [
        "Home \\ Away",
        []
      ],
      [
        "CAL",
        [
          "/wiki/Caledonia_AIA_F.C."
        ]
      ],
      [
        "RAN",
        [
          "/wiki/St._Ann's_Rangers_F.C."
        ]
      ],
      [
        "TEC",
        [
          "/wiki/T&TEC_Sports_Club"
        ]
      ],
      [
        "WCO",
        [
          "/wiki/W_Connection_F.C."
        ]
      ]
    ],
    "data": [
      [
        [
          "Caledonia AIA",
          [
            "/wiki/Caledonia_AIA_F.C."
          ]
        ],
        [
          "",
          []
        ],
        [
          "2-0",
          []
        ],
        [
          "3-2",
          []
        ],
        [
          "",
          []
        ]
      ],
      [
        [
          "Defence Force",
          [
            "/wiki/Defence_Force_F.C."
          ]
        ],
        [
          "2-3",
          []
        ],
        [
          "",
          []
        ],
        [
          "",
          []
        ],
        [
          "2-0",
          []
        ]
      ],
      [
        [
          "North East Stars",
          [
            "/wiki/North_East_Stars_F.C."
          ]
        ],
        [
          "",
          []
        ],
        [
          "2-0",
          []
        ],
        [
          "1-1",
          []
        ],
        [
          "1-4",
          []
        ]
      ],
      [
        [
          "Police",
          [
            "/wiki/Police_F.C._(Trinidad_and_Tobago)"
          ]
        ],
        [
          "3-2",
          []
        ],
        [
          "",
          []
        ],
        [
          "1-2",
          []
        ],
        [
          "",
          []
        ]
      ],
      [
        [
          "San Juan Jabloteh",
          [
            "/wiki/San_Juan_Jabloteh_F.C."
          ]
        ],
        [
          "1-2",
          []
        ],
        [
          "2-2",
          []
        ],
        [
          "",
          []
        ],
        [
          "0-1",
          []
        ]
      ],
      [
        [
          "W Connection",
          [
            "/wiki/W_Connection_F.C."
          ]
        ],
        [
          "2-1",
          []
        ],
        [
          "3-1",
          []
        ],
        [
          "",
          []
        ],
        [
          "",
          []
        ]
      ]
    ],
    "section_title": "",
    "section_text": "",
    "uid": "2011\u201312_TT_Pro_League_6",
    "intro": "The 2011-12 TT Pro League season (known as the Digicel Pro League for sponsorship reasons) was the thirteenth season of the TT Pro League, the Trinidad and Tobago professional league for association football clubs, since its establishment in 1999. A total of eight teams contested the league, with Defence Force as the defending champions. The season began on 9 September 2011 and ended on 29 March 2012 with the crowning of W Connection as the league champion. Dexter Skeene, Pro League CEO, announced on 11 February 2011 that by aligning its seasons with those of the major leagues in Europe, the Pro League will afford the opportunity to further link culture with sport to harness and develop the talent of people in Trinidad and Tobago. Following a runners-up finish in 2009 and being crowned champions in 2010, T&TEC were promoted from the National Super League to the Pro League on 1 March 2011. However, on 15 July 2011, Skeene announced that Ma Pau would not be part of the upcoming season. On 10 August 2011, Skeene further announced that both Joe Public and FC South End would not be participating in the 2011-12 season. The start of the season was delayed for both Defence Force and Police by three months as Trinidad and Tobago Prime Minister Kamla Persad-Bissessar announced a limited state of emergency due to the increased crime in portions of the country. As a result, the Ministry of National Security services were implemented into full-fledged duties. The two teams returned to competition after curfew was lifted throughout Trinidad on 12 December 2011. The first goal of the season was scored by North East Stars' Seon Power against Pro League newcomer, T&TEC, in the eighth minute of the first game on 9 September 2011. Richard Roy of Defence Force scored the first hat-trick of the season against St. Ann's Rangers on 31 January 2012."
  },
  "1970\u201371_Ashes_series_0": {
    "url": "https://en.wikipedia.org/wiki/1970\u201371_Ashes_series",
    "title": "1970\u201371 Ashes series",
    "header": [
      [
        "",
        []
      ],
      [
        "Venue",
        []
      ],
      [
        "Result",
        []
      ],
      [
        "Series score",
        []
      ]
    ],
    "data": [
      [
        [
          "First Test",
          [
            "/wiki/1970\u201371_Ashes_series"
          ]
        ],
        [
          "Brisbane",
          [
            "/wiki/The_Gabba"
          ]
        ],
        [
          "Australia ( 433 & 314 ) drew with England ( 464 & 39/1 )",
          []
        ],
        [
          "0-0",
          []
        ]
      ],
      [
        [
          "Second Test",
          [
            "/wiki/1970\u201371_Ashes_series"
          ]
        ],
        [
          "Perth",
          [
            "/wiki/WACA_Ground"
          ]
        ],
        [
          "England ( 397 & 287/6 dec ) drew with Australia ( 440 & 100/3 )",
          []
        ],
        [
          "0-0",
          []
        ]
      ],
      [
        [
          "Third Test",
          [
            "/wiki/1970\u201371_Ashes_series"
          ]
        ],
        [
          "Melbourne",
          [
            "/wiki/Melbourne_Cricket_Ground"
          ]
        ],
        [
          "Match abandoned without a ball being bowled",
          []
        ],
        [
          "0-0",
          []
        ]
      ],
      [
        [
          "Fourth Test",
          [
            "/wiki/1970\u201371_Ashes_series"
          ]
        ],
        [
          "Sydney",
          [
            "/wiki/Sydney_Cricket_Ground"
          ]
        ],
        [
          "England ( 332 & 319/5 dec ) beat Australia ( 236 & 116 ) by 299 runs",
          []
        ],
        [
          "0-1",
          []
        ]
      ],
      [
        [
          "Fifth Test",
          [
            "/wiki/1970\u201371_Ashes_series"
          ]
        ],
        [
          "Melbourne",
          [
            "/wiki/Melbourne_Cricket_Ground"
          ]
        ],
        [
          "Australia ( 493 & 169/4 dec ) drew with England ( 392 & 161/0 )",
          []
        ],
        [
          "0-1",
          []
        ]
      ],
      [
        [
          "Sixth Test",
          [
            "/wiki/1970\u201371_Ashes_series"
          ]
        ],
        [
          "Adelaide",
          [
            "/wiki/Adelaide_Oval"
          ]
        ],
        [
          "England ( 470 & 233/4 dec ) drew with Australia ( 235 & 328/3 )",
          []
        ],
        [
          "0-1",
          []
        ]
      ],
      [
        [
          "Seventh Test",
          [
            "/wiki/1970\u201371_Ashes_series"
          ]
        ],
        [
          "Sydney",
          [
            "/wiki/Sydney_Cricket_Ground"
          ]
        ],
        [
          "England ( 184 & 302 ) beat Australia ( 264 & 160 ) by 62 runs",
          []
        ],
        [
          "0-2",
          []
        ]
      ]
    ],
    "section_title": "Results summary",
    "section_text": "",
    "uid": "1970\u201371_Ashes_series_0",
    "intro": "The 1970-71 Ashes series consisted of seven cricket Test matches, each of five days with six hours play each day and eight ball overs. It formed part of the MCC tour of Australia in 1970-71 and the matches outside the Tests were played in the name of the Marylebone Cricket Club. Ray Illingworth's England team beat Bill Lawry's Australians 2-0 and regained the Ashes, the only full Test series in Australia in which the home team failed to win a Test. The Momentous Series of 1970-71 was pivotal in cricket history and essentially ushered in the modern period of Test cricket. It was the first Test series to have more than five Tests and the first One Day International in cricket history was played in Melbourne; like the first test match in history it was won by Australia. Ray Illingworth's use of hostile, short-pitched fast-bowling by John Snow, Ken Shuttleworth, Bob Willis and Peter Lever heralded the dominance of fast bowling in the 1970s and 1980s, as did the decline of behaviour by players as the England team united under against ineffectual management, biased umpires, tabloid press and hostile crowds. Snow's 31 wickets (22.83) was the most by an England bowler in Australia since Harold Larwood, and has not been exceeded since. Geoff Boycott had his most prolific series with 657 runs (93.85), John Edrich made 648 runs (72.00), which kept him at the crease for a record 33 hours and 26 minutes, and Brian Luckhurst 455 runs (56.87). Together these three opening batsmen added 995 runs (90.45) for the first wicket with five century and three half-century opening stands. Rod Marsh, Greg Chappell, Dennis Lillee, Terry Jenner, Alan Thomson, Kerry O'Keeffe, Ross Duncan, Ken Eastwood and Tony Dell made their debuts for Australia and Bob Willis, Brian Luckhurst, Ken Shuttleworth and Peter Lever for England. It also saw the retirement of Bill Lawry and Garth McKenzie from the Australian team and Don Bradman after 35 years as a selector. The WACA Ground in Perth has its inaugural Test match, the first new venue in an Ashes Test since the Brisbane Cricket Ground at Woolloongabba in 1928-29."
  },
  "1963\u201364_Scottish_Cup_2": {
    "url": "https://en.wikipedia.org/wiki/1963\u201364_Scottish_Cup",
    "title": "1963\u201364 Scottish Cup",
    "header": [
      [
        "Home team",
        []
      ],
      [
        "Score",
        []
      ],
      [
        "Away team",
        []
      ]
    ],
    "data": [
      [
        [
          "Aberdeen",
          [
            "/wiki/Aberdeen_F.C."
          ]
        ],
        [
          "1 - 1",
          []
        ],
        [
          "Queen 's Park",
          [
            "/wiki/Queen's_Park_F.C."
          ]
        ]
      ],
      [
        [
          "Albion Rovers",
          [
            "/wiki/Albion_Rovers_F.C."
          ]
        ],
        [
          "4 - 3",
          []
        ],
        [
          "Arbroath",
          [
            "/wiki/Arbroath_F.C."
          ]
        ]
      ],
      [
        [
          "Alloa Athletic",
          [
            "/wiki/Alloa_Athletic_F.C."
          ]
        ],
        [
          "1 - 3",
          []
        ],
        [
          "Airdrieonians",
          [
            "/wiki/Airdrieonians_F.C._(1878)"
          ]
        ]
      ],
      [
        [
          "Brechin City",
          [
            "/wiki/Brechin_City_F.C."
          ]
        ],
        [
          "2 - 9",
          []
        ],
        [
          "Dundee",
          [
            "/wiki/Dundee_F.C."
          ]
        ]
      ],
      [
        [
          "Buckie Thistle",
          [
            "/wiki/Buckie_Thistle_F.C."
          ]
        ],
        [
          "1 - 3",
          []
        ],
        [
          "Ayr United",
          [
            "/wiki/Ayr_United_F.C."
          ]
        ]
      ],
      [
        [
          "Clyde",
          [
            "/wiki/Clyde_F.C."
          ]
        ],
        [
          "2 - 2",
          []
        ],
        [
          "Forfar Athletic",
          [
            "/wiki/Forfar_Athletic_F.C."
          ]
        ]
      ],
      [
        [
          "Dunfermline Athletic",
          [
            "/wiki/Dunfermline_Athletic_F.C."
          ]
        ],
        [
          "7 - 0",
          []
        ],
        [
          "Fraserburgh",
          [
            "/wiki/Fraserburgh_F.C."
          ]
        ]
      ],
      [
        [
          "East Fife",
          [
            "/wiki/East_Fife_F.C."
          ]
        ],
        [
          "0 - 1",
          []
        ],
        [
          "East Stirlingshire",
          [
            "/wiki/East_Stirlingshire_F.C."
          ]
        ]
      ],
      [
        [
          "Falkirk",
          [
            "/wiki/Falkirk_F.C."
          ]
        ],
        [
          "2 - 2",
          []
        ],
        [
          "Berwick Rangers",
          [
            "/wiki/Berwick_Rangers_F.C."
          ]
        ]
      ],
      [
        [
          "Hamilton Academical",
          [
            "/wiki/Hamilton_Academical_F.C."
          ]
        ],
        [
          "1 - 3",
          []
        ],
        [
          "Kilmarnock",
          [
            "/wiki/Kilmarnock_F.C."
          ]
        ]
      ],
      [
        [
          "Greenock Morton",
          [
            "/wiki/Greenock_Morton_F.C."
          ]
        ],
        [
          "1 - 3",
          []
        ],
        [
          "Celtic",
          [
            "/wiki/Celtic_F.C."
          ]
        ]
      ],
      [
        [
          "Motherwell",
          [
            "/wiki/Motherwell_F.C."
          ]
        ],
        [
          "4 - 1",
          []
        ],
        [
          "Dumbarton",
          [
            "/wiki/Dumbarton_F.C."
          ]
        ]
      ],
      [
        [
          "Partick Thistle",
          [
            "/wiki/Partick_Thistle_F.C."
          ]
        ],
        [
          "2 - 0",
          []
        ],
        [
          "St Johnstone",
          [
            "/wiki/St_Johnstone_F.C."
          ]
        ]
      ],
      [
        [
          "Queen of the South",
          [
            "/wiki/Queen_of_the_South_F.C."
          ]
        ],
        [
          "0 - 3",
          []
        ],
        [
          "Hearts",
          [
            "/wiki/Heart_of_Midlothian_F.C."
          ]
        ]
      ],
      [
        [
          "Rangers",
          [
            "/wiki/Rangers_F.C."
          ]
        ],
        [
          "9 - 0",
          []
        ],
        [
          "Duns",
          [
            "/wiki/Duns_F.C."
          ]
        ]
      ],
      [
        [
          "St Mirren",
          [
            "/wiki/St_Mirren_F.C."
          ]
        ],
        [
          "2 - 0",
          []
        ],
        [
          "Stranraer",
          [
            "/wiki/Stranraer_F.C."
          ]
        ]
      ]
    ],
    "section_title": "Second round",
    "section_text": "",
    "uid": "1963\u201364_Scottish_Cup_2",
    "intro": "The 1963-64 Scottish Cup was the 79th staging of Scotland's most prestigious football knockout competition. The Cup was won by Rangers who defeated Dundee in the final."
  },
  "1964\u201365_Scottish_Cup_0": {
    "url": "https://en.wikipedia.org/wiki/1964\u201365_Scottish_Cup",
    "title": "1964\u201365 Scottish Cup",
    "header": [
      [
        "Home team",
        []
      ],
      [
        "Score",
        []
      ],
      [
        "Away team",
        []
      ]
    ],
    "data": [
      [
        [
          "Berwick Rangers ( 2 )",
          [
            "/wiki/Berwick_Rangers_F.C."
          ]
        ],
        [
          "2 - 2",
          []
        ],
        [
          "Stenhousemuir ( 2 )",
          [
            "/wiki/Stenhousemuir_F.C."
          ]
        ]
      ],
      [
        [
          "Brechin City ( 2 )",
          [
            "/wiki/Brechin_City_F.C."
          ]
        ],
        [
          "3 - 4",
          []
        ],
        [
          "Albion Rovers ( 2 )",
          [
            "/wiki/Albion_Rovers_F.C."
          ]
        ]
      ],
      [
        [
          "Coldstream ( NL )",
          [
            "/wiki/Coldstream_F.C."
          ]
        ],
        [
          "2 - 4",
          []
        ],
        [
          "Stranraer ( 2 )",
          [
            "/wiki/Stranraer_F.C."
          ]
        ]
      ],
      [
        [
          "Hamilton Academical ( 2 )",
          [
            "/wiki/Hamilton_Academical_F.C."
          ]
        ],
        [
          "5 - 3",
          []
        ],
        [
          "Clachnacuddin ( HL )",
          [
            "/wiki/Clachnacuddin_F.C."
          ]
        ]
      ],
      [
        [
          "Peebles Rovers ( NL )",
          [
            "/wiki/Peebles_Rovers_F.C."
          ]
        ],
        [
          "1 - 4",
          []
        ],
        [
          "Stirling Albion ( 2 )",
          [
            "/wiki/Stirling_Albion_F.C."
          ]
        ]
      ]
    ],
    "section_title": "Preliminary round 1",
    "section_text": "",
    "uid": "1964\u201365_Scottish_Cup_0",
    "intro": "The 1964-65 Scottish Cup was the 80th staging of Scotland's most prestigious football knockout competition. The Cup was won by Celtic who defeated Dunfermline Athletic in the final."
  },
  "1980\u201381_Scottish_Cup_4": {
    "url": "https://en.wikipedia.org/wiki/1980\u201381_Scottish_Cup",
    "title": "1980\u201381 Scottish Cup",
    "header": [
      [
        "Home team",
        []
      ],
      [
        "Score",
        []
      ],
      [
        "Away team",
        []
      ]
    ],
    "data": [
      [
        [
          "Airdrieonians ( 1 )",
          [
            "/wiki/Airdrieonians_F.C._(1878)"
          ]
        ],
        [
          "0 - 5",
          []
        ],
        [
          "Rangers ( 1 )",
          [
            "/wiki/Rangers_F.C."
          ]
        ]
      ],
      [
        [
          "Arbroath ( 3 )",
          [
            "/wiki/Arbroath_F.C."
          ]
        ],
        [
          "1 - 1",
          []
        ],
        [
          "Cowdenbeath ( 3 )",
          [
            "/wiki/Cowdenbeath_F.C."
          ]
        ]
      ],
      [
        [
          "Berwick Rangers ( 2 )",
          [
            "/wiki/Berwick_Rangers_F.C."
          ]
        ],
        [
          "0 - 2",
          []
        ],
        [
          "Celtic ( 1 )",
          [
            "/wiki/Celtic_F.C."
          ]
        ]
      ],
      [
        [
          "Brechin City ( 3 )",
          [
            "/wiki/Brechin_City_F.C."
          ]
        ],
        [
          "1 - 2",
          []
        ],
        [
          "Dundee United ( 1 )",
          [
            "/wiki/Dundee_United_F.C."
          ]
        ]
      ],
      [
        [
          "Buckie Thistle ( HL )",
          [
            "/wiki/Buckie_Thistle_F.C."
          ]
        ],
        [
          "1 - 3",
          []
        ],
        [
          "Stirling Albion ( 2 )",
          [
            "/wiki/Stirling_Albion_F.C."
          ]
        ]
      ],
      [
        [
          "East Fife ( 3 )",
          [
            "/wiki/East_Fife_F.C."
          ]
        ],
        [
          "0 - 0",
          []
        ],
        [
          "Clydebank ( 2 )",
          [
            "/wiki/Clydebank_F.C."
          ]
        ]
      ],
      [
        [
          "East Stirlingshire ( 2 )",
          [
            "/wiki/East_Stirlingshire_F.C."
          ]
        ],
        [
          "4 - 1",
          []
        ],
        [
          "Inverness Thistle ( HL )",
          [
            "/wiki/Inverness_Thistle_F.C."
          ]
        ]
      ],
      [
        [
          "Falkirk ( 2 )",
          [
            "/wiki/Falkirk_F.C."
          ]
        ],
        [
          "1 - 0",
          []
        ],
        [
          "Dundee ( 2 )",
          [
            "/wiki/Dundee_F.C."
          ]
        ]
      ],
      [
        [
          "Hamilton Academical ( 2 )",
          [
            "/wiki/Hamilton_Academical_F.C."
          ]
        ],
        [
          "0 - 3",
          []
        ],
        [
          "St Johnstone ( 2 )",
          [
            "/wiki/St_Johnstone_F.C."
          ]
        ]
      ],
      [
        [
          "Hibernian ( 2 )",
          [
            "/wiki/Hibernian_F.C."
          ]
        ],
        [
          "1 - 1",
          []
        ],
        [
          "Dunfermline Athletic ( 2 )",
          [
            "/wiki/Dunfermline_Athletic_F.C."
          ]
        ]
      ],
      [
        [
          "Kilmarnock ( 1 )",
          [
            "/wiki/Kilmarnock_F.C."
          ]
        ],
        [
          "2 - 1",
          []
        ],
        [
          "Ayr United ( 2 )",
          [
            "/wiki/Ayr_United_F.C."
          ]
        ]
      ],
      [
        [
          "Greenock Morton ( 1 )",
          [
            "/wiki/Greenock_Morton_F.C."
          ]
        ],
        [
          "0 - 0",
          []
        ],
        [
          "Hearts ( 1 )",
          [
            "/wiki/Heart_of_Midlothian_F.C."
          ]
        ]
      ],
      [
        [
          "Partick Thistle ( 1 )",
          [
            "/wiki/Partick_Thistle_F.C."
          ]
        ],
        [
          "2 - 2",
          []
        ],
        [
          "Clyde ( 3 )",
          [
            "/wiki/Clyde_F.C."
          ]
        ]
      ],
      [
        [
          "Raith Rovers ( 2 )",
          [
            "/wiki/Raith_Rovers_F.C."
          ]
        ],
        [
          "1 - 2",
          []
        ],
        [
          "Aberdeen ( 1 )",
          [
            "/wiki/Aberdeen_F.C."
          ]
        ]
      ],
      [
        [
          "St Mirren ( 1 )",
          [
            "/wiki/St_Mirren_F.C."
          ]
        ],
        [
          "0 - 2",
          []
        ],
        [
          "Dumbarton ( 2 )",
          [
            "/wiki/Dumbarton_F.C."
          ]
        ]
      ],
      [
        [
          "Stenhousemuir ( 3 )",
          [
            "/wiki/Stenhousemuir_F.C."
          ]
        ],
        [
          "1 - 1",
          []
        ],
        [
          "Motherwell ( 2 )",
          [
            "/wiki/Motherwell_F.C."
          ]
        ]
      ]
    ],
    "section_title": "Third round",
    "section_text": "",
    "uid": "1980\u201381_Scottish_Cup_4",
    "intro": "The 1980-81 Scottish Cup was the 96th staging of Scotland's most prestigious football knockout competition. The Cup was won by Rangers who defeated Dundee United in the replayed final."
  },
  "1991\u201392_Scottish_Cup_0": {
    "url": "https://en.wikipedia.org/wiki/1991\u201392_Scottish_Cup",
    "title": "1991\u201392 Scottish Cup",
    "header": [
      [
        "Home team",
        []
      ],
      [
        "Score",
        []
      ],
      [
        "Away team",
        []
      ]
    ],
    "data": [
      [
        [
          "Gala Fairydean",
          [
            "/wiki/Gala_Fairydean_Rovers_F.C."
          ]
        ],
        [
          "2 - 2",
          []
        ],
        [
          "Ross County",
          [
            "/wiki/Ross_County_F.C."
          ]
        ]
      ],
      [
        [
          "Albion Rovers",
          [
            "/wiki/Albion_Rovers_F.C."
          ]
        ],
        [
          "0 - 2",
          []
        ],
        [
          "Arbroath",
          [
            "/wiki/Arbroath_F.C."
          ]
        ]
      ],
      [
        [
          "Alloa Athletic",
          [
            "/wiki/Alloa_Athletic_F.C."
          ]
        ],
        [
          "7 - 1",
          []
        ],
        [
          "Hawick Royal Albert",
          [
            "/wiki/Hawick_Royal_Albert_United_F.C."
          ]
        ]
      ],
      [
        [
          "East Fife",
          [
            "/wiki/East_Fife_F.C."
          ]
        ],
        [
          "6 - 0",
          []
        ],
        [
          "Queens Park",
          [
            "/wiki/Queen's_Park_F.C."
          ]
        ]
      ],
      [
        [
          "East Stirlingshire",
          [
            "/wiki/East_Stirlingshire_F.C."
          ]
        ],
        [
          "0 - 2",
          []
        ],
        [
          "Dumbarton",
          [
            "/wiki/Dumbarton_F.C."
          ]
        ]
      ],
      [
        [
          "Vale of Leithen",
          [
            "/wiki/Vale_of_Leithen_F.C."
          ]
        ],
        [
          "1 - 2",
          []
        ],
        [
          "Stranraer",
          [
            "/wiki/Stranraer_F.C."
          ]
        ]
      ]
    ],
    "section_title": "First round",
    "section_text": "",
    "uid": "1991\u201392_Scottish_Cup_0",
    "intro": "The 1991-92 Scottish Cup was the 107th staging of Scotland's most prestigious football knockout competition. The Cup was won by Rangers who defeated Airdrieonians in the final."
  },
  "1891\u201392_Scottish_Cup_1": {
    "url": "https://en.wikipedia.org/wiki/1891\u201392_Scottish_Cup",
    "title": "1891\u201392 Scottish Cup",
    "header": [
      [
        "Home team",
        []
      ],
      [
        "Score",
        []
      ],
      [
        "Away team",
        []
      ]
    ],
    "data": [
      [
        [
          "Abercorn",
          [
            "/wiki/Abercorn_F.C."
          ]
        ],
        [
          "2 - 3",
          []
        ],
        [
          "Queen 's Park",
          [
            "/wiki/Queen's_Park_F.C."
          ]
        ]
      ],
      [
        [
          "Aberdeen",
          [
            "/wiki/Aberdeen_F.C."
          ]
        ],
        [
          "2 - 6",
          []
        ],
        [
          "Mid Annandale",
          [
            "/wiki/Mid-Annandale_F.C."
          ]
        ]
      ],
      [
        [
          "Annbank",
          []
        ],
        [
          "2 - 1",
          []
        ],
        [
          "Battlefield",
          []
        ]
      ],
      [
        [
          "Broxburn Shamrock",
          []
        ],
        [
          "7 - 2",
          []
        ],
        [
          "Northern",
          [
            "/wiki/Northern_F.C."
          ]
        ]
      ],
      [
        [
          "Cowlairs",
          [
            "/wiki/Cowlairs_F.C."
          ]
        ],
        [
          "3 - 1",
          []
        ],
        [
          "Cambuslang",
          [
            "/wiki/Cambuslang_F.C."
          ]
        ]
      ],
      [
        [
          "Dumbarton",
          [
            "/wiki/Dumbarton_F.C."
          ]
        ],
        [
          "4 - 0",
          []
        ],
        [
          "Thistle",
          [
            "/wiki/Thistle_F.C."
          ]
        ]
      ],
      [
        [
          "East Stirlingshire",
          [
            "/wiki/East_Stirlingshire_F.C."
          ]
        ],
        [
          "1 - 6",
          []
        ],
        [
          "Kilmarnock",
          [
            "/wiki/Kilmarnock_F.C."
          ]
        ]
      ],
      [
        [
          "Heart of Midlothian",
          [
            "/wiki/Heart_of_Midlothian_F.C."
          ]
        ],
        [
          "3 - 1",
          []
        ],
        [
          "Clyde *",
          [
            "/wiki/Clyde_F.C."
          ]
        ]
      ],
      [
        [
          "Kilmarnock Athletic",
          []
        ],
        [
          "7 - 2",
          []
        ],
        [
          "Bridge of Allan",
          [
            "/wiki/Bridge_of_Allan_F.C."
          ]
        ]
      ],
      [
        [
          "Leith Athletic",
          [
            "/wiki/Leith_Athletic_F.C."
          ]
        ],
        [
          "5 - 0",
          []
        ],
        [
          "Dunblane",
          []
        ]
      ],
      [
        [
          "Linthouse",
          [
            "/wiki/Linthouse_F.C."
          ]
        ],
        [
          "0 - 6",
          []
        ],
        [
          "Bathgate Rovers",
          []
        ]
      ],
      [
        [
          "Monkcastle",
          []
        ],
        [
          "3- 4",
          []
        ],
        [
          "Arbroath",
          [
            "/wiki/Arbroath_F.C."
          ]
        ]
      ],
      [
        [
          "Rangers",
          [
            "/wiki/Rangers_F.C."
          ]
        ],
        [
          "5 - 1",
          []
        ],
        [
          "St Bernard 's",
          [
            "/wiki/St_Bernard's_F.C."
          ]
        ]
      ],
      [
        [
          "Renton",
          [
            "/wiki/Renton_F.C."
          ]
        ],
        [
          "7 - 4",
          []
        ],
        [
          "Ayr",
          [
            "/wiki/Ayr_F.C."
          ]
        ]
      ],
      [
        [
          "St Mirren",
          [
            "/wiki/St_Mirren_F.C."
          ]
        ],
        [
          "2 - 4",
          []
        ],
        [
          "Celtic",
          [
            "/wiki/Celtic_F.C."
          ]
        ]
      ],
      [
        [
          "Third Lanark",
          [
            "/wiki/Third_Lanark_A.C."
          ]
        ],
        [
          "3 - 0",
          []
        ],
        [
          "Vale of Leven",
          [
            "/wiki/Vale_of_Leven_F.C."
          ]
        ]
      ]
    ],
    "section_title": "Fifth round",
    "section_text": "",
    "uid": "1891\u201392_Scottish_Cup_1",
    "intro": "The 1891-92 Scottish Cup was the 19th season of Scotland's most prestigious football knockout competition. The Cup was won by Celtic when they beat Queen's Park 5-1 in the final after a replay."
  },
  "1955\u201356_Scottish_Cup_0": {
    "url": "https://en.wikipedia.org/wiki/1955\u201356_Scottish_Cup",
    "title": "1955\u201356 Scottish Cup",
    "header": [
      [
        "Home team",
        []
      ],
      [
        "Score",
        []
      ],
      [
        "Away team",
        []
      ]
    ],
    "data": [
      [
        [
          "Whithorn",
          [
            "/wiki/Whithorn_F.C."
          ]
        ],
        [
          "7 - 0",
          []
        ],
        [
          "Vale of Leithen",
          [
            "/wiki/Vale_of_Leithen_F.C."
          ]
        ]
      ],
      [
        [
          "Babcock & Wilcox",
          []
        ],
        [
          "2 - 5",
          []
        ],
        [
          "Clachnacuddin",
          [
            "/wiki/Clachnacuddin_F.C."
          ]
        ]
      ],
      [
        [
          "Buckie Thistle",
          [
            "/wiki/Buckie_Thistle_F.C."
          ]
        ],
        [
          "2 - 1",
          []
        ],
        [
          "Rothes",
          [
            "/wiki/Rothes_F.C."
          ]
        ]
      ],
      [
        [
          "Chirnside United",
          [
            "/wiki/Chirnside_F.C."
          ]
        ],
        [
          "1 - 9",
          []
        ],
        [
          "Elgin City",
          [
            "/wiki/Elgin_City_F.C."
          ]
        ]
      ],
      [
        [
          "Duns",
          [
            "/wiki/Duns_F.C."
          ]
        ],
        [
          "3 - 0",
          []
        ],
        [
          "Deveronvale",
          [
            "/wiki/Deveronvale_F.C."
          ]
        ]
      ],
      [
        [
          "Edinburgh University",
          [
            "/wiki/Edinburgh_University_A.F.C."
          ]
        ],
        [
          "0 - 7",
          []
        ],
        [
          "Inverness Thistle",
          [
            "/wiki/Inverness_Thistle_F.C."
          ]
        ]
      ],
      [
        [
          "Eyemouth United",
          [
            "/wiki/Eyemouth_United_F.C."
          ]
        ],
        [
          "5 - 1",
          []
        ],
        [
          "Brora Rangers",
          [
            "/wiki/Brora_Rangers_F.C."
          ]
        ]
      ],
      [
        [
          "Forres Mechanics",
          [
            "/wiki/Forres_Mechanics_F.C."
          ]
        ],
        [
          "3 - 2",
          []
        ],
        [
          "Glasgow University",
          [
            "/wiki/Glasgow_University_F.C."
          ]
        ]
      ],
      [
        [
          "Fraserburgh",
          [
            "/wiki/Fraserburgh_F.C."
          ]
        ],
        [
          "3 - 1",
          []
        ],
        [
          "Aberdeen University",
          [
            "/wiki/Aberdeen_University_F.C."
          ]
        ]
      ],
      [
        [
          "Gala Fairydean",
          [
            "/wiki/Gala_Fairydean_Rovers_F.C."
          ]
        ],
        [
          "2 - 1",
          []
        ],
        [
          "Peterhead",
          [
            "/wiki/Peterhead_F.C."
          ]
        ]
      ],
      [
        [
          "Huntly",
          [
            "/wiki/Huntly_F.C."
          ]
        ],
        [
          "4 - 2",
          []
        ],
        [
          "Civil Service Strollers",
          [
            "/wiki/Civil_Service_Strollers_F.C."
          ]
        ]
      ],
      [
        [
          "Lossiemouth",
          [
            "/wiki/Lossiemouth_F.C."
          ]
        ],
        [
          "7 - 0",
          []
        ],
        [
          "Wick Academy",
          [
            "/wiki/Wick_Academy_F.C."
          ]
        ]
      ],
      [
        [
          "Murrayfield Amateurs",
          []
        ],
        [
          "2 - 2",
          []
        ],
        [
          "Shawfield Amateurs",
          [
            "/wiki/Shawfield_Amateurs_F.C."
          ]
        ]
      ],
      [
        [
          "Nairn County",
          [
            "/wiki/Nairn_County_F.C."
          ]
        ],
        [
          "1 - 4",
          []
        ],
        [
          "Inverness Caledonian",
          [
            "/wiki/Caledonian_F.C."
          ]
        ]
      ],
      [
        [
          "Newton Stewart",
          [
            "/wiki/Newton_Stewart_F.C."
          ]
        ],
        [
          "3 - 5",
          []
        ],
        [
          "Peebles Rovers",
          [
            "/wiki/Peebles_Rovers_F.C."
          ]
        ]
      ],
      [
        [
          "Ross County",
          [
            "/wiki/Ross_County_F.C."
          ]
        ],
        [
          "4 - 2",
          []
        ],
        [
          "Coldstream",
          [
            "/wiki/Coldstream_F.C."
          ]
        ]
      ],
      [
        [
          "Selkirk",
          [
            "/wiki/Selkirk_F.C."
          ]
        ],
        [
          "3 - 2",
          []
        ],
        [
          "Burntisland Shipyard",
          [
            "/wiki/Burntisland_Shipyard_F.C."
          ]
        ]
      ],
      [
        [
          "St Cuthbert Wanderers",
          [
            "/wiki/St_Cuthbert_Wanderers_F.C."
          ]
        ],
        [
          "3 - 1",
          []
        ],
        [
          "Vale of Atholl",
          []
        ]
      ],
      [
        [
          "Tarff Rovers",
          [
            "/wiki/Tarff_Rovers_F.C."
          ]
        ],
        [
          "2 - 2",
          []
        ],
        [
          "Girvan Amateurs",
          []
        ]
      ],
      [
        [
          "Wigtown & Bladnoch",
          [
            "/wiki/Wigtown_&_Bladnoch_F.C."
          ]
        ],
        [
          "0 - 7",
          []
        ],
        [
          "Keith",
          [
            "/wiki/Keith_F.C."
          ]
        ]
      ]
    ],
    "section_title": "First round",
    "section_text": "",
    "uid": "1955\u201356_Scottish_Cup_0",
    "intro": "The 1955-56 Scottish Cup was the 71st staging of Scotland's most prestigious football knockout competition. The Cup was won by Heart of Midlothian who defeated Celtic in the final. The final was a repeat of the 1907 final and was Hearts' first appearance in the final since that date."
  },
  "1962\u201363_Scottish_Cup_4": {
    "url": "https://en.wikipedia.org/wiki/1962\u201363_Scottish_Cup",
    "title": "1962\u201363 Scottish Cup",
    "header": [
      [
        "Home team",
        []
      ],
      [
        "Score",
        []
      ],
      [
        "Away team",
        []
      ]
    ],
    "data": [
      [
        [
          "Aberdeen",
          [
            "/wiki/Aberdeen_F.C."
          ]
        ],
        [
          "4 - 0",
          []
        ],
        [
          "Dunfermline Athletic",
          [
            "/wiki/Dunfermline_Athletic_F.C."
          ]
        ]
      ],
      [
        [
          "Queen of the South",
          [
            "/wiki/Queen_of_the_South_F.C."
          ]
        ],
        [
          "3 - 0",
          []
        ],
        [
          "Hamilton Academical",
          [
            "/wiki/Hamilton_Academical_F.C."
          ]
        ]
      ],
      [
        [
          "Rangers",
          [
            "/wiki/Rangers_F.C."
          ]
        ],
        [
          "7 - 2",
          []
        ],
        [
          "East Stirlingshire",
          [
            "/wiki/East_Stirlingshire_F.C."
          ]
        ]
      ],
      [
        [
          "St Mirren",
          [
            "/wiki/St_Mirren_F.C."
          ]
        ],
        [
          "1 - 1",
          []
        ],
        [
          "Partick Thistle",
          [
            "/wiki/Partick_Thistle_F.C."
          ]
        ]
      ],
      [
        [
          "Dundee",
          [
            "/wiki/Dundee_F.C."
          ]
        ],
        [
          "1 - 0",
          []
        ],
        [
          "Hibernian",
          [
            "/wiki/Hibernian_F.C."
          ]
        ]
      ],
      [
        [
          "Celtic",
          [
            "/wiki/Celtic_F.C."
          ]
        ],
        [
          "6 - 0",
          []
        ],
        [
          "Gala Fairydean",
          [
            "/wiki/Gala_Fairydean_Rovers_F.C."
          ]
        ]
      ],
      [
        [
          "Third Lanark",
          [
            "/wiki/Third_Lanark_A.C."
          ]
        ],
        [
          "0 - 1",
          []
        ],
        [
          "Raith Rovers",
          [
            "/wiki/Raith_Rovers_F.C."
          ]
        ]
      ],
      [
        [
          "Queen 's Park",
          [
            "/wiki/Queen's_Park_F.C."
          ]
        ],
        [
          "1 - 1",
          []
        ],
        [
          "Dundee United",
          [
            "/wiki/Dundee_United_F.C."
          ]
        ]
      ]
    ],
    "section_title": "Third round",
    "section_text": "",
    "uid": "1962\u201363_Scottish_Cup_4",
    "intro": "The 1962-63 Scottish Cup was the 78th staging of Scotland's most prestigious football knockout competition. The Cup was won by Rangers who defeated Celtic in the replayed final. The first round tie between Airdrie and Stranraer is notable for having been rearranged no fewer than 33 times due to inclement weather during the winter of 1962-63 in the United Kingdom."
  },
  "1946\u201347_Scottish_Cup_0": {
    "url": "https://en.wikipedia.org/wiki/1946\u201347_Scottish_Cup",
    "title": "1946\u201347 Scottish Cup",
    "header": [
      [
        "Home team",
        []
      ],
      [
        "Score",
        []
      ],
      [
        "Away team",
        []
      ]
    ],
    "data": [
      [
        [
          "Aberdeen",
          [
            "/wiki/Aberdeen_F.C."
          ]
        ],
        [
          "2 - 1",
          []
        ],
        [
          "Partick Thistle",
          [
            "/wiki/Partick_Thistle_F.C."
          ]
        ]
      ],
      [
        [
          "Albion Rovers",
          [
            "/wiki/Albion_Rovers_F.C."
          ]
        ],
        [
          "3 - 0",
          []
        ],
        [
          "Airdrieonians",
          [
            "/wiki/Airdrieonians_F.C._(1878)"
          ]
        ]
      ],
      [
        [
          "Alloa Athletic",
          [
            "/wiki/Alloa_Athletic_F.C."
          ]
        ],
        [
          "0 - 8",
          []
        ],
        [
          "Hibernian",
          [
            "/wiki/Hibernian_F.C."
          ]
        ]
      ],
      [
        [
          "Arbroath",
          [
            "/wiki/Arbroath_F.C."
          ]
        ],
        [
          "2 - 2",
          []
        ],
        [
          "Stenhousemuir",
          [
            "/wiki/Stenhousemuir_F.C."
          ]
        ]
      ],
      [
        [
          "Clachnacuddin",
          [
            "/wiki/Clachnacuddin_F.C."
          ]
        ],
        [
          "1 - 1",
          []
        ],
        [
          "East Stirlingshire",
          [
            "/wiki/East_Stirlingshire_F.C."
          ]
        ]
      ],
      [
        [
          "Dundee",
          [
            "/wiki/Dundee_F.C."
          ]
        ],
        [
          "2 - 1",
          []
        ],
        [
          "Celtic",
          [
            "/wiki/Celtic_F.C."
          ]
        ]
      ],
      [
        [
          "East Fife",
          [
            "/wiki/East_Fife_F.C."
          ]
        ],
        [
          "6 - 2",
          []
        ],
        [
          "Dunfermline Athletic",
          [
            "/wiki/Dunfermline_Athletic_F.C."
          ]
        ]
      ],
      [
        [
          "Falkirk",
          [
            "/wiki/Falkirk_F.C."
          ]
        ],
        [
          "2 - 0",
          []
        ],
        [
          "Kilmarnock",
          [
            "/wiki/Kilmarnock_F.C."
          ]
        ]
      ],
      [
        [
          "Hamilton Academical",
          [
            "/wiki/Hamilton_Academical_F.C."
          ]
        ],
        [
          "1 - 1",
          []
        ],
        [
          "Third Lanark",
          [
            "/wiki/Third_Lanark_A.C."
          ]
        ]
      ],
      [
        [
          "Hearts",
          [
            "/wiki/Heart_of_Midlothian_F.C."
          ]
        ],
        [
          "3 - 0",
          []
        ],
        [
          "St Johnstone",
          [
            "/wiki/St_Johnstone_F.C."
          ]
        ]
      ],
      [
        [
          "Greenock Morton",
          [
            "/wiki/Greenock_Morton_F.C."
          ]
        ],
        [
          "4 - 0",
          []
        ],
        [
          "Edinburgh City",
          [
            "/wiki/Edinburgh_City_F.C._(1928)"
          ]
        ]
      ],
      [
        [
          "Motherwell",
          [
            "/wiki/Motherwell_F.C."
          ]
        ],
        [
          "3 - 0",
          []
        ],
        [
          "Forfar Athletic",
          [
            "/wiki/Forfar_Athletic_F.C."
          ]
        ]
      ],
      [
        [
          "Peterhead",
          [
            "/wiki/Peterhead_F.C."
          ]
        ],
        [
          "1 - 5",
          []
        ],
        [
          "Ayr United",
          [
            "/wiki/Ayr_United_F.C."
          ]
        ]
      ],
      [
        [
          "Queen of the South",
          [
            "/wiki/Queen_of_the_South_F.C."
          ]
        ],
        [
          "3 - 4",
          []
        ],
        [
          "Raith Rovers",
          [
            "/wiki/Raith_Rovers_F.C."
          ]
        ]
      ],
      [
        [
          "Queens Park",
          [
            "/wiki/Queen's_Park_F.C."
          ]
        ],
        [
          "3 - 0",
          []
        ],
        [
          "Dundee United",
          [
            "/wiki/Dundee_United_F.C."
          ]
        ]
      ],
      [
        [
          "Rangers",
          [
            "/wiki/Rangers_F.C."
          ]
        ],
        [
          "2 - 1",
          []
        ],
        [
          "Clyde",
          [
            "/wiki/Clyde_F.C."
          ]
        ]
      ],
      [
        [
          "St Mirren",
          [
            "/wiki/St_Mirren_F.C."
          ]
        ],
        [
          "2 - 3",
          []
        ],
        [
          "Dumbarton",
          [
            "/wiki/Dumbarton_F.C."
          ]
        ]
      ],
      [
        [
          "Stranraer",
          [
            "/wiki/Stranraer_F.C."
          ]
        ],
        [
          "0 - 5",
          []
        ],
        [
          "Cowdenbeath",
          [
            "/wiki/Cowdenbeath_F.C."
          ]
        ]
      ]
    ],
    "section_title": "First round",
    "section_text": "",
    "uid": "1946\u201347_Scottish_Cup_0",
    "intro": "The 1946-47 Scottish Cup was the 62nd staging of Scotland's most prestigious football knockout competition. The Cup was won by Aberdeen who defeated Hibernian in the final."
  },
  "1982\u201383_Scottish_Cup_0": {
    "url": "https://en.wikipedia.org/wiki/1982\u201383_Scottish_Cup",
    "title": "1982\u201383 Scottish Cup",
    "header": [
      [
        "Home team",
        []
      ],
      [
        "Score",
        []
      ],
      [
        "Away team",
        []
      ]
    ],
    "data": [
      [
        [
          "Peterhead",
          [
            "/wiki/Peterhead_F.C."
          ]
        ],
        [
          "0 - 5",
          []
        ],
        [
          "Forfar Athletic",
          [
            "/wiki/Forfar_Athletic_F.C."
          ]
        ]
      ],
      [
        [
          "Stirling Albion",
          [
            "/wiki/Stirling_Albion_F.C."
          ]
        ],
        [
          "1 - 0",
          []
        ],
        [
          "East Stirlingshire",
          [
            "/wiki/East_Stirlingshire_F.C."
          ]
        ]
      ],
      [
        [
          "Vale of Leithen",
          [
            "/wiki/Vale_of_Leithen_F.C."
          ]
        ],
        [
          "0 - 0",
          []
        ],
        [
          "Stranraer",
          [
            "/wiki/Stranraer_F.C."
          ]
        ]
      ],
      [
        [
          "Brechin City",
          [
            "/wiki/Brechin_City_F.C."
          ]
        ],
        [
          "2 - 0",
          []
        ],
        [
          "Cowdenbeath",
          [
            "/wiki/Cowdenbeath_F.C."
          ]
        ]
      ],
      [
        [
          "Meadowbank Thistle",
          [
            "/wiki/Livingston_F.C."
          ]
        ],
        [
          "1 - 2",
          []
        ],
        [
          "Elgin City",
          [
            "/wiki/Elgin_City_F.C."
          ]
        ]
      ],
      [
        [
          "Selkirk",
          [
            "/wiki/Selkirk_F.C."
          ]
        ],
        [
          "0 - 2",
          []
        ],
        [
          "Brora Rangers ( HL )",
          [
            "/wiki/Brora_Rangers_F.C."
          ]
        ]
      ]
    ],
    "section_title": "First round",
    "section_text": "",
    "uid": "1982\u201383_Scottish_Cup_0",
    "intro": "The 1982-83 Scottish Cup was the 98th staging of Scotland's most prestigious football knockout competition. The Cup was won by Aberdeen who defeated Rangers in the final."
  },
  "2008\u201309_Top_14_season_5": {
    "url": "https://en.wikipedia.org/wiki/2008\u201309_Top_14_season",
    "title": "2008\u201309 Top 14 season",
    "header": [
      [
        "Rank",
        []
      ],
      [
        "Player",
        []
      ],
      [
        "Club",
        []
      ],
      [
        "Tries",
        []
      ]
    ],
    "data": [
      [
        [
          "1",
          []
        ],
        [
          "Napolioni Nalaga",
          [
            "/wiki/Napolioni_Nalaga"
          ]
        ],
        [
          "Clermont",
          [
            "/wiki/ASM_Clermont_Auvergne"
          ]
        ],
        [
          "21",
          []
        ]
      ],
      [
        [
          "2",
          []
        ],
        [
          "Vilimoni Delasau",
          [
            "/wiki/Vilimoni_Delasau"
          ]
        ],
        [
          "Montauban",
          [
            "/wiki/US_Montauban"
          ]
        ],
        [
          "10",
          []
        ]
      ],
      [
        [
          "2",
          []
        ],
        [
          "Takudzwa Ngwenya",
          [
            "/wiki/Takudzwa_Ngwenya"
          ]
        ],
        [
          "Biarritz",
          [
            "/wiki/Biarritz_Olympique"
          ]
        ],
        [
          "10",
          []
        ]
      ],
      [
        [
          "2",
          []
        ],
        [
          "Sam Gerber",
          [
            "/wiki/Sam_Gerber"
          ]
        ],
        [
          "Bayonne",
          [
            "/wiki/Aviron_Bayonnais"
          ]
        ],
        [
          "10",
          []
        ]
      ],
      [
        [
          "3",
          []
        ],
        [
          "Julien Candelon",
          [
            "/wiki/Julien_Candelon"
          ]
        ],
        [
          "Perpignan",
          [
            "/wiki/USA_Perpignan"
          ]
        ],
        [
          "9",
          []
        ]
      ],
      [
        [
          "3",
          []
        ],
        [
          "Anthony Floch",
          [
            "/wiki/Anthony_Floch"
          ]
        ],
        [
          "Clermont",
          [
            "/wiki/ASM_Clermont_Auvergne"
          ]
        ],
        [
          "9",
          []
        ]
      ],
      [
        [
          "4",
          []
        ],
        [
          "Mathieu Bastareaud",
          [
            "/wiki/Mathieu_Bastareaud"
          ]
        ],
        [
          "Stade Fran\u00e7ais",
          [
            "/wiki/Stade_Fran\u00e7ais"
          ]
        ],
        [
          "8",
          []
        ]
      ],
      [
        [
          "5",
          []
        ],
        [
          "Byron Kelleher",
          [
            "/wiki/Byron_Kelleher"
          ]
        ],
        [
          "Toulouse",
          [
            "/wiki/Stade_Toulousain"
          ]
        ],
        [
          "7",
          []
        ]
      ],
      [
        [
          "5",
          []
        ],
        [
          "Maxime M\u00e9dard",
          [
            "/wiki/Maxime_M\u00e9dard"
          ]
        ],
        [
          "Toulouse",
          [
            "/wiki/Stade_Toulousain"
          ]
        ],
        [
          "7",
          []
        ]
      ],
      [
        [
          "5",
          []
        ],
        [
          "Neumi Nanuku",
          [
            "/wiki/Neumi_Nanuku"
          ]
        ],
        [
          "Dax",
          [
            "/wiki/US_Dax"
          ]
        ],
        [
          "7",
          []
        ]
      ],
      [
        [
          "5",
          []
        ],
        [
          "Aur\u00e9lien Rougerie",
          [
            "/wiki/Aur\u00e9lien_Rougerie"
          ]
        ],
        [
          "Clermont",
          [
            "/wiki/ASM_Clermont_Auvergne"
          ]
        ],
        [
          "7",
          []
        ]
      ]
    ],
    "section_title": "Top try scorers",
    "section_text": "",
    "uid": "2008\u201309_Top_14_season_5",
    "intro": "The 2008-09 Top 14 Competition was a French domestic rugby union club competition operated by the Ligue Nationale de Rugby (LNR). It ran from late August 2008 through the final at Stade de France on June 6, 2009, in which Perpignan lifted the Bouclier de Brennus with a 22-13 win over Clermont. This year's edition of the Top 14 welcomed Toulon, winners of the 2008 title in the second-level Pro D2, and Mont-de-Marsan, victors in the 2008 promotion playoffs between the second- through fifth-place teams in Pro D2. They took the place of Auch and Albi, relegated at the end of the 2007-08 Top 14. Auch, which had been promoted to the Top 14 for 2007-08, finished bottom of the table and went down. The other newly promoted team in 2007-08, Dax, finished second-from-bottom, but were reprieved when French sporting authorities forcibly relegated 12th-place Albi to Pro D2 due to financial issues."
  },
  "1937\u201338_Coppa_Italia_11": {
    "url": "https://en.wikipedia.org/wiki/1937\u201338_Coppa_Italia",
    "title": "1937\u201338 Coppa Italia",
    "header": [
      [
        "Home team",
        []
      ],
      [
        "Score",
        []
      ],
      [
        "Away team",
        []
      ]
    ],
    "data": [
      [
        [
          "Venezia",
          [
            "/wiki/Venezia_Calcio_a_5"
          ]
        ],
        [
          "1-1 ( aet )",
          [
            "/wiki/Overtime_(sports)"
          ]
        ],
        [
          "Atalanta",
          [
            "/wiki/Atalanta_B.C."
          ]
        ]
      ],
      [
        [
          "Ambrosiana-Inter",
          [
            "/wiki/Inter_Milan"
          ]
        ],
        [
          "5-1",
          []
        ],
        [
          "Bari",
          [
            "/wiki/S.S.C._Bari"
          ]
        ]
      ],
      [
        [
          "Brescia",
          [
            "/wiki/Brescia_Calcio"
          ]
        ],
        [
          "3-1",
          []
        ],
        [
          "Genova 1893",
          [
            "/wiki/Genoa_C.F.C."
          ]
        ]
      ],
      [
        [
          "Bologna",
          [
            "/wiki/Bologna_F.C._1909"
          ]
        ],
        [
          "4-1",
          []
        ],
        [
          "SPAL",
          [
            "/wiki/S.P.A.L."
          ]
        ]
      ],
      [
        [
          "Juventus",
          [
            "/wiki/Juventus_F.C."
          ]
        ],
        [
          "1-0",
          []
        ],
        [
          "Alessandria",
          [
            "/wiki/U.S._Alessandria_Calcio_1912"
          ]
        ]
      ],
      [
        [
          "Liguria",
          []
        ],
        [
          "0-0 ( aet )",
          [
            "/wiki/Overtime_(sports)"
          ]
        ],
        [
          "Milano",
          [
            "/wiki/A.C._Milan"
          ]
        ]
      ],
      [
        [
          "Napoli",
          [
            "/wiki/S.S.C._Napoli"
          ]
        ],
        [
          "4-2",
          []
        ],
        [
          "Roma",
          [
            "/wiki/A.S._Roma"
          ]
        ]
      ],
      [
        [
          "SIAI Marchetti",
          [
            "/wiki/U.S._Sestese_Calcio"
          ]
        ],
        [
          "0-1",
          []
        ],
        [
          "Torino",
          [
            "/wiki/Torino_F.C."
          ]
        ]
      ]
    ],
    "section_title": "Second round",
    "section_text": "",
    "uid": "1937\u201338_Coppa_Italia_11",
    "intro": "The 1937-38 Coppa Italia was the 5th Coppa Italia, the major Italian domestic cup. The competition was won by Juventus. The final resulting the Turin derby, and both teams having their own stadium, a two-legged final was decided."
  },
  "1981\u201382_Scottish_Cup_2": {
    "url": "https://en.wikipedia.org/wiki/1981\u201382_Scottish_Cup",
    "title": "1981\u201382 Scottish Cup",
    "header": [
      [
        "Home team",
        []
      ],
      [
        "Score",
        []
      ],
      [
        "Away team",
        []
      ]
    ],
    "data": [
      [
        [
          "Albion Rovers",
          [
            "/wiki/Albion_Rovers_F.C."
          ]
        ],
        [
          "2 - 1",
          []
        ],
        [
          "Clachnacuddin",
          [
            "/wiki/Clachnacuddin_F.C."
          ]
        ]
      ],
      [
        [
          "Cowdenbeath",
          [
            "/wiki/Cowdenbeath_F.C."
          ]
        ],
        [
          "1 - 1",
          []
        ],
        [
          "Gala Fairydean",
          [
            "/wiki/Gala_Fairydean_Rovers_F.C."
          ]
        ]
      ],
      [
        [
          "Inverness Caledonian",
          [
            "/wiki/Caledonian_F.C."
          ]
        ],
        [
          "1 - 3",
          []
        ],
        [
          "Brechin City",
          [
            "/wiki/Brechin_City_F.C."
          ]
        ]
      ],
      [
        [
          "Alloa Athletic",
          [
            "/wiki/Alloa_Athletic_F.C."
          ]
        ],
        [
          "4 - 1",
          []
        ],
        [
          "Hawick Royal Albert",
          [
            "/wiki/Hawick_Royal_Albert_United_F.C."
          ]
        ]
      ],
      [
        [
          "Clyde",
          [
            "/wiki/Clyde_F.C."
          ]
        ],
        [
          "0 - 0",
          []
        ],
        [
          "Berwick Rangers",
          [
            "/wiki/Berwick_Rangers_F.C."
          ]
        ]
      ],
      [
        [
          "Coldstream",
          [
            "/wiki/Coldstream_F.C."
          ]
        ],
        [
          "0 - 2",
          []
        ],
        [
          "Meadowbank Thistle",
          [
            "/wiki/Livingston_F.C."
          ]
        ]
      ],
      [
        [
          "Montrose",
          [
            "/wiki/Montrose_F.C."
          ]
        ],
        [
          "0 - 0",
          []
        ],
        [
          "Elgin City",
          [
            "/wiki/Elgin_City_F.C."
          ]
        ]
      ],
      [
        [
          "East Fife",
          [
            "/wiki/East_Fife_F.C."
          ]
        ],
        [
          "2 - 3",
          []
        ],
        [
          "Forfar Athletic",
          [
            "/wiki/Forfar_Athletic_F.C."
          ]
        ]
      ]
    ],
    "section_title": "Second round",
    "section_text": "",
    "uid": "1981\u201382_Scottish_Cup_2",
    "intro": "The 1981-82 Scottish Cup was the 97th staging of Scotland's most prestigious football knockout competition. The Cup was won by Aberdeen who defeated Rangers in the final."
  },
  "1890\u201391_Scottish_Cup_3": {
    "url": "https://en.wikipedia.org/wiki/1890\u201391_Scottish_Cup",
    "title": "1890\u201391 Scottish Cup",
    "header": [
      [
        "Home team",
        []
      ],
      [
        "Score",
        []
      ],
      [
        "Away team",
        []
      ]
    ],
    "data": [
      [
        [
          "Burnbank Swifts",
          [
            "/wiki/Burnbank_Swifts_F.C."
          ]
        ],
        [
          "3 - 0",
          []
        ],
        [
          "Stevenston Thistle",
          []
        ]
      ],
      [
        [
          "Slamannan",
          [
            "/wiki/Slamannan_F.C."
          ]
        ],
        [
          "3 - 5",
          []
        ],
        [
          "Clydebank",
          [
            "/wiki/Clydebank_F.C."
          ]
        ]
      ],
      [
        [
          "Campsie",
          [
            "/wiki/Campsie_F.C."
          ]
        ],
        [
          "1 - 3",
          []
        ],
        [
          "E.Stirlingshire",
          [
            "/wiki/East_Stirlingshire_F.C."
          ]
        ]
      ],
      [
        [
          "Carfin Shamrock",
          []
        ],
        [
          "1 - 3",
          []
        ],
        [
          "Celtic",
          [
            "/wiki/Celtic_F.C."
          ]
        ]
      ],
      [
        [
          "Uddingston",
          []
        ],
        [
          "5 - 1",
          []
        ],
        [
          "Newmilns",
          []
        ]
      ]
    ],
    "section_title": "Second round -- Second round replay",
    "section_text": "",
    "uid": "1890\u201391_Scottish_Cup_3",
    "intro": "The 1890-91 Scottish Cup was the 18th season of Scotland's most prestigious football knockout competition. Heart of Midlothian defeated Dumbarton 1-0 to win the trophy."
  }
}