{
  "1993\u201394_Ukrainian_Cup_2": {
    "url": "https://en.wikipedia.org/wiki/1993\u201394_Ukrainian_Cup",
    "title": "1993\u201394 Ukrainian Cup",
    "header": [
      [
        "Team 1",
        []
      ],
      [
        "Agg",
        [
          "/wiki/Playoff_format"
        ]
      ],
      [
        "Team 2",
        []
      ],
      [
        "1st leg",
        []
      ],
      [
        "2nd leg",
        []
      ]
    ],
    "data": [
      [
        [
          "FC Volyn Lutsk",
          [
            "/wiki/FC_Volyn_Lutsk"
          ]
        ],
        [
          "3-2",
          []
        ],
        [
          "FC Bukovyna Chernivtsi",
          [
            "/wiki/FSC_Bukovyna_Chernivtsi"
          ]
        ],
        [
          "2-0",
          []
        ],
        [
          "1-2",
          []
        ]
      ],
      [
        [
          "FC Zorya Luhansk",
          [
            "/wiki/FC_Zorya_Luhansk"
          ]
        ],
        [
          "3-8",
          []
        ],
        [
          "FC Karpaty Lviv",
          [
            "/wiki/FC_Karpaty_Lviv"
          ]
        ],
        [
          "2-2",
          []
        ],
        [
          "1-6",
          []
        ]
      ],
      [
        [
          "FC Nyva Vinnytsia",
          [
            "/wiki/FC_Nyva_Vinnytsia"
          ]
        ],
        [
          "3-4",
          []
        ],
        [
          "FC Dnipro Dnipropetrovsk",
          [
            "/wiki/FC_Dnipro_Dnipropetrovsk"
          ]
        ],
        [
          "2-0",
          []
        ],
        [
          "1-4",
          []
        ]
      ],
      [
        [
          "FC Metalurh Zaporizhia",
          [
            "/wiki/FC_Metalurh_Zaporizhya"
          ]
        ],
        [
          "0-4",
          []
        ],
        [
          "FC Chornomorets Odesa",
          [
            "/wiki/FC_Chornomorets_Odesa"
          ]
        ],
        [
          "0-1",
          []
        ],
        [
          "0-3",
          []
        ]
      ],
      [
        [
          "FC Nyva Ternopil",
          [
            "/wiki/PFC_Nyva_Ternopil"
          ]
        ],
        [
          "0-3",
          []
        ],
        [
          "SC Tavriya Simferopol",
          [
            "/wiki/SC_Tavriya_Simferopol"
          ]
        ],
        [
          "0-0",
          []
        ],
        [
          "0-3",
          []
        ]
      ],
      [
        [
          "FC Kremin Kremenchuk",
          [
            "/wiki/MFC_Kremin_Kremenchuk"
          ]
        ],
        [
          "3-2",
          []
        ],
        [
          "FC Shakhtar Donetsk",
          [
            "/wiki/FC_Shakhtar_Donetsk"
          ]
        ],
        [
          "2-1",
          []
        ],
        [
          "1-1",
          []
        ]
      ],
      [
        [
          "FC Temp Shepetivka",
          [
            "/wiki/FC_Temp_Shepetivka"
          ]
        ],
        [
          "2-3",
          []
        ],
        [
          "FC Torpedo Zaporizhia",
          [
            "/wiki/FC_Torpedo_Zaporizhia"
          ]
        ],
        [
          "2-1",
          []
        ],
        [
          "0-2",
          []
        ]
      ],
      [
        [
          "FC Veres Rivne",
          [
            "/wiki/NK_Veres_Rivne"
          ]
        ],
        [
          "( a ) 1-1",
          [
            "/wiki/Away_goals_rule"
          ]
        ],
        [
          "FC Dynamo Kyiv",
          [
            "/wiki/FC_Dynamo_Kyiv"
          ]
        ],
        [
          "0-0",
          []
        ],
        [
          "1-1",
          []
        ]
      ]
    ],
    "section_title": "Competition schedule -- Second Elimination Round",
    "section_text": "",
    "uid": "1993\u201394_Ukrainian_Cup_2",
    "intro": "The Ukrainian Cup 1993-94 is the third annual edition of Ukraine's football knockout competition, known as the Ukrainian Cup. The Cup started with the round of 32, but it also had couple of preliminaries. The tournament started on August 1, 1993, with numerous games across the country and concluded with its final game on May 29, 1994. The last season defending champion FC Dynamo Kyiv was eliminated in the Round of 16 by FC Veres Rivne on the away goal rule. This season cup holders became FC Chornomorets Odessa that in the final defeated the Crimean SC Tavriya Simferopol on the penalty shootout. Kryvbas Kryvyi Rih served its suspension for refusing to play last season and was not included in competition for the season."
  },
  "2019\u201320_Women's_FA_Cup_12": {
    "url": "https://en.wikipedia.org/wiki/2019\u201320_Women's_FA_Cup",
    "title": "2019\u201320 Women's FA Cup",
    "header": [
      [
        "Tie",
        []
      ],
      [
        "Home team ( Tier )",
        []
      ],
      [
        "Score",
        []
      ],
      [
        "Away team ( Tier )",
        []
      ]
    ],
    "data": [
      [
        [
          "1",
          []
        ],
        [
          "Fylde ( 3 )",
          [
            "/wiki/Fylde_Ladies_F.C."
          ]
        ],
        [
          "1-4",
          []
        ],
        [
          "Sunderland ( 3 )",
          [
            "/wiki/Sunderland_A.F.C._Ladies"
          ]
        ]
      ],
      [
        [
          "2",
          []
        ],
        [
          "Burnley ( 3 )",
          [
            "/wiki/Burnley_F.C._Women"
          ]
        ],
        [
          "2-1",
          []
        ],
        [
          "Nottingham Forest ( 3 )",
          [
            "/wiki/Nottingham_Forest_Women_F.C."
          ]
        ]
      ],
      [
        [
          "3",
          []
        ],
        [
          "Loughborough Foxes ( 3 )",
          [
            "/wiki/Loughborough_Foxes_W.F.C."
          ]
        ],
        [
          "2-3",
          []
        ],
        [
          "Huddersfield Town ( 3 )",
          [
            "/wiki/Huddersfield_Town_Women_F.C."
          ]
        ]
      ],
      [
        [
          "4",
          []
        ],
        [
          "Brighouse Town ( 4 )",
          []
        ],
        [
          "0-1",
          []
        ],
        [
          "Barnsley ( 4 )",
          [
            "/wiki/Barnsley_W.F.C."
          ]
        ]
      ],
      [
        [
          "5",
          []
        ],
        [
          "Ipswich Town ( 4 )",
          [
            "/wiki/Ipswich_Town_F.C._Women"
          ]
        ],
        [
          "1-0",
          []
        ],
        [
          "Portsmouth ( 3 )",
          [
            "/wiki/Portsmouth_F.C._Women"
          ]
        ]
      ],
      [
        [
          "6",
          []
        ],
        [
          "Watford ( 3 )",
          [
            "/wiki/Watford_F.C._Ladies"
          ]
        ],
        [
          "5-0",
          []
        ],
        [
          "Plymouth Argyle ( 3 )",
          [
            "/wiki/Plymouth_Argyle_L.F.C."
          ]
        ]
      ],
      [
        [
          "7",
          []
        ],
        [
          "Cardiff City Ladies ( 3 )",
          [
            "/wiki/Cardiff_City_Ladies_F.C."
          ]
        ],
        [
          "1-2",
          []
        ],
        [
          "Southampton F.C . ( 4 )",
          [
            "/wiki/Southampton_F.C._Women"
          ]
        ]
      ],
      [
        [
          "8",
          []
        ],
        [
          "Southampton Women 's F.C . ( 4 )",
          [
            "/wiki/Southampton_Women's_F.C."
          ]
        ],
        [
          "3-1",
          []
        ],
        [
          "West Bromwich Albion ( 3 )",
          [
            "/wiki/West_Bromwich_Albion_F.C._Women"
          ]
        ]
      ],
      [
        [
          "9",
          []
        ],
        [
          "Billericay Town ( 4 )",
          []
        ],
        [
          "3-2",
          []
        ],
        [
          "Actonians ( 4 )",
          []
        ]
      ]
    ],
    "section_title": "Third round proper",
    "section_text": "Nine matches were scheduled for the third round proper , which were played on Sundays 5 and 12 January 2020 . The round was made up of the 18 winners from the previous round and did not include the introduction of any new teams .",
    "uid": "2019\u201320_Women's_FA_Cup_12",
    "intro": "The 2019-20 Women's FA Cup is the 50th staging of the Women's FA Cup, a knockout cup competition for women's football teams in England. Manchester City are the defending champions, having beaten West Ham United 3-0 in the previous final."
  }
}