{
  "2010\u201311_Women's_EHF_Cup_2": {
    "url": "https://en.wikipedia.org/wiki/2010\u201311_Women's_EHF_Cup",
    "title": "2010\u201311 Women's EHF Cup",
    "header": [
      [
        "Team # 1",
        []
      ],
      [
        "Agg",
        []
      ],
      [
        "Team # 2",
        []
      ],
      [
        "1st match",
        []
      ],
      [
        "2nd match",
        []
      ]
    ],
    "data": [
      [
        [
          "Le\u00f3n",
          [
            "/wiki/Club_Le\u00f3n_Balonmano"
          ]
        ],
        [
          "52-57",
          []
        ],
        [
          "Sagunto",
          [
            "/wiki/BM_Sagunto"
          ]
        ],
        [
          "24-24",
          []
        ],
        [
          "28-33",
          []
        ]
      ],
      [
        [
          "Kuban Krasnodar",
          [
            "/wiki/HC_Kuban_Krasnodar"
          ]
        ],
        [
          "60-52",
          []
        ],
        [
          "Maliye",
          [
            "/wiki/Maliye_Milli_Piyango_SK"
          ]
        ],
        [
          "33-26",
          []
        ],
        [
          "27-26",
          []
        ]
      ],
      [
        [
          "Lada Togliatti",
          [
            "/wiki/Handball_Club_Lada"
          ]
        ],
        [
          "67-36",
          []
        ],
        [
          "Spono Nottwil",
          [
            "/wiki/Spono_Nottwil"
          ]
        ],
        [
          "37-24",
          []
        ],
        [
          "30-12",
          []
        ]
      ],
      [
        [
          "Sk\u00f6vde",
          [
            "/wiki/Sk\u00f6vde_HF"
          ]
        ],
        [
          "44-48",
          []
        ],
        [
          "Metalurg Skopje",
          [
            "/wiki/\u017dRK_Metalurg"
          ]
        ],
        [
          "20-27",
          []
        ],
        [
          "24-21",
          []
        ]
      ],
      [
        [
          "Spartak Kiev",
          [
            "/wiki/HC_Spartak_Kyiv"
          ]
        ],
        [
          "51-54",
          []
        ],
        [
          "Olimpija Ljubljana",
          [
            "/wiki/RK_Olimpija"
          ]
        ],
        [
          "26-24",
          []
        ],
        [
          "25-30",
          []
        ]
      ],
      [
        [
          "Tvis Holstebro",
          [
            "/wiki/TTH_Holstebro"
          ]
        ],
        [
          "54-49",
          []
        ],
        [
          "Bayer Leverkusen",
          [
            "/wiki/Bayer_04_Leverkusen_(handball)"
          ]
        ],
        [
          "27-23",
          []
        ],
        [
          "27-26",
          []
        ]
      ],
      [
        [
          "Izmir",
          [
            "/wiki/\u0130zmir_B\u00fcy\u00fck\u015fehir_Belediyesi_GSK"
          ]
        ],
        [
          "44-58",
          []
        ],
        [
          "By\u00e5sen",
          [
            "/wiki/By\u00e5sen_IL"
          ]
        ],
        [
          "25-29",
          []
        ],
        [
          "19-29",
          []
        ]
      ],
      [
        [
          "V\u00e1ci NKSE",
          [
            "/wiki/V\u00e1ci_NKSE"
          ]
        ],
        [
          "81-65",
          []
        ],
        [
          "Elda",
          [
            "/wiki/CBF_Elda"
          ]
        ],
        [
          "38-30",
          []
        ],
        [
          "43-35",
          []
        ]
      ],
      [
        [
          "AC Ormi-Loux Patras",
          [
            "/wiki/Ormi_Patras"
          ]
        ],
        [
          "47-52",
          []
        ],
        [
          "Dun\u0103rea Br\u0103ila",
          [
            "/wiki/HC_Dun\u0103rea_Br\u0103ila"
          ]
        ],
        [
          "21-22",
          []
        ],
        [
          "26-30",
          []
        ]
      ],
      [
        [
          "Buxtehuder",
          [
            "/wiki/Buxtehuder_SV"
          ]
        ],
        [
          "52-53",
          []
        ],
        [
          "Esbjerg",
          [
            "/wiki/Team_Esbjerg"
          ]
        ],
        [
          "29-25",
          []
        ],
        [
          "23-28",
          []
        ]
      ],
      [
        [
          "Naisa Ni\u0161",
          [
            "/wiki/\u017dRK_Naisa"
          ]
        ],
        [
          "49-62",
          []
        ],
        [
          "Midtjylland",
          [
            "/wiki/Herning-Ikast_H\u00e5ndbold"
          ]
        ],
        [
          "23-31",
          []
        ],
        [
          "26-31",
          []
        ]
      ],
      [
        [
          "Lublin",
          [
            "/wiki/MKS_Lublin"
          ]
        ],
        [
          "44-48",
          []
        ],
        [
          "Le Havre",
          [
            "/wiki/Le_Havre_AC_(handball)"
          ]
        ],
        [
          "22-24",
          []
        ],
        [
          "22-24",
          []
        ]
      ],
      [
        [
          "Vejen",
          [
            "/wiki/Vejen_EH"
          ]
        ],
        [
          "65-48",
          []
        ],
        [
          "Frisch Auf ! G\u00f6ppingen",
          [
            "/wiki/Frisch_Auf_G\u00f6ppingen"
          ]
        ],
        [
          "28-19",
          []
        ],
        [
          "37-29",
          []
        ]
      ],
      [
        [
          "Gil Eanes",
          []
        ],
        [
          "59-68",
          []
        ],
        [
          "VOC Amsterdam",
          [
            "/wiki/VOC_Amsterdam"
          ]
        ],
        [
          "30-34",
          []
        ],
        [
          "29-34",
          []
        ]
      ],
      [
        [
          "Universitatea Cluj",
          [
            "/wiki/CS_Universitatea_Cluj-Napoca_(women's_handball)"
          ]
        ],
        [
          "58-67",
          []
        ],
        [
          "Oldenburg",
          [
            "/wiki/VfL_Oldenburg"
          ]
        ],
        [
          "28-30",
          []
        ],
        [
          "30-37",
          []
        ]
      ],
      [
        [
          "Zal\u0103u",
          [
            "/wiki/HC_Zal\u0103u"
          ]
        ],
        [
          "51-55",
          []
        ],
        [
          "Zaje\u010dar",
          [
            "/wiki/\u017dRK_Zaje\u010dar"
          ]
        ],
        [
          "29-25",
          []
        ],
        [
          "22-30",
          []
        ]
      ]
    ],
    "section_title": "Qualifying Rounds -- Round 3",
    "section_text": "",
    "uid": "2010\u201311_Women's_EHF_Cup_2",
    "intro": "The 2010-11 Women's EHF Cup was the 30th edition of the competition, taking place from 4 September 2010 to 8 May 2011. Denmark's FC Midtjylland defeated compatriot Team Tvis Holstebro to win its second EHF Cup. It was the second time the final was played by two clubs from the same country."
  },
  "2014\u201315_LEB_Oro_season_9": {
    "url": "https://en.wikipedia.org/wiki/2014\u201315_LEB_Oro_season",
    "title": "2014\u201315 LEB Oro season",
    "header": [
      [
        "Rk",
        []
      ],
      [
        "Name",
        []
      ],
      [
        "Team",
        []
      ],
      [
        "Games",
        []
      ],
      [
        "Rating",
        []
      ],
      [
        "PIR",
        []
      ]
    ],
    "data": [
      [
        [
          "1",
          []
        ],
        [
          "Ricardo Guill\u00e9n",
          [
            "/wiki/Ricardo_Guill\u00e9n"
          ]
        ],
        [
          "Instituto de Fertilidad Cl\u00ednicas Rinc\u00f3n",
          [
            "/wiki/CB_Axarqu\u00eda"
          ]
        ],
        [
          "25",
          []
        ],
        [
          "510",
          []
        ],
        [
          "20.4",
          []
        ]
      ],
      [
        [
          "2",
          []
        ],
        [
          "Taylor Coppenrath",
          [
            "/wiki/Taylor_Coppenrath"
          ]
        ],
        [
          "Ford Burgos",
          [
            "/wiki/CB_Tizona"
          ]
        ],
        [
          "28",
          []
        ],
        [
          "462",
          []
        ],
        [
          "16.5",
          []
        ]
      ],
      [
        [
          "3",
          []
        ],
        [
          "\u00c1lex Llorca",
          [
            "/wiki/\u00c1lex_Llorca"
          ]
        ],
        [
          "Ribeira Sacra Breog\u00e1n Lugo",
          [
            "/wiki/CB_Breog\u00e1n"
          ]
        ],
        [
          "26",
          []
        ],
        [
          "425",
          []
        ],
        [
          "16.3",
          []
        ]
      ],
      [
        [
          "4",
          []
        ],
        [
          "Urko Otegui",
          []
        ],
        [
          "Quesos Cerrato Palencia",
          [
            "/wiki/Palencia_Baloncesto"
          ]
        ],
        [
          "28",
          []
        ],
        [
          "422",
          []
        ],
        [
          "15.1",
          []
        ]
      ],
      [
        [
          "5",
          []
        ],
        [
          "Mikel Uriz",
          []
        ],
        [
          "MyWigo Valladolid",
          [
            "/wiki/CB_Valladolid"
          ]
        ],
        [
          "28",
          []
        ],
        [
          "411",
          []
        ],
        [
          "14.7",
          []
        ]
      ]
    ],
    "section_title": "Stats leaders in regular season -- Performance Index Rating",
    "section_text": "",
    "uid": "2014\u201315_LEB_Oro_season_9",
    "intro": "The 2014-15 LEB Oro season is the 19th season of the Liga Espa\u00f1ola de Baloncesto, the Spanish basketball second division. It is named Adecco Oro as its sponsored identity. The season will start in October 3 and will end in May 15, 17 or 19 with the last game of the promotion playoffs finals."
  },
  "2002\u201303_PAOK_F.C._season_2": {
    "url": "https://en.wikipedia.org/wiki/2002\u201303_PAOK_FC_season",
    "title": "2002\u201303 PAOK FC season",
    "header": [
      [
        "Transfer Window",
        []
      ],
      [
        "Pos",
        []
      ],
      [
        "Name",
        []
      ],
      [
        "Club",
        []
      ],
      [
        "Fee",
        []
      ]
    ],
    "data": [
      [
        [
          "Summer",
          []
        ],
        [
          "DF",
          []
        ],
        [
          "Georgios Koulakiotis",
          [
            "/wiki/Georgios_Koulakiotis"
          ]
        ],
        [
          "Kallithea",
          [
            "/wiki/Kallithea_F.C."
          ]
        ],
        [
          "Free",
          []
        ]
      ],
      [
        [
          "Summer",
          []
        ],
        [
          "DF",
          []
        ],
        [
          "Anastasios Katsabis",
          [
            "/wiki/Anastasios_Katsabis"
          ]
        ],
        [
          "Iraklis",
          [
            "/wiki/Iraklis_F.C._(Thessaloniki)"
          ]
        ],
        [
          "Free",
          []
        ]
      ],
      [
        [
          "Summer",
          []
        ],
        [
          "DF",
          []
        ],
        [
          "Georgios Chatzizisis",
          [
            "/wiki/Georgios_Chatzizisis"
          ]
        ],
        [
          "Apollon Kalamarias",
          [
            "/wiki/Apollon_Pontou_FC"
          ]
        ],
        [
          "Free",
          []
        ]
      ],
      [
        [
          "Summer",
          []
        ],
        [
          "DF",
          []
        ],
        [
          "Vassilios Borbokis",
          [
            "/wiki/Vassilios_Borbokis"
          ]
        ],
        [
          "AEK Athens",
          [
            "/wiki/AEK_Athens_F.C."
          ]
        ],
        [
          "Free",
          []
        ]
      ],
      [
        [
          "Summer",
          []
        ],
        [
          "DF",
          []
        ],
        [
          "Christos Karipidis",
          [
            "/wiki/Christos_Karipidis"
          ]
        ],
        [
          "Kerkyra",
          [
            "/wiki/PAE_Kerkyra"
          ]
        ],
        [
          "Loan",
          []
        ]
      ],
      [
        [
          "Summer",
          []
        ],
        [
          "DF",
          []
        ],
        [
          "P. Konstantinidis",
          [
            "/wiki/Pantelis_Konstantinidis"
          ]
        ],
        [
          "Panathinaikos",
          [
            "/wiki/Panathinaikos_F.C."
          ]
        ],
        [
          "Free",
          []
        ]
      ],
      [
        [
          "Summer",
          []
        ],
        [
          "MF",
          []
        ],
        [
          "Luciano de Souza",
          [
            "/wiki/Luciano_de_Souza"
          ]
        ],
        [
          "AEL Limassol",
          [
            "/wiki/AEL_Limassol"
          ]
        ],
        [
          "Free",
          []
        ]
      ],
      [
        [
          "Winter",
          []
        ],
        [
          "DF",
          []
        ],
        [
          "Ifeanyi Udeze",
          [
            "/wiki/Ifeanyi_Udeze"
          ]
        ],
        [
          "West Brom",
          [
            "/wiki/West_Bromwich_Albion_F.C."
          ]
        ],
        [
          "Loan",
          []
        ]
      ],
      [
        [
          "Winter",
          []
        ],
        [
          "GK",
          []
        ],
        [
          "Rados\u0142aw Majdan",
          [
            "/wiki/Rados\u0142aw_Majdan"
          ]
        ],
        [
          "Bursaspor",
          [
            "/wiki/Bursaspor"
          ]
        ],
        [
          "Free",
          []
        ]
      ],
      [
        [
          "Winter",
          []
        ],
        [
          "DF",
          []
        ],
        [
          "Marek Ko\u017ami\u0144ski",
          [
            "/wiki/Marek_Ko\u017ami\u0144ski"
          ]
        ],
        [
          "G\u00f3rnik Zabrze",
          [
            "/wiki/G\u00f3rnik_Zabrze"
          ]
        ],
        [
          "Free",
          []
        ]
      ],
      [
        [
          "Winter",
          []
        ],
        [
          "DF",
          []
        ],
        [
          "Francesco Scardina",
          [
            "/wiki/Francesco_Scardina"
          ]
        ],
        [
          "Juventus",
          [
            "/wiki/Juventus_F.C."
          ]
        ],
        [
          "End of loan",
          []
        ]
      ]
    ],
    "section_title": "Transfers",
    "section_text": "Players transferred in Transfer Window Pos . Name Club Fee Summer MF Dimitris Markos Aris Free Summer GK Rados\u0142aw Majdan G\u00f6ztepe Free Summer GK Elias Atmatsidis AEK Athens Free Summer MF Sakis Dione Panathinaikos On loan Summer MF Georgios Theodoridis Aris Free Summer MF Mariusz Kukie\u0142ka Amica Wronki Free Summer MF Marek Ko\u017ami\u0144ski Ancona Free Summer DF Francesco Scardina Juventus Loan Summer MF Aboubacar Fofana Juventus Loan Summer GK Kamil Susko Ban\u00edk Ostrava Free Summer MF Ilias Eleftheriadis PAOK U20 Summer DF Petros Konteon PAOK U20 Summer DF Fotis Kiskabanis Olympiacos Volou End of loan Summer DF Christos Karypidis Kavala End of loan Summer FW Dimitris Salpingidis Kavala End of loan Winter MF Ryan Kapagiannidis AS Kassandra Free Winter MF Georgios Makris PAOK U20 Players transferred out",
    "uid": "2002\u201303_PAOK_F.C._season_2",
    "intro": "N/A"
  },
  "1970\u201371_Yorkshire_Cup_0": {
    "url": "https://en.wikipedia.org/wiki/1970\u201371_Yorkshire_Cup",
    "title": "1970\u201371 Yorkshire Cup",
    "header": [
      [
        "Game No",
        []
      ],
      [
        "Fixture Date",
        []
      ],
      [
        "Home Team",
        []
      ],
      [
        "Score",
        []
      ],
      [
        "Away Team",
        []
      ],
      [
        "Venue",
        []
      ]
    ],
    "data": [
      [
        [
          "1",
          []
        ],
        [
          "Fri 28 Aug 1970",
          []
        ],
        [
          "Hull Kingston Rovers",
          [
            "/wiki/Hull_Kingston_Rovers"
          ]
        ],
        [
          "9-27",
          []
        ],
        [
          "Hull F.C",
          [
            "/wiki/Hull_F.C."
          ]
        ],
        [
          "Craven Park ( 1 )",
          [
            "/wiki/Old_Craven_Park"
          ]
        ]
      ],
      [
        [
          "2",
          []
        ],
        [
          "Sat 29 Aug 1970",
          []
        ],
        [
          "Bramley",
          [
            "/wiki/Bramley_R.L.F.C."
          ]
        ],
        [
          "27-5",
          []
        ],
        [
          "Bradford Northern",
          [
            "/wiki/Bradford_Bulls"
          ]
        ],
        [
          "McLaren Field",
          [
            "/wiki/Barley_Mow,_Bramley"
          ]
        ]
      ],
      [
        [
          "3",
          []
        ],
        [
          "Sat 29 Aug 1970",
          []
        ],
        [
          "Castleford",
          [
            "/wiki/Castleford_Tigers"
          ]
        ],
        [
          "29-4",
          []
        ],
        [
          "Halifax",
          [
            "/wiki/Halifax_R.L.F.C."
          ]
        ],
        [
          "Wheldon Road",
          [
            "/wiki/The_Jungle_(Wheldon_Road)"
          ]
        ]
      ],
      [
        [
          "4",
          []
        ],
        [
          "Sat 29 Aug 1970",
          []
        ],
        [
          "Featherstone Rovers",
          [
            "/wiki/Featherstone_Rovers"
          ]
        ],
        [
          "40-9",
          []
        ],
        [
          "York",
          [
            "/wiki/York_Wasps"
          ]
        ],
        [
          "Post Office Road",
          [
            "/wiki/Post_Office_Road"
          ]
        ]
      ],
      [
        [
          "5",
          []
        ],
        [
          "Sat 29 Aug 1970",
          []
        ],
        [
          "Wakefield Trinity",
          [
            "/wiki/Wakefield_Trinity"
          ]
        ],
        [
          "10-20",
          []
        ],
        [
          "Leeds",
          [
            "/wiki/Leeds_Rhinos"
          ]
        ],
        [
          "Belle Vue",
          [
            "/wiki/Belle_Vue_(Wakefield)"
          ]
        ]
      ],
      [
        [
          "6",
          []
        ],
        [
          "Sun 30 Aug 1970",
          []
        ],
        [
          "Dewsbury",
          [
            "/wiki/Dewsbury_Rams"
          ]
        ],
        [
          "12-10",
          []
        ],
        [
          "Keighley",
          [
            "/wiki/Keighley_Cougars"
          ]
        ],
        [
          "Crown Flatt",
          [
            "/wiki/Crown_Flatt"
          ]
        ]
      ],
      [
        [
          "7",
          []
        ],
        [
          "Sun 30 Aug 1970",
          []
        ],
        [
          "Huddersfield",
          [
            "/wiki/Huddersfield_Giants"
          ]
        ],
        [
          "17-0",
          []
        ],
        [
          "Batley",
          [
            "/wiki/Batley_Bulldogs"
          ]
        ],
        [
          "Fartown",
          [
            "/wiki/Fartown_Ground"
          ]
        ]
      ],
      [
        [
          "8",
          []
        ],
        [
          "Sun 30 Aug 1970",
          []
        ],
        [
          "Hunslet",
          [
            "/wiki/Hunslet_F.C._(1883)"
          ]
        ],
        [
          "w/o",
          []
        ],
        [
          "Doncaster",
          [
            "/wiki/Doncaster_R.L.F.C."
          ]
        ],
        [
          "Parkside",
          [
            "/wiki/Parkside,_Hunslet"
          ]
        ]
      ]
    ],
    "section_title": "Competition and Results",
    "section_text": "[ 1 ] [ 2 ] Involved 8 matches ( with no byes ) and 16 Clubs",
    "uid": "1970\u201371_Yorkshire_Cup_0",
    "intro": "The 1970-71 Yorkshire Cup was the sixty-third occasion on which the Yorkshire Cup competition had been held. Leeds won the trophy by beating Featherstone Rovers by the score of 23-7\nThe match was played at Odsal in the City of Bradford, now in West Yorkshire. The attendance was 6,753 and receipts were \u00a31,879\nThis was Featherstone Rovers's second Yorkshire Cup final defeat in successive competitions"
  },
  "2008\u201309_LEB_Oro_season_3": {
    "url": "https://en.wikipedia.org/wiki/2008\u201309_LEB_Oro_season",
    "title": "2008\u201309 LEB Oro season",
    "header": [
      [
        "Rank",
        []
      ],
      [
        "Name",
        []
      ],
      [
        "Team",
        []
      ],
      [
        "Games",
        []
      ],
      [
        "Points",
        []
      ],
      [
        "PPG",
        []
      ]
    ],
    "data": [
      [
        [
          "1",
          []
        ],
        [
          "Kammron Taylor",
          [
            "/wiki/Kammron_Taylor"
          ]
        ],
        [
          "Beirasar Rosal\u00eda",
          [
            "/wiki/CI_Rosal\u00eda_de_Castro"
          ]
        ],
        [
          "20",
          []
        ],
        [
          "361",
          []
        ],
        [
          "18.05",
          []
        ]
      ],
      [
        [
          "2",
          []
        ],
        [
          "Ricardo Guill\u00e9n",
          [
            "/wiki/Ricardo_Guill\u00e9n"
          ]
        ],
        [
          "Villa de Los Barrios",
          [
            "/wiki/CB_Villa_de_Los_Barrios"
          ]
        ],
        [
          "34",
          []
        ],
        [
          "605",
          []
        ],
        [
          "17.79",
          []
        ]
      ],
      [
        [
          "3",
          []
        ],
        [
          "Jason Detrick",
          []
        ],
        [
          "Ciudad de La Laguna Canarias",
          [
            "/wiki/CB_1939_Canarias"
          ]
        ],
        [
          "34",
          []
        ],
        [
          "601",
          []
        ],
        [
          "17.68",
          []
        ]
      ],
      [
        [
          "4",
          []
        ],
        [
          "Thomas Terrell",
          []
        ],
        [
          "La Palma",
          [
            "/wiki/UB_La_Palma"
          ]
        ],
        [
          "31",
          []
        ],
        [
          "531",
          []
        ],
        [
          "17.13",
          []
        ]
      ],
      [
        [
          "5",
          []
        ],
        [
          "Diego Garc\u00eda",
          [
            "/wiki/Diego_Garc\u00eda_(basketball)"
          ]
        ],
        [
          "Ford Burgos",
          [
            "/wiki/CB_Atapuerca"
          ]
        ],
        [
          "33",
          []
        ],
        [
          "565",
          []
        ],
        [
          "17.12",
          []
        ]
      ]
    ],
    "section_title": "Stats Leaders -- Points",
    "section_text": "",
    "uid": "2008\u201309_LEB_Oro_season_3",
    "intro": "The 2008-09 LEB season is the 13th season of the Liga Espa\u00f1ola de Baloncesto. The 612-game regular season (34 games for each of the 18 teams) began on Thursday, September 18, 2008, and will end on Friday, May 15, 2009. The champion of the regular season will be promoted to ACB. The teams between 2nd and 9th position will play a best of 3 games play off to see who plays the Final Four. Two bottom teams will be relegated to LEB Plata."
  },
  "1899\u20131900_Scottish_Cup_3": {
    "url": "https://en.wikipedia.org/wiki/1899\u20131900_Scottish_Cup",
    "title": "1899\u20131900 Scottish Cup",
    "header": [
      [
        "Home team",
        []
      ],
      [
        "Score",
        []
      ],
      [
        "Away team",
        []
      ]
    ],
    "data": [
      [
        [
          "Dundee",
          [
            "/wiki/Dundee_F.C."
          ]
        ],
        [
          "3 -3",
          []
        ],
        [
          "Clyde",
          [
            "/wiki/Clyde_F.C."
          ]
        ]
      ],
      [
        [
          "Heart of Midlothian",
          [
            "/wiki/Heart_of_Midlothian_F.C."
          ]
        ],
        [
          "1 - 1",
          []
        ],
        [
          "Hibernian",
          [
            "/wiki/Hibernian_F.C."
          ]
        ]
      ],
      [
        [
          "Kilmarnock",
          [
            "/wiki/Kilmarnock_F.C."
          ]
        ],
        [
          "10 - 1",
          []
        ],
        [
          "Orion",
          [
            "/wiki/Orion_F.C."
          ]
        ]
      ],
      [
        [
          "Partick Thistle",
          [
            "/wiki/Partick_Thistle_F.C."
          ]
        ],
        [
          "2 - 1",
          []
        ],
        [
          "St Bernard 's",
          [
            "/wiki/St_Bernard's_F.C."
          ]
        ]
      ],
      [
        [
          "Port Glasgow Athletic",
          [
            "/wiki/Port_Glasgow_Athletic_F.C."
          ]
        ],
        [
          "1 - 5",
          []
        ],
        [
          "Celtic",
          [
            "/wiki/Celtic_F.C."
          ]
        ]
      ],
      [
        [
          "Queen 's Park",
          [
            "/wiki/Queen's_Park_F.C."
          ]
        ],
        [
          "5 - 1",
          []
        ],
        [
          "Abercorn",
          [
            "/wiki/Abercorn_F.C."
          ]
        ]
      ],
      [
        [
          "Rangers",
          [
            "/wiki/Rangers_F.C."
          ]
        ],
        [
          "12 - 0",
          []
        ],
        [
          "Maybole",
          [
            "/wiki/Maybole_Juniors_F.C."
          ]
        ]
      ],
      [
        [
          "Third Lanark",
          [
            "/wiki/Third_Lanark_A.C."
          ]
        ],
        [
          "2 - 1",
          []
        ],
        [
          "Motherwell",
          [
            "/wiki/Motherwell_F.C."
          ]
        ]
      ]
    ],
    "section_title": "Second round",
    "section_text": "",
    "uid": "1899\u20131900_Scottish_Cup_3",
    "intro": "The 1899-00 Scottish Cup was the 27th season of Scotland's most prestigious football knockout competition. The Cup was won by Celtic when they beat Queen's Park 4-3 in the final."
  },
  "1934\u201335_Yorkshire_Cup_0": {
    "url": "https://en.wikipedia.org/wiki/1934\u201335_Yorkshire_Cup",
    "title": "1934\u201335 Yorkshire Cup",
    "header": [
      [
        "Game No",
        []
      ],
      [
        "Fixture Date",
        []
      ],
      [
        "Home Team",
        []
      ],
      [
        "Score",
        []
      ],
      [
        "Away Team",
        []
      ],
      [
        "Venue",
        []
      ]
    ],
    "data": [
      [
        [
          "1",
          []
        ],
        [
          "Thu 6 Sep 1934",
          []
        ],
        [
          "Hull",
          [
            "/wiki/Hull_F.C."
          ]
        ],
        [
          "11-7",
          []
        ],
        [
          "Hunslet",
          [
            "/wiki/Hunslet_F.C._(1883)"
          ]
        ],
        [
          "Boulevard",
          [
            "/wiki/The_Boulevard_(stadium)"
          ]
        ]
      ],
      [
        [
          "2",
          []
        ],
        [
          "Sat 8 Sep 1934",
          []
        ],
        [
          "Castleford",
          [
            "/wiki/Castleford_Tigers"
          ]
        ],
        [
          "9-9",
          []
        ],
        [
          "Bradford Northern",
          [
            "/wiki/Bradford_Bulls"
          ]
        ],
        [
          "Wheldon Road",
          [
            "/wiki/The_Jungle_(Wheldon_Road)"
          ]
        ]
      ],
      [
        [
          "3",
          []
        ],
        [
          "Sat 8 Sep 1934",
          []
        ],
        [
          "Halifax",
          [
            "/wiki/Halifax_R.L.F.C."
          ]
        ],
        [
          "16-5",
          []
        ],
        [
          "Featherstone Rovers",
          [
            "/wiki/Featherstone_Rovers"
          ]
        ],
        [
          "Thrum Hall",
          [
            "/wiki/Thrum_Hall"
          ]
        ]
      ],
      [
        [
          "4",
          []
        ],
        [
          "Sat 8 Sep 1934",
          []
        ],
        [
          "Hull Kingston Rovers",
          [
            "/wiki/Hull_Kingston_Rovers"
          ]
        ],
        [
          "9-9",
          []
        ],
        [
          "Keighley",
          [
            "/wiki/Keighley_Cougars"
          ]
        ],
        [
          "Craven Park ( 1 )",
          [
            "/wiki/Old_Craven_Park"
          ]
        ]
      ],
      [
        [
          "5",
          []
        ],
        [
          "Sat 8 Sep 1934",
          []
        ],
        [
          "Leeds",
          [
            "/wiki/Leeds_Rhinos"
          ]
        ],
        [
          "35-8",
          []
        ],
        [
          "Bramley",
          [
            "/wiki/Bramley_R.L.F.C."
          ]
        ],
        [
          "Headingley",
          [
            "/wiki/Headingley_Stadium"
          ]
        ]
      ],
      [
        [
          "6",
          []
        ],
        [
          "Sat 8 Sep 1934",
          []
        ],
        [
          "Wakefield Trinity",
          [
            "/wiki/Wakefield_Trinity"
          ]
        ],
        [
          "9-7",
          []
        ],
        [
          "Batley",
          [
            "/wiki/Batley_Bulldogs"
          ]
        ],
        [
          "Belle Vue",
          [
            "/wiki/Belle_Vue_(Wakefield)"
          ]
        ]
      ],
      [
        [
          "7",
          []
        ],
        [
          "Sat 8 Sep 1934",
          []
        ],
        [
          "York",
          [
            "/wiki/York_Wasps"
          ]
        ],
        [
          "0-13",
          []
        ],
        [
          "Huddersfield",
          [
            "/wiki/Huddersfield_Giants"
          ]
        ],
        [
          "Clarence Street",
          []
        ]
      ],
      [
        [
          "8",
          []
        ],
        [
          "",
          []
        ],
        [
          "Dewsbury",
          [
            "/wiki/Dewsbury_Rams"
          ]
        ],
        [
          "",
          []
        ],
        [
          "bye",
          []
        ],
        [
          "",
          []
        ]
      ]
    ],
    "section_title": "Competition and Results -- Round 1",
    "section_text": "Involved 7 matches ( with one bye ) and 15 Clubs",
    "uid": "1934\u201335_Yorkshire_Cup_0",
    "intro": "The 1934-35 Yorkshire Cup was the 27th occasion on which the Yorkshire Cup competition had been held. For the first and only time, the Yorkshire Cup final required two replays to sort the teams and decide the winners, Leeds eventually winning the trophy by beating Wakefield Trinity by the score of '13-0-(HT unknown) in a second replay."
  },
  "2015\u201316_LEB_Oro_season_7": {
    "url": "https://en.wikipedia.org/wiki/2015\u201316_LEB_Oro_season",
    "title": "2015\u201316 LEB Oro season",
    "header": [
      [
        "Rk",
        []
      ],
      [
        "Name",
        []
      ],
      [
        "Team",
        []
      ],
      [
        "Games",
        []
      ],
      [
        "Points",
        []
      ],
      [
        "PPG",
        []
      ]
    ],
    "data": [
      [
        [
          "1",
          []
        ],
        [
          "Ricardo Guill\u00e9n",
          [
            "/wiki/Ricardo_Guill\u00e9n"
          ]
        ],
        [
          "Palma Air Europa",
          [
            "/wiki/CB_Bah\u00eda_San_Agust\u00edn"
          ]
        ],
        [
          "30",
          []
        ],
        [
          "561",
          []
        ],
        [
          "18.7",
          []
        ]
      ],
      [
        [
          "2",
          []
        ],
        [
          "Jordan Swing",
          [
            "/wiki/Jordan_Swing"
          ]
        ],
        [
          "Uni\u00f3n Financiera Baloncesto Oviedo",
          [
            "/wiki/Oviedo_CB"
          ]
        ],
        [
          "16",
          []
        ],
        [
          "284",
          []
        ],
        [
          "17.7",
          []
        ]
      ],
      [
        [
          "3",
          []
        ],
        [
          "Beka Burjanadze",
          [
            "/wiki/Beka_Burjanadze"
          ]
        ],
        [
          "Leyma B\u00e1squet Coru\u00f1a",
          [
            "/wiki/B\u00e1squet_Coru\u00f1a"
          ]
        ],
        [
          "30",
          []
        ],
        [
          "499",
          []
        ],
        [
          "16.6",
          []
        ]
      ],
      [
        [
          "4",
          []
        ],
        [
          "\u00d3liver Arteaga",
          []
        ],
        [
          "Planasa Navarra",
          [
            "/wiki/Basket_Navarra_Club"
          ]
        ],
        [
          "28",
          []
        ],
        [
          "458",
          []
        ],
        [
          "16.4",
          []
        ]
      ],
      [
        [
          "5",
          []
        ],
        [
          "Marc Garc\u00eda",
          [
            "/wiki/Marc_Garc\u00eda_(basketball)"
          ]
        ],
        [
          "FC Barcelona Lassa B",
          [
            "/wiki/FC_Barcelona_B\u00e0squet_B"
          ]
        ],
        [
          "29",
          []
        ],
        [
          "471",
          []
        ],
        [
          "16.2",
          []
        ]
      ]
    ],
    "section_title": "Stats leaders in regular season -- Points",
    "section_text": "",
    "uid": "2015\u201316_LEB_Oro_season_7",
    "intro": "The 2015-16 LEB Oro season was the 20th season of the Spanish basketball second league LEB Oro. The season started on October 2 and ended on May 27 with the last game of the promotion playoffs finals."
  },
  "1943\u201344_Yorkshire_Cup_0": {
    "url": "https://en.wikipedia.org/wiki/1943\u201344_Yorkshire_Cup",
    "title": "1943\u201344 Yorkshire Cup",
    "header": [
      [
        "Game No",
        []
      ],
      [
        "Fixture Date",
        []
      ],
      [
        "Home Team",
        []
      ],
      [
        "Score",
        []
      ],
      [
        "Away Team",
        []
      ],
      [
        "Venue",
        []
      ]
    ],
    "data": [
      [
        [
          "1",
          []
        ],
        [
          "Sat 16 Oct 1943",
          []
        ],
        [
          "Barrow",
          [
            "/wiki/Barrow_Raiders"
          ]
        ],
        [
          "15-8",
          []
        ],
        [
          "Oldham",
          [
            "/wiki/Oldham_R.L.F.C."
          ]
        ],
        [
          "Craven Park",
          [
            "/wiki/Craven_Park,_Barrow-in-Furness"
          ]
        ]
      ],
      [
        [
          "2",
          []
        ],
        [
          "Sat 16 Oct 1943",
          []
        ],
        [
          "Batley",
          [
            "/wiki/Batley_Bulldogs"
          ]
        ],
        [
          "2-19",
          []
        ],
        [
          "Featherstone Rovers",
          [
            "/wiki/Featherstone_Rovers"
          ]
        ],
        [
          "Mount Pleasant",
          [
            "/wiki/Mount_Pleasant,_Batley"
          ]
        ]
      ],
      [
        [
          "3",
          []
        ],
        [
          "Sat 16 Oct 1943",
          []
        ],
        [
          "Bradford Northern",
          [
            "/wiki/Bradford_Bulls"
          ]
        ],
        [
          "8-0",
          []
        ],
        [
          "Dewsbury",
          [
            "/wiki/Dewsbury_Rams"
          ]
        ],
        [
          "Odsal",
          [
            "/wiki/Odsal_Stadium"
          ]
        ]
      ],
      [
        [
          "4",
          []
        ],
        [
          "Sat 16 Oct 1943",
          []
        ],
        [
          "Halifax",
          [
            "/wiki/Halifax_R.L.F.C."
          ]
        ],
        [
          "22-10",
          []
        ],
        [
          "Wakefield Trinity",
          [
            "/wiki/Wakefield_Trinity"
          ]
        ],
        [
          "Thrum Hall",
          [
            "/wiki/Thrum_Hall"
          ]
        ]
      ],
      [
        [
          "5",
          []
        ],
        [
          "Sat 16 Oct 1943",
          []
        ],
        [
          "Hull",
          [
            "/wiki/Hull_F.C."
          ]
        ],
        [
          "6-12",
          []
        ],
        [
          "Huddersfield",
          [
            "/wiki/Huddersfield_Giants"
          ]
        ],
        [
          "Boulevard",
          [
            "/wiki/The_Boulevard_(stadium)"
          ]
        ]
      ],
      [
        [
          "6",
          []
        ],
        [
          "Sat 16 Oct 1943",
          []
        ],
        [
          "Leeds",
          [
            "/wiki/Leeds_Rhinos"
          ]
        ],
        [
          "18-5",
          []
        ],
        [
          "Hunslet",
          [
            "/wiki/Hunslet_F.C._(1883)"
          ]
        ],
        [
          "Headingley",
          [
            "/wiki/Headingley_Stadium"
          ]
        ]
      ],
      [
        [
          "7",
          []
        ],
        [
          "Sat 16 Oct 1943",
          []
        ],
        [
          "St. Helens",
          [
            "/wiki/St_Helens_R.F.C."
          ]
        ],
        [
          "9-14",
          []
        ],
        [
          "Wigan",
          [
            "/wiki/Wigan_Warriors"
          ]
        ],
        [
          "Knowsley Road",
          [
            "/wiki/Knowsley_Road"
          ]
        ]
      ],
      [
        [
          "8",
          []
        ],
        [
          "Sat 16 Oct 1943",
          []
        ],
        [
          "York",
          [
            "/wiki/York_Wasps"
          ]
        ],
        [
          "5-5",
          []
        ],
        [
          "Keighley",
          [
            "/wiki/Keighley_Cougars"
          ]
        ],
        [
          "Clarence Street",
          []
        ]
      ]
    ],
    "section_title": "Competition and Results -- Round 1 - First Leg",
    "section_text": "Involved 8 matches ( with no byes ) and 16 Clubs All first round ties are played on a two-legged home and away basis",
    "uid": "1943\u201344_Yorkshire_Cup_0",
    "intro": "1943-44 Yorkshire Cup\nThe Yorkshire Cup competition was a knock-out competition between (mainly professional) rugby league clubs from the county of Yorkshire. The actual area was at times increased to encompass other teams from outside the county such as Newcastle, Mansfield, Coventry, and even London (in the form of Acton & Willesden. The competition always took place early in the season, in the Autumn, with the final taking place in (or just before) December (The only exception to this was when disruption of the fixture list was caused during, and immediately after, the two World Wars)\nThe Second World War was continuing and the Yorkshire Cup remained in the early part of the 1943-44 Northern Rugby Football League Wartime Emergency League season\n1943-44 was the thirty-sixth occasion on which the Yorkshire Cup competition had been held. Bradford Northern won the trophy by beating Keighley over two legs by an aggregate score of 10-7\nBradford Northern played the first leg match at home (at Odsal) and won 5-2. The attendance was 10,251 and receipts were \u00a3757. Keighley were at home (at Lawkholme Lane) for the second leg match and drew 5-5. The attendance at the second leg match was 8,993 and receipts \u00a3634."
  },
  "2018\u201319_LEB_Oro_season_1": {
    "url": "https://en.wikipedia.org/wiki/2018\u201319_LEB_Oro_season",
    "title": "2018\u201319 LEB Oro season",
    "header": [
      [
        "Team",
        []
      ],
      [
        "Head coach",
        []
      ],
      [
        "Kit manufacturer",
        []
      ],
      [
        "Shirt sponsor",
        []
      ]
    ],
    "data": [
      [
        [
          "Bar\u00e7a Lassa B",
          []
        ],
        [
          "Diego Ocampo",
          []
        ],
        [
          "Nike",
          [
            "/wiki/Nike,_Inc."
          ]
        ],
        [
          "Lassa Tyres",
          []
        ]
      ],
      [
        [
          "C\u00e1ceres Patrimonio de la Humanidad",
          []
        ],
        [
          "Roberto Blanco",
          []
        ],
        [
          "Vive",
          []
        ],
        [
          "Extremadura",
          [
            "/wiki/Extremadura"
          ]
        ]
      ],
      [
        [
          "Carramimbre CBC Valladolid",
          []
        ],
        [
          "Paco Garc\u00eda",
          []
        ],
        [
          "Kappa",
          [
            "/wiki/Kappa_(company)"
          ]
        ],
        [
          "Bodegas Carramimbre",
          []
        ]
      ],
      [
        [
          "CB Prat",
          []
        ],
        [
          "Dani Miret",
          []
        ],
        [
          "Spalding",
          [
            "/wiki/Spalding_(company)"
          ]
        ],
        [
          "",
          []
        ]
      ],
      [
        [
          "Chocolates Trapa Palencia",
          []
        ],
        [
          "Carles Marco",
          [
            "/wiki/Carles_Marco"
          ]
        ],
        [
          "Kappa",
          []
        ],
        [
          "Chocolates Trapa",
          []
        ]
      ],
      [
        [
          "Club Melilla Baloncesto",
          []
        ],
        [
          "Alejandro Alcoba",
          []
        ],
        [
          "Super Sport",
          []
        ],
        [
          "",
          []
        ]
      ],
      [
        [
          "Covir\u00e1n Granada",
          []
        ],
        [
          "Pablo Pin",
          []
        ],
        [
          "Vive",
          []
        ],
        [
          "Supermercados Covir\u00e1n",
          []
        ]
      ],
      [
        [
          "ICG For\u00e7a Lleida",
          []
        ],
        [
          "Jorge Serna",
          []
        ],
        [
          "Joma",
          [
            "/wiki/Joma"
          ]
        ],
        [
          "ICG Software",
          []
        ]
      ],
      [
        [
          "Iberojet Palma",
          []
        ],
        [
          "F\u00e9lix Alonso",
          []
        ],
        [
          "Erre\u00e0",
          [
            "/wiki/Erre\u00e0"
          ]
        ],
        [
          "Iberojet",
          []
        ]
      ],
      [
        [
          "Levitec Huesca",
          []
        ],
        [
          "Guillermo Arenas",
          []
        ],
        [
          "Barri-Ball",
          []
        ],
        [
          "Levitec , Aragon",
          [
            "/wiki/Aragon"
          ]
        ]
      ],
      [
        [
          "Leyma Coru\u00f1a",
          []
        ],
        [
          "Gustavo Aranzana",
          []
        ],
        [
          "Wibo",
          []
        ],
        [
          "Leche Leyma , Galega 100%",
          []
        ]
      ],
      [
        [
          "Liberbank Oviedo Baloncesto",
          []
        ],
        [
          "Javi Rodr\u00edguez",
          []
        ],
        [
          "Spalding",
          []
        ],
        [
          "Liberbank",
          [
            "/wiki/Liberbank"
          ]
        ]
      ],
      [
        [
          "Real Betis Energ\u00eda Plus",
          []
        ],
        [
          "Curro Segura",
          []
        ],
        [
          "Kappa",
          []
        ],
        [
          "Energ\u00eda Plus",
          []
        ]
      ],
      [
        [
          "RETAbet Bilbao Basket",
          []
        ],
        [
          "\u00c1lex Mumbr\u00fa",
          [
            "/wiki/\u00c1lex_Mumbr\u00fa"
          ]
        ],
        [
          "Erre\u00e0",
          []
        ],
        [
          "RETAbet",
          []
        ]
      ],
      [
        [
          "R\u00edo Ourense Termal",
          []
        ],
        [
          "Gonzalo Garc\u00eda de Vitoria",
          []
        ],
        [
          "Nike",
          []
        ],
        [
          "Leche Rio , Ourense",
          [
            "/wiki/Ourense"
          ]
        ]
      ],
      [
        [
          "S\u00e1enz Horeca Araberri",
          []
        ],
        [
          "Manuel Povea",
          []
        ],
        [
          "Wibo",
          []
        ],
        [
          "S\u00e1enz Horeca , \u00c1lava",
          [
            "/wiki/\u00c1lava"
          ]
        ]
      ],
      [
        [
          "TAU Castell\u00f3",
          []
        ],
        [
          "Toni Ten",
          []
        ],
        [
          "Score Tech",
          []
        ],
        [
          "TAU Cer\u00e1mica",
          []
        ]
      ],
      [
        [
          "ZTE Real Canoe NC",
          []
        ],
        [
          "Miguel \u00c1ngel Aranz\u00e1bal",
          []
        ],
        [
          "Wibo",
          []
        ],
        [
          "ZTE",
          [
            "/wiki/ZTE"
          ]
        ]
      ]
    ],
    "section_title": "Teams -- Personnel and sponsorship",
    "section_text": "",
    "uid": "2018\u201319_LEB_Oro_season_1",
    "intro": "The 2018-19 LEB Oro season was the 23rd season of the Spanish basketball second league. It started on 5 October 2018 with the first round of the regular season and ended on 2 June 2019 with the final."
  },
  "2003\u201304_Sunshine_Tour_1": {
    "url": "https://en.wikipedia.org/wiki/2003\u201304_Sunshine_Tour",
    "title": "2003\u201304 Sunshine Tour",
    "header": [
      [
        "Rank",
        []
      ],
      [
        "Player",
        []
      ],
      [
        "Country",
        []
      ],
      [
        "Events",
        []
      ],
      [
        "Prize money ( R )",
        [
          "/wiki/South_African_rand"
        ]
      ]
    ],
    "data": [
      [
        [
          "1",
          []
        ],
        [
          "Darren Fichardt",
          [
            "/wiki/Darren_Fichardt"
          ]
        ],
        [
          "South Africa",
          [
            "/wiki/South_Africa"
          ]
        ],
        [
          "6",
          []
        ],
        [
          "726,544.74",
          []
        ]
      ],
      [
        [
          "2",
          []
        ],
        [
          "Andrew McLardy",
          [
            "/wiki/Andrew_McLardy"
          ]
        ],
        [
          "South Africa",
          [
            "/wiki/South_Africa"
          ]
        ],
        [
          "7",
          []
        ],
        [
          "617,278.20",
          []
        ]
      ],
      [
        [
          "3",
          []
        ],
        [
          "Desvonde Botes",
          [
            "/wiki/Desvonde_Botes"
          ]
        ],
        [
          "South Africa",
          [
            "/wiki/South_Africa"
          ]
        ],
        [
          "16",
          []
        ],
        [
          "457,265.25",
          []
        ]
      ],
      [
        [
          "4",
          []
        ],
        [
          "Louis Oosthuizen",
          [
            "/wiki/Louis_Oosthuizen"
          ]
        ],
        [
          "South Africa",
          [
            "/wiki/South_Africa"
          ]
        ],
        [
          "8",
          []
        ],
        [
          "381,729.03",
          []
        ]
      ],
      [
        [
          "5",
          []
        ],
        [
          "Titch Moore",
          [
            "/wiki/Titch_Moore"
          ]
        ],
        [
          "South Africa",
          [
            "/wiki/South_Africa"
          ]
        ],
        [
          "10",
          []
        ],
        [
          "368,709.76",
          []
        ]
      ]
    ],
    "section_title": "Order of Merit",
    "section_text": "",
    "uid": "2003\u201304_Sunshine_Tour_1",
    "intro": "The 2003-04 Sunshine Tour was the fourth season of professional golf tournaments since the southern Africa based Sunshine Tour was rebranded in 2000. The Sunshine Tour represents the highest level of competition for male professional golfers in the region. There were 17 tournaments on the schedule. This was an increase of one from the previous year. There were three tournaments from the previous season that were eliminated: the Dimension Data Better-Ball tournament, the Vodacom Golf Classic, and the Vodacom Players Championship. Three new tournaments were added: the Canon Classic (played in 2003 only), the Devondale Championship (played in 2003 only), and the Parmalat Classic. The tour was based predominantly in South Africa, with 13 of the 17 tournaments being held in the country. Two events were held in Swaziland, and one event each was held in Botswana and Zambia. Two events, the Dunhill Championship and the South African Airways Open were co-sanctioned by the European Tour. The Order of Merit was won by Darren Fichardt."
  },
  "1925\u201326_Yorkshire_Cup_0": {
    "url": "https://en.wikipedia.org/wiki/1925\u201326_Yorkshire_Cup",
    "title": "1925\u201326 Yorkshire Cup",
    "header": [
      [
        "Game No",
        []
      ],
      [
        "Fixture Date",
        []
      ],
      [
        "Home Team",
        []
      ],
      [
        "Score",
        []
      ],
      [
        "Away Team",
        []
      ],
      [
        "Venue",
        []
      ]
    ],
    "data": [
      [
        [
          "1",
          []
        ],
        [
          "Sat 10 Oct 1925",
          []
        ],
        [
          "Batley",
          [
            "/wiki/Batley_Bulldogs"
          ]
        ],
        [
          "4-6",
          []
        ],
        [
          "Wakefield Trinity",
          [
            "/wiki/Wakefield_Trinity"
          ]
        ],
        [
          "Mount Pleasant",
          [
            "/wiki/Mount_Pleasant,_Batley"
          ]
        ]
      ],
      [
        [
          "2",
          []
        ],
        [
          "Sat 10 Oct 1925",
          []
        ],
        [
          "Bradford Northern",
          [
            "/wiki/Bradford_Bulls"
          ]
        ],
        [
          "9-9",
          []
        ],
        [
          "Castleford",
          [
            "/wiki/Castleford_Tigers"
          ]
        ],
        [
          "Birch Lane",
          [
            "/wiki/Birch_Lane"
          ]
        ]
      ],
      [
        [
          "3",
          []
        ],
        [
          "Sat 10 Oct 1925",
          []
        ],
        [
          "Dewsbury",
          [
            "/wiki/Dewsbury_Rams"
          ]
        ],
        [
          "22-7",
          []
        ],
        [
          "Bramley",
          [
            "/wiki/Bramley_R.L.F.C."
          ]
        ],
        [
          "Crown Flatt",
          [
            "/wiki/Crown_Flatt"
          ]
        ]
      ],
      [
        [
          "4",
          []
        ],
        [
          "Sat 10 Oct 1925",
          []
        ],
        [
          "Halifax",
          [
            "/wiki/Halifax_R.L.F.C."
          ]
        ],
        [
          "0-2",
          []
        ],
        [
          "Leeds",
          [
            "/wiki/Leeds_Rhinos"
          ]
        ],
        [
          "Thrum Hall",
          [
            "/wiki/Thrum_Hall"
          ]
        ]
      ],
      [
        [
          "5",
          []
        ],
        [
          "Sat 10 Oct 1925",
          []
        ],
        [
          "Hull",
          [
            "/wiki/Hull_F.C."
          ]
        ],
        [
          "16-3",
          []
        ],
        [
          "Hunslet",
          [
            "/wiki/Hunslet_F.C._(1883)"
          ]
        ],
        [
          "Boulevard",
          [
            "/wiki/The_Boulevard_(stadium)"
          ]
        ]
      ],
      [
        [
          "6",
          []
        ],
        [
          "Sat 10 Oct 1925",
          []
        ],
        [
          "Hull Kingston Rovers",
          [
            "/wiki/Hull_Kingston_Rovers"
          ]
        ],
        [
          "10-14",
          []
        ],
        [
          "York",
          [
            "/wiki/York_Wasps"
          ]
        ],
        [
          "Craven Park ( 1 )",
          [
            "/wiki/Old_Craven_Park"
          ]
        ]
      ],
      [
        [
          "7",
          []
        ],
        [
          "Sat 10 Oct 1925",
          []
        ],
        [
          "Keighley",
          [
            "/wiki/Keighley_Cougars"
          ]
        ],
        [
          "4-18",
          []
        ],
        [
          "Featherstone Rovers",
          [
            "/wiki/Featherstone_Rovers"
          ]
        ],
        [
          "Lawkholme Lane",
          [
            "/wiki/Cougar_Park"
          ]
        ]
      ],
      [
        [
          "8",
          []
        ],
        [
          "",
          []
        ],
        [
          "Huddersfield",
          [
            "/wiki/Huddersfield_Giants"
          ]
        ],
        [
          "",
          []
        ],
        [
          "bye",
          []
        ],
        [
          "",
          []
        ]
      ]
    ],
    "section_title": "Competition and Results -- Round 1",
    "section_text": "Involved 7 matches ( with one bye ) and 15 Clubs",
    "uid": "1925\u201326_Yorkshire_Cup_0",
    "intro": "The 1925-26 Yorkshire Cup was the eighteenth competition in this series. This year again saw a new name added to the list of cup winners. This time it was Dewsbury winning the trophy by beating Huddersfield in the final 2-0. The match was played at Belle Vue, in the City of Wakefield, now in West Yorkshire. The attendance was 12,616 and receipts were \u00a3718. This was the last time for another fourteen years that a new name would be added."
  }
}