{
  "2010\u201311_Women's_EHF_Cup_3": {
    "url": "https://en.wikipedia.org/wiki/2010\u201311_Women's_EHF_Cup",
    "title": "2010\u201311 Women's EHF Cup",
    "header": [
      [
        "Team # 1",
        []
      ],
      [
        "Agg",
        []
      ],
      [
        "Team # 2",
        []
      ],
      [
        "1st match",
        []
      ],
      [
        "2nd match",
        []
      ]
    ],
    "data": [
      [
        [
          "Sagunto",
          [
            "/wiki/BM_Sagunto"
          ]
        ],
        [
          "74-59",
          []
        ],
        [
          "Kuban Krasnodar",
          [
            "/wiki/HC_Kuban_Krasnodar"
          ]
        ],
        [
          "42-31",
          []
        ],
        [
          "32-28",
          []
        ]
      ],
      [
        [
          "Lada Togliatti",
          [
            "/wiki/Handball_Club_Lada"
          ]
        ],
        [
          "59-40",
          []
        ],
        [
          "Metalurg Skopje",
          [
            "/wiki/\u017dRK_Metalurg"
          ]
        ],
        [
          "31-17",
          []
        ],
        [
          "28-23",
          []
        ]
      ],
      [
        [
          "Olimpija Ljubljana",
          [
            "/wiki/RK_Olimpija"
          ]
        ],
        [
          "30-102",
          []
        ],
        [
          "Tvis Holstebro",
          [
            "/wiki/TTH_Holstebro"
          ]
        ],
        [
          "11-54",
          []
        ],
        [
          "19-48",
          []
        ]
      ],
      [
        [
          "By\u00e5sen",
          [
            "/wiki/By\u00e5sen_IL"
          ]
        ],
        [
          "58-60",
          []
        ],
        [
          "V\u00e1ci NKSE",
          [
            "/wiki/V\u00e1ci_NKSE"
          ]
        ],
        [
          "34-29",
          []
        ],
        [
          "24-31",
          []
        ]
      ],
      [
        [
          "Dun\u0103rea Br\u0103ila",
          [
            "/wiki/HC_Dun\u0103rea_Br\u0103ila"
          ]
        ],
        [
          "42-46",
          []
        ],
        [
          "Esbjerg",
          [
            "/wiki/Team_Esbjerg"
          ]
        ],
        [
          "20-21",
          []
        ],
        [
          "22-25",
          []
        ]
      ],
      [
        [
          "Midtjylland",
          [
            "/wiki/Herning-Ikast_H\u00e5ndbold"
          ]
        ],
        [
          "52-37",
          []
        ],
        [
          "Le Havre",
          [
            "/wiki/Le_Havre_AC_(handball)"
          ]
        ],
        [
          "28-14",
          []
        ],
        [
          "24-23",
          []
        ]
      ],
      [
        [
          "Vejen",
          [
            "/wiki/Vejen_EH"
          ]
        ],
        [
          "65-46",
          []
        ],
        [
          "VOC Amsterdam",
          [
            "/wiki/VOC_Amsterdam"
          ]
        ],
        [
          "37-22",
          []
        ],
        [
          "28-24",
          []
        ]
      ],
      [
        [
          "Oldenburg",
          [
            "/wiki/VfL_Oldenburg"
          ]
        ],
        [
          "81-56",
          []
        ],
        [
          "Zaje\u010dar",
          [
            "/wiki/\u017dRK_Zaje\u010dar"
          ]
        ],
        [
          "42-25",
          []
        ],
        [
          "39-31",
          []
        ]
      ]
    ],
    "section_title": "Last 16",
    "section_text": "",
    "uid": "2010\u201311_Women's_EHF_Cup_3",
    "intro": "The 2010-11 Women's EHF Cup was the 30th edition of the competition, taking place from 4 September 2010 to 8 May 2011. Denmark's FC Midtjylland defeated compatriot Team Tvis Holstebro to win its second EHF Cup. It was the second time the final was played by two clubs from the same country."
  },
  "1919\u201320_Yorkshire_Cup_4": {
    "url": "https://en.wikipedia.org/wiki/1919\u201320_Yorkshire_Cup",
    "title": "1919\u201320 Yorkshire Cup",
    "header": [
      [
        "Huddersfield",
        [
          "/wiki/Huddersfield_Giants"
        ]
      ],
      [
        "\u2116",
        []
      ],
      [
        "Leeds",
        [
          "/wiki/Leeds_Rhinos"
        ]
      ]
    ],
    "data": [
      [
        [
          "Major Holland",
          [
            "/wiki/Major_Holland"
          ]
        ],
        [
          "1",
          []
        ],
        [
          "J. H. Roberts",
          []
        ]
      ],
      [
        [
          "Albert Rozzi Rosenfeld",
          [
            "/wiki/Albert_Rosenfeld"
          ]
        ],
        [
          "2",
          []
        ],
        [
          "Jim Bacon",
          [
            "/wiki/Jim_Bacon_(rugby)"
          ]
        ]
      ],
      [
        [
          "Tom Gleeson",
          []
        ],
        [
          "3",
          []
        ],
        [
          "William Davies",
          [
            "/wiki/William_Davies_(rugby)"
          ]
        ]
      ],
      [
        [
          "Harold Wagstaff",
          [
            "/wiki/Harold_Wagstaff"
          ]
        ],
        [
          "4",
          []
        ],
        [
          "John Campbell",
          [
            "/wiki/John_Campbell_(rugby)"
          ]
        ]
      ],
      [
        [
          "Stan Moorhouse",
          [
            "/wiki/Stan_Moorhouse"
          ]
        ],
        [
          "5",
          []
        ],
        [
          "Squire Stockwell",
          [
            "/wiki/Squire_Stockwell"
          ]
        ]
      ],
      [
        [
          "Johnny Rogers",
          [
            "/wiki/Johnny_Rogers_(rugby)"
          ]
        ],
        [
          "6",
          []
        ],
        [
          "Joe Brittain",
          [
            "/wiki/Joe_Brittain"
          ]
        ]
      ],
      [
        [
          "Robert Habron",
          []
        ],
        [
          "7",
          []
        ],
        [
          "A. E. Jenkinson",
          []
        ]
      ],
      [
        [
          "Aaron Lee",
          []
        ],
        [
          "8",
          []
        ],
        [
          "F. Mirfield",
          []
        ]
      ],
      [
        [
          "Arthur Swinden",
          []
        ],
        [
          "9",
          []
        ],
        [
          "F. Godward",
          []
        ]
      ],
      [
        [
          "Herbert Sherwood",
          []
        ],
        [
          "10",
          []
        ],
        [
          "W. N. Whiting",
          []
        ]
      ],
      [
        [
          "Ben Gronow",
          [
            "/wiki/Ben_Gronow"
          ]
        ],
        [
          "11",
          []
        ],
        [
          "Billy Ward",
          [
            "/wiki/Billy_Ward_(rugby_league)"
          ]
        ]
      ],
      [
        [
          "G. Naylor",
          []
        ],
        [
          "12",
          []
        ],
        [
          "Fred Webster",
          [
            "/wiki/Fred_Webster_(rugby_league)"
          ]
        ]
      ],
      [
        [
          "Douglas Clark",
          [
            "/wiki/Douglas_Clark_(rugby_league)"
          ]
        ],
        [
          "13",
          []
        ],
        [
          "Fred Carter",
          [
            "/wiki/Fred_Carter_(rugby_league)"
          ]
        ]
      ],
      [
        [
          "? ?",
          []
        ],
        [
          "Coach",
          []
        ],
        [
          "? ?",
          []
        ]
      ],
      [
        [
          "24",
          []
        ],
        [
          "score",
          []
        ],
        [
          "5",
          []
        ]
      ],
      [
        [
          "13",
          []
        ],
        [
          "HT",
          []
        ],
        [
          "0",
          []
        ]
      ],
      [
        [
          "Stan Moorhouse ( 4 )",
          []
        ],
        [
          "T",
          []
        ],
        [
          "W. N. Whiting ( 1 )",
          []
        ]
      ]
    ],
    "section_title": "Competition and Results -- Final",
    "section_text": "",
    "uid": "1919\u201320_Yorkshire_Cup_4",
    "intro": "The 1919-20 Yorkshire Cup was the twelfth occasion on which the Yorkshire Cup competition had been held. This season saw the junior/amateur club Featherstone Rovers being invited again, and this, together with the restart-up of Keighley after the wartime close-down, resulted in an increase of one bringing the total entries up to fourteen. This in turn resulted in two byes in the first round. This year saw the cup holders retain the trophy after winning for the fourth successive time, with Huddersfield winning the trophy by beating Leeds by the score of 24-5 in the final. The match was played at Thrum Hall, Halifax, now in West Yorkshire. The attendance was 24,935 and receipts were \u00a3\u00a32,096. This was Huddersfield's seventh appearance in what had been seven appearances in eight consecutive finals between 1909 and this season (which included four successive victories and six in total), and who knows, but for the intervention of the First World War and suspension of the competition, it may have been more. It was also the fourth consecutive win."
  },
  "2003\u201304_PAOK_F.C._season_1": {
    "url": "https://en.wikipedia.org/wiki/2003\u201304_PAOK_FC_season",
    "title": "2003\u201304 PAOK FC season",
    "header": [
      [
        "Transfer Window",
        []
      ],
      [
        "Pos",
        []
      ],
      [
        "Name",
        []
      ],
      [
        "Club",
        []
      ],
      [
        "Fee",
        []
      ]
    ],
    "data": [
      [
        [
          "Summer",
          []
        ],
        [
          "DF",
          []
        ],
        [
          "Ifeanyi Udeze",
          [
            "/wiki/Ifeanyi_Udeze"
          ]
        ],
        [
          "West Brom",
          [
            "/wiki/West_Bromwich_Albion_F.C."
          ]
        ],
        [
          "End of loan",
          []
        ]
      ],
      [
        [
          "Summer",
          []
        ],
        [
          "FW",
          []
        ],
        [
          "M. Giannitsanakis",
          []
        ],
        [
          "Aris Soudas",
          []
        ],
        [
          "Free",
          []
        ]
      ],
      [
        [
          "Summer",
          []
        ],
        [
          "FW",
          []
        ],
        [
          "Thankgod Amaefule",
          [
            "/wiki/Thankgod_Amaefule"
          ]
        ],
        [
          "Ok\u0119cie Warszawa",
          [
            "/wiki/Ok\u0119cie_Warszawa"
          ]
        ],
        [
          "Free",
          []
        ]
      ],
      [
        [
          "Summer",
          []
        ],
        [
          "FW",
          []
        ],
        [
          "Christos Balodimos",
          []
        ],
        [
          "Iraklis K20",
          []
        ],
        [
          "Free",
          []
        ]
      ],
      [
        [
          "Summer",
          []
        ],
        [
          "MF",
          []
        ],
        [
          "Ebenezer Hagan",
          [
            "/wiki/Ebenezer_Hagan"
          ]
        ],
        [
          "Iraklis",
          [
            "/wiki/Iraklis_F.C._(Thessaloniki)"
          ]
        ],
        [
          "Free",
          []
        ]
      ],
      [
        [
          "Summer",
          []
        ],
        [
          "MF",
          []
        ],
        [
          "Lambros Vangelis",
          [
            "/wiki/Lambros_Vangelis"
          ]
        ],
        [
          "Siena",
          [
            "/wiki/Robur_Siena"
          ]
        ],
        [
          "Free",
          []
        ]
      ],
      [
        [
          "Summer",
          []
        ],
        [
          "DF",
          []
        ],
        [
          "Leonidas Vokolos",
          [
            "/wiki/Leonidas_Vokolos"
          ]
        ],
        [
          "Panathinaikos",
          [
            "/wiki/Panathinaikos_F.C."
          ]
        ],
        [
          "Free",
          []
        ]
      ],
      [
        [
          "Summer",
          []
        ],
        [
          "MF",
          []
        ],
        [
          "Napoleon Amaefule",
          []
        ],
        [
          "Polonia Warsaw",
          [
            "/wiki/Polonia_Warsaw"
          ]
        ],
        [
          "Free",
          []
        ]
      ],
      [
        [
          "Summer",
          []
        ],
        [
          "DF",
          []
        ],
        [
          "Stelios Malezas",
          [
            "/wiki/Stelios_Malezas"
          ]
        ],
        [
          "Pontioi Katerini",
          [
            "/wiki/Pontioi_Katerini_F.C."
          ]
        ],
        [
          "50K",
          []
        ]
      ],
      [
        [
          "Summer",
          []
        ],
        [
          "DF",
          []
        ],
        [
          "Christos Karipidis",
          [
            "/wiki/Christos_Karipidis"
          ]
        ],
        [
          "Kerkyra",
          [
            "/wiki/PAE_Kerkyra"
          ]
        ],
        [
          "End of loan",
          []
        ]
      ],
      [
        [
          "Winter",
          []
        ],
        [
          "MF",
          []
        ],
        [
          "Liasos Louka",
          [
            "/wiki/Liasos_Louka"
          ]
        ],
        [
          "Nea Salamis",
          [
            "/wiki/Nea_Salamis_Famagusta_FC"
          ]
        ],
        [
          "150K",
          []
        ]
      ],
      [
        [
          "Winter",
          []
        ],
        [
          "GK",
          []
        ],
        [
          "Daniel Fernandes",
          [
            "/wiki/Daniel_Fernandes_(footballer)"
          ]
        ],
        [
          "Celta de Vigo B",
          [
            "/wiki/Celta_de_Vigo_B"
          ]
        ],
        [
          "Free",
          []
        ]
      ],
      [
        [
          "Winter",
          []
        ],
        [
          "MF",
          []
        ],
        [
          "Alexandros Garpozis",
          [
            "/wiki/Alexandros_Garpozis"
          ]
        ],
        [
          "AEL Limassol",
          [
            "/wiki/AEL_Limassol"
          ]
        ],
        [
          "Free",
          []
        ]
      ],
      [
        [
          "Winter",
          []
        ],
        [
          "DF",
          []
        ],
        [
          "Giorgos Zisopoulos",
          [
            "/wiki/Giorgos_Zisopoulos"
          ]
        ],
        [
          "Aris",
          [
            "/wiki/Aris_Thessaloniki_F.C."
          ]
        ],
        [
          "Free",
          []
        ]
      ],
      [
        [
          "Winter",
          []
        ],
        [
          "GK",
          []
        ],
        [
          "Christos Lambakis",
          [
            "/wiki/Christos_Lambakis"
          ]
        ],
        [
          "Aris",
          [
            "/wiki/Aris_Thessaloniki_F.C."
          ]
        ],
        [
          "Free",
          []
        ]
      ],
      [
        [
          "Winter",
          []
        ],
        [
          "MF",
          []
        ],
        [
          "Christos Maladenis",
          [
            "/wiki/Christos_Maladenis"
          ]
        ],
        [
          "AEK Athens",
          [
            "/wiki/AEK_Athens_F.C."
          ]
        ],
        [
          "Free",
          []
        ]
      ]
    ],
    "section_title": "Transfers",
    "section_text": "Players transferred in",
    "uid": "2003\u201304_PAOK_F.C._season_1",
    "intro": "N/A"
  },
  "1939\u201340_Yorkshire_Cup_0": {
    "url": "https://en.wikipedia.org/wiki/1939\u201340_Yorkshire_Cup",
    "title": "1939\u201340 Yorkshire Cup",
    "header": [
      [
        "Game No",
        []
      ],
      [
        "Fixture Date",
        []
      ],
      [
        "Home Team",
        []
      ],
      [
        "Score",
        []
      ],
      [
        "Away Team",
        []
      ],
      [
        "Venue",
        []
      ],
      [
        "Notes",
        []
      ]
    ],
    "data": [
      [
        [
          "1",
          []
        ],
        [
          "Sat 25 May 1940",
          []
        ],
        [
          "Dewsbury",
          [
            "/wiki/Dewsbury_Rams"
          ]
        ],
        [
          "23-14",
          []
        ],
        [
          "York",
          [
            "/wiki/York_Wasps"
          ]
        ],
        [
          "Crown Flatt",
          [
            "/wiki/Crown_Flatt"
          ]
        ],
        [
          "",
          []
        ]
      ],
      [
        [
          "2",
          []
        ],
        [
          "Sat 1 Jun 1940",
          []
        ],
        [
          "Bradford Northern",
          [
            "/wiki/Bradford_Bulls"
          ]
        ],
        [
          "22-3",
          []
        ],
        [
          "Leeds",
          [
            "/wiki/Leeds_Rhinos"
          ]
        ],
        [
          "Odsal",
          [
            "/wiki/Odsal_Stadium"
          ]
        ],
        [
          "",
          []
        ]
      ],
      [
        [
          "3",
          []
        ],
        [
          "Sat 1 Jun 1940",
          []
        ],
        [
          "Castleford",
          [
            "/wiki/Castleford_Tigers"
          ]
        ],
        [
          "17-10",
          []
        ],
        [
          "Hunslet",
          [
            "/wiki/Hunslet_F.C._(1883)"
          ]
        ],
        [
          "Wheldon Road",
          [
            "/wiki/The_Jungle_(Wheldon_Road)"
          ]
        ],
        [
          "",
          []
        ]
      ],
      [
        [
          "4",
          []
        ],
        [
          "Sat 1 Jun 1940",
          []
        ],
        [
          "Featherstone Rovers",
          [
            "/wiki/Featherstone_Rovers"
          ]
        ],
        [
          "18-2",
          []
        ],
        [
          "Halifax",
          [
            "/wiki/Halifax_R.L.F.C."
          ]
        ],
        [
          "Post Office Road",
          [
            "/wiki/Post_Office_Road"
          ]
        ],
        [
          "",
          []
        ]
      ],
      [
        [
          "5",
          []
        ],
        [
          "",
          []
        ],
        [
          "Huddersfield",
          [
            "/wiki/Huddersfield_Giants"
          ]
        ],
        [
          "",
          []
        ],
        [
          "bye",
          []
        ],
        [
          "",
          []
        ],
        [
          "1",
          []
        ]
      ],
      [
        [
          "6",
          []
        ],
        [
          "",
          []
        ],
        [
          "Hull",
          [
            "/wiki/Hull_F.C."
          ]
        ],
        [
          "",
          []
        ],
        [
          "bye",
          []
        ],
        [
          "",
          []
        ],
        [
          "1",
          []
        ]
      ],
      [
        [
          "7",
          []
        ],
        [
          "",
          []
        ],
        [
          "Hull Kingston Rovers",
          [
            "/wiki/Hull_Kingston_Rovers"
          ]
        ],
        [
          "",
          []
        ],
        [
          "bye",
          []
        ],
        [
          "",
          []
        ],
        [
          "1",
          []
        ]
      ],
      [
        [
          "8",
          []
        ],
        [
          "",
          []
        ],
        [
          "Wakefield Trinity",
          [
            "/wiki/Wakefield_Trinity"
          ]
        ],
        [
          "",
          []
        ],
        [
          "bye",
          []
        ],
        [
          "",
          []
        ],
        [
          "1",
          []
        ]
      ]
    ],
    "section_title": "Competition and Results -- Round 1",
    "section_text": "Involved 4 matches ( with four byes ) and 12 Clubs",
    "uid": "1939\u201340_Yorkshire_Cup_0",
    "intro": "The 1939-40 Yorkshire Cup competition was a knock-out competition between (mainly professional) rugby league clubs from the county of Yorkshire. The actual area was at times increased to encompass other teams from outside the county such as Newcastle, Mansfield, Coventry, and even London (in the form of Acton & Willesden). The competition always took place early in the season, in the Autumn, with the final taking place in (or just before) December (The only exception to this was when disruption of the fixture list was caused during, and immediately after, the two World Wars, as was the case with this season)\nDue to the start of the Second World War, the competition was delayed until early 1940 (see later). 1939-40 was the thirty-second occasion on which the Yorkshire Cup competition had been held. This season's competition is classed as a Wartime Emergency Competition and therefore the results did not count as an official competition win. However, this aside, there was a new winner for this season's trophy, \nFeatherstone Rovers winning the trophy by beating Wakefield Trinity by the score of 12-9\nThe match was played at Odsal in the City of Bradford, now in West Yorkshire. The attendance was 7,077 and receipts were \u00a3403\nUnlike the 1939-40 Lancashire Cup, the Yorkshire cup was played on a straightforward knock-out basis, and not on a two-legged basiss."
  },
  "2015\u201316_LEB_Oro_season_8": {
    "url": "https://en.wikipedia.org/wiki/2015\u201316_LEB_Oro_season",
    "title": "2015\u201316 LEB Oro season",
    "header": [
      [
        "Rk",
        []
      ],
      [
        "Name",
        []
      ],
      [
        "Team",
        []
      ],
      [
        "Games",
        []
      ],
      [
        "Rebounds",
        []
      ],
      [
        "RPG",
        []
      ]
    ],
    "data": [
      [
        [
          "1",
          []
        ],
        [
          "\u00d3liver Arteaga",
          []
        ],
        [
          "Planasa Navarra",
          [
            "/wiki/Basket_Navarra_Club"
          ]
        ],
        [
          "28",
          []
        ],
        [
          "272",
          []
        ],
        [
          "9.7",
          []
        ]
      ],
      [
        [
          "2",
          []
        ],
        [
          "Emir Sulejmanovi\u0107",
          [
            "/wiki/Emir_Sulejmanovi\u0107"
          ]
        ],
        [
          "FC Barcelona Lassa B",
          [
            "/wiki/FC_Barcelona_B\u00e0squet_B"
          ]
        ],
        [
          "25",
          []
        ],
        [
          "216",
          []
        ],
        [
          "8.6",
          []
        ]
      ],
      [
        [
          "3",
          []
        ],
        [
          "Tautvydas \u0160le\u017eas",
          [
            "/wiki/Tautvydas_\u0160le\u017eas"
          ]
        ],
        [
          "C\u00e1ceres Patrimonio de la Humanidad",
          [
            "/wiki/C\u00e1ceres_Ciudad_del_Baloncesto"
          ]
        ],
        [
          "20",
          []
        ],
        [
          "166",
          []
        ],
        [
          "8.3",
          []
        ]
      ],
      [
        [
          "4",
          []
        ],
        [
          "Sergio Olmos",
          []
        ],
        [
          "Leyma B\u00e1squet Coru\u00f1a",
          [
            "/wiki/B\u00e1squet_Coru\u00f1a"
          ]
        ],
        [
          "30",
          []
        ],
        [
          "217",
          []
        ],
        [
          "7.2",
          []
        ]
      ],
      [
        [
          "5",
          []
        ],
        [
          "Beka Burjanadze",
          [
            "/wiki/Beka_Burjanadze"
          ]
        ],
        [
          "Leyma B\u00e1squet Coru\u00f1a",
          [
            "/wiki/B\u00e1squet_Coru\u00f1a"
          ]
        ],
        [
          "30",
          []
        ],
        [
          "211",
          []
        ],
        [
          "7.0",
          []
        ]
      ]
    ],
    "section_title": "Stats leaders in regular season -- Rebounds",
    "section_text": "",
    "uid": "2015\u201316_LEB_Oro_season_8",
    "intro": "The 2015-16 LEB Oro season was the 20th season of the Spanish basketball second league LEB Oro. The season started on October 2 and ended on May 27 with the last game of the promotion playoffs finals."
  },
  "2018\u201319_Verbandspokal_0": {
    "url": "https://en.wikipedia.org/wiki/2018\u201319_Verbandspokal",
    "title": "2018\u201319 Verbandspokal",
    "header": [
      [
        "Cup",
        []
      ],
      [
        "Date",
        []
      ],
      [
        "Location",
        []
      ],
      [
        "Team 1",
        []
      ],
      [
        "Result",
        []
      ],
      [
        "Team 2",
        []
      ],
      [
        "Attendance",
        []
      ],
      [
        "Report",
        []
      ]
    ],
    "data": [
      [
        [
          "Baden Cup ( 2018-19 season )",
          [
            "/wiki/Baden_Cup"
          ]
        ],
        [
          "26 May 2019",
          []
        ],
        [
          "Karlsruhe",
          [
            "/wiki/Karlsruhe"
          ]
        ],
        [
          "Karlsruher SC",
          [
            "/wiki/Karlsruher_SC"
          ]
        ],
        [
          "5-3",
          []
        ],
        [
          "Waldhof Mannheim",
          [
            "/wiki/SV_Waldhof_Mannheim"
          ]
        ],
        [
          "7,367",
          []
        ],
        [
          "Report",
          []
        ]
      ],
      [
        [
          "Bavarian Cup ( 2018-19 season )",
          [
            "/wiki/Bavarian_Cup"
          ]
        ],
        [
          "25 May 2019",
          []
        ],
        [
          "Aschaffenburg",
          [
            "/wiki/Aschaffenburg"
          ]
        ],
        [
          "Viktoria Aschaffenburg",
          [
            "/wiki/Viktoria_Aschaffenburg"
          ]
        ],
        [
          "0-3",
          []
        ],
        [
          "W\u00fcrzburger Kickers",
          [
            "/wiki/W\u00fcrzburger_Kickers"
          ]
        ],
        [
          "6,033",
          []
        ],
        [
          "Report",
          []
        ]
      ],
      [
        [
          "Berlin Cup ( 2018-19 season )",
          [
            "/wiki/Berlin_Cup"
          ]
        ],
        [
          "25 May 2019",
          []
        ],
        [
          "Berlin",
          [
            "/wiki/Berlin"
          ]
        ],
        [
          "Tennis Borussia Berlin",
          [
            "/wiki/Tennis_Borussia_Berlin"
          ]
        ],
        [
          "0-1",
          []
        ],
        [
          "Viktoria Berlin",
          [
            "/wiki/FC_Viktoria_1889_Berlin"
          ]
        ],
        [
          "2,712",
          []
        ],
        [
          "Report",
          []
        ]
      ],
      [
        [
          "Brandenburg Cup ( 2018-19 season )",
          [
            "/wiki/Brandenburg_Cup"
          ]
        ],
        [
          "25 May 2019",
          []
        ],
        [
          "Rathenow",
          [
            "/wiki/Rathenow"
          ]
        ],
        [
          "Optik Rathenow",
          [
            "/wiki/FSV_Optik_Rathenow"
          ]
        ],
        [
          "0-1",
          []
        ],
        [
          "Energie Cottbus",
          [
            "/wiki/FC_Energie_Cottbus"
          ]
        ],
        [
          "1,991",
          []
        ],
        [
          "Report",
          []
        ]
      ],
      [
        [
          "Bremen Cup ( 2018-19 season )",
          [
            "/wiki/Bremen_Cup"
          ]
        ],
        [
          "25 May 2019",
          []
        ],
        [
          "Bremen",
          [
            "/wiki/Bremen"
          ]
        ],
        [
          "FC Oberneuland",
          [
            "/wiki/FC_Oberneuland"
          ]
        ],
        [
          "1-0",
          []
        ],
        [
          "Bremer SV",
          [
            "/wiki/Bremer_SV"
          ]
        ],
        [
          "",
          []
        ],
        [
          "Report",
          []
        ]
      ],
      [
        [
          "Hamburg Cup ( 2018-19 season )",
          [
            "/wiki/Hamburg_Cup"
          ]
        ],
        [
          "25 May 2019",
          []
        ],
        [
          "Hamburg",
          [
            "/wiki/Hamburg"
          ]
        ],
        [
          "Eintracht Norderstedt",
          [
            "/wiki/FC_Eintracht_Norderstedt_03"
          ]
        ],
        [
          "1-2",
          []
        ],
        [
          "TuS Dassendorf",
          [
            "/wiki/TuS_Dassendorf"
          ]
        ],
        [
          "2,936",
          []
        ],
        [
          "Report",
          []
        ]
      ],
      [
        [
          "Hessian Cup ( 2018-19 season )",
          [
            "/wiki/Hessian_Cup"
          ]
        ],
        [
          "25 June 2019",
          []
        ],
        [
          "Baunatal",
          [
            "/wiki/Baunatal"
          ]
        ],
        [
          "KSV Baunatal",
          [
            "/wiki/KSV_Baunatal"
          ]
        ],
        [
          "1-8",
          []
        ],
        [
          "Wehen Wiesbaden",
          [
            "/wiki/SV_Wehen_Wiesbaden"
          ]
        ],
        [
          "",
          []
        ],
        [
          "Report",
          []
        ]
      ],
      [
        [
          "Lower Rhine Cup ( 2018-19 season )",
          [
            "/wiki/Lower_Rhine_Cup"
          ]
        ],
        [
          "25 May 2019",
          []
        ],
        [
          "Wuppertal",
          [
            "/wiki/Wuppertal"
          ]
        ],
        [
          "Wuppertaler SV",
          [
            "/wiki/Wuppertaler_SV"
          ]
        ],
        [
          "1-2",
          []
        ],
        [
          "KFC Uerdingen",
          [
            "/wiki/KFC_Uerdingen_05"
          ]
        ],
        [
          "10,500",
          []
        ],
        [
          "Report",
          []
        ]
      ],
      [
        [
          "Lower Saxony Cup ( 2018-19 season ( 3 . Liga / Regionalliga ) ) ( 2018-19 season ( amateurs ) )",
          [
            "/wiki/Lower_Saxony_Cup"
          ]
        ],
        [
          "22 May 2019",
          []
        ],
        [
          "Drochtersen",
          [
            "/wiki/Drochtersen"
          ]
        ],
        [
          "SV Drochtersen/Assel",
          [
            "/wiki/SV_Drochtersen/Assel"
          ]
        ],
        [
          "1-0",
          []
        ],
        [
          "SV Meppen",
          [
            "/wiki/SV_Meppen"
          ]
        ],
        [
          "3,000",
          []
        ],
        [
          "Report",
          []
        ]
      ],
      [
        [
          "Lower Saxony Cup ( 2018-19 season ( 3 . Liga / Regionalliga ) ) ( 2018-19 season ( amateurs ) )",
          [
            "/wiki/Lower_Saxony_Cup"
          ]
        ],
        [
          "25 May 2019",
          []
        ],
        [
          "Hanover",
          [
            "/wiki/Hanover"
          ]
        ],
        [
          "TuS Bersenbr\u00fcck",
          []
        ],
        [
          "2-3",
          []
        ],
        [
          "Atlas Delmenhorst",
          [
            "/wiki/Atlas_Delmenhorst"
          ]
        ],
        [
          "1,800",
          []
        ],
        [
          "Report",
          []
        ]
      ],
      [
        [
          "Mecklenburg-Vorpommern Cup ( 2018-19 season )",
          [
            "/wiki/Mecklenburg-Vorpommern_Cup"
          ]
        ],
        [
          "25 May 2019",
          []
        ],
        [
          "Neustrelitz",
          [
            "/wiki/Neustrelitz"
          ]
        ],
        [
          "Torgelower FC Greif",
          [
            "/wiki/Torgelower_FC_Greif"
          ]
        ],
        [
          "1-4",
          []
        ],
        [
          "Hansa Rostock",
          [
            "/wiki/F.C._Hansa_Rostock"
          ]
        ],
        [
          "2,565",
          []
        ],
        [
          "Report",
          []
        ]
      ],
      [
        [
          "Middle Rhine Cup ( 2018-19 season )",
          [
            "/wiki/Middle_Rhine_Cup"
          ]
        ],
        [
          "25 May 2019",
          []
        ],
        [
          "Bonn",
          [
            "/wiki/Bonn"
          ]
        ],
        [
          "Alemannia Aachen",
          [
            "/wiki/Alemannia_Aachen"
          ]
        ],
        [
          "3-1",
          []
        ],
        [
          "Fortuna K\u00f6ln",
          [
            "/wiki/SC_Fortuna_K\u00f6ln"
          ]
        ],
        [
          "6,645",
          []
        ],
        [
          "Report",
          []
        ]
      ],
      [
        [
          "Rhineland Cup ( 2018-19 season )",
          [
            "/wiki/Rhineland_Cup"
          ]
        ],
        [
          "25 May 2019",
          []
        ],
        [
          "Bad Neuenahr",
          [
            "/wiki/Bad_Neuenahr-Ahrweiler"
          ]
        ],
        [
          "FSV Salmrohr",
          [
            "/wiki/FSV_Salmrohr"
          ]
        ],
        [
          "2-2 ( a.e.t . ) ( 4-3 p )",
          [
            "/wiki/Overtime_(sports)",
            "/wiki/Penalty_shoot-out_(association_football)"
          ]
        ],
        [
          "TuS Koblenz",
          [
            "/wiki/TuS_Koblenz"
          ]
        ],
        [
          "2,715",
          []
        ],
        [
          "Report",
          []
        ]
      ],
      [
        [
          "Saarland Cup ( 2018-19 season )",
          [
            "/wiki/Saarland_Cup"
          ]
        ],
        [
          "25 May 2019",
          []
        ],
        [
          "Elversberg",
          [
            "/wiki/Spiesen-Elversberg"
          ]
        ],
        [
          "SV Elversberg",
          [
            "/wiki/SV_Elversberg"
          ]
        ],
        [
          "1-2",
          []
        ],
        [
          "1 . FC Saarbr\u00fccken",
          [
            "/wiki/1._FC_Saarbr\u00fccken"
          ]
        ],
        [
          "6,213",
          []
        ],
        [
          "Report",
          []
        ]
      ],
      [
        [
          "Saxony Cup ( 2018-19 season )",
          [
            "/wiki/Saxony_Cup"
          ]
        ],
        [
          "25 May 2019",
          []
        ],
        [
          "Chemnitz",
          [
            "/wiki/Chemnitz"
          ]
        ],
        [
          "Chemnitzer FC",
          [
            "/wiki/Chemnitzer_FC"
          ]
        ],
        [
          "2-0",
          []
        ],
        [
          "FSV Zwickau",
          [
            "/wiki/FSV_Zwickau"
          ]
        ],
        [
          "11,638",
          []
        ],
        [
          "Report",
          []
        ]
      ],
      [
        [
          "Saxony-Anhalt Cup ( 2018-19 season )",
          [
            "/wiki/Saxony-Anhalt_Cup"
          ]
        ],
        [
          "25 May 2019",
          []
        ],
        [
          "Halberstadt",
          [
            "/wiki/Halberstadt"
          ]
        ],
        [
          "Germania Halberstadt",
          [
            "/wiki/VfB_Germania_Halberstadt"
          ]
        ],
        [
          "0-2",
          []
        ],
        [
          "Hallescher FC",
          [
            "/wiki/Hallescher_FC"
          ]
        ],
        [
          "1,624",
          []
        ],
        [
          "Report",
          []
        ]
      ],
      [
        [
          "Schleswig-Holstein Cup ( 2018-19 season )",
          [
            "/wiki/Schleswig-Holstein_Cup"
          ]
        ],
        [
          "25 May 2019",
          []
        ],
        [
          "L\u00fcbeck",
          [
            "/wiki/L\u00fcbeck"
          ]
        ],
        [
          "VfB L\u00fcbeck",
          [
            "/wiki/VfB_L\u00fcbeck"
          ]
        ],
        [
          "1-0",
          []
        ],
        [
          "Weiche Flensburg",
          [
            "/wiki/SC_Weiche_Flensburg_08"
          ]
        ],
        [
          "3,771",
          []
        ],
        [
          "Report",
          []
        ]
      ],
      [
        [
          "South Baden Cup ( 2018-19 season )",
          [
            "/wiki/South_Baden_Cup"
          ]
        ],
        [
          "25 May 2019",
          []
        ],
        [
          "Pfullendorf",
          [
            "/wiki/Pfullendorf"
          ]
        ],
        [
          "FC 08 Villingen",
          [
            "/wiki/FC_08_Villingen"
          ]
        ],
        [
          "3-1",
          []
        ],
        [
          "1 . FC Rielasingen-Arlen",
          [
            "/wiki/1._FC_Rielasingen-Arlen"
          ]
        ],
        [
          "3,085",
          []
        ],
        [
          "Report",
          []
        ]
      ],
      [
        [
          "Southwestern Cup ( 2018-19 season )",
          [
            "/wiki/Southwestern_Cup"
          ]
        ],
        [
          "25 May 2019",
          []
        ],
        [
          "Pirmasens",
          [
            "/wiki/Pirmasens"
          ]
        ],
        [
          "1 . FC Kaiserslautern",
          [
            "/wiki/1._FC_Kaiserslautern"
          ]
        ],
        [
          "2-1",
          []
        ],
        [
          "Wormatia Worms",
          [
            "/wiki/Wormatia_Worms"
          ]
        ],
        [
          "7,343",
          []
        ],
        [
          "Report",
          []
        ]
      ],
      [
        [
          "Thuringian Cup ( 2018-19 season )",
          [
            "/wiki/Thuringian_Cup"
          ]
        ],
        [
          "25 May 2019",
          []
        ],
        [
          "Erfurt",
          [
            "/wiki/Erfurt"
          ]
        ],
        [
          "Preu\u00dfen Bad Langensalza",
          []
        ],
        [
          "0-5",
          []
        ],
        [
          "Wacker Nordhausen",
          [
            "/wiki/FSV_Wacker_90_Nordhausen"
          ]
        ],
        [
          "2,667",
          []
        ],
        [
          "Report",
          []
        ]
      ]
    ],
    "section_title": "Competitions",
    "section_text": "The finals of the 2018\u201319 Verbandspokal competitions ( winners listed in bold ) :",
    "uid": "2018\u201319_Verbandspokal_0",
    "intro": "The 2018-19 Verbandspokal, (English: 2018-19 Association Cup) consisted of twenty-one regional cup competitions, the Verbandspokale, the qualifying competition for the 2019-20 DFB-Pokal, the German Cup. All clubs from the 3. Liga and below could enter the regional Verbandspokale, subject to the rules and regulations of each region. Clubs from the Bundesliga and 2. Bundesliga could not enter but were instead directly qualified for the first round of the DFB-Pokal. Reserve teams were not permitted to take part in the DFB-Pokal or the Verbandspokale. The precise rules of each regional Verbandspokal are laid down by the regional football association organising it. All twenty-one winners qualified for the first round of the German Cup in the following season. Three additional clubs were also qualified for the first round of the German Cup, these being from the three largest state associations, Bavaria, Westphalia and Lower Saxony. The Lower Saxony Cup was split into two paths, one for teams from the 3. Liga and the Regionalliga Nord and one for the teams from lower leagues. The winners of both paths qualified for the DFB-Pokal."
  },
  "2004\u201305_Sunshine_Tour_0": {
    "url": "https://en.wikipedia.org/wiki/2004\u201305_Sunshine_Tour",
    "title": "2004\u201305 Sunshine Tour",
    "header": [
      [
        "Year",
        []
      ],
      [
        "Dates",
        []
      ],
      [
        "Tournament",
        []
      ],
      [
        "Venue ( RSA unless stated )",
        []
      ],
      [
        "Prize fund ( R )",
        [
          "/wiki/South_African_rand"
        ]
      ],
      [
        "Winner",
        []
      ],
      [
        "Notes",
        []
      ]
    ],
    "data": [
      [
        [
          "2004",
          []
        ],
        [
          "25-27 Mar",
          []
        ],
        [
          "FNB Botswana Open",
          []
        ],
        [
          "Gaborone Golf Club , Botswana",
          []
        ],
        [
          "150,000",
          []
        ],
        [
          "Barry Painting",
          []
        ],
        [
          "",
          []
        ]
      ],
      [
        [
          "2004",
          []
        ],
        [
          "31 Mar - 2 Apr",
          []
        ],
        [
          "Parmalat Classic",
          []
        ],
        [
          "De Zalze Golf Club",
          []
        ],
        [
          "125,000",
          []
        ],
        [
          "Justin Walters ( 1 )",
          [
            "/wiki/Justin_Walters"
          ]
        ],
        [
          "",
          []
        ]
      ],
      [
        [
          "2004",
          []
        ],
        [
          "5-8 May",
          []
        ],
        [
          "Capital Alliance Royal Swazi Sun Open",
          [
            "/wiki/Capital_Alliance_Royal_Swazi_Sun_Open"
          ]
        ],
        [
          "Royal Swazi Sun Country Club , Swaziland",
          []
        ],
        [
          "300,000",
          []
        ],
        [
          "Nic Henning ( 3 )",
          [
            "/wiki/Nic_Henning"
          ]
        ],
        [
          "",
          []
        ]
      ],
      [
        [
          "2004",
          []
        ],
        [
          "27-29 May",
          []
        ],
        [
          "Vodacom Origins of Golf Tour ( Pezula )",
          [
            "/wiki/Vodacom_Origins_of_Golf_Tour"
          ]
        ],
        [
          "Pezula Championship Course",
          []
        ],
        [
          "200,000",
          []
        ],
        [
          "Patrick O'Brien",
          []
        ],
        [
          "New tournament",
          []
        ]
      ],
      [
        [
          "2004",
          []
        ],
        [
          "10-12 Jun",
          []
        ],
        [
          "Vodacom Origins of Golf Tour ( Schoeman Park )",
          [
            "/wiki/Vodacom_Origins_of_Golf_Tour"
          ]
        ],
        [
          "Schoeman Park Golf Club",
          []
        ],
        [
          "200,000",
          []
        ],
        [
          "Steve van Vuuren ( 6 )",
          [
            "/wiki/Steve_van_Vuuren"
          ]
        ],
        [
          "New tournament",
          []
        ]
      ],
      [
        [
          "2004",
          []
        ],
        [
          "18-20 Jun",
          []
        ],
        [
          "Royal Swazi Sun Classic",
          [
            "/wiki/Royal_Swazi_Sun_Classic"
          ]
        ],
        [
          "Royal Swazi Sun Country Club , Swaziland",
          []
        ],
        [
          "200,000",
          []
        ],
        [
          "Bradford Vaughan ( 4 )",
          [
            "/wiki/Bradford_Vaughan"
          ]
        ],
        [
          "Last year of this event",
          []
        ]
      ],
      [
        [
          "2004",
          []
        ],
        [
          "30 Jun - 2 Jul",
          []
        ],
        [
          "Vodacom Origins of Golf Tour ( Zimbali )",
          [
            "/wiki/Vodacom_Origins_of_Golf_Tour"
          ]
        ],
        [
          "Zimbali Lodge & CC",
          []
        ],
        [
          "200,000",
          []
        ],
        [
          "Thomas Aiken ( 1 )",
          [
            "/wiki/Thomas_Aiken"
          ]
        ],
        [
          "New tournament",
          []
        ]
      ],
      [
        [
          "2004",
          []
        ],
        [
          "21-23 Jul",
          []
        ],
        [
          "Vodacom Origins of Golf Tour ( Sun City )",
          [
            "/wiki/Vodacom_Origins_of_Golf_Tour"
          ]
        ],
        [
          "Lost City Golf Course",
          []
        ],
        [
          "200,000",
          []
        ],
        [
          "Thomas Aiken ( 2 )",
          [
            "/wiki/Thomas_Aiken"
          ]
        ],
        [
          "New tournament",
          []
        ]
      ],
      [
        [
          "2004",
          []
        ],
        [
          "17-19 Sep",
          []
        ],
        [
          "Vodacom Origins of Golf Tour ( Arabella )",
          [
            "/wiki/Vodacom_Origins_of_Golf_Tour"
          ]
        ],
        [
          "Arabella Country Club",
          []
        ],
        [
          "200,000",
          []
        ],
        [
          "Louis Oosthuizen ( 1 )",
          [
            "/wiki/Louis_Oosthuizen"
          ]
        ],
        [
          "New tournament",
          []
        ]
      ],
      [
        [
          "2004",
          []
        ],
        [
          "8-10 Oct",
          []
        ],
        [
          "Bearing Man Highveld Classic",
          [
            "/wiki/Highveld_Classic"
          ]
        ],
        [
          "Witbank Golf Club",
          []
        ],
        [
          "150,000",
          []
        ],
        [
          "Divan van den Heever ( 1 )",
          []
        ],
        [
          "",
          []
        ]
      ],
      [
        [
          "2004",
          []
        ],
        [
          "14-16 Oct",
          []
        ],
        [
          "Limpopo Eskom Classic",
          []
        ],
        [
          "Polokwane Golf Club",
          []
        ],
        [
          "250,000",
          []
        ],
        [
          "Bradford Vaughan ( 5 )",
          [
            "/wiki/Bradford_Vaughan"
          ]
        ],
        [
          "",
          []
        ]
      ],
      [
        [
          "2004",
          []
        ],
        [
          "19-21 Oct",
          []
        ],
        [
          "Vodacom Origins of Golf Championship",
          [
            "/wiki/Vodacom_Origins_of_Golf_Tour"
          ]
        ],
        [
          "The Links , Fancourt",
          []
        ],
        [
          "200,000",
          []
        ],
        [
          "Thomas Aiken ( 3 )",
          [
            "/wiki/Thomas_Aiken"
          ]
        ],
        [
          "New tournament",
          []
        ]
      ],
      [
        [
          "2004",
          []
        ],
        [
          "28-30 Oct",
          []
        ],
        [
          "Platinum Classic",
          [
            "/wiki/Platinum_Classic"
          ]
        ],
        [
          "Mooinooi Golf Club",
          []
        ],
        [
          "300,000",
          []
        ],
        [
          "Titch Moore ( 5 )",
          [
            "/wiki/Titch_Moore"
          ]
        ],
        [
          "",
          []
        ]
      ],
      [
        [
          "2004",
          []
        ],
        [
          "4-6 Nov",
          []
        ],
        [
          "MTC Namibia PGA Championship",
          [
            "/wiki/MTC_Namibia_PGA_Championship"
          ]
        ],
        [
          "Windhoek Country Club , Namibia",
          []
        ],
        [
          "225,000",
          []
        ],
        [
          "Mark Murless ( 2 )",
          []
        ],
        [
          "New tournament",
          []
        ]
      ],
      [
        [
          "2004",
          []
        ],
        [
          "11-13 Nov",
          []
        ],
        [
          "Seekers Travel Pro-Am",
          []
        ],
        [
          "Dainfern Country Club",
          []
        ],
        [
          "125,000",
          []
        ],
        [
          "Ulrich van den Berg ( 3 )",
          [
            "/wiki/Ulrich_van_den_Berg"
          ]
        ],
        [
          "",
          []
        ]
      ],
      [
        [
          "2004",
          []
        ],
        [
          "9-12 Dec",
          []
        ],
        [
          "Dunhill Championship",
          [
            "/wiki/Alfred_Dunhill_Championship"
          ]
        ],
        [
          "Leopard Creek Country Club",
          []
        ],
        [
          "2,800,000",
          []
        ],
        [
          "Charl Schwartzel ( 1 )",
          [
            "/wiki/Charl_Schwartzel"
          ]
        ],
        [
          "Co-sanctioned with European Tour",
          []
        ]
      ],
      [
        [
          "2005",
          []
        ],
        [
          "20-23 Jan",
          []
        ],
        [
          "South African Airways Open",
          [
            "/wiki/South_African_Open_(golf)"
          ]
        ],
        [
          "Durban Country Club",
          []
        ],
        [
          "2,300,000",
          []
        ],
        [
          "Tim Clark ( 2 )",
          [
            "/wiki/Tim_Clark_(golfer)"
          ]
        ],
        [
          "Co-sanctioned with European Tour",
          []
        ]
      ],
      [
        [
          "2005",
          []
        ],
        [
          "27-30 Jan",
          []
        ],
        [
          "Dimension Data Pro-Am",
          [
            "/wiki/Dimension_Data_Pro-Am"
          ]
        ],
        [
          "Gary Player Country Club",
          []
        ],
        [
          "550,000",
          []
        ],
        [
          "Simon Wakefield ( 1 )",
          [
            "/wiki/Simon_Wakefield"
          ]
        ],
        [
          "",
          []
        ]
      ],
      [
        [
          "2005",
          []
        ],
        [
          "3-6 Feb",
          []
        ],
        [
          "Nashua Masters",
          [
            "/wiki/South_African_Masters"
          ]
        ],
        [
          "Wild Coast Sun Country Club",
          []
        ],
        [
          "500,000",
          []
        ],
        [
          "Richard Sterne ( 1 )",
          [
            "/wiki/Richard_Sterne_(golfer)"
          ]
        ],
        [
          "",
          []
        ]
      ],
      [
        [
          "2005",
          []
        ],
        [
          "17-20 Feb",
          []
        ],
        [
          "Telkom PGA Championship",
          [
            "/wiki/South_African_PGA_Championship"
          ]
        ],
        [
          "Woodhill Country Club",
          []
        ],
        [
          "1,000,000",
          []
        ],
        [
          "Warren Abery ( 3 )",
          [
            "/wiki/Warren_Abery"
          ]
        ],
        [
          "",
          []
        ]
      ]
    ],
    "section_title": "Schedule",
    "section_text": "The table below shows schedule of events for the 2004\u201305 Sunshine Tour . As usual , the tour consisted of two distinct parts , commonly referred to as the `` Summer Swing '' and `` Winter Swing '' . Tournaments held during the Summer Swing generally had much higher prize funds , attracted stronger fields , and were the only tournaments on the tour to carry world ranking points . Prize funds shown did not count directly towards the Order of Merit . The number in brackets after each winner 's name is the number of official money Sunshine Tour events he had won up to and including that tournament .",
    "uid": "2004\u201305_Sunshine_Tour_0",
    "intro": "The 2004-05 Sunshine Tour was the fifth season of professional golf tournaments since the southern Africa based Sunshine Tour was rebranded in 2000. The Sunshine Tour represents the highest level of competition for male professional golfers in the region. There were 21 tournaments on the schedule. This was an increase of four from the previous year, primarily due to the addition of the Vodacom Origins of Golf Tour, a series of six regional tournaments that has been held every year since. The other new tournament was the MTC Namibia PGA Championship. The tour was based predominantly in South Africa, with 17 of the 21 tournaments being held in the country. Two events were held in Swaziland, and one event each was held in Botswana and Namibia. Two events, the Dunhill Championship and the South African Airways Open were co-sanctioned by the European Tour. The Order of Merit was won by Charl Schwartzel."
  },
  "1997\u201398_Svenska_Cupen_1": {
    "url": "https://en.wikipedia.org/wiki/1997\u201398_Svenska_Cupen",
    "title": "1997\u201398 Svenska Cupen",
    "header": [
      [
        "Tie no",
        []
      ],
      [
        "Home team",
        []
      ],
      [
        "Score",
        []
      ],
      [
        "Away team",
        []
      ]
    ],
    "data": [
      [
        [
          "49",
          []
        ],
        [
          "Dalsj\u00f6fors GoIF ( WC )",
          [
            "/wiki/Dalsj\u00f6fors_GoIF"
          ]
        ],
        [
          "1-4",
          []
        ],
        [
          "Varbergs GIF ( D3 )",
          [
            "/wiki/Varbergs_GIF"
          ]
        ]
      ],
      [
        [
          "50",
          []
        ],
        [
          "Sj\u00f6markens IF ( D4 )",
          []
        ],
        [
          "1-4",
          []
        ],
        [
          "BK Sl\u00e4tta Damm ( D3 )",
          []
        ]
      ],
      [
        [
          "51",
          []
        ],
        [
          "IF Tymer ( D4 )",
          []
        ],
        [
          "0-3",
          []
        ],
        [
          "K\u00e5llereds SK ( D3 )",
          [
            "/wiki/K\u00e5llered_SK"
          ]
        ]
      ],
      [
        [
          "52",
          []
        ],
        [
          "IFK Hjo ( WC )",
          []
        ],
        [
          "0-4",
          []
        ],
        [
          "N\u00e4ssj\u00f6 FF ( D3 )",
          [
            "/wiki/N\u00e4ssj\u00f6_FF"
          ]
        ]
      ],
      [
        [
          "53",
          []
        ],
        [
          "Falk\u00f6pings FK ( D4 )",
          [
            "/wiki/Falk\u00f6pings_FK"
          ]
        ],
        [
          "2-0",
          []
        ],
        [
          "G\u00e5nghesters SK ( D4 )",
          []
        ]
      ],
      [
        [
          "54",
          []
        ],
        [
          "Ankarsrums IS ( WC )",
          []
        ],
        [
          "1-2",
          []
        ],
        [
          "Link\u00f6pings FF ( D3 )",
          [
            "/wiki/Link\u00f6pings_FF"
          ]
        ]
      ],
      [
        [
          "55",
          []
        ],
        [
          "R\u00f6dsle BK ( D4 )",
          []
        ],
        [
          "1-0 ( gg )",
          [
            "/wiki/Golden_goal"
          ]
        ],
        [
          "Skeninge IK ( D4 )",
          []
        ]
      ],
      [
        [
          "56",
          []
        ],
        [
          "Lind\u00e5s BK ( D4 )",
          []
        ],
        [
          "1-3",
          []
        ],
        [
          "Hultsfreds FK ( D3 )",
          []
        ]
      ],
      [
        [
          "57",
          []
        ],
        [
          "Hvetlanda GIF ( D4 )",
          []
        ],
        [
          "0-1",
          []
        ],
        [
          "\u00c5hus Horna BK ( D3 )",
          []
        ]
      ],
      [
        [
          "58",
          []
        ],
        [
          "Bredaryds IK ( D4 )",
          []
        ],
        [
          "3-0",
          []
        ],
        [
          "Ulricehamns IFK ( D3 )",
          [
            "/wiki/Ulricehamns_IFK"
          ]
        ]
      ],
      [
        [
          "59",
          []
        ],
        [
          "Hovsl\u00e4tts IK ( D4 )",
          [
            "/wiki/Hovsl\u00e4tts_IK"
          ]
        ],
        [
          "0-9",
          []
        ],
        [
          "Tidaholms GIF ( D2 )",
          []
        ]
      ],
      [
        [
          "60",
          []
        ],
        [
          "Torpa AIS ( D4 )",
          []
        ],
        [
          "0-2",
          []
        ],
        [
          "BK Zeros ( D3 )",
          [
            "/wiki/BK_Zeros"
          ]
        ]
      ],
      [
        [
          "61",
          []
        ],
        [
          "Fiskeby IF ( WC )",
          []
        ],
        [
          "2-1 ( gg )",
          [
            "/wiki/Golden_goal"
          ]
        ],
        [
          "V\u00e4sterviks FF ( D4 )",
          [
            "/wiki/V\u00e4sterviks_FF"
          ]
        ]
      ],
      [
        [
          "62",
          []
        ],
        [
          "Gn\u00f6sj\u00f6 IF ( D4 )",
          []
        ],
        [
          "1-3",
          []
        ],
        [
          "Sk\u00f6vde AIK ( D2 )",
          [
            "/wiki/Sk\u00f6vde_AIK"
          ]
        ]
      ],
      [
        [
          "63",
          []
        ],
        [
          "S\u00e4vsj\u00f6 FF ( D4 )",
          []
        ],
        [
          "5-3",
          []
        ],
        [
          "Skillingaryds IS ( D4 )",
          []
        ]
      ],
      [
        [
          "64",
          []
        ],
        [
          "Boxholms IF ( WC )",
          [
            "/wiki/Boxholms_IF"
          ]
        ],
        [
          "1-2",
          []
        ],
        [
          "Tran\u00e5s AIF ( D3 )",
          [
            "/wiki/Tran\u00e5s_AIF"
          ]
        ]
      ],
      [
        [
          "65",
          []
        ],
        [
          "LSW IF ( D4 )",
          [
            "/wiki/LSW_IF"
          ]
        ],
        [
          "2-1",
          []
        ],
        [
          "Husqvarna FF ( D2 )",
          [
            "/wiki/Husqvarna_FF"
          ]
        ]
      ],
      [
        [
          "66",
          []
        ],
        [
          "Lessebo GoIF ( D4 )",
          []
        ],
        [
          "0-1",
          []
        ],
        [
          "Listerby IK ( D4 )",
          []
        ]
      ],
      [
        [
          "67",
          []
        ],
        [
          "R\u00f6rviks IF ( D4 )",
          []
        ],
        [
          "0-2",
          []
        ],
        [
          "Lunds BK ( D2 )",
          [
            "/wiki/Lunds_BK"
          ]
        ]
      ],
      [
        [
          "68",
          []
        ],
        [
          "Lagans AIK ( D4 )",
          []
        ],
        [
          "0-1",
          []
        ],
        [
          "H\u00f6gaborgs BK ( D2 )",
          [
            "/wiki/H\u00f6gaborgs_BK"
          ]
        ]
      ]
    ],
    "section_title": "",
    "section_text": "",
    "uid": "1997\u201398_Svenska_Cupen_1",
    "intro": "Svenska Cupen 1997-98 was the 43rd season of the main Swedish football Cup. The final of the competition took place on 14 May 1998 and was held in Gothenburg. \u00d6rgryte IS and Helsingborgs IF drew 1-1 before an attendance of 2,559 spectators. The replay was held in Helsingborg a week later with the score also 1-1 with Helsingborgs IF winning 3-0 on penalties. Public interest was much greater for this match with an attendance of 13,092."
  },
  "2008\u201309_LEB_Oro_season_4": {
    "url": "https://en.wikipedia.org/wiki/2008\u201309_LEB_Oro_season",
    "title": "2008\u201309 LEB Oro season",
    "header": [
      [
        "Rank",
        []
      ],
      [
        "Name",
        []
      ],
      [
        "Team",
        []
      ],
      [
        "Games",
        []
      ],
      [
        "Rebounds",
        []
      ],
      [
        "RPG",
        []
      ]
    ],
    "data": [
      [
        [
          "1",
          []
        ],
        [
          "Jakim Donaldson",
          [
            "/wiki/Jakim_Donaldson"
          ]
        ],
        [
          "Ciudad de La Laguna Canarias",
          [
            "/wiki/CB_1939_Canarias"
          ]
        ],
        [
          "34",
          []
        ],
        [
          "323",
          []
        ],
        [
          "9.50",
          []
        ]
      ],
      [
        [
          "2",
          []
        ],
        [
          "Paulo Prestes",
          [
            "/wiki/Paul\u00e3o_Prestes"
          ]
        ],
        [
          "Cl\u00ednicas Rinc\u00f3n Axarqu\u00eda",
          [
            "/wiki/CB_Axarqu\u00eda"
          ]
        ],
        [
          "33",
          []
        ],
        [
          "309",
          []
        ],
        [
          "9.36",
          []
        ]
      ],
      [
        [
          "3",
          []
        ],
        [
          "Robert Battle",
          [
            "/wiki/Robert_Battle"
          ]
        ],
        [
          "Valladolid",
          [
            "/wiki/CB_Valladolid"
          ]
        ],
        [
          "33",
          []
        ],
        [
          "289",
          []
        ],
        [
          "8.76",
          []
        ]
      ],
      [
        [
          "4",
          []
        ],
        [
          "Ricardo Guill\u00e9n",
          [
            "/wiki/Ricardo_Guill\u00e9n"
          ]
        ],
        [
          "Villa de Los Barrios",
          [
            "/wiki/CB_Villa_de_Los_Barrios"
          ]
        ],
        [
          "34",
          []
        ],
        [
          "265",
          []
        ],
        [
          "7.79",
          []
        ]
      ],
      [
        [
          "5",
          []
        ],
        [
          "Brian Cusworth",
          [
            "/wiki/Brian_Cusworth"
          ]
        ],
        [
          "Leche R\u00edo Breog\u00e1n",
          [
            "/wiki/CB_Breog\u00e1n"
          ]
        ],
        [
          "28",
          []
        ],
        [
          "205",
          []
        ],
        [
          "7.32",
          []
        ]
      ]
    ],
    "section_title": "Stats Leaders -- Rebounds",
    "section_text": "",
    "uid": "2008\u201309_LEB_Oro_season_4",
    "intro": "The 2008-09 LEB season is the 13th season of the Liga Espa\u00f1ola de Baloncesto. The 612-game regular season (34 games for each of the 18 teams) began on Thursday, September 18, 2008, and will end on Friday, May 15, 2009. The champion of the regular season will be promoted to ACB. The teams between 2nd and 9th position will play a best of 3 games play off to see who plays the Final Four. Two bottom teams will be relegated to LEB Plata."
  },
  "1914\u201315_Yorkshire_Cup_5": {
    "url": "https://en.wikipedia.org/wiki/1914\u201315_Yorkshire_Cup",
    "title": "1914\u201315 Yorkshire Cup",
    "header": [
      [
        "Huddersfield",
        [
          "/wiki/Huddersfield_Giants"
        ]
      ],
      [
        "\u2116",
        []
      ],
      [
        "Hull",
        [
          "/wiki/Hull_F.C."
        ]
      ]
    ],
    "data": [
      [
        [
          "Major Holland",
          [
            "/wiki/Major_Holland"
          ]
        ],
        [
          "1",
          []
        ],
        [
          "E Rogers",
          []
        ]
      ],
      [
        [
          "George Todd",
          []
        ],
        [
          "2",
          []
        ],
        [
          "Alfred Francis",
          [
            "/wiki/Alfred_Francis"
          ]
        ]
      ],
      [
        [
          "Albert Rozzi Rosenfeld",
          [
            "/wiki/Albert_Rosenfeld"
          ]
        ],
        [
          "3",
          []
        ],
        [
          "Billy Batten",
          [
            "/wiki/Billy_Batten"
          ]
        ]
      ],
      [
        [
          "Harold Wagstaff ( c )",
          [
            "/wiki/Harold_Wagstaff",
            "/wiki/Captain_(sports)"
          ]
        ],
        [
          "4",
          []
        ],
        [
          "Jack Harrison ( VC )",
          [
            "/wiki/Jack_Harrison_(VC)"
          ]
        ]
      ],
      [
        [
          "Stan Moorhouse",
          [
            "/wiki/Stan_Moorhouse"
          ]
        ],
        [
          "5",
          []
        ],
        [
          "Jim Devereux",
          [
            "/wiki/Jim_Devereux"
          ]
        ]
      ],
      [
        [
          "Johnny Rogers",
          [
            "/wiki/Johnny_Rogers_(rugby)"
          ]
        ],
        [
          "6",
          []
        ],
        [
          "Sid Deane",
          [
            "/wiki/Sid_Deane"
          ]
        ]
      ],
      [
        [
          "Robert Habron",
          []
        ],
        [
          "7",
          []
        ],
        [
          "Thomas Tom Milner ( Tommy Milner ? )",
          [
            "/wiki/Tommy_Milner_(rugby_league)",
            "/wiki/Tommy_Milner_(rugby_league)"
          ]
        ]
      ],
      [
        [
          "John Higson",
          [
            "/wiki/John_Higson"
          ]
        ],
        [
          "8",
          []
        ],
        [
          "Tom Herridge",
          [
            "/wiki/Tom_Herridge"
          ]
        ]
      ],
      [
        [
          "Douglas Clark",
          [
            "/wiki/Douglas_Clark_(rugby_league)"
          ]
        ],
        [
          "9",
          []
        ],
        [
          "William Holder",
          [
            "/wiki/William_Holder_(rugby)"
          ]
        ]
      ],
      [
        [
          "Ben Gronow",
          [
            "/wiki/Ben_Gronow"
          ]
        ],
        [
          "10",
          []
        ],
        [
          "Joe Hammill",
          [
            "/wiki/Joe_Hammill"
          ]
        ]
      ],
      [
        [
          "Fred Longstaff",
          [
            "/wiki/Fred_Longstaff"
          ]
        ],
        [
          "11",
          []
        ],
        [
          "Steve Darmody",
          [
            "/wiki/Steve_Darmody"
          ]
        ]
      ],
      [
        [
          "H. Swinden ( Arthur Swinden ? )",
          []
        ],
        [
          "12",
          []
        ],
        [
          "Percy Oldham",
          []
        ]
      ],
      [
        [
          "H. Banks",
          []
        ],
        [
          "13",
          []
        ],
        [
          "Richard Dick Taylor",
          []
        ]
      ],
      [
        [
          "Arthur Bennett ( trainer )",
          []
        ],
        [
          "Coach",
          []
        ],
        [
          "Sid Melville ( trainer )",
          []
        ]
      ],
      [
        [
          "31",
          []
        ],
        [
          "score",
          []
        ],
        [
          "0",
          []
        ]
      ],
      [
        [
          "15",
          []
        ],
        [
          "HT",
          []
        ],
        [
          "0",
          []
        ]
      ],
      [
        [
          "Harold Wagstaff ( 2 )",
          []
        ],
        [
          "T",
          []
        ],
        [
          "",
          []
        ]
      ]
    ],
    "section_title": "Competition and Results -- Final",
    "section_text": "[ 6 ] [ 7 ]",
    "uid": "1914\u201315_Yorkshire_Cup_5",
    "intro": "The 1914-15 Yorkshire Cup was the tenth occasion on which the Yorkshire Cup competition, a Rugby league competition, was held. This year's competition was again the turn of the previous cup holder, Huddersfield, winning the trophy by beating Hull F.C. by the score of 31-0\nThe match was played at Headingley, Leeds, now in West Yorkshire. The attendance was 12,000 and receipts were \u00a3422\nThis was Huddersfield's fifth appearance of what would be seven appearances in eight consecutive finals between 1909 and 1919 (which included four successive victories and six in total.) It was also the second of the four consecutive wins."
  },
  "1943\u201344_Yorkshire_Cup_1": {
    "url": "https://en.wikipedia.org/wiki/1943\u201344_Yorkshire_Cup",
    "title": "1943\u201344 Yorkshire Cup",
    "header": [
      [
        "Game No",
        []
      ],
      [
        "Fixture Date",
        []
      ],
      [
        "Home Team",
        []
      ],
      [
        "Score",
        []
      ],
      [
        "Away Team",
        []
      ],
      [
        "Venue",
        []
      ],
      [
        "agg",
        []
      ]
    ],
    "data": [
      [
        [
          "1",
          []
        ],
        [
          "Sat 23 Oct 1943",
          []
        ],
        [
          "Oldham",
          [
            "/wiki/Oldham_R.L.F.C."
          ]
        ],
        [
          "11-10",
          []
        ],
        [
          "Barrow",
          [
            "/wiki/Barrow_Raiders"
          ]
        ],
        [
          "Watersheddings",
          [
            "/wiki/Watersheddings"
          ]
        ],
        [
          "19-25",
          []
        ]
      ],
      [
        [
          "2",
          []
        ],
        [
          "Sat 23 Oct 1943",
          []
        ],
        [
          "Featherstone Rovers",
          [
            "/wiki/Featherstone_Rovers"
          ]
        ],
        [
          "10-11",
          []
        ],
        [
          "Batley",
          [
            "/wiki/Batley_Bulldogs"
          ]
        ],
        [
          "Post Office Road",
          [
            "/wiki/Post_Office_Road"
          ]
        ],
        [
          "29-13",
          []
        ]
      ],
      [
        [
          "3",
          []
        ],
        [
          "Sat 23 Oct 1943",
          []
        ],
        [
          "Dewsbury",
          [
            "/wiki/Dewsbury_Rams"
          ]
        ],
        [
          "2-7",
          []
        ],
        [
          "Bradford Northern",
          [
            "/wiki/Bradford_Bulls"
          ]
        ],
        [
          "Crown Flatt",
          [
            "/wiki/Crown_Flatt"
          ]
        ],
        [
          "2-15",
          []
        ]
      ],
      [
        [
          "4",
          []
        ],
        [
          "Sat 23 Oct 1943",
          []
        ],
        [
          "Wakefield Trinity",
          [
            "/wiki/Wakefield_Trinity"
          ]
        ],
        [
          "9-9",
          []
        ],
        [
          "Halifax",
          [
            "/wiki/Halifax_R.L.F.C."
          ]
        ],
        [
          "Belle Vue",
          [
            "/wiki/Belle_Vue_(Wakefield)"
          ]
        ],
        [
          "19-31",
          []
        ]
      ],
      [
        [
          "5",
          []
        ],
        [
          "Sat 23 Oct 1943",
          []
        ],
        [
          "Huddersfield",
          [
            "/wiki/Huddersfield_Giants"
          ]
        ],
        [
          "20-2",
          []
        ],
        [
          "Hull",
          [
            "/wiki/Hull_F.C."
          ]
        ],
        [
          "Fartown",
          [
            "/wiki/Fartown_Ground"
          ]
        ],
        [
          "32-8",
          []
        ]
      ],
      [
        [
          "6",
          []
        ],
        [
          "Sat 23 Oct 1943",
          []
        ],
        [
          "Hunslet",
          [
            "/wiki/Hunslet_F.C._(1883)"
          ]
        ],
        [
          "8-13",
          []
        ],
        [
          "Leeds",
          [
            "/wiki/Leeds_Rhinos"
          ]
        ],
        [
          "Parkside",
          [
            "/wiki/Parkside,_Hunslet"
          ]
        ],
        [
          "13-31",
          []
        ]
      ],
      [
        [
          "7",
          []
        ],
        [
          "Sat 23 Oct 1943",
          []
        ],
        [
          "Wigan",
          [
            "/wiki/Wigan_Warriors"
          ]
        ],
        [
          "20-10",
          []
        ],
        [
          "St. Helens",
          [
            "/wiki/St_Helens_R.F.C."
          ]
        ],
        [
          "Central Park",
          [
            "/wiki/Central_Park_(Wigan)"
          ]
        ],
        [
          "34-19",
          []
        ]
      ],
      [
        [
          "8",
          []
        ],
        [
          "Sat 23 Oct 1943",
          []
        ],
        [
          "Keighley",
          [
            "/wiki/Keighley_Cougars"
          ]
        ],
        [
          "30-7",
          []
        ],
        [
          "York",
          [
            "/wiki/York_Wasps"
          ]
        ],
        [
          "Lawkholme Lane",
          [
            "/wiki/Cougar_Park"
          ]
        ],
        [
          "35-12",
          []
        ]
      ]
    ],
    "section_title": "Competition and Results -- Round 1 - Second Leg",
    "section_text": "Involved 8 matches ( with no byes ) and 16 Clubs All first round ties are played on a two-legged home and away basis",
    "uid": "1943\u201344_Yorkshire_Cup_1",
    "intro": "1943-44 Yorkshire Cup\nThe Yorkshire Cup competition was a knock-out competition between (mainly professional) rugby league clubs from the county of Yorkshire. The actual area was at times increased to encompass other teams from outside the county such as Newcastle, Mansfield, Coventry, and even London (in the form of Acton & Willesden. The competition always took place early in the season, in the Autumn, with the final taking place in (or just before) December (The only exception to this was when disruption of the fixture list was caused during, and immediately after, the two World Wars)\nThe Second World War was continuing and the Yorkshire Cup remained in the early part of the 1943-44 Northern Rugby Football League Wartime Emergency League season\n1943-44 was the thirty-sixth occasion on which the Yorkshire Cup competition had been held. Bradford Northern won the trophy by beating Keighley over two legs by an aggregate score of 10-7\nBradford Northern played the first leg match at home (at Odsal) and won 5-2. The attendance was 10,251 and receipts were \u00a3757. Keighley were at home (at Lawkholme Lane) for the second leg match and drew 5-5. The attendance at the second leg match was 8,993 and receipts \u00a3634."
  }
}