{
  "2015\u201316_Premier_League_2": {
    "url": "https://en.wikipedia.org/wiki/2015\u201316_Premier_League",
    "title": "2015\u201316 Premier League",
    "header": [
      [
        "Team",
        []
      ],
      [
        "Outgoing manager",
        []
      ],
      [
        "Manner of departure",
        []
      ],
      [
        "Date of vacancy",
        []
      ],
      [
        "Position in table",
        []
      ],
      [
        "Incoming manager",
        []
      ],
      [
        "Date of appointment",
        []
      ]
    ],
    "data": [
      [
        [
          "West Ham United",
          []
        ],
        [
          "Sam Allardyce",
          [
            "/wiki/Sam_Allardyce"
          ]
        ],
        [
          "End of contract",
          []
        ],
        [
          "24 May 2015",
          []
        ],
        [
          "Pre-season",
          []
        ],
        [
          "Slaven Bili\u0107",
          [
            "/wiki/Slaven_Bili\u0107"
          ]
        ],
        [
          "9 June 2015",
          []
        ]
      ],
      [
        [
          "Watford",
          []
        ],
        [
          "Slavi\u0161a Jokanovi\u0107",
          [
            "/wiki/Slavi\u0161a_Jokanovi\u0107"
          ]
        ],
        [
          "End of contract",
          []
        ],
        [
          "5 June 2015",
          []
        ],
        [
          "Pre-season",
          []
        ],
        [
          "Quique S\u00e1nchez Flores",
          [
            "/wiki/Quique_S\u00e1nchez_Flores"
          ]
        ],
        [
          "5 June 2015",
          []
        ]
      ],
      [
        [
          "Newcastle United",
          []
        ],
        [
          "John Carver",
          [
            "/wiki/John_Carver_(footballer)"
          ]
        ],
        [
          "Sacked",
          []
        ],
        [
          "9 June 2015",
          []
        ],
        [
          "Pre-season",
          []
        ],
        [
          "Steve McClaren",
          [
            "/wiki/Steve_McClaren"
          ]
        ],
        [
          "10 June 2015",
          []
        ]
      ],
      [
        [
          "Leicester City",
          []
        ],
        [
          "Nigel Pearson",
          [
            "/wiki/Nigel_Pearson"
          ]
        ],
        [
          "Sacked",
          []
        ],
        [
          "30 June 2015",
          []
        ],
        [
          "Pre-season",
          []
        ],
        [
          "Claudio Ranieri",
          [
            "/wiki/Claudio_Ranieri"
          ]
        ],
        [
          "13 July 2015",
          []
        ]
      ],
      [
        [
          "Sunderland",
          []
        ],
        [
          "Dick Advocaat",
          [
            "/wiki/Dick_Advocaat"
          ]
        ],
        [
          "Resigned",
          []
        ],
        [
          "4 October 2015",
          []
        ],
        [
          "19th",
          []
        ],
        [
          "Sam Allardyce",
          [
            "/wiki/Sam_Allardyce"
          ]
        ],
        [
          "9 October 2015",
          []
        ]
      ],
      [
        [
          "Liverpool",
          []
        ],
        [
          "Brendan Rodgers",
          [
            "/wiki/Brendan_Rodgers"
          ]
        ],
        [
          "Sacked",
          []
        ],
        [
          "4 October 2015",
          []
        ],
        [
          "10th",
          []
        ],
        [
          "J\u00fcrgen Klopp",
          [
            "/wiki/J\u00fcrgen_Klopp"
          ]
        ],
        [
          "8 October 2015",
          []
        ]
      ],
      [
        [
          "Aston Villa",
          []
        ],
        [
          "Tim Sherwood",
          [
            "/wiki/Tim_Sherwood"
          ]
        ],
        [
          "Sacked",
          []
        ],
        [
          "25 October 2015",
          []
        ],
        [
          "19th",
          []
        ],
        [
          "R\u00e9mi Garde",
          [
            "/wiki/R\u00e9mi_Garde"
          ]
        ],
        [
          "2 November 2015",
          []
        ]
      ],
      [
        [
          "Swansea City",
          []
        ],
        [
          "Garry Monk",
          [
            "/wiki/Garry_Monk"
          ]
        ],
        [
          "Sacked",
          []
        ],
        [
          "9 December 2015",
          []
        ],
        [
          "15th",
          []
        ],
        [
          "Alan Curtis",
          [
            "/wiki/Alan_Curtis_(footballer)"
          ]
        ],
        [
          "7 January 2016",
          []
        ]
      ],
      [
        [
          "Chelsea",
          []
        ],
        [
          "Jos\u00e9 Mourinho",
          [
            "/wiki/Jos\u00e9_Mourinho"
          ]
        ],
        [
          "Sacked",
          []
        ],
        [
          "17 December 2015",
          []
        ],
        [
          "16th",
          []
        ],
        [
          "Guus Hiddink",
          [
            "/wiki/Guus_Hiddink"
          ]
        ],
        [
          "19 December 2015",
          []
        ]
      ],
      [
        [
          "Swansea City",
          []
        ],
        [
          "Alan Curtis",
          [
            "/wiki/Alan_Curtis_(footballer)"
          ]
        ],
        [
          "End of caretaker spell",
          []
        ],
        [
          "18 January 2016",
          []
        ],
        [
          "18th",
          []
        ],
        [
          "Francesco Guidolin",
          [
            "/wiki/Francesco_Guidolin"
          ]
        ],
        [
          "18 January 2016",
          []
        ]
      ],
      [
        [
          "Newcastle United",
          []
        ],
        [
          "Steve McClaren",
          [
            "/wiki/Steve_McClaren"
          ]
        ],
        [
          "Sacked",
          []
        ],
        [
          "11 March 2016",
          []
        ],
        [
          "19th",
          []
        ],
        [
          "Rafael Ben\u00edtez",
          [
            "/wiki/Rafael_Ben\u00edtez"
          ]
        ],
        [
          "11 March 2016",
          []
        ]
      ],
      [
        [
          "Aston Villa",
          []
        ],
        [
          "R\u00e9mi Garde",
          [
            "/wiki/R\u00e9mi_Garde"
          ]
        ],
        [
          "Mutual consent",
          []
        ],
        [
          "29 March 2016",
          []
        ],
        [
          "20th",
          []
        ],
        [
          "Eric Black",
          [
            "/wiki/Eric_Black"
          ]
        ],
        [
          "29 March 2016",
          []
        ]
      ],
      [
        [
          "Everton",
          []
        ],
        [
          "Roberto Mart\u00ednez",
          [
            "/wiki/Roberto_Mart\u00ednez"
          ]
        ],
        [
          "Sacked",
          []
        ],
        [
          "12 May 2016",
          []
        ],
        [
          "12th",
          []
        ],
        [
          "David Unsworth Joe Royle ( caretakers )",
          [
            "/wiki/David_Unsworth",
            "/wiki/Joe_Royle"
          ]
        ],
        [
          "12 May 2016",
          []
        ]
      ]
    ],
    "section_title": "Teams -- Managerial changes",
    "section_text": "",
    "uid": "2015\u201316_Premier_League_2",
    "intro": "The 2015-16 Premier League (known as the Barclays Premier League for sponsorship reasons) was the 24th season of the Premier League, the top English professional league for association football clubs, since its establishment in 1992. The season began on 8 August 2015, and was scheduled to conclude on 15 May 2016. However, the Manchester United vs Bournemouth fixture was postponed to 17 May 2016 on the final day due to a suspicious package inside Old Trafford. Chelsea began the season as defending champions of the 2014-15 season. Bournemouth, Watford and Norwich City entered as the three promoted teams from the 2014-15 Football League Championship. Leicester City won the championship for the first time in their 132-year history, becoming the 24th club to become English football champions, and the sixth club to win the Premier League. Many commentators consider this to be one of the greatest sports shocks in history, especially considering that Leicester spent half of the previous season at the bottom of the table before finishing 14th."
  },
  "2011\u201312_UCI_Africa_Tour_1": {
    "url": "https://en.wikipedia.org/wiki/2011\u201312_UCI_Africa_Tour",
    "title": "2011\u201312 UCI Africa Tour",
    "header": [
      [
        "Date",
        []
      ],
      [
        "Race Name",
        []
      ],
      [
        "Location",
        []
      ],
      [
        "UCI Rating",
        [
          "/wiki/UCI_race_classifications"
        ]
      ],
      [
        "Winner",
        []
      ],
      [
        "Team",
        []
      ]
    ],
    "data": [
      [
        [
          "16 February",
          []
        ],
        [
          "GP Sakia El Hamra",
          [
            "/wiki/Les_Challenges_de_la_Marche_Verte"
          ]
        ],
        [
          "Morocco",
          [
            "/wiki/Morocco"
          ]
        ],
        [
          "1.2",
          []
        ],
        [
          "Tarik Chaoufi ( MAR )",
          [
            "/wiki/Tarik_Chaoufi"
          ]
        ],
        [
          "Morocco ( national team )",
          [
            "/wiki/Morocco"
          ]
        ]
      ],
      [
        [
          "17 February",
          []
        ],
        [
          "GP Oued Eddahab",
          [
            "/wiki/Les_Challenges_de_la_Marche_Verte"
          ]
        ],
        [
          "Morocco",
          [
            "/wiki/Morocco"
          ]
        ],
        [
          "1.2",
          []
        ],
        [
          "Andris Smirnovs ( LAT )",
          [
            "/wiki/Andris_Smirnovs"
          ]
        ],
        [
          "Rietumu-Delfin",
          [
            "/wiki/Rietumu_Banka\u2013Riga"
          ]
        ]
      ],
      [
        [
          "18 February",
          []
        ],
        [
          "GP Al Massira",
          [
            "/wiki/Les_Challenges_de_la_Marche_Verte"
          ]
        ],
        [
          "Morocco",
          [
            "/wiki/Morocco"
          ]
        ],
        [
          "1.2",
          []
        ],
        [
          "Ismail Ayoune ( MAR )",
          [
            "/wiki/Isma\u00efl_Ayoune"
          ]
        ],
        [
          "Morocco ( national team )",
          [
            "/wiki/Morocco"
          ]
        ]
      ],
      [
        [
          "8-17 March",
          []
        ],
        [
          "Tour du Cameroun",
          [
            "/wiki/Tour_du_Cameroun"
          ]
        ],
        [
          "Cameroon",
          [
            "/wiki/Cameroon"
          ]
        ],
        [
          "2.2",
          []
        ],
        [
          "Yves Ngu\u00e9 Ngock ( CMR )",
          [
            "/wiki/Yves_Ngue_Ngock"
          ]
        ],
        [
          "Cameroon ( national team )",
          [
            "/wiki/Cameroon"
          ]
        ]
      ],
      [
        [
          "10-14 March",
          []
        ],
        [
          "Tour d'Alg\u00e9rie",
          [
            "/wiki/Tour_d'Alg\u00e9rie"
          ]
        ],
        [
          "Algeria",
          [
            "/wiki/Algeria"
          ]
        ],
        [
          "2.2",
          []
        ],
        [
          "Natnael Berhane ( ERI )",
          [
            "/wiki/Natnael_Berhane"
          ]
        ],
        [
          "Eritrea ( national team )",
          [
            "/wiki/Eritrea"
          ]
        ]
      ],
      [
        [
          "16 March",
          []
        ],
        [
          "Circuit d'Alger",
          [
            "/wiki/Circuit_d'Alger"
          ]
        ],
        [
          "Algeria",
          [
            "/wiki/Algeria"
          ]
        ],
        [
          "1.2",
          []
        ],
        [
          "Ioannis Tamouridis ( GRE )",
          [
            "/wiki/Ioannis_Tamouridis"
          ]
        ],
        [
          "SP Tableware",
          [
            "/wiki/SP_Tableware"
          ]
        ]
      ],
      [
        [
          "23 March-1 April",
          []
        ],
        [
          "Tour du Maroc",
          [
            "/wiki/Tour_du_Maroc"
          ]
        ],
        [
          "Morocco",
          [
            "/wiki/Morocco"
          ]
        ],
        [
          "2.2",
          []
        ],
        [
          "Reinardt Janse van Rensburg ( RSA )",
          [
            "/wiki/Reinardt_Janse_van_Rensburg"
          ]
        ],
        [
          "MTN-Qhubeka",
          [
            "/wiki/NTT_Pro_Cycling"
          ]
        ]
      ],
      [
        [
          "3 April",
          []
        ],
        [
          "Challenge Khouribga",
          [
            "/wiki/Challenge_des_phosphates"
          ]
        ],
        [
          "Morocco",
          [
            "/wiki/Morocco"
          ]
        ],
        [
          "1.2",
          []
        ],
        [
          "Tarik Chaoufi ( MAR )",
          [
            "/wiki/Tarik_Chaoufi"
          ]
        ],
        [
          "Morocco ( national team )",
          [
            "/wiki/Morocco"
          ]
        ]
      ],
      [
        [
          "4 April",
          []
        ],
        [
          "Challenge Youssoufia",
          [
            "/wiki/Challenge_des_phosphates"
          ]
        ],
        [
          "Morocco",
          [
            "/wiki/Morocco"
          ]
        ],
        [
          "1.2",
          []
        ],
        [
          "Mouhssine Lahsaini ( MAR )",
          [
            "/wiki/Mouhssine_Lahsaini"
          ]
        ],
        [
          "Morocco ( national team )",
          [
            "/wiki/Morocco"
          ]
        ]
      ],
      [
        [
          "5 April",
          []
        ],
        [
          "Challenge Ben Guerir",
          [
            "/wiki/Challenge_des_phosphates"
          ]
        ],
        [
          "Morocco",
          [
            "/wiki/Morocco"
          ]
        ],
        [
          "1.2",
          []
        ],
        [
          "Abdellah Ben Youcef ( ALG )",
          [
            "/wiki/Abdellah_Benyoucef"
          ]
        ],
        [
          "Groupement Sportif Petrolier Alg\u00e9rie",
          [
            "/wiki/Groupement_Sportif_des_P\u00e9troliers"
          ]
        ]
      ],
      [
        [
          "24-29 April",
          []
        ],
        [
          "La Tropicale Amissa Bongo",
          [
            "/wiki/La_Tropicale_Amissa_Bongo"
          ]
        ],
        [
          "Gabon",
          [
            "/wiki/Gabon"
          ]
        ],
        [
          "2.1",
          []
        ],
        [
          "Anthony Charteau ( FRA )",
          [
            "/wiki/Anthony_Charteau"
          ]
        ],
        [
          "Team Europcar",
          [
            "/wiki/Total_Direct_\u00c9nergie_(cycling_team)"
          ]
        ]
      ],
      [
        [
          "7 May",
          []
        ],
        [
          "Troph\u00e9e Princier",
          [
            "/wiki/Challenge_du_Prince"
          ]
        ],
        [
          "Morocco",
          [
            "/wiki/Morocco"
          ]
        ],
        [
          "1.2",
          []
        ],
        [
          "Tarik Chaoufi ( MAR )",
          [
            "/wiki/Tarik_Chaoufi"
          ]
        ],
        [
          "Morocco ( national team )",
          [
            "/wiki/Morocco"
          ]
        ]
      ],
      [
        [
          "8 May",
          []
        ],
        [
          "Troph\u00e9e de l'Anniversaire",
          [
            "/wiki/Challenge_du_Prince"
          ]
        ],
        [
          "Morocco",
          [
            "/wiki/Morocco"
          ]
        ],
        [
          "1.2",
          []
        ],
        [
          "Reda Aadel ( MAR )",
          [
            "/wiki/Reda_Aadel"
          ]
        ],
        [
          "Morocco ( national team )",
          [
            "/wiki/Morocco"
          ]
        ]
      ],
      [
        [
          "9 May",
          []
        ],
        [
          "Troph\u00e9e de la Maison Royale",
          [
            "/wiki/Challenge_du_Prince"
          ]
        ],
        [
          "Morocco",
          [
            "/wiki/Morocco"
          ]
        ],
        [
          "1.2",
          []
        ],
        [
          "Abdelatif Saadoune ( MAR )",
          [
            "/wiki/Abdelatif_Saadoune"
          ]
        ],
        [
          "Morocco ( national team )",
          [
            "/wiki/Morocco"
          ]
        ]
      ],
      [
        [
          "30 May-3 June",
          []
        ],
        [
          "Tour of Eritrea",
          [
            "/wiki/Tour_of_Eritrea"
          ]
        ],
        [
          "Eritrea",
          [
            "/wiki/Eritrea"
          ]
        ],
        [
          "2.2",
          []
        ],
        [
          "Jacques Janse van Rensburg ( RSA )",
          [
            "/wiki/Jacques_Janse_van_Rensburg"
          ]
        ],
        [
          "MTN-Qhubeka",
          [
            "/wiki/NTT_Pro_Cycling"
          ]
        ]
      ],
      [
        [
          "10-11 June",
          []
        ],
        [
          "Kwita Izina Cycling Tour",
          [
            "/wiki/Kwita_Izina_Cycling_Tour"
          ]
        ],
        [
          "Rwanda",
          [
            "/wiki/Rwanda"
          ]
        ],
        [
          "2.2",
          []
        ],
        [
          "Abraham Ruhumuriza ( RWA )",
          [
            "/wiki/Abraham_Ruhumuriza"
          ]
        ],
        [
          "Rwanda ( national team )",
          [
            "/wiki/Rwanda"
          ]
        ]
      ]
    ],
    "section_title": "Events -- 2012",
    "section_text": "",
    "uid": "2011\u201312_UCI_Africa_Tour_1",
    "intro": "The 2011-12 UCI Africa Tour was the eighth season of the UCI Africa Tour. The season began on 29 September 2011 with the Grand Prix Chantal Biya and ended on 11 June 2012 with the Kwita Izina Cycling Tour. The points leader, based on the cumulative results of previous races, wears the UCI Africa Tour cycling jersey. Adil Jelloul of Morocco was the defending champion of the 2010-11 UCI Africa Tour. Tarik Chaoufi of Morocco was crowned as the 2011-12 UCI Africa Tour champion. Throughout the season, points are awarded to the top finishers of stages within stage races and the final general classification standings of each of the stages races and one-day events. The quality and complexity of a race also determines how many points are awarded to the top finishers, the higher the UCI rating of a race, the more points are awarded. The UCI ratings from highest to lowest are as follows:"
  },
  "1999\u20132000_Primeira_Liga_4": {
    "url": "https://en.wikipedia.org/wiki/1999\u20132000_Primeira_Liga",
    "title": "1999\u20132000 Primeira Liga",
    "header": [
      [
        "Rank",
        []
      ],
      [
        "Player",
        []
      ],
      [
        "Club",
        []
      ],
      [
        "Goals",
        []
      ]
    ],
    "data": [
      [
        [
          "1",
          []
        ],
        [
          "M\u00e1rio Jardel",
          [
            "/wiki/M\u00e1rio_Jardel"
          ]
        ],
        [
          "Porto",
          []
        ],
        [
          "38",
          []
        ]
      ],
      [
        [
          "2",
          []
        ],
        [
          "Alberto Acosta",
          [
            "/wiki/Alberto_Acosta"
          ]
        ],
        [
          "Sporting CP",
          []
        ],
        [
          "22",
          []
        ]
      ],
      [
        [
          "3",
          []
        ],
        [
          "Ga\u00facho",
          [
            "/wiki/Eric_Freire_Gomes"
          ]
        ],
        [
          "Estrela da Amadora",
          []
        ],
        [
          "21",
          []
        ]
      ],
      [
        [
          "4",
          []
        ],
        [
          "Nuno Gomes",
          [
            "/wiki/Nuno_Gomes"
          ]
        ],
        [
          "Benfica",
          []
        ],
        [
          "18",
          []
        ]
      ],
      [
        [
          "5",
          []
        ],
        [
          "Brand\u00e3o",
          [
            "/wiki/Idebrando_Dalsoto"
          ]
        ],
        [
          "Vit\u00f3ria de Guimar\u00e3es",
          []
        ],
        [
          "16",
          []
        ]
      ],
      [
        [
          "6",
          []
        ],
        [
          "Mariano Toedtli",
          [
            "/wiki/Mariano_Toedtli"
          ]
        ],
        [
          "Mar\u00edtimo",
          []
        ],
        [
          "13",
          []
        ]
      ],
      [
        [
          "7",
          []
        ],
        [
          "Hugo Henrique",
          [
            "/wiki/Hugo_Henrique_Arantes_Castro_da_Silva"
          ]
        ],
        [
          "Rio Ave",
          []
        ],
        [
          "12",
          []
        ]
      ],
      [
        [
          "8",
          []
        ],
        [
          "Lucian Marinescu",
          [
            "/wiki/Lucian_Marinescu"
          ]
        ],
        [
          "Farense",
          []
        ],
        [
          "11",
          []
        ]
      ],
      [
        [
          "8",
          []
        ],
        [
          "Whelliton",
          [
            "/wiki/Whelliton"
          ]
        ],
        [
          "Boavista",
          []
        ],
        [
          "11",
          []
        ]
      ],
      [
        [
          "10",
          []
        ],
        [
          "Edmilson",
          [
            "/wiki/Edmilson_Dias_de_Lucena"
          ]
        ],
        [
          "Vit\u00f3ria de Guimar\u00e3es",
          []
        ],
        [
          "10",
          []
        ]
      ],
      [
        [
          "10",
          []
        ],
        [
          "Maniche",
          [
            "/wiki/Maniche"
          ]
        ],
        [
          "Benfica",
          []
        ],
        [
          "10",
          []
        ]
      ],
      [
        [
          "10",
          []
        ],
        [
          "Odair",
          [
            "/wiki/Odair"
          ]
        ],
        [
          "Braga",
          []
        ],
        [
          "10",
          []
        ]
      ]
    ],
    "section_title": "Top goalscorers",
    "section_text": "",
    "uid": "1999\u20132000_Primeira_Liga_4",
    "intro": "The 1999-2000 Primeira Liga was the 66th season of top-tier football in Portugal. The competition was renamed Campeonato Nacional da Primeira Liga (National Championship of the First League), Primeira Liga for short, after the Portuguese League for Professional Football took control of the two top nationwide leagues in 1999. It started on 20 August 1999 and ended on 14 May 2000. The league was contested by 18 clubs with Porto as the defending champions. Sporting won their first Championship in 18 years (since 1981-82) and qualified for the 2000-01 UEFA Champions League first group stage, along with Porto, who qualified for the third\nqualifying round. Benfica, Boavista, qualified for the UEFA Cup; in opposite, Vit\u00f3ria de Set\u00fabal, Rio Ave and Santa Clara were relegated to the Segunda Liga. M\u00e1rio Jardel was the top scorer with 38 goals."
  },
  "1919\u201320_Lancashire_Cup_0": {
    "url": "https://en.wikipedia.org/wiki/1919\u201320_Lancashire_Cup",
    "title": "1919\u201320 Lancashire Cup",
    "header": [
      [
        "Game No",
        []
      ],
      [
        "Fixture Date",
        []
      ],
      [
        "Home Team",
        []
      ],
      [
        "Score",
        []
      ],
      [
        "Away Team",
        []
      ],
      [
        "Venue",
        []
      ]
    ],
    "data": [
      [
        [
          "1",
          []
        ],
        [
          "Sat 18-10-1919",
          []
        ],
        [
          "Leigh",
          [
            "/wiki/Leigh_Centurions"
          ]
        ],
        [
          "0-11",
          []
        ],
        [
          "Rochdale Hornets",
          [
            "/wiki/Rochdale_Hornets"
          ]
        ],
        [
          "Mather Lane",
          [
            "/wiki/Hilton_Park_(stadium)"
          ]
        ]
      ],
      [
        [
          "2",
          []
        ],
        [
          "Sat 18-10-1919",
          []
        ],
        [
          "Salford",
          [
            "/wiki/Salford_Red_Devils"
          ]
        ],
        [
          "0-15",
          []
        ],
        [
          "Barrow",
          [
            "/wiki/Barrow_Raiders"
          ]
        ],
        [
          "The Willows",
          [
            "/wiki/The_Willows,_Salford"
          ]
        ]
      ],
      [
        [
          "3",
          []
        ],
        [
          "Sat 18-10-1919",
          []
        ],
        [
          "Swinton",
          [
            "/wiki/Swinton_Lions"
          ]
        ],
        [
          "5-4",
          []
        ],
        [
          "Warrington",
          [
            "/wiki/Warrington_Wolves"
          ]
        ],
        [
          "Chorley Road ground",
          []
        ]
      ],
      [
        [
          "4",
          []
        ],
        [
          "Sat 18-10-1919",
          []
        ],
        [
          "Widnes",
          [
            "/wiki/Widnes_Vikings"
          ]
        ],
        [
          "16-8",
          []
        ],
        [
          "St. Helens",
          [
            "/wiki/St_Helens_R.F.C."
          ]
        ],
        [
          "Lowerhouse Lane",
          [
            "/wiki/Halton_Stadium"
          ]
        ]
      ],
      [
        [
          "5",
          []
        ],
        [
          "",
          []
        ],
        [
          "Broughton Rangers",
          [
            "/wiki/Broughton_Rangers"
          ]
        ],
        [
          "",
          []
        ],
        [
          "bye",
          []
        ],
        [
          "",
          []
        ]
      ],
      [
        [
          "6",
          []
        ],
        [
          "",
          []
        ],
        [
          "Oldham",
          [
            "/wiki/Oldham_R.L.F.C."
          ]
        ],
        [
          "",
          []
        ],
        [
          "bye",
          []
        ],
        [
          "",
          []
        ]
      ],
      [
        [
          "7",
          []
        ],
        [
          "",
          []
        ],
        [
          "Wigan",
          [
            "/wiki/Wigan_Warriors"
          ]
        ],
        [
          "",
          []
        ],
        [
          "bye",
          []
        ],
        [
          "",
          []
        ]
      ],
      [
        [
          "8",
          []
        ],
        [
          "",
          []
        ],
        [
          "St Helens Recs",
          [
            "/wiki/St_Helens_Recreation_RLFC"
          ]
        ],
        [
          "",
          []
        ],
        [
          "bye",
          []
        ],
        [
          "",
          []
        ]
      ]
    ],
    "section_title": "Competition and results -- Round 1",
    "section_text": "Involved 4 matches ( with four byes ) and 12 Clubs",
    "uid": "1919\u201320_Lancashire_Cup_0",
    "intro": "The 1919-20 Lancashire Cup was the twelfth competition for this regional rugby league competition. The final was contested between the same finalists as the Spring tournament, but the result was reversed as Oldham beat Rochdale Hornets at The Willows, Salford by a score of 7-0. The attendance at the final was 19,000 and receipts \u00a31,615."
  },
  "2016\u201317_Premier_League_0": {
    "url": "https://en.wikipedia.org/wiki/2016\u201317_Premier_League",
    "title": "2016\u201317 Premier League",
    "header": [
      [
        "Team",
        []
      ],
      [
        "Location and County",
        []
      ],
      [
        "Stadium",
        []
      ],
      [
        "Capacity",
        []
      ]
    ],
    "data": [
      [
        [
          "Arsenal",
          [
            "/wiki/Arsenal_F.C."
          ]
        ],
        [
          "London ( Holloway )",
          [
            "/wiki/London",
            "/wiki/Holloway,_London"
          ]
        ],
        [
          "Emirates Stadium",
          [
            "/wiki/Emirates_Stadium"
          ]
        ],
        [
          "60,432",
          []
        ]
      ],
      [
        [
          "Bournemouth",
          [
            "/wiki/A.F.C._Bournemouth"
          ]
        ],
        [
          "Bournemouth",
          [
            "/wiki/Bournemouth"
          ]
        ],
        [
          "Dean Court",
          [
            "/wiki/Dean_Court"
          ]
        ],
        [
          "11,464",
          []
        ]
      ],
      [
        [
          "Burnley",
          [
            "/wiki/Burnley_F.C."
          ]
        ],
        [
          "Burnley",
          [
            "/wiki/Burnley"
          ]
        ],
        [
          "Turf Moor",
          [
            "/wiki/Turf_Moor"
          ]
        ],
        [
          "22,546",
          []
        ]
      ],
      [
        [
          "Chelsea",
          [
            "/wiki/Chelsea_F.C."
          ]
        ],
        [
          "London ( Fulham )",
          [
            "/wiki/London",
            "/wiki/Fulham"
          ]
        ],
        [
          "Stamford Bridge",
          [
            "/wiki/Stamford_Bridge_(stadium)"
          ]
        ],
        [
          "41,623",
          []
        ]
      ],
      [
        [
          "Crystal Palace",
          [
            "/wiki/Crystal_Palace_F.C."
          ]
        ],
        [
          "London ( Selhurst )",
          [
            "/wiki/London",
            "/wiki/Selhurst"
          ]
        ],
        [
          "Selhurst Park",
          [
            "/wiki/Selhurst_Park"
          ]
        ],
        [
          "26,309",
          []
        ]
      ],
      [
        [
          "Everton",
          [
            "/wiki/Everton_F.C."
          ]
        ],
        [
          "Liverpool ( Walton )",
          [
            "/wiki/Liverpool",
            "/wiki/Walton,_Liverpool"
          ]
        ],
        [
          "Goodison Park",
          [
            "/wiki/Goodison_Park"
          ]
        ],
        [
          "39,572",
          []
        ]
      ],
      [
        [
          "Hull City",
          [
            "/wiki/Hull_City_A.F.C."
          ]
        ],
        [
          "Kingston upon Hull",
          [
            "/wiki/Kingston_upon_Hull"
          ]
        ],
        [
          "KCOM Stadium",
          [
            "/wiki/KCOM_Stadium"
          ]
        ],
        [
          "25,404",
          []
        ]
      ],
      [
        [
          "Leicester City",
          [
            "/wiki/Leicester_City_F.C."
          ]
        ],
        [
          "Leicester",
          [
            "/wiki/Leicester"
          ]
        ],
        [
          "King Power Stadium",
          [
            "/wiki/King_Power_Stadium"
          ]
        ],
        [
          "32,500",
          []
        ]
      ],
      [
        [
          "Liverpool",
          [
            "/wiki/Liverpool_F.C."
          ]
        ],
        [
          "Liverpool ( Anfield )",
          [
            "/wiki/Liverpool",
            "/wiki/Anfield_(suburb)"
          ]
        ],
        [
          "Anfield",
          [
            "/wiki/Anfield"
          ]
        ],
        [
          "54,074",
          []
        ]
      ],
      [
        [
          "Manchester City",
          [
            "/wiki/Manchester_City_F.C."
          ]
        ],
        [
          "Manchester",
          [
            "/wiki/Manchester"
          ]
        ],
        [
          "City of Manchester Stadium",
          [
            "/wiki/City_of_Manchester_Stadium"
          ]
        ],
        [
          "55,097",
          []
        ]
      ],
      [
        [
          "Manchester United",
          [
            "/wiki/Manchester_United_F.C."
          ]
        ],
        [
          "Old Trafford",
          [
            "/wiki/Old_Trafford_(area)"
          ]
        ],
        [
          "Old Trafford",
          [
            "/wiki/Old_Trafford"
          ]
        ],
        [
          "76,100",
          []
        ]
      ],
      [
        [
          "Middlesbrough",
          [
            "/wiki/Middlesbrough_F.C."
          ]
        ],
        [
          "Middlesbrough",
          [
            "/wiki/Middlesbrough"
          ]
        ],
        [
          "Riverside Stadium",
          [
            "/wiki/Riverside_Stadium"
          ]
        ],
        [
          "35,100",
          []
        ]
      ],
      [
        [
          "Southampton",
          [
            "/wiki/Southampton_F.C."
          ]
        ],
        [
          "Southampton",
          [
            "/wiki/Southampton"
          ]
        ],
        [
          "St Mary 's Stadium",
          [
            "/wiki/St_Mary's_Stadium"
          ]
        ],
        [
          "32,689",
          []
        ]
      ],
      [
        [
          "Stoke City",
          [
            "/wiki/Stoke_City_F.C."
          ]
        ],
        [
          "Stoke-on-Trent",
          [
            "/wiki/Stoke-on-Trent"
          ]
        ],
        [
          "Bet365 Stadium",
          [
            "/wiki/Bet365_Stadium"
          ]
        ],
        [
          "28,383",
          []
        ]
      ],
      [
        [
          "Sunderland",
          [
            "/wiki/Sunderland_A.F.C."
          ]
        ],
        [
          "Sunderland",
          [
            "/wiki/Sunderland"
          ]
        ],
        [
          "Stadium of Light",
          [
            "/wiki/Stadium_of_Light"
          ]
        ],
        [
          "49,000",
          []
        ]
      ],
      [
        [
          "Swansea City",
          [
            "/wiki/Swansea_City_A.F.C."
          ]
        ],
        [
          "Swansea",
          [
            "/wiki/Swansea"
          ]
        ],
        [
          "Liberty Stadium",
          [
            "/wiki/Liberty_Stadium"
          ]
        ],
        [
          "20,972",
          []
        ]
      ],
      [
        [
          "Tottenham Hotspur",
          [
            "/wiki/Tottenham_Hotspur_F.C."
          ]
        ],
        [
          "London ( Tottenham )",
          [
            "/wiki/London",
            "/wiki/Tottenham"
          ]
        ],
        [
          "White Hart Lane",
          [
            "/wiki/White_Hart_Lane"
          ]
        ],
        [
          "32,000",
          []
        ]
      ],
      [
        [
          "Watford",
          [
            "/wiki/Watford_F.C."
          ]
        ],
        [
          "Watford",
          [
            "/wiki/Watford"
          ]
        ],
        [
          "Vicarage Road",
          [
            "/wiki/Vicarage_Road"
          ]
        ],
        [
          "21,977",
          []
        ]
      ],
      [
        [
          "West Bromwich Albion",
          [
            "/wiki/West_Bromwich_Albion_F.C."
          ]
        ],
        [
          "West Bromwich",
          [
            "/wiki/West_Bromwich"
          ]
        ],
        [
          "The Hawthorns",
          [
            "/wiki/The_Hawthorns"
          ]
        ],
        [
          "26,500",
          []
        ]
      ],
      [
        [
          "West Ham United",
          [
            "/wiki/West_Ham_United_F.C."
          ]
        ],
        [
          "London ( Stratford )",
          [
            "/wiki/London",
            "/wiki/Stratford,_London"
          ]
        ],
        [
          "London Stadium",
          [
            "/wiki/London_Stadium"
          ]
        ],
        [
          "57,000",
          []
        ]
      ]
    ],
    "section_title": "Teams -- Stadiums and locations",
    "section_text": "LondonBournemouthBurnleyEvertonHull CityLeicester CityLiverpoolManchester CityManchester UnitedMiddlesbroughSouthamptonStoke CitySunderlandSwansea CityWatfordWest Bromwich AlbionLondon teams : ArsenalChelseaCrystal PalaceTottenham HotspurWest Ham United Locations of the 2016\u201317 Premier League teams ArsenalChelseaCrystal PalaceTottenhamHotspurWest Ham United Greater London Premier League football clubs",
    "uid": "2016\u201317_Premier_League_0",
    "intro": "The 2016-17 Premier League was the 25th season of the Premier League, the top English professional league for association football clubs, since its establishment in 1992. The season began on 13 August 2016 and concluded on 21 May 2017. Fixtures for the 2016-17 season were announced on 15 June 2016. Chelsea won their fifth Premier League title, and sixth English title, with two matches to spare following a 1-0 away win over West Bromwich Albion on 12 May. The defending champions were Leicester City, who finished 12th, thereby setting a new record for the worst Premier League title defence; the record had previously been held by Chelsea, who had finished 10th in 2015-16 after winning the title in 2014-15. Burnley, Middlesbrough and Hull City entered as the three promoted teams from the 2015-16 Football League Championship."
  },
  "Oberliga_West_(1947\u201363)_1": {
    "url": "https://en.wikipedia.org/wiki/Oberliga_West_(1947\u201363)",
    "title": "Oberliga West (1947\u201363)",
    "header": [
      [
        "Season",
        []
      ],
      [
        "Winner",
        []
      ],
      [
        "Runner-Up",
        []
      ]
    ],
    "data": [
      [
        [
          "1947-48",
          [
            "/wiki/1947\u201348_Oberliga"
          ]
        ],
        [
          "Borussia Dortmund",
          [
            "/wiki/Borussia_Dortmund"
          ]
        ],
        [
          "Sportfreunde Katernberg",
          [
            "/wiki/Sportfreunde_Katernberg"
          ]
        ]
      ],
      [
        [
          "1948-49",
          [
            "/wiki/1948\u201349_Oberliga"
          ]
        ],
        [
          "Borussia Dortmund",
          []
        ],
        [
          "Rot-Wei\u00df Essen",
          [
            "/wiki/Rot-Weiss_Essen"
          ]
        ]
      ],
      [
        [
          "1949-50",
          [
            "/wiki/1949\u201350_Oberliga"
          ]
        ],
        [
          "Borussia Dortmund",
          []
        ],
        [
          "Preu\u00dfen Dellbr\u00fcck",
          [
            "/wiki/FC_Viktoria_K\u00f6ln"
          ]
        ]
      ],
      [
        [
          "1950-51",
          [
            "/wiki/1950\u201351_Oberliga"
          ]
        ],
        [
          "FC Schalke 04",
          [
            "/wiki/FC_Schalke_04"
          ]
        ],
        [
          "SC Preu\u00dfen M\u00fcnster",
          [
            "/wiki/SC_Preu\u00dfen_M\u00fcnster"
          ]
        ]
      ],
      [
        [
          "1951-52",
          [
            "/wiki/1951\u201352_Oberliga"
          ]
        ],
        [
          "Rot-Wei\u00df Essen",
          []
        ],
        [
          "FC Schalke 04",
          []
        ]
      ],
      [
        [
          "1952-53",
          [
            "/wiki/1952\u201353_Oberliga"
          ]
        ],
        [
          "Borussia Dortmund",
          []
        ],
        [
          "1 . FC K\u00f6ln",
          [
            "/wiki/1._FC_K\u00f6ln"
          ]
        ]
      ],
      [
        [
          "1953-54",
          [
            "/wiki/1953\u201354_Oberliga"
          ]
        ],
        [
          "1 . FC K\u00f6ln",
          []
        ],
        [
          "Rot-Wei\u00df Essen",
          []
        ]
      ],
      [
        [
          "1954-55",
          [
            "/wiki/1954\u201355_Oberliga"
          ]
        ],
        [
          "Rot-Wei\u00df Essen",
          []
        ],
        [
          "SV Sodingen",
          [
            "/wiki/SV_Sodingen"
          ]
        ]
      ],
      [
        [
          "1955-56",
          [
            "/wiki/1955\u201356_Oberliga"
          ]
        ],
        [
          "Borussia Dortmund",
          []
        ],
        [
          "FC Schalke 04",
          []
        ]
      ],
      [
        [
          "1956-57",
          [
            "/wiki/1956\u201357_Oberliga"
          ]
        ],
        [
          "Borussia Dortmund",
          []
        ],
        [
          "Duisburger SV",
          [
            "/wiki/Eintracht_Duisburg_1848"
          ]
        ]
      ],
      [
        [
          "1957-58",
          [
            "/wiki/1957\u201358_Oberliga"
          ]
        ],
        [
          "FC Schalke 04",
          []
        ],
        [
          "1 . FC K\u00f6ln",
          []
        ]
      ],
      [
        [
          "1958-59",
          [
            "/wiki/1958\u201359_Oberliga"
          ]
        ],
        [
          "Westfalia Herne",
          [
            "/wiki/SC_Westfalia_Herne"
          ]
        ],
        [
          "1 . FC K\u00f6ln",
          []
        ]
      ],
      [
        [
          "1959-60",
          [
            "/wiki/1959\u201360_Oberliga"
          ]
        ],
        [
          "1 . FC K\u00f6ln",
          []
        ],
        [
          "Westfalia Herne",
          []
        ]
      ],
      [
        [
          "1960-61",
          [
            "/wiki/1960\u201361_Oberliga"
          ]
        ],
        [
          "1 . FC K\u00f6ln",
          []
        ],
        [
          "Borussia Dortmund",
          []
        ]
      ],
      [
        [
          "1961-62",
          [
            "/wiki/1961\u201362_Oberliga"
          ]
        ],
        [
          "1 . FC K\u00f6ln",
          []
        ],
        [
          "FC Schalke 04",
          []
        ]
      ],
      [
        [
          "1962-63",
          [
            "/wiki/1962\u201363_Oberliga"
          ]
        ],
        [
          "1 . FC K\u00f6ln",
          []
        ],
        [
          "Borussia Dortmund",
          []
        ]
      ]
    ],
    "section_title": "Honours",
    "section_text": "The winners and runners-up of the Oberliga West : [ 3 ]",
    "uid": "Oberliga_West_(1947\u201363)_1",
    "intro": "The Oberliga West () was the highest level of the German football league system in the west of Germany from 1947 until the formation of the Bundesliga in 1963. It covered the state of North Rhine-Westphalia, the most populous state of Germany."
  },
  "2017\u201318_Serie_A2_Basket_1": {
    "url": "https://en.wikipedia.org/wiki/2017\u201318_Serie_A2_Basket",
    "title": "2017\u201318 Serie A2 Basket",
    "header": [
      [
        "Team",
        []
      ],
      [
        "Home city",
        []
      ],
      [
        "Arena",
        []
      ],
      [
        "Capacity",
        []
      ]
    ],
    "data": [
      [
        [
          "Benacquista Latina",
          []
        ],
        [
          "Latina",
          [
            "/wiki/Latina,_Lazio"
          ]
        ],
        [
          "PalaBianchini",
          []
        ],
        [
          "2,500",
          []
        ]
      ],
      [
        [
          "Bertram Tortona",
          [
            "/wiki/Tortona"
          ]
        ],
        [
          "Tortona",
          [
            "/wiki/Tortona"
          ]
        ],
        [
          "PalaOltrep\u00f2",
          []
        ],
        [
          "1,500",
          []
        ]
      ],
      [
        [
          "Cuore Basket Napoli",
          [
            "/wiki/S.S._Basket_Napoli"
          ]
        ],
        [
          "Naples",
          [
            "/wiki/Naples"
          ]
        ],
        [
          "PalaBarbuto",
          [
            "/wiki/PalaBarbuto"
          ]
        ],
        [
          "5,500",
          []
        ]
      ],
      [
        [
          "Eurotrend Biella",
          [
            "/wiki/Pallacanestro_Biella"
          ]
        ],
        [
          "Biella",
          [
            "/wiki/Biella"
          ]
        ],
        [
          "BiellaForum",
          [
            "/wiki/BiellaForum"
          ]
        ],
        [
          "5,707",
          []
        ]
      ],
      [
        [
          "FCL Contract Legnano",
          [
            "/wiki/Legnano_Knights"
          ]
        ],
        [
          "Legnano",
          [
            "/wiki/Legnano"
          ]
        ],
        [
          "Knights Palace",
          []
        ],
        [
          "1,650",
          []
        ]
      ],
      [
        [
          "Givova Scafati",
          [
            "/wiki/Scafati_Basket"
          ]
        ],
        [
          "Scafati",
          [
            "/wiki/Scafati"
          ]
        ],
        [
          "PalaMagnano",
          []
        ],
        [
          "3,700",
          []
        ]
      ],
      [
        [
          "Leonis Roma",
          [
            "/wiki/Rome"
          ]
        ],
        [
          "Rome",
          [
            "/wiki/Rome"
          ]
        ],
        [
          "Palazzetto dello Sport",
          [
            "/wiki/Palazzetto_dello_Sport"
          ]
        ],
        [
          "3,500",
          []
        ]
      ],
      [
        [
          "Lighthouse Trapani",
          [
            "/wiki/Pallacanestro_Trapani"
          ]
        ],
        [
          "Trapani",
          [
            "/wiki/Trapani"
          ]
        ],
        [
          "Palaillio",
          []
        ],
        [
          "4,575",
          []
        ]
      ],
      [
        [
          "Metextra Reggio Calabria",
          [
            "/wiki/Viola_Reggio_Calabria"
          ]
        ],
        [
          "Reggio Calabria",
          [
            "/wiki/Reggio_Calabria"
          ]
        ],
        [
          "PalaCalafiore",
          []
        ],
        [
          "8,500",
          []
        ]
      ],
      [
        [
          "Moncada Agrigento",
          [
            "/wiki/Fortitudo_Agrigento"
          ]
        ],
        [
          "Agrigento",
          [
            "/wiki/Agrigento"
          ]
        ],
        [
          "PalaMoncada",
          []
        ],
        [
          "3,200",
          []
        ]
      ],
      [
        [
          "Novipi\u00f9 Casale M",
          [
            "/wiki/A.S._Junior_Pallacanestro_Casale"
          ]
        ],
        [
          "Casale M",
          [
            "/wiki/Casale_Monferrato"
          ]
        ],
        [
          "PalaFerraris",
          []
        ],
        [
          "3,508",
          []
        ]
      ],
      [
        [
          "NPC Rieti",
          [
            "/wiki/Nuova_AMG_Sebastiani_Basket_Rieti"
          ]
        ],
        [
          "Rieti",
          [
            "/wiki/Rieti"
          ]
        ],
        [
          "PalaSojourner",
          [
            "/wiki/PalaSojourner"
          ]
        ],
        [
          "3,550",
          []
        ]
      ],
      [
        [
          "Pasta Cellino Cagliari",
          [
            "/wiki/Olimpia_Cagliari"
          ]
        ],
        [
          "Cagliari",
          [
            "/wiki/Cagliari"
          ]
        ],
        [
          "PalaPirastu",
          []
        ],
        [
          "2,266",
          []
        ]
      ],
      [
        [
          "Remer Treviglio",
          [
            "/wiki/Blu_Basket_1971"
          ]
        ],
        [
          "Treviglio",
          [
            "/wiki/Treviglio"
          ]
        ],
        [
          "PalaFacchetti",
          []
        ],
        [
          "2,880",
          []
        ]
      ],
      [
        [
          "Soundreef Siena",
          [
            "/wiki/Mens_Sana_1871_Basket"
          ]
        ],
        [
          "Siena",
          [
            "/wiki/Siena"
          ]
        ],
        [
          "Palasport Mens Sana",
          [
            "/wiki/Palasport_Mens_Sana"
          ]
        ],
        [
          "7,050",
          []
        ]
      ],
      [
        [
          "Virtus Roma",
          [
            "/wiki/Virtus_Roma"
          ]
        ],
        [
          "Rome",
          [
            "/wiki/Rome"
          ]
        ],
        [
          "Palazzetto dello Sport",
          [
            "/wiki/Palazzetto_dello_Sport"
          ]
        ],
        [
          "3,500",
          []
        ]
      ]
    ],
    "section_title": "",
    "section_text": "",
    "uid": "2017\u201318_Serie_A2_Basket_1",
    "intro": "The 2017-18 Serie A2 season, known for sponsorship reasons as the Serie A2 Old Wild West, is the 44th season of the Italian basketball second league Serie A2 Basket. The season started on September 29, 2017, and will end in June 2018 with the last game of the promotion playoffs finals."
  },
  "2010\u201311_UCI_Africa_Tour_3": {
    "url": "https://en.wikipedia.org/wiki/2010\u201311_UCI_Africa_Tour",
    "title": "2010\u201311 UCI Africa Tour",
    "header": [
      [
        "Rank",
        []
      ],
      [
        "Team",
        []
      ],
      [
        "Points",
        []
      ]
    ],
    "data": [
      [
        [
          "1",
          []
        ],
        [
          "Groupement Sportif Petrolier Alg\u00e9rie",
          [
            "/wiki/Groupement_Sportif_des_P\u00e9troliers"
          ]
        ],
        [
          "463.66",
          []
        ]
      ],
      [
        [
          "2",
          []
        ],
        [
          "Team Europcar",
          [
            "/wiki/Total_Direct_\u00c9nergie_(cycling_team)"
          ]
        ],
        [
          "197",
          []
        ]
      ],
      [
        [
          "3",
          []
        ],
        [
          "Team Bonitas",
          []
        ],
        [
          "188.34",
          []
        ]
      ],
      [
        [
          "4",
          []
        ],
        [
          "MTN-Qhubeka",
          [
            "/wiki/NTT_Pro_Cycling"
          ]
        ],
        [
          "175.67",
          []
        ]
      ],
      [
        [
          "5",
          []
        ],
        [
          "Rapha Condor-Sharp",
          [
            "/wiki/JLT\u2013Condor"
          ]
        ],
        [
          "150",
          []
        ]
      ],
      [
        [
          "6",
          []
        ],
        [
          "Amore & Vita",
          [
            "/wiki/Amore_&_Vita\u2013Prodir"
          ]
        ],
        [
          "129",
          []
        ]
      ],
      [
        [
          "7",
          []
        ],
        [
          "FDJ",
          [
            "/wiki/Groupama\u2013FDJ"
          ]
        ],
        [
          "94",
          []
        ]
      ],
      [
        [
          "8",
          []
        ],
        [
          "Team NetApp",
          [
            "/wiki/Bora\u2013Hansgrohe"
          ]
        ],
        [
          "75",
          []
        ]
      ],
      [
        [
          "9",
          []
        ],
        [
          "Miche-Guerciotti",
          [
            "/wiki/Miche\u2013Guerciotti"
          ]
        ],
        [
          "70",
          []
        ]
      ],
      [
        [
          "10",
          []
        ],
        [
          "Dukla Tren\u010d\u00edn Merida",
          []
        ],
        [
          "58",
          []
        ]
      ]
    ],
    "section_title": "Team classification",
    "section_text": "",
    "uid": "2010\u201311_UCI_Africa_Tour_3",
    "intro": "The 2010-11 UCI Africa Tour was the seventh season of the UCI Africa Tour. The season began on 6 October 2010 with the Grand Prix Chantal Biya and ended on 24 July 2011 with the Tour of Eritrea. The points leader, based on the cumulative results of previous races, wears the UCI Africa Tour cycling jersey. Abdelatif Saadoune of Morocco was the defending champion of the 2009-10 UCI Africa Tour. Adil Jelloul of Morocco was crowned as the 2010-11 UCI Africa Tour champion. Throughout the season, points are awarded to the top finishers of stages within stage races and the final general classification standings of each of the stages races and one-day events. The quality and complexity of a race also determines how many points are awarded to the top finishers, the higher the UCI rating of a race, the more points are awarded. The UCI ratings from highest to lowest are as follows:"
  },
  "2009\u201310_Premier_League_5": {
    "url": "https://en.wikipedia.org/wiki/2009\u201310_Premier_League",
    "title": "2009\u201310 Premier League",
    "header": [
      [
        "Rank",
        []
      ],
      [
        "Scorer",
        []
      ],
      [
        "Club",
        []
      ],
      [
        "Goals",
        []
      ]
    ],
    "data": [
      [
        [
          "1",
          []
        ],
        [
          "Didier Drogba",
          [
            "/wiki/Didier_Drogba"
          ]
        ],
        [
          "Chelsea",
          []
        ],
        [
          "29",
          []
        ]
      ],
      [
        [
          "2",
          []
        ],
        [
          "Wayne Rooney",
          [
            "/wiki/Wayne_Rooney"
          ]
        ],
        [
          "Manchester United",
          []
        ],
        [
          "26",
          []
        ]
      ],
      [
        [
          "3",
          []
        ],
        [
          "Darren Bent",
          [
            "/wiki/Darren_Bent"
          ]
        ],
        [
          "Sunderland",
          []
        ],
        [
          "24",
          []
        ]
      ],
      [
        [
          "4",
          []
        ],
        [
          "Carlos Tevez",
          [
            "/wiki/Carlos_Tevez"
          ]
        ],
        [
          "Manchester City",
          []
        ],
        [
          "23",
          []
        ]
      ],
      [
        [
          "5",
          []
        ],
        [
          "Frank Lampard",
          [
            "/wiki/Frank_Lampard"
          ]
        ],
        [
          "Chelsea",
          []
        ],
        [
          "22",
          []
        ]
      ],
      [
        [
          "6",
          []
        ],
        [
          "Fernando Torres",
          [
            "/wiki/Fernando_Torres"
          ]
        ],
        [
          "Liverpool",
          []
        ],
        [
          "18",
          []
        ]
      ],
      [
        [
          "6",
          []
        ],
        [
          "Jermain Defoe",
          [
            "/wiki/Jermain_Defoe"
          ]
        ],
        [
          "Tottenham Hotspur",
          []
        ],
        [
          "18",
          []
        ]
      ],
      [
        [
          "8",
          []
        ],
        [
          "Cesc F\u00e0bregas",
          [
            "/wiki/Cesc_F\u00e0bregas"
          ]
        ],
        [
          "Arsenal",
          []
        ],
        [
          "15",
          []
        ]
      ],
      [
        [
          "9",
          []
        ],
        [
          "Emmanuel Adebayor",
          [
            "/wiki/Emmanuel_Adebayor"
          ]
        ],
        [
          "Manchester City",
          []
        ],
        [
          "14",
          []
        ]
      ],
      [
        [
          "10",
          []
        ],
        [
          "Gabriel Agbonlahor",
          [
            "/wiki/Gabriel_Agbonlahor"
          ]
        ],
        [
          "Aston Villa",
          []
        ],
        [
          "13",
          []
        ]
      ],
      [
        [
          "10",
          []
        ],
        [
          "Louis Saha",
          [
            "/wiki/Louis_Saha"
          ]
        ],
        [
          "Everton",
          []
        ],
        [
          "13",
          []
        ]
      ]
    ],
    "section_title": "Season statistics -- Scoring",
    "section_text": "",
    "uid": "2009\u201310_Premier_League_5",
    "intro": "The 2009-10 Premier League (known as the Barclays Premier League for sponsorship reasons) was the 18th season of the Premier League since its establishment in 1992. A total of 20 teams competed in the league, with Chelsea unseating the three-time defending champions Manchester United, scoring a then Premier League record 103 goals in the process. The season began on 15 August 2009 and concluded on 9 May 2010. [deprecated source] Prior to each opening week match, a minute's applause was held in memory of Sir Bobby Robson. Nike provided a new match ball - the T90 Ascente - for this season. Barclays sponsored the league. The race for the title went to the final day of the season with Chelsea one point ahead of Manchester United; Chelsea's 8-0 win over Wigan Athletic was enough to secure their first title since 2006, despite Manchester United's 4-0 defeat of Stoke City. The title win came in Chelsea manager Carlo Ancelotti's first season at the club and he followed this up a week later by securing Chelsea's first FA Cup and League double with a win over Portsmouth at Wembley. Chelsea striker Didier Drogba won the Golden Boot award as the league's top goalscorer for the second time The victorious Chelsea side were noted for their attacking style of football: the team averaged 2.71 goals per game, scoring a Premier League record 103 goals for the season, compared to the average of 1.89 when they won the title in the 2004-05 and 2005-06 seasons. In February 2010, Portsmouth became the first club to go into administration whilst a member of the Premier League. They were docked nine points, and two months later they were the first team of the season to be relegated. Hull City and Premier League debutants Burnley were relegated alongside them."
  },
  "2007\u201308_Premier_League_0": {
    "url": "https://en.wikipedia.org/wiki/2007\u201308_Premier_League",
    "title": "2007\u201308 Premier League",
    "header": [
      [
        "Team",
        []
      ],
      [
        "Location",
        []
      ],
      [
        "Stadium",
        []
      ],
      [
        "Capacity",
        []
      ]
    ],
    "data": [
      [
        [
          "Arsenal",
          [
            "/wiki/Arsenal_F.C."
          ]
        ],
        [
          "London ( Holloway )",
          [
            "/wiki/London",
            "/wiki/Holloway,_London"
          ]
        ],
        [
          "Emirates Stadium",
          [
            "/wiki/Emirates_Stadium"
          ]
        ],
        [
          "60,355",
          []
        ]
      ],
      [
        [
          "Aston Villa",
          [
            "/wiki/Aston_Villa_F.C."
          ]
        ],
        [
          "Birmingham ( Aston )",
          [
            "/wiki/Birmingham",
            "/wiki/Aston"
          ]
        ],
        [
          "Villa Park",
          [
            "/wiki/Villa_Park"
          ]
        ],
        [
          "42,640",
          []
        ]
      ],
      [
        [
          "Birmingham City",
          [
            "/wiki/Birmingham_City_F.C."
          ]
        ],
        [
          "Birmingham ( Bordesley )",
          [
            "/wiki/Birmingham",
            "/wiki/Bordesley,_West_Midlands"
          ]
        ],
        [
          "St Andrew 's Stadium",
          [
            "/wiki/St_Andrew's_(stadium)"
          ]
        ],
        [
          "30,009",
          []
        ]
      ],
      [
        [
          "Blackburn Rovers",
          [
            "/wiki/Blackburn_Rovers_F.C."
          ]
        ],
        [
          "Blackburn",
          [
            "/wiki/Blackburn"
          ]
        ],
        [
          "Ewood Park",
          [
            "/wiki/Ewood_Park"
          ]
        ],
        [
          "31,367",
          []
        ]
      ],
      [
        [
          "Bolton Wanderers",
          [
            "/wiki/Bolton_Wanderers_F.C."
          ]
        ],
        [
          "Bolton",
          [
            "/wiki/Bolton"
          ]
        ],
        [
          "Reebok Stadium",
          [
            "/wiki/University_of_Bolton_Stadium"
          ]
        ],
        [
          "28,723",
          []
        ]
      ],
      [
        [
          "Chelsea",
          [
            "/wiki/Chelsea_F.C."
          ]
        ],
        [
          "London ( Fulham )",
          [
            "/wiki/London",
            "/wiki/Fulham"
          ]
        ],
        [
          "Stamford Bridge",
          [
            "/wiki/Stamford_Bridge_(stadium)"
          ]
        ],
        [
          "42,055",
          []
        ]
      ],
      [
        [
          "Derby County",
          [
            "/wiki/Derby_County_F.C."
          ]
        ],
        [
          "Derby",
          [
            "/wiki/Derby"
          ]
        ],
        [
          "Pride Park Stadium",
          [
            "/wiki/Pride_Park_Stadium"
          ]
        ],
        [
          "33,597",
          []
        ]
      ],
      [
        [
          "Everton",
          [
            "/wiki/Everton_F.C."
          ]
        ],
        [
          "Liverpool ( Walton )",
          [
            "/wiki/Liverpool",
            "/wiki/Walton,_Liverpool"
          ]
        ],
        [
          "Goodison Park",
          [
            "/wiki/Goodison_Park"
          ]
        ],
        [
          "40,157",
          []
        ]
      ],
      [
        [
          "Fulham",
          [
            "/wiki/Fulham_F.C."
          ]
        ],
        [
          "London ( Fulham )",
          [
            "/wiki/London",
            "/wiki/Fulham"
          ]
        ],
        [
          "Craven Cottage",
          [
            "/wiki/Craven_Cottage"
          ]
        ],
        [
          "26,300",
          []
        ]
      ],
      [
        [
          "Liverpool",
          [
            "/wiki/Liverpool_F.C."
          ]
        ],
        [
          "Liverpool ( Anfield )",
          [
            "/wiki/Liverpool",
            "/wiki/Anfield_(suburb)"
          ]
        ],
        [
          "Anfield",
          [
            "/wiki/Anfield"
          ]
        ],
        [
          "45,276",
          []
        ]
      ],
      [
        [
          "Manchester City",
          [
            "/wiki/Manchester_City_F.C."
          ]
        ],
        [
          "Manchester",
          [
            "/wiki/Manchester"
          ]
        ],
        [
          "City of Manchester Stadium",
          [
            "/wiki/City_of_Manchester_Stadium"
          ]
        ],
        [
          "47,726",
          []
        ]
      ],
      [
        [
          "Manchester United",
          [
            "/wiki/Manchester_United_F.C."
          ]
        ],
        [
          "Old Trafford",
          [
            "/wiki/Old_Trafford_(area)"
          ]
        ],
        [
          "Old Trafford",
          [
            "/wiki/Old_Trafford"
          ]
        ],
        [
          "76,212",
          []
        ]
      ],
      [
        [
          "Middlesbrough",
          [
            "/wiki/Middlesbrough_F.C."
          ]
        ],
        [
          "Middlesbrough",
          [
            "/wiki/Middlesbrough"
          ]
        ],
        [
          "Riverside Stadium",
          [
            "/wiki/Riverside_Stadium"
          ]
        ],
        [
          "35,049",
          []
        ]
      ],
      [
        [
          "Newcastle United",
          [
            "/wiki/Newcastle_United_F.C."
          ]
        ],
        [
          "Newcastle upon Tyne",
          [
            "/wiki/Newcastle_upon_Tyne"
          ]
        ],
        [
          "St James ' Park",
          [
            "/wiki/St_James'_Park"
          ]
        ],
        [
          "52,387",
          []
        ]
      ],
      [
        [
          "Portsmouth",
          [
            "/wiki/Portsmouth_F.C."
          ]
        ],
        [
          "Portsmouth",
          [
            "/wiki/Portsmouth"
          ]
        ],
        [
          "Fratton Park",
          [
            "/wiki/Fratton_Park"
          ]
        ],
        [
          "20,688",
          []
        ]
      ],
      [
        [
          "Reading",
          [
            "/wiki/Reading_F.C."
          ]
        ],
        [
          "Reading",
          [
            "/wiki/Reading,_Berkshire"
          ]
        ],
        [
          "Madejski Stadium",
          [
            "/wiki/Madejski_Stadium"
          ]
        ],
        [
          "24,161",
          []
        ]
      ],
      [
        [
          "Sunderland",
          [
            "/wiki/Sunderland_A.F.C."
          ]
        ],
        [
          "Sunderland",
          [
            "/wiki/Sunderland"
          ]
        ],
        [
          "Stadium of Light",
          [
            "/wiki/Stadium_of_Light"
          ]
        ],
        [
          "49,000",
          []
        ]
      ],
      [
        [
          "Tottenham Hotspur",
          [
            "/wiki/Tottenham_Hotspur_F.C."
          ]
        ],
        [
          "London ( Tottenham )",
          [
            "/wiki/London",
            "/wiki/Tottenham"
          ]
        ],
        [
          "White Hart Lane",
          [
            "/wiki/White_Hart_Lane"
          ]
        ],
        [
          "36,244",
          []
        ]
      ],
      [
        [
          "West Ham United",
          [
            "/wiki/West_Ham_United_F.C."
          ]
        ],
        [
          "London ( Upton Park )",
          [
            "/wiki/London",
            "/wiki/Upton_Park,_London"
          ]
        ],
        [
          "Upton Park",
          [
            "/wiki/Boleyn_Ground"
          ]
        ],
        [
          "35,303",
          []
        ]
      ],
      [
        [
          "Wigan Athletic",
          [
            "/wiki/Wigan_Athletic_F.C."
          ]
        ],
        [
          "Wigan",
          [
            "/wiki/Wigan"
          ]
        ],
        [
          "JJB Stadium",
          [
            "/wiki/DW_Stadium"
          ]
        ],
        [
          "25,138",
          []
        ]
      ]
    ],
    "section_title": "Teams -- Stadiums and locations",
    "section_text": "LondonGreater ManchesterAston VillaBirmingham CityBlackburn RoversDerby CountyEvertonLiverpoolMiddlesbroughNewcastle UnitedPortsmouthReadingSunderlandLondon teams : ArsenalChelseaFulhamTottenham HotspurWest Ham UnitedGreater Manchester teams : Bolton WanderersManchester CityManchester UnitedWigan Athletic Locations of the 2007\u201308 Premier League teams ArsenalChelseaFulhamTottenhamHotspurWest Ham United Greater London Premier League football clubs Bolton WanderersManchester CityManchester UnitedWigan Athletic Greater Manchester Premier League football clubs",
    "uid": "2007\u201308_Premier_League_0",
    "intro": "The 2007-08 Premier League (known as the Barclays Premier League for sponsorship reasons) season was the 16th since its establishment. The first matches of the season were played on 11 August 2007, and the season ended on 11 May 2008. Manchester United went into the 2007-08 season as the Premier League's defending champions, having won their ninth Premier League title and sixteenth league championship overall the previous season. This season was also the third consecutive season to see the Big Four continue their stranglehold on the top four spots and places in the UEFA Champions League. The first goal of the season was scored by Michael Chopra, who scored a 94th-minute winner for Sunderland against Tottenham in the early kick-off. The first red card of the season was given to Reading's Dave Kitson after a challenge on Patrice Evra in their opening game against Manchester United. The first hat-trick was scored by Emmanuel Adebayor in the match between Arsenal and Derby County. On 29 September 2007, Portsmouth beat Reading 7-4 in the highest-scoring match in Premier League history. On 15 December 2007, both Roque Santa Cruz (Blackburn Rovers) and Marcus Bent (Wigan Athletic) scored hat-tricks during Wigan's 5-3 home win over Blackburn. This was the first occasion in Premier League history that two players on opposing teams had scored hat-tricks during the same match. On 29 March 2008, Derby County drew 2-2 with Fulham while Birmingham City, who were 17th in the table at the time, beat Manchester City 3-1, to make Derby County the first team in Premier League history to be relegated in March, ending the season with an all-time top flight record low points tally of just 11. On 11 May 2008, the final day of the season, Manchester United beat Wigan Athletic 2-0 while Chelsea drew 1-1 with Bolton Wanderers, thus crowning Manchester United with their tenth Premier League title, and 17th championship overall, just one behind Liverpool's total of 18."
  },
  "2015\u201316_Serie_A2_Basket_5": {
    "url": "https://en.wikipedia.org/wiki/2015\u201316_Serie_A2_Basket",
    "title": "2015\u201316 Serie A2 Basket",
    "header": [
      [
        "Rank",
        []
      ],
      [
        "Name",
        []
      ],
      [
        "Team",
        []
      ],
      [
        "PPG",
        []
      ]
    ],
    "data": [
      [
        [
          "1",
          []
        ],
        [
          "Bryon Allen",
          []
        ],
        [
          "Roseto Sharks",
          [
            "/wiki/Roseto_Sharks"
          ]
        ],
        [
          "23.2",
          []
        ]
      ],
      [
        [
          "2",
          []
        ],
        [
          "Jazzmarr Ferguson",
          [
            "/wiki/Jazzmarr_Ferguson"
          ]
        ],
        [
          "Angelico Biella",
          [
            "/wiki/Pallacanestro_Biella"
          ]
        ],
        [
          "22.9",
          []
        ]
      ],
      [
        [
          "3",
          []
        ],
        [
          "Marc Trasolini",
          []
        ],
        [
          "Basket Agropoli",
          []
        ],
        [
          "18.8",
          []
        ]
      ],
      [
        [
          "4",
          []
        ],
        [
          "Kenny Lawson",
          []
        ],
        [
          "Basket Recanati",
          [
            "/wiki/Basket_Recanati"
          ]
        ],
        [
          "20.4",
          []
        ]
      ],
      [
        [
          "5",
          []
        ],
        [
          "Terrence Roderick Jr",
          []
        ],
        [
          "Basket Agropoli",
          []
        ],
        [
          "19.1",
          []
        ]
      ]
    ],
    "section_title": "Points",
    "section_text": "",
    "uid": "2015\u201316_Serie_A2_Basket_5",
    "intro": "The 2015-16 Serie A2 season, known for sponsorship reasons as the Serie A2 Citro\u00ebn, was the 42nd season of the Italian basketball second league Serie A2 Basket. The season started on October 4, 2015 and ended on June 23, 2016 with the last game of the promotion playoffs finals."
  }
}