{
  "1973\u201374_Lancashire_Cup_0": {
    "url": "https://en.wikipedia.org/wiki/1973\u201374_Lancashire_Cup",
    "title": "1973\u201374 Lancashire Cup",
    "header": [
      [
        "Game No",
        []
      ],
      [
        "Fixture Date",
        []
      ],
      [
        "Home Team",
        []
      ],
      [
        "Score",
        []
      ],
      [
        "Away Team",
        []
      ],
      [
        "Venue",
        []
      ],
      [
        "Att",
        []
      ]
    ],
    "data": [
      [
        [
          "1",
          []
        ],
        [
          "Fri 31 August 1973",
          []
        ],
        [
          "Barrow",
          [
            "/wiki/Barrow_Raiders"
          ]
        ],
        [
          "4-24",
          []
        ],
        [
          "Swinton",
          [
            "/wiki/Swinton_Lions"
          ]
        ],
        [
          "Craven Park",
          [
            "/wiki/Craven_Park,_Barrow-in-Furness"
          ]
        ],
        [
          "1,200",
          []
        ]
      ],
      [
        [
          "2",
          []
        ],
        [
          "Fri 31 September 1973",
          []
        ],
        [
          "Salford",
          [
            "/wiki/Salford_Red_Devils"
          ]
        ],
        [
          "12-11",
          []
        ],
        [
          "Widnes",
          [
            "/wiki/Widnes_Vikings"
          ]
        ],
        [
          "The Willows",
          [
            "/wiki/The_Willows,_Salford"
          ]
        ],
        [
          "5,399",
          []
        ]
      ],
      [
        [
          "3",
          []
        ],
        [
          "Sat 1 September 1973",
          []
        ],
        [
          "Huyton",
          [
            "/wiki/Liverpool_Stanley"
          ]
        ],
        [
          "12-29",
          []
        ],
        [
          "Rochdale Hornets",
          [
            "/wiki/Rochdale_Hornets"
          ]
        ],
        [
          "Alt Park , Huyton",
          []
        ],
        [
          "350",
          []
        ]
      ],
      [
        [
          "4",
          []
        ],
        [
          "Sat 1 September 1973",
          []
        ],
        [
          "Oldham",
          [
            "/wiki/Oldham_R.L.F.C."
          ]
        ],
        [
          "12-20",
          []
        ],
        [
          "Wigan",
          [
            "/wiki/Wigan_Warriors"
          ]
        ],
        [
          "Watersheddings",
          [
            "/wiki/Watersheddings"
          ]
        ],
        [
          "2,410",
          []
        ]
      ],
      [
        [
          "5",
          []
        ],
        [
          "Sun 2 September 1973",
          []
        ],
        [
          "Blackpool Borough",
          [
            "/wiki/Blackpool_Borough"
          ]
        ],
        [
          "8-15",
          []
        ],
        [
          "Whitehaven",
          [
            "/wiki/Whitehaven_R.L.F.C."
          ]
        ],
        [
          "Borough Park",
          []
        ],
        [
          "850",
          []
        ]
      ],
      [
        [
          "6",
          []
        ],
        [
          "Sun 2 September 1973",
          []
        ],
        [
          "Warrington",
          [
            "/wiki/Warrington_Wolves"
          ]
        ],
        [
          "20-15",
          []
        ],
        [
          "Leigh",
          [
            "/wiki/Leigh_Centurions"
          ]
        ],
        [
          "Wilderspool",
          [
            "/wiki/Wilderspool_Stadium"
          ]
        ],
        [
          "7,984",
          []
        ]
      ],
      [
        [
          "7",
          []
        ],
        [
          "Sun 2 September 1973",
          []
        ],
        [
          "Workington Town",
          [
            "/wiki/Workington_Town"
          ]
        ],
        [
          "11-5",
          []
        ],
        [
          "St. Helens",
          [
            "/wiki/St_Helens_R.F.C."
          ]
        ],
        [
          "Derwent Park",
          [
            "/wiki/Derwent_Park"
          ]
        ],
        [
          "1,800",
          []
        ]
      ]
    ],
    "section_title": "Competition and results -- Round 1",
    "section_text": "Involved 7 matches ( with one `` blank '' fixture ) and 14 clubs",
    "uid": "1973\u201374_Lancashire_Cup_0",
    "intro": "The 1973-74 Lancashire Cup was the sixty-first occasion of the Lancashire Cup. Wigan won the trophy by beating Salford by the score of 19-9 in the final. The match was played at Wilderspool, Warrington. The attendance was 8,012 and receipts were \u00a32,750."
  },
  "1955\u201356_Lancashire_Cup_0": {
    "url": "https://en.wikipedia.org/wiki/1955\u201356_Lancashire_Cup",
    "title": "1955\u201356 Lancashire Cup",
    "header": [
      [
        "Game No",
        []
      ],
      [
        "Fixture Date",
        []
      ],
      [
        "Home Team",
        []
      ],
      [
        "Score",
        []
      ],
      [
        "Away Team",
        []
      ],
      [
        "Venue",
        []
      ]
    ],
    "data": [
      [
        [
          "1",
          []
        ],
        [
          "Sat 27 Aug 1955",
          []
        ],
        [
          "Barrow",
          [
            "/wiki/Barrow_Raiders"
          ]
        ],
        [
          "18-12",
          []
        ],
        [
          "St. Helens",
          [
            "/wiki/St_Helens_R.F.C."
          ]
        ],
        [
          "Craven Park",
          [
            "/wiki/Craven_Park,_Barrow-in-Furness"
          ]
        ]
      ],
      [
        [
          "2",
          []
        ],
        [
          "Sat 27 Aug 1955",
          []
        ],
        [
          "Blackpool Borough",
          [
            "/wiki/Blackpool_Borough"
          ]
        ],
        [
          "8-18",
          []
        ],
        [
          "Oldham",
          [
            "/wiki/Oldham_R.L.F.C."
          ]
        ],
        [
          "St Anne 's Road Greyhound Stadium",
          []
        ]
      ],
      [
        [
          "3",
          []
        ],
        [
          "Sat 27 Aug 1955",
          []
        ],
        [
          "Leigh",
          [
            "/wiki/Leigh_Centurions"
          ]
        ],
        [
          "71-14",
          []
        ],
        [
          "County Amateurs",
          []
        ],
        [
          "Kirkhall Lane",
          [
            "/wiki/Hilton_Park_(stadium)"
          ]
        ]
      ],
      [
        [
          "4",
          []
        ],
        [
          "Sat 27 Aug 1955",
          []
        ],
        [
          "Rochdale Hornets",
          [
            "/wiki/Rochdale_Hornets"
          ]
        ],
        [
          "26-17",
          []
        ],
        [
          "Whitehaven",
          [
            "/wiki/Whitehaven_R.L.F.C."
          ]
        ],
        [
          "Athletic Grounds",
          [
            "/wiki/Athletic_Grounds,_Rochdale"
          ]
        ]
      ],
      [
        [
          "5",
          []
        ],
        [
          "Sat 27 Aug 1955",
          []
        ],
        [
          "Salford",
          [
            "/wiki/Salford_Red_Devils"
          ]
        ],
        [
          "8-33",
          []
        ],
        [
          "Widnes",
          [
            "/wiki/Widnes_Vikings"
          ]
        ],
        [
          "The Willows",
          [
            "/wiki/The_Willows,_Salford"
          ]
        ]
      ],
      [
        [
          "6",
          []
        ],
        [
          "Sat 27 Aug 1955",
          []
        ],
        [
          "Wigan",
          [
            "/wiki/Wigan_Warriors"
          ]
        ],
        [
          "15-16",
          []
        ],
        [
          "Warrington",
          [
            "/wiki/Warrington_Wolves"
          ]
        ],
        [
          "Central Park",
          [
            "/wiki/Central_Park_(Wigan)"
          ]
        ]
      ],
      [
        [
          "7",
          []
        ],
        [
          "Sat 27 Aug 1955",
          []
        ],
        [
          "Workington Town",
          [
            "/wiki/Workington_Town"
          ]
        ],
        [
          "24-10",
          []
        ],
        [
          "Liverpool City",
          [
            "/wiki/Liverpool_Stanley"
          ]
        ],
        [
          "Borough Park",
          [
            "/wiki/Borough_Park_(Workington)"
          ]
        ]
      ],
      [
        [
          "8",
          []
        ],
        [
          "",
          []
        ],
        [
          "Swinton",
          [
            "/wiki/Swinton_Lions"
          ]
        ],
        [
          "",
          []
        ],
        [
          "bye",
          []
        ],
        [
          "",
          []
        ]
      ]
    ],
    "section_title": "Competition and results -- Round 1",
    "section_text": "Involved 7 matches ( with one bye but no \u201c blank \u201d fixture ) and 15 clubs",
    "uid": "1955\u201356_Lancashire_Cup_0",
    "intro": "1955-56 was the forty-third occasion on which the Lancashire Cup completion had been held. Leigh won the trophy by beating Widnes by the score of 26-9. The match was played at Central Park, Wigan, (historically in the county of Lancashire). The attendance was 26,504 and receipts were \u00a34,090."
  },
  "1970\u201371_Lancashire_Cup_6": {
    "url": "https://en.wikipedia.org/wiki/1970\u201371_Lancashire_Cup",
    "title": "1970\u201371 Lancashire Cup",
    "header": [
      [
        "Leigh",
        [
          "/wiki/Leigh_Centurions"
        ]
      ],
      [
        "\u2116",
        []
      ],
      [
        "St. Helens",
        [
          "/wiki/St_Helens_R.F.C."
        ]
      ]
    ],
    "data": [
      [
        [
          "Stuart Ferguson",
          [
            "/wiki/Stuart_Ferguson"
          ]
        ],
        [
          "1",
          []
        ],
        [
          "Frank Barrow",
          []
        ]
      ],
      [
        [
          "Rod Tickle",
          []
        ],
        [
          "2",
          []
        ],
        [
          "Les Jones",
          [
            "/wiki/Les_Jones_(rugby_league,_born_1948)"
          ]
        ]
      ],
      [
        [
          "Les Chisnall",
          []
        ],
        [
          "3",
          []
        ],
        [
          "Billy Benyon",
          [
            "/wiki/Billy_Benyon"
          ]
        ]
      ],
      [
        [
          "Mick Collins",
          []
        ],
        [
          "4",
          []
        ],
        [
          "Johnny Walsh",
          [
            "/wiki/John_Walsh_(rugby_league)"
          ]
        ]
      ],
      [
        [
          "Joseph Walsh",
          [
            "/wiki/Joseph_Walsh_(rugby_league)"
          ]
        ],
        [
          "5",
          []
        ],
        [
          "Frank Wilson",
          [
            "/wiki/Frank_Wilson_(Wales_rugby_player)"
          ]
        ]
      ],
      [
        [
          "David Eckersley",
          [
            "/wiki/David_Eckersley"
          ]
        ],
        [
          "6",
          []
        ],
        [
          "Frank Myler",
          [
            "/wiki/Frank_Myler"
          ]
        ]
      ],
      [
        [
          "Alex Murphy",
          [
            "/wiki/Alex_Murphy_(rugby_league)"
          ]
        ],
        [
          "7",
          []
        ],
        [
          "Alan Whittle",
          [
            "/wiki/Alan_Whittle_(rugby_league)"
          ]
        ]
      ],
      [
        [
          "Dave Chisnall",
          [
            "/wiki/Dave_Chisnall_(rugby_league)"
          ]
        ],
        [
          "8",
          []
        ],
        [
          "Albert Halsall",
          [
            "/wiki/Albert_Halsall"
          ]
        ]
      ],
      [
        [
          "Kevin Ashcroft",
          [
            "/wiki/Kevin_Ashcroft"
          ]
        ],
        [
          "9",
          []
        ],
        [
          "Tony Karalius",
          [
            "/wiki/Tony_Karalius"
          ]
        ]
      ],
      [
        [
          "Derek Watts",
          []
        ],
        [
          "10",
          []
        ],
        [
          "Graham Rees",
          [
            "/wiki/Graham_Rees"
          ]
        ]
      ],
      [
        [
          "Paul Grimes",
          []
        ],
        [
          "11",
          []
        ],
        [
          "John Mantle",
          [
            "/wiki/John_Mantle_(rugby)"
          ]
        ]
      ],
      [
        [
          "Geoffrey Clarkson",
          [
            "/wiki/Geoffrey_Clarkson"
          ]
        ],
        [
          "12",
          []
        ],
        [
          "Eric Chisnall",
          [
            "/wiki/Eric_Chisnall"
          ]
        ]
      ],
      [
        [
          "Mick Mooney",
          []
        ],
        [
          "13",
          []
        ],
        [
          "Kel Coslett",
          [
            "/wiki/Kel_Coslett"
          ]
        ]
      ],
      [
        [
          "Thomas Tom / Tommy Canning ( for Rod Tickle )",
          []
        ],
        [
          "14",
          []
        ],
        [
          "Jeff Heaton ( not used )",
          [
            "/wiki/Jeff_Heaton"
          ]
        ]
      ],
      [
        [
          "",
          []
        ],
        [
          "15",
          []
        ],
        [
          "Eric Prescott ( for Graham Rees )",
          [
            "/wiki/Eric_Prescott"
          ]
        ]
      ],
      [
        [
          "7",
          []
        ],
        [
          "score",
          []
        ],
        [
          "4",
          []
        ]
      ],
      [
        [
          "0",
          []
        ],
        [
          "HT",
          []
        ],
        [
          "0",
          []
        ]
      ]
    ],
    "section_title": "Competition and results -- Final",
    "section_text": "[ 4 ] [ 7 ]",
    "uid": "1970\u201371_Lancashire_Cup_6",
    "intro": "The 1970-71 Lancashire Cup was the fifty-eighth staging of the tournament. Leigh won the trophy by beating St. Helens by the score of 7-4 in the final. The match was played at Station Road, Pendlebury, (historically in the county of Lancashire). The attendance was 10,776 and receipts were \u00a33,136."
  },
  "1946\u201347_Lancashire_Cup_0": {
    "url": "https://en.wikipedia.org/wiki/1946\u201347_Lancashire_Cup",
    "title": "1946\u201347 Lancashire Cup",
    "header": [
      [
        "Game No",
        []
      ],
      [
        "Fixture Date",
        []
      ],
      [
        "Home Team",
        []
      ],
      [
        "Score",
        []
      ],
      [
        "Away Team",
        []
      ],
      [
        "Venue",
        []
      ]
    ],
    "data": [
      [
        [
          "1",
          []
        ],
        [
          "Sat 07 Sep 1946",
          []
        ],
        [
          "Liverpool Stanley",
          [
            "/wiki/Liverpool_Stanley"
          ]
        ],
        [
          "0-7",
          []
        ],
        [
          "Belle Vue Rangers",
          [
            "/wiki/Broughton_Rangers"
          ]
        ],
        [
          "Stanley Greyhound Stadium",
          []
        ]
      ],
      [
        [
          "2",
          []
        ],
        [
          "Sat 07 Sep 1946",
          []
        ],
        [
          "St. Helens",
          [
            "/wiki/St_Helens_R.F.C."
          ]
        ],
        [
          "5-14",
          []
        ],
        [
          "Leigh",
          [
            "/wiki/Leigh_Centurions"
          ]
        ],
        [
          "Knowsley Road",
          [
            "/wiki/Knowsley_Road"
          ]
        ]
      ],
      [
        [
          "3",
          []
        ],
        [
          "Sat 07 Sep 1946",
          []
        ],
        [
          "Salford",
          [
            "/wiki/Salford_Red_Devils"
          ]
        ],
        [
          "10-3",
          []
        ],
        [
          "Warrington",
          [
            "/wiki/Warrington_Wolves"
          ]
        ],
        [
          "The Willows",
          [
            "/wiki/The_Willows,_Salford"
          ]
        ]
      ],
      [
        [
          "4",
          []
        ],
        [
          "Sat 07 Sep 1946",
          []
        ],
        [
          "Widnes",
          [
            "/wiki/Widnes_Vikings"
          ]
        ],
        [
          "26-5",
          []
        ],
        [
          "Barrow",
          [
            "/wiki/Barrow_Raiders"
          ]
        ],
        [
          "Naughton Park",
          [
            "/wiki/Halton_Stadium"
          ]
        ]
      ],
      [
        [
          "5",
          []
        ],
        [
          "Sat 07 Sep 1946",
          []
        ],
        [
          "Wigan",
          [
            "/wiki/Wigan_Warriors"
          ]
        ],
        [
          "49-4",
          []
        ],
        [
          "Rochdale Hornets",
          [
            "/wiki/Rochdale_Hornets"
          ]
        ],
        [
          "Central Park",
          [
            "/wiki/Central_Park_(Wigan)"
          ]
        ]
      ],
      [
        [
          "6",
          []
        ],
        [
          "Sat 07 Sep 1946",
          []
        ],
        [
          "Workington Town",
          [
            "/wiki/Workington_Town"
          ]
        ],
        [
          "2-8",
          []
        ],
        [
          "Oldham",
          [
            "/wiki/Oldham_R.L.F.C."
          ]
        ],
        [
          "Borough Park",
          [
            "/wiki/Borough_Park_(Workington)"
          ]
        ]
      ],
      [
        [
          "7",
          []
        ],
        [
          "",
          []
        ],
        [
          "Swinton",
          [
            "/wiki/Swinton_Lions"
          ]
        ],
        [
          "",
          []
        ],
        [
          "bye",
          []
        ],
        [
          "",
          []
        ]
      ],
      [
        [
          "8",
          []
        ],
        [
          "",
          []
        ],
        [
          "blank",
          []
        ],
        [
          "",
          []
        ],
        [
          "blank",
          []
        ],
        [
          "",
          []
        ]
      ]
    ],
    "section_title": "Competition and results -- Round 1",
    "section_text": "Involved 6 matches ( with one bye and one \u201c blank \u201d fixture ) and 13 clubs",
    "uid": "1946\u201347_Lancashire_Cup_0",
    "intro": "1946-47 was the thirty-fourth occasion on which the Lancashire Cup completion had been held. Wigan won the trophy by beating Belle Vue Rangers by the score of 9-3. The match was played at Station Road, Pendlebury, (historically in the county of Lancashire). The attendance was 21,648 and receipts were \u00a32,658. Although it could not have been known at this time, this was to be the first of Wigans record breaking run of six consecutive Lancashire Cup victories. It was also to be the first of two consecutive finals to be competed for by these two teams."
  },
  "1980\u201381_Lancashire_Cup_4": {
    "url": "https://en.wikipedia.org/wiki/1980\u201381_Lancashire_Cup",
    "title": "1980\u201381 Lancashire Cup",
    "header": [
      [
        "Warrington",
        [
          "/wiki/Warrington_Wolves"
        ]
      ],
      [
        "\u2116",
        []
      ],
      [
        "Wigan",
        [
          "/wiki/Wigan_Warriors"
        ]
      ]
    ],
    "data": [
      [
        [
          "Derek Finnegan / Finnigan [ 1 ]",
          []
        ],
        [
          "1",
          []
        ],
        [
          "George Fairbairn",
          [
            "/wiki/George_Fairbairn_(rugby_league)"
          ]
        ]
      ],
      [
        [
          "Richard Thackray [ 2 ]",
          []
        ],
        [
          "2",
          []
        ],
        [
          "Dennis Ramsdale [ 3 ]",
          []
        ]
      ],
      [
        [
          "Ian Duane [ 4 ]",
          []
        ],
        [
          "3",
          []
        ],
        [
          "Dave Willicombe",
          [
            "/wiki/David_Willicombe"
          ]
        ]
      ],
      [
        [
          "John Bevan",
          [
            "/wiki/John_Bevan_(rugby)"
          ]
        ],
        [
          "4",
          []
        ],
        [
          "Steve Davies [ 5 ]",
          [
            "/wiki/Steve_Davies_(rugby_league)"
          ]
        ]
      ],
      [
        [
          "Steve Hesford",
          [
            "/wiki/Steve_Hesford"
          ]
        ],
        [
          "5",
          []
        ],
        [
          "Jimmy Hornby [ 6 ]",
          []
        ]
      ],
      [
        [
          "Ken Kelly ( c )",
          [
            "/wiki/Ken_Kelly_(rugby_league)",
            "/wiki/Captain_(sports)"
          ]
        ],
        [
          "6",
          []
        ],
        [
          "Martin Foy [ 7 ]",
          []
        ]
      ],
      [
        [
          "Alan Gwilliam [ 8 ]",
          []
        ],
        [
          "7",
          []
        ],
        [
          "Les Bolton [ 9 ]",
          []
        ]
      ],
      [
        [
          "Neil Courtney",
          [
            "/wiki/Neil_Courtney"
          ]
        ],
        [
          "8",
          []
        ],
        [
          "Steve Breheny [ 10 ]",
          [
            "/wiki/Steve_Breheny"
          ]
        ]
      ],
      [
        [
          "Tony Waller [ 11 ]",
          []
        ],
        [
          "9",
          []
        ],
        [
          "John Pendlebury",
          [
            "/wiki/John_Pendlebury_(rugby_league)"
          ]
        ]
      ],
      [
        [
          "Brian Case",
          [
            "/wiki/Brian_Case"
          ]
        ],
        [
          "10",
          []
        ],
        [
          "Steve O'Neill",
          [
            "/wiki/Steve_O'Neill_(rugby_league)"
          ]
        ]
      ],
      [
        [
          "Tommy Martyn",
          [
            "/wiki/Thomas_Martyn_(rugby_league)"
          ]
        ],
        [
          "11",
          []
        ],
        [
          "Bill Melling [ 12 ]",
          []
        ]
      ],
      [
        [
          "Bob Eccles",
          [
            "/wiki/Bob_Eccles"
          ]
        ],
        [
          "12",
          []
        ],
        [
          "John Clough [ 13 ]",
          []
        ]
      ],
      [
        [
          "Edwin Hunter [ 14 ]",
          []
        ],
        [
          "13",
          []
        ],
        [
          "Terry Hollingsworth [ 15 ]",
          []
        ]
      ],
      [
        [
          "?",
          []
        ],
        [
          "14",
          []
        ],
        [
          "Bernard Coyle [ 16 ] ( for Les Bolton )",
          []
        ]
      ],
      [
        [
          "Ian Potter ( for Bob Eccles )",
          [
            "/wiki/Ian_Potter_(rugby_league)"
          ]
        ],
        [
          "15",
          []
        ],
        [
          "Malcolm Smith [ 17 ] ( for John Pendlebury )",
          []
        ]
      ],
      [
        [
          "Billy Benyon",
          [
            "/wiki/Billy_Benyon"
          ]
        ],
        [
          "Coach",
          []
        ],
        [
          "George Fairbairn",
          [
            "/wiki/George_Fairbairn_(rugby_league)"
          ]
        ]
      ],
      [
        [
          "26",
          []
        ],
        [
          "score",
          []
        ],
        [
          "10",
          []
        ]
      ],
      [
        [
          "19",
          []
        ],
        [
          "HT",
          []
        ],
        [
          "5",
          []
        ]
      ]
    ],
    "section_title": "Competition and Results -- Final",
    "section_text": "[ 4 ] [ 5 ] [ 7 ]",
    "uid": "1980\u201381_Lancashire_Cup_4",
    "intro": "1980-81 was the sixty-eighth occasion on which the Lancashire Cup completion had been held. Warrington won the trophy by beating Wigan by the score of 26-10\nThe match was played at Knowsley Road, Eccleston, St Helens, Merseyside, (historically in the county of Lancashire). The attendance was 6,279 and receipts were \u00a38,629.00"
  },
  "2006\u201307_UCI_Africa_Tour_2": {
    "url": "https://en.wikipedia.org/wiki/2006\u201307_UCI_Africa_Tour",
    "title": "2006\u201307 UCI Africa Tour",
    "header": [
      [
        "Rank",
        []
      ],
      [
        "Name",
        []
      ],
      [
        "Points",
        []
      ]
    ],
    "data": [
      [
        [
          "1",
          []
        ],
        [
          "Hassen Ben Nasser ( TUN )",
          [
            "/wiki/Hassen_Ben_Nasser"
          ]
        ],
        [
          "232",
          []
        ]
      ],
      [
        [
          "2",
          []
        ],
        [
          "Fethi Ahmed Atunsi ( LBA )",
          []
        ],
        [
          "168",
          []
        ]
      ],
      [
        [
          "3",
          []
        ],
        [
          "Ahmed Mohammed Ali ( LBA )",
          []
        ],
        [
          "146",
          []
        ]
      ],
      [
        [
          "4",
          []
        ],
        [
          "Daniel Spence ( RSA )",
          []
        ],
        [
          "141",
          []
        ]
      ],
      [
        [
          "5",
          []
        ],
        [
          "Malcolm Lange ( RSA )",
          [
            "/wiki/Malcolm_Lange"
          ]
        ],
        [
          "136",
          []
        ]
      ],
      [
        [
          "6",
          []
        ],
        [
          "Aymen Ben Hassine ( TUN )",
          [
            "/wiki/Ayman_Ben_Hassine"
          ]
        ],
        [
          "132",
          []
        ]
      ],
      [
        [
          "7",
          []
        ],
        [
          "J\u00e1n \u0160ipeky ( SVK )",
          [
            "/wiki/J\u00e1n_\u0160ipeky"
          ]
        ],
        [
          "128",
          []
        ]
      ],
      [
        [
          "8",
          []
        ],
        [
          "David George ( RSA )",
          [
            "/wiki/David_George_(cyclist)"
          ]
        ],
        [
          "114",
          []
        ]
      ],
      [
        [
          "9",
          []
        ],
        [
          "Aymen Berini ( TUN )",
          []
        ],
        [
          "112",
          []
        ]
      ],
      [
        [
          "10",
          []
        ],
        [
          "Abdelatif Saadoune ( MAR )",
          [
            "/wiki/Abdelatif_Saadoune"
          ]
        ],
        [
          "112",
          []
        ]
      ]
    ],
    "section_title": "Individual classification",
    "section_text": "",
    "uid": "2006\u201307_UCI_Africa_Tour_2",
    "intro": "The 2006-07 UCI Africa Tour was the third season of the UCI Africa Tour. The season began on 6 October 2006 with the Grand Prix Chantal Biya and ended on 16 September 2007 with the Dome 2 Dome Cycling Spectacular. The points leader, based on the cumulative results of previous races, wears the UCI Africa Tour cycling jersey. Rabaki Jeremie Ouedraogo of Burkina Faso was the defending champion of the 2005-06 UCI Africa Tour. Hassen Ben Nasser of Tunisia was crowned as the 2006-07 UCI Africa Tour champion. Throughout the season, points are awarded to the top finishers of stages within stage races and the final general classification standings of each of the stages races and one-day events. The quality and complexity of a race also determines how many points are awarded to the top finishers, the higher the UCI rating of a race, the more points are awarded. The UCI ratings from highest to lowest are as follows:"
  },
  "2005\u201306_UCI_Africa_Tour_4": {
    "url": "https://en.wikipedia.org/wiki/2005\u201306_UCI_Africa_Tour",
    "title": "2005\u201306 UCI Africa Tour",
    "header": [
      [
        "Rank",
        []
      ],
      [
        "Nation",
        []
      ],
      [
        "Points",
        []
      ]
    ],
    "data": [
      [
        [
          "1",
          []
        ],
        [
          "South Africa",
          [
            "/wiki/South_Africa"
          ]
        ],
        [
          "985",
          []
        ]
      ],
      [
        [
          "2",
          []
        ],
        [
          "Burkina Faso",
          [
            "/wiki/Burkina_Faso"
          ]
        ],
        [
          "536",
          []
        ]
      ],
      [
        [
          "3",
          []
        ],
        [
          "Egypt",
          [
            "/wiki/Egypt"
          ]
        ],
        [
          "172",
          []
        ]
      ],
      [
        [
          "4",
          []
        ],
        [
          "Zimbabwe",
          [
            "/wiki/Zimbabwe"
          ]
        ],
        [
          "160",
          []
        ]
      ],
      [
        [
          "5",
          []
        ],
        [
          "Ivory Coast",
          [
            "/wiki/Ivory_Coast"
          ]
        ],
        [
          "140",
          []
        ]
      ],
      [
        [
          "6",
          []
        ],
        [
          "Morocco",
          [
            "/wiki/Morocco"
          ]
        ],
        [
          "138",
          []
        ]
      ],
      [
        [
          "7",
          []
        ],
        [
          "Angola",
          [
            "/wiki/Angola"
          ]
        ],
        [
          "78",
          []
        ]
      ],
      [
        [
          "8",
          []
        ],
        [
          "Cameroon",
          [
            "/wiki/Cameroon"
          ]
        ],
        [
          "77",
          []
        ]
      ],
      [
        [
          "9",
          []
        ],
        [
          "Mauritius",
          [
            "/wiki/Mauritius"
          ]
        ],
        [
          "70",
          []
        ]
      ],
      [
        [
          "10",
          []
        ],
        [
          "Tunisia",
          [
            "/wiki/Tunisia"
          ]
        ],
        [
          "48",
          []
        ]
      ]
    ],
    "section_title": "Nation classification",
    "section_text": "",
    "uid": "2005\u201306_UCI_Africa_Tour_4",
    "intro": "The 2005-06 UCI Africa Tour was the second season of the UCI Africa Tour. The season began on 26 October 2005 with the Tour du Faso and ended on 17 September 2006 with the Tour du S\u00e9n\u00e9gal. The points leader, based on the cumulative results of previous races, wears the UCI Africa Tour cycling jersey. Tiaan Kannemeyer from South Africa was the defending champion of the 2005 UCI Africa Tour. Rabaki Jeremie Ouedraogo of Burkina Faso was crowned as the 2005-06 UCI Africa Tour champion. Throughout the season, points are awarded to the top finishers of stages within stage races and the final general classification standings of each of the stages races and one-day events. The quality and complexity of a race also determines how many points are awarded to the top finishers, the higher the UCI rating of a race, the more points are awarded. The UCI ratings from highest to lowest are as follows:"
  },
  "2008\u201309_Belarusian_Cup_0": {
    "url": "https://en.wikipedia.org/wiki/2008\u201309_Belarusian_Cup",
    "title": "2008\u201309 Belarusian Cup",
    "header": [
      [
        "Team 1",
        []
      ],
      [
        "Agg",
        [
          "/wiki/Playoff_format"
        ]
      ],
      [
        "Team 2",
        []
      ],
      [
        "1st leg",
        []
      ],
      [
        "2nd leg",
        []
      ]
    ],
    "data": [
      [
        [
          "BATE Borisov",
          [
            "/wiki/FC_BATE_Borisov"
          ]
        ],
        [
          "( p ) 5-5",
          [
            "/wiki/Penalty_shoot-out_(association_football)"
          ]
        ],
        [
          "Minsk ( II )",
          [
            "/wiki/FC_Minsk"
          ]
        ],
        [
          "1-4",
          []
        ],
        [
          "4-1 ( aet , p. 4-3 )",
          [
            "/wiki/Overtime_(sports)",
            "/wiki/Penalty_shoot-out_(association_football)"
          ]
        ]
      ],
      [
        [
          "MTZ-RIPO Minsk",
          [
            "/wiki/FC_Partizan_Minsk"
          ]
        ],
        [
          "6-2",
          []
        ],
        [
          "Smorgon",
          [
            "/wiki/FC_Smorgon"
          ]
        ],
        [
          "4-0",
          []
        ],
        [
          "2-2",
          []
        ]
      ],
      [
        [
          "Shakhtyor Soligorsk",
          [
            "/wiki/FC_Shakhtyor_Soligorsk"
          ]
        ],
        [
          "10-0",
          []
        ],
        [
          "Kommunalnik Slonim ( II )",
          [
            "/wiki/FC_Kommunalnik_Slonim"
          ]
        ],
        [
          "5-0",
          []
        ],
        [
          "5-0",
          []
        ]
      ],
      [
        [
          "Belshina Bobruisk ( II )",
          [
            "/wiki/FC_Belshina_Bobruisk"
          ]
        ],
        [
          "1-5",
          []
        ],
        [
          "Granit Mikashevichi",
          [
            "/wiki/FC_Granit_Mikashevichi"
          ]
        ],
        [
          "1-4",
          []
        ],
        [
          "0-1",
          []
        ]
      ],
      [
        [
          "Naftan Novopolotsk",
          [
            "/wiki/FC_Naftan_Novopolotsk"
          ]
        ],
        [
          "7-0",
          []
        ],
        [
          "Lokomotiv Minsk",
          [
            "/wiki/FC_SKVICH_Minsk"
          ]
        ],
        [
          "3-0",
          []
        ],
        [
          "4-0",
          []
        ]
      ],
      [
        [
          "Volna Pinsk ( II )",
          [
            "/wiki/FC_Volna_Pinsk"
          ]
        ],
        [
          "2-6",
          []
        ],
        [
          "Gomel",
          [
            "/wiki/FC_Gomel"
          ]
        ],
        [
          "0-2",
          []
        ],
        [
          "2-4",
          []
        ]
      ],
      [
        [
          "Dinamo-Belcard Grodno ( II )",
          [
            "/wiki/FC_Belcard_Grodno"
          ]
        ],
        [
          "1-7",
          []
        ],
        [
          "Neman Grodno",
          [
            "/wiki/FC_Neman_Grodno"
          ]
        ],
        [
          "0-4",
          []
        ],
        [
          "1-3",
          []
        ]
      ],
      [
        [
          "Vitebsk",
          [
            "/wiki/FC_Vitebsk"
          ]
        ],
        [
          "3-2",
          []
        ],
        [
          "Torpedo Zhodino",
          [
            "/wiki/FC_Torpedo-BelAZ_Zhodino"
          ]
        ],
        [
          "0-1",
          []
        ],
        [
          "3-1 ( aet )",
          [
            "/wiki/Overtime_(sports)"
          ]
        ]
      ]
    ],
    "section_title": "Round of 16",
    "section_text": "The games were played as two-legged ties . The first legs were played on October 11 , 12 , 29 and November 4 , 2008 . The second legs were played on November 2 and 20 , 2008 .",
    "uid": "2008\u201309_Belarusian_Cup_0",
    "intro": "2008-09 Belarusian Cup was the eighteenth season of the Belarusian annual cup competition. Contrary to the league season, it was conducted in a fall-spring rhythm. The first games were played on 30 July 2008. Winners of the Cup qualified for the UEFA Europa League second qualifying round."
  },
  "1964\u201365_Lancashire_Cup_0": {
    "url": "https://en.wikipedia.org/wiki/1964\u201365_Lancashire_Cup",
    "title": "1964\u201365 Lancashire Cup",
    "header": [
      [
        "Game No",
        []
      ],
      [
        "Fixture Date",
        []
      ],
      [
        "Home Team",
        []
      ],
      [
        "Score",
        []
      ],
      [
        "Away Team",
        []
      ],
      [
        "Venue",
        []
      ]
    ],
    "data": [
      [
        [
          "1",
          []
        ],
        [
          "Friday 4 September 1964",
          []
        ],
        [
          "Whitehaven",
          [
            "/wiki/Whitehaven_R.L.F.C."
          ]
        ],
        [
          "10-31",
          []
        ],
        [
          "Oldham",
          [
            "/wiki/Oldham_R.L.F.C."
          ]
        ],
        [
          "Recreation Ground",
          [
            "/wiki/Recreation_Ground_(Whitehaven)"
          ]
        ]
      ],
      [
        [
          "2",
          []
        ],
        [
          "Saturday 5 September 1964",
          []
        ],
        [
          "Barrow",
          [
            "/wiki/Barrow_Raiders"
          ]
        ],
        [
          "10-5",
          []
        ],
        [
          "Blackpool Borough",
          [
            "/wiki/Blackpool_Borough"
          ]
        ],
        [
          "Craven Park",
          [
            "/wiki/Craven_Park,_Barrow-in-Furness"
          ]
        ]
      ],
      [
        [
          "3",
          []
        ],
        [
          "Saturday 5 September 1964",
          []
        ],
        [
          "Leigh",
          [
            "/wiki/Leigh_Centurions"
          ]
        ],
        [
          "10-13",
          []
        ],
        [
          "Warrington",
          [
            "/wiki/Warrington_Wolves"
          ]
        ],
        [
          "Hilton Park",
          [
            "/wiki/Hilton_Park_(stadium)"
          ]
        ]
      ],
      [
        [
          "4",
          []
        ],
        [
          "Saturday 5 September 1964",
          []
        ],
        [
          "Liverpool City",
          [
            "/wiki/Liverpool_Stanley"
          ]
        ],
        [
          "11-41",
          []
        ],
        [
          "St. Helens",
          [
            "/wiki/St_Helens_R.F.C."
          ]
        ],
        [
          "Mill Yard , Knotty Ash",
          [
            "/wiki/Knotty_Ash"
          ]
        ]
      ],
      [
        [
          "5",
          []
        ],
        [
          "Saturday 5 September 1964",
          []
        ],
        [
          "Widnes",
          [
            "/wiki/Widnes_Vikings"
          ]
        ],
        [
          "33-0",
          []
        ],
        [
          "Rochdale Hornets",
          [
            "/wiki/Rochdale_Hornets"
          ]
        ],
        [
          "Naughton Park",
          [
            "/wiki/Halton_Stadium"
          ]
        ]
      ],
      [
        [
          "6",
          []
        ],
        [
          "Saturday 5 September 1964",
          []
        ],
        [
          "Wigan",
          [
            "/wiki/Wigan_Warriors"
          ]
        ],
        [
          "36-6",
          []
        ],
        [
          "Salford",
          [
            "/wiki/Salford_Red_Devils"
          ]
        ],
        [
          "Central Park",
          [
            "/wiki/Central_Park_(Wigan)"
          ]
        ]
      ],
      [
        [
          "7",
          []
        ],
        [
          "Saturday 5 September 1964",
          []
        ],
        [
          "Workington Town",
          [
            "/wiki/Workington_Town"
          ]
        ],
        [
          "2-6",
          []
        ],
        [
          "Swinton",
          [
            "/wiki/Swinton_Lions"
          ]
        ],
        [
          "Derwent Park",
          [
            "/wiki/Derwent_Park"
          ]
        ]
      ],
      [
        [
          "8",
          []
        ],
        [
          "",
          []
        ],
        [
          "blank",
          []
        ],
        [
          "",
          []
        ],
        [
          "blank",
          []
        ],
        [
          "",
          []
        ]
      ]
    ],
    "section_title": "Competition and results -- Round 1",
    "section_text": "Involved 7 matches ( with no bye but one \u201c blank \u201d fixture ) and 14 clubs",
    "uid": "1964\u201365_Lancashire_Cup_0",
    "intro": "1964-65 was the fifty-second occasion on which the Lancashire Cup completion had been held. St. Helens won the trophy by beating Swinton by the score of 12-4\nThe match was played at Central Park, Wigan, (historically in the county of Lancashire). The attendance was 17,383 and receipts were \u00a33,393\nThis was the fifth of five consecutive Lancashire Cup final wins for St. Helens, and what is more, the fifth of seven victories in a period of nine successive seasons. It is also the fourth time in the last five years that Swinton have been defeated finalists."
  },
  "1971\u201372_Lancashire_Cup_4": {
    "url": "https://en.wikipedia.org/wiki/1971\u201372_Lancashire_Cup",
    "title": "1971\u201372 Lancashire Cup",
    "header": [
      [
        "Wigan",
        [
          "/wiki/Wigan_Warriors"
        ]
      ],
      [
        "\u2116",
        []
      ],
      [
        "Widnes",
        [
          "/wiki/Widnes_Vikings"
        ]
      ]
    ],
    "data": [
      [
        [
          "Colin Tyrer",
          [
            "/wiki/Colin_Tyrer"
          ]
        ],
        [
          "1",
          []
        ],
        [
          "Ray Dutton",
          [
            "/wiki/Ray_Dutton"
          ]
        ]
      ],
      [
        [
          "Phil Eastham [ 1 ]",
          []
        ],
        [
          "2",
          []
        ],
        [
          "Dennis Brown",
          [
            "/wiki/Dennis_Brown_(rugby_league)"
          ]
        ]
      ],
      [
        [
          "Bill Francis",
          [
            "/wiki/Bill_Francis"
          ]
        ],
        [
          "3",
          []
        ],
        [
          "Mick McLoughlin [ 2 ]",
          []
        ]
      ],
      [
        [
          "Chris Fuller [ 3 ]",
          []
        ],
        [
          "4",
          []
        ],
        [
          "Mal Aspey",
          [
            "/wiki/Mal_Aspey"
          ]
        ]
      ],
      [
        [
          "Stuart Wright",
          [
            "/wiki/Stuart_Wright"
          ]
        ],
        [
          "5",
          []
        ],
        [
          "Johnny Gaydon [ 4 ]",
          []
        ]
      ],
      [
        [
          "David Hill",
          [
            "/wiki/David_Hill_(rugby_league)"
          ]
        ],
        [
          "6",
          []
        ],
        [
          "Dennis O'Neill",
          [
            "/wiki/Dennis_O'Neill_(rugby_league)"
          ]
        ]
      ],
      [
        [
          "Warren Ayres [ 5 ]",
          [
            "/wiki/Warren_Ayres"
          ]
        ],
        [
          "7",
          []
        ],
        [
          "Reg Bowden [ 6 ]",
          [
            "/wiki/Reg_Bowden"
          ]
        ]
      ],
      [
        [
          "Dennis Ashcroft [ 7 ]",
          []
        ],
        [
          "8",
          []
        ],
        [
          "John Warlow",
          [
            "/wiki/John_Warlow"
          ]
        ]
      ],
      [
        [
          "Colin Clarke",
          [
            "/wiki/Colin_Clarke_(rugby_league)"
          ]
        ],
        [
          "9",
          []
        ],
        [
          "John Foran [ 8 ]",
          []
        ]
      ],
      [
        [
          "Geoff Fletcher",
          [
            "/wiki/Geoff_Fletcher"
          ]
        ],
        [
          "10",
          []
        ],
        [
          "Joe Doughty [ 9 ]",
          []
        ]
      ],
      [
        [
          "Bill Ashurst",
          [
            "/wiki/Bill_Ashurst"
          ]
        ],
        [
          "11",
          []
        ],
        [
          "John Kirwan [ 10 ]",
          []
        ]
      ],
      [
        [
          "Kevin O'Loughlin [ 11 ]",
          []
        ],
        [
          "12",
          []
        ],
        [
          "Alan Walsh [ 12 ]",
          []
        ]
      ],
      [
        [
          "Doug Laughton",
          [
            "/wiki/Doug_Laughton"
          ]
        ],
        [
          "13",
          []
        ],
        [
          "George Nicholls",
          [
            "/wiki/George_Nicholls_(rugby_league)"
          ]
        ]
      ],
      [
        [
          "Dave Gandy [ 13 ] ( for Stuart Wright )",
          []
        ],
        [
          "14",
          []
        ],
        [
          "Ged Lowe [ 14 ] ( for Alan Walsh )",
          []
        ]
      ],
      [
        [
          "?",
          []
        ],
        [
          "15",
          []
        ],
        [
          "?",
          []
        ]
      ],
      [
        [
          "Eric Ashton",
          [
            "/wiki/Eric_Ashton"
          ]
        ],
        [
          "Coach",
          []
        ],
        [
          "?",
          []
        ]
      ],
      [
        [
          "15",
          []
        ],
        [
          "score",
          []
        ],
        [
          "8",
          []
        ]
      ],
      [
        [
          "5",
          []
        ],
        [
          "HT",
          []
        ],
        [
          "3",
          []
        ]
      ]
    ],
    "section_title": "Competition and results -- Final",
    "section_text": "[ 2 ] [ 5 ] [ 6 ]",
    "uid": "1971\u201372_Lancashire_Cup_4",
    "intro": "The 1971-72 Lancashire Cup was the fifty-ninth occasion on which the completion had been held. Wigan won the trophy by beating Widnes by the score of 15-8 in the final. The match was played at Knowsley Road, Eccleston, St Helens, (historically in the county of Lancashire). The attendance was 6,970 and receipts were \u00a32,204.00 (the first final after the UK went decimal)"
  },
  "2007\u201308_UCI_Africa_Tour_0": {
    "url": "https://en.wikipedia.org/wiki/2007\u201308_UCI_Africa_Tour",
    "title": "2007\u201308 UCI Africa Tour",
    "header": [
      [
        "Date",
        []
      ],
      [
        "Race Name",
        []
      ],
      [
        "Location",
        []
      ],
      [
        "UCI Rating",
        [
          "/wiki/UCI_race_classifications"
        ]
      ],
      [
        "Winner",
        []
      ],
      [
        "Team",
        []
      ]
    ],
    "data": [
      [
        [
          "5-7 October",
          []
        ],
        [
          "Grand Prix Chantal Biya",
          [
            "/wiki/Grand_Prix_Chantal_Biya"
          ]
        ],
        [
          "Cameroon",
          [
            "/wiki/Cameroon"
          ]
        ],
        [
          "2.2",
          []
        ],
        [
          "Peter Van Agtmaal ( NED )",
          []
        ],
        [
          "CCN Sportswear",
          []
        ]
      ],
      [
        [
          "26 October-4 November",
          []
        ],
        [
          "Tour du Faso",
          [
            "/wiki/Tour_du_Faso"
          ]
        ],
        [
          "Burkina Faso",
          [
            "/wiki/Burkina_Faso"
          ]
        ],
        [
          "2.2",
          []
        ],
        [
          "Adil Jelloul ( MAR )",
          [
            "/wiki/Adil_Jelloul"
          ]
        ],
        [
          "Morocco ( national team )",
          [
            "/wiki/Morocco"
          ]
        ]
      ],
      [
        [
          "29 October-4 November",
          []
        ],
        [
          "Tour des A\u00e9roports",
          [
            "/wiki/Tour_des_A\u00e9roports"
          ]
        ],
        [
          "Tunisia",
          [
            "/wiki/Tunisia"
          ]
        ],
        [
          "2.2",
          []
        ],
        [
          "Ali Ahmed Mohamed ( LBA )",
          []
        ],
        [
          "Libya ( national team )",
          [
            "/wiki/Libya"
          ]
        ]
      ],
      [
        [
          "9 November",
          []
        ],
        [
          "African Continental Championships - Time Trial",
          [
            "/wiki/African_Road_Championships"
          ]
        ],
        [
          "Cameroon",
          [
            "/wiki/Cameroon"
          ]
        ],
        [
          "CC",
          []
        ],
        [
          "Nicholas White ( RSA )",
          [
            "/wiki/Nicholas_White_(South_African_cyclist)"
          ]
        ],
        [
          "South Africa ( national team )",
          [
            "/wiki/South_Africa"
          ]
        ]
      ],
      [
        [
          "11 November",
          []
        ],
        [
          "African Continental Championships - Road Race",
          [
            "/wiki/African_Road_Championships"
          ]
        ],
        [
          "Cameroon",
          [
            "/wiki/Cameroon"
          ]
        ],
        [
          "CC",
          []
        ],
        [
          "Nicholas White ( RSA )",
          [
            "/wiki/Nicholas_White_(South_African_cyclist)"
          ]
        ],
        [
          "South Africa ( national team )",
          [
            "/wiki/South_Africa"
          ]
        ]
      ]
    ],
    "section_title": "Events -- 2007",
    "section_text": "",
    "uid": "2007\u201308_UCI_Africa_Tour_0",
    "intro": "The 2007-08 UCI Africa Tour was the fourth season of the UCI Africa Tour. The season began on 5 October 2007 with the Grand Prix Chantal Biya and ended on 14 September 2008 with the Powerade Dome 2 Dome. The points leader, based on the cumulative results of previous races, wears the UCI Africa Tour cycling jersey. Hassen Ben Nasser from Tunisia was the defending champion of the 2006-07 UCI Africa Tour. Nicholas White of South Africa was crowned as the 2007-08 UCI Africa Tour champion. Throughout the season, points are awarded to the top finishers of stages within stage races and the final general classification standings of each of the stages races and one-day events. The quality and complexity of a race also determines how many points are awarded to the top finishers, the higher the UCI rating of a race, the more points are awarded. The UCI ratings from highest to lowest are as follows:"
  },
  "1982\u201383_Lancashire_Cup_0": {
    "url": "https://en.wikipedia.org/wiki/1982\u201383_Lancashire_Cup",
    "title": "1982\u201383 Lancashire Cup",
    "header": [
      [
        "Game No",
        []
      ],
      [
        "Fixture Date",
        []
      ],
      [
        "Home Team",
        []
      ],
      [
        "Score",
        []
      ],
      [
        "Away Team",
        []
      ],
      [
        "Venue",
        []
      ],
      [
        "Att",
        []
      ]
    ],
    "data": [
      [
        [
          "1",
          []
        ],
        [
          "Sat 04 Sep 1982",
          []
        ],
        [
          "Workington Town",
          [
            "/wiki/Workington_Town"
          ]
        ],
        [
          "12-20",
          []
        ],
        [
          "Barrow",
          [
            "/wiki/Barrow_Raiders"
          ]
        ],
        [
          "Derwent Park",
          [
            "/wiki/Derwent_Park"
          ]
        ],
        [
          "1935",
          []
        ]
      ],
      [
        [
          "2",
          []
        ],
        [
          "Sun 05 Sep 1982",
          []
        ],
        [
          "Carlisle",
          [
            "/wiki/Carlisle_RLFC"
          ]
        ],
        [
          "16-8",
          []
        ],
        [
          "Whitehaven",
          [
            "/wiki/Whitehaven_R.L.F.C."
          ]
        ],
        [
          "Brunton Park",
          [
            "/wiki/Brunton_Park"
          ]
        ],
        [
          "3595",
          []
        ]
      ],
      [
        [
          "3",
          []
        ],
        [
          "Sun 05 Sep 1982",
          []
        ],
        [
          "Leigh",
          [
            "/wiki/Leigh_Centurions"
          ]
        ],
        [
          "32-20",
          []
        ],
        [
          "Rochdale Hornets",
          [
            "/wiki/Rochdale_Hornets"
          ]
        ],
        [
          "Hilton Park",
          [
            "/wiki/Hilton_Park_(stadium)"
          ]
        ],
        [
          "3950",
          []
        ]
      ],
      [
        [
          "4",
          []
        ],
        [
          "Sun 05 Sep 1982",
          []
        ],
        [
          "Wigan",
          [
            "/wiki/Wigan_Warriors"
          ]
        ],
        [
          "18-13",
          []
        ],
        [
          "Salford",
          [
            "/wiki/Salford_Red_Devils"
          ]
        ],
        [
          "Central Park",
          [
            "/wiki/Central_Park_(Wigan)"
          ]
        ],
        [
          "7033",
          []
        ]
      ],
      [
        [
          "5",
          []
        ],
        [
          "Sun 05 Sep 1982",
          []
        ],
        [
          "Blackpool Borough",
          [
            "/wiki/Blackpool_Borough"
          ]
        ],
        [
          "10-27",
          []
        ],
        [
          "Oldham",
          [
            "/wiki/Oldham_R.L.F.C."
          ]
        ],
        [
          "Borough Park",
          []
        ],
        [
          "2013",
          []
        ]
      ],
      [
        [
          "6",
          []
        ],
        [
          "Sun 05 Sep 1982",
          []
        ],
        [
          "Fulham",
          [
            "/wiki/London_Broncos"
          ]
        ],
        [
          "20-8",
          []
        ],
        [
          "Swinton",
          [
            "/wiki/Swinton_Lions"
          ]
        ],
        [
          "Craven Cottage",
          [
            "/wiki/Craven_Cottage"
          ]
        ],
        [
          "2796",
          []
        ]
      ],
      [
        [
          "7",
          []
        ],
        [
          "Sun 05 Sep 1982",
          []
        ],
        [
          "Warrington",
          [
            "/wiki/Warrington_Wolves"
          ]
        ],
        [
          "43-5",
          []
        ],
        [
          "Huyton",
          [
            "/wiki/Liverpool_Stanley"
          ]
        ],
        [
          "Wilderspool",
          [
            "/wiki/Wilderspool_Stadium"
          ]
        ],
        [
          "2042",
          []
        ]
      ],
      [
        [
          "8",
          []
        ],
        [
          "Sun 05 Sep 1982",
          []
        ],
        [
          "Widnes",
          [
            "/wiki/Widnes_Vikings"
          ]
        ],
        [
          "12-14",
          []
        ],
        [
          "St. Helens",
          [
            "/wiki/St_Helens_R.F.C."
          ]
        ],
        [
          "Naughton Park",
          [
            "/wiki/Halton_Stadium"
          ]
        ],
        [
          "6704",
          []
        ]
      ]
    ],
    "section_title": "Competition and Results -- Round 1",
    "section_text": "Involved 8 matches ( with no byes ) and 16 Clubs",
    "uid": "1982\u201383_Lancashire_Cup_0",
    "intro": "1982-83 was the seventieth occasion on which the Lancashire Cup completion had been held. Warrington won the trophy by beating St. Helens by the score of 16-0\nThe match was played at Central Park, Wigan, (historically in the county of Lancashire). The attendance was 6,462 and receipts were \u00a311,732.00"
  },
  "1962\u201363_Lancashire_Cup_4": {
    "url": "https://en.wikipedia.org/wiki/1962\u201363_Lancashire_Cup",
    "title": "1962\u201363 Lancashire Cup",
    "header": [
      [
        "St. Helens",
        [
          "/wiki/St_Helens_R.F.C."
        ]
      ],
      [
        "\u2116",
        []
      ],
      [
        "Swinton",
        [
          "/wiki/Swinton_Lions"
        ]
      ]
    ],
    "data": [
      [
        [
          "Kel Coslett",
          [
            "/wiki/Kel_Coslett"
          ]
        ],
        [
          "1",
          []
        ],
        [
          "Ken Gowers",
          [
            "/wiki/Ken_Gowers"
          ]
        ]
      ],
      [
        [
          "Tom van Vollenhoven",
          [
            "/wiki/Tom_van_Vollenhoven"
          ]
        ],
        [
          "2",
          []
        ],
        [
          "Bernard McMahon",
          []
        ]
      ],
      [
        [
          "John Donovan [ 1 ]",
          []
        ],
        [
          "3",
          []
        ],
        [
          "Frank Halliwell",
          []
        ]
      ],
      [
        [
          "Wilf Smith [ 2 ]",
          []
        ],
        [
          "4",
          []
        ],
        [
          "Alan Buckley",
          [
            "/wiki/Alan_Buckley_(rugby_league)"
          ]
        ]
      ],
      [
        [
          "Mick Sullivan",
          [
            "/wiki/Mick_Sullivan"
          ]
        ],
        [
          "5",
          []
        ],
        [
          "John Speed",
          []
        ]
      ],
      [
        [
          "Billy Benyon",
          [
            "/wiki/Billy_Benyon"
          ]
        ],
        [
          "6",
          []
        ],
        [
          "George Parkinson",
          []
        ]
      ],
      [
        [
          "Jeff Heaton",
          [
            "/wiki/Jeff_Heaton"
          ]
        ],
        [
          "7",
          []
        ],
        [
          "Albert Cartwright",
          []
        ]
      ],
      [
        [
          "Jack Arkwright [ 3 ]",
          []
        ],
        [
          "8",
          []
        ],
        [
          "Ken Roberts",
          [
            "/wiki/Ken_Roberts_(rugby_league)"
          ]
        ]
      ],
      [
        [
          "Bob Dagnall",
          [
            "/wiki/Bob_Dagnall"
          ]
        ],
        [
          "9",
          []
        ],
        [
          "Trevor Roberts",
          []
        ]
      ],
      [
        [
          "Cliff Watson",
          [
            "/wiki/Cliff_Watson"
          ]
        ],
        [
          "10",
          []
        ],
        [
          "Ron Morgan",
          [
            "/wiki/Ronald_Morgan"
          ]
        ]
      ],
      [
        [
          "John Tembey",
          [
            "/wiki/John_Tembey"
          ]
        ],
        [
          "11",
          []
        ],
        [
          "Peter Norburn",
          [
            "/wiki/Peter_Norburn"
          ]
        ]
      ],
      [
        [
          "Dick Huddart",
          [
            "/wiki/Dick_Huddart"
          ]
        ],
        [
          "12",
          []
        ],
        [
          "Dick Bonser",
          []
        ]
      ],
      [
        [
          "Bill Major [ 4 ]",
          []
        ],
        [
          "13",
          []
        ],
        [
          "Albert Blan ( c )",
          [
            "/wiki/Albert_Blan",
            "/wiki/Captain_(sports)"
          ]
        ]
      ],
      [
        [
          "7",
          []
        ],
        [
          "score",
          []
        ],
        [
          "4",
          []
        ]
      ],
      [
        [
          "7",
          []
        ],
        [
          "HT",
          []
        ],
        [
          "0",
          []
        ]
      ],
      [
        [
          "Tom van Vollenhoven ( 1 )",
          []
        ],
        [
          "T",
          []
        ],
        [
          "",
          []
        ]
      ]
    ],
    "section_title": "Competition and results -- Final",
    "section_text": "[ 2 ] [ 8 ]",
    "uid": "1962\u201363_Lancashire_Cup_4",
    "intro": "1962-63 was the fiftieth occasion on which the Lancashire Cup completion had been held. St. Helens won the trophy by beating Swinton by the score of 7-4\nThe match was played at Central Park, Wigan, (historically in the county of Lancashire). The attendance was 23,523 and receipts were \u00a34,122\nThis was the third of five consecutive Lancashire Cup final wins for St. Helens, and what is more, the third of the seven occasions on which the club will win the trophy in the nine-year period. It was also the third of Swintons three successive Lancashire Cup final runner-up positions."
  },
  "2009\u201310_UCI_Africa_Tour_5": {
    "url": "https://en.wikipedia.org/wiki/2009\u201310_UCI_Africa_Tour",
    "title": "2009\u201310 UCI Africa Tour",
    "header": [
      [
        "Rank",
        []
      ],
      [
        "Nation under-23",
        []
      ],
      [
        "Points",
        []
      ]
    ],
    "data": [
      [
        [
          "1",
          []
        ],
        [
          "Eritrea",
          [
            "/wiki/Eritrea"
          ]
        ],
        [
          "216",
          []
        ]
      ],
      [
        [
          "2",
          []
        ],
        [
          "South Africa",
          [
            "/wiki/South_Africa"
          ]
        ],
        [
          "95.66",
          []
        ]
      ],
      [
        [
          "3",
          []
        ],
        [
          "Tunisia",
          [
            "/wiki/Tunisia"
          ]
        ],
        [
          "56",
          []
        ]
      ],
      [
        [
          "4",
          []
        ],
        [
          "Burkina Faso",
          [
            "/wiki/Burkina_Faso"
          ]
        ],
        [
          "44",
          []
        ]
      ],
      [
        [
          "5",
          []
        ],
        [
          "Namibia",
          [
            "/wiki/Namibia"
          ]
        ],
        [
          "21",
          []
        ]
      ],
      [
        [
          "6",
          []
        ],
        [
          "Cameroon",
          [
            "/wiki/Cameroon"
          ]
        ],
        [
          "15",
          []
        ]
      ],
      [
        [
          "7",
          []
        ],
        [
          "Zambia",
          [
            "/wiki/Zambia"
          ]
        ],
        [
          "12",
          []
        ]
      ],
      [
        [
          "8",
          []
        ],
        [
          "Zimbabwe",
          [
            "/wiki/Zimbabwe"
          ]
        ],
        [
          "12",
          []
        ]
      ],
      [
        [
          "9",
          []
        ],
        [
          "Ivory Coast",
          [
            "/wiki/Ivory_Coast"
          ]
        ],
        [
          "10.66",
          []
        ]
      ],
      [
        [
          "10",
          []
        ],
        [
          "Libya",
          [
            "/wiki/Libya"
          ]
        ],
        [
          "7.66",
          []
        ]
      ]
    ],
    "section_title": "Nation under-23 classification",
    "section_text": "",
    "uid": "2009\u201310_UCI_Africa_Tour_5",
    "intro": "The 2009-10 UCI Africa Tour was the sixth season of the UCI Africa Tour. The season began on 1 October 2009 with the Grand Prix Chantal Biya and ended on 21 May 2010 with the Tour of Eritrea. The points leader, based on the cumulative results of previous races, wears the UCI Africa Tour cycling jersey. Dan Craven of Namibia was the defending champion of the 2008-09 UCI Africa Tour. Abdelatif Saadoune of Morocco was crowned as the 2009-10 UCI Africa Tour champion. Throughout the season, points are awarded to the top finishers of stages within stage races and the final general classification standings of each of the stages races and one-day events. The quality and complexity of a race also determines how many points are awarded to the top finishers, the higher the UCI rating of a race, the more points are awarded. The UCI ratings from highest to lowest are as follows:"
  },
  "2007\u201308_Lebanese_FA_Cup_3": {
    "url": "https://en.wikipedia.org/wiki/2007\u201308_Lebanese_FA_Cup",
    "title": "2007\u201308 Lebanese FA Cup",
    "header": [
      [
        "Date",
        []
      ],
      [
        "Home team",
        []
      ],
      [
        "Score",
        []
      ],
      [
        "Away team",
        []
      ]
    ],
    "data": [
      [
        [
          "November 19 , 2007",
          []
        ],
        [
          "Mawadda Tripoli",
          []
        ],
        [
          "0-1",
          []
        ],
        [
          "Al-Bourj FC",
          [
            "/wiki/Bourj_FC"
          ]
        ]
      ],
      [
        [
          "November 20 , 2007",
          []
        ],
        [
          "Salam Zgharta",
          [
            "/wiki/Salam_Zgharta_FC"
          ]
        ],
        [
          "14-1",
          []
        ],
        [
          "Al-Mahabba Tripoli",
          []
        ]
      ],
      [
        [
          "November 21 , 2007",
          []
        ],
        [
          "Shams Ba'albek",
          []
        ],
        [
          "0-2",
          []
        ],
        [
          "Al-Rayyan",
          [
            "/wiki/Rayyan_Sarafand"
          ]
        ]
      ],
      [
        [
          "November 21 , 2007",
          []
        ],
        [
          "Akhaa Ahli Aley",
          []
        ],
        [
          "2-0",
          []
        ],
        [
          "Al-Ahli Nabatieh",
          []
        ]
      ],
      [
        [
          "November 27 , 2007",
          []
        ],
        [
          "Homenmen Beirut",
          [
            "/wiki/Homenmen_AA_Beirut"
          ]
        ],
        [
          "4-3",
          []
        ],
        [
          "Ijtimai Tripoli",
          []
        ]
      ],
      [
        [
          "November 27 , 2007",
          []
        ],
        [
          "Al-Asla B.H",
          []
        ],
        [
          "1-2",
          []
        ],
        [
          "Riyadi Al-Abbassieh",
          []
        ]
      ],
      [
        [
          "November 28 , 2007",
          []
        ],
        [
          "Nahaza Ber Al-Ya'as",
          []
        ],
        [
          "4-2",
          []
        ],
        [
          "Homenetmen Beirut",
          [
            "/wiki/Homenetmen_Beirut_FC"
          ]
        ]
      ],
      [
        [
          "November 28 , 2007",
          []
        ],
        [
          "Shabab Al-Ghazieh",
          []
        ],
        [
          "2-3 ( a.e.t )",
          [
            "/wiki/Overtime_(sports)"
          ]
        ],
        [
          "Al-Tadamon Beirut",
          []
        ]
      ]
    ],
    "section_title": "Qualifying Stage -- Semifinal Round",
    "section_text": "",
    "uid": "2007\u201308_Lebanese_FA_Cup_3",
    "intro": "The 2007-08 Lebanese FA Cup was the 36th running of the national cup for Lebanese football. The cup winners were guaranteed a place in the 2009 AFC Cup."
  },
  "1937\u201338_Lancashire_Cup_0": {
    "url": "https://en.wikipedia.org/wiki/1937\u201338_Lancashire_Cup",
    "title": "1937\u201338 Lancashire Cup",
    "header": [
      [
        "Game No",
        []
      ],
      [
        "Fixture Date",
        []
      ],
      [
        "Home Team",
        []
      ],
      [
        "Score",
        []
      ],
      [
        "Away Team",
        []
      ],
      [
        "Venue",
        []
      ]
    ],
    "data": [
      [
        [
          "1",
          []
        ],
        [
          "Sat 11 Sep 1937",
          []
        ],
        [
          "Barrow",
          [
            "/wiki/Barrow_Raiders"
          ]
        ],
        [
          "11-2",
          []
        ],
        [
          "St Helens Recs",
          [
            "/wiki/St_Helens_Recreation_RLFC"
          ]
        ],
        [
          "Craven Park",
          [
            "/wiki/Craven_Park,_Barrow-in-Furness"
          ]
        ]
      ],
      [
        [
          "2",
          []
        ],
        [
          "Sat 11 Sep 1937",
          []
        ],
        [
          "Leigh",
          [
            "/wiki/Leigh_Centurions"
          ]
        ],
        [
          "18-3",
          []
        ],
        [
          "Rochdale Hornets",
          [
            "/wiki/Rochdale_Hornets"
          ]
        ],
        [
          "Mather Lane",
          [
            "/wiki/Hilton_Park_(stadium)"
          ]
        ]
      ],
      [
        [
          "3",
          []
        ],
        [
          "Sat 11 Sep 1937",
          []
        ],
        [
          "Oldham",
          [
            "/wiki/Oldham_R.L.F.C."
          ]
        ],
        [
          "2-4",
          []
        ],
        [
          "Warrington",
          [
            "/wiki/Warrington_Wolves"
          ]
        ],
        [
          "Watersheddings",
          [
            "/wiki/Watersheddings"
          ]
        ]
      ],
      [
        [
          "4",
          []
        ],
        [
          "Sat 11 Sep 1937",
          []
        ],
        [
          "St. Helens",
          [
            "/wiki/St_Helens_R.F.C."
          ]
        ],
        [
          "0-11",
          []
        ],
        [
          "Broughton Rangers",
          [
            "/wiki/Broughton_Rangers"
          ]
        ],
        [
          "Knowsley Road",
          [
            "/wiki/Knowsley_Road"
          ]
        ]
      ],
      [
        [
          "5",
          []
        ],
        [
          "Sat 11 Sep 1937",
          []
        ],
        [
          "Salford",
          [
            "/wiki/Salford_Red_Devils"
          ]
        ],
        [
          "2-3",
          []
        ],
        [
          "Widnes",
          [
            "/wiki/Widnes_Vikings"
          ]
        ],
        [
          "The Willows",
          [
            "/wiki/The_Willows,_Salford"
          ]
        ]
      ],
      [
        [
          "6",
          []
        ],
        [
          "Sat 11 Sep 1937",
          []
        ],
        [
          "Swinton",
          [
            "/wiki/Swinton_Lions"
          ]
        ],
        [
          "9-9",
          []
        ],
        [
          "Wigan",
          [
            "/wiki/Wigan_Warriors"
          ]
        ],
        [
          "Station Road",
          [
            "/wiki/Station_Road,_Swinton"
          ]
        ]
      ],
      [
        [
          "7",
          []
        ],
        [
          "",
          []
        ],
        [
          "Liverpool Stanley",
          [
            "/wiki/Liverpool_Stanley"
          ]
        ],
        [
          "",
          []
        ],
        [
          "bye",
          []
        ],
        [
          "",
          []
        ]
      ],
      [
        [
          "8",
          []
        ],
        [
          "",
          []
        ],
        [
          "blank",
          []
        ],
        [
          "",
          []
        ],
        [
          "blank",
          []
        ],
        [
          "",
          []
        ]
      ]
    ],
    "section_title": "Competition and Results -- Round 1",
    "section_text": "Involved 6 matches ( with one bye and one \u201c blank \u201d fixture ) and 13 clubs",
    "uid": "1937\u201338_Lancashire_Cup_0",
    "intro": "1937-38 was the thirtieth occasion on which the Lancashire Cup completion had been held. Warrington won the trophy by beating Barrow by 8-4. The match was played at Central Park, Wigan, (historically in the county of Lancashire). The attendance was 14,000 and receipts were \u00a3800."
  },
  "2009\u201310_Eerste_Divisie_0": {
    "url": "https://en.wikipedia.org/wiki/2009\u201310_Eerste_Divisie",
    "title": "2009\u201310 Eerste Divisie",
    "header": [
      [
        "Club",
        []
      ],
      [
        "Location",
        []
      ],
      [
        "Venue",
        []
      ],
      [
        "Capacity",
        []
      ]
    ],
    "data": [
      [
        [
          "AGOVV Apeldoorn",
          [
            "/wiki/AGOVV_Apeldoorn"
          ]
        ],
        [
          "Apeldoorn",
          [
            "/wiki/Apeldoorn"
          ]
        ],
        [
          "Sportpark Berg & Bos",
          [
            "/wiki/Sportpark_Berg_&_Bos"
          ]
        ],
        [
          "3,259",
          []
        ]
      ],
      [
        [
          "BV Veendam",
          [
            "/wiki/SC_Veendam"
          ]
        ],
        [
          "Veendam",
          [
            "/wiki/Veendam"
          ]
        ],
        [
          "De Langeleegte",
          [
            "/wiki/De_Langeleegte"
          ]
        ],
        [
          "6,500",
          []
        ]
      ],
      [
        [
          "De Graafschap",
          [
            "/wiki/De_Graafschap"
          ]
        ],
        [
          "Doetinchem",
          [
            "/wiki/Doetinchem"
          ]
        ],
        [
          "De Vijverberg",
          [
            "/wiki/De_Vijverberg"
          ]
        ],
        [
          "12,600",
          []
        ]
      ],
      [
        [
          "Excelsior",
          [
            "/wiki/SBV_Excelsior"
          ]
        ],
        [
          "Rotterdam",
          [
            "/wiki/Rotterdam"
          ]
        ],
        [
          "Woudestein",
          [
            "/wiki/Van_Donge_&_De_Roo_Stadion"
          ]
        ],
        [
          "3,531",
          []
        ]
      ],
      [
        [
          "FC Den Bosch",
          [
            "/wiki/FC_Den_Bosch"
          ]
        ],
        [
          "'s-Hertogenbosch",
          [
            "/wiki/'s-Hertogenbosch"
          ]
        ],
        [
          "De Vliert",
          [
            "/wiki/De_Vliert"
          ]
        ],
        [
          "9,000",
          []
        ]
      ],
      [
        [
          "FC Dordrecht",
          [
            "/wiki/FC_Dordrecht"
          ]
        ],
        [
          "Dordrecht",
          [
            "/wiki/Dordrecht"
          ]
        ],
        [
          "GN Bouw Stadion",
          [
            "/wiki/GN_Bouw_Stadion"
          ]
        ],
        [
          "4,077",
          []
        ]
      ],
      [
        [
          "FC Eindhoven",
          [
            "/wiki/FC_Eindhoven"
          ]
        ],
        [
          "Eindhoven",
          [
            "/wiki/Eindhoven"
          ]
        ],
        [
          "Jan Louwers Stadion",
          [
            "/wiki/Jan_Louwers_Stadion"
          ]
        ],
        [
          "4,600",
          []
        ]
      ],
      [
        [
          "FC Emmen",
          [
            "/wiki/FC_Emmen"
          ]
        ],
        [
          "Emmen",
          [
            "/wiki/Emmen,_Netherlands"
          ]
        ],
        [
          "Univ\u00e9 Stadion",
          [
            "/wiki/De_Oude_Meerdijk"
          ]
        ],
        [
          "8,600",
          []
        ]
      ],
      [
        [
          "FC Omniworld",
          [
            "/wiki/Almere_City_FC"
          ]
        ],
        [
          "Almere",
          [
            "/wiki/Almere"
          ]
        ],
        [
          "Mitsubishi Forklift Stadion",
          [
            "/wiki/Yanmar_Stadion"
          ]
        ],
        [
          "3,000 ( 2,500 seats )",
          []
        ]
      ],
      [
        [
          "FC Oss",
          [
            "/wiki/TOP_Oss"
          ]
        ],
        [
          "Oss",
          [
            "/wiki/Oss"
          ]
        ],
        [
          "TOP Oss Stadion",
          [
            "/wiki/Frans_Heesen_Stadion"
          ]
        ],
        [
          "4,700",
          []
        ]
      ],
      [
        [
          "FC Volendam",
          [
            "/wiki/FC_Volendam"
          ]
        ],
        [
          "Volendam",
          [
            "/wiki/Volendam"
          ]
        ],
        [
          "Kras Stadion",
          [
            "/wiki/Kras_Stadion"
          ]
        ],
        [
          "6,984",
          []
        ]
      ],
      [
        [
          "FC Zwolle",
          [
            "/wiki/PEC_Zwolle"
          ]
        ],
        [
          "Zwolle",
          [
            "/wiki/Zwolle"
          ]
        ],
        [
          "Oosterenk Stadion",
          [
            "/wiki/Oosterenkstadion"
          ]
        ],
        [
          "10,000",
          []
        ]
      ],
      [
        [
          "Fortuna Sittard",
          [
            "/wiki/Fortuna_Sittard"
          ]
        ],
        [
          "Sittard",
          [
            "/wiki/Sittard"
          ]
        ],
        [
          "Wagner & Partners Stadion",
          [
            "/wiki/Fortuna_Sittard_Stadion"
          ]
        ],
        [
          "12,500",
          []
        ]
      ],
      [
        [
          "Go Ahead Eagles",
          [
            "/wiki/Go_Ahead_Eagles"
          ]
        ],
        [
          "Deventer",
          [
            "/wiki/Deventer"
          ]
        ],
        [
          "Adelaarshorst",
          [
            "/wiki/De_Adelaarshorst"
          ]
        ],
        [
          "6,750",
          []
        ]
      ],
      [
        [
          "Helmond Sport",
          [
            "/wiki/Helmond_Sport"
          ]
        ],
        [
          "Helmond",
          [
            "/wiki/Helmond"
          ]
        ],
        [
          "Stadion De Braak",
          [
            "/wiki/Stadion_De_Braak"
          ]
        ],
        [
          "4,100",
          []
        ]
      ],
      [
        [
          "HFC Haarlem",
          [
            "/wiki/HFC_Haarlem"
          ]
        ],
        [
          "Haarlem",
          [
            "/wiki/Haarlem"
          ]
        ],
        [
          "Haarlem Stadion",
          [
            "/wiki/Haarlem_Stadion"
          ]
        ],
        [
          "3,442",
          []
        ]
      ],
      [
        [
          "MVV",
          [
            "/wiki/MVV_Maastricht"
          ]
        ],
        [
          "Maastricht",
          [
            "/wiki/Maastricht"
          ]
        ],
        [
          "De Geusselt",
          [
            "/wiki/De_Geusselt"
          ]
        ],
        [
          "10,000",
          []
        ]
      ],
      [
        [
          "RBC",
          [
            "/wiki/RBC_Roosendaal"
          ]
        ],
        [
          "Roosendaal",
          [
            "/wiki/Roosendaal"
          ]
        ],
        [
          "RBC Stadion",
          [
            "/wiki/RBC_Stadion"
          ]
        ],
        [
          "4,995",
          []
        ]
      ],
      [
        [
          "SC Cambuur-Leeuwarden",
          [
            "/wiki/SC_Cambuur"
          ]
        ],
        [
          "Leeuwarden",
          [
            "/wiki/Leeuwarden"
          ]
        ],
        [
          "Cambuur Stadion",
          [
            "/wiki/Cambuur_Stadion"
          ]
        ],
        [
          "10,250",
          []
        ]
      ],
      [
        [
          "Telstar",
          [
            "/wiki/SC_Telstar"
          ]
        ],
        [
          "Velsen",
          [
            "/wiki/Velsen"
          ]
        ],
        [
          "Schoonenberg Stadion",
          [
            "/wiki/Rabobank_IJmond_Stadion"
          ]
        ],
        [
          "3,250",
          []
        ]
      ]
    ],
    "section_title": "Teams overview -- Venues",
    "section_text": "AGOVVCambuurDen BoschDordrechtEindhovenEmmenExcelsiorFortuna SittardGo Ahead EaglesDe GraafschapHaarlemHelmond SportMVVOmniworldFC OssRBCTelstarVeendamVolendamZwolle Location of teams in the Eerste Divisie 2009-2010",
    "uid": "2009\u201310_Eerste_Divisie_0",
    "intro": "The Eerste Divisie 2009-10 is the 54th season of the Eerste Divisie since its establishment in 1956. Last year's winners were VVV-Venlo; they, with runner-up RKC Waalwijk, after a promotion/relegation playoff win over De Graafschap, were promoted to the Eredivisie. Twenty teams take part in the 2009-2010 season: eighteen from the 2008-2009 season and relegated teams FC Volendam and De Graafschap. The season's champion will be promoted to the Eredivisie, while eight other teams, the second- through fifth-place finishers and period winners, will face the Eredivisie's sixteenth- and seventeenth-place finishers in promotion/relegation playoffs. For the first time since 1971, Eerste Divisie clubs will also face relegation; the last- and second-to-last-place teams will relegated to the new Topklasse, in which will play the best teams from Dutch amateur football. The 2009-10 Eerste Divisie is sponsored by the Belgian beer brand Jupiler and so the official name of the league is Jupiler League. The league started with twenty teams, but was reduced to nineteen in January 2010 following the disbandment of debt-ridden HFC Haarlem. All league games involving HFC Haarlem were cancelled and the number of team that will be relegated was consequently reduced to one."
  },
  "1908\u201309_Lancashire_Cup_4": {
    "url": "https://en.wikipedia.org/wiki/1908\u201309_Lancashire_Cup",
    "title": "1908\u201309 Lancashire Cup",
    "header": [
      [
        "Wigan",
        [
          "/wiki/Wigan_Warriors"
        ]
      ],
      [
        "\u2116",
        []
      ],
      [
        "Oldham",
        [
          "/wiki/Oldham_R.L.F.C."
        ]
      ]
    ],
    "data": [
      [
        [
          "Jim Sharrock",
          [
            "/wiki/Jim_Sharrock"
          ]
        ],
        [
          "1",
          []
        ],
        [
          "Alf Wood",
          [
            "/wiki/Alf_Wood_(rugby)"
          ]
        ]
      ],
      [
        [
          "Jim Leytham",
          [
            "/wiki/Jim_Leytham"
          ]
        ],
        [
          "2",
          []
        ],
        [
          "George Tyson",
          [
            "/wiki/George_Tyson_(1900s_rugby_league)"
          ]
        ]
      ],
      [
        [
          "Bert Jenkins",
          [
            "/wiki/Bert_Jenkins"
          ]
        ],
        [
          "3",
          []
        ],
        [
          "George William Smith",
          [
            "/wiki/George_William_Smith_(sportsman)"
          ]
        ]
      ],
      [
        [
          "Lance Todd",
          [
            "/wiki/Lance_Todd"
          ]
        ],
        [
          "4",
          []
        ],
        [
          "Tom Llewellyn",
          [
            "/wiki/Tom_Llewellyn"
          ]
        ]
      ],
      [
        [
          "Joe Miller",
          [
            "/wiki/Joe_Miller_(rugby_league)"
          ]
        ],
        [
          "5",
          []
        ],
        [
          "George Cook",
          [
            "/wiki/George_Cook_(rugby_league)"
          ]
        ]
      ],
      [
        [
          "Johnny Thomas",
          [
            "/wiki/Johnny_Thomas_(rugby)"
          ]
        ],
        [
          "6",
          []
        ],
        [
          "Tom White",
          [
            "/wiki/Tom_White_(rugby)"
          ]
        ]
      ],
      [
        [
          "Fred Gleave",
          [
            "/wiki/Frederick_Gleave"
          ]
        ],
        [
          "7",
          []
        ],
        [
          "William Bill y Dixon",
          []
        ]
      ],
      [
        [
          "Jack Barton",
          [
            "/wiki/Jack_Barton"
          ]
        ],
        [
          "8",
          []
        ],
        [
          "Albert Avery",
          [
            "/wiki/Albert_Avery"
          ]
        ]
      ],
      [
        [
          "Walter Cheetham",
          []
        ],
        [
          "9",
          []
        ],
        [
          "Joe Ferguson",
          [
            "/wiki/Joe_Ferguson_(rugby_league)"
          ]
        ]
      ],
      [
        [
          "Massa Johnston",
          [
            "/wiki/Massa_Johnston"
          ]
        ],
        [
          "10",
          []
        ],
        [
          "Bill Longworth",
          [
            "/wiki/Bill_Longworth_(rugby_league)"
          ]
        ]
      ],
      [
        [
          "Dick Ramsdale",
          [
            "/wiki/Dick_Ramsdale"
          ]
        ],
        [
          "11",
          []
        ],
        [
          "William Bill y Nansen",
          []
        ]
      ],
      [
        [
          "Dick Silcock",
          [
            "/wiki/Dick_Silcock"
          ]
        ],
        [
          "12",
          []
        ],
        [
          "Arthur Smith",
          [
            "/wiki/Arthur_Smith_(rugby)"
          ]
        ]
      ],
      [
        [
          "Thomas Whittaker",
          [
            "/wiki/Thomas_Whittaker_(rugby_league)"
          ]
        ],
        [
          "13",
          []
        ],
        [
          "James Jim my Wright",
          []
        ]
      ],
      [
        [
          "10",
          []
        ],
        [
          "score",
          []
        ],
        [
          "9",
          []
        ]
      ],
      [
        [
          "5",
          []
        ],
        [
          "HT",
          []
        ],
        [
          "7",
          []
        ]
      ],
      [
        [
          "Massa Johnston ( 1 )",
          []
        ],
        [
          "T",
          []
        ],
        [
          "George Cook ( 1 )",
          []
        ]
      ],
      [
        [
          "Johnny Thomas ( 1 )",
          []
        ],
        [
          "T",
          []
        ],
        [
          "",
          []
        ]
      ]
    ],
    "section_title": "Competition and Results -- Final",
    "section_text": "",
    "uid": "1908\u201309_Lancashire_Cup_4",
    "intro": "The 1908-09 Lancashire Cup was the fourth year for this regional rugby league competition and saw a final between two previous cup winners. The cup was won by Wigan who beat Oldham in the final at Wheater's Field, Broughton, Salford, by a score of 10-9. The attendance for the final was 20,000 and receipts \u00a3600."
  }
}