{
  "1975\u201376_Lancashire_Cup_0": {
    "url": "https://en.wikipedia.org/wiki/1975\u201376_Lancashire_Cup",
    "title": "1975\u201376 Lancashire Cup",
    "header": [
      [
        "Game No",
        []
      ],
      [
        "Fixture Date",
        []
      ],
      [
        "Home Team",
        []
      ],
      [
        "Score",
        []
      ],
      [
        "Away Team",
        []
      ],
      [
        "Venue",
        []
      ]
    ],
    "data": [
      [
        [
          "1",
          []
        ],
        [
          "Sat 30 Aug 1975",
          []
        ],
        [
          "Oldham",
          [
            "/wiki/Oldham_R.L.F.C."
          ]
        ],
        [
          "17-19",
          []
        ],
        [
          "St. Helens",
          [
            "/wiki/St_Helens_R.F.C."
          ]
        ],
        [
          "Watersheddings",
          [
            "/wiki/Watersheddings"
          ]
        ]
      ],
      [
        [
          "2",
          []
        ],
        [
          "Sun 31 Aug 1975",
          []
        ],
        [
          "Barrow",
          [
            "/wiki/Barrow_Raiders"
          ]
        ],
        [
          "9-14",
          []
        ],
        [
          "Swinton",
          [
            "/wiki/Swinton_Lions"
          ]
        ],
        [
          "Craven Park",
          [
            "/wiki/Craven_Park,_Barrow-in-Furness"
          ]
        ]
      ],
      [
        [
          "3",
          []
        ],
        [
          "Sun 31 Aug 1975",
          []
        ],
        [
          "Blackpool Borough",
          [
            "/wiki/Blackpool_Borough"
          ]
        ],
        [
          "3-11",
          []
        ],
        [
          "Leigh",
          [
            "/wiki/Leigh_Centurions"
          ]
        ],
        [
          "Borough Park",
          []
        ]
      ],
      [
        [
          "4",
          []
        ],
        [
          "Sun 31 Aug 1975",
          []
        ],
        [
          "Rochdale Hornets",
          [
            "/wiki/Rochdale_Hornets"
          ]
        ],
        [
          "10-22",
          []
        ],
        [
          "Workington Town",
          [
            "/wiki/Workington_Town"
          ]
        ],
        [
          "Athletic Grounds",
          [
            "/wiki/Athletic_Grounds,_Rochdale"
          ]
        ]
      ],
      [
        [
          "5",
          []
        ],
        [
          "Sun 31 Aug 1975",
          []
        ],
        [
          "Salford",
          [
            "/wiki/Salford_Red_Devils"
          ]
        ],
        [
          "44-17",
          []
        ],
        [
          "Huyton",
          [
            "/wiki/Liverpool_Stanley"
          ]
        ],
        [
          "The Willows",
          [
            "/wiki/The_Willows,_Salford"
          ]
        ]
      ],
      [
        [
          "6",
          []
        ],
        [
          "Sun 31 Aug 1975",
          []
        ],
        [
          "Warrington",
          [
            "/wiki/Warrington_Wolves"
          ]
        ],
        [
          "14-39",
          []
        ],
        [
          "Wigan",
          [
            "/wiki/Wigan_Warriors"
          ]
        ],
        [
          "Wilderspool",
          [
            "/wiki/Wilderspool_Stadium"
          ]
        ]
      ],
      [
        [
          "7",
          []
        ],
        [
          "Sun 31 Aug 1975",
          []
        ],
        [
          "Widnes",
          [
            "/wiki/Widnes_Vikings"
          ]
        ],
        [
          "19-7",
          []
        ],
        [
          "Whitehaven",
          [
            "/wiki/Whitehaven_R.L.F.C."
          ]
        ],
        [
          "Naughton Park",
          [
            "/wiki/Halton_Stadium"
          ]
        ]
      ],
      [
        [
          "8",
          []
        ],
        [
          "",
          []
        ],
        [
          "blank",
          []
        ],
        [
          "",
          []
        ],
        [
          "blank",
          []
        ],
        [
          "",
          []
        ]
      ]
    ],
    "section_title": "Competition and Results -- Round 1",
    "section_text": "Involved 7 matches ( with one \u201c blank \u201d fixture ) and 14 Clubs",
    "uid": "1975\u201376_Lancashire_Cup_0",
    "intro": "1975-76 was the sixty-third occasion on which the Lancashire Cup completion had been held. Widnes won the trophy by beating Salford by the score of 16-7\nThe match was played at Central Park, Wigan, (historically in the county of Lancashire). The attendance was 7,566 and receipts were \u00a33,880.00"
  },
  "1964\u201365_Lancashire_Cup_4": {
    "url": "https://en.wikipedia.org/wiki/1964\u201365_Lancashire_Cup",
    "title": "1964\u201365 Lancashire Cup",
    "header": [
      [
        "St. Helens",
        [
          "/wiki/St_Helens_R.F.C."
        ]
      ],
      [
        "\u2116",
        []
      ],
      [
        "Swinton",
        [
          "/wiki/Swinton_Lions"
        ]
      ]
    ],
    "data": [
      [
        [
          "Frank Barrow",
          []
        ],
        [
          "1",
          []
        ],
        [
          "Ken Gowers ( c )",
          [
            "/wiki/Ken_Gowers",
            "/wiki/Captain_(sports)"
          ]
        ]
      ],
      [
        [
          "Tom Pimblett",
          []
        ],
        [
          "2",
          []
        ],
        [
          "David Harries",
          []
        ]
      ],
      [
        [
          "Keith Northey",
          []
        ],
        [
          "3",
          []
        ],
        [
          "Bob Fleet",
          []
        ]
      ],
      [
        [
          "Billy Benyon",
          [
            "/wiki/Billy_Benyon"
          ]
        ],
        [
          "4",
          []
        ],
        [
          "Alan Buckley",
          [
            "/wiki/Alan_Buckley_(rugby_league)"
          ]
        ]
      ],
      [
        [
          "Len Killeen",
          [
            "/wiki/Len_Killeen"
          ]
        ],
        [
          "5",
          []
        ],
        [
          "John Speed",
          []
        ]
      ],
      [
        [
          "Peter Harvey",
          []
        ],
        [
          "6",
          []
        ],
        [
          "George Parkinson",
          []
        ]
      ],
      [
        [
          "Alex Murphy",
          [
            "/wiki/Alex_Murphy_(rugby_league)"
          ]
        ],
        [
          "7",
          []
        ],
        [
          "Graham Williams",
          [
            "/wiki/Graham_Williams_(rugby_league)"
          ]
        ]
      ],
      [
        [
          "John Tembey",
          [
            "/wiki/John_Tembey"
          ]
        ],
        [
          "8",
          []
        ],
        [
          "Harold Bate",
          []
        ]
      ],
      [
        [
          "Bob Dagnall",
          [
            "/wiki/Bob_Dagnall"
          ]
        ],
        [
          "9",
          []
        ],
        [
          "Derek Clarke",
          []
        ]
      ],
      [
        [
          "John Warlow",
          [
            "/wiki/John_Warlow"
          ]
        ],
        [
          "10",
          []
        ],
        [
          "Ken Halliwell",
          []
        ]
      ],
      [
        [
          "Ray French",
          [
            "/wiki/Ray_French"
          ]
        ],
        [
          "11",
          []
        ],
        [
          "Graham Rees",
          [
            "/wiki/Graham_Rees"
          ]
        ]
      ],
      [
        [
          "Mervyn Hicks",
          [
            "/wiki/Merv_Hicks"
          ]
        ],
        [
          "12",
          []
        ],
        [
          "Barry Simpson",
          []
        ]
      ],
      [
        [
          "Doug Laughton",
          [
            "/wiki/Doug_Laughton"
          ]
        ],
        [
          "13",
          []
        ],
        [
          "Derek Hurt",
          []
        ]
      ],
      [
        [
          "Tony Barrow ( non-playing substitute )",
          [
            "/wiki/Tony_Barrow_(rugby_league,_born_1944)",
            "/wiki/Substitution_(sport)"
          ]
        ],
        [
          "14",
          []
        ],
        [
          "Billy Davies",
          [
            "/wiki/Billy_Davies_(rugby_league,_born_1948)"
          ]
        ]
      ],
      [
        [
          "Cliff Watson",
          [
            "/wiki/Cliff_Watson"
          ]
        ],
        [
          "15",
          []
        ],
        [
          "Albert Cartwright",
          []
        ]
      ],
      [
        [
          "12",
          []
        ],
        [
          "score",
          []
        ],
        [
          "4",
          []
        ]
      ],
      [
        [
          "5",
          []
        ],
        [
          "HT",
          []
        ],
        [
          "0",
          []
        ]
      ]
    ],
    "section_title": "Competition and results -- Final",
    "section_text": "",
    "uid": "1964\u201365_Lancashire_Cup_4",
    "intro": "1964-65 was the fifty-second occasion on which the Lancashire Cup completion had been held. St. Helens won the trophy by beating Swinton by the score of 12-4\nThe match was played at Central Park, Wigan, (historically in the county of Lancashire). The attendance was 17,383 and receipts were \u00a33,393\nThis was the fifth of five consecutive Lancashire Cup final wins for St. Helens, and what is more, the fifth of seven victories in a period of nine successive seasons. It is also the fourth time in the last five years that Swinton have been defeated finalists."
  },
  "2008\u201309_UCI_Africa_Tour_2": {
    "url": "https://en.wikipedia.org/wiki/2008\u201309_UCI_Africa_Tour",
    "title": "2008\u201309 UCI Africa Tour",
    "header": [
      [
        "Rank",
        []
      ],
      [
        "Name",
        []
      ],
      [
        "Points",
        []
      ]
    ],
    "data": [
      [
        [
          "1",
          []
        ],
        [
          "Dan Craven ( NAM )",
          [
            "/wiki/Dan_Craven"
          ]
        ],
        [
          "123",
          []
        ]
      ],
      [
        [
          "2",
          []
        ],
        [
          "Jamie Ball ( RSA )",
          [
            "/wiki/Jamie_Ball"
          ]
        ],
        [
          "123",
          []
        ]
      ],
      [
        [
          "3",
          []
        ],
        [
          "Guy Smet ( BEL )",
          [
            "/wiki/Guy_Smet"
          ]
        ],
        [
          "92",
          []
        ]
      ],
      [
        [
          "4",
          []
        ],
        [
          "Jay Robert Thomson ( RSA )",
          [
            "/wiki/Jay_Thomson"
          ]
        ],
        [
          "89",
          []
        ]
      ],
      [
        [
          "5",
          []
        ],
        [
          "Filipe Cardoso ( POR )",
          [
            "/wiki/Filipe_Cardoso"
          ]
        ],
        [
          "87",
          []
        ]
      ],
      [
        [
          "6",
          []
        ],
        [
          "Sadrak Teguimaha ( CMR )",
          []
        ],
        [
          "79",
          []
        ]
      ],
      [
        [
          "7",
          []
        ],
        [
          "Daryl Impey ( RSA )",
          [
            "/wiki/Daryl_Impey"
          ]
        ],
        [
          "78",
          []
        ]
      ],
      [
        [
          "8",
          []
        ],
        [
          "Joeri Calleeuw ( BEL )",
          [
            "/wiki/Joeri_Calleeuw"
          ]
        ],
        [
          "77",
          []
        ]
      ],
      [
        [
          "9",
          []
        ],
        [
          "Alexandr Dymovskikh ( KAZ )",
          [
            "/wiki/Alexandr_Dymovskikh"
          ]
        ],
        [
          "76",
          []
        ]
      ],
      [
        [
          "10",
          []
        ],
        [
          "Hassan Zahboune ( MAR )",
          []
        ],
        [
          "75",
          []
        ]
      ]
    ],
    "section_title": "Individual classification",
    "section_text": "",
    "uid": "2008\u201309_UCI_Africa_Tour_2",
    "intro": "The 2008-09 UCI Africa Tour was the fifth season of the UCI Africa Tour. The season began on 2 October 2008 with the Grand Prix Chantal Biya and ended on 19 April 2009 with the Tour du Maroc. The points leader, based on the cumulative results of previous races, wears the UCI Africa Tour cycling jersey. Nicholas White of South Africa was the defending champion of the 2007-08 UCI Africa Tour. Dan Craven of Namibia was crowned as the 2008-09 UCI Africa Tour champion. Throughout the season, points are awarded to the top finishers of stages within stage races and the final general classification standings of each of the stages races and one-day events. The quality and complexity of a race also determines how many points are awarded to the top finishers, the higher the UCI rating of a race, the more points are awarded. The UCI ratings from highest to lowest are as follows:"
  },
  "Oberliga_S\u00fcd_(1945\u201363)_0": {
    "url": "https://en.wikipedia.org/wiki/Oberliga_S\u00fcd_(1945\u201363)",
    "title": "Oberliga S\u00fcd (1945\u201363)",
    "header": [
      [
        "Rank",
        []
      ],
      [
        "Club",
        []
      ],
      [
        "Points 1952 to 1963",
        []
      ],
      [
        "Place in 1962-63",
        [
          "/wiki/1962\u201363_Oberliga"
        ]
      ]
    ],
    "data": [
      [
        [
          "1",
          []
        ],
        [
          "1 . FC N\u00fcrnberg",
          [
            "/wiki/1._FC_N\u00fcrnberg"
          ]
        ],
        [
          "447",
          []
        ],
        [
          "2",
          []
        ]
      ],
      [
        [
          "2",
          []
        ],
        [
          "Eintracht Frankfurt",
          [
            "/wiki/Eintracht_Frankfurt"
          ]
        ],
        [
          "420",
          []
        ],
        [
          "4",
          []
        ]
      ],
      [
        [
          "3",
          []
        ],
        [
          "Karlsruher SC",
          [
            "/wiki/Karlsruher_SC"
          ]
        ],
        [
          "419",
          []
        ],
        [
          "5",
          []
        ]
      ],
      [
        [
          "4",
          []
        ],
        [
          "VfB Stuttgart",
          [
            "/wiki/VfB_Stuttgart"
          ]
        ],
        [
          "408",
          []
        ],
        [
          "6",
          []
        ]
      ],
      [
        [
          "5",
          []
        ],
        [
          "Kickers Offenbach",
          [
            "/wiki/Kickers_Offenbach"
          ]
        ],
        [
          "382",
          []
        ],
        [
          "7",
          []
        ]
      ],
      [
        [
          "6",
          []
        ],
        [
          "FC Bayern Munich",
          [
            "/wiki/FC_Bayern_Munich"
          ]
        ],
        [
          "288",
          []
        ],
        [
          "3",
          []
        ]
      ],
      [
        [
          "7",
          []
        ],
        [
          "TSV 1860 Munich",
          [
            "/wiki/TSV_1860_Munich"
          ]
        ],
        [
          "229",
          []
        ],
        [
          "1",
          []
        ]
      ],
      [
        [
          "8",
          []
        ],
        [
          "VfR Mannheim",
          [
            "/wiki/VfR_Mannheim"
          ]
        ],
        [
          "227",
          []
        ],
        [
          "12",
          []
        ]
      ],
      [
        [
          "9",
          []
        ],
        [
          "SpVgg F\u00fcrth",
          [
            "/wiki/SpVgg_Greuther_F\u00fcrth"
          ]
        ],
        [
          "224",
          []
        ],
        [
          "9",
          []
        ]
      ],
      [
        [
          "10",
          []
        ],
        [
          "1 . FC Schweinfurt 05",
          [
            "/wiki/1._FC_Schweinfurt_05"
          ]
        ],
        [
          "185",
          []
        ],
        [
          "11",
          []
        ]
      ],
      [
        [
          "11",
          []
        ],
        [
          "FC Bayern Hof",
          [
            "/wiki/SpVgg_Bayern_Hof"
          ]
        ],
        [
          "90",
          []
        ],
        [
          "13",
          []
        ]
      ],
      [
        [
          "12",
          []
        ],
        [
          "TSV Schwaben Augsburg",
          [
            "/wiki/TSV_Schwaben_Augsburg"
          ]
        ],
        [
          "61",
          []
        ],
        [
          "15",
          []
        ]
      ],
      [
        [
          "13",
          []
        ],
        [
          "KSV Hessen Kassel",
          [
            "/wiki/KSV_Hessen_Kassel"
          ]
        ],
        [
          "36",
          []
        ],
        [
          "10",
          []
        ]
      ]
    ],
    "section_title": "Qualifying for the Bundesliga",
    "section_text": "The qualifying system for the new league was fairly complex . The league placings of the clubs playing in the Oberligen for the last ten seasons were taken into consideration , whereby results from 1952 to 1955 counted once , results from 1955 to 1959 counted double and results from 1959 to 1963 triple . A first-place finish was awarded 16 points , a sixteenth place one point . Appearances in the German championship or DFB-Pokal finals were also rewarded with points . The five Oberliga champions of the 1962\u201363 season were granted direct access to the Bundesliga . All up , 46 clubs applied for the 16 available Bundesliga slots . Following this system , by 11 January 1963 , the DFB announced nine fixed clubs for the new league and reduced the clubs eligible for the remaining seven places to 20 . Clubs within the same Oberliga that were separated by less than 50 points were considered on equal rank and the 1962-63 placing was used to determine the qualified team . [ 3 ] Of the thirteen clubs from this league applying , the 1 . FC N\u00fcrnberg and Eintracht Frankfurt qualified early . Karlsruher SC and VfB Stuttgart held third and fourth place in the overall points ranking . Kickers Offenbach and FC Bayern Munich missed out to TSV 1860 Munich due to the latter winning the league in 1962\u201363 even though 1860 were 153 points behind Offenbach and 59 behind FC Bayern . [ 4 ] Points table :",
    "uid": "Oberliga_S\u00fcd_(1945\u201363)_0",
    "intro": "The Oberliga S\u00fcd () was the southernmost of the five Oberligen, the regional leagues forming the top level of association football in West Germany from 1945 until the formation of the Bundesliga in 1963. Oberliga S\u00fcd covered the southern three German states of Bavaria, Baden-W\u00fcrttemberg and Hesse."
  },
  "2015\u201316_Eerste_Divisie_1": {
    "url": "https://en.wikipedia.org/wiki/2015\u201316_Eerste_Divisie",
    "title": "2015\u201316 Eerste Divisie",
    "header": [
      [
        "Club",
        []
      ],
      [
        "Manager",
        []
      ],
      [
        "Kit manufacturer",
        []
      ],
      [
        "Sponsors",
        []
      ]
    ],
    "data": [
      [
        [
          "Achilles '29",
          [
            "/wiki/Achilles_'29"
          ]
        ],
        [
          "Eric Meijers",
          [
            "/wiki/Eric_Meijers"
          ]
        ],
        [
          "Klupp",
          []
        ],
        [
          "Van Helden Relatiegeschenken",
          []
        ]
      ],
      [
        [
          "Jong Ajax",
          [
            "/wiki/Jong_Ajax"
          ]
        ],
        [
          "Jaap Stam",
          [
            "/wiki/Jaap_Stam"
          ]
        ],
        [
          "Adidas",
          [
            "/wiki/Adidas"
          ]
        ],
        [
          "Ziggo",
          [
            "/wiki/Ziggo"
          ]
        ]
      ],
      [
        [
          "Almere City",
          [
            "/wiki/Almere_City_FC"
          ]
        ],
        [
          "Jack de Gier",
          [
            "/wiki/Jack_de_Gier"
          ]
        ],
        [
          "Adidas",
          []
        ],
        [
          "Van Wijnen",
          []
        ]
      ],
      [
        [
          "Den Bosch",
          [
            "/wiki/FC_Den_Bosch"
          ]
        ],
        [
          "Ren\u00e9 van Eck",
          [
            "/wiki/Ren\u00e9_van_Eck"
          ]
        ],
        [
          "Macron",
          [
            "/wiki/Macron_(sportswear)"
          ]
        ],
        [
          "Van Wanrooij",
          []
        ]
      ],
      [
        [
          "Dordrecht",
          [
            "/wiki/FC_Dordrecht"
          ]
        ],
        [
          "Harry van den Ham",
          []
        ],
        [
          "Macron",
          []
        ],
        [
          "Riwal Hoogwerkers",
          []
        ]
      ],
      [
        [
          "Eindhoven",
          [
            "/wiki/FC_Eindhoven"
          ]
        ],
        [
          "Mitchell van der Gaag",
          [
            "/wiki/Mitchell_van_der_Gaag"
          ]
        ],
        [
          "Joma",
          [
            "/wiki/Joma"
          ]
        ],
        [
          "VDL Groep",
          [
            "/wiki/VDL_Groep"
          ]
        ]
      ],
      [
        [
          "Emmen",
          [
            "/wiki/FC_Emmen"
          ]
        ],
        [
          "Gert Heerkes",
          [
            "/wiki/Gert_Heerkes"
          ]
        ],
        [
          "Robey",
          []
        ],
        [
          "Q & S Gartendeco",
          []
        ]
      ],
      [
        [
          "Fortuna Sittard",
          [
            "/wiki/Fortuna_Sittard"
          ]
        ],
        [
          "Ben van Dael",
          []
        ],
        [
          "Macron",
          []
        ],
        [
          "Fitland",
          []
        ]
      ],
      [
        [
          "Go Ahead Eagles",
          [
            "/wiki/Go_Ahead_Eagles"
          ]
        ],
        [
          "Hans de Koning",
          [
            "/wiki/Hans_de_Koning"
          ]
        ],
        [
          "Hummel",
          [
            "/wiki/Hummel_International"
          ]
        ],
        [
          "Drukwerkdeal",
          []
        ]
      ],
      [
        [
          "Helmond Sport",
          [
            "/wiki/Helmond_Sport"
          ]
        ],
        [
          "Remond Strijbosch",
          []
        ],
        [
          "Hummel",
          []
        ],
        [
          "Vescom",
          []
        ]
      ],
      [
        [
          "MVV",
          [
            "/wiki/MVV_Maastricht"
          ]
        ],
        [
          "Ron Elsen",
          []
        ],
        [
          "Masita",
          []
        ],
        [
          "Drink Water",
          []
        ]
      ],
      [
        [
          "NAC",
          [
            "/wiki/NAC_Breda"
          ]
        ],
        [
          "Marinus Dijkhuizen",
          [
            "/wiki/Marinus_Dijkhuizen"
          ]
        ],
        [
          "Legea",
          [
            "/wiki/Legea"
          ]
        ],
        [
          "cm . Payments",
          []
        ]
      ],
      [
        [
          "Oss",
          [
            "/wiki/TOP_Oss"
          ]
        ],
        [
          "Reinier Robbemond",
          [
            "/wiki/Reinier_Robbemond"
          ]
        ],
        [
          "Erima",
          []
        ],
        [
          "NGSN",
          []
        ]
      ],
      [
        [
          "Jong PSV",
          [
            "/wiki/Jong_PSV"
          ]
        ],
        [
          "Pascal Jansen",
          []
        ],
        [
          "Umbro",
          [
            "/wiki/Umbro"
          ]
        ],
        [
          "Philips",
          [
            "/wiki/Philips"
          ]
        ]
      ],
      [
        [
          "RKC Waalwijk",
          [
            "/wiki/RKC_Waalwijk"
          ]
        ],
        [
          "Peter van den Berg",
          []
        ],
        [
          "Hummel",
          []
        ],
        [
          "Mandemakers Keukens",
          []
        ]
      ],
      [
        [
          "Sparta Rotterdam",
          [
            "/wiki/Sparta_Rotterdam"
          ]
        ],
        [
          "Alex Pastoor",
          [
            "/wiki/Alex_Pastoor"
          ]
        ],
        [
          "Robey",
          []
        ],
        [
          "Axidus",
          []
        ]
      ],
      [
        [
          "Telstar",
          [
            "/wiki/SC_Telstar"
          ]
        ],
        [
          "Michel Vonk",
          [
            "/wiki/Michel_Vonk"
          ]
        ],
        [
          "Hummel",
          []
        ],
        [
          "MPM Oil",
          []
        ]
      ],
      [
        [
          "Volendam",
          [
            "/wiki/FC_Volendam"
          ]
        ],
        [
          "Robert Molenaar",
          [
            "/wiki/Robert_Molenaar"
          ]
        ],
        [
          "Jako",
          [
            "/wiki/Jako"
          ]
        ],
        [
          "HSB",
          []
        ]
      ],
      [
        [
          "VVV-Venlo",
          [
            "/wiki/VVV-Venlo"
          ]
        ],
        [
          "Maurice Steijn",
          [
            "/wiki/Maurice_Steijn"
          ]
        ],
        [
          "Masita",
          []
        ],
        [
          "Seacon Logistics",
          []
        ]
      ]
    ],
    "section_title": "Teams -- Personnel and kits",
    "section_text": "",
    "uid": "2015\u201316_Eerste_Divisie_1",
    "intro": "The 2015-16 Eerste Divisie, known as Jupiler League for sponsorship reasons, is the sixtieth season of Eerste Divisie since its establishment in 1955. It began in August 2015 with the first matches of the season and will end in May 2016 with the returns of the finals of the promotion/relegation play-offs, involving also the 16th- and 17th-placed teams from the 2015-16 Eredivisie. This season was the last where promotion and relegation are optional. No club will be relegated to the new third-tier division Tweede Divisie (Second Division). This change in the league system was approved in a KNVB assembly in December 2014. Thus, the Topklasse and leagues below it will decrement by one level, and furthermore, promotion and relegation between the Eerste Divisie and Tweede Divisie will be mandatory from 2016-17."
  },
  "1984\u201385_Lancashire_Cup_0": {
    "url": "https://en.wikipedia.org/wiki/1984\u201385_Lancashire_Cup",
    "title": "1984\u201385 Lancashire Cup",
    "header": [
      [
        "Game No",
        []
      ],
      [
        "Fixture Date",
        []
      ],
      [
        "Home Team",
        []
      ],
      [
        "Score",
        []
      ],
      [
        "Away Team",
        []
      ],
      [
        "Venue",
        []
      ],
      [
        "Att",
        []
      ]
    ],
    "data": [
      [
        [
          "1",
          []
        ],
        [
          "Fri 14 Sep 1984",
          []
        ],
        [
          "St. Helens",
          [
            "/wiki/St_Helens_R.F.C."
          ]
        ],
        [
          "58-14",
          []
        ],
        [
          "Huyton",
          [
            "/wiki/Liverpool_Stanley"
          ]
        ],
        [
          "Knowsley Road",
          [
            "/wiki/Knowsley_Road"
          ]
        ],
        [
          "2766",
          []
        ]
      ],
      [
        [
          "2",
          []
        ],
        [
          "Sun 16 Sep 1984",
          []
        ],
        [
          "Barrow",
          [
            "/wiki/Barrow_Raiders"
          ]
        ],
        [
          "38-4",
          []
        ],
        [
          "Carlisle",
          [
            "/wiki/Carlisle_RLFC"
          ]
        ],
        [
          "Craven Park",
          [
            "/wiki/Craven_Park,_Barrow-in-Furness"
          ]
        ],
        [
          "2563",
          []
        ]
      ],
      [
        [
          "3",
          []
        ],
        [
          "Sun 16 Sep 1984",
          []
        ],
        [
          "Fulham",
          [
            "/wiki/London_Broncos"
          ]
        ],
        [
          "18-25",
          []
        ],
        [
          "Swinton",
          [
            "/wiki/Swinton_Lions"
          ]
        ],
        [
          "Station Road",
          [
            "/wiki/Station_Road,_Swinton"
          ]
        ],
        [
          "1545",
          []
        ]
      ],
      [
        [
          "4",
          []
        ],
        [
          "Sun 16 Sep 1984",
          []
        ],
        [
          "Leigh",
          [
            "/wiki/Leigh_Centurions"
          ]
        ],
        [
          "22-14",
          []
        ],
        [
          "Warrington",
          [
            "/wiki/Warrington_Wolves"
          ]
        ],
        [
          "Hilton Park",
          [
            "/wiki/Hilton_Park_(stadium)"
          ]
        ],
        [
          "5500",
          []
        ]
      ],
      [
        [
          "5",
          []
        ],
        [
          "Sun 16 Sep 1984",
          []
        ],
        [
          "Oldham",
          [
            "/wiki/Oldham_R.L.F.C."
          ]
        ],
        [
          "26-32",
          []
        ],
        [
          "Blackpool Borough",
          [
            "/wiki/Blackpool_Borough"
          ]
        ],
        [
          "Watersheddings",
          [
            "/wiki/Watersheddings"
          ]
        ],
        [
          "3366",
          []
        ]
      ],
      [
        [
          "6",
          []
        ],
        [
          "Sun 16 Sep 1984",
          []
        ],
        [
          "Salford",
          [
            "/wiki/Salford_Red_Devils"
          ]
        ],
        [
          "19-14",
          []
        ],
        [
          "Whitehaven",
          [
            "/wiki/Whitehaven_R.L.F.C."
          ]
        ],
        [
          "The Willows",
          [
            "/wiki/The_Willows,_Salford"
          ]
        ],
        [
          "1700",
          []
        ]
      ],
      [
        [
          "7",
          []
        ],
        [
          "Sun 16 Sep 1984",
          []
        ],
        [
          "Wigan",
          [
            "/wiki/Wigan_Warriors"
          ]
        ],
        [
          "28-8",
          []
        ],
        [
          "Widnes",
          [
            "/wiki/Widnes_Vikings"
          ]
        ],
        [
          "Central Park",
          [
            "/wiki/Central_Park_(Wigan)"
          ]
        ],
        [
          "10117",
          []
        ]
      ],
      [
        [
          "8",
          []
        ],
        [
          "Sun 16 Sep 1984",
          []
        ],
        [
          "Workington Town",
          [
            "/wiki/Workington_Town"
          ]
        ],
        [
          "0-11",
          []
        ],
        [
          "Rochdale Hornets",
          [
            "/wiki/Rochdale_Hornets"
          ]
        ],
        [
          "Derwent Park",
          [
            "/wiki/Derwent_Park"
          ]
        ],
        [
          "659",
          []
        ]
      ]
    ],
    "section_title": "Competition and results -- Round 1",
    "section_text": "Involved 8 matches ( with no byes ) and 16 Clubs",
    "uid": "1984\u201385_Lancashire_Cup_0",
    "intro": "1984-85 was the seventy-second occasion on which the Lancashire Cup completion had been held. St. Helens won the trophy by beating Wigan by the score of 26-18\nThe match was played at Central Park, Wigan, (historically in the county of Lancashire). The attendance was 26,074 and receipts were \u00a36,2139.00\nThis was the first time in over twenty years that the attendance exceeded 20,000, and it would continue around this level for the next four seasons. The receipts climbed from last years near-record \u00a313,160.00 to \u00a362,139."
  },
  "1957\u201358_Lancashire_Cup_0": {
    "url": "https://en.wikipedia.org/wiki/1957\u201358_Lancashire_Cup",
    "title": "1957\u201358 Lancashire Cup",
    "header": [
      [
        "Game No",
        []
      ],
      [
        "Fixture Date",
        []
      ],
      [
        "Home Team",
        []
      ],
      [
        "Score",
        []
      ],
      [
        "Away Team",
        []
      ],
      [
        "Venue",
        []
      ]
    ],
    "data": [
      [
        [
          "1",
          []
        ],
        [
          "Sat 31 Aug 1957",
          []
        ],
        [
          "Blackpool Borough",
          [
            "/wiki/Blackpool_Borough"
          ]
        ],
        [
          "9-4",
          []
        ],
        [
          "Widnes",
          [
            "/wiki/Widnes_Vikings"
          ]
        ],
        [
          "St Anne 's Road Greyhound Stadium",
          []
        ]
      ],
      [
        [
          "2",
          []
        ],
        [
          "Sat 31 Aug 1957",
          []
        ],
        [
          "Oldham",
          [
            "/wiki/Oldham_R.L.F.C."
          ]
        ],
        [
          "44-10",
          []
        ],
        [
          "Barrow",
          [
            "/wiki/Barrow_Raiders"
          ]
        ],
        [
          "Watersheddings",
          [
            "/wiki/Watersheddings"
          ]
        ]
      ],
      [
        [
          "3",
          []
        ],
        [
          "Sat 31 Aug 1957",
          []
        ],
        [
          "Leigh",
          [
            "/wiki/Leigh_Centurions"
          ]
        ],
        [
          "28-9",
          []
        ],
        [
          "Whitehaven",
          [
            "/wiki/Whitehaven_R.L.F.C."
          ]
        ],
        [
          "Kirkhall Lane",
          [
            "/wiki/Hilton_Park_(stadium)"
          ]
        ]
      ],
      [
        [
          "4",
          []
        ],
        [
          "Sat 31 Aug 1957",
          []
        ],
        [
          "Salford",
          [
            "/wiki/Salford_Red_Devils"
          ]
        ],
        [
          "6-12",
          []
        ],
        [
          "Rochdale Hornets",
          [
            "/wiki/Rochdale_Hornets"
          ]
        ],
        [
          "The Willows",
          [
            "/wiki/The_Willows,_Salford"
          ]
        ]
      ],
      [
        [
          "5",
          []
        ],
        [
          "Sat 31 Aug 1957",
          []
        ],
        [
          "Swinton",
          [
            "/wiki/Swinton_Lions"
          ]
        ],
        [
          "10-18",
          []
        ],
        [
          "Wigan",
          [
            "/wiki/Wigan_Warriors"
          ]
        ],
        [
          "Station Road",
          [
            "/wiki/Station_Road,_Swinton"
          ]
        ]
      ],
      [
        [
          "6",
          []
        ],
        [
          "Sat 31 Aug 1957",
          []
        ],
        [
          "Warrington",
          [
            "/wiki/Warrington_Wolves"
          ]
        ],
        [
          "50-19",
          []
        ],
        [
          "Liverpool City",
          [
            "/wiki/Liverpool_Stanley"
          ]
        ],
        [
          "Wilderspool",
          [
            "/wiki/Wilderspool_Stadium"
          ]
        ]
      ],
      [
        [
          "7",
          []
        ],
        [
          "Sat 31 Aug 1957",
          []
        ],
        [
          "Workington Town",
          [
            "/wiki/Workington_Town"
          ]
        ],
        [
          "12-16",
          []
        ],
        [
          "St. Helens",
          [
            "/wiki/St_Helens_R.F.C."
          ]
        ],
        [
          "Derwent Park",
          [
            "/wiki/Derwent_Park"
          ]
        ]
      ],
      [
        [
          "8",
          []
        ],
        [
          "",
          []
        ],
        [
          "blank",
          []
        ],
        [
          "",
          []
        ],
        [
          "blank",
          []
        ],
        [
          "",
          []
        ]
      ]
    ],
    "section_title": "Competition and results -- Round 1",
    "section_text": "Involved 7 matches ( with no bye but one \u201c blank \u201d fixture ) and 14 clubs",
    "uid": "1957\u201358_Lancashire_Cup_0",
    "intro": "1957-58 was the forty-fifth occasion on which the Lancashire Cup completion had been held. Oldham won the trophy by beating Wigan by the score of 13-8\nThe match was played at Station Road, Pendlebury, (historically in the county of Lancashire). Another excellent attendance, this season of 42,497 was achieved and the receipts were \u00a36,918\nThis was the second of Oldham's three consecutive triumphs. 1958 would be the last time they would win the trophy, although they did later appear 4 times as runners-up (in 1966, 1969, 1987 and 1989)."
  },
  "2007\u201308_UCI_Africa_Tour_4": {
    "url": "https://en.wikipedia.org/wiki/2007\u201308_UCI_Africa_Tour",
    "title": "2007\u201308 UCI Africa Tour",
    "header": [
      [
        "Rank",
        []
      ],
      [
        "Nation",
        []
      ],
      [
        "Points",
        []
      ]
    ],
    "data": [
      [
        [
          "1",
          []
        ],
        [
          "South Africa",
          [
            "/wiki/South_Africa"
          ]
        ],
        [
          "1434",
          []
        ]
      ],
      [
        [
          "2",
          []
        ],
        [
          "Tunisia",
          [
            "/wiki/Tunisia"
          ]
        ],
        [
          "512",
          []
        ]
      ],
      [
        [
          "3",
          []
        ],
        [
          "Algeria",
          [
            "/wiki/Algeria"
          ]
        ],
        [
          "404",
          []
        ]
      ],
      [
        [
          "4",
          []
        ],
        [
          "Morocco",
          [
            "/wiki/Morocco"
          ]
        ],
        [
          "343",
          []
        ]
      ],
      [
        [
          "5",
          []
        ],
        [
          "Burkina Faso",
          [
            "/wiki/Burkina_Faso"
          ]
        ],
        [
          "330",
          []
        ]
      ],
      [
        [
          "6",
          []
        ],
        [
          "Namibia",
          [
            "/wiki/Namibia"
          ]
        ],
        [
          "225",
          []
        ]
      ],
      [
        [
          "7",
          []
        ],
        [
          "Cameroon",
          [
            "/wiki/Cameroon"
          ]
        ],
        [
          "209",
          []
        ]
      ],
      [
        [
          "8",
          []
        ],
        [
          "Libya",
          [
            "/wiki/Libya"
          ]
        ],
        [
          "143",
          []
        ]
      ],
      [
        [
          "9",
          []
        ],
        [
          "Lesotho",
          [
            "/wiki/Lesotho"
          ]
        ],
        [
          "137",
          []
        ]
      ],
      [
        [
          "10",
          []
        ],
        [
          "Mauritius",
          [
            "/wiki/Mauritius"
          ]
        ],
        [
          "130",
          []
        ]
      ]
    ],
    "section_title": "Nation classification",
    "section_text": "",
    "uid": "2007\u201308_UCI_Africa_Tour_4",
    "intro": "The 2007-08 UCI Africa Tour was the fourth season of the UCI Africa Tour. The season began on 5 October 2007 with the Grand Prix Chantal Biya and ended on 14 September 2008 with the Powerade Dome 2 Dome. The points leader, based on the cumulative results of previous races, wears the UCI Africa Tour cycling jersey. Hassen Ben Nasser from Tunisia was the defending champion of the 2006-07 UCI Africa Tour. Nicholas White of South Africa was crowned as the 2007-08 UCI Africa Tour champion. Throughout the season, points are awarded to the top finishers of stages within stage races and the final general classification standings of each of the stages races and one-day events. The quality and complexity of a race also determines how many points are awarded to the top finishers, the higher the UCI rating of a race, the more points are awarded. The UCI ratings from highest to lowest are as follows:"
  },
  "1959\u201360_Lancashire_Cup_5": {
    "url": "https://en.wikipedia.org/wiki/1959\u201360_Lancashire_Cup",
    "title": "1959\u201360 Lancashire Cup",
    "header": [
      [
        "Warrington",
        [
          "/wiki/Warrington_Wolves"
        ]
      ],
      [
        "\u2116",
        []
      ],
      [
        "St. Helens",
        [
          "/wiki/St_Helens_R.F.C."
        ]
      ]
    ],
    "data": [
      [
        [
          "Eric Fraser",
          [
            "/wiki/Eric_Fraser_(rugby_league)"
          ]
        ],
        [
          "1",
          []
        ],
        [
          "Austin Rhodes",
          [
            "/wiki/Austin_Rhodes"
          ]
        ]
      ],
      [
        [
          "Brian Bevan",
          [
            "/wiki/Brian_Bevan"
          ]
        ],
        [
          "2",
          []
        ],
        [
          "Tom van Vollenhoven",
          [
            "/wiki/Tom_van_Vollenhoven"
          ]
        ]
      ],
      [
        [
          "Jim Challinor ( position uncertain )",
          [
            "/wiki/Jim_Challinor"
          ]
        ],
        [
          "3",
          []
        ],
        [
          "Doug Greenall",
          [
            "/wiki/Doug_Greenall"
          ]
        ]
      ],
      [
        [
          "Albert Naughton ( position uncertain )",
          [
            "/wiki/Albert_Naughton"
          ]
        ],
        [
          "4",
          []
        ],
        [
          "Brian McGinn [ 1 ]",
          []
        ]
      ],
      [
        [
          "",
          []
        ],
        [
          "5",
          []
        ],
        [
          "Jan Prinsloo",
          [
            "/wiki/Jan_Prinsloo"
          ]
        ]
      ],
      [
        [
          "Bobby Greenough",
          [
            "/wiki/Bobby_Greenough"
          ]
        ],
        [
          "6",
          []
        ],
        [
          "Wilf Smith [ 2 ]",
          []
        ]
      ],
      [
        [
          "",
          []
        ],
        [
          "7",
          []
        ],
        [
          "Alex Murphy",
          [
            "/wiki/Alex_Murphy_(rugby_league)"
          ]
        ]
      ],
      [
        [
          "Nat Silcock , Jr. ( position uncertain )",
          [
            "/wiki/Nat_Silcock_Jr."
          ]
        ],
        [
          "8",
          []
        ],
        [
          "Abe Terry",
          [
            "/wiki/Abe_Terry"
          ]
        ]
      ],
      [
        [
          "",
          []
        ],
        [
          "9",
          []
        ],
        [
          "Tom McKinney",
          [
            "/wiki/Tom_McKinney"
          ]
        ]
      ],
      [
        [
          "Alistair Brindle",
          []
        ],
        [
          "10",
          []
        ],
        [
          "Alan Prescott",
          [
            "/wiki/Alan_Prescott"
          ]
        ]
      ],
      [
        [
          "",
          []
        ],
        [
          "11",
          []
        ],
        [
          "Brian Briggs",
          [
            "/wiki/Brian_Briggs"
          ]
        ]
      ],
      [
        [
          "",
          []
        ],
        [
          "12",
          []
        ],
        [
          "Dick Huddart",
          [
            "/wiki/Dick_Huddart"
          ]
        ]
      ],
      [
        [
          "",
          []
        ],
        [
          "13",
          []
        ],
        [
          "Fred Terry [ 3 ]",
          []
        ]
      ],
      [
        [
          "5",
          []
        ],
        [
          "score",
          []
        ],
        [
          "4",
          []
        ]
      ],
      [
        [
          "5",
          []
        ],
        [
          "HT",
          []
        ],
        [
          "4",
          []
        ]
      ],
      [
        [
          "Brian Bevan ( 1 )",
          []
        ],
        [
          "T",
          []
        ],
        [
          "",
          []
        ]
      ]
    ],
    "section_title": "Competition and results -- Final",
    "section_text": "",
    "uid": "1959\u201360_Lancashire_Cup_5",
    "intro": "The 1959-60 Lancashire Cup was the forty-seventh occasion on which the competition had been held. Warrington won the trophy by beating St. Helens by the score of 5-4."
  },
  "1966\u201367_Lancashire_Cup_0": {
    "url": "https://en.wikipedia.org/wiki/1966\u201367_Lancashire_Cup",
    "title": "1966\u201367 Lancashire Cup",
    "header": [
      [
        "Game No",
        []
      ],
      [
        "Fixture Date",
        []
      ],
      [
        "Home Team",
        []
      ],
      [
        "Score",
        []
      ],
      [
        "Away Team",
        []
      ],
      [
        "Venue",
        []
      ]
    ],
    "data": [
      [
        [
          "1",
          []
        ],
        [
          "Fri 02 Sep 1966",
          []
        ],
        [
          "Widnes",
          [
            "/wiki/Widnes_Vikings"
          ]
        ],
        [
          "26-13",
          []
        ],
        [
          "Barrow",
          [
            "/wiki/Barrow_Raiders"
          ]
        ],
        [
          "Naughton Park",
          [
            "/wiki/Halton_Stadium"
          ]
        ]
      ],
      [
        [
          "2",
          []
        ],
        [
          "Sat 03 Sep 1966",
          []
        ],
        [
          "Leigh",
          [
            "/wiki/Leigh_Centurions"
          ]
        ],
        [
          "4-18",
          []
        ],
        [
          "Wigan",
          [
            "/wiki/Wigan_Warriors"
          ]
        ],
        [
          "Hilton Park",
          [
            "/wiki/Hilton_Park_(stadium)"
          ]
        ]
      ],
      [
        [
          "3",
          []
        ],
        [
          "Sat 03 Sep 1966",
          []
        ],
        [
          "Oldham",
          [
            "/wiki/Oldham_R.L.F.C."
          ]
        ],
        [
          "16-13",
          []
        ],
        [
          "Swinton",
          [
            "/wiki/Swinton_Lions"
          ]
        ],
        [
          "Watersheddings",
          [
            "/wiki/Watersheddings"
          ]
        ]
      ],
      [
        [
          "4",
          []
        ],
        [
          "Sat 03 Sep 1966",
          []
        ],
        [
          "Rochdale Hornets",
          [
            "/wiki/Rochdale_Hornets"
          ]
        ],
        [
          "16-18",
          []
        ],
        [
          "St. Helens",
          [
            "/wiki/St_Helens_R.F.C."
          ]
        ],
        [
          "Athletic Grounds",
          [
            "/wiki/Athletic_Grounds,_Rochdale"
          ]
        ]
      ],
      [
        [
          "5",
          []
        ],
        [
          "Sat 03 Sep 1966",
          []
        ],
        [
          "Warrington",
          [
            "/wiki/Warrington_Wolves"
          ]
        ],
        [
          "29-12",
          []
        ],
        [
          "Liverpool City",
          [
            "/wiki/Liverpool_Stanley"
          ]
        ],
        [
          "Wilderspool",
          [
            "/wiki/Wilderspool_Stadium"
          ]
        ]
      ],
      [
        [
          "6",
          []
        ],
        [
          "Sat 03 Sep 1966",
          []
        ],
        [
          "Whitehaven",
          [
            "/wiki/Whitehaven_R.L.F.C."
          ]
        ],
        [
          "2-5",
          []
        ],
        [
          "Blackpool Borough",
          [
            "/wiki/Blackpool_Borough"
          ]
        ],
        [
          "Recreation Ground",
          [
            "/wiki/Recreation_Ground_(Whitehaven)"
          ]
        ]
      ],
      [
        [
          "7",
          []
        ],
        [
          "Sat 03 Sep 1966",
          []
        ],
        [
          "Workington Town",
          [
            "/wiki/Workington_Town"
          ]
        ],
        [
          "9-17",
          []
        ],
        [
          "Salford",
          [
            "/wiki/Salford_Red_Devils"
          ]
        ],
        [
          "Derwent Park",
          [
            "/wiki/Derwent_Park"
          ]
        ]
      ],
      [
        [
          "8",
          []
        ],
        [
          "",
          []
        ],
        [
          "blank",
          []
        ],
        [
          "",
          []
        ],
        [
          "blank",
          []
        ],
        [
          "",
          []
        ]
      ]
    ],
    "section_title": "Competition and results -- Round 1",
    "section_text": "Involved 7 matches ( with no bye but one \u201c blank \u201d fixture ) and 14 Clubs",
    "uid": "1966\u201367_Lancashire_Cup_0",
    "intro": "1966-67 was the fifty-fourth occasion on which the Lancashire Cup completion had been held. Wigan won the trophy by beating Oldham by the score of 16-13\nThe match was played at Station Road, Pendlebury, (historically in the county of Lancashire). The attendance was 14,193 and receipts were \u00a33,558"
  },
  "Dinamo\u2013Rijeka_derby_0": {
    "url": "https://en.wikipedia.org/wiki/Dinamo\u2013Rijeka_derby",
    "title": "Dinamo\u2013Rijeka derby",
    "header": [
      [
        "M",
        [
          "/wiki/Game"
        ]
      ],
      [
        "Date",
        [
          "/wiki/Calendar_date"
        ]
      ],
      [
        "Competition",
        [
          "/wiki/Competition"
        ]
      ],
      [
        "Ground",
        [
          "/wiki/Stadium"
        ]
      ],
      [
        "Score",
        [
          "/wiki/Score_(sport)"
        ]
      ],
      [
        "Dinamo scorers",
        [
          "/wiki/GNK_Dinamo_Zagreb"
        ]
      ],
      [
        "Rijeka scorers",
        [
          "/wiki/HNK_Rijeka"
        ]
      ]
    ],
    "data": [
      [
        [
          "1",
          []
        ],
        [
          "22 Dec 1946",
          []
        ],
        [
          "Div 1",
          [
            "/wiki/1946\u201347_Yugoslav_First_League"
          ]
        ],
        [
          "Cellini",
          []
        ],
        [
          "1-3",
          []
        ],
        [
          "W\u00f6lfl , Cimerman\u010di\u0107 , Sen\u010dar",
          [
            "/wiki/Franjo_W\u00f6lfl",
            "/wiki/Zvonimir_Cimerman\u010di\u0107",
            "/wiki/Bo\u017eidar_Sen\u010dar"
          ]
        ],
        [
          "Starcich",
          []
        ]
      ],
      [
        [
          "2",
          []
        ],
        [
          "9 Mar 1947",
          []
        ],
        [
          "Div 1",
          [
            "/wiki/1946\u201347_Yugoslav_First_League"
          ]
        ],
        [
          "Kotura\u0161ka",
          [
            "/wiki/Stadion_Kotura\u0161ka"
          ]
        ],
        [
          "2-1",
          []
        ],
        [
          "Lojen , \u010cajkovski",
          [
            "/wiki/\u017deljko_\u010cajkovski"
          ]
        ],
        [
          "Laurencich",
          []
        ]
      ],
      [
        [
          "3",
          []
        ],
        [
          "23 Nov 1958",
          []
        ],
        [
          "Div 1",
          [
            "/wiki/1958\u201359_Yugoslav_First_League"
          ]
        ],
        [
          "Kantrida",
          [
            "/wiki/Stadion_Kantrida"
          ]
        ],
        [
          "1-0",
          []
        ],
        [
          "",
          []
        ],
        [
          "Medle",
          [
            "/wiki/Ivan_Medle"
          ]
        ]
      ],
      [
        [
          "4",
          []
        ],
        [
          "21 Jun 1959",
          []
        ],
        [
          "Div 1",
          [
            "/wiki/1958\u201359_Yugoslav_First_League"
          ]
        ],
        [
          "Maksimir",
          [
            "/wiki/Stadion_Maksimir"
          ]
        ],
        [
          "6-0",
          []
        ],
        [
          "Matu\u0161 ( 3 ) , Dugand\u017eija , \u010con\u010d , Markovi\u0107",
          [
            "/wiki/\u017deljko_Matu\u0161",
            "/wiki/Vladimir_\u010con\u010d",
            "/wiki/Vlatko_Markovi\u0107"
          ]
        ],
        [
          "",
          []
        ]
      ],
      [
        [
          "5",
          []
        ],
        [
          "6 Dec 1959",
          []
        ],
        [
          "Div 1",
          [
            "/wiki/1959\u201360_Yugoslav_First_League"
          ]
        ],
        [
          "Kantrida",
          [
            "/wiki/Stadion_Kantrida"
          ]
        ],
        [
          "3-2",
          []
        ],
        [
          "Matu\u0161 , \u010con\u010d",
          [
            "/wiki/\u017deljko_Matu\u0161",
            "/wiki/Vladimir_\u010con\u010d"
          ]
        ],
        [
          "Lukari\u0107 , Berek , Medle",
          [
            "/wiki/Vladimir_Lukari\u0107",
            "/wiki/Ivan_Medle"
          ]
        ]
      ],
      [
        [
          "6",
          []
        ],
        [
          "19 Jun 1960",
          []
        ],
        [
          "Div 1",
          [
            "/wiki/1959\u201360_Yugoslav_First_League"
          ]
        ],
        [
          "Maksimir",
          [
            "/wiki/Stadion_Maksimir"
          ]
        ],
        [
          "5-1",
          []
        ],
        [
          "Bla\u017ei\u0107 ( 4 ) , Dugand\u017eija",
          []
        ],
        [
          "Berek",
          []
        ]
      ],
      [
        [
          "7",
          []
        ],
        [
          "30 Oct 1960",
          []
        ],
        [
          "Div 1",
          [
            "/wiki/1960\u201361_Yugoslav_First_League"
          ]
        ],
        [
          "Maksimir",
          [
            "/wiki/Stadion_Maksimir"
          ]
        ],
        [
          "3-0",
          []
        ],
        [
          "Jerkovi\u0107 ( 2 ) , \u0160iki\u0107",
          [
            "/wiki/Dra\u017ean_Jerkovi\u0107",
            "/wiki/Josip_\u0160iki\u0107"
          ]
        ],
        [
          "",
          []
        ]
      ],
      [
        [
          "8",
          []
        ],
        [
          "19 Apr 1961",
          []
        ],
        [
          "Div 1",
          [
            "/wiki/1960\u201361_Yugoslav_First_League"
          ]
        ],
        [
          "Kantrida",
          [
            "/wiki/Stadion_Kantrida"
          ]
        ],
        [
          "0-0",
          []
        ],
        [
          "",
          []
        ],
        [
          "",
          []
        ]
      ],
      [
        [
          "9",
          []
        ],
        [
          "1 Oct 1961",
          []
        ],
        [
          "Div 1",
          [
            "/wiki/1961\u201362_Yugoslav_First_League"
          ]
        ],
        [
          "Kantrida",
          [
            "/wiki/Stadion_Kantrida"
          ]
        ],
        [
          "1-3",
          []
        ],
        [
          "Zambata ( 2 ) , Cvitkovi\u0107",
          [
            "/wiki/Slaven_Zambata"
          ]
        ],
        [
          "Naumovi\u0107",
          [
            "/wiki/Velimir_Naumovi\u0107"
          ]
        ]
      ],
      [
        [
          "10",
          []
        ],
        [
          "8 Apr 1962",
          []
        ],
        [
          "Div 1",
          [
            "/wiki/1961\u201362_Yugoslav_First_League"
          ]
        ],
        [
          "Maksimir",
          [
            "/wiki/Stadion_Maksimir"
          ]
        ],
        [
          "0-0",
          []
        ],
        [
          "",
          []
        ],
        [
          "",
          []
        ]
      ],
      [
        [
          "11",
          []
        ],
        [
          "23 Sep 1962",
          []
        ],
        [
          "Div 1",
          [
            "/wiki/1962\u201363_Yugoslav_First_League"
          ]
        ],
        [
          "Maksimir",
          [
            "/wiki/Stadion_Maksimir"
          ]
        ],
        [
          "5-0",
          []
        ],
        [
          "Zambata ( 3 ) , Jerkovi\u0107 , Pa\u0161i\u0107",
          [
            "/wiki/Slaven_Zambata",
            "/wiki/Dra\u017ean_Jerkovi\u0107",
            "/wiki/Ilijas_Pa\u0161i\u0107"
          ]
        ],
        [
          "",
          []
        ]
      ],
      [
        [
          "12",
          []
        ],
        [
          "7 Apr 1963",
          []
        ],
        [
          "Div 1",
          [
            "/wiki/1962\u201363_Yugoslav_First_League"
          ]
        ],
        [
          "Kantrida",
          [
            "/wiki/Stadion_Kantrida"
          ]
        ],
        [
          "0-2",
          []
        ],
        [
          "Matu\u0161 , Lamza",
          [
            "/wiki/\u017deljko_Matu\u0161",
            "/wiki/Stjepan_Lamza"
          ]
        ],
        [
          "",
          []
        ]
      ],
      [
        [
          "13",
          []
        ],
        [
          "25 Aug 1963",
          []
        ],
        [
          "Div 1",
          [
            "/wiki/1963\u201364_Yugoslav_First_League"
          ]
        ],
        [
          "Kantrida",
          [
            "/wiki/Stadion_Kantrida"
          ]
        ],
        [
          "0-3",
          []
        ],
        [
          "Zambata ( 2 ) , Lamza",
          [
            "/wiki/Slaven_Zambata",
            "/wiki/Stjepan_Lamza"
          ]
        ],
        [
          "",
          []
        ]
      ],
      [
        [
          "14",
          []
        ],
        [
          "8 Mar 1964",
          []
        ],
        [
          "Div 1",
          [
            "/wiki/1963\u201364_Yugoslav_First_League"
          ]
        ],
        [
          "Maksimir",
          [
            "/wiki/Stadion_Maksimir"
          ]
        ],
        [
          "1-0",
          []
        ],
        [
          "Rau\u0161",
          []
        ],
        [
          "",
          []
        ]
      ],
      [
        [
          "15",
          []
        ],
        [
          "22 Apr 1964",
          []
        ],
        [
          "Cup ( R16 )",
          [
            "/wiki/1963\u201364_Yugoslav_Cup"
          ]
        ],
        [
          "Maksimir",
          [
            "/wiki/Stadion_Maksimir"
          ]
        ],
        [
          "5-1",
          []
        ],
        [
          "Lamza ( 3 ) , Kobe\u0161\u010dak , Lipo\u0161inovi\u0107",
          [
            "/wiki/Stjepan_Lamza",
            "/wiki/Zdenko_Kobe\u0161\u010dak",
            "/wiki/Luka_Lipo\u0161inovi\u0107"
          ]
        ],
        [
          "Lukari\u0107",
          [
            "/wiki/Vladimir_Lukari\u0107"
          ]
        ]
      ],
      [
        [
          "16",
          []
        ],
        [
          "16 Aug 1964",
          []
        ],
        [
          "Div 1",
          [
            "/wiki/1964\u201365_Yugoslav_First_League"
          ]
        ],
        [
          "Kantrida",
          [
            "/wiki/Stadion_Kantrida"
          ]
        ],
        [
          "0-1",
          []
        ],
        [
          "Zambata",
          [
            "/wiki/Slaven_Zambata"
          ]
        ],
        [
          "",
          []
        ]
      ],
      [
        [
          "17",
          []
        ],
        [
          "7 Mar 1965",
          []
        ],
        [
          "Div 1",
          [
            "/wiki/1964\u201365_Yugoslav_First_League"
          ]
        ],
        [
          "Maksimir",
          [
            "/wiki/Stadion_Maksimir"
          ]
        ],
        [
          "2-3",
          []
        ],
        [
          "Jerkovi\u0107 , Belin",
          [
            "/wiki/Dra\u017ean_Jerkovi\u0107",
            "/wiki/Rudolf_Belin"
          ]
        ],
        [
          "Gulin ( 3 )",
          [
            "/wiki/Ton\u010di_Gulin"
          ]
        ]
      ],
      [
        [
          "18",
          []
        ],
        [
          "22 Aug 1965",
          []
        ],
        [
          "Div 1",
          [
            "/wiki/1965\u201366_Yugoslav_First_League"
          ]
        ],
        [
          "Kantrida",
          [
            "/wiki/Stadion_Kantrida"
          ]
        ],
        [
          "1-0",
          []
        ],
        [
          "",
          []
        ],
        [
          "Lukari\u0107",
          [
            "/wiki/Vladimir_Lukari\u0107"
          ]
        ]
      ],
      [
        [
          "19",
          []
        ],
        [
          "13 Mar 1966",
          []
        ],
        [
          "Div 1",
          [
            "/wiki/1965\u201366_Yugoslav_First_League"
          ]
        ],
        [
          "Maksimir",
          [
            "/wiki/Stadion_Maksimir"
          ]
        ],
        [
          "4-0",
          []
        ],
        [
          "Lamza ( 2 ) , Ki\u0161 , Zambata",
          [
            "/wiki/Stjepan_Lamza",
            "/wiki/Slaven_Zambata"
          ]
        ],
        [
          "",
          []
        ]
      ],
      [
        [
          "20",
          []
        ],
        [
          "26 Nov 1966",
          []
        ],
        [
          "Div 1",
          [
            "/wiki/1966\u201367_Yugoslav_First_League"
          ]
        ],
        [
          "Maksimir",
          [
            "/wiki/Stadion_Maksimir"
          ]
        ],
        [
          "3-1",
          []
        ],
        [
          "Zambata ( 2 ) , Rora",
          [
            "/wiki/Slaven_Zambata",
            "/wiki/Krasnodar_Rora"
          ]
        ],
        [
          "Petrovi\u0107",
          []
        ]
      ]
    ],
    "section_title": "List of matches -- 1946\u20131991",
    "section_text": "",
    "uid": "Dinamo\u2013Rijeka_derby_0",
    "intro": "Dinamo-Rijeka derby is the name given to matches between Dinamo Zagreb and Rijeka. The teams are supported by their fanbases called Zagreb's Bad Blue Boys and Rijeka's Armada. Games of note are the 1993-94 Croatian Football Cup final when Dinamo won the trophy and the 2013-14 Croatian Cup, 2016-17 Croatian Football Cup, 2018-19 Croatian Football Cup finals when Rijeka won. Dinamo has been by far the more successful side, which is evident in several long winning streaks through the history of the derby. However, it is noteworthy that Rijeka remained unbeaten in 23 consecutive home league fixtures from August 1964 until May 1994. While player movement between the two clubs has always taken place, it intensified since the mid-1980s, when Dinamo started acquiring many of Rijeka's best players. This trend had abated over the past decade. Due to various formats that were used in the Croatian championship and the cup competition format (which has teams playing two-legged fixtures even in the final game) and in addition to the games played in the Supercup, there has been anywhere from two to six derbies per season. For example, as many as six derbies have been played between April and November 2004. Due to Rijeka's absence from the Yugoslav First League no derbies were played between 1947 and 1958, and between 1969 and 1974."
  },
  "1928\u201329_Lancashire_Cup_4": {
    "url": "https://en.wikipedia.org/wiki/1928\u201329_Lancashire_Cup",
    "title": "1928\u201329 Lancashire Cup",
    "header": [
      [
        "Wigan",
        [
          "/wiki/Wigan_Warriors"
        ]
      ],
      [
        "No",
        []
      ],
      [
        "Widnes",
        [
          "/wiki/Widnes_Vikings"
        ]
      ]
    ],
    "data": [
      [
        [
          "Jim Sullivan",
          [
            "/wiki/Jim_Sullivan_(rugby_league)"
          ]
        ],
        [
          "1",
          []
        ],
        [
          "Bob Fraser [ 1 ]",
          []
        ]
      ],
      [
        [
          "Lou Brown",
          [
            "/wiki/Lou_Brown_(rugby_league)"
          ]
        ],
        [
          "2",
          []
        ],
        [
          "Jack Dennett [ 2 ]",
          []
        ]
      ],
      [
        [
          "Roy Kinnear",
          [
            "/wiki/Roy_Kinnear_(rugby)"
          ]
        ],
        [
          "3",
          []
        ],
        [
          "Peter Topping [ 3 ]",
          []
        ]
      ],
      [
        [
          "Tommy Parker",
          [
            "/wiki/Tommy_Parker_(rugby_league)"
          ]
        ],
        [
          "4",
          []
        ],
        [
          "Alec Higgins",
          [
            "/wiki/Alec_Higgins"
          ]
        ]
      ],
      [
        [
          "Johnny Ring",
          [
            "/wiki/Johnny_Ring"
          ]
        ],
        [
          "5",
          []
        ],
        [
          "Joe Stanley [ 4 ]",
          []
        ]
      ],
      [
        [
          "Arthur Binks",
          [
            "/wiki/Arthur_Binks"
          ]
        ],
        [
          "6",
          []
        ],
        [
          "Paddy Douglas [ 5 ]",
          []
        ]
      ],
      [
        [
          "Syd Abram",
          [
            "/wiki/Syd_Abram"
          ]
        ],
        [
          "7",
          []
        ],
        [
          "Jerry Laughton [ 6 ] ( probably Captain )",
          [
            "/wiki/Captain_(sports)"
          ]
        ]
      ],
      [
        [
          "Tom Beetham",
          [
            "/wiki/Tom_Beetham"
          ]
        ],
        [
          "8",
          []
        ],
        [
          "Frederick Kelsall",
          [
            "/wiki/Fred_Kelsall"
          ]
        ]
      ],
      [
        [
          "Jack Bennett",
          [
            "/wiki/Jack_Bennett_(rugby_league)"
          ]
        ],
        [
          "9",
          []
        ],
        [
          "George Stevens [ 7 ]",
          []
        ]
      ],
      [
        [
          "Wilf Hodder",
          [
            "/wiki/Wilfred_Hodder"
          ]
        ],
        [
          "10",
          []
        ],
        [
          "Nat Silcock",
          [
            "/wiki/Nat_Silcock_Sr."
          ]
        ]
      ],
      [
        [
          "Len Mason",
          [
            "/wiki/Len_Mason"
          ]
        ],
        [
          "11",
          []
        ],
        [
          "Jack Higgins [ 8 ]",
          []
        ]
      ],
      [
        [
          "Frank Stephens",
          [
            "/wiki/Frank_Stephens_(rugby_league)"
          ]
        ],
        [
          "12",
          []
        ],
        [
          "Jack Gregory [ 9 ]",
          []
        ]
      ],
      [
        [
          "John Sherrington",
          []
        ],
        [
          "13",
          []
        ],
        [
          "Jimmy Hoey",
          [
            "/wiki/Jimmy_Hoey"
          ]
        ]
      ],
      [
        [
          "5",
          []
        ],
        [
          "score",
          []
        ],
        [
          "4",
          []
        ]
      ],
      [
        [
          "0",
          []
        ],
        [
          "HT",
          []
        ],
        [
          "0",
          []
        ]
      ],
      [
        [
          "Lou Brown ( 1 )",
          []
        ],
        [
          "T",
          []
        ],
        [
          "nil",
          []
        ]
      ]
    ],
    "section_title": "Competition and results -- Final",
    "section_text": "",
    "uid": "1928\u201329_Lancashire_Cup_4",
    "intro": "The 1928-29 Lancashire Cup was the 21st running of this regional rugby league competition. Wigan took the trophy for the 6th time, by beating Widnes by 5-4 in the final played at Wilderspool, Warrington. The attendance was 19,000 and receipts \u00a31,150."
  },
  "2011\u201312_APOEL_F.C._season_0": {
    "url": "https://en.wikipedia.org/wiki/2011\u201312_APOEL_F.C._season",
    "title": "2011\u201312 APOEL F.C. season",
    "header": [
      [
        "N",
        []
      ],
      [
        "Pos",
        []
      ],
      [
        "Name",
        []
      ],
      [
        "Age",
        []
      ],
      [
        "EU",
        [
          "/wiki/Citizenship_of_the_European_Union"
        ]
      ],
      [
        "Moving from",
        []
      ],
      [
        "Type",
        []
      ],
      [
        "Transfer window",
        [
          "/wiki/Transfer_window"
        ]
      ],
      [
        "Ends",
        []
      ],
      [
        "Transfer fee",
        [
          "/wiki/Transfer_(association_football)"
        ]
      ],
      [
        "Source",
        []
      ]
    ],
    "data": [
      [
        [
          "20",
          []
        ],
        [
          "RW",
          [
            "/wiki/Midfielder"
          ]
        ],
        [
          "Adorno",
          [
            "/wiki/Aldo_Adorno"
          ]
        ],
        [
          "29",
          []
        ],
        [
          "EU",
          []
        ],
        [
          "Apollon Limassol",
          [
            "/wiki/Apollon_Limassol_FC"
          ]
        ],
        [
          "Transfer Y",
          []
        ],
        [
          "Summer",
          []
        ],
        [
          "2013",
          []
        ],
        [
          "Free",
          [
            "/wiki/Free_transfer_(association_football)"
          ]
        ],
        [
          "apoelfc.com.cy",
          []
        ]
      ],
      [
        [
          "6",
          []
        ],
        [
          "CB",
          [
            "/wiki/Defender_(association_football)"
          ]
        ],
        [
          "Oliveira",
          [
            "/wiki/Marcelo_Jos\u00e9_Oliveira"
          ]
        ],
        [
          "29",
          []
        ],
        [
          "Non-EU",
          []
        ],
        [
          "Atromitos",
          [
            "/wiki/Atromitos_F.C."
          ]
        ],
        [
          "Transfer Y",
          []
        ],
        [
          "Summer",
          []
        ],
        [
          "2013",
          []
        ],
        [
          "Free",
          [
            "/wiki/Free_transfer_(association_football)"
          ]
        ],
        [
          "apoelfc.com.cy",
          []
        ]
      ],
      [
        [
          "5",
          []
        ],
        [
          "DM",
          [
            "/wiki/Midfielder"
          ]
        ],
        [
          "Jahi\u0107",
          [
            "/wiki/Sanel_Jahi\u0107"
          ]
        ],
        [
          "29",
          []
        ],
        [
          "EU",
          []
        ],
        [
          "AEK Athens",
          [
            "/wiki/AEK_Athens_F.C."
          ]
        ],
        [
          "Transfer Y",
          []
        ],
        [
          "Summer",
          []
        ],
        [
          "2013",
          []
        ],
        [
          "Free",
          [
            "/wiki/Free_transfer_(association_football)"
          ]
        ],
        [
          "apoelfc.com.cy",
          []
        ]
      ],
      [
        [
          "78",
          []
        ],
        [
          "GK",
          [
            "/wiki/Goalkeeper_(association_football)"
          ]
        ],
        [
          "Pardo",
          [
            "/wiki/Urko_Pardo"
          ]
        ],
        [
          "28",
          []
        ],
        [
          "EU",
          []
        ],
        [
          "Rapid Bucure\u0219ti",
          [
            "/wiki/FC_Rapid_Bucure\u0219ti"
          ]
        ],
        [
          "Transfer Y",
          []
        ],
        [
          "Summer",
          []
        ],
        [
          "2013",
          []
        ],
        [
          "Free",
          [
            "/wiki/Free_transfer_(association_football)"
          ]
        ],
        [
          "sigmalive.com",
          []
        ]
      ],
      [
        [
          "4",
          []
        ],
        [
          "CB",
          [
            "/wiki/Defender_(association_football)"
          ]
        ],
        [
          "Kak\u00e1",
          [
            "/wiki/Kak\u00e1_(footballer,_born_1981)"
          ]
        ],
        [
          "30",
          []
        ],
        [
          "Non-EU",
          []
        ],
        [
          "Hertha BSC",
          [
            "/wiki/Hertha_BSC"
          ]
        ],
        [
          "Loan",
          []
        ],
        [
          "Summer",
          []
        ],
        [
          "2012",
          []
        ],
        [
          "\u20ac250K",
          []
        ],
        [
          "herthabsc.de",
          []
        ]
      ],
      [
        [
          "14",
          []
        ],
        [
          "AM",
          [
            "/wiki/Midfielder"
          ]
        ],
        [
          "Belaid",
          [
            "/wiki/Tijani_Bela\u00efd"
          ]
        ],
        [
          "23",
          []
        ],
        [
          "EU",
          []
        ],
        [
          "Hull City",
          [
            "/wiki/Hull_City_A.F.C."
          ]
        ],
        [
          "Transfer Y",
          []
        ],
        [
          "Summer",
          []
        ],
        [
          "2013",
          []
        ],
        [
          "Free",
          [
            "/wiki/Free_transfer_(association_football)"
          ]
        ],
        [
          "sigmalive.com",
          []
        ]
      ],
      [
        [
          "31",
          []
        ],
        [
          "AM",
          [
            "/wiki/Midfielder"
          ]
        ],
        [
          "H\u00e9lder Sousa",
          [
            "/wiki/H\u00e9lder_Sousa"
          ]
        ],
        [
          "34",
          []
        ],
        [
          "EU",
          []
        ],
        [
          "Olympiakos Nicosia",
          [
            "/wiki/Olympiakos_Nicosia"
          ]
        ],
        [
          "Transfer Y",
          []
        ],
        [
          "Winter",
          []
        ],
        [
          "2013",
          []
        ],
        [
          "\u20ac90K",
          []
        ],
        [
          "apoelfc.com.cy",
          []
        ]
      ]
    ],
    "section_title": "Current squad -- Squad Changes",
    "section_text": "In :",
    "uid": "2011\u201312_APOEL_F.C._season_0",
    "intro": "The 2011-12 season was APOEL's 72nd season in the Cypriot First Division and 84th year in existence as a football club."
  },
  "1973\u201374_Lancashire_Cup_4": {
    "url": "https://en.wikipedia.org/wiki/1973\u201374_Lancashire_Cup",
    "title": "1973\u201374 Lancashire Cup",
    "header": [
      [
        "Wigan",
        [
          "/wiki/Wigan_Warriors"
        ]
      ],
      [
        "\u2116",
        []
      ],
      [
        "Salford",
        [
          "/wiki/Salford_Red_Devils"
        ]
      ]
    ],
    "data": [
      [
        [
          "Bill Francis",
          [
            "/wiki/Bill_Francis"
          ]
        ],
        [
          "1",
          []
        ],
        [
          "Paul Charlton",
          [
            "/wiki/Paul_Charlton_(rugby_league)"
          ]
        ]
      ],
      [
        [
          "Green Vigo",
          [
            "/wiki/Green_Vigo"
          ]
        ],
        [
          "2",
          []
        ],
        [
          "Keith Fielding",
          [
            "/wiki/Keith_Fielding"
          ]
        ]
      ],
      [
        [
          "David Hill",
          [
            "/wiki/David_Hill_(rugby_league)"
          ]
        ],
        [
          "3",
          []
        ],
        [
          "David Watkins",
          [
            "/wiki/David_Watkins_(rugby)"
          ]
        ]
      ],
      [
        [
          "Keiron O'Loughlin",
          [
            "/wiki/Keiron_O'Loughlin"
          ]
        ],
        [
          "4",
          []
        ],
        [
          "Chris Hesketh",
          [
            "/wiki/Chris_Hesketh"
          ]
        ]
      ],
      [
        [
          "Stuart Wright",
          [
            "/wiki/Stuart_Wright"
          ]
        ],
        [
          "5",
          []
        ],
        [
          "Holland",
          []
        ]
      ],
      [
        [
          "Terry Cassidy [ 1 ]",
          []
        ],
        [
          "6",
          []
        ],
        [
          "Ken Gill",
          [
            "/wiki/Ken_Gill_(rugby_league)"
          ]
        ]
      ],
      [
        [
          "Warren Ayres [ 2 ]",
          [
            "/wiki/Warren_Ayres"
          ]
        ],
        [
          "7",
          []
        ],
        [
          "Peter Banner",
          [
            "/wiki/Peter_Banner_(rugby_league)"
          ]
        ]
      ],
      [
        [
          "Peter Smethurst [ 3 ]",
          [
            "/wiki/Peter_Smethurst"
          ]
        ],
        [
          "8",
          []
        ],
        [
          "Graham Mackay",
          []
        ]
      ],
      [
        [
          "Colin Clarke",
          [
            "/wiki/Colin_Clarke_(rugby_league)"
          ]
        ],
        [
          "9",
          []
        ],
        [
          "Walker",
          []
        ]
      ],
      [
        [
          "John Gray",
          [
            "/wiki/John_Gray_(English_sportsman)"
          ]
        ],
        [
          "10",
          []
        ],
        [
          "Davies",
          []
        ]
      ],
      [
        [
          "Robert Irving",
          [
            "/wiki/Bob_Irving_(rugby_league)"
          ]
        ],
        [
          "11",
          []
        ],
        [
          "Colin Dixon",
          [
            "/wiki/Colin_Dixon"
          ]
        ]
      ],
      [
        [
          "Dave Robinson",
          [
            "/wiki/Dave_Robinson_(rugby_league)"
          ]
        ],
        [
          "12",
          []
        ],
        [
          "Kear",
          []
        ]
      ],
      [
        [
          "Eddie Cunningham",
          [
            "/wiki/Eddie_Cunningham"
          ]
        ],
        [
          "13",
          []
        ],
        [
          "Eric Prescott",
          [
            "/wiki/Eric_Prescott"
          ]
        ]
      ],
      [
        [
          "?",
          []
        ],
        [
          "14",
          []
        ],
        [
          "Knighton ( for Kear 47min )",
          []
        ]
      ],
      [
        [
          "?",
          []
        ],
        [
          "15",
          []
        ],
        [
          "Grice ( for Davies 65min )",
          []
        ]
      ],
      [
        [
          "19",
          []
        ],
        [
          "score",
          []
        ],
        [
          "9",
          []
        ]
      ],
      [
        [
          "7",
          []
        ],
        [
          "HT",
          []
        ],
        [
          "4",
          []
        ]
      ]
    ],
    "section_title": "Competition and results -- Final",
    "section_text": "[ 4 ] [ 2 ] [ 7 ] [ 8 ]",
    "uid": "1973\u201374_Lancashire_Cup_4",
    "intro": "The 1973-74 Lancashire Cup was the sixty-first occasion of the Lancashire Cup. Wigan won the trophy by beating Salford by the score of 19-9 in the final. The match was played at Wilderspool, Warrington. The attendance was 8,012 and receipts were \u00a32,750."
  }
}