{
  "2011\u201312_Coupe_de_France_6": {
    "url": "https://en.wikipedia.org/wiki/2011\u201312_Coupe_de_France",
    "title": "2011\u201312 Coupe de France",
    "header": [
      [
        "Tie no",
        []
      ],
      [
        "Home team",
        []
      ],
      [
        "Score",
        []
      ],
      [
        "Away team",
        []
      ]
    ],
    "data": [
      [
        [
          "22",
          []
        ],
        [
          "Chang\u00e9",
          [
            "/wiki/US_Chang\u00e9"
          ]
        ],
        [
          "1-2 ( a.e.t )",
          [
            "/wiki/Overtime_(sports)"
          ]
        ],
        [
          "Montagnarde",
          [
            "/wiki/US_Montagnarde"
          ]
        ]
      ],
      [
        [
          "23",
          []
        ],
        [
          "Calais",
          [
            "/wiki/Calais_RUFC"
          ]
        ],
        [
          "1-2",
          []
        ],
        [
          "Angers",
          [
            "/wiki/Angers_SCO"
          ]
        ]
      ],
      [
        [
          "24",
          []
        ],
        [
          "Orl\u00e9ans",
          [
            "/wiki/US_Orl\u00e9ans"
          ]
        ],
        [
          "1-0",
          []
        ],
        [
          "Ivry",
          [
            "/wiki/US_Ivry"
          ]
        ]
      ],
      [
        [
          "25",
          []
        ],
        [
          "Evry",
          [
            "/wiki/\u00c9vry_FC"
          ]
        ],
        [
          "1-1 ( a.e.t ) 3\u22124 pen",
          [
            "/wiki/Overtime_(sports)",
            "/wiki/Penalty_shoot-out_(association_football)"
          ]
        ],
        [
          "Drancy",
          [
            "/wiki/JA_Drancy"
          ]
        ]
      ],
      [
        [
          "26",
          []
        ],
        [
          "Gravelines",
          [
            "/wiki/Union_Sportive_Gravelines_Football"
          ]
        ],
        [
          "1-2 ( a.e.t )",
          [
            "/wiki/Overtime_(sports)"
          ]
        ],
        [
          "Le Havre",
          [
            "/wiki/Le_Havre_AC"
          ]
        ]
      ],
      [
        [
          "27",
          []
        ],
        [
          "Saran",
          []
        ],
        [
          "1-2",
          []
        ],
        [
          "Cherbourg",
          [
            "/wiki/AS_Cherbourg_Football"
          ]
        ]
      ],
      [
        [
          "28",
          []
        ],
        [
          "Sannois Saint-Gratien",
          [
            "/wiki/L'Entente_SSG"
          ]
        ],
        [
          "0-2",
          []
        ],
        [
          "Laval",
          [
            "/wiki/Stade_Lavallois"
          ]
        ]
      ],
      [
        [
          "29",
          []
        ],
        [
          "Versailles",
          [
            "/wiki/FC_Versailles_78"
          ]
        ],
        [
          "2-0",
          []
        ],
        [
          "Alfortville",
          [
            "/wiki/UJA_Maccabi_Paris_M\u00e9tropole"
          ]
        ]
      ],
      [
        [
          "30",
          []
        ],
        [
          "Feignies",
          [
            "/wiki/Feignies_Aulnoye_FC"
          ]
        ],
        [
          "1-1 ( a.e.t ) 0\u22123 pen",
          [
            "/wiki/Overtime_(sports)",
            "/wiki/Penalty_shoot-out_(association_football)"
          ]
        ],
        [
          "Quevilly",
          [
            "/wiki/US_Quevilly-Rouen"
          ]
        ]
      ],
      [
        [
          "31",
          []
        ],
        [
          "Compi\u00e8gne",
          [
            "/wiki/AFC_Compi\u00e8gne"
          ]
        ],
        [
          "2-1",
          []
        ],
        [
          "Dunkerque",
          [
            "/wiki/USL_Dunkerque"
          ]
        ]
      ],
      [
        [
          "32",
          []
        ],
        [
          "Chantilly",
          [
            "/wiki/US_Chantilly"
          ]
        ],
        [
          "1-0",
          []
        ],
        [
          "Le Portel",
          []
        ]
      ],
      [
        [
          "33",
          []
        ],
        [
          "Marck",
          [
            "/wiki/AS_Marck"
          ]
        ],
        [
          "2-1",
          []
        ],
        [
          "Reims",
          [
            "/wiki/Stade_de_Reims"
          ]
        ]
      ],
      [
        [
          "34",
          []
        ],
        [
          "Villers-Outr\u00e9aux",
          []
        ],
        [
          "2-4",
          []
        ],
        [
          "Cr\u00e9teil",
          [
            "/wiki/US_Cr\u00e9teil-Lusitanos"
          ]
        ]
      ],
      [
        [
          "35",
          []
        ],
        [
          "Arras",
          [
            "/wiki/Arras_FA"
          ]
        ],
        [
          "0-2",
          []
        ],
        [
          "Chambly",
          [
            "/wiki/FC_Chambly"
          ]
        ]
      ],
      [
        [
          "36",
          []
        ],
        [
          "Paris",
          [
            "/wiki/Paris_FC"
          ]
        ],
        [
          "0-3",
          []
        ],
        [
          "Boulogne-sur-Mer",
          [
            "/wiki/US_Boulogne"
          ]
        ]
      ],
      [
        [
          "37",
          []
        ],
        [
          "Amn\u00e9ville",
          [
            "/wiki/CSO_Amn\u00e9ville"
          ]
        ],
        [
          "2-3",
          []
        ],
        [
          "Metz",
          [
            "/wiki/FC_Metz"
          ]
        ]
      ],
      [
        [
          "38",
          []
        ],
        [
          "Prix-l\u00e8s-M\u00e9zi\u00e8res",
          [
            "/wiki/AS_Prix-l\u00e8s-M\u00e9zi\u00e8res"
          ]
        ],
        [
          "1-0 ( a.e.t )",
          [
            "/wiki/Overtime_(sports)"
          ]
        ],
        [
          "Schiltigheim",
          [
            "/wiki/SC_Schiltigheim"
          ]
        ]
      ],
      [
        [
          "39",
          []
        ],
        [
          "Jarville",
          [
            "/wiki/Jarville_JF"
          ]
        ],
        [
          "0-4",
          []
        ],
        [
          "Sedan",
          [
            "/wiki/CS_Sedan_Ardennes"
          ]
        ]
      ],
      [
        [
          "40",
          []
        ],
        [
          "Saint-Vit",
          []
        ],
        [
          "0-3",
          []
        ],
        [
          "Bourg-P\u00e9ronnas",
          [
            "/wiki/Football_Bourg-en-Bresse_P\u00e9ronnas_01"
          ]
        ]
      ],
      [
        [
          "41",
          []
        ],
        [
          "Forbach",
          [
            "/wiki/US_Forbach"
          ]
        ],
        [
          "0-1",
          []
        ],
        [
          "Red Star",
          [
            "/wiki/Red_Star_F.C."
          ]
        ]
      ]
    ],
    "section_title": "",
    "section_text": "",
    "uid": "2011\u201312_Coupe_de_France_6",
    "intro": "The 2011-12 Coupe de France was the 95th season of the most prestigious cup competition of France. The competition was organized by the French Football Federation (FFF) and open to all clubs in French football, as well as clubs from the overseas departments and territories (Guadeloupe, French Guiana, Martinique, Mayotte, New Caledonia, French Polynesia, and R\u00e9union). The final was contested on 28 April 2012 at the Stade de France. The defending champions were Lille, who defeated Paris Saint-Germain 1-0 in the final of the 2010-11 season. The winner of the competition qualified for the group stage of the 2012-13 UEFA Europa League. On 28 April 2012, first division club Lyon defeated semi-professional third-tier Quevilly 1-0 in the 2012 Coupe de France Final courtesy of a first half goal from Lisandro L\u00f3pez to win its fifth Coupe de France title. The title is the club's first domestically since winning the same competition in 2008. The runners-up, Quevilly, alongside fellow National club Gaz\u00e9lec Ajaccio, were awarded the Petit Poucet Plaque, an award given to the best performing non-professional club in the Coupe de France."
  },
  "1999\u20132000_FIBA_EuroLeague_2": {
    "url": "https://en.wikipedia.org/wiki/1999\u20132000_FIBA_EuroLeague",
    "title": "1999\u20132000 FIBA EuroLeague",
    "header": [
      [
        "Varese Roosters ( 1st )",
        [
          "/wiki/Pallacanestro_Varese"
        ]
      ],
      [
        "FC Barcelona ( 1st )",
        [
          "/wiki/FC_Barcelona_B\u00e0squet"
        ]
      ],
      [
        "Pau-Orthez ( 1st )",
        [
          "/wiki/\u00c9lan_B\u00e9arnais"
        ]
      ],
      [
        "Union Olimpija ( 1st )",
        [
          "/wiki/KK_Olimpija"
        ]
      ]
    ],
    "data": [
      [
        [
          "Benetton Treviso ( 2nd )",
          [
            "/wiki/Pallacanestro_Treviso"
          ]
        ],
        [
          "Caja San Fernando ( 2nd )",
          [
            "/wiki/Real_Betis_Baloncesto"
          ]
        ],
        [
          "ASVEL ( 2nd )",
          [
            "/wiki/ASVEL_Basket"
          ]
        ],
        [
          "Pivovarna La\u0161ko ( WC )",
          [
            "/wiki/KK_Zlatorog_La\u0161ko"
          ]
        ]
      ],
      [
        [
          "Paf Wennington Bologna ( 3rd )",
          [
            "/wiki/Fortitudo_Bologna"
          ]
        ],
        [
          "Real Madrid Teka ( 3rd )",
          [
            "/wiki/Real_Madrid_Baloncesto"
          ]
        ],
        [
          "Cholet ( WC )",
          [
            "/wiki/Cholet_Basket"
          ]
        ],
        [
          "CSKA Moscow ( 1st )",
          [
            "/wiki/PBC_CSKA_Moscow"
          ]
        ]
      ],
      [
        [
          "Panathinaikos ( 1st )",
          [
            "/wiki/Panathinaikos_B.C."
          ]
        ],
        [
          "Tofa\u015f ( 1st )",
          [
            "/wiki/Tofa\u015f_S.K."
          ]
        ],
        [
          "Budu\u0107nost ( 1st )",
          [
            "/wiki/KK_Budu\u0107nost"
          ]
        ],
        [
          "Alba Berlin ( 1st )",
          [
            "/wiki/Alba_Berlin"
          ]
        ]
      ],
      [
        [
          "Olympiacos ( 2nd )",
          [
            "/wiki/Olympiacos_B.C."
          ]
        ],
        [
          "Efes Pilsen ( 2nd )",
          [
            "/wiki/Anadolu_Efes_S.K."
          ]
        ],
        [
          "Crvena zvezda ( 2nd )",
          [
            "/wiki/KK_Crvena_zvezda"
          ]
        ],
        [
          "Cibona VIP ( 1st )",
          [
            "/wiki/KK_Cibona"
          ]
        ]
      ],
      [
        [
          "PAOK ( 3rd )",
          [
            "/wiki/P.A.O.K._BC"
          ]
        ],
        [
          "\u00dclker ( 3rd )",
          [
            "/wiki/\u00dclker_G.S.K."
          ]
        ],
        [
          "\u017dalgiris ( 1st )",
          [
            "/wiki/BC_\u017dalgiris"
          ]
        ],
        [
          "Maccabi Elite Tel Aviv ( 1st )",
          [
            "/wiki/Maccabi_Tel_Aviv_B.C."
          ]
        ]
      ]
    ],
    "section_title": "Team allocation -- Teams",
    "section_text": "The labels in the parentheses show how each team qualified for the place of its starting round : 1st , 2nd , 3rd , etc . : League position after Playoffs WC : Wild card",
    "uid": "1999\u20132000_FIBA_EuroLeague_2",
    "intro": "The 1999-2000 FIBA EuroLeague was the 43rd installment of the European top-tier level professional club competition for basketball clubs (now called simply EuroLeague). It began on September 23, 1999, and ended on April 4, 2000. The competition's Final Four was held at PAOK Sports Arena, Thessaloniki, with Panathinaikos defeating Maccabi Elite Tel Aviv in the EuroLeague Final, in front of 8,500 spectators. Efes Pilsen finished in the third position, and FC Barcelona finished fourth."
  },
  "10_0": {
    "url": "https://en.wikipedia.org/wiki/10",
    "title": "10",
    "header": [
      [
        "Base",
        [
          "/wiki/Radix"
        ]
      ],
      [
        "Numeral system",
        [
          "/wiki/Numeral_system"
        ]
      ],
      [
        "Number",
        []
      ]
    ],
    "data": [
      [
        [
          "1",
          []
        ],
        [
          "unary",
          [
            "/wiki/Unary_numeral_system"
          ]
        ],
        [
          "**********",
          []
        ]
      ],
      [
        [
          "2",
          []
        ],
        [
          "binary",
          [
            "/wiki/Binary_number"
          ]
        ],
        [
          "1010",
          []
        ]
      ],
      [
        [
          "3",
          []
        ],
        [
          "ternary",
          [
            "/wiki/Ternary_numeral_system"
          ]
        ],
        [
          "101",
          []
        ]
      ],
      [
        [
          "4",
          []
        ],
        [
          "quaternary",
          [
            "/wiki/Quaternary_numeral_system"
          ]
        ],
        [
          "22",
          []
        ]
      ],
      [
        [
          "5",
          []
        ],
        [
          "quinary",
          [
            "/wiki/Quinary"
          ]
        ],
        [
          "20",
          []
        ]
      ],
      [
        [
          "6",
          []
        ],
        [
          "senary",
          [
            "/wiki/Senary"
          ]
        ],
        [
          "14",
          []
        ]
      ],
      [
        [
          "7",
          []
        ],
        [
          "septenary",
          [
            "/wiki/List_of_numeral_systems"
          ]
        ],
        [
          "13",
          []
        ]
      ],
      [
        [
          "8",
          []
        ],
        [
          "octal",
          [
            "/wiki/Octal"
          ]
        ],
        [
          "12",
          []
        ]
      ],
      [
        [
          "9",
          []
        ],
        [
          "novenary",
          [
            "/wiki/Ternary_numeral_system"
          ]
        ],
        [
          "11",
          []
        ]
      ],
      [
        [
          "10",
          []
        ],
        [
          "decimal",
          [
            "/wiki/Decimal"
          ]
        ],
        [
          "10",
          []
        ]
      ],
      [
        [
          "12",
          []
        ],
        [
          "duodecimal",
          [
            "/wiki/Duodecimal"
          ]
        ],
        [
          "X",
          []
        ]
      ],
      [
        [
          "16",
          []
        ],
        [
          "hexadecimal",
          [
            "/wiki/Hexadecimal"
          ]
        ],
        [
          "A",
          []
        ]
      ]
    ],
    "section_title": "In mathematics -- In numeral systems",
    "section_text": "The digit ' 1 ' followed by ' 0 ' is how the value of p is written in base p. ( E.g . 16 in hexadecimal is 10 . )",
    "uid": "10_0",
    "intro": "10 (ten) is an even natural number following 9 and preceding 11. Ten is the base of the decimal numeral system, by far the most common system of denoting numbers in both spoken and written language. The reason for the choice of ten is assumed to be that humans have ten fingers (digits)."
  },
  "2009\u201310_Coupe_de_France_1": {
    "url": "https://en.wikipedia.org/wiki/2009\u201310_Coupe_de_France",
    "title": "2009\u201310 Coupe de France",
    "header": [
      [
        "Tie no",
        []
      ],
      [
        "Home team",
        []
      ],
      [
        "Score",
        []
      ],
      [
        "Away team",
        []
      ]
    ],
    "data": [
      [
        [
          "1",
          []
        ],
        [
          "Saint-Gaudens-Violette",
          []
        ],
        [
          "1-3",
          []
        ],
        [
          "Pau",
          [
            "/wiki/Pau_FC"
          ]
        ]
      ],
      [
        [
          "2",
          []
        ],
        [
          "Blanquefort",
          []
        ],
        [
          "0-1",
          []
        ],
        [
          "Tr\u00e9lissac",
          [
            "/wiki/Tr\u00e9lissac_FC"
          ]
        ]
      ],
      [
        [
          "3",
          []
        ],
        [
          "Perpignan Canet",
          [
            "/wiki/Canet_Roussillon_FC"
          ]
        ],
        [
          "1-2",
          []
        ],
        [
          "Agen",
          [
            "/wiki/SU_Agen_Lot-et-Garonne"
          ]
        ]
      ],
      [
        [
          "4",
          []
        ],
        [
          "Marignane",
          [
            "/wiki/Marignane_Gignac_F.C."
          ]
        ],
        [
          "1-0",
          []
        ],
        [
          "Bastia",
          [
            "/wiki/SC_Bastia"
          ]
        ]
      ],
      [
        [
          "5",
          []
        ],
        [
          "Lattes",
          []
        ],
        [
          "1-0",
          []
        ],
        [
          "Bayonne",
          [
            "/wiki/Aviron_Bayonnais_FC"
          ]
        ]
      ],
      [
        [
          "6",
          []
        ],
        [
          "Arles-Avignon",
          [
            "/wiki/AC_Arles-Avignon"
          ]
        ],
        [
          "0-1",
          []
        ],
        [
          "Luzenac",
          [
            "/wiki/Luzenac_AP"
          ]
        ]
      ],
      [
        [
          "7",
          []
        ],
        [
          "Balma",
          [
            "/wiki/Balma_SC"
          ]
        ],
        [
          "2-0",
          []
        ],
        [
          "Pamiers",
          []
        ]
      ],
      [
        [
          "8",
          []
        ],
        [
          "Calvi",
          [
            "/wiki/FCA_Calvi"
          ]
        ],
        [
          "3 - 2 ( aet )",
          [
            "/wiki/Overtime_(sports)"
          ]
        ],
        [
          "Borgo",
          [
            "/wiki/Borgo_FC"
          ]
        ]
      ],
      [
        [
          "9",
          []
        ],
        [
          "V\u00e9nissieux",
          [
            "/wiki/ASM_V\u00e9nissieux"
          ]
        ],
        [
          "1-4",
          []
        ],
        [
          "Rodez",
          [
            "/wiki/Rodez_AF"
          ]
        ]
      ],
      [
        [
          "10",
          []
        ],
        [
          "Feurs",
          [
            "/wiki/US_Feurs"
          ]
        ],
        [
          "1-0",
          []
        ],
        [
          "Saint-Priest",
          [
            "/wiki/AS_Saint-Priest"
          ]
        ]
      ],
      [
        [
          "11",
          []
        ],
        [
          "Bagnols Pont",
          [
            "/wiki/FC_Bagnols_Pont"
          ]
        ],
        [
          "4-2",
          []
        ],
        [
          "Bourgoin-Jallieu",
          []
        ]
      ],
      [
        [
          "12",
          []
        ],
        [
          "Toulon",
          [
            "/wiki/Sporting_Club_Toulon"
          ]
        ],
        [
          "1-2",
          []
        ],
        [
          "Villefranche",
          [
            "/wiki/FC_Villefranche"
          ]
        ]
      ],
      [
        [
          "13",
          []
        ],
        [
          "Ain Sud",
          [
            "/wiki/Ain_Sud_Foot"
          ]
        ],
        [
          "0-4",
          []
        ],
        [
          "Cannes",
          [
            "/wiki/AS_Cannes"
          ]
        ]
      ],
      [
        [
          "14",
          []
        ],
        [
          "Grande Motte",
          []
        ],
        [
          "2-1",
          []
        ],
        [
          "La Murette",
          []
        ]
      ],
      [
        [
          "15",
          []
        ],
        [
          "Istres",
          [
            "/wiki/FC_Istres"
          ]
        ],
        [
          "1-2",
          []
        ],
        [
          "N\u00eemes",
          [
            "/wiki/N\u00eemes_Olympique"
          ]
        ]
      ],
      [
        [
          "16",
          []
        ],
        [
          "Saint-Germain-des-Foss\u00e9s",
          [
            "/wiki/Saint-Germain-des-Foss\u00e9s"
          ]
        ],
        [
          "1-6",
          []
        ],
        [
          "Thiers",
          [
            "/wiki/SA_Thiers"
          ]
        ]
      ],
      [
        [
          "17",
          []
        ],
        [
          "Cassis Carnoux",
          [
            "/wiki/SO_Cassis_Carnoux"
          ]
        ],
        [
          "1 - 1 ( aet ) 2-4 p",
          [
            "/wiki/Overtime_(sports)",
            "/wiki/Penalty_shoot-out_(association_football)"
          ]
        ],
        [
          "Ajaccio",
          [
            "/wiki/AC_Ajaccio"
          ]
        ]
      ],
      [
        [
          "18",
          []
        ],
        [
          "Annonay",
          []
        ],
        [
          "1 - 0 ( aet )",
          [
            "/wiki/Overtime_(sports)"
          ]
        ],
        [
          "Valence",
          [
            "/wiki/ASOA_Valence"
          ]
        ]
      ],
      [
        [
          "19",
          []
        ],
        [
          "Yzeure",
          [
            "/wiki/Moulins_Yzeure_Foot"
          ]
        ],
        [
          "1 - 1 ( aet ) 4-3 p",
          [
            "/wiki/Overtime_(sports)",
            "/wiki/Penalty_shoot-out_(association_football)"
          ]
        ],
        [
          "Clermont Foot",
          [
            "/wiki/Clermont_Foot"
          ]
        ]
      ],
      [
        [
          "20",
          []
        ],
        [
          "Seyssinet Pariset",
          []
        ],
        [
          "0-2",
          []
        ],
        [
          "Montceau Bourgogne",
          [
            "/wiki/FC_Montceau_Bourgogne"
          ]
        ]
      ]
    ],
    "section_title": "",
    "section_text": "",
    "uid": "2009\u201310_Coupe_de_France_1",
    "intro": "The 2009-10 Coupe de France was the 93rd season of the most prestigious French cup competition, organized by the French Football Federation, and was open to all clubs in French football, as well as clubs from the overseas departments and territories (Guadeloupe, French Guiana, Martinique, Mayotte, New Caledonia, French Polynesia, and R\u00e9union). The final was contested on 1 May 2010 at the Stade de France. The defending champions were Guingamp, who had defeated Rennes 2-1 in the 2008-09 final. The winner of the competition will qualify for the 2010-11 UEFA Europa League and will be inserted into the Playoff round. Ligue 1 club Paris Saint-Germain won the competition by defeating fellow first division club AS Monaco by a score of 1-0 in the final. The victory gives Paris Saint-Germain eight Coupe de France titles and their third this millennium."
  },
  "2014\u201315_NK_Zadar_season_0": {
    "url": "https://en.wikipedia.org/wiki/2014\u201315_NK_Zadar_season",
    "title": "2014\u201315 NK Zadar season",
    "header": [
      [
        "Round",
        []
      ],
      [
        "Date",
        []
      ],
      [
        "Venue",
        []
      ],
      [
        "Opponent",
        []
      ],
      [
        "Score",
        []
      ],
      [
        "Attendance",
        []
      ],
      [
        "Zadar Scorers",
        []
      ],
      [
        "Report",
        []
      ]
    ],
    "data": [
      [
        [
          "1",
          []
        ],
        [
          "19 Jul",
          []
        ],
        [
          "H",
          [
            "/wiki/Stadion_Stanovi"
          ]
        ],
        [
          "RNK Split",
          [
            "/wiki/RNK_Split"
          ]
        ],
        [
          "1 - 2",
          []
        ],
        [
          "1,000",
          []
        ],
        [
          "Ivan\u010di\u0107",
          [
            "/wiki/Josip_Ivan\u010di\u0107"
          ]
        ],
        [
          "Sportnet.hr",
          []
        ]
      ],
      [
        [
          "2",
          []
        ],
        [
          "26 Jul",
          []
        ],
        [
          "H",
          [
            "/wiki/Stadion_Stanovi"
          ]
        ],
        [
          "Osijek",
          [
            "/wiki/NK_Osijek"
          ]
        ],
        [
          "2 - 1",
          []
        ],
        [
          "900",
          []
        ],
        [
          "Ivan\u010di\u0107 , Weitzer",
          [
            "/wiki/Josip_Ivan\u010di\u0107",
            "/wiki/Ivor_Weitzer"
          ]
        ],
        [
          "Sportnet.hr",
          []
        ]
      ],
      [
        [
          "3",
          []
        ],
        [
          "2 Aug",
          []
        ],
        [
          "A",
          [
            "/wiki/Stadion_Maksimir"
          ]
        ],
        [
          "Dinamo Zagreb",
          [
            "/wiki/GNK_Dinamo_Zagreb"
          ]
        ],
        [
          "0 - 5",
          []
        ],
        [
          "1,976",
          []
        ],
        [
          "",
          []
        ],
        [
          "Sportnet.hr",
          []
        ]
      ],
      [
        [
          "4",
          []
        ],
        [
          "9 Aug",
          []
        ],
        [
          "H",
          [
            "/wiki/Stadion_Stanovi"
          ]
        ],
        [
          "NK Zagreb",
          [
            "/wiki/NK_Zagreb"
          ]
        ],
        [
          "2 - 2",
          []
        ],
        [
          "1,200",
          []
        ],
        [
          "Weitzer , Ivan\u010di\u0107",
          [
            "/wiki/Ivor_Weitzer",
            "/wiki/Josip_Ivan\u010di\u0107"
          ]
        ],
        [
          "Sportnet.hr",
          []
        ]
      ],
      [
        [
          "5",
          []
        ],
        [
          "16 Aug",
          []
        ],
        [
          "A",
          [
            "/wiki/Stadion_Poljud"
          ]
        ],
        [
          "Hajduk Split",
          [
            "/wiki/HNK_Hajduk_Split"
          ]
        ],
        [
          "0 - 6",
          []
        ],
        [
          "10,000",
          []
        ],
        [
          "",
          []
        ],
        [
          "Sportnet.hr",
          []
        ]
      ],
      [
        [
          "6",
          []
        ],
        [
          "23 Aug",
          []
        ],
        [
          "H",
          [
            "/wiki/Stadion_Stanovi"
          ]
        ],
        [
          "Istra 1961",
          [
            "/wiki/NK_Istra_1961"
          ]
        ],
        [
          "1 - 1",
          []
        ],
        [
          "800",
          []
        ],
        [
          "\u0160imurina",
          []
        ],
        [
          "Sportnet.hr",
          []
        ]
      ],
      [
        [
          "7",
          []
        ],
        [
          "30 Aug",
          []
        ],
        [
          "A",
          [
            "/wiki/Stadion_Kantrida"
          ]
        ],
        [
          "Rijeka",
          [
            "/wiki/HNK_Rijeka"
          ]
        ],
        [
          "1 - 6",
          []
        ],
        [
          "4,000",
          []
        ],
        [
          "Terke\u0161",
          [
            "/wiki/\u017delimir_Terke\u0161"
          ]
        ],
        [
          "Sportnet.hr",
          []
        ]
      ],
      [
        [
          "8",
          []
        ],
        [
          "13 Sep",
          []
        ],
        [
          "H",
          [
            "/wiki/Stadion_Stanovi"
          ]
        ],
        [
          "Slaven Belupo",
          [
            "/wiki/NK_Slaven_Belupo"
          ]
        ],
        [
          "4 - 0",
          []
        ],
        [
          "3,000",
          []
        ],
        [
          "Terke\u0161 , Pe\u0161i\u0107 , Hrgovi\u0107 , Pu\u0161i\u0107",
          [
            "/wiki/\u017delimir_Terke\u0161",
            "/wiki/Ivan_Pe\u0161i\u0107_(footballer,_born_1992)",
            "/wiki/Mirko_Hrgovi\u0107",
            "/wiki/Domagoj_Pu\u0161i\u0107"
          ]
        ],
        [
          "Sportnet.hr",
          []
        ]
      ],
      [
        [
          "9",
          []
        ],
        [
          "20 Sep",
          []
        ],
        [
          "A",
          [
            "/wiki/Stadion_Maksimir"
          ]
        ],
        [
          "Lokomotiva",
          [
            "/wiki/NK_Lokomotiva"
          ]
        ],
        [
          "1 - 0",
          []
        ],
        [
          "1,000",
          []
        ],
        [
          "Weitzer",
          [
            "/wiki/Ivor_Weitzer"
          ]
        ],
        [
          "Sportnet.hr",
          []
        ]
      ],
      [
        [
          "10",
          []
        ],
        [
          "27 Sep",
          []
        ],
        [
          "A",
          [
            "/wiki/Stadion_Park_Mlade\u017ei"
          ]
        ],
        [
          "RNK Split",
          [
            "/wiki/RNK_Split"
          ]
        ],
        [
          "0 - 3",
          []
        ],
        [
          "1,000",
          []
        ],
        [
          "",
          []
        ],
        [
          "Sportnet.hr",
          []
        ]
      ],
      [
        [
          "11",
          []
        ],
        [
          "4 Oct",
          []
        ],
        [
          "A",
          [
            "/wiki/Gradski_Vrt_Stadium"
          ]
        ],
        [
          "Osijek",
          [
            "/wiki/NK_Osijek"
          ]
        ],
        [
          "1 - 4",
          []
        ],
        [
          "2,000",
          []
        ],
        [
          "Iki\u0107",
          []
        ],
        [
          "Sportnet.hr",
          []
        ]
      ],
      [
        [
          "12",
          []
        ],
        [
          "18 Oct",
          []
        ],
        [
          "H",
          [
            "/wiki/Stadion_Stanovi"
          ]
        ],
        [
          "Dinamo Zagreb",
          [
            "/wiki/GNK_Dinamo_Zagreb"
          ]
        ],
        [
          "1 - 3",
          []
        ],
        [
          "2,500",
          []
        ],
        [
          "Pe\u0161i\u0107",
          [
            "/wiki/Ivan_Pe\u0161i\u0107_(footballer,_born_1992)"
          ]
        ],
        [
          "Sportnet.hr",
          []
        ]
      ],
      [
        [
          "13",
          []
        ],
        [
          "25 Oct",
          []
        ],
        [
          "A",
          [
            "/wiki/Stadion_Kranj\u010devi\u0107eva"
          ]
        ],
        [
          "NK Zagreb",
          [
            "/wiki/NK_Zagreb"
          ]
        ],
        [
          "0 - 3",
          []
        ],
        [
          "200",
          []
        ],
        [
          "",
          []
        ],
        [
          "Sportnet.hr",
          []
        ]
      ],
      [
        [
          "14",
          []
        ],
        [
          "1 Nov",
          []
        ],
        [
          "H",
          [
            "/wiki/Stadion_Stanovi"
          ]
        ],
        [
          "Hajduk Split",
          [
            "/wiki/HNK_Hajduk_Split"
          ]
        ],
        [
          "0 - 3",
          []
        ],
        [
          "3,500",
          []
        ],
        [
          "",
          []
        ],
        [
          "Sportnet.hr",
          []
        ]
      ],
      [
        [
          "15",
          []
        ],
        [
          "8 Nov",
          []
        ],
        [
          "A",
          [
            "/wiki/Stadion_Aldo_Drosina"
          ]
        ],
        [
          "Istra 1961",
          [
            "/wiki/NK_Istra_1961"
          ]
        ],
        [
          "1 - 1",
          []
        ],
        [
          "800",
          []
        ],
        [
          "Buljat",
          [
            "/wiki/Jurica_Buljat"
          ]
        ],
        [
          "Sportnet.hr",
          []
        ]
      ],
      [
        [
          "16",
          []
        ],
        [
          "22 Nov",
          []
        ],
        [
          "H",
          [
            "/wiki/Stadion_Stanovi"
          ]
        ],
        [
          "Rijeka",
          [
            "/wiki/HNK_Rijeka"
          ]
        ],
        [
          "0 - 1",
          []
        ],
        [
          "1,500",
          []
        ],
        [
          "",
          []
        ],
        [
          "Sportnet.hr",
          []
        ]
      ],
      [
        [
          "17",
          []
        ],
        [
          "29 Nov",
          []
        ],
        [
          "A",
          [
            "/wiki/Gradski_stadion_(Koprivnica)"
          ]
        ],
        [
          "Slaven Belupo",
          [
            "/wiki/NK_Slaven_Belupo"
          ]
        ],
        [
          "0 - 4",
          []
        ],
        [
          "1,200",
          []
        ],
        [
          "",
          []
        ],
        [
          "Sportnet.hr",
          []
        ]
      ],
      [
        [
          "18",
          []
        ],
        [
          "6 Dec",
          []
        ],
        [
          "H",
          [
            "/wiki/Stadion_Stanovi"
          ]
        ],
        [
          "Lokomotiva",
          [
            "/wiki/NK_Lokomotiva"
          ]
        ],
        [
          "2 - 5",
          []
        ],
        [
          "200",
          []
        ],
        [
          "Theophilus , Buljat",
          [
            "/wiki/Theophilus_Solomon",
            "/wiki/Jurica_Buljat"
          ]
        ],
        [
          "Sportnet.hr",
          []
        ]
      ],
      [
        [
          "19",
          []
        ],
        [
          "13 Dec",
          []
        ],
        [
          "H",
          [
            "/wiki/Stadion_Stanovi"
          ]
        ],
        [
          "RNK Split",
          [
            "/wiki/RNK_Split"
          ]
        ],
        [
          "1 - 1",
          []
        ],
        [
          "",
          []
        ],
        [
          "Jerbi\u0107",
          [
            "/wiki/Jure_Jerbi\u0107"
          ]
        ],
        [
          "Sportnet.hr",
          []
        ]
      ],
      [
        [
          "20",
          []
        ],
        [
          "7 Feb",
          []
        ],
        [
          "H",
          [
            "/wiki/Stadion_Stanovi"
          ]
        ],
        [
          "Osijek",
          [
            "/wiki/NK_Osijek"
          ]
        ],
        [
          "-",
          []
        ],
        [
          "",
          []
        ],
        [
          "",
          []
        ],
        [
          "",
          []
        ]
      ]
    ],
    "section_title": "Matches -- Prva HNL",
    "section_text": "Main article : 2014\u201315 Prva HNL",
    "uid": "2014\u201315_NK_Zadar_season_0",
    "intro": "The 2014-15 season is the 70th season in Zadars history and their eighth in the Prva HNL. Their 7th place finish in the 2013-14 season means it is their 18th successive season playing in the Prva HNL. On December 2, 2014 the main chairman of NK Zadar Reno Sinov\u010di\u0107 was arrested on grounds of corruption."
  },
  "2009\u201310_Azadegan_League_6": {
    "url": "https://en.wikipedia.org/wiki/2009\u201310_Azadegan_League",
    "title": "2009\u201310 Azadegan League",
    "header": [
      [
        "Team",
        []
      ],
      [
        "Outgoing manager",
        []
      ],
      [
        "Manner of departure",
        []
      ],
      [
        "Date of vacancy",
        []
      ],
      [
        "Replaced by",
        []
      ],
      [
        "Date of appointment",
        []
      ]
    ],
    "data": [
      [
        [
          "Kowsar",
          [
            "/wiki/Kowsar_Lorestan_F.C."
          ]
        ],
        [
          "Reza Ahadi",
          [
            "/wiki/Reza_Ahadi"
          ]
        ],
        [
          "Sacked",
          []
        ],
        [
          "2009",
          []
        ],
        [
          "Mostafa Ghanbarpour",
          []
        ],
        [
          "2009",
          []
        ]
      ],
      [
        [
          "Shensa Arak",
          [
            "/wiki/Aluminium_Arak_F.C."
          ]
        ],
        [
          "Castro Felore",
          []
        ],
        [
          "Sacked",
          []
        ],
        [
          "Oct 2009",
          []
        ],
        [
          "Savio Souza",
          []
        ],
        [
          "20 Oct 2009",
          []
        ]
      ],
      [
        [
          "Kowsar",
          [
            "/wiki/Kowsar_Lorestan_F.C."
          ]
        ],
        [
          "Mostafa Ghanbarpour",
          []
        ],
        [
          "Sacked",
          []
        ],
        [
          "Nov 2009",
          []
        ],
        [
          "Ebrahim Talebi",
          []
        ],
        [
          "Nov 2009",
          []
        ]
      ],
      [
        [
          "Shirin Faraz",
          [
            "/wiki/Rahian_Kermanshah_F.C."
          ]
        ],
        [
          "Mahmoud Fekri",
          [
            "/wiki/Mahmoud_Fekri"
          ]
        ],
        [
          "Sacked",
          []
        ],
        [
          "Dec 2009",
          []
        ],
        [
          "Estehghari / Mortazavi",
          []
        ],
        [
          "Dec 2009",
          []
        ]
      ],
      [
        [
          "Payam Mokhaberat",
          [
            "/wiki/Payam_Mokhaberat_Shiraz_F.C."
          ]
        ],
        [
          "Mehrdad Shekari",
          []
        ],
        [
          "Sacked",
          []
        ],
        [
          "Dec 2009",
          []
        ],
        [
          "Jafar Fatahi",
          []
        ],
        [
          "Dec 2009",
          []
        ]
      ],
      [
        [
          "Iranjavan",
          [
            "/wiki/F.C._Iranjavan_Bushehr"
          ]
        ],
        [
          "Naser Ebrahimi",
          []
        ],
        [
          "Abdicate",
          []
        ],
        [
          "Dec 2009",
          []
        ],
        [
          "Abdolrahim Kharazmi",
          []
        ],
        [
          "Dec 2009",
          []
        ]
      ],
      [
        [
          "Sanat Naft",
          [
            "/wiki/Sanat_Naft_Abadan_F.C."
          ]
        ],
        [
          "Bijan Zolfagharnasab",
          [
            "/wiki/Bijan_Zolfagharnasab"
          ]
        ],
        [
          "Abdicate",
          []
        ],
        [
          "1 Jan 2010",
          []
        ],
        [
          "Faraz Kamalvand",
          [
            "/wiki/Faraz_Kamalvand"
          ]
        ],
        [
          "1 Jan 2010",
          []
        ]
      ],
      [
        [
          "Gostaresh Foolad",
          [
            "/wiki/Gostaresh_Foulad_F.C."
          ]
        ],
        [
          "Hossein Khatibi",
          [
            "/wiki/Hossein_Khatibi"
          ]
        ],
        [
          "Abdicate",
          []
        ],
        [
          "20 Mar 2010",
          []
        ],
        [
          "Farhad Kazemi",
          [
            "/wiki/Farhad_Kazemi"
          ]
        ],
        [
          "20 Mar 2010",
          []
        ]
      ],
      [
        [
          "Nassaji Mazandaran",
          [
            "/wiki/F.C._Nassaji_Mazandaran"
          ]
        ],
        [
          "Nader Dastneshan",
          [
            "/wiki/Nader_Dastneshan"
          ]
        ],
        [
          "Abdicate",
          []
        ],
        [
          "20 Mar 2010",
          []
        ],
        [
          "Reza Foruzani",
          []
        ],
        [
          "24 Mar 2010",
          []
        ]
      ],
      [
        [
          "Payam Mashhad",
          [
            "/wiki/Payam_Mashhad_F.C."
          ]
        ],
        [
          "Ali Hanteh",
          [
            "/wiki/Ali_Hanteh"
          ]
        ],
        [
          "Abdicate",
          []
        ],
        [
          "12 Mar 2010",
          []
        ],
        [
          "Davoud Mahabadi",
          [
            "/wiki/Davoud_Mahabadi"
          ]
        ],
        [
          "19 Mar 2010",
          []
        ]
      ],
      [
        [
          "Sanati Kaveh",
          [
            "/wiki/Sanati_Kaveh_Tehran_F.C."
          ]
        ],
        [
          "Ahmad Khodadad",
          []
        ],
        [
          "Abdicate",
          []
        ],
        [
          "5 Mar 2010",
          []
        ],
        [
          "Hossein Fekri",
          [
            "/wiki/Hossein_Fekri"
          ]
        ],
        [
          "7 Mar 2010",
          []
        ]
      ],
      [
        [
          "Mehrkam Pars",
          [
            "/wiki/Mehrkam_Pars_F.C."
          ]
        ],
        [
          "Behtash Fariba",
          [
            "/wiki/Behtash_Fariba"
          ]
        ],
        [
          "Abdicate",
          []
        ],
        [
          "15 Mar 2010",
          []
        ],
        [
          "Javad Zarincheh",
          [
            "/wiki/Javad_Zarincheh"
          ]
        ],
        [
          "17 Mar 2010",
          []
        ]
      ],
      [
        [
          "Naft Tehran",
          [
            "/wiki/Naft_Tehran_F.C."
          ]
        ],
        [
          "Mehdi Dinvarzadeh",
          [
            "/wiki/Mehdi_Dinvarzadeh"
          ]
        ],
        [
          "Abdicate",
          []
        ],
        [
          "20 May 2010",
          []
        ],
        [
          "Morteza Yeke",
          []
        ],
        [
          "23 May 2010",
          []
        ]
      ],
      [
        [
          "Naft Tehran",
          [
            "/wiki/Naft_Tehran_F.C."
          ]
        ],
        [
          "Morteza Yeke",
          []
        ],
        [
          "Abdicate",
          []
        ],
        [
          "1 June 2010",
          []
        ],
        [
          "Nader Dastneshan",
          [
            "/wiki/Nader_Dastneshan"
          ]
        ],
        [
          "2 June 2010",
          []
        ]
      ]
    ],
    "section_title": "Managerial changes",
    "section_text": "",
    "uid": "2009\u201310_Azadegan_League_6",
    "intro": "The 2009-10 Azadegan League was the 19th season of the Azadegan League and ninth as the second highest division since its establishment in 1991. The season featured 19 teams from the 2008-09 Azadegan League, three new teams relegated from the 2008-09 Persian Gulf Cup: Payam Mashhad, Damash and Bargh Shiraz and four new teams promoted from the 2008-09 2nd Division: Sanati Kaveh, Foolad Novin, Mes Sarcheshmeh and Naft Tehran. Gostaresh Foulad replaced Niroye Zamini while Iranjavan replaced Moghavemat Mersad. Aluminium Arak changed their name into Shensa Arak. The league started on 10 August 2009 and ended on 27 June 2010. Shahrdari Tabriz and Naft Tehran won the Azadegan League title for the first time in their history. Shahrdari Tabriz, Naft Tehran and Sanat Naft promoted to the Persian Gulf Cup."
  },
  "2016\u201317_Bury_F.C._season_0": {
    "url": "https://en.wikipedia.org/wiki/2016\u201317_Bury_F.C._season",
    "title": "2016\u201317 Bury F.C. season",
    "header": [
      [
        "Date from",
        []
      ],
      [
        "Position",
        []
      ],
      [
        "Name",
        []
      ],
      [
        "From",
        []
      ],
      [
        "Fee",
        []
      ]
    ],
    "data": [
      [
        [
          "1 July 2016",
          []
        ],
        [
          "CF",
          [
            "/wiki/Forward_(association_football)"
          ]
        ],
        [
          "Nicky Clark",
          [
            "/wiki/Nicky_Clark"
          ]
        ],
        [
          "Rangers",
          [
            "/wiki/Rangers_F.C."
          ]
        ],
        [
          "Free transfer",
          []
        ]
      ],
      [
        [
          "1 July 2016",
          []
        ],
        [
          "RM",
          [
            "/wiki/Midfielder"
          ]
        ],
        [
          "Zeli Ismail",
          [
            "/wiki/Zeli_Ismail"
          ]
        ],
        [
          "Wolverhampton Wanderers",
          [
            "/wiki/Wolverhampton_Wanderers_F.C."
          ]
        ],
        [
          "Free transfer",
          []
        ]
      ],
      [
        [
          "1 July 2016",
          []
        ],
        [
          "CB",
          [
            "/wiki/Defender_(association_football)"
          ]
        ],
        [
          "Antony Kay",
          [
            "/wiki/Antony_Kay"
          ]
        ],
        [
          "Milton Keynes Dons",
          [
            "/wiki/Milton_Keynes_Dons_F.C."
          ]
        ],
        [
          "Free transfer",
          []
        ]
      ],
      [
        [
          "1 July 2016",
          []
        ],
        [
          "GK",
          [
            "/wiki/Goalkeeper_(association_football)"
          ]
        ],
        [
          "Chris Kirkland",
          [
            "/wiki/Chris_Kirkland"
          ]
        ],
        [
          "Preston North End",
          [
            "/wiki/Preston_North_End_F.C."
          ]
        ],
        [
          "Free transfer",
          []
        ]
      ],
      [
        [
          "1 July 2016",
          []
        ],
        [
          "LB",
          [
            "/wiki/Defender_(association_football)"
          ]
        ],
        [
          "Greg Leigh",
          [
            "/wiki/Greg_Leigh"
          ]
        ],
        [
          "Bradford City",
          [
            "/wiki/Bradford_City_A.F.C."
          ]
        ],
        [
          "Free transfer",
          []
        ]
      ],
      [
        [
          "1 July 2016",
          []
        ],
        [
          "RB",
          [
            "/wiki/Defender_(association_football)"
          ]
        ],
        [
          "Niall Maher",
          [
            "/wiki/Niall_Maher"
          ]
        ],
        [
          "Bolton Wanderers",
          [
            "/wiki/Bolton_Wanderers_F.C."
          ]
        ],
        [
          "Free transfer",
          []
        ]
      ],
      [
        [
          "1 July 2016",
          []
        ],
        [
          "GK",
          [
            "/wiki/Goalkeeper_(association_football)"
          ]
        ],
        [
          "Ben Williams",
          [
            "/wiki/Ben_Williams_(footballer,_born_1982)"
          ]
        ],
        [
          "Bradford City",
          [
            "/wiki/Bradford_City_A.F.C."
          ]
        ],
        [
          "Free transfer",
          []
        ]
      ],
      [
        [
          "19 July 2016",
          []
        ],
        [
          "CB",
          [
            "/wiki/Defender_(association_football)"
          ]
        ],
        [
          "Leon Barnett",
          [
            "/wiki/Leon_Barnett"
          ]
        ],
        [
          "Wigan Athletic",
          [
            "/wiki/Wigan_Athletic_F.C."
          ]
        ],
        [
          "Free transfer",
          []
        ]
      ],
      [
        [
          "21 July 2016",
          []
        ],
        [
          "CM",
          [
            "/wiki/Midfielder"
          ]
        ],
        [
          "Neil Danns",
          [
            "/wiki/Neil_Danns"
          ]
        ],
        [
          "Bolton Wanderers",
          [
            "/wiki/Bolton_Wanderers_F.C."
          ]
        ],
        [
          "Free transfer",
          []
        ]
      ],
      [
        [
          "5 August 2016",
          []
        ],
        [
          "CF",
          [
            "/wiki/Forward_(association_football)"
          ]
        ],
        [
          "Chris Brown",
          [
            "/wiki/Chris_Brown_(footballer,_born_1984)"
          ]
        ],
        [
          "Blackburn Rovers",
          [
            "/wiki/Blackburn_Rovers_F.C."
          ]
        ],
        [
          "Free transfer",
          []
        ]
      ],
      [
        [
          "6 August 2016",
          []
        ],
        [
          "GK",
          [
            "/wiki/Goalkeeper_(association_football)"
          ]
        ],
        [
          "Paul Rachubka",
          [
            "/wiki/Paul_Rachubka"
          ]
        ],
        [
          "Bolton Wanderers",
          [
            "/wiki/Bolton_Wanderers_F.C."
          ]
        ],
        [
          "Free transfer",
          []
        ]
      ],
      [
        [
          "24 August 2016",
          []
        ],
        [
          "CF",
          [
            "/wiki/Forward_(association_football)"
          ]
        ],
        [
          "James Vaughan",
          [
            "/wiki/James_Vaughan_(footballer,_born_1988)"
          ]
        ],
        [
          "Birmingham City",
          [
            "/wiki/Birmingham_City_F.C."
          ]
        ],
        [
          "Free transfer",
          []
        ]
      ],
      [
        [
          "14 October 2016",
          []
        ],
        [
          "CF",
          [
            "/wiki/Forward_(association_football)"
          ]
        ],
        [
          "Ishmael Miller",
          [
            "/wiki/Ishmael_Miller"
          ]
        ],
        [
          "Huddersfield Town",
          [
            "/wiki/Huddersfield_Town_A.F.C."
          ]
        ],
        [
          "Free transfer",
          []
        ]
      ],
      [
        [
          "1 January 2017",
          []
        ],
        [
          "RW",
          [
            "/wiki/Midfielder"
          ]
        ],
        [
          "Jack Mackreth",
          [
            "/wiki/Jack_Mackreth"
          ]
        ],
        [
          "Macclesfield Town",
          [
            "/wiki/Macclesfield_Town_F.C."
          ]
        ],
        [
          "Undisclosed",
          []
        ]
      ],
      [
        [
          "6 January 2017",
          []
        ],
        [
          "CB",
          [
            "/wiki/Defender_(association_football)"
          ]
        ],
        [
          "Reece Brown",
          [
            "/wiki/Reece_Brown"
          ]
        ],
        [
          "Sheffield United",
          [
            "/wiki/Sheffield_United_F.C."
          ]
        ],
        [
          "Free transfer",
          []
        ]
      ],
      [
        [
          "19 January 2017",
          []
        ],
        [
          "RW",
          [
            "/wiki/Midfielder"
          ]
        ],
        [
          "Jermaine Pennant",
          [
            "/wiki/Jermaine_Pennant"
          ]
        ],
        [
          "Tampines Rovers",
          [
            "/wiki/Tampines_Rovers_FC"
          ]
        ],
        [
          "Free transfer",
          []
        ]
      ],
      [
        [
          "24 January 2017",
          []
        ],
        [
          "CF",
          [
            "/wiki/Forward_(association_football)"
          ]
        ],
        [
          "Ryan Lowe",
          [
            "/wiki/Ryan_Lowe"
          ]
        ],
        [
          "Crewe Alexandra",
          [
            "/wiki/Crewe_Alexandra_F.C."
          ]
        ],
        [
          "Free transfer",
          []
        ]
      ],
      [
        [
          "25 February 2017",
          []
        ],
        [
          "RB",
          [
            "/wiki/Defender_(association_football)"
          ]
        ],
        [
          "Paul Caddis",
          [
            "/wiki/Paul_Caddis"
          ]
        ],
        [
          "Birmingham City",
          [
            "/wiki/Birmingham_City_F.C."
          ]
        ],
        [
          "Free transfer",
          []
        ]
      ]
    ],
    "section_title": "Transfers -- Transfers in",
    "section_text": "",
    "uid": "2016\u201317_Bury_F.C._season_0",
    "intro": "The 2016-17 season is Bury's second consecutive season in League One and their 132nd year in existence. Along with competing in League One, the club will also participate in the FA Cup, League Cup and JP Trophy. The season covers the period from 1 July 2016 to 30 June 2017."
  },
  "2010\u201311_Coupe_de_France_8": {
    "url": "https://en.wikipedia.org/wiki/2010\u201311_Coupe_de_France",
    "title": "2010\u201311 Coupe de France",
    "header": [
      [
        "Tie no",
        []
      ],
      [
        "Home team",
        []
      ],
      [
        "Score",
        []
      ],
      [
        "Away team",
        []
      ]
    ],
    "data": [
      [
        [
          "1",
          []
        ],
        [
          "Caen",
          [
            "/wiki/Stade_Malherbe_Caen"
          ]
        ],
        [
          "0-1",
          []
        ],
        [
          "Lyon",
          [
            "/wiki/Olympique_Lyonnais"
          ]
        ]
      ],
      [
        [
          "2",
          []
        ],
        [
          "Toulouse",
          [
            "/wiki/Toulouse_FC"
          ]
        ],
        [
          "1-2",
          []
        ],
        [
          "Paris",
          [
            "/wiki/Paris_FC"
          ]
        ]
      ],
      [
        [
          "3",
          []
        ],
        [
          "Agen",
          [
            "/wiki/SU_Agen_Football"
          ]
        ],
        [
          "2-0",
          []
        ],
        [
          "Poitiers",
          [
            "/wiki/Stade_Poitevin_FC"
          ]
        ]
      ],
      [
        [
          "4",
          []
        ],
        [
          "Bordeaux",
          [
            "/wiki/FC_Girondins_de_Bordeaux"
          ]
        ],
        [
          "3-1",
          []
        ],
        [
          "Rouen",
          [
            "/wiki/FC_Rouen"
          ]
        ]
      ],
      [
        [
          "5",
          []
        ],
        [
          "Tr\u00e9lissac",
          [
            "/wiki/Tr\u00e9lissac_FC"
          ]
        ],
        [
          "0-1",
          []
        ],
        [
          "Quevilly",
          [
            "/wiki/US_Quevilly-Rouen"
          ]
        ]
      ],
      [
        [
          "6",
          []
        ],
        [
          "Chauvigny",
          []
        ],
        [
          "1-3",
          []
        ],
        [
          "Le Mans",
          [
            "/wiki/Le_Mans_FC"
          ]
        ]
      ],
      [
        [
          "7",
          []
        ],
        [
          "Nantes",
          [
            "/wiki/FC_Nantes"
          ]
        ],
        [
          "3-1",
          []
        ],
        [
          "Cognac",
          [
            "/wiki/UA_Cognac"
          ]
        ]
      ],
      [
        [
          "8",
          []
        ],
        [
          "Angers",
          [
            "/wiki/Angers_SCO"
          ]
        ],
        [
          "2-1 ( a.e.t )",
          [
            "/wiki/Overtime_(sports)"
          ]
        ],
        [
          "Valenciennes",
          [
            "/wiki/Valenciennes_FC"
          ]
        ]
      ],
      [
        [
          "9",
          []
        ],
        [
          "Cr\u00e9teil",
          [
            "/wiki/US_Cr\u00e9teil-Lusitanos"
          ]
        ],
        [
          "1-1 ( a.e.t ) 5-6 pen",
          [
            "/wiki/Overtime_(sports)",
            "/wiki/Penalty_shoot-out_(association_football)"
          ]
        ],
        [
          "Nice",
          [
            "/wiki/OGC_Nice"
          ]
        ]
      ],
      [
        [
          "10",
          []
        ],
        [
          "Issy-les-Moulineaux",
          []
        ],
        [
          "0-1 ( a.e.t )",
          [
            "/wiki/Overtime_(sports)"
          ]
        ],
        [
          "Brest",
          [
            "/wiki/Stade_Brestois_29"
          ]
        ]
      ],
      [
        [
          "11",
          []
        ],
        [
          "Avranches",
          [
            "/wiki/US_Avranches"
          ]
        ],
        [
          "1-3",
          []
        ],
        [
          "Vend\u00e9e Fontenay",
          [
            "/wiki/Vend\u00e9e_Fontenay_Foot"
          ]
        ]
      ],
      [
        [
          "12",
          []
        ],
        [
          "Boulogne",
          [
            "/wiki/US_Boulogne"
          ]
        ],
        [
          "2-2 ( a.e.t ) 5-4 pen",
          [
            "/wiki/Overtime_(sports)",
            "/wiki/Penalty_shoot-out_(association_football)"
          ]
        ],
        [
          "Amiens",
          [
            "/wiki/Amiens_SC"
          ]
        ]
      ],
      [
        [
          "13",
          []
        ],
        [
          "Montagnarde",
          [
            "/wiki/US_Montagnarde"
          ]
        ],
        [
          "0-0 ( a.e.t ) 6-7 pen",
          [
            "/wiki/Overtime_(sports)",
            "/wiki/Penalty_shoot-out_(association_football)"
          ]
        ],
        [
          "Drancy",
          [
            "/wiki/JA_Drancy"
          ]
        ]
      ],
      [
        [
          "14",
          []
        ],
        [
          "Cherbourg",
          [
            "/wiki/AS_Cherbourg_Football"
          ]
        ],
        [
          "1-0",
          []
        ],
        [
          "Le Poir\u00e9-sur-Vie",
          [
            "/wiki/Vend\u00e9e_Poir\u00e9-sur-Vie_Football"
          ]
        ]
      ],
      [
        [
          "15",
          []
        ],
        [
          "Paris Saint-Germain",
          [
            "/wiki/Paris_Saint-Germain_F.C."
          ]
        ],
        [
          "5-1",
          []
        ],
        [
          "Lens",
          [
            "/wiki/RC_Lens"
          ]
        ]
      ],
      [
        [
          "16",
          []
        ],
        [
          "Lorient",
          [
            "/wiki/FC_Lorient"
          ]
        ],
        [
          "4-1",
          []
        ],
        [
          "Vannes",
          [
            "/wiki/Vannes_OC"
          ]
        ]
      ],
      [
        [
          "17",
          []
        ],
        [
          "Stade Reims",
          [
            "/wiki/Stade_de_Reims"
          ]
        ],
        [
          "1-0",
          []
        ],
        [
          "Montpellier",
          [
            "/wiki/Montpellier_HSC"
          ]
        ]
      ]
    ],
    "section_title": "",
    "section_text": "",
    "uid": "2010\u201311_Coupe_de_France_8",
    "intro": "The 2010-11 Coupe de France was the 94th season of France's most prestigious cup competition. The competition was organized by the French Football Federation (FFF) and was open to all clubs in French football, as well as clubs from the overseas departments and territories (Guadeloupe, French Guiana, :Martinique, Mayotte, New Caledonia, French Polynesia and R\u00e9union). The final was contested on 14 May 2011 at the Stade de France. The defending champions were Paris Saint-Germain, who defeated Monaco 1-0 in the final of the 2009-10 edition. The winner of the competition will qualify for the 2011-12 UEFA Europa League and will be inserted into the Playoff round. The competition officially began on 11 August 2010 with the start of the first round beginning play in the Alsace region (most regions began play the following weekend), however, qualification matches for the tournament had been in commencement since January 2010 with overseas regions and collectivities such as New Caledonia having its national cup competition served as a qualifying tournament for the Coupe de France. On 2 March 2011, the last amateur club in the competition, Chamb\u00e9ry, who are currently playing in the Championnat de France amateur 2, the fifth level of French football, were eliminated after losing 3-0 to Ligue 2 club Angers in the quarterfinals. Chamb\u00e9ry's stint in the competition was notable due in part to the club being the first amateur club in Coupe de France history to defeat three Ligue 1 clubs. On 15 April, Chamb\u00e9ry were awarded the Petit Poucet Plaque, an award given to the best performing amateur club in the Coupe de France. On 14 May 2011, first division club Lille defeated the defending champions Paris Saint-Germain 1-0 in the 2011 Coupe de France Final courtesy of a late second half goal from Ludovic Obraniak to win the Coupe de France title. The title is the club's first domestically since winning the Coupe de France in over 56 years ago."
  }
}