{
  "2011\u201312_Coupe_de_France_8": {
    "url": "https://en.wikipedia.org/wiki/2011\u201312_Coupe_de_France",
    "title": "2011\u201312 Coupe de France",
    "header": [
      [
        "Tie no",
        []
      ],
      [
        "Home team",
        []
      ],
      [
        "Score",
        []
      ],
      [
        "Away team",
        []
      ]
    ],
    "data": [
      [
        [
          "18",
          []
        ],
        [
          "Red Star",
          [
            "/wiki/Red_Star_F.C."
          ]
        ],
        [
          "0-5",
          []
        ],
        [
          "Marseille",
          [
            "/wiki/Olympique_de_Marseille"
          ]
        ]
      ],
      [
        [
          "19",
          []
        ],
        [
          "Mulhouse",
          [
            "/wiki/FC_Mulhouse"
          ]
        ],
        [
          "1\u22123",
          []
        ],
        [
          "Cr\u00e9teil",
          [
            "/wiki/US_Cr\u00e9teil-Lusitanos"
          ]
        ]
      ],
      [
        [
          "20",
          []
        ],
        [
          "Angers",
          [
            "/wiki/Angers_SCO"
          ]
        ],
        [
          "4-3",
          []
        ],
        [
          "AS Monaco",
          [
            "/wiki/AS_Monaco_FC"
          ]
        ]
      ],
      [
        [
          "21",
          []
        ],
        [
          "Drancy",
          [
            "/wiki/JA_Drancy"
          ]
        ],
        [
          "3-3 ( a.e.t ) 4-2 pen",
          [
            "/wiki/Overtime_(sports)",
            "/wiki/Penalty_shoot-out_(association_football)"
          ]
        ],
        [
          "Strasbourg",
          [
            "/wiki/RC_Strasbourg_Alsace"
          ]
        ]
      ],
      [
        [
          "22",
          []
        ],
        [
          "Caen",
          [
            "/wiki/Stade_Malherbe_Caen"
          ]
        ],
        [
          "2-4 ( a.e.t )",
          [
            "/wiki/Overtime_(sports)"
          ]
        ],
        [
          "Troyes",
          [
            "/wiki/Troyes_AC"
          ]
        ]
      ],
      [
        [
          "23",
          []
        ],
        [
          "Marck",
          [
            "/wiki/AS_Marck"
          ]
        ],
        [
          "0-2",
          []
        ],
        [
          "Nice",
          [
            "/wiki/OGC_Nice"
          ]
        ]
      ],
      [
        [
          "24",
          []
        ],
        [
          "Prix-l\u00e8s-M\u00e9zi\u00e8res",
          [
            "/wiki/AS_Prix-l\u00e8s-M\u00e9zi\u00e8res"
          ]
        ],
        [
          "0-4",
          []
        ],
        [
          "Montpellier",
          [
            "/wiki/Montpellier_HSC"
          ]
        ]
      ],
      [
        [
          "25",
          []
        ],
        [
          "Compi\u00e8gne",
          [
            "/wiki/AFC_Compi\u00e8gne"
          ]
        ],
        [
          "2-1 ( a.e.t )",
          [
            "/wiki/Overtime_(sports)"
          ]
        ],
        [
          "Montagnarde",
          [
            "/wiki/US_Montagnarde"
          ]
        ]
      ],
      [
        [
          "26",
          []
        ],
        [
          "Saint-Colomban Locmin\u00e9",
          []
        ],
        [
          "1-2 ( a.e.t )",
          [
            "/wiki/Overtime_(sports)"
          ]
        ],
        [
          "Paris Saint-Germain",
          [
            "/wiki/Paris_Saint-Germain_F.C."
          ]
        ]
      ],
      [
        [
          "27",
          []
        ],
        [
          "Orl\u00e9ans",
          [
            "/wiki/US_Orl\u00e9ans"
          ]
        ],
        [
          "0-0 ( a.e.t ) 5\u22123 pen",
          [
            "/wiki/Overtime_(sports)",
            "/wiki/Penalty_shoot-out_(association_football)"
          ]
        ],
        [
          "Clermont",
          [
            "/wiki/Clermont_Foot"
          ]
        ]
      ],
      [
        [
          "28",
          []
        ],
        [
          "Metz",
          [
            "/wiki/FC_Metz"
          ]
        ],
        [
          "2-2 ( a.e.t ) 3\u22125 pen",
          [
            "/wiki/Overtime_(sports)",
            "/wiki/Penalty_shoot-out_(association_football)"
          ]
        ],
        [
          "Evian",
          [
            "/wiki/Thonon_\u00c9vian_F.C."
          ]
        ]
      ],
      [
        [
          "29",
          []
        ],
        [
          "Vitr\u00e9",
          [
            "/wiki/AS_Vitr\u00e9"
          ]
        ],
        [
          "1-2",
          []
        ],
        [
          "Tours",
          [
            "/wiki/Tours_FC"
          ]
        ]
      ],
      [
        [
          "30",
          []
        ],
        [
          "Le Mans",
          [
            "/wiki/Le_Mans_FC"
          ]
        ],
        [
          "0-2",
          []
        ],
        [
          "Valenciennes",
          [
            "/wiki/Valenciennes_FC"
          ]
        ]
      ],
      [
        [
          "31",
          []
        ],
        [
          "Tour d'Auvergne Rennes",
          []
        ],
        [
          "0-0 ( a.e.t ) 4\u22125 pen",
          [
            "/wiki/Overtime_(sports)",
            "/wiki/Penalty_shoot-out_(association_football)"
          ]
        ],
        [
          "Quevilly",
          [
            "/wiki/US_Quevilly-Rouen"
          ]
        ]
      ],
      [
        [
          "32",
          []
        ],
        [
          "Rennes",
          [
            "/wiki/Stade_Rennais_F.C."
          ]
        ],
        [
          "3-0",
          []
        ],
        [
          "Nancy",
          [
            "/wiki/AS_Nancy"
          ]
        ]
      ]
    ],
    "section_title": "",
    "section_text": "",
    "uid": "2011\u201312_Coupe_de_France_8",
    "intro": "The 2011-12 Coupe de France was the 95th season of the most prestigious cup competition of France. The competition was organized by the French Football Federation (FFF) and open to all clubs in French football, as well as clubs from the overseas departments and territories (Guadeloupe, French Guiana, Martinique, Mayotte, New Caledonia, French Polynesia, and R\u00e9union). The final was contested on 28 April 2012 at the Stade de France. The defending champions were Lille, who defeated Paris Saint-Germain 1-0 in the final of the 2010-11 season. The winner of the competition qualified for the group stage of the 2012-13 UEFA Europa League. On 28 April 2012, first division club Lyon defeated semi-professional third-tier Quevilly 1-0 in the 2012 Coupe de France Final courtesy of a first half goal from Lisandro L\u00f3pez to win its fifth Coupe de France title. The title is the club's first domestically since winning the same competition in 2008. The runners-up, Quevilly, alongside fellow National club Gaz\u00e9lec Ajaccio, were awarded the Petit Poucet Plaque, an award given to the best performing non-professional club in the Coupe de France."
  },
  "2016\u201317_Bury_F.C._season_2": {
    "url": "https://en.wikipedia.org/wiki/2016\u201317_Bury_F.C._season",
    "title": "2016\u201317 Bury F.C. season",
    "header": [
      [
        "Date from",
        []
      ],
      [
        "Position",
        []
      ],
      [
        "Name",
        []
      ],
      [
        "From",
        []
      ],
      [
        "Date until",
        []
      ]
    ],
    "data": [
      [
        [
          "31 August 2016",
          []
        ],
        [
          "DM",
          [
            "/wiki/Midfielder"
          ]
        ],
        [
          "Kean Bryan",
          []
        ],
        [
          "Manchester City",
          [
            "/wiki/Manchester_City_F.C."
          ]
        ],
        [
          "End of Season",
          []
        ]
      ],
      [
        [
          "31 August 2016",
          []
        ],
        [
          "LM",
          [
            "/wiki/Midfielder"
          ]
        ],
        [
          "Tom Walker",
          [
            "/wiki/Tom_Walker_(footballer)"
          ]
        ],
        [
          "Bolton Wanderers",
          [
            "/wiki/Bolton_Wanderers_F.C."
          ]
        ],
        [
          "End of Season",
          []
        ]
      ],
      [
        [
          "6 January 2017",
          []
        ],
        [
          "CB",
          [
            "/wiki/Defender_(association_football)"
          ]
        ],
        [
          "Cameron Burgess",
          [
            "/wiki/Cameron_Burgess"
          ]
        ],
        [
          "Fulham",
          [
            "/wiki/Fulham_F.C."
          ]
        ],
        [
          "End of Season",
          []
        ]
      ],
      [
        [
          "6 January 2017",
          []
        ],
        [
          "CB",
          [
            "/wiki/Defender_(association_football)"
          ]
        ],
        [
          "Taylor Moore",
          [
            "/wiki/Taylor_Moore"
          ]
        ],
        [
          "Bristol City",
          [
            "/wiki/Bristol_City_F.C."
          ]
        ],
        [
          "End of Season",
          []
        ]
      ],
      [
        [
          "30 January 2017",
          []
        ],
        [
          "GK",
          [
            "/wiki/Goalkeeper_(association_football)"
          ]
        ],
        [
          "Joe Murphy",
          [
            "/wiki/Joe_Murphy_(footballer,_born_1981)"
          ]
        ],
        [
          "Huddersfield Town",
          [
            "/wiki/Huddersfield_Town_A.F.C."
          ]
        ],
        [
          "End of Season",
          []
        ]
      ],
      [
        [
          "31 January 2017",
          []
        ],
        [
          "CB",
          [
            "/wiki/Defender_(association_football)"
          ]
        ],
        [
          "Tom Beadling",
          []
        ],
        [
          "Sunderland",
          [
            "/wiki/Sunderland_A.F.C."
          ]
        ],
        [
          "End of Season",
          []
        ]
      ],
      [
        [
          "31 January 2017",
          []
        ],
        [
          "LB",
          [
            "/wiki/Defender_(association_football)"
          ]
        ],
        [
          "Sylvain Deslandes",
          [
            "/wiki/Sylvain_Deslandes"
          ]
        ],
        [
          "Wolverhampton Wanderers",
          [
            "/wiki/Wolverhampton_Wanderers_F.C."
          ]
        ],
        [
          "End of Season",
          []
        ]
      ]
    ],
    "section_title": "Transfers -- Loans in",
    "section_text": "",
    "uid": "2016\u201317_Bury_F.C._season_2",
    "intro": "The 2016-17 season is Bury's second consecutive season in League One and their 132nd year in existence. Along with competing in League One, the club will also participate in the FA Cup, League Cup and JP Trophy. The season covers the period from 1 July 2016 to 30 June 2017."
  },
  "2010\u201311_curling_season_0": {
    "url": "https://en.wikipedia.org/wiki/2010\u201311_curling_season",
    "title": "2010\u201311 curling season",
    "header": [
      [
        "Event",
        []
      ],
      [
        "Winning skip",
        []
      ],
      [
        "Runner-up skip",
        []
      ]
    ],
    "data": [
      [
        [
          "Canadian Mixed Curling Championship Morris , Manitoba , Nov. 13-20",
          [
            "/wiki/2011_Canadian_Mixed_Curling_Championship",
            "/wiki/Morris,_Manitoba"
          ]
        ],
        [
          "Prince Edward Island",
          [
            "/wiki/Prince_Edward_Island"
          ]
        ],
        [
          "Manitoba",
          [
            "/wiki/Manitoba"
          ]
        ]
      ],
      [
        [
          "The Dominion Curling Club Championship Charlottetown , Prince Edward Island , Nov. 23-28",
          [
            "/wiki/2010_The_Dominion_Curling_Club_Championship",
            "/wiki/Charlottetown",
            "/wiki/Prince_Edward_Island"
          ]
        ],
        [
          "Saskatchewan",
          [
            "/wiki/Saskatchewan"
          ]
        ],
        [
          "Ontario",
          [
            "/wiki/Ontario"
          ]
        ]
      ],
      [
        [
          "The Dominion Curling Club Championship Charlottetown , Prince Edward Island , Nov. 23-28",
          [
            "/wiki/2010_The_Dominion_Curling_Club_Championship",
            "/wiki/Charlottetown",
            "/wiki/Prince_Edward_Island"
          ]
        ],
        [
          "Alberta",
          [
            "/wiki/Alberta"
          ]
        ],
        [
          "Saskatchewan",
          [
            "/wiki/Saskatchewan"
          ]
        ]
      ],
      [
        [
          "Canada Cup of Curling Medicine Hat , Alberta , Dec. 1-5",
          [
            "/wiki/2010_Canada_Cup_of_Curling",
            "/wiki/Medicine_Hat",
            "/wiki/Alberta"
          ]
        ],
        [
          "Glenn Howard",
          [
            "/wiki/Glenn_Howard"
          ]
        ],
        [
          "Kevin Martin",
          [
            "/wiki/Kevin_Martin_(curler)"
          ]
        ]
      ],
      [
        [
          "Canada Cup of Curling Medicine Hat , Alberta , Dec. 1-5",
          [
            "/wiki/2010_Canada_Cup_of_Curling",
            "/wiki/Medicine_Hat",
            "/wiki/Alberta"
          ]
        ],
        [
          "Stefanie Lawton",
          [
            "/wiki/Stefanie_Lawton"
          ]
        ],
        [
          "Cheryl Bernard",
          [
            "/wiki/Cheryl_Bernard"
          ]
        ]
      ],
      [
        [
          "Continental Cup of Curling St. Albert , Alberta , Jan. 13-16",
          [
            "/wiki/2011_Continental_Cup_of_Curling",
            "/wiki/St._Albert,_Alberta"
          ]
        ],
        [
          "North America",
          []
        ],
        [
          "World",
          []
        ]
      ],
      [
        [
          "Universiade Erzurum , Turkey , Jan. 27-Feb. 6",
          [
            "/wiki/Curling_at_the_2011_Winter_Universiade",
            "/wiki/Erzurum"
          ]
        ],
        [
          "South Korea",
          []
        ],
        [
          "Switzerland",
          []
        ]
      ],
      [
        [
          "Universiade Erzurum , Turkey , Jan. 27-Feb. 6",
          [
            "/wiki/Curling_at_the_2011_Winter_Universiade",
            "/wiki/Erzurum"
          ]
        ],
        [
          "Great Britain",
          []
        ],
        [
          "Russia",
          []
        ]
      ],
      [
        [
          "Canadian Junior Curling Championships Calgary , Alberta , Jan. 29-Feb. 6",
          [
            "/wiki/2011_Canadian_Junior_Curling_Championships",
            "/wiki/Calgary",
            "/wiki/Alberta"
          ]
        ],
        [
          "Saskatchewan",
          [
            "/wiki/Saskatchewan"
          ]
        ],
        [
          "Ontario",
          [
            "/wiki/Ontario"
          ]
        ]
      ],
      [
        [
          "Canadian Junior Curling Championships Calgary , Alberta , Jan. 29-Feb. 6",
          [
            "/wiki/2011_Canadian_Junior_Curling_Championships",
            "/wiki/Calgary",
            "/wiki/Alberta"
          ]
        ],
        [
          "Trish Paulsen",
          []
        ],
        [
          "Nadine Chyz",
          [
            "/wiki/Nadine_Scotland"
          ]
        ]
      ],
      [
        [
          "Canada Winter Games Halifax , Nova Scotia , Feb. 13-26",
          [
            "/wiki/Curling_at_the_2011_Canada_Winter_Games",
            "/wiki/Halifax,_Nova_Scotia",
            "/wiki/Nova_Scotia"
          ]
        ],
        [
          "Ontario",
          [
            "/wiki/Ontario"
          ]
        ],
        [
          "Saskatchewan",
          [
            "/wiki/Saskatchewan"
          ]
        ]
      ],
      [
        [
          "Canada Winter Games Halifax , Nova Scotia , Feb. 13-26",
          [
            "/wiki/Curling_at_the_2011_Canada_Winter_Games",
            "/wiki/Halifax,_Nova_Scotia",
            "/wiki/Nova_Scotia"
          ]
        ],
        [
          "British Columbia",
          [
            "/wiki/British_Columbia"
          ]
        ],
        [
          "Alberta",
          [
            "/wiki/Alberta"
          ]
        ]
      ],
      [
        [
          "Tournament of Hearts Charlottetown , Prince Edward Island , Feb. 19-27",
          [
            "/wiki/2011_Scotties_Tournament_of_Hearts",
            "/wiki/Charlottetown",
            "/wiki/Prince_Edward_Island"
          ]
        ],
        [
          "Saskatchewan",
          [
            "/wiki/Saskatchewan"
          ]
        ],
        [
          "Canada",
          [
            "/wiki/Canada"
          ]
        ]
      ],
      [
        [
          "World Wheelchair Curling Championship Prague , Czech Republic , Feb. 21-Mar.1",
          [
            "/wiki/2011_World_Wheelchair_Curling_Championship",
            "/wiki/Prague",
            "/wiki/Czech_Republic"
          ]
        ],
        [
          "Canada",
          [
            "/wiki/Canada"
          ]
        ],
        [
          "Scotland",
          [
            "/wiki/Scotland"
          ]
        ]
      ],
      [
        [
          "Tim Hortons Brier London , Ontario , Mar . 5-13",
          [
            "/wiki/2011_Tim_Hortons_Brier",
            "/wiki/London,_Ontario"
          ]
        ],
        [
          "Manitoba",
          [
            "/wiki/Manitoba"
          ]
        ],
        [
          "Ontario",
          [
            "/wiki/Ontario"
          ]
        ]
      ],
      [
        [
          "World Junior Curling Championships Perth , Scotland , Mar . 5-13",
          [
            "/wiki/2011_World_Junior_Curling_Championships",
            "/wiki/Perth,_Scotland"
          ]
        ],
        [
          "Sweden",
          [
            "/wiki/Sweden"
          ]
        ],
        [
          "Switzerland",
          [
            "/wiki/Switzerland"
          ]
        ]
      ],
      [
        [
          "World Junior Curling Championships Perth , Scotland , Mar . 5-13",
          [
            "/wiki/2011_World_Junior_Curling_Championships",
            "/wiki/Perth,_Scotland"
          ]
        ],
        [
          "Scotland",
          [
            "/wiki/Scotland"
          ]
        ],
        [
          "Canada",
          [
            "/wiki/Canada"
          ]
        ]
      ],
      [
        [
          "CIS/CCA University Championships St. John 's , Newfoundland and Labrador , Mar . 9-13",
          [
            "/wiki/2011_CIS/CCA_Curling_Championships",
            "/wiki/St._John's,_Newfoundland_and_Labrador"
          ]
        ],
        [
          "Memorial Sea-Hawks",
          [
            "/wiki/Memorial_Sea-Hawks"
          ]
        ],
        [
          "Manitoba Bisons",
          [
            "/wiki/Manitoba_Bisons"
          ]
        ]
      ],
      [
        [
          "CIS/CCA University Championships St. John 's , Newfoundland and Labrador , Mar . 9-13",
          [
            "/wiki/2011_CIS/CCA_Curling_Championships",
            "/wiki/St._John's,_Newfoundland_and_Labrador"
          ]
        ],
        [
          "Laurier Golden Hawks",
          [
            "/wiki/Wilfrid_Laurier_Golden_Hawks"
          ]
        ],
        [
          "Brock Badgers",
          [
            "/wiki/Brock_Badgers"
          ]
        ]
      ],
      [
        [
          "Canadian Senior Curling Championships Digby , Nova Scotia , Mar . 19-26",
          [
            "/wiki/2011_Canadian_Senior_Curling_Championships",
            "/wiki/Digby_County,_Nova_Scotia",
            "/wiki/Nova_Scotia"
          ]
        ],
        [
          "Manitoba",
          [
            "/wiki/Manitoba"
          ]
        ],
        [
          "Alberta",
          [
            "/wiki/Alberta"
          ]
        ]
      ]
    ],
    "section_title": "CCA-sanctioned events",
    "section_text": "Season of Champions events in bold ; other CCA-sanctioned events in regular typeface . [ 1 ]",
    "uid": "2010\u201311_curling_season_0",
    "intro": "The 2010-11 curling season began in September 2010 and ended in April 2011. Note: In events with two genders, the men's tournament winners will be listed before the women's tournament winners."
  },
  "Visual_Effects_Society_Award_for_Outstanding_Supporting_Visual_Effects_in_a_Feature_Motion_Picture_1": {
    "url": "https://en.wikipedia.org/wiki/Visual_Effects_Society_Award_for_Outstanding_Supporting_Visual_Effects_in_a_Feature_Motion_Picture",
    "title": "Visual Effects Society Award for Outstanding Supporting Visual Effects in a Feature Motion Picture",
    "header": [
      [
        "Year",
        []
      ],
      [
        "Film",
        []
      ],
      [
        "Nominee ( s )",
        []
      ]
    ],
    "data": [
      [
        [
          "2010",
          []
        ],
        [
          "Hereafter",
          [
            "/wiki/Hereafter_(film)"
          ]
        ],
        [
          "Michael Owens , Joel Mendias , Bryan Grill , Danielle Plantec",
          [
            "/wiki/Bryan_Grill"
          ]
        ]
      ],
      [
        [
          "2010",
          []
        ],
        [
          "Black Swan",
          [
            "/wiki/Black_Swan_(film)"
          ]
        ],
        [
          "Dan Schrecker , Colleen Bachman , Michael Capton , Brad Kalinoski",
          []
        ]
      ],
      [
        [
          "2010",
          []
        ],
        [
          "Green Zone",
          [
            "/wiki/Green_Zone_(film)"
          ]
        ],
        [
          "Peter Chiang , Charlie Noble , Joss Williams , Matthew Plummer",
          [
            "/wiki/Joss_Williams"
          ]
        ]
      ],
      [
        [
          "2010",
          []
        ],
        [
          "Robin Hood",
          [
            "/wiki/Robin_Hood_(2010_film)"
          ]
        ],
        [
          "Richard Stammers , Allen Maris , Jessica Norman , Max Wood",
          [
            "/wiki/Richard_Stammers"
          ]
        ]
      ],
      [
        [
          "2010",
          []
        ],
        [
          "Salt",
          [
            "/wiki/Salt_(2010_film)"
          ]
        ],
        [
          "Robert Grasmere , Camille Cellucci , Mark Breakspear , Ivan Moran",
          []
        ]
      ],
      [
        [
          "2011",
          []
        ],
        [
          "Hugo",
          [
            "/wiki/Hugo_(film)"
          ]
        ],
        [
          "Ben Grossmann , Alex Henning , Robert Legato , Karen Murphy",
          [
            "/wiki/Ben_Grossmann",
            "/wiki/Alex_Henning",
            "/wiki/Robert_Legato"
          ]
        ]
      ],
      [
        [
          "2011",
          []
        ],
        [
          "Anonymous",
          [
            "/wiki/Anonymous_(2011_film)"
          ]
        ],
        [
          "Andr\u00e9 Cantarel , Volker Engel , Rony Soussan , Marc Weigert",
          [
            "/wiki/Volker_Engel",
            "/wiki/Marc_Weigert"
          ]
        ]
      ],
      [
        [
          "2011",
          []
        ],
        [
          "Sherlock Holmes : A Game of Shadows",
          [
            "/wiki/Sherlock_Holmes:_A_Game_of_Shadows"
          ]
        ],
        [
          "Laya Armian , Chas Jarrett , Seth Maury , Sirio Quintavalle",
          []
        ]
      ],
      [
        [
          "2011",
          []
        ],
        [
          "Source Code",
          [
            "/wiki/Source_Code"
          ]
        ],
        [
          "Annie Godin , Louis Morin",
          []
        ]
      ],
      [
        [
          "2011",
          []
        ],
        [
          "War Horse",
          [
            "/wiki/War_Horse_(film)"
          ]
        ],
        [
          "Duncan Burbidge , Ben Morris , Mike Mulholland , Chris Zeh",
          []
        ]
      ],
      [
        [
          "2012",
          []
        ],
        [
          "The Impossible",
          [
            "/wiki/The_Impossible_(2012_film)"
          ]
        ],
        [
          "Felix Berg\u00e9s , Sandra Hermida , Pau Costa Moeller",
          [
            "/wiki/Sandra_Hermida_Mu\u00f1iz"
          ]
        ]
      ],
      [
        [
          "2012",
          []
        ],
        [
          "Argo",
          [
            "/wiki/Argo_(2012_film)"
          ]
        ],
        [
          "Matt Dessero , Gregory McMurry , Tom Smith , Michele Vallillo",
          []
        ]
      ],
      [
        [
          "2012",
          []
        ],
        [
          "Flight",
          [
            "/wiki/Flight_(2012_film)"
          ]
        ],
        [
          "Kevin Baillie , Michael Lantieri , Chris Stoski , Ryan Tudhope",
          [
            "/wiki/Michael_Lantieri"
          ]
        ]
      ],
      [
        [
          "2012",
          []
        ],
        [
          "Rust and Bone",
          [
            "/wiki/Rust_and_Bone"
          ]
        ],
        [
          "B\u00e9atrice Bauwens , C\u00e9dric Fayolle , Nicolas Rey , St\u00e9phane Thibert",
          []
        ]
      ],
      [
        [
          "2012",
          []
        ],
        [
          "Zero Dark Thirty",
          [
            "/wiki/Zero_Dark_Thirty"
          ]
        ],
        [
          "Geoff Anderson , Chris Harvey , Jeremy Hattingh , Richard Stutsman",
          []
        ]
      ],
      [
        [
          "2013",
          []
        ],
        [
          "The Lone Ranger",
          [
            "/wiki/Lone_Ranger"
          ]
        ],
        [
          "Tim Alexander , Gary Brozenich , Shari Hanson , Kevin Martel",
          [
            "/wiki/Tim_Alexander_(visual_effects)",
            "/wiki/Gary_Brozenich"
          ]
        ]
      ],
      [
        [
          "2013",
          []
        ],
        [
          "The Great Gatsby",
          [
            "/wiki/The_Great_Gatsby_(2013_film)"
          ]
        ],
        [
          "Chris Godfrey , Prue Fletcher , Joyce Cox",
          []
        ]
      ],
      [
        [
          "2013",
          []
        ],
        [
          "Rush",
          [
            "/wiki/Rush_(2013_film)"
          ]
        ],
        [
          "Jody Johnson , Moriah Etherington-Sparks , Mark Hodgkins , Antoine Moulineau",
          []
        ]
      ],
      [
        [
          "2013",
          []
        ],
        [
          "The Secret Life of Walter Mitty",
          [
            "/wiki/The_Secret_Life_of_Walter_Mitty_(2013_film)"
          ]
        ],
        [
          "Guillaume Rocheron , Kurt Williams , Monette Dubin , Ivan Moran",
          [
            "/wiki/Guillaume_Rocheron"
          ]
        ]
      ],
      [
        [
          "2013",
          []
        ],
        [
          "White House Down",
          [
            "/wiki/White_House_Down"
          ]
        ],
        [
          "Marc Weigert , Volker Engel , Julia Frey , Ollie Rankin",
          [
            "/wiki/Marc_Weigert",
            "/wiki/Volker_Engel"
          ]
        ]
      ]
    ],
    "section_title": "Winners and nominees -- 2010s",
    "section_text": "",
    "uid": "Visual_Effects_Society_Award_for_Outstanding_Supporting_Visual_Effects_in_a_Feature_Motion_Picture_1",
    "intro": "The Visual Effects Society Award for Outstanding Supporting Visual Effects in a Motion Picture is one of the annual awards given by the Visual Effects Society starting from 2002."
  },
  "2012\u201313_Coupe_de_France_6": {
    "url": "https://en.wikipedia.org/wiki/2012\u201313_Coupe_de_France",
    "title": "2012\u201313 Coupe de France",
    "header": [
      [
        "Team 1",
        []
      ],
      [
        "Score",
        []
      ],
      [
        "Team 2",
        []
      ]
    ],
    "data": [
      [
        [
          "Marseille Consolat",
          [
            "/wiki/Athl\u00e9tico_Marseille"
          ]
        ],
        [
          "1-1 ( a.e.t . ) ( 4-5 p )",
          [
            "/wiki/Overtime_(sports)",
            "/wiki/Penalty_shoot-out_(association_football)"
          ]
        ],
        [
          "Moulins",
          [
            "/wiki/AS_Moulins"
          ]
        ]
      ],
      [
        [
          "Belfort",
          [
            "/wiki/ASM_Belfort"
          ]
        ],
        [
          "1-3",
          []
        ],
        [
          "Le Havre",
          [
            "/wiki/Le_Havre_AC"
          ]
        ]
      ],
      [
        [
          "Le Mans",
          [
            "/wiki/Le_Mans_FC"
          ]
        ],
        [
          "1-2",
          []
        ],
        [
          "Vend\u00e9e Poir\u00e9 sur Vie",
          [
            "/wiki/Vend\u00e9e_Poir\u00e9-sur-Vie_Football"
          ]
        ]
      ],
      [
        [
          "Savigneux Montbrisson",
          []
        ],
        [
          "1-1 ( a.e.t . ) ( 1-3 p )",
          [
            "/wiki/Overtime_(sports)",
            "/wiki/Penalty_shoot-out_(association_football)"
          ]
        ],
        [
          "V\u00e9nissieux",
          [
            "/wiki/ASM_V\u00e9nissieux"
          ]
        ]
      ],
      [
        [
          "Amiens AC",
          [
            "/wiki/Amiens_AC"
          ]
        ],
        [
          "1-1 ( a.e.t . ) ( 3-5 p )",
          [
            "/wiki/Overtime_(sports)",
            "/wiki/Penalty_shoot-out_(association_football)"
          ]
        ],
        [
          "Evian",
          [
            "/wiki/Thonon_\u00c9vian_F.C."
          ]
        ]
      ],
      [
        [
          "Amn\u00e9ville",
          [
            "/wiki/CSO_Amn\u00e9ville"
          ]
        ],
        [
          "1-2 ( a.e.t . )",
          [
            "/wiki/Overtime_(sports)"
          ]
        ],
        [
          "Raon-l'\u00c9tape",
          [
            "/wiki/US_Raon-l'\u00c9tape"
          ]
        ]
      ],
      [
        [
          "Thaon",
          [
            "/wiki/ES_Thaon"
          ]
        ],
        [
          "0-1",
          []
        ],
        [
          "Sochaux",
          [
            "/wiki/FC_Sochaux-Montb\u00e9liard"
          ]
        ]
      ],
      [
        [
          "Montceau Bourgogne",
          [
            "/wiki/FC_Montceau_Bourgogne"
          ]
        ],
        [
          "0-1",
          []
        ],
        [
          "Troyes",
          [
            "/wiki/Troyes_AC"
          ]
        ]
      ],
      [
        [
          "Stade Bordelais",
          [
            "/wiki/Stade_Bordelais_(football)"
          ]
        ],
        [
          "1-0",
          []
        ],
        [
          "Carquefou",
          [
            "/wiki/USJA_Carquefou"
          ]
        ]
      ],
      [
        [
          "Dreux",
          [
            "/wiki/FC_Drouais"
          ]
        ],
        [
          "1-5",
          []
        ],
        [
          "Nancy",
          [
            "/wiki/AS_Nancy"
          ]
        ]
      ],
      [
        [
          "Chauray",
          []
        ],
        [
          "1-5",
          []
        ],
        [
          "Lorient",
          [
            "/wiki/FC_Lorient"
          ]
        ]
      ],
      [
        [
          "Rouen",
          [
            "/wiki/FC_Rouen"
          ]
        ],
        [
          "1-1 ( a.e.t . ) ( 3-2 p )",
          [
            "/wiki/Overtime_(sports)",
            "/wiki/Penalty_shoot-out_(association_football)"
          ]
        ],
        [
          "Ajaccio",
          [
            "/wiki/AC_Ajaccio"
          ]
        ]
      ],
      [
        [
          "Boulogne-sur-Mer",
          [
            "/wiki/US_Boulogne"
          ]
        ],
        [
          "0-1",
          []
        ],
        [
          "Toulouse",
          [
            "/wiki/Toulouse_FC"
          ]
        ]
      ],
      [
        [
          "Saint-Malo",
          [
            "/wiki/US_Saint-Malo"
          ]
        ],
        [
          "1-1 ( a.e.t . ) ( 2-4 p )",
          [
            "/wiki/Overtime_(sports)",
            "/wiki/Penalty_shoot-out_(association_football)"
          ]
        ],
        [
          "Vertou",
          [
            "/wiki/USSA_Vertou"
          ]
        ]
      ],
      [
        [
          "Plabennec",
          [
            "/wiki/Stade_Plabenn\u00e9cois"
          ]
        ],
        [
          "1-0",
          []
        ],
        [
          "Reims",
          [
            "/wiki/Stade_de_Reims"
          ]
        ]
      ],
      [
        [
          "Lille",
          [
            "/wiki/Lille_OSC"
          ]
        ],
        [
          "3-2",
          []
        ],
        [
          "N\u00eemes",
          [
            "/wiki/N\u00eemes_Olympique"
          ]
        ]
      ],
      [
        [
          "Bourg-P\u00e9ronnas",
          [
            "/wiki/Football_Bourg-en-Bresse_P\u00e9ronnas_01"
          ]
        ],
        [
          "1-2",
          []
        ],
        [
          "Montpellier",
          [
            "/wiki/Montpellier_HSC"
          ]
        ]
      ],
      [
        [
          "Muret",
          []
        ],
        [
          "0-2",
          []
        ],
        [
          "Vend\u00e9e Fontenay",
          [
            "/wiki/Vend\u00e9e_Fontenay_Foot"
          ]
        ]
      ],
      [
        [
          "\u00c9pinal",
          [
            "/wiki/SAS_\u00c9pinal"
          ]
        ],
        [
          "3-3 ( a.e.t . ) ( 4-2 p )",
          [
            "/wiki/Overtime_(sports)",
            "/wiki/Penalty_shoot-out_(association_football)"
          ]
        ],
        [
          "O. Lyonnais",
          [
            "/wiki/Olympique_Lyonnais"
          ]
        ]
      ],
      [
        [
          "Metz",
          [
            "/wiki/FC_Metz"
          ]
        ],
        [
          "2-3 ( a.e.t . )",
          [
            "/wiki/Overtime_(sports)"
          ]
        ],
        [
          "Nice",
          [
            "/wiki/OGC_Nice"
          ]
        ]
      ]
    ],
    "section_title": "Round of 64",
    "section_text": "",
    "uid": "2012\u201313_Coupe_de_France_6",
    "intro": "The 2012-13 Coupe de France was the 96th season of the most prestigious cup competition of France. The competition was organized by the French Football Federation (FFF) and open to all clubs in French football, as well as clubs from the overseas departments and territories (Guadeloupe, French Guiana, Martinique, Mayotte, New Caledonia, French Polynesia, and R\u00e9union). The final was contested on 31 May 2013 at the Stade de France in Saint-Denis. The defending champions were Lyon, who defeated Quevilly 1-0 in the final of the 2011-12 season, but lost this season in the Round of 64 against \u00c9pinal. The winner of the competition, Bordeaux, qualified for the group stage of the 2013-14 UEFA Europa League."
  }
}