{
  "2004\u201305_Isthmian_League_10": {
    "url": "https://en.wikipedia.org/wiki/2004\u201305_Isthmian_League",
    "title": "2004\u201305 Isthmian League",
    "header": [
      [
        "Tie",
        []
      ],
      [
        "Home Team ( Tier )",
        []
      ],
      [
        "Score",
        []
      ],
      [
        "Away Team ( Tier )",
        []
      ],
      [
        "Att",
        []
      ]
    ],
    "data": [
      [
        [
          "24",
          []
        ],
        [
          "Horsham ( 1 )",
          [
            "/wiki/Horsham_F.C."
          ]
        ],
        [
          "1-2",
          []
        ],
        [
          "AFC Wimbledon ( 1 )",
          [
            "/wiki/AFC_Wimbledon"
          ]
        ],
        [
          "868",
          []
        ]
      ],
      [
        [
          "25",
          []
        ],
        [
          "Kingsbury Town ( 2 )",
          [
            "/wiki/London_Tigers_F.C."
          ]
        ],
        [
          "3-4 ( a.e.t . )",
          [
            "/wiki/Overtime_(sports)"
          ]
        ],
        [
          "Enfield ( 2 )",
          [
            "/wiki/Enfield_F.C."
          ]
        ],
        [
          "12",
          []
        ]
      ],
      [
        [
          "26",
          []
        ],
        [
          "Leatherhead ( 1 )",
          [
            "/wiki/Leatherhead_F.C."
          ]
        ],
        [
          "2-0 ( a.e.t . )",
          [
            "/wiki/Overtime_(sports)"
          ]
        ],
        [
          "Tooting & Mitcham United ( 1 )",
          [
            "/wiki/Tooting_&_Mitcham_United_F.C."
          ]
        ],
        [
          "124",
          []
        ]
      ],
      [
        [
          "27",
          []
        ],
        [
          "Metropolitan Police ( 1 )",
          [
            "/wiki/Metropolitan_Police_F.C."
          ]
        ],
        [
          "2-3",
          []
        ],
        [
          "Hertford Town ( 2 )",
          [
            "/wiki/Hertford_Town_F.C."
          ]
        ],
        [
          "46",
          []
        ]
      ],
      [
        [
          "28",
          []
        ],
        [
          "Witham Town ( 2 )",
          [
            "/wiki/Witham_Town_F.C."
          ]
        ],
        [
          "2-3",
          []
        ],
        [
          "Bashley ( 1 )",
          [
            "/wiki/Bashley_F.C."
          ]
        ],
        [
          "38",
          []
        ]
      ]
    ],
    "section_title": "",
    "section_text": "",
    "uid": "2004\u201305_Isthmian_League_10",
    "intro": "The 2004-05 season was the 90th in the history of the Isthmian League, which is an English football competition featuring semi-professional and amateur clubs from London, East and South East England. Also, it was the first season after the creation of the Conference North and South, one step above the Isthmian League. Therefore, it was the inaugural season for the league at the seventh, eighth and ninth tiers in the English league system."
  },
  "2004\u201305_Clyde_F.C._season_3": {
    "url": "https://en.wikipedia.org/wiki/2004\u201305_Clyde_F.C._season",
    "title": "2004\u201305 Clyde F.C. season",
    "header": [
      [
        "Player",
        []
      ],
      [
        "From",
        []
      ],
      [
        "Fee",
        []
      ],
      [
        "Date",
        []
      ]
    ],
    "data": [
      [
        [
          "Graeme Jones",
          [
            "/wiki/Graeme_Jones"
          ]
        ],
        [
          "Bury",
          [
            "/wiki/Bury_F.C."
          ]
        ],
        [
          "Free",
          []
        ],
        [
          "1 January 2005",
          []
        ]
      ],
      [
        [
          "Alex Burns",
          [
            "/wiki/Alex_Burns_(footballer)"
          ]
        ],
        [
          "Motherwell",
          [
            "/wiki/Motherwell_F.C."
          ]
        ],
        [
          "Loan",
          []
        ],
        [
          "7 January 2005",
          []
        ]
      ],
      [
        [
          "Chris Gardiner",
          [
            "/wiki/Chris_Gardiner"
          ]
        ],
        [
          "Hearts",
          [
            "/wiki/Heart_of_Midlothian_F.C."
          ]
        ],
        [
          "Loan",
          []
        ],
        [
          "14 January 2005",
          []
        ]
      ],
      [
        [
          "David Greenhill",
          [
            "/wiki/David_Greenhill"
          ]
        ],
        [
          "Montrose",
          [
            "/wiki/Montrose_F.C."
          ]
        ],
        [
          "Loan Return",
          []
        ],
        [
          "18 February 2005",
          []
        ]
      ],
      [
        [
          "Miguel \u00c1ngel Esp\u00ednola",
          [
            "/wiki/Miguel_\u00c1ngel_Esp\u00ednola"
          ]
        ],
        [
          "Unattached",
          []
        ],
        [
          "Free",
          []
        ],
        [
          "30 March 2005",
          []
        ]
      ]
    ],
    "section_title": "Transfers -- January - April",
    "section_text": "In :",
    "uid": "2004\u201305_Clyde_F.C._season_3",
    "intro": "In season 2004-05, Clyde competed in their fifth consecutive season in the Scottish First Division. Billy Reid, who was assistant manager the previous season, was given the manager's job, following the departure of Alan Kernaghan."
  },
  "2017\u201318_A.C._Milan_season_0": {
    "url": "https://en.wikipedia.org/wiki/2017\u201318_A.C._Milan_season",
    "title": "2017\u201318 A.C. Milan season",
    "header": [
      [
        "Date",
        []
      ],
      [
        "Pos",
        []
      ],
      [
        "Player",
        []
      ],
      [
        "A",
        []
      ],
      [
        "Moving from",
        []
      ],
      [
        "Fee",
        []
      ],
      [
        "Notes",
        []
      ]
    ],
    "data": [
      [
        [
          "30 May 2017",
          []
        ],
        [
          "DF",
          [
            "/wiki/Defender_(association_football)"
          ]
        ],
        [
          "Mateo Musacchio",
          [
            "/wiki/Mateo_Musacchio"
          ]
        ],
        [
          "26",
          []
        ],
        [
          "Villarreal",
          [
            "/wiki/Villarreal_CF"
          ]
        ],
        [
          "\u20ac18,000,000",
          []
        ],
        [
          "",
          []
        ]
      ],
      [
        [
          "8 June 2017",
          []
        ],
        [
          "DF",
          [
            "/wiki/Defender_(association_football)"
          ]
        ],
        [
          "Ricardo Rodr\u00edguez",
          [
            "/wiki/Ricardo_Rodr\u00edguez_(footballer)"
          ]
        ],
        [
          "24",
          []
        ],
        [
          "Wolfsburg",
          [
            "/wiki/VfL_Wolfsburg"
          ]
        ],
        [
          "\u20ac15,000,000",
          []
        ],
        [
          "Plus bonuses ( \u20ac3.00M )",
          []
        ]
      ],
      [
        [
          "12 June 2017",
          []
        ],
        [
          "FW",
          [
            "/wiki/Forward_(association_football)"
          ]
        ],
        [
          "Andr\u00e9 Silva",
          [
            "/wiki/Andr\u00e9_Silva_(footballer,_born_1995)"
          ]
        ],
        [
          "21",
          []
        ],
        [
          "Porto",
          [
            "/wiki/FC_Porto"
          ]
        ],
        [
          "\u20ac38,000,000",
          []
        ],
        [
          "Plus bonuses ( \u20ac2.00M )",
          []
        ]
      ],
      [
        [
          "3 July 2017",
          []
        ],
        [
          "FW",
          [
            "/wiki/Forward_(association_football)"
          ]
        ],
        [
          "Hakan \u00c7alhano\u011flu",
          [
            "/wiki/Hakan_\u00c7alhano\u011flu"
          ]
        ],
        [
          "23",
          []
        ],
        [
          "Bayer Leverkusen",
          [
            "/wiki/Bayer_04_Leverkusen"
          ]
        ],
        [
          "\u20ac20,000,000",
          []
        ],
        [
          "Plus bonuses ( \u20ac4.00M )",
          []
        ]
      ],
      [
        [
          "7 July 2017",
          []
        ],
        [
          "MF",
          [
            "/wiki/Midfielder"
          ]
        ],
        [
          "Przemys\u0142aw Bargiel",
          [
            "/wiki/Przemys\u0142aw_Bargiel"
          ]
        ],
        [
          "17",
          []
        ],
        [
          "Ruch Chorz\u00f3w",
          [
            "/wiki/Ruch_Chorz\u00f3w"
          ]
        ],
        [
          "\u20ac350,000",
          []
        ],
        [
          "Plus bonuses ( \u20ac0.15M ) , joined Primavera squad",
          [
            "/wiki/A.C._Milan_Youth_Sector"
          ]
        ]
      ],
      [
        [
          "7 July 2017",
          []
        ],
        [
          "DF",
          [
            "/wiki/Defender_(association_football)"
          ]
        ],
        [
          "Andrea Conti",
          [
            "/wiki/Andrea_Conti_(footballer,_born_1994)"
          ]
        ],
        [
          "23",
          []
        ],
        [
          "Atalanta",
          [
            "/wiki/Atalanta_B.C."
          ]
        ],
        [
          "\u20ac24,000,000",
          []
        ],
        [
          "Plus Matteo Pessina ( \u20ac3.00M )",
          [
            "/wiki/Matteo_Pessina"
          ]
        ]
      ],
      [
        [
          "12 July 2017",
          []
        ],
        [
          "GK",
          [
            "/wiki/Goalkeeper_(association_football)"
          ]
        ],
        [
          "Antonio Donnarumma",
          [
            "/wiki/Antonio_Donnarumma"
          ]
        ],
        [
          "27",
          []
        ],
        [
          "Asteras Tripolis",
          [
            "/wiki/Asteras_Tripolis_F.C."
          ]
        ],
        [
          "\u20ac300,000",
          []
        ],
        [
          "",
          []
        ]
      ],
      [
        [
          "14 July 2017",
          []
        ],
        [
          "DF",
          [
            "/wiki/Defender_(association_football)"
          ]
        ],
        [
          "Leonardo Bonucci",
          [
            "/wiki/Leonardo_Bonucci"
          ]
        ],
        [
          "30",
          []
        ],
        [
          "Juventus",
          [
            "/wiki/Juventus_F.C."
          ]
        ],
        [
          "\u20ac42,000,000",
          []
        ],
        [
          "",
          []
        ]
      ],
      [
        [
          "16 July 2017",
          []
        ],
        [
          "MF",
          [
            "/wiki/Midfielder"
          ]
        ],
        [
          "Lucas Biglia",
          [
            "/wiki/Lucas_Biglia"
          ]
        ],
        [
          "31",
          []
        ],
        [
          "Lazio",
          [
            "/wiki/S.S._Lazio"
          ]
        ],
        [
          "\u20ac17,000,000",
          []
        ],
        [
          "Plus bonuses ( \u20ac3.00M )",
          []
        ]
      ],
      [
        [
          "29 August 2017",
          []
        ],
        [
          "FW",
          [
            "/wiki/Forward_(association_football)"
          ]
        ],
        [
          "Tiago Dias",
          [
            "/wiki/Tiago_Dias"
          ]
        ],
        [
          "19",
          []
        ],
        [
          "Benfica",
          [
            "/wiki/S.L._Benfica"
          ]
        ],
        [
          "Free",
          []
        ],
        [
          "Plus 30% sell-on clause , joined Primavera squad",
          [
            "/wiki/A.C._Milan_Youth_Sector"
          ]
        ]
      ],
      [
        [
          "31 August 2017",
          []
        ],
        [
          "MF",
          [
            "/wiki/Midfielder"
          ]
        ],
        [
          "Sergio S\u00e1nchez Gioya",
          []
        ],
        [
          "18",
          []
        ],
        [
          "Real Madrid Juvenil",
          [
            "/wiki/Real_Madrid_Castilla"
          ]
        ],
        [
          "Free",
          []
        ],
        [
          "Joined Primavera squad",
          [
            "/wiki/A.C._Milan_Youth_Sector"
          ]
        ]
      ]
    ],
    "section_title": "Transfers -- Summer window",
    "section_text": "",
    "uid": "2017\u201318_A.C._Milan_season_0",
    "intro": "The 2017-18 season was the 84th season in Associazione Calcio Milan's history and their 82nd in the top-flight of Italian football. Milan competed in Serie A, UEFA Europa League and in the Coppa Italia. For the first time since the 2013-14 season, A.C. Milan competed in European competition, entering in the third qualifying round of the Europa League."
  },
  "2012\u201313_Parma_F.C._season_5": {
    "url": "https://en.wikipedia.org/wiki/2012\u201313_Parma_F.C._season",
    "title": "2012\u201313 Parma F.C. season",
    "header": [
      [
        "Date",
        []
      ],
      [
        "Pos",
        []
      ],
      [
        "Name",
        []
      ],
      [
        "From",
        []
      ],
      [
        "Type of Transfer",
        []
      ],
      [
        "Fee",
        []
      ]
    ],
    "data": [
      [
        [
          "22 March 2012",
          []
        ],
        [
          "GK",
          []
        ],
        [
          "Pavol Bajza",
          [
            "/wiki/Pavol_Bajza"
          ]
        ],
        [
          "Dubrica",
          [
            "/wiki/FK_Dukla_Bansk\u00e1_Bystrica"
          ]
        ],
        [
          "Full ownership",
          []
        ],
        [
          "Free",
          []
        ]
      ],
      [
        [
          "22 March 2012",
          []
        ],
        [
          "MF",
          []
        ],
        [
          "Sotiris Ninis",
          [
            "/wiki/Sotiris_Ninis"
          ]
        ],
        [
          "Panathinaikos",
          [
            "/wiki/Panathinaikos_F.C."
          ]
        ],
        [
          "Full ownership",
          []
        ],
        [
          "Free",
          []
        ]
      ],
      [
        [
          "5 June 2012",
          []
        ],
        [
          "GK",
          []
        ],
        [
          "Matteo Pisseri",
          [
            "/wiki/Matteo_Pisseri"
          ]
        ],
        [
          "Renate",
          [
            "/wiki/A.C._Renate"
          ]
        ],
        [
          "Half to full ownership",
          []
        ],
        [
          "Undisclosed",
          []
        ]
      ],
      [
        [
          "20 June 2012",
          []
        ],
        [
          "DF",
          []
        ],
        [
          "Andrea Rossi",
          [
            "/wiki/Andrea_Rossi_(footballer)"
          ]
        ],
        [
          "Siena",
          [
            "/wiki/Robur_Siena"
          ]
        ],
        [
          "Co-ownership",
          []
        ],
        [
          "Undisclosed",
          []
        ]
      ],
      [
        [
          "22 June 2012",
          []
        ],
        [
          "DF",
          []
        ],
        [
          "Angelo Bencivenga",
          [
            "/wiki/Angelo_Bencivenga"
          ]
        ],
        [
          "Pro Vercelli",
          [
            "/wiki/F.C._Pro_Vercelli_1892"
          ]
        ],
        [
          "Half to full ownership",
          []
        ],
        [
          "Undisclosed",
          []
        ]
      ],
      [
        [
          "22 June 2012",
          []
        ],
        [
          "FW",
          []
        ],
        [
          "Gabriele Paonessa",
          [
            "/wiki/Gabriele_Paonessa"
          ]
        ],
        [
          "Bologna",
          [
            "/wiki/Bologna_F.C._1909"
          ]
        ],
        [
          "Half to full ownership",
          []
        ],
        [
          "Undisclosed",
          []
        ]
      ],
      [
        [
          "22 June 2012",
          []
        ],
        [
          "DF",
          []
        ],
        [
          "Paolo Dellafiore",
          [
            "/wiki/Paolo_Dellafiore"
          ]
        ],
        [
          "Novara",
          [
            "/wiki/Novara_Calcio"
          ]
        ],
        [
          "Half to full ownership",
          []
        ],
        [
          "Undisclosed",
          []
        ]
      ],
      [
        [
          "22 June 2012",
          []
        ],
        [
          "DF",
          []
        ],
        [
          "Fabio Lebran",
          [
            "/wiki/Fabio_Lebran"
          ]
        ],
        [
          "AlbinoLeffe",
          [
            "/wiki/U.C._AlbinoLeffe"
          ]
        ],
        [
          "Half to full ownership",
          []
        ],
        [
          "\u20ac200,000",
          []
        ]
      ],
      [
        [
          "22 June 2012",
          []
        ],
        [
          "DF",
          []
        ],
        [
          "Makris Petrozzi",
          []
        ],
        [
          "Pergocrema",
          [
            "/wiki/U.S._Pergolettese_1932"
          ]
        ],
        [
          "Half to full ownership",
          []
        ],
        [
          "Free",
          []
        ]
      ],
      [
        [
          "22 June 2012",
          []
        ],
        [
          "DF",
          []
        ],
        [
          "Luca Tedeschi",
          [
            "/wiki/Luca_Tedeschi"
          ]
        ],
        [
          "Crotone",
          [
            "/wiki/F.C._Crotone"
          ]
        ],
        [
          "Half to full ownership",
          []
        ],
        [
          "Undisclosed",
          []
        ]
      ],
      [
        [
          "25 June 2012",
          []
        ],
        [
          "DF",
          []
        ],
        [
          "Jonas Portin",
          [
            "/wiki/Jonas_Portin"
          ]
        ],
        [
          "Padova",
          [
            "/wiki/Calcio_Padova"
          ]
        ],
        [
          "Co-ownership",
          []
        ],
        [
          "Undisclosed",
          []
        ]
      ],
      [
        [
          "26 June 2012",
          []
        ],
        [
          "FW",
          []
        ],
        [
          "Alessandro Iacobucci",
          [
            "/wiki/Alessandro_Iacobucci"
          ]
        ],
        [
          "Siena",
          [
            "/wiki/Robur_Siena"
          ]
        ],
        [
          "Co-ownership",
          []
        ],
        [
          "Undisclosed",
          []
        ]
      ],
      [
        [
          "26 June 2012",
          []
        ],
        [
          "DF",
          []
        ],
        [
          "Giuseppe Pacini",
          [
            "/wiki/Giuseppe_Pacini"
          ]
        ],
        [
          "Siena",
          [
            "/wiki/Robur_Siena"
          ]
        ],
        [
          "Co-ownership",
          []
        ],
        [
          "Undisclosed",
          []
        ]
      ],
      [
        [
          "28 June 2012",
          []
        ],
        [
          "MF",
          []
        ],
        [
          "Nicola Del Pivo",
          [
            "/wiki/Nicola_Del_Pivo"
          ]
        ],
        [
          "Cesena",
          [
            "/wiki/A.C._Cesena"
          ]
        ],
        [
          "Co-ownership",
          []
        ],
        [
          "Undisclosed",
          []
        ]
      ],
      [
        [
          "28 June 2012",
          []
        ],
        [
          "DF",
          []
        ],
        [
          "Riccardo Casini",
          [
            "/wiki/Riccardo_Casini"
          ]
        ],
        [
          "Bologna",
          [
            "/wiki/Bologna_F.C._1909"
          ]
        ],
        [
          "Co-ownership",
          []
        ],
        [
          "Undisclosed",
          []
        ]
      ],
      [
        [
          "28 June 2012",
          []
        ],
        [
          "GK",
          []
        ],
        [
          "Andrea Rossini",
          [
            "/wiki/Andrea_Rossini"
          ]
        ],
        [
          "Cesena",
          [
            "/wiki/A.C._Cesena"
          ]
        ],
        [
          "Co-ownership",
          []
        ],
        [
          "Undisclosed",
          []
        ]
      ],
      [
        [
          "29 June 2012",
          []
        ],
        [
          "FW",
          []
        ],
        [
          "Mauro Cioffi",
          [
            "/wiki/Mauro_Cioffi"
          ]
        ],
        [
          "Crotone",
          [
            "/wiki/F.C._Crotone"
          ]
        ],
        [
          "Co-ownership",
          []
        ],
        [
          "Undisclosed",
          []
        ]
      ],
      [
        [
          "29 June 2012",
          []
        ],
        [
          "DF",
          []
        ],
        [
          "Lorenzo Pasqualini",
          [
            "/wiki/Lorenzo_Pasqualini"
          ]
        ],
        [
          "Ascoli",
          [
            "/wiki/Ascoli_Calcio_1898_F.C."
          ]
        ],
        [
          "Co-ownership",
          []
        ],
        [
          "Undisclosed",
          []
        ]
      ],
      [
        [
          "29 June 2012",
          []
        ],
        [
          "DF",
          []
        ],
        [
          "Nicol\u00f2 Belotti",
          []
        ],
        [
          "Brescia",
          [
            "/wiki/Brescia_Calcio"
          ]
        ],
        [
          "Co-ownership",
          []
        ],
        [
          "Undisclosed",
          []
        ]
      ],
      [
        [
          "30 June 2012",
          []
        ],
        [
          "DF",
          []
        ],
        [
          "Matteo Gaudiano",
          []
        ],
        [
          "Fondi",
          [
            "/wiki/S.S._Racing_Club_Fondi"
          ]
        ],
        [
          "Full ownership",
          []
        ],
        [
          "Undisclosed",
          []
        ]
      ]
    ],
    "section_title": "Transfers -- In",
    "section_text": "",
    "uid": "2012\u201313_Parma_F.C._season_5",
    "intro": "The 2012-13 season was Parma Football Club's 22nd season in Serie A, and their fourth consecutive season in the top-flight, having finished in eighth position in the previous season. The team is also competing in the Coppa Italia and benefit from a bye to the Round of 16 after the strong league finish."
  },
  "Erd\u0151s\u2013Bacon_number_0": {
    "url": "https://en.wikipedia.org/wiki/Erd\u0151s\u2013Bacon_number",
    "title": "Erd\u0151s\u2013Bacon number",
    "header": [
      [
        "Name",
        []
      ],
      [
        "Erd\u0151s number",
        []
      ],
      [
        "Bacon number",
        []
      ],
      [
        "Erd\u0151s-Bacon number",
        []
      ]
    ],
    "data": [
      [
        [
          "Mayim Bialik",
          [
            "/wiki/Mayim_Bialik"
          ]
        ],
        [
          "5",
          []
        ],
        [
          "2",
          []
        ],
        [
          "7",
          []
        ]
      ],
      [
        [
          "Albert M. Chan",
          [
            "/wiki/Albert_M._Chan"
          ]
        ],
        [
          "3",
          []
        ],
        [
          "1",
          []
        ],
        [
          "4",
          []
        ]
      ],
      [
        [
          "Misha Collins",
          [
            "/wiki/Misha_Collins"
          ]
        ],
        [
          "4",
          []
        ],
        [
          "2",
          []
        ],
        [
          "6",
          []
        ]
      ],
      [
        [
          "William A. Dembski",
          [
            "/wiki/William_A._Dembski"
          ]
        ],
        [
          "4",
          []
        ],
        [
          "2",
          []
        ],
        [
          "6",
          []
        ]
      ],
      [
        [
          "Richard Feynman",
          [
            "/wiki/Richard_Feynman"
          ]
        ],
        [
          "3",
          []
        ],
        [
          "3",
          []
        ],
        [
          "6",
          []
        ]
      ],
      [
        [
          "Colin Firth",
          [
            "/wiki/Colin_Firth"
          ]
        ],
        [
          "6",
          []
        ],
        [
          "1",
          []
        ],
        [
          "7",
          []
        ]
      ],
      [
        [
          "Ken Goldberg",
          [
            "/wiki/Ken_Goldberg"
          ]
        ],
        [
          "3",
          []
        ],
        [
          "3",
          []
        ],
        [
          "6",
          []
        ]
      ],
      [
        [
          "Stephen Hawking",
          [
            "/wiki/Stephen_Hawking"
          ]
        ],
        [
          "4",
          []
        ],
        [
          "2",
          []
        ],
        [
          "6",
          []
        ]
      ],
      [
        [
          "Daniel Kleitman",
          [
            "/wiki/Daniel_Kleitman"
          ]
        ],
        [
          "1",
          []
        ],
        [
          "2",
          []
        ],
        [
          "3",
          []
        ]
      ],
      [
        [
          "Robert Knight",
          [
            "/wiki/Robert_T._Knight"
          ]
        ],
        [
          "4",
          []
        ],
        [
          "2",
          []
        ],
        [
          "6",
          []
        ]
      ],
      [
        [
          "Robert J . Marks II",
          [
            "/wiki/Robert_J._Marks_II"
          ]
        ],
        [
          "3",
          []
        ],
        [
          "2",
          []
        ],
        [
          "5",
          []
        ]
      ],
      [
        [
          "Danica McKellar",
          [
            "/wiki/Danica_McKellar"
          ]
        ],
        [
          "4",
          []
        ],
        [
          "2",
          []
        ],
        [
          "6",
          []
        ]
      ],
      [
        [
          "Nicholas Metropolis",
          [
            "/wiki/Nicholas_Metropolis"
          ]
        ],
        [
          "2",
          []
        ],
        [
          "2",
          []
        ],
        [
          "4",
          []
        ]
      ],
      [
        [
          "Tom Porter",
          [
            "/wiki/Tom_Porter_(computer_scientist)"
          ]
        ],
        [
          "3 ( in two ways )",
          []
        ],
        [
          "2",
          []
        ],
        [
          "5",
          []
        ]
      ],
      [
        [
          "Natalie Portman",
          [
            "/wiki/Natalie_Portman"
          ]
        ],
        [
          "5",
          []
        ],
        [
          "2",
          []
        ],
        [
          "7",
          []
        ]
      ],
      [
        [
          "Jonathan Pritchard",
          [
            "/wiki/Jonathan_K._Pritchard"
          ]
        ],
        [
          "4",
          []
        ],
        [
          "2",
          []
        ],
        [
          "6",
          []
        ]
      ],
      [
        [
          "Amanda Ruiz",
          []
        ],
        [
          "3",
          []
        ],
        [
          "3",
          []
        ],
        [
          "6",
          []
        ]
      ],
      [
        [
          "Carl Sagan",
          [
            "/wiki/Carl_Sagan"
          ]
        ],
        [
          "4",
          []
        ],
        [
          "2",
          []
        ],
        [
          "6",
          []
        ]
      ],
      [
        [
          "Jared Van Snellenberg",
          [
            "/wiki/Jared_Van_Snellenberg"
          ]
        ],
        [
          "4",
          []
        ],
        [
          "2",
          []
        ],
        [
          "6",
          []
        ]
      ],
      [
        [
          "Kristen Stewart",
          [
            "/wiki/Kristen_Stewart"
          ]
        ],
        [
          "5",
          []
        ],
        [
          "2",
          []
        ],
        [
          "7",
          []
        ]
      ]
    ],
    "section_title": "Table",
    "section_text": "",
    "uid": "Erd\u0151s\u2013Bacon_number_0",
    "intro": "A person's Erd\u0151s-Bacon number is the sum of one's Erd\u0151s number - which measures the collaborative distance in authoring academic papers between that person and Hungarian mathematician Paul Erd\u0151s - and one's Bacon number - which represents the number of links, through roles in films, by which the person is separated from American actor Kevin Bacon. The lower the number, the closer a person is to Erd\u0151s and Bacon, which reflects a small world phenomenon in academia and entertainment. To have a defined Erd\u0151s-Bacon number, it is necessary to have both appeared in a film and co-authored an academic paper, although this in and of itself is not sufficient."
  },
  "2009\u201310_A.C._Milan_season_7": {
    "url": "https://en.wikipedia.org/wiki/2009\u201310_A.C._Milan_season",
    "title": "2009\u201310 A.C. Milan season",
    "header": [
      [
        "Date",
        []
      ],
      [
        "Tournament",
        []
      ],
      [
        "Location",
        []
      ],
      [
        "Opponent team",
        []
      ],
      [
        "Score",
        []
      ],
      [
        "Scorers",
        []
      ]
    ],
    "data": [
      [
        [
          "12 July 2009",
          []
        ],
        [
          "Friendly",
          [
            "/wiki/Exhibition_game"
          ]
        ],
        [
          "Varese , Italy",
          [
            "/wiki/Varese"
          ]
        ],
        [
          "Varese",
          [
            "/wiki/Varese_Calcio"
          ]
        ],
        [
          "2 - 0",
          []
        ],
        [
          "Inzaghi 10 ' , 48 '",
          [
            "/wiki/Filippo_Inzaghi"
          ]
        ]
      ],
      [
        [
          "22 July 2009",
          []
        ],
        [
          "World Football Challenge",
          [
            "/wiki/World_Football_Challenge"
          ]
        ],
        [
          "Atlanta , USA",
          [
            "/wiki/Atlanta"
          ]
        ],
        [
          "Club Am\u00e9rica",
          [
            "/wiki/Club_Am\u00e9rica"
          ]
        ],
        [
          "1 - 2",
          []
        ],
        [
          "Inzaghi 66 '",
          [
            "/wiki/Filippo_Inzaghi"
          ]
        ]
      ],
      [
        [
          "24 July 2009",
          []
        ],
        [
          "World Football Challenge",
          [
            "/wiki/World_Football_Challenge"
          ]
        ],
        [
          "Baltimore , USA",
          [
            "/wiki/Baltimore"
          ]
        ],
        [
          "Chelsea",
          [
            "/wiki/Chelsea_F.C."
          ]
        ],
        [
          "1 - 2",
          []
        ],
        [
          "Seedorf 38 '",
          [
            "/wiki/Clarence_Seedorf"
          ]
        ]
      ],
      [
        [
          "26 July 2009",
          []
        ],
        [
          "World Football Challenge",
          [
            "/wiki/World_Football_Challenge"
          ]
        ],
        [
          "Boston , USA",
          [
            "/wiki/Boston"
          ]
        ],
        [
          "Internazionale",
          [
            "/wiki/Inter_Milan"
          ]
        ],
        [
          "0 - 2",
          []
        ],
        [
          "",
          []
        ]
      ],
      [
        [
          "29 July 2009",
          []
        ],
        [
          "Audi Cup",
          [
            "/wiki/Audi_Cup"
          ]
        ],
        [
          "Munich , Germany",
          [
            "/wiki/Munich"
          ]
        ],
        [
          "Bayern Munich",
          [
            "/wiki/FC_Bayern_Munich"
          ]
        ],
        [
          "1 - 4",
          []
        ],
        [
          "Pirlo 81 '",
          [
            "/wiki/Andrea_Pirlo"
          ]
        ]
      ],
      [
        [
          "30 July 2009",
          []
        ],
        [
          "Audi Cup",
          [
            "/wiki/Audi_Cup"
          ]
        ],
        [
          "Munich , Germany",
          [
            "/wiki/Munich"
          ]
        ],
        [
          "Boca Juniors",
          [
            "/wiki/Boca_Juniors"
          ]
        ],
        [
          "1 - 1 ( 4 - 5 p )",
          [
            "/wiki/Penalty_kick_(association_football)"
          ]
        ],
        [
          "Silva 27 '",
          [
            "/wiki/Thiago_Silva"
          ]
        ]
      ],
      [
        [
          "8 August 2009",
          []
        ],
        [
          "Eus\u00e9bio Cup",
          [
            "/wiki/Eus\u00e9bio_Cup"
          ]
        ],
        [
          "Lisbon , Portugal",
          [
            "/wiki/Lisbon"
          ]
        ],
        [
          "Benfica",
          [
            "/wiki/S.L._Benfica"
          ]
        ],
        [
          "1 - 1 ( 5 - 6 p )",
          [
            "/wiki/Penalty_kick_(association_football)"
          ]
        ],
        [
          "Sidnei 87 ' ( o.g . )",
          [
            "/wiki/Sidnei_(footballer,_born_1989)",
            "/wiki/Own_goal"
          ]
        ]
      ],
      [
        [
          "14 August 2009",
          []
        ],
        [
          "TIM Trophy",
          [
            "/wiki/TIM_Trophy"
          ]
        ],
        [
          "Pescara , Italy",
          [
            "/wiki/Pescara"
          ]
        ],
        [
          "Internazionale",
          [
            "/wiki/Inter_Milan"
          ]
        ],
        [
          "0 - 1",
          []
        ],
        [
          "",
          []
        ]
      ],
      [
        [
          "14 August 2009",
          []
        ],
        [
          "TIM Trophy",
          [
            "/wiki/TIM_Trophy"
          ]
        ],
        [
          "Pescara , Italy",
          [
            "/wiki/Pescara"
          ]
        ],
        [
          "Juventus",
          [
            "/wiki/Juventus_F.C."
          ]
        ],
        [
          "0 - 2",
          []
        ],
        [
          "",
          []
        ]
      ],
      [
        [
          "17 August 2009",
          []
        ],
        [
          "2009 Trofeo Luigi Berlusconi",
          [
            "/wiki/Trofeo_Luigi_Berlusconi"
          ]
        ],
        [
          "Milan , Italy",
          [
            "/wiki/Milan"
          ]
        ],
        [
          "Juventus",
          [
            "/wiki/Juventus_F.C."
          ]
        ],
        [
          "1 - 1 ( 5 - 4 p )",
          [
            "/wiki/Penalty_kick_(association_football)"
          ]
        ],
        [
          "Pato 68 '",
          [
            "/wiki/Alexandre_Pato"
          ]
        ]
      ]
    ],
    "section_title": "Matches -- Pre-season tournaments and friendlies",
    "section_text": "",
    "uid": "2009\u201310_A.C._Milan_season_7",
    "intro": "The 2009-10 Serie A season was the 76th Serie A season in the history of Associazione Calcio Milan."
  },
  "2005\u201306_Clyde_F.C._season_1": {
    "url": "https://en.wikipedia.org/wiki/2005\u201306_Clyde_F.C._season",
    "title": "2005\u201306 Clyde F.C. season",
    "header": [
      [
        "Player",
        []
      ],
      [
        "From",
        []
      ],
      [
        "Fee",
        []
      ]
    ],
    "data": [
      [
        [
          "Chris Higgins",
          [
            "/wiki/Chris_Higgins_(footballer)"
          ]
        ],
        [
          "Motherwell",
          [
            "/wiki/Motherwell_F.C."
          ]
        ],
        [
          "Free",
          []
        ]
      ],
      [
        [
          "Stephen O'Donnell",
          [
            "/wiki/Stephen_O'Donnell_(footballer,_born_1983)"
          ]
        ],
        [
          "Boston United",
          [
            "/wiki/Boston_United_F.C."
          ]
        ],
        [
          "Free",
          []
        ]
      ],
      [
        [
          "Billy Brawley",
          [
            "/wiki/Billy_Brawley"
          ]
        ],
        [
          "Selkirk",
          [
            "/wiki/Selkirk_F.C."
          ]
        ],
        [
          "Free",
          []
        ]
      ],
      [
        [
          "Craig McKeown",
          [
            "/wiki/Craig_McKeown"
          ]
        ],
        [
          "Dunfermline Athletic",
          [
            "/wiki/Dunfermline_Athletic_F.C."
          ]
        ],
        [
          "Free",
          []
        ]
      ],
      [
        [
          "Michael McGowan",
          [
            "/wiki/Michael_McGowan_(footballer)"
          ]
        ],
        [
          "Dundee",
          [
            "/wiki/Dundee_F.C."
          ]
        ],
        [
          "Free",
          []
        ]
      ],
      [
        [
          "Roddy Hunter",
          [
            "/wiki/Roddy_Hunter"
          ]
        ],
        [
          "Unattached",
          []
        ],
        [
          "Free",
          []
        ]
      ],
      [
        [
          "Paul McHale",
          [
            "/wiki/Paul_McHale_(footballer)"
          ]
        ],
        [
          "Cowdenbeath",
          [
            "/wiki/Cowdenbeath_F.C."
          ]
        ],
        [
          "Undisclosed",
          []
        ]
      ],
      [
        [
          "Peter Cherrie",
          [
            "/wiki/Peter_Cherrie"
          ]
        ],
        [
          "Ayr United",
          [
            "/wiki/Ayr_United_F.C."
          ]
        ],
        [
          "Free",
          []
        ]
      ],
      [
        [
          "Romauld Bouadji",
          [
            "/wiki/Romauld_Bouadji"
          ]
        ],
        [
          "Carshalton Athletic",
          [
            "/wiki/Carshalton_Athletic_F.C."
          ]
        ],
        [
          "Free",
          []
        ]
      ],
      [
        [
          "Andrew Dick",
          [
            "/wiki/Andrew_Dick_(footballer)"
          ]
        ],
        [
          "Falkirk",
          [
            "/wiki/Falkirk_F.C."
          ]
        ],
        [
          "Free",
          []
        ]
      ],
      [
        [
          "Steven Masterton",
          [
            "/wiki/Steven_Masterton"
          ]
        ],
        [
          "Kilmarnock",
          [
            "/wiki/Kilmarnock_F.C."
          ]
        ],
        [
          "Free",
          []
        ]
      ],
      [
        [
          "Alex Williams",
          [
            "/wiki/Alex_Williams_(footballer,_born_1983)"
          ]
        ],
        [
          "Greenock Morton",
          [
            "/wiki/Greenock_Morton_F.C."
          ]
        ],
        [
          "Free",
          []
        ]
      ],
      [
        [
          "Paul Jarvie",
          [
            "/wiki/Paul_Jarvie"
          ]
        ],
        [
          "Dundee United",
          [
            "/wiki/Dundee_United_F.C."
          ]
        ],
        [
          "Free",
          []
        ]
      ],
      [
        [
          "Neil McGregor",
          [
            "/wiki/Neil_McGregor"
          ]
        ],
        [
          "Kilmarnock",
          [
            "/wiki/Kilmarnock_F.C."
          ]
        ],
        [
          "Free",
          []
        ]
      ],
      [
        [
          "Joe Miller",
          [
            "/wiki/Joe_Miller_(footballer)"
          ]
        ],
        [
          "Unattached",
          []
        ],
        [
          "Free",
          []
        ]
      ],
      [
        [
          "Sean McKenna",
          [
            "/wiki/Sean_McKenna_(footballer)"
          ]
        ],
        [
          "Queens Park Youth",
          [
            "/wiki/Queen's_Park_F.C."
          ]
        ],
        [
          "Free",
          []
        ]
      ],
      [
        [
          "Raymond Inglis",
          []
        ],
        [
          "Hamilton Academical Youth",
          [
            "/wiki/Hamilton_Academical_F.C."
          ]
        ],
        [
          "Free",
          []
        ]
      ],
      [
        [
          "Santino Marini",
          []
        ],
        [
          "St Mirren Youth",
          [
            "/wiki/St_Mirren_F.C."
          ]
        ],
        [
          "Free",
          []
        ]
      ],
      [
        [
          "David Scott",
          []
        ],
        [
          "Albion Rovers Youth",
          [
            "/wiki/Albion_Rovers_F.C."
          ]
        ],
        [
          "Free",
          []
        ]
      ],
      [
        [
          "Gordon Parks",
          [
            "/wiki/Gordon_Parks_(footballer)"
          ]
        ],
        [
          "East Stirlingshire",
          [
            "/wiki/East_Stirlingshire_F.C."
          ]
        ],
        [
          "Free",
          []
        ]
      ]
    ],
    "section_title": "Transfers -- May to December",
    "section_text": "In :",
    "uid": "2005\u201306_Clyde_F.C._season_1",
    "intro": "In season 2005-06, Clyde competed in their sixth consecutive season in the Scottish First Division. Graham Roberts was appointed as new manager, after Billy Reid left to join Hamilton Academical. Roberts appointed ex-Celtic player Joe Miller as his assistant. Clyde finished fifth in the Scottish First Division. They went out of the Scottish League Cup in the third round the Scottish Cup in the fourth round and the Scottish Challenge Cup in the first round. It was a season to enjoy for the fans, as they watched their team take the lead against Rangers at Ibrox in the Scottish League Cup, though they were eventually defeated after extra-time. They beat Celtic 2-1 in the Scottish Cup, which was the club's biggest victory for years."
  },
  "2016\u201317_EFL_Championship_1": {
    "url": "https://en.wikipedia.org/wiki/2016\u201317_EFL_Championship",
    "title": "2016\u201317 EFL Championship",
    "header": [
      [
        "Team",
        []
      ],
      [
        "Manager",
        []
      ],
      [
        "Captain",
        []
      ],
      [
        "Kit manufacturer",
        []
      ],
      [
        "Sponsor",
        []
      ]
    ],
    "data": [
      [
        [
          "Aston Villa",
          [
            "/wiki/Aston_Villa_F.C."
          ]
        ],
        [
          "Steve Bruce",
          [
            "/wiki/Steve_Bruce"
          ]
        ],
        [
          "James Chester",
          [
            "/wiki/James_Chester"
          ]
        ],
        [
          "Under Armour",
          [
            "/wiki/Under_Armour"
          ]
        ],
        [
          "Intuit QuickBooks",
          [
            "/wiki/QuickBooks"
          ]
        ]
      ],
      [
        [
          "Barnsley",
          [
            "/wiki/Barnsley_F.C."
          ]
        ],
        [
          "Paul Heckingbottom",
          [
            "/wiki/Paul_Heckingbottom"
          ]
        ],
        [
          "Marc Roberts",
          [
            "/wiki/Marc_Roberts_(footballer)"
          ]
        ],
        [
          "Puma",
          [
            "/wiki/Puma_(brand)"
          ]
        ],
        [
          "C.K . Beckett",
          []
        ]
      ],
      [
        [
          "Birmingham City",
          [
            "/wiki/Birmingham_City_F.C."
          ]
        ],
        [
          "Harry Redknapp",
          [
            "/wiki/Harry_Redknapp"
          ]
        ],
        [
          "Michael Morrison",
          [
            "/wiki/Michael_Morrison_(footballer)"
          ]
        ],
        [
          "Adidas",
          [
            "/wiki/Adidas"
          ]
        ],
        [
          "888sport",
          [
            "/wiki/888sport"
          ]
        ]
      ],
      [
        [
          "Blackburn Rovers",
          [
            "/wiki/Blackburn_Rovers_F.C."
          ]
        ],
        [
          "Tony Mowbray",
          [
            "/wiki/Tony_Mowbray"
          ]
        ],
        [
          "Jason Lowe",
          [
            "/wiki/Jason_Lowe"
          ]
        ],
        [
          "Umbro",
          [
            "/wiki/Umbro"
          ]
        ],
        [
          "Dafabet",
          [
            "/wiki/Dafabet"
          ]
        ]
      ],
      [
        [
          "Brentford",
          [
            "/wiki/Brentford_F.C."
          ]
        ],
        [
          "Dean Smith",
          [
            "/wiki/Dean_Smith_(footballer,_born_1971)"
          ]
        ],
        [
          "Harlee Dean",
          [
            "/wiki/Harlee_Dean"
          ]
        ],
        [
          "Adidas",
          []
        ],
        [
          "888sport",
          []
        ]
      ],
      [
        [
          "Brighton & Hove Albion",
          [
            "/wiki/Brighton_&_Hove_Albion_F.C."
          ]
        ],
        [
          "Chris Hughton",
          [
            "/wiki/Chris_Hughton"
          ]
        ],
        [
          "Bruno",
          [
            "/wiki/Bruno_(footballer,_born_1980)"
          ]
        ],
        [
          "Nike",
          [
            "/wiki/Nike,_Inc."
          ]
        ],
        [
          "American Express",
          [
            "/wiki/American_Express"
          ]
        ]
      ],
      [
        [
          "Bristol City",
          [
            "/wiki/Bristol_City_F.C."
          ]
        ],
        [
          "Lee Johnson",
          [
            "/wiki/Lee_Johnson_(footballer)"
          ]
        ],
        [
          "Bailey Wright",
          [
            "/wiki/Bailey_Wright"
          ]
        ],
        [
          "Bristol Sport",
          []
        ],
        [
          "Lancer Scott",
          []
        ]
      ],
      [
        [
          "Burton Albion",
          [
            "/wiki/Burton_Albion_F.C."
          ]
        ],
        [
          "Nigel Clough",
          [
            "/wiki/Nigel_Clough"
          ]
        ],
        [
          "John Mousinho",
          [
            "/wiki/John_Mousinho"
          ]
        ],
        [
          "TAG",
          []
        ],
        [
          "Tempobet",
          []
        ]
      ],
      [
        [
          "Cardiff City",
          [
            "/wiki/Cardiff_City_F.C."
          ]
        ],
        [
          "Neil Warnock",
          [
            "/wiki/Neil_Warnock"
          ]
        ],
        [
          "Sean Morrison",
          [
            "/wiki/Sean_Morrison_(footballer)"
          ]
        ],
        [
          "Adidas",
          []
        ],
        [
          "Visit Malaysia",
          [
            "/wiki/Berjaya_Group"
          ]
        ]
      ],
      [
        [
          "Derby County",
          [
            "/wiki/Derby_County_F.C."
          ]
        ],
        [
          "Gary Rowett",
          [
            "/wiki/Gary_Rowett"
          ]
        ],
        [
          "Richard Keogh",
          [
            "/wiki/Richard_Keogh"
          ]
        ],
        [
          "Umbro",
          []
        ],
        [
          "JUST EAT",
          [
            "/wiki/Just_Eat"
          ]
        ]
      ],
      [
        [
          "Fulham",
          [
            "/wiki/Fulham_F.C."
          ]
        ],
        [
          "Slavi\u0161a Jokanovi\u0107",
          [
            "/wiki/Slavi\u0161a_Jokanovi\u0107"
          ]
        ],
        [
          "Scott Parker",
          [
            "/wiki/Scott_Parker"
          ]
        ],
        [
          "Adidas",
          []
        ],
        [
          "Visit Florida",
          [
            "/wiki/Visit_Florida"
          ]
        ]
      ],
      [
        [
          "Huddersfield Town",
          [
            "/wiki/Huddersfield_Town_A.F.C."
          ]
        ],
        [
          "David Wagner",
          [
            "/wiki/David_Wagner_(soccer)"
          ]
        ],
        [
          "Mark Hudson",
          [
            "/wiki/Mark_Hudson_(footballer,_born_1982)"
          ]
        ],
        [
          "Puma",
          []
        ],
        [
          "PURE Legal ( home ) , RadianB ( away ) , Cavonia ( third )",
          []
        ]
      ],
      [
        [
          "Ipswich Town",
          [
            "/wiki/Ipswich_Town_F.C."
          ]
        ],
        [
          "Mick McCarthy",
          [
            "/wiki/Mick_McCarthy"
          ]
        ],
        [
          "Luke Chambers",
          [
            "/wiki/Luke_Chambers"
          ]
        ],
        [
          "Adidas",
          []
        ],
        [
          "Marcus Evans",
          [
            "/wiki/Marcus_Evans"
          ]
        ]
      ],
      [
        [
          "Leeds United",
          [
            "/wiki/Leeds_United_F.C."
          ]
        ],
        [
          "Garry Monk",
          [
            "/wiki/Garry_Monk"
          ]
        ],
        [
          "Liam Bridcutt",
          [
            "/wiki/Liam_Bridcutt"
          ]
        ],
        [
          "Kappa",
          [
            "/wiki/Kappa_(company)"
          ]
        ],
        [
          "32red",
          [
            "/wiki/32Red"
          ]
        ]
      ],
      [
        [
          "Newcastle United",
          [
            "/wiki/Newcastle_United_F.C."
          ]
        ],
        [
          "Rafael Ben\u00edtez",
          [
            "/wiki/Rafael_Ben\u00edtez"
          ]
        ],
        [
          "Jamaal Lascelles",
          [
            "/wiki/Jamaal_Lascelles"
          ]
        ],
        [
          "Puma",
          []
        ],
        [
          "Wonga",
          [
            "/wiki/Wonga.com"
          ]
        ]
      ],
      [
        [
          "Norwich City",
          [
            "/wiki/Norwich_City_F.C."
          ]
        ],
        [
          "Daniel Farke",
          [
            "/wiki/Daniel_Farke"
          ]
        ],
        [
          "Russell Martin",
          [
            "/wiki/Russell_Martin_(footballer)"
          ]
        ],
        [
          "Erre\u00e0",
          [
            "/wiki/Erre\u00e0"
          ]
        ],
        [
          "Aviva",
          [
            "/wiki/Aviva"
          ]
        ]
      ],
      [
        [
          "Nottingham Forest",
          [
            "/wiki/Nottingham_Forest_F.C."
          ]
        ],
        [
          "Mark Warburton",
          [
            "/wiki/Mark_Warburton"
          ]
        ],
        [
          "Chris Cohen",
          [
            "/wiki/Chris_Cohen"
          ]
        ],
        [
          "Adidas",
          []
        ],
        [
          "888sport",
          []
        ]
      ],
      [
        [
          "Preston North End",
          [
            "/wiki/Preston_North_End_F.C."
          ]
        ],
        [
          "Simon Grayson",
          [
            "/wiki/Simon_Grayson"
          ]
        ],
        [
          "Tom Clarke",
          [
            "/wiki/Tom_Clarke_(footballer,_born_1987)"
          ]
        ],
        [
          "Nike",
          []
        ],
        [
          "888sport",
          []
        ]
      ],
      [
        [
          "Queens Park Rangers",
          [
            "/wiki/Queens_Park_Rangers_F.C."
          ]
        ],
        [
          "Ian Holloway",
          [
            "/wiki/Ian_Holloway"
          ]
        ],
        [
          "Nedum Onuoha",
          [
            "/wiki/Nedum_Onuoha"
          ]
        ],
        [
          "Dryworld",
          [
            "/wiki/Dryworld"
          ]
        ],
        [
          "Smarkets",
          []
        ]
      ],
      [
        [
          "Reading",
          [
            "/wiki/Reading_F.C."
          ]
        ],
        [
          "Jaap Stam",
          [
            "/wiki/Jaap_Stam"
          ]
        ],
        [
          "Paul McShane",
          [
            "/wiki/Paul_McShane_(footballer)"
          ]
        ],
        [
          "Puma",
          []
        ],
        [
          "Carabao",
          [
            "/wiki/Carabao_Energy_Drink"
          ]
        ]
      ]
    ],
    "section_title": "Personnel and sponsoring",
    "section_text": "",
    "uid": "2016\u201317_EFL_Championship_1",
    "intro": "The 2016-17 EFL Championship (referred to as the Sky Bet Championship for sponsorship reasons) was the first season of the EFL Championship under its current name, and the twenty-fifth season under its current league structure. Newcastle United were crowned the champions and were promoted to Premier League after just one season in the Championship. Brighton & Hove Albion, alongside Huddersfield Town, both achieved their first ever Premier League promotions, via the second automatic promotion place and play-off route respectively. The season started on 5 August 2016 with the final round of regular league fixtures played on 7 May 2017. The fixtures were announced on 22 June 2016."
  },
  "2019\u201320_A.C._Milan_season_5": {
    "url": "https://en.wikipedia.org/wiki/2019\u201320_A.C._Milan_season",
    "title": "2019\u201320 A.C. Milan season",
    "header": [
      [
        "Date",
        []
      ],
      [
        "Pos",
        []
      ],
      [
        "Player",
        []
      ],
      [
        "A",
        []
      ],
      [
        "Moving to",
        []
      ],
      [
        "Fee",
        []
      ],
      [
        "Notes",
        []
      ]
    ],
    "data": [
      [
        [
          "6 July 2019",
          []
        ],
        [
          "DF",
          [
            "/wiki/Defender_(association_football)"
          ]
        ],
        [
          "Gustavo Gomez",
          [
            "/wiki/Gustavo_G\u00f3mez"
          ]
        ],
        [
          "26",
          []
        ],
        [
          "Palmeiras",
          [
            "/wiki/Sociedade_Esportiva_Palmeiras"
          ]
        ],
        [
          "\u20ac1,500,000",
          []
        ],
        [
          "Loan with obligation to buy ( \u20ac3,000,000 )",
          []
        ]
      ],
      [
        [
          "10 July 2019",
          []
        ],
        [
          "DF",
          [
            "/wiki/Defender_(association_football)"
          ]
        ],
        [
          "Gabriele Bellodi",
          [
            "/wiki/Gabriele_Bellodi"
          ]
        ],
        [
          "18",
          []
        ],
        [
          "Crotone",
          [
            "/wiki/F.C._Crotone"
          ]
        ],
        [
          "Free",
          []
        ],
        [
          "After return from loan",
          []
        ]
      ],
      [
        [
          "15 July 2019",
          []
        ],
        [
          "MF",
          [
            "/wiki/Midfielder"
          ]
        ],
        [
          "Tommaso Pobega",
          [
            "/wiki/Tommaso_Pobega"
          ]
        ],
        [
          "20",
          []
        ],
        [
          "Pordenone",
          [
            "/wiki/Pordenone_Calcio"
          ]
        ],
        [
          "Free",
          []
        ],
        [
          "After return from loan",
          []
        ]
      ],
      [
        [
          "25 July 2019",
          []
        ],
        [
          "FW",
          [
            "/wiki/Forward_(association_football)"
          ]
        ],
        [
          "Ismet Sinani",
          [
            "/wiki/Ismet_Sinani"
          ]
        ],
        [
          "20",
          []
        ],
        [
          "Sicula Leonzio",
          [
            "/wiki/Sicula_Leonzio"
          ]
        ],
        [
          "Free",
          []
        ],
        [
          "After return from loan",
          []
        ]
      ],
      [
        [
          "1 August 2019",
          []
        ],
        [
          "GK",
          [
            "/wiki/Goalkeeper_(association_football)"
          ]
        ],
        [
          "Alessandro Plizzari",
          [
            "/wiki/Alessandro_Plizzari"
          ]
        ],
        [
          "19",
          []
        ],
        [
          "Livorno",
          [
            "/wiki/A.S._Livorno_Calcio"
          ]
        ],
        [
          "Free",
          []
        ],
        [
          "",
          []
        ]
      ],
      [
        [
          "20 August 2019",
          []
        ],
        [
          "FW",
          [
            "/wiki/Forward_(association_football)"
          ]
        ],
        [
          "Riccardo Forte",
          [
            "/wiki/Riccardo_Forte"
          ]
        ],
        [
          "20",
          []
        ],
        [
          "Piacenza",
          [
            "/wiki/Piacenza_Calcio_1919"
          ]
        ],
        [
          "Free",
          []
        ],
        [
          "After return from loan",
          []
        ]
      ],
      [
        [
          "29 August 2019",
          []
        ],
        [
          "FW",
          [
            "/wiki/Forward_(association_football)"
          ]
        ],
        [
          "Frank Tsadjout",
          [
            "/wiki/Frank_Tsadjout"
          ]
        ],
        [
          "20",
          []
        ],
        [
          "Charleroi",
          [
            "/wiki/R._Charleroi_S.C."
          ]
        ],
        [
          "Free",
          []
        ],
        [
          "From Primavera team",
          [
            "/wiki/A.C._Milan_Youth_Sector"
          ]
        ]
      ],
      [
        [
          "29 August 2019",
          []
        ],
        [
          "MF",
          [
            "/wiki/Midfielder"
          ]
        ],
        [
          "Emir Murati",
          [
            "/wiki/Emir_Murati"
          ]
        ],
        [
          "19",
          []
        ],
        [
          "Rende",
          [
            "/wiki/Rende_Calcio_1968"
          ]
        ],
        [
          "Free",
          []
        ],
        [
          "After return from loan",
          []
        ]
      ],
      [
        [
          "30 August 2019",
          []
        ],
        [
          "FW",
          [
            "/wiki/Forward_(association_football)"
          ]
        ],
        [
          "Gabriele Capanni",
          [
            "/wiki/Gabriele_Capanni"
          ]
        ],
        [
          "18",
          []
        ],
        [
          "Novara",
          [
            "/wiki/Novara_Calcio"
          ]
        ],
        [
          "Free",
          []
        ],
        [
          "From Primavera team",
          [
            "/wiki/A.C._Milan_Youth_Sector"
          ]
        ]
      ],
      [
        [
          "31 August 2019",
          []
        ],
        [
          "DF",
          [
            "/wiki/Defender_(association_football)"
          ]
        ],
        [
          "Diego Laxalt",
          [
            "/wiki/Diego_Laxalt"
          ]
        ],
        [
          "26",
          []
        ],
        [
          "Torino",
          [
            "/wiki/Torino_F.C."
          ]
        ],
        [
          "\u20ac500,000",
          []
        ],
        [
          "Loan with option to buy ( \u20ac11,5M )",
          []
        ]
      ],
      [
        [
          "2 September 2019",
          []
        ],
        [
          "FW",
          [
            "/wiki/Forward_(association_football)"
          ]
        ],
        [
          "Andr\u00e9 Silva",
          [
            "/wiki/Andr\u00e9_Silva_(footballer,_born_1995)"
          ]
        ],
        [
          "23",
          []
        ],
        [
          "Eintracht Frankfurt",
          [
            "/wiki/Eintracht_Frankfurt"
          ]
        ],
        [
          "Undisclosed",
          []
        ],
        [
          "2 Years loan",
          []
        ]
      ],
      [
        [
          "2 September 2019",
          []
        ],
        [
          "FW",
          [
            "/wiki/Forward_(association_football)"
          ]
        ],
        [
          "Alen Halilovi\u0107",
          [
            "/wiki/Alen_Halilovi\u0107"
          ]
        ],
        [
          "23",
          []
        ],
        [
          "Heerenveen",
          [
            "/wiki/SC_Heerenveen"
          ]
        ],
        [
          "Free",
          []
        ],
        [
          "After anticipated return from loan",
          []
        ]
      ]
    ],
    "section_title": "Transfers -- Summer window",
    "section_text": "",
    "uid": "2019\u201320_A.C._Milan_season_5",
    "intro": "The 2019-20 season is the 121st season in Associazione Calcio Milan's history and their 86th (109th overall) in the top-flight of Italian football. Milan is competing in Serie A and in the Coppa Italia. Milan would have also qualified for the UEFA Europa League but was later excluded due to financial fair play issues."
  },
  "2018\u201319_NIFL_Premiership_6": {
    "url": "https://en.wikipedia.org/wiki/2018\u201319_NIFL_Premiership",
    "title": "2018\u201319 NIFL Premiership",
    "header": [
      [
        "Rank",
        []
      ],
      [
        "Scorer",
        []
      ],
      [
        "Club",
        []
      ],
      [
        "Goals",
        []
      ]
    ],
    "data": [
      [
        [
          "1",
          []
        ],
        [
          "Joe Gormley",
          [
            "/wiki/Joe_Gormley_(footballer)"
          ]
        ],
        [
          "Cliftonville",
          [
            "/wiki/Cliftonville_F.C."
          ]
        ],
        [
          "20",
          []
        ]
      ],
      [
        [
          "2",
          []
        ],
        [
          "Michael McCrudden",
          []
        ],
        [
          "Institute",
          [
            "/wiki/Institute_F.C."
          ]
        ],
        [
          "19",
          []
        ]
      ],
      [
        [
          "3",
          []
        ],
        [
          "Andrew Waterworth",
          [
            "/wiki/Andrew_Waterworth"
          ]
        ],
        [
          "Linfield",
          [
            "/wiki/Linfield_F.C."
          ]
        ],
        [
          "17",
          []
        ]
      ],
      [
        [
          "4",
          []
        ],
        [
          "Cathair Friel",
          []
        ],
        [
          "Ballymena United",
          [
            "/wiki/Ballymena_United_F.C."
          ]
        ],
        [
          "16",
          []
        ]
      ],
      [
        [
          "5",
          []
        ],
        [
          "Stephen Murray",
          []
        ],
        [
          "Glenavon",
          [
            "/wiki/Glenavon_F.C."
          ]
        ],
        [
          "15",
          []
        ]
      ],
      [
        [
          "6",
          []
        ],
        [
          "Paul Heatley",
          [
            "/wiki/Paul_Heatley"
          ]
        ],
        [
          "Crusaders",
          [
            "/wiki/Crusaders_F.C."
          ]
        ],
        [
          "14",
          []
        ]
      ],
      [
        [
          "7",
          []
        ],
        [
          "Ryan Curran",
          []
        ],
        [
          "Cliftonville",
          [
            "/wiki/Cliftonville_F.C."
          ]
        ],
        [
          "13",
          []
        ]
      ],
      [
        [
          "7",
          []
        ],
        [
          "Robbie McDaid",
          []
        ],
        [
          "Glentoran",
          [
            "/wiki/Glentoran_F.C."
          ]
        ],
        [
          "13",
          []
        ]
      ],
      [
        [
          "9",
          []
        ],
        [
          "Rory Donnelly",
          [
            "/wiki/Rory_Donnelly"
          ]
        ],
        [
          "Cliftonville",
          [
            "/wiki/Cliftonville_F.C."
          ]
        ],
        [
          "12",
          []
        ]
      ],
      [
        [
          "9",
          []
        ],
        [
          "Paul McElroy",
          []
        ],
        [
          "Dungannon Swifts",
          [
            "/wiki/Dungannon_Swifts_F.C."
          ]
        ],
        [
          "12",
          []
        ]
      ],
      [
        [
          "9",
          []
        ],
        [
          "Andrew Mitchell",
          []
        ],
        [
          "Glenavon",
          [
            "/wiki/Glenavon_F.C."
          ]
        ],
        [
          "12",
          []
        ]
      ]
    ],
    "section_title": "Top goalscorers",
    "section_text": "",
    "uid": "2018\u201319_NIFL_Premiership_6",
    "intro": "The 2018-19 NIFL Premiership (known as the Danske Bank Premiership for sponsorship reasons) was the 11th season of Northern Ireland's highest national football league in this format since its inception in 2008, the 118th season of Irish league football overall, and the sixth season of the league operating as part of the Northern Ireland Football League. The season began on 4 August 2018 and concluded on 27 April 2019, with the play-offs for promotion/relegation and the Europa League then taking place in May 2019. Crusaders were the defending champions from the previous season. However, they were unable to defend their title, finishing in fourth place. Linfield were the eventual champions, lifting the league title for the second time in three seasons, and stretching their record tally of title wins to 53 overall. The Blues were confirmed as the champions on 13 April 2019, following a 0-0 draw at home against the outgoing champions, Crusaders, which left Linfield 12 points clear at the top of the table, with only three games remaining and nine points left to play for. For the second successive season, two clubs suffered relegation to the NIFL Championship. Newry City finished bottom of the table, and were relegated to the 2019-20 NIFL Championship after only one season in the top flight. Eleventh-placed Ards faced 2018-19 NIFL Championship runners-up, Carrick Rangers, in a two-legged promotion/relegation play-off. Carrick Rangers won the tie 3-1 on aggregate to secure promotion and relegate Ards. This brought an end to Ards' three-season stay in the top flight, and meant an immediate return to the Premiership for Carrick Rangers after only one season in the Championship. Premiership champions Linfield entered the 2019-20 UEFA Champions League, with the runners-up (Ballymena United) and the play-off winners (Cliftonville) entering the 2019-20 UEFA Europa League along with the 2018-19 Irish Cup winners, Crusaders."
  },
  "2011\u201312_Parma_F.C._season_7": {
    "url": "https://en.wikipedia.org/wiki/2011\u201312_Parma_F.C._season",
    "title": "2011\u201312 Parma F.C. season",
    "header": [
      [
        "Date from",
        []
      ],
      [
        "Date to",
        []
      ],
      [
        "Pos",
        []
      ],
      [
        "Name",
        []
      ],
      [
        "From",
        []
      ],
      [
        "Fee",
        []
      ]
    ],
    "data": [
      [
        [
          "23 June 2011",
          []
        ],
        [
          "30 June 2012",
          []
        ],
        [
          "DF",
          []
        ],
        [
          "Gon\u00e7alo Brand\u00e3o",
          [
            "/wiki/Gon\u00e7alo_Brand\u00e3o"
          ]
        ],
        [
          "Siena",
          [
            "/wiki/Robur_Siena"
          ]
        ],
        [
          "Undisclosed",
          []
        ]
      ],
      [
        [
          "24 June 2011",
          []
        ],
        [
          "30 June 2012",
          []
        ],
        [
          "MF",
          []
        ],
        [
          "Jonathan Biabiany",
          [
            "/wiki/Jonathan_Biabiany"
          ]
        ],
        [
          "Sampdoria",
          [
            "/wiki/U.C._Sampdoria"
          ]
        ],
        [
          "Undisclosed",
          []
        ]
      ],
      [
        [
          "1 July 2011",
          []
        ],
        [
          "30 June 2012",
          []
        ],
        [
          "DF",
          []
        ],
        [
          "Fabiano Santacroce",
          [
            "/wiki/Fabiano_Santacroce"
          ]
        ],
        [
          "Napoli",
          [
            "/wiki/Naples"
          ]
        ],
        [
          "\u20ac500,000",
          []
        ]
      ],
      [
        [
          "12 July 2011",
          []
        ],
        [
          "30 June 2012",
          []
        ],
        [
          "MF",
          []
        ],
        [
          "Jaime Vald\u00e9s",
          [
            "/wiki/Jaime_Vald\u00e9s"
          ]
        ],
        [
          "Sporting CP",
          [
            "/wiki/Sporting_CP"
          ]
        ],
        [
          "Free",
          []
        ]
      ],
      [
        [
          "18 July 2011",
          []
        ],
        [
          "30 June 2012",
          []
        ],
        [
          "GK",
          []
        ],
        [
          "Diego Manzoni",
          [
            "/wiki/Diego_Manzoni"
          ]
        ],
        [
          "Genoa",
          [
            "/wiki/Genoa_C.F.C."
          ]
        ],
        [
          "Undisclosed",
          []
        ]
      ],
      [
        [
          "29 July 2011",
          []
        ],
        [
          "30 June 2012",
          []
        ],
        [
          "FW",
          []
        ],
        [
          "F\u00e1bio Nunes",
          []
        ],
        [
          "Portimonense",
          [
            "/wiki/Portimonense_S.C."
          ]
        ],
        [
          "Undisclosed",
          []
        ]
      ],
      [
        [
          "4 August 2011",
          []
        ],
        [
          "30 June 2012",
          []
        ],
        [
          "MF",
          []
        ],
        [
          "Danilo Mastroianni",
          []
        ],
        [
          "Frosinone",
          [
            "/wiki/Frosinone_Calcio"
          ]
        ],
        [
          "Undisclosed",
          []
        ]
      ],
      [
        [
          "4 August 2011",
          []
        ],
        [
          "30 June 2012",
          []
        ],
        [
          "MF",
          []
        ],
        [
          "Cristian Bellato",
          []
        ],
        [
          "Frosinone",
          [
            "/wiki/Frosinone_Calcio"
          ]
        ],
        [
          "Undisclosed",
          []
        ]
      ],
      [
        [
          "4 August 2011",
          []
        ],
        [
          "30 June 2012",
          []
        ],
        [
          "FW",
          []
        ],
        [
          "Gianmarco Torri",
          []
        ],
        [
          "Frosinone",
          [
            "/wiki/Frosinone_Calcio"
          ]
        ],
        [
          "Undisclosed",
          []
        ]
      ],
      [
        [
          "4 August 2011",
          []
        ],
        [
          "30 June 2012",
          []
        ],
        [
          "DF",
          []
        ],
        [
          "Domenico Frare",
          [
            "/wiki/Domenico_Frare"
          ]
        ],
        [
          "Sacilese",
          [
            "/wiki/A.S.D._Sacilese_Calcio"
          ]
        ],
        [
          "Undisclosed",
          []
        ]
      ],
      [
        [
          "4 August 2011",
          []
        ],
        [
          "30 June 2012",
          []
        ],
        [
          "FW",
          []
        ],
        [
          "Tommy Maistrello",
          []
        ],
        [
          "Albano",
          []
        ],
        [
          "Undisclosed",
          []
        ]
      ],
      [
        [
          "8 August 2011",
          []
        ],
        [
          "3 January 2012",
          []
        ],
        [
          "DF",
          []
        ],
        [
          "Matteo Rubin",
          [
            "/wiki/Matteo_Rubin"
          ]
        ],
        [
          "Torino",
          [
            "/wiki/Torino_F.C."
          ]
        ],
        [
          "Undisclosed",
          []
        ]
      ],
      [
        [
          "17 August 2011",
          []
        ],
        [
          "30 June 2012",
          []
        ],
        [
          "GK",
          []
        ],
        [
          "Marco Quadrelli",
          []
        ],
        [
          "Misano",
          []
        ],
        [
          "Undisclosed",
          []
        ]
      ],
      [
        [
          "31 August 2011",
          []
        ],
        [
          "30 June 2012",
          []
        ],
        [
          "MF",
          []
        ],
        [
          "Gianluca Musacci",
          [
            "/wiki/Gianluca_Musacci"
          ]
        ],
        [
          "Empoli",
          [
            "/wiki/Empoli_F.C."
          ]
        ],
        [
          "Undisclosed",
          []
        ]
      ],
      [
        [
          "31 August 2011",
          []
        ],
        [
          "30 June 2012",
          []
        ],
        [
          "FW",
          []
        ],
        [
          "Sergio Floccari",
          [
            "/wiki/Sergio_Floccari"
          ]
        ],
        [
          "Lazio",
          [
            "/wiki/S.S._Lazio"
          ]
        ],
        [
          "\u20ac1,500,000",
          []
        ]
      ],
      [
        [
          "11 January 2012",
          []
        ],
        [
          "30 June 2012",
          []
        ],
        [
          "FW",
          []
        ],
        [
          "Michele Bentoglio",
          [
            "/wiki/Michele_Bentoglio"
          ]
        ],
        [
          "Sarnico",
          []
        ],
        [
          "Undisclosed",
          []
        ]
      ],
      [
        [
          "12 January 2012",
          []
        ],
        [
          "30 June 2012",
          []
        ],
        [
          "FW",
          []
        ],
        [
          "Mattia Sprocati",
          [
            "/wiki/Mattia_Sprocati"
          ]
        ],
        [
          "Pavia",
          [
            "/wiki/F.C._Pavia"
          ]
        ],
        [
          "Undisclosed",
          []
        ]
      ],
      [
        [
          "23 January 2012",
          []
        ],
        [
          "30 June 2012",
          []
        ],
        [
          "DF",
          []
        ],
        [
          "Jonathan",
          [
            "/wiki/Jonathan_Moreira"
          ]
        ],
        [
          "Internazionale",
          [
            "/wiki/Inter_Milan"
          ]
        ],
        [
          "Undisclosed",
          []
        ]
      ],
      [
        [
          "23 January 2012",
          []
        ],
        [
          "30 June 2012",
          []
        ],
        [
          "FW",
          []
        ],
        [
          "Stefano Okaka",
          [
            "/wiki/Stefano_Okaka"
          ]
        ],
        [
          "Roma",
          [
            "/wiki/A.S._Roma"
          ]
        ],
        [
          "Undisclosed",
          []
        ]
      ],
      [
        [
          "25 January 2012",
          []
        ],
        [
          "30 June 2012",
          []
        ],
        [
          "DF",
          []
        ],
        [
          "Stefano Ferrario",
          [
            "/wiki/Stefano_Ferrario"
          ]
        ],
        [
          "Lecce",
          [
            "/wiki/U.S._Lecce"
          ]
        ],
        [
          "Undisclosed",
          []
        ]
      ]
    ],
    "section_title": "Transfers -- Loan in",
    "section_text": "",
    "uid": "2011\u201312_Parma_F.C._season_7",
    "intro": "The 2011-12 season was Parma Football Club's 21st season in Serie A and their third consecutive season in that division, having finished 12th the previous season. An up-and-down start to the 2011-12 season saw Parma in a comfortable 10th position after 11 games. However, a six-game winless streak culminating in a 5-0 defeat away to Internazionale was enough for Ghirardi to let Colomba go on 9 January 2012, despite Parma sitting in 15th position and seven points clear of relegation, having picked up 19 points from 17 games. Roberto Donadoni was chosen as his replacement immediately. Donadoni initially failed to bring about a change in fortunes, but the side won seven matches in a row to set a new club record to finish in eighth position, level on points with Roma. As well as competing in Serie A, Parma took part in the Coppa Italia, a competition which they exited in the fourth round after losing to Serie B side Hellas Verona."
  },
  "2000\u201301_USM_Alger_season_1": {
    "url": "https://en.wikipedia.org/wiki/2000\u201301_USM_Alger_season",
    "title": "2000\u201301 USM Alger season",
    "header": [
      [
        "Date",
        []
      ],
      [
        "Pos",
        []
      ],
      [
        "Player",
        []
      ],
      [
        "From club",
        []
      ],
      [
        "Transfer fee",
        []
      ]
    ],
    "data": [
      [
        [
          "2000",
          []
        ],
        [
          "GK",
          []
        ],
        [
          "Hichem Meza\u00efr",
          [
            "/wiki/Hichem_Meza\u00efr"
          ]
        ],
        [
          "WA Tlemcen",
          [
            "/wiki/WA_Tlemcen"
          ]
        ],
        [
          "Free transfer",
          []
        ]
      ],
      [
        [
          "2000",
          []
        ],
        [
          "MF",
          []
        ],
        [
          "Billel Dziri",
          [
            "/wiki/Billel_Dziri"
          ]
        ],
        [
          "Sedan",
          [
            "/wiki/CS_Sedan_Ardennes"
          ]
        ],
        [
          "Free transfer",
          []
        ]
      ],
      [
        [
          "2000",
          []
        ],
        [
          "FW",
          []
        ],
        [
          "Moncef Ouichaoui",
          [
            "/wiki/Moncef_Ouichaoui"
          ]
        ],
        [
          "USM Annaba",
          [
            "/wiki/USM_Annaba"
          ]
        ],
        [
          "Free transfer",
          []
        ]
      ],
      [
        [
          "2000",
          []
        ],
        [
          "MF",
          []
        ],
        [
          "Sa\u00efd Ba\u00e2zouz",
          []
        ],
        [
          "MC Alger",
          [
            "/wiki/MC_Alger"
          ]
        ],
        [
          "Free transfer",
          []
        ]
      ],
      [
        [
          "2000",
          []
        ],
        [
          "MF",
          []
        ],
        [
          "Kamel Maouche",
          [
            "/wiki/Kamel_Maouche"
          ]
        ],
        [
          "HB Chelghoum Laid",
          [
            "/wiki/HB_Chelghoum_La\u00efd"
          ]
        ],
        [
          "Free transfer",
          []
        ]
      ],
      [
        [
          "2000",
          []
        ],
        [
          "MF",
          []
        ],
        [
          "Faycal Rahim",
          []
        ],
        [
          "USM El Harrach",
          [
            "/wiki/USM_El_Harrach"
          ]
        ],
        [
          "Free transfer",
          []
        ]
      ],
      [
        [
          "2000",
          []
        ],
        [
          "FW",
          []
        ],
        [
          "Ammar Galoul",
          []
        ],
        [
          "CR Belouizdad",
          [
            "/wiki/CR_Belouizdad"
          ]
        ],
        [
          "Free transfer",
          []
        ]
      ],
      [
        [
          "2000",
          []
        ],
        [
          "FW",
          []
        ],
        [
          "Farid Ould Rabah",
          []
        ],
        [
          "JSM B\u00e9ja\u00efa",
          [
            "/wiki/JSM_B\u00e9ja\u00efa"
          ]
        ],
        [
          "Free transfer",
          []
        ]
      ]
    ],
    "section_title": "Transfers -- In",
    "section_text": "",
    "uid": "2000\u201301_USM_Alger_season_1",
    "intro": "In the 2000-01 season, USM Alger is competing in the National for the 21st time, as well as the Algerian Cup. It is their 6th consecutive season in the top flight of Algerian football. They will be competing in Ligue 1 and the Algerian Cup."
  },
  "2009\u201310_Clyde_F.C._season_2": {
    "url": "https://en.wikipedia.org/wiki/2009\u201310_Clyde_F.C._season",
    "title": "2009\u201310 Clyde F.C. season",
    "header": [
      [
        "Player",
        []
      ],
      [
        "To",
        []
      ],
      [
        "Fee",
        []
      ],
      [
        "Date",
        []
      ]
    ],
    "data": [
      [
        [
          "Chris Higgins",
          [
            "/wiki/Chris_Higgins_(footballer)"
          ]
        ],
        [
          "Dunfermline Athletic",
          [
            "/wiki/Dunfermline_Athletic_F.C."
          ]
        ],
        [
          "Free",
          []
        ],
        [
          "2 June 2009",
          []
        ]
      ],
      [
        [
          "Neil McGregor",
          [
            "/wiki/Neil_McGregor"
          ]
        ],
        [
          "Dunfermline Athletic",
          [
            "/wiki/Dunfermline_Athletic_F.C."
          ]
        ],
        [
          "Free",
          []
        ],
        [
          "2 June 2009",
          []
        ]
      ],
      [
        [
          "Peter Cherrie",
          [
            "/wiki/Peter_Cherrie"
          ]
        ],
        [
          "Dundalk",
          [
            "/wiki/Dundalk_F.C."
          ]
        ],
        [
          "Free",
          []
        ],
        [
          "2 June 2009",
          []
        ]
      ],
      [
        [
          "David Hutton",
          [
            "/wiki/David_Hutton_(footballer,_born_1985)"
          ]
        ],
        [
          "Queen of the South",
          [
            "/wiki/Queen_of_the_South_F.C."
          ]
        ],
        [
          "Free",
          []
        ],
        [
          "2 June 2009",
          []
        ]
      ],
      [
        [
          "Stephen Connolly",
          [
            "/wiki/Stephen_Connolly"
          ]
        ],
        [
          "Released",
          []
        ],
        [
          "Free",
          []
        ],
        [
          "2 June 2009",
          []
        ]
      ],
      [
        [
          "Jordan Murch",
          [
            "/wiki/Jordan_Murch"
          ]
        ],
        [
          "Beith Juniors",
          [
            "/wiki/Beith_Juniors_F.C."
          ]
        ],
        [
          "Free",
          []
        ],
        [
          "2 June 2009",
          []
        ]
      ],
      [
        [
          "David McGowan",
          [
            "/wiki/David_McGowan_(footballer)"
          ]
        ],
        [
          "Released",
          []
        ],
        [
          "Free",
          []
        ],
        [
          "2 June 2009",
          []
        ]
      ],
      [
        [
          "Gr\u00e9gory Tad\u00e9",
          [
            "/wiki/Gr\u00e9gory_Tad\u00e9"
          ]
        ],
        [
          "Raith Rovers",
          [
            "/wiki/Raith_Rovers_F.C."
          ]
        ],
        [
          "Free",
          []
        ],
        [
          "2 June 2009",
          []
        ]
      ],
      [
        [
          "Scott Gemmill",
          [
            "/wiki/Scott_Gemmill"
          ]
        ],
        [
          "Airdrie United",
          [
            "/wiki/Airdrieonians_F.C."
          ]
        ],
        [
          "Free",
          []
        ],
        [
          "2 June 2009",
          []
        ]
      ],
      [
        [
          "Craig O'Reilly",
          [
            "/wiki/Craig_O'Reilly"
          ]
        ],
        [
          "Stenhousemuir",
          [
            "/wiki/Stenhousemuir_F.C."
          ]
        ],
        [
          "Free",
          []
        ],
        [
          "2 June 2009",
          []
        ]
      ],
      [
        [
          "Gary McSwegan",
          [
            "/wiki/Gary_McSwegan"
          ]
        ],
        [
          "Retired",
          []
        ],
        [
          "Free",
          []
        ],
        [
          "2 June 2009",
          []
        ]
      ],
      [
        [
          "Robbie Winters",
          [
            "/wiki/Robbie_Winters"
          ]
        ],
        [
          "Livingston",
          [
            "/wiki/Livingston_F.C."
          ]
        ],
        [
          "Free",
          []
        ],
        [
          "2 June 2009",
          []
        ]
      ],
      [
        [
          "Mark Brown",
          [
            "/wiki/Mark_Brown_(footballer,_born_1984)"
          ]
        ],
        [
          "Alloa Athletic",
          [
            "/wiki/Alloa_Athletic_F.C."
          ]
        ],
        [
          "Free",
          []
        ],
        [
          "10 June 2009",
          []
        ]
      ],
      [
        [
          "Billy Gibson",
          [
            "/wiki/Billy_Gibson_(footballer,_born_1981)"
          ]
        ],
        [
          "Ayr United",
          [
            "/wiki/Ayr_United_F.C."
          ]
        ],
        [
          "Free",
          []
        ],
        [
          "10 June 2009",
          []
        ]
      ],
      [
        [
          "Stuart Kettlewell",
          [
            "/wiki/Stuart_Kettlewell"
          ]
        ],
        [
          "Ross County",
          [
            "/wiki/Ross_County_F.C."
          ]
        ],
        [
          "Free",
          []
        ],
        [
          "10 June 2009",
          []
        ]
      ],
      [
        [
          "Roddy MacLennan",
          [
            "/wiki/Roddy_MacLennan"
          ]
        ],
        [
          "Linlithgow Rose",
          [
            "/wiki/Linlithgow_Rose_F.C."
          ]
        ],
        [
          "Free",
          []
        ],
        [
          "10 June 2009",
          []
        ]
      ],
      [
        [
          "Ruari MacLennan",
          [
            "/wiki/Ruari_MacLennan"
          ]
        ],
        [
          "Released",
          []
        ],
        [
          "Free",
          []
        ],
        [
          "10 June 2009",
          []
        ]
      ],
      [
        [
          "Willie McLaren",
          [
            "/wiki/Willie_McLaren"
          ]
        ],
        [
          "Queen of the South",
          [
            "/wiki/Queen_of_the_South_F.C."
          ]
        ],
        [
          "Free",
          []
        ],
        [
          "10 June 2009",
          []
        ]
      ],
      [
        [
          "Alan Trouten",
          [
            "/wiki/Alan_Trouten"
          ]
        ],
        [
          "Airdrie United",
          [
            "/wiki/Airdrieonians_F.C."
          ]
        ],
        [
          "Free",
          []
        ],
        [
          "10 June 2009",
          []
        ]
      ],
      [
        [
          "Ricky Waddell",
          [
            "/wiki/Ricky_Waddell"
          ]
        ],
        [
          "Airdrie United",
          [
            "/wiki/Airdrieonians_F.C."
          ]
        ],
        [
          "Free",
          []
        ],
        [
          "10 June 2009",
          []
        ]
      ]
    ],
    "section_title": "Transfers -- Out",
    "section_text": "",
    "uid": "2009\u201310_Clyde_F.C._season_2",
    "intro": "Season 2009-10 saw Clyde compete in the Scottish Second Division for the first time in ten seasons following relegation from the Scottish First Division."
  }
}