{
  "2011\u201312_AC_Omonia_season_1": {
    "url": "https://en.wikipedia.org/wiki/2011\u201312_AC_Omonia_season",
    "title": "2011\u201312 AC Omonia season",
    "header": [
      [
        "N",
        []
      ],
      [
        "Pos",
        []
      ],
      [
        "Name",
        []
      ],
      [
        "Age",
        []
      ],
      [
        "EU",
        [
          "/wiki/Citizenship_of_the_European_Union"
        ]
      ],
      [
        "Moving to",
        []
      ],
      [
        "Type",
        []
      ],
      [
        "Transfer window",
        [
          "/wiki/Transfer_window"
        ]
      ],
      [
        "Transfer fee",
        [
          "/wiki/Transfer_(association_football)"
        ]
      ],
      [
        "Source",
        []
      ]
    ],
    "data": [
      [
        [
          "1",
          []
        ],
        [
          "GK",
          [
            "/wiki/Goalkeeper_(association_football)"
          ]
        ],
        [
          "Asprogenous",
          [
            "/wiki/Nikolas_Asprogenis"
          ]
        ],
        [
          "31",
          []
        ],
        [
          "EU",
          []
        ],
        [
          "AEP Paphos",
          [
            "/wiki/AEP_Paphos_FC"
          ]
        ],
        [
          "Transfer",
          []
        ],
        [
          "Summer",
          []
        ],
        [
          "Free",
          [
            "/wiki/Free_transfer_(association_football)"
          ]
        ],
        [
          "sportnetcy.com",
          []
        ]
      ],
      [
        [
          "33",
          []
        ],
        [
          "LB",
          [
            "/wiki/Defender_(association_football)"
          ]
        ],
        [
          "Charalambous",
          [
            "/wiki/Elias_Charalambous"
          ]
        ],
        [
          "30",
          []
        ],
        [
          "EU",
          []
        ],
        [
          "Alki Larnaca",
          [
            "/wiki/Alki_Larnaca_FC"
          ]
        ],
        [
          "Released",
          []
        ],
        [
          "Summer",
          []
        ],
        [
          "N/A",
          []
        ],
        [
          "omonoianews.com",
          []
        ]
      ],
      [
        [
          "32",
          []
        ],
        [
          "FW",
          [
            "/wiki/Forward_(association_football)"
          ]
        ],
        [
          "LuaLua",
          [
            "/wiki/Lomana_LuaLua"
          ]
        ],
        [
          "30",
          []
        ],
        [
          "EU",
          []
        ],
        [
          "Blackpool",
          [
            "/wiki/Blackpool_F.C."
          ]
        ],
        [
          "Released",
          []
        ],
        [
          "Summer",
          []
        ],
        [
          "N/A",
          []
        ],
        [
          "omonoia.com.cy",
          []
        ]
      ],
      [
        [
          "N/A",
          []
        ],
        [
          "MF",
          [
            "/wiki/Midfielder"
          ]
        ],
        [
          "Katsis",
          [
            "/wiki/Antonis_Katsis"
          ]
        ],
        [
          "21",
          []
        ],
        [
          "EU",
          []
        ],
        [
          "Alki Larnaca",
          [
            "/wiki/Alki_Larnaca_FC"
          ]
        ],
        [
          "Loan",
          []
        ],
        [
          "Summer",
          []
        ],
        [
          "Free",
          [
            "/wiki/Free_transfer_(association_football)"
          ]
        ],
        [
          "sportnetcy.com",
          []
        ]
      ],
      [
        [
          "N/A",
          []
        ],
        [
          "DF",
          [
            "/wiki/Defender_(association_football)"
          ]
        ],
        [
          "Espasand\u00edn",
          [
            "/wiki/V\u00edctor_Espasand\u00edn"
          ]
        ],
        [
          "26",
          []
        ],
        [
          "EU",
          []
        ],
        [
          "",
          []
        ],
        [
          "Released",
          []
        ],
        [
          "Summer",
          []
        ],
        [
          "N/A",
          []
        ],
        [
          "supermpala.com",
          []
        ]
      ],
      [
        [
          "6",
          []
        ],
        [
          "MF",
          [
            "/wiki/Midfielder"
          ]
        ],
        [
          "Panagi",
          [
            "/wiki/Giorgos_Panagi"
          ]
        ],
        [
          "24",
          []
        ],
        [
          "EU",
          []
        ],
        [
          "Alki Larnaca",
          [
            "/wiki/Alki_Larnaca_FC"
          ]
        ],
        [
          "Transfer",
          []
        ],
        [
          "Summer",
          []
        ],
        [
          "Free",
          [
            "/wiki/Free_transfer_(association_football)"
          ]
        ],
        [
          "sport-fm.com.cy",
          []
        ]
      ],
      [
        [
          "4",
          []
        ],
        [
          "CB",
          [
            "/wiki/Defender_(association_football)"
          ]
        ],
        [
          "Wenzel",
          [
            "/wiki/Timo_Wenzel"
          ]
        ],
        [
          "33",
          []
        ],
        [
          "EU",
          []
        ],
        [
          "Kerkyra",
          [
            "/wiki/PAE_Kerkyra"
          ]
        ],
        [
          "End of contract",
          []
        ],
        [
          "Summer",
          []
        ],
        [
          "Free",
          [
            "/wiki/Free_transfer_(association_football)"
          ]
        ],
        [
          "omonoia.com.cy",
          []
        ]
      ],
      [
        [
          "9",
          []
        ],
        [
          "MF",
          [
            "/wiki/Midfielder"
          ]
        ],
        [
          "Alexandre",
          [
            "/wiki/Alexandre_Afonso_da_Silva"
          ]
        ],
        [
          "27",
          []
        ],
        [
          "EU",
          []
        ],
        [
          "AEK Larnaca",
          [
            "/wiki/AEK_Larnaca_FC"
          ]
        ],
        [
          "Transfer",
          []
        ],
        [
          "Winter",
          []
        ],
        [
          "N/A",
          []
        ],
        [
          "",
          []
        ]
      ]
    ],
    "section_title": "Current squad -- Squad Changes",
    "section_text": "In :  Out :",
    "uid": "2011\u201312_AC_Omonia_season_1",
    "intro": "The 2011-12 season is Omonia's 57th season in the Cypriot First Division and 63rd year in existence as a football club. On 22 June, the first training session for the season took place at GSP Stadium. The pre-season tour this season was in Poland. The team entered the 2011-12 UEFA Europa League third qualifying round on 28 July and won the first leg in Cyprus against ADO Den Haag. One week later, they eliminated the Dutch team and were drawn against Red Bull Salzburg in the play-off round. A comeback and a 2-1 win and the team still had the chance to advance to the group stages. Omonia lost 0-1 in Austria and were eliminated on the away goals rule. Omonia won the Cypriot Cup last season and therefore played in the Cypriot Super Cup on 7 August against the rivals APOEL but the team lost 0-1."
  },
  "2019\u201320_Aldosivi_season_5": {
    "url": "https://en.wikipedia.org/wiki/2019\u201320_Aldosivi_season",
    "title": "2019\u201320 Aldosivi season",
    "header": [
      [
        "Start date",
        []
      ],
      [
        "Position",
        []
      ],
      [
        "Name",
        []
      ],
      [
        "From",
        []
      ],
      [
        "End date",
        []
      ]
    ],
    "data": [
      [
        [
          "3 July 2019",
          []
        ],
        [
          "CM",
          []
        ],
        [
          "Leandro Maciel",
          [
            "/wiki/Leandro_Maciel"
          ]
        ],
        [
          "Lan\u00fas",
          [
            "/wiki/Club_Atl\u00e9tico_Lan\u00fas"
          ]
        ],
        [
          "30 June 2018",
          []
        ]
      ],
      [
        [
          "3 July 2019",
          []
        ],
        [
          "CM",
          []
        ],
        [
          "Gast\u00f3n Gil Romero",
          [
            "/wiki/Gast\u00f3n_Gil_Romero"
          ]
        ],
        [
          "Estudiantes",
          [
            "/wiki/Estudiantes_de_La_Plata"
          ]
        ],
        [
          "30 June 2018",
          []
        ]
      ],
      [
        [
          "3 July 2019",
          []
        ],
        [
          "AM",
          []
        ],
        [
          "Nazareno Sol\u00eds",
          [
            "/wiki/Nazareno_Sol\u00eds"
          ]
        ],
        [
          "Boca Juniors",
          [
            "/wiki/Boca_Juniors"
          ]
        ],
        [
          "30 June 2018",
          []
        ]
      ],
      [
        [
          "10 July 2019",
          []
        ],
        [
          "CF",
          []
        ],
        [
          "Sebasti\u00e1n Rinc\u00f3n",
          [
            "/wiki/Sebasti\u00e1n_Rinc\u00f3n"
          ]
        ],
        [
          "Vit\u00f3ria Guimar\u00e3es",
          [
            "/wiki/Vit\u00f3ria_S.C."
          ]
        ],
        [
          "30 June 2018",
          []
        ]
      ],
      [
        [
          "31 July 2019",
          []
        ],
        [
          "CB",
          []
        ],
        [
          "Nicol\u00e1s Bazzana",
          [
            "/wiki/Nicol\u00e1s_Bazzana"
          ]
        ],
        [
          "Estudiantes",
          [
            "/wiki/Estudiantes_de_La_Plata"
          ]
        ],
        [
          "30 June 2020",
          []
        ]
      ],
      [
        [
          "1 August 2019",
          []
        ],
        [
          "CF",
          []
        ],
        [
          "Gonzalo Ver\u00f3n",
          [
            "/wiki/Gonzalo_Ver\u00f3n"
          ]
        ],
        [
          "Independiente",
          [
            "/wiki/Club_Atl\u00e9tico_Independiente"
          ]
        ],
        [
          "30 June 2020",
          []
        ]
      ]
    ],
    "section_title": "Transfers -- Loans in",
    "section_text": "",
    "uid": "2019\u201320_Aldosivi_season_5",
    "intro": "The 2019-20 season is Aldosivi's 2nd consecutive season in the top division of Argentine football. In addition to the Primera Divisi\u00f3n, the club are competing in the Copa Argentina and Copa de la Superliga. The season generally covers the period from 1 July 2019 to 30 June 2020."
  },
  "1549\u20131550_papal_conclave_0": {
    "url": "https://en.wikipedia.org/wiki/1549\u201350_papal_conclave",
    "title": "1549\u201350 papal conclave",
    "header": [
      [
        "Elector",
        []
      ],
      [
        "Nationality",
        []
      ],
      [
        "Order",
        []
      ],
      [
        "Title",
        []
      ],
      [
        "Elevated",
        []
      ],
      [
        "Elevator",
        []
      ]
    ],
    "data": [
      [
        [
          "Giovanni Domenico de Cupis",
          [
            "/wiki/Giovanni_Domenico_de_Cupis"
          ]
        ],
        [
          "Roman ( pro-French )",
          [
            "/wiki/Rome"
          ]
        ],
        [
          "Cardinal-bishop",
          []
        ],
        [
          "Bishop of Ostia e Velletri",
          []
        ],
        [
          "1517 , July 1",
          []
        ],
        [
          "Leo X",
          [
            "/wiki/Pope_Leo_X"
          ]
        ]
      ],
      [
        [
          "Giovanni Salviati",
          [
            "/wiki/Giovanni_Salviati"
          ]
        ],
        [
          "Florentine ( pro-French )",
          [
            "/wiki/Florence"
          ]
        ],
        [
          "Cardinal-bishop",
          []
        ],
        [
          "Bishop of Porto e Santa Rufina",
          []
        ],
        [
          "1517 , July 1",
          []
        ],
        [
          "Leo X",
          [
            "/wiki/Pope_Leo_X"
          ]
        ]
      ],
      [
        [
          "Philippe de la Chambre",
          [
            "/wiki/Philippe_de_la_Chambre"
          ]
        ],
        [
          "French",
          [
            "/wiki/France"
          ]
        ],
        [
          "Cardinal-bishop",
          []
        ],
        [
          "O.S.B. , bishop of Frascati",
          []
        ],
        [
          "1533 , November 7",
          []
        ],
        [
          "Clement VII",
          [
            "/wiki/Pope_Clement_VII"
          ]
        ]
      ],
      [
        [
          "Gian Pietro Carafa",
          [
            "/wiki/Pope_Paul_IV"
          ]
        ],
        [
          "Neapolitan ( pro-French )",
          [
            "/wiki/Naples"
          ]
        ],
        [
          "Cardinal-bishop",
          []
        ],
        [
          "Bishop of Sabina , archbishop of Naples",
          []
        ],
        [
          "1536 , December 22",
          []
        ],
        [
          "Paul III",
          [
            "/wiki/Pope_Paul_III"
          ]
        ]
      ],
      [
        [
          "Giovanni Maria Ciocchi del Monte",
          [
            "/wiki/Pope_Julius_III"
          ]
        ],
        [
          "Roman",
          [
            "/wiki/Rome"
          ]
        ],
        [
          "Cardinal-bishop",
          []
        ],
        [
          "Bishop of Palestrina",
          []
        ],
        [
          "1536 , December 22",
          []
        ],
        [
          "Paul III",
          [
            "/wiki/Pope_Paul_III"
          ]
        ]
      ],
      [
        [
          "Ennio Filonardi",
          [
            "/wiki/Ennio_Filonardi"
          ]
        ],
        [
          "Roman ( pro-French )",
          [
            "/wiki/Rome"
          ]
        ],
        [
          "Cardinal-bishop",
          []
        ],
        [
          "Bishop of Albano",
          []
        ],
        [
          "1536 , December 22",
          []
        ],
        [
          "Paul III",
          [
            "/wiki/Pope_Paul_III"
          ]
        ]
      ],
      [
        [
          "Innocenzo Cibo",
          [
            "/wiki/Innocenzo_Cybo"
          ]
        ],
        [
          "Florentine",
          [
            "/wiki/Florence"
          ]
        ],
        [
          "Cardinal-deacon",
          []
        ],
        [
          "Administrator of Marseille , France",
          []
        ],
        [
          "1517 , July 1",
          []
        ],
        [
          "Leo X",
          [
            "/wiki/Pope_Leo_X"
          ]
        ]
      ],
      [
        [
          "Louis de Bourbon de Vend\u00f4me",
          [
            "/wiki/Louis_de_Bourbon_de_Vend\u00f4me"
          ]
        ],
        [
          "French",
          [
            "/wiki/France"
          ]
        ],
        [
          "Cardinal-bishop",
          []
        ],
        [
          "Bishop of Laon , administrator of Sens , France",
          []
        ],
        [
          "1517 , July 1",
          []
        ],
        [
          "Leo X",
          [
            "/wiki/Pope_Leo_X"
          ]
        ]
      ],
      [
        [
          "Nicol\u00f2 Ridolfi",
          [
            "/wiki/Nicol\u00f2_Ridolfi"
          ]
        ],
        [
          "Florentine ( pro-French )",
          [
            "/wiki/Florence"
          ]
        ],
        [
          "Cardinal-bishop",
          []
        ],
        [
          "Bishop of Vicenza",
          []
        ],
        [
          "1517 , July 1",
          []
        ],
        [
          "Leo X",
          [
            "/wiki/Pope_Leo_X"
          ]
        ]
      ],
      [
        [
          "Francesco Pisani",
          [
            "/wiki/Francesco_Pisani"
          ]
        ],
        [
          "Venetian ,",
          [
            "/wiki/Venice"
          ]
        ],
        [
          "Cardinal-bishop",
          []
        ],
        [
          "Bishop of Padua",
          []
        ],
        [
          "1517 , July 1",
          []
        ],
        [
          "Leo X",
          [
            "/wiki/Pope_Leo_X"
          ]
        ]
      ],
      [
        [
          "Jean de Lorraine",
          [
            "/wiki/Jean,_Cardinal_of_Lorraine"
          ]
        ],
        [
          "French",
          [
            "/wiki/France"
          ]
        ],
        [
          "Cardinal-bishop",
          []
        ],
        [
          "Bishop of Metz , Lorraine , administrator of Narbonne , Agen , and Nantes , France",
          []
        ],
        [
          "1518 , May 28",
          []
        ],
        [
          "Leo X",
          [
            "/wiki/Pope_Leo_X"
          ]
        ]
      ],
      [
        [
          "Niccol\u00f2 Gaddi",
          [
            "/wiki/Niccol\u00f2_Gaddi"
          ]
        ],
        [
          "Florentine",
          [
            "/wiki/Florence"
          ]
        ],
        [
          "",
          []
        ],
        [
          "",
          []
        ],
        [
          "1527 , May 3",
          []
        ],
        [
          "Clement VII",
          [
            "/wiki/Pope_Clement_VII"
          ]
        ]
      ],
      [
        [
          "Ercole Gonzaga",
          [
            "/wiki/Ercole_Gonzaga"
          ]
        ],
        [
          "Mantuan ( pro-Imperial )",
          [
            "/wiki/Mantua"
          ]
        ],
        [
          "Cardinal-bishop",
          []
        ],
        [
          "Bishop of Mantua",
          []
        ],
        [
          "1527 , May 3",
          []
        ],
        [
          "Clement VII",
          [
            "/wiki/Pope_Clement_VII"
          ]
        ]
      ],
      [
        [
          "Girolamo Doria",
          [
            "/wiki/Girolamo_Doria"
          ]
        ],
        [
          "Genoese",
          [
            "/wiki/Genoa"
          ]
        ],
        [
          "",
          []
        ],
        [
          "Administrator of Tarragona",
          []
        ],
        [
          "1529 , January",
          []
        ],
        [
          "Clement VII",
          [
            "/wiki/Pope_Clement_VII"
          ]
        ]
      ],
      [
        [
          "Fran\u00e7ois de Tournon",
          [
            "/wiki/Fran\u00e7ois_de_Tournon"
          ]
        ],
        [
          "French",
          [
            "/wiki/France"
          ]
        ],
        [
          "Cardinal-bishop",
          []
        ],
        [
          "Archbishop of Auch , France",
          []
        ],
        [
          "1530 , March 9",
          []
        ],
        [
          "Clement VII",
          [
            "/wiki/Pope_Clement_VII"
          ]
        ]
      ],
      [
        [
          "Odet de Coligny de Ch\u00e2tillon",
          [
            "/wiki/Odet_de_Coligny"
          ]
        ],
        [
          "French",
          [
            "/wiki/France"
          ]
        ],
        [
          "",
          []
        ],
        [
          "Administrator of Beauvais , and Toulouse , France",
          []
        ],
        [
          "1533 , November 7",
          []
        ],
        [
          "Clement VII",
          [
            "/wiki/Pope_Clement_VII"
          ]
        ]
      ],
      [
        [
          "Alessandro Farnese",
          [
            "/wiki/Alessandro_Farnese_(cardinal)"
          ]
        ],
        [
          "Valentano",
          [
            "/wiki/Valentano"
          ]
        ],
        [
          "Cardinal-bishop",
          []
        ],
        [
          "Administrator of Avignon and Tours , France ; Viseu , Portugal ; and Monreale , Sicily",
          []
        ],
        [
          "1534 , December 18",
          []
        ],
        [
          "Paul III",
          [
            "/wiki/Pope_Paul_III"
          ]
        ]
      ],
      [
        [
          "Guido Ascanio Sforza",
          [
            "/wiki/Guido_Ascanio_Sforza_di_Santa_Fiora"
          ]
        ],
        [
          "Roman",
          [
            "/wiki/Rome"
          ]
        ],
        [
          "Cardinal-bishop",
          []
        ],
        [
          "Bishop of Parma",
          []
        ],
        [
          "1534 , December 18",
          []
        ],
        [
          "Paul III",
          [
            "/wiki/Pope_Paul_III"
          ]
        ]
      ],
      [
        [
          "Jean du Bellay",
          [
            "/wiki/Jean_du_Bellay"
          ]
        ],
        [
          "French",
          [
            "/wiki/France"
          ]
        ],
        [
          "Cardinal-bishop",
          []
        ],
        [
          "Bishop of Paris , administrator of Bordeaux , France",
          [
            "/wiki/Roman_Catholic_Archdiocese_of_Paris"
          ]
        ],
        [
          "1535 , May 21",
          []
        ],
        [
          "Paul III",
          [
            "/wiki/Pope_Paul_III"
          ]
        ]
      ],
      [
        [
          "Rodolfo Pio di Carpi",
          [
            "/wiki/Rodolfo_Pio_da_Carpi"
          ]
        ],
        [
          "Carpi ( pro-Imperial )",
          [
            "/wiki/Carpi,_Emilia-Romagna"
          ]
        ],
        [
          "",
          []
        ],
        [
          "",
          []
        ],
        [
          "1536 , December 22",
          []
        ],
        [
          "Paul III",
          [
            "/wiki/Pope_Paul_III"
          ]
        ]
      ]
    ],
    "section_title": "Cardinal-electors",
    "section_text": "Pope Paul III had enlarged the College of Cardinals to an unprecedented fifty-four , and the length of the conclave allowed many of the foreign cardinals to arrive , bringing the number of cardinal electors at one point to fifty-one , although two died and several fell ill during the conclave , reducing their number to forty-four by the final scrutiny ( ballot ) . [ 1 ] According to the tally of Cardinal Charles de Lorraine-Guise in his letter to Henry II , once the twelve participating French cardinals reached Rome , twenty-three cardinals were aligned in the French faction , twenty-two in the Imperial faction , and four neutral ; thus Guise judged it impossible for either faction to garner the necessary two-thirds simply by persuading neutral cardinals . [ 6 ] In addition , eleven Italian cardinals whom Guise counted among the French faction were only likely to vote for a fellow Italian , making the three favorites of Henry II\u2014Louis de Bourbon de Vend\u00f4me , Jean de Lorraine , and Georges d'Amboise\u2014unfeasible . [ 6 ] The non-French cardinal protector of France , d'Este , would then have been the choice of Henry II ; [ 7 ] Catherine de ' Medici preferred her cousin Giovanni Salviati , who was extremely unacceptable to the Imperial faction and the Farnese . [ 6 ] In contrast , Charles V favored Juan \u00c1lvarez de Toledo followed by Reginald Pole , and found unacceptable all of the French cardinals as well as Salviati , Nicol\u00f2 Ridolfi , and the two prelates responsible for the transfer of the Council of Trent to Bologna ( Giovanni Maria Ciocchi del Monte and Marcello Cervini degli Spannochi ) . [ 7 ]",
    "uid": "1549\u20131550_papal_conclave_0",
    "intro": "The papal conclave of 1549-50 (November 29 - February 7), convened after the death of Pope Paul III and eventually elected Giovanni Del Monte to the papacy as Pope Julius III. It was the second-longest papal conclave of the 16th century, and (at the time) the largest papal conclave in history in terms of the number of cardinal electors. The cardinal electors (who at one point totalled fifty-one) were roughly divided between the factions of Henry II of France, Charles V, Holy Roman Emperor, and Alessandro Farnese, the cardinal-nephew of Paul III. Noted for the extensive interference of European powers, the conclave was to determine whether and on what terms the Council of Trent would reconvene (supported by Charles V and opposed by Henry II) and the fate of the Duchies of Parma and Piacenza (claimed by both Charles V and the House of Farnese). Although the conclave nearly elected Reginald Pole, the late arrival of additional French cardinals pushed the conclave back into deadlock, and eventually Giovanni del Monte was elected Pope Julius III as a compromise candidate. The French hoped that Julius III would be hostile to the interests of the Holy Roman Empire. Nevertheless, tensions between him and the French boiled over when he reconvened the Council of Trent in November 1550, culminating in the threat of schism in August 1551 and the brief War of Parma fought between French troops allied with Ottavio Farnese and a papal-imperial army. French prelates did not attend the 1551-1552 sessions of the Council of Trent and were slow to accept its reforms; because Henry II would not allow any French cardinals to reside in Rome, many missed the election of Pope Marcellus II, arriving in Rome just in time to elect Marcellus II's successor Pope Paul IV after Marcellus II's brief reign."
  },
  "2011\u201312_RFU_Championship_0": {
    "url": "https://en.wikipedia.org/wiki/2011\u201312_RFU_Championship",
    "title": "2011\u201312 RFU Championship",
    "header": [
      [
        "Team",
        []
      ],
      [
        "Stadium",
        []
      ],
      [
        "Capacity",
        []
      ],
      [
        "City/Area",
        []
      ]
    ],
    "data": [
      [
        [
          "Bedford Blues",
          [
            "/wiki/Bedford_Blues"
          ]
        ],
        [
          "Goldington Road",
          [
            "/wiki/Goldington_Road"
          ]
        ],
        [
          "6,000",
          []
        ],
        [
          "Bedford , Bedfordshire",
          [
            "/wiki/Bedford",
            "/wiki/Bedfordshire"
          ]
        ]
      ],
      [
        [
          "Bristol",
          [
            "/wiki/Bristol_Bears"
          ]
        ],
        [
          "Memorial Stadium",
          [
            "/wiki/Memorial_Stadium_(Bristol)"
          ]
        ],
        [
          "12,100",
          []
        ],
        [
          "Bristol",
          [
            "/wiki/Bristol"
          ]
        ]
      ],
      [
        [
          "Cornish Pirates",
          [
            "/wiki/Cornish_Pirates"
          ]
        ],
        [
          "Mennaye Field",
          [
            "/wiki/Mennaye_Field"
          ]
        ],
        [
          "4,000 ( 2,200 Seats )",
          []
        ],
        [
          "Penzance , Cornwall",
          [
            "/wiki/Penzance",
            "/wiki/Cornwall"
          ]
        ]
      ],
      [
        [
          "Doncaster Knights",
          [
            "/wiki/Doncaster_Knights"
          ]
        ],
        [
          "Castle Park",
          [
            "/wiki/Castle_Park_rugby_stadium"
          ]
        ],
        [
          "3,075",
          []
        ],
        [
          "Doncaster , South Yorkshire",
          [
            "/wiki/Doncaster",
            "/wiki/South_Yorkshire"
          ]
        ]
      ],
      [
        [
          "Esher",
          [
            "/wiki/Esher_RFC"
          ]
        ],
        [
          "Molesey Road",
          [
            "/wiki/Molesey_Road"
          ]
        ],
        [
          "3,000",
          []
        ],
        [
          "Hersham , Surrey",
          [
            "/wiki/Hersham",
            "/wiki/Surrey"
          ]
        ]
      ],
      [
        [
          "Leeds Carnegie",
          [
            "/wiki/Leeds_Carnegie"
          ]
        ],
        [
          "Headingley Carnegie Stadium",
          [
            "/wiki/Headingley_Stadium"
          ]
        ],
        [
          "20,250",
          []
        ],
        [
          "Leeds , West Yorkshire",
          [
            "/wiki/Leeds",
            "/wiki/West_Yorkshire"
          ]
        ]
      ],
      [
        [
          "London Scottish",
          [
            "/wiki/London_Scottish_F.C."
          ]
        ],
        [
          "Athletic Ground , Richmond",
          [
            "/wiki/Athletic_Ground,_Richmond"
          ]
        ],
        [
          "4,500",
          []
        ],
        [
          "Richmond , London",
          [
            "/wiki/Richmond,_London",
            "/wiki/London"
          ]
        ]
      ],
      [
        [
          "London Welsh",
          [
            "/wiki/London_Welsh_RFC"
          ]
        ],
        [
          "Old Deer Park",
          [
            "/wiki/Old_Deer_Park"
          ]
        ],
        [
          "5,850",
          []
        ],
        [
          "Richmond , London",
          [
            "/wiki/Richmond,_London",
            "/wiki/London"
          ]
        ]
      ],
      [
        [
          "Moseley",
          [
            "/wiki/Birmingham_Moseley_Rugby_Club"
          ]
        ],
        [
          "Billesley Common",
          [
            "/wiki/Billesley_Common"
          ]
        ],
        [
          "3,000",
          []
        ],
        [
          "Birmingham , West Midlands",
          [
            "/wiki/Birmingham",
            "/wiki/West_Midlands_(county)"
          ]
        ]
      ],
      [
        [
          "Nottingham",
          [
            "/wiki/Nottingham_R.F.C."
          ]
        ],
        [
          "Meadow Lane",
          [
            "/wiki/Meadow_Lane"
          ]
        ],
        [
          "19,588",
          []
        ],
        [
          "Nottingham , Nottinghamshire",
          [
            "/wiki/Nottingham",
            "/wiki/Nottinghamshire"
          ]
        ]
      ],
      [
        [
          "Plymouth Albion",
          [
            "/wiki/Plymouth_Albion_R.F.C."
          ]
        ],
        [
          "The Brickfields",
          [
            "/wiki/The_Brickfields"
          ]
        ],
        [
          "8,500",
          []
        ],
        [
          "Plymouth , Devon",
          [
            "/wiki/Plymouth",
            "/wiki/Devon"
          ]
        ]
      ],
      [
        [
          "Rotherham Titans",
          [
            "/wiki/Rotherham_Titans"
          ]
        ],
        [
          "Clifton Lane",
          [
            "/wiki/Clifton_Lane"
          ]
        ],
        [
          "2,500",
          []
        ],
        [
          "Rotherham , South Yorkshire",
          [
            "/wiki/Rotherham",
            "/wiki/South_Yorkshire"
          ]
        ]
      ]
    ],
    "section_title": "Participating teams",
    "section_text": "BedfordBristolCornish PiratesDoncasterEsherLeedsLondon ScottishLondon WelshMoseleyNottinghamPlymouthRotherham Locations of the 2011\u201312 RFU Championship teams This season saw Leeds Carnegie back in the Championship following relegation from the Aviva Premiership during the 2010-11 season , as well as London Scottish , who won promotion to the Championship from the National League 1 during the same season .",
    "uid": "2011\u201312_RFU_Championship_0",
    "intro": "The 2011-12 RFU Championship was the third season (of the professionalised format) of the second tier of the English domestic rugby union competition, played between August 2011 and May 2012. New teams to the division included Leeds Carnegie who were relegated from the Aviva Premiership 2010-11 and London Scottish who were promoted from 2010-11 National League 1. The first stage was won by Bristol and the final by London Welsh who, after an appeal, won promotion to the Aviva Premiership 2012-13. Esher were relegated to the 2012-13 National League 1. On 8 May 2012 it was announced that only Bristol was eligible for promotion under the RFU's minimum standards criteria. They were subsequently beaten by the Cornish Pirates in the semi-finals who in turn lost to the eventual champions, London Welsh. London Welsh had announced on 14 May that they would meet the RFU's eligibility test to play in the Premiership if they should win promotion and two days later announced they would play in the Kassam Stadium in Oxford if successful. On 23 May, the day of the first leg of the final, the RFU announced that London Welsh would not be eligible for promotion due to various failures. The appeal by London Welsh was heard by an Independent Panel on 29 June which ruled \u2033. that the Exiles should be promoted on the basis that they play their home games at Oxford's Kassam Stadium and that the club meet the minimum entry criteria to the league as imposed by the Professional Game Board.\u2033 Chief Executive Officer of the RFU, Ian Richie, subsequently announced that there would be a full review of the Minimum Standard Criteria."
  },
  "2018\u201319_Atlas_F.C._season_0": {
    "url": "https://en.wikipedia.org/wiki/2018\u201319_Atlas_F.C._season",
    "title": "2018\u201319 Atlas F.C. season",
    "header": [
      [
        "N",
        []
      ],
      [
        "Pos",
        []
      ],
      [
        "Name",
        []
      ],
      [
        "Age",
        []
      ],
      [
        "Moving from",
        []
      ],
      [
        "Type",
        []
      ],
      [
        "Transfer window",
        [
          "/wiki/Transfer_window"
        ]
      ],
      [
        "Ends",
        []
      ],
      [
        "Transfer fee",
        [
          "/wiki/Transfer_(association_football)"
        ]
      ],
      [
        "Source",
        []
      ]
    ],
    "data": [
      [
        [
          "2",
          []
        ],
        [
          "DF",
          [
            "/wiki/Defender_(association_football)"
          ]
        ],
        [
          "Nicol\u00e1s Pareja",
          [
            "/wiki/Nicol\u00e1s_Pareja"
          ]
        ],
        [
          "34",
          []
        ],
        [
          "Sevilla",
          [
            "/wiki/Sevilla_FC"
          ]
        ],
        [
          "Transfer",
          []
        ],
        [
          "Summer",
          []
        ],
        [
          "2020",
          []
        ],
        [
          "Free",
          [
            "/wiki/Free_transfer_(association_football)"
          ]
        ],
        [
          "Milenio",
          []
        ]
      ],
      [
        [
          "8",
          []
        ],
        [
          "MF",
          [
            "/wiki/Midfielder"
          ]
        ],
        [
          "Andr\u00e9s Andrade",
          [
            "/wiki/Andr\u00e9s_Andrade"
          ]
        ],
        [
          "29",
          []
        ],
        [
          "Le\u00f3n",
          [
            "/wiki/Club_Le\u00f3n"
          ]
        ],
        [
          "Loan",
          []
        ],
        [
          "Summer",
          []
        ],
        [
          "2018",
          []
        ],
        [
          "Free",
          [
            "/wiki/Free_transfer_(association_football)"
          ]
        ],
        [
          "R\u00e9cord",
          []
        ]
      ],
      [
        [
          "11",
          []
        ],
        [
          "MF",
          [
            "/wiki/Midfielder"
          ]
        ],
        [
          "Ricky \u00c1lvarez",
          [
            "/wiki/Ricky_\u00c1lvarez"
          ]
        ],
        [
          "30",
          []
        ],
        [
          "Sampdoria",
          [
            "/wiki/U.C._Sampdoria"
          ]
        ],
        [
          "Transfer",
          []
        ],
        [
          "Summer",
          []
        ],
        [
          "2021",
          []
        ],
        [
          "Free",
          [
            "/wiki/Free_transfer_(association_football)"
          ]
        ],
        [
          "Milenio",
          []
        ]
      ],
      [
        [
          "14",
          []
        ],
        [
          "DF",
          [
            "/wiki/Defender_(association_football)"
          ]
        ],
        [
          "Omar Gonzalez",
          [
            "/wiki/Omar_Gonzalez"
          ]
        ],
        [
          "29",
          []
        ],
        [
          "Pachuca",
          [
            "/wiki/C.F._Pachuca"
          ]
        ],
        [
          "Loan",
          []
        ],
        [
          "Summer",
          []
        ],
        [
          "2018",
          []
        ],
        [
          "Free",
          [
            "/wiki/Free_transfer_(association_football)"
          ]
        ],
        [
          "AS",
          []
        ]
      ],
      [
        [
          "16",
          []
        ],
        [
          "DF",
          [
            "/wiki/Defender_(association_football)"
          ]
        ],
        [
          "Heriberto Olvera",
          [
            "/wiki/Heriberto_Olvera"
          ]
        ],
        [
          "28",
          []
        ],
        [
          "BUAP",
          [
            "/wiki/Lobos_BUAP"
          ]
        ],
        [
          "Loan",
          []
        ],
        [
          "Summer",
          []
        ],
        [
          "2018",
          []
        ],
        [
          "Free",
          [
            "/wiki/Free_transfer_(association_football)"
          ]
        ],
        [
          "Atlas FC",
          []
        ]
      ],
      [
        [
          "17",
          []
        ],
        [
          "FW",
          [
            "/wiki/Forward_(association_football)"
          ]
        ],
        [
          "Jefferson Duque",
          [
            "/wiki/Jefferson_Duque"
          ]
        ],
        [
          "31",
          []
        ],
        [
          "Morelia",
          [
            "/wiki/Monarcas_Morelia"
          ]
        ],
        [
          "End of Loan",
          []
        ],
        [
          "Summer",
          []
        ],
        [
          "Undisclosed",
          []
        ],
        [
          "Free",
          [
            "/wiki/Free_transfer_(association_football)"
          ]
        ],
        [
          "AS",
          []
        ]
      ],
      [
        [
          "18",
          []
        ],
        [
          "FW",
          [
            "/wiki/Forward_(association_football)"
          ]
        ],
        [
          "Alejandro D\u00edaz",
          [
            "/wiki/Alejandro_D\u00edaz_Lice\u00e1ga"
          ]
        ],
        [
          "22",
          []
        ],
        [
          "Am\u00e9rica",
          [
            "/wiki/Club_Am\u00e9rica"
          ]
        ],
        [
          "Loan",
          []
        ],
        [
          "Summer",
          []
        ],
        [
          "2018",
          []
        ],
        [
          "Free",
          [
            "/wiki/Free_transfer_(association_football)"
          ]
        ],
        [
          "Atlas FC",
          []
        ]
      ],
      [
        [
          "19",
          []
        ],
        [
          "FW",
          [
            "/wiki/Forward_(association_football)"
          ]
        ],
        [
          "Octavio Rivero",
          [
            "/wiki/Octavio_Rivero"
          ]
        ],
        [
          "26",
          []
        ],
        [
          "Colo-Colo",
          [
            "/wiki/Colo-Colo"
          ]
        ],
        [
          "Transfer",
          []
        ],
        [
          "Summer",
          []
        ],
        [
          "2022",
          []
        ],
        [
          "\u20ac3.42M",
          []
        ],
        [
          "Atlas FC",
          []
        ]
      ],
      [
        [
          "21",
          []
        ],
        [
          "MF",
          [
            "/wiki/Midfielder"
          ]
        ],
        [
          "Lorenzo Reyes",
          [
            "/wiki/Lorenzo_Reyes"
          ]
        ],
        [
          "27",
          []
        ],
        [
          "Universidad de Chile",
          [
            "/wiki/Club_Universidad_de_Chile"
          ]
        ],
        [
          "Transfer",
          []
        ],
        [
          "Summer",
          []
        ],
        [
          "2021",
          []
        ],
        [
          "Free",
          [
            "/wiki/Free_transfer_(association_football)"
          ]
        ],
        [
          "Atlas FC",
          []
        ]
      ],
      [
        [
          "23",
          []
        ],
        [
          "GK",
          [
            "/wiki/Goalkeeper_(association_football)"
          ]
        ],
        [
          "\u00c9dgar Hern\u00e1ndez",
          [
            "/wiki/\u00c9dgar_Adolfo_Hern\u00e1ndez"
          ]
        ],
        [
          "36",
          []
        ],
        [
          "Oaxaca",
          [
            "/wiki/Alebrijes_de_Oaxaca"
          ]
        ],
        [
          "Loan",
          []
        ],
        [
          "Summer",
          []
        ],
        [
          "2018",
          []
        ],
        [
          "Free",
          [
            "/wiki/Free_transfer_(association_football)"
          ]
        ],
        [
          "Atlas FC",
          []
        ]
      ]
    ],
    "section_title": "Transfers -- In",
    "section_text": "",
    "uid": "2018\u201319_Atlas_F.C._season_0",
    "intro": "The 2018-19 Atlas F.C. season is the 89th season in the football club's history and the 49th consecutive season in the top flight of Mexican football."
  },
  "2009\u201310_Scarlets_season_1": {
    "url": "https://en.wikipedia.org/wiki/2009\u201310_Scarlets_season",
    "title": "2009\u201310 Scarlets season",
    "header": [
      [
        "Date",
        []
      ],
      [
        "Opponents",
        []
      ],
      [
        "H / A",
        []
      ],
      [
        "Result F - A",
        []
      ],
      [
        "Scorers",
        []
      ],
      [
        "Attendance",
        []
      ],
      [
        "League position",
        []
      ]
    ],
    "data": [
      [
        [
          "5 September 2009",
          []
        ],
        [
          "Leinster",
          [
            "/wiki/Leinster_Rugby"
          ]
        ],
        [
          "H",
          []
        ],
        [
          "18 - 16",
          []
        ],
        [
          "Tries : Lamont 6 ' c , John 65 ' m Con : Priestland ( 1/2 ) Pen : Priestland ( 2 ) 40+7 ' , 70 '",
          [
            "/wiki/Sean_Lamont",
            "/wiki/Phil_John_(rugby_union_born_1981)",
            "/wiki/Rhys_Priestland",
            "/wiki/Rhys_Priestland"
          ]
        ],
        [
          "6,075",
          []
        ],
        [
          "3rd",
          []
        ]
      ],
      [
        [
          "13 September 2009",
          []
        ],
        [
          "Glasgow Warriors",
          [
            "/wiki/Glasgow_Warriors"
          ]
        ],
        [
          "A",
          []
        ],
        [
          "11 - 19",
          []
        ],
        [
          "Try : Evans 32 ' m Pen : Priestland ( 2 ) 40 ' , 55 '",
          [
            "/wiki/Daniel_Evans_(rugby_player)",
            "/wiki/Rhys_Priestland"
          ]
        ],
        [
          "2,582",
          []
        ],
        [
          "7th",
          []
        ]
      ],
      [
        [
          "19 September 2009",
          []
        ],
        [
          "Munster",
          [
            "/wiki/Munster_Rugby"
          ]
        ],
        [
          "H",
          []
        ],
        [
          "20 - 22",
          []
        ],
        [
          "Tries : Manu 32 ' c , M. Jones 45 ' c Con : Priestland ( 2/2 ) Pen : Priestland 12 ' , Evans 73 '",
          [
            "/wiki/Deacon_Manu",
            "/wiki/Mark_Jones_(rugby,_born_1979)",
            "/wiki/Rhys_Priestland",
            "/wiki/Rhys_Priestland",
            "/wiki/Daniel_Evans_(rugby_player)"
          ]
        ],
        [
          "6,313",
          []
        ],
        [
          "7th",
          []
        ]
      ],
      [
        [
          "26 September 2009",
          []
        ],
        [
          "Cardiff Blues",
          [
            "/wiki/Cardiff_Blues"
          ]
        ],
        [
          "A",
          []
        ],
        [
          "15 - 19",
          []
        ],
        [
          "Tries : Lyons 70 ' c , Davies 72 ' m Con : Evans ( 1/2 ) Pen : Evans 8 '",
          [
            "/wiki/David_Lyons_(rugby_union,_born_1980)",
            "/wiki/Jonathan_Davies_(rugby_union,_born_1988)",
            "/wiki/Daniel_Evans_(rugby_player)",
            "/wiki/Daniel_Evans_(rugby_player)"
          ]
        ],
        [
          "12,198",
          []
        ],
        [
          "9th",
          []
        ]
      ],
      [
        [
          "2 October 2009",
          []
        ],
        [
          "Ulster",
          [
            "/wiki/Ulster_Rugby"
          ]
        ],
        [
          "A",
          []
        ],
        [
          "24 - 45",
          []
        ],
        [
          "Tries : Davies ( 2 ) 67 ' c , 78 ' m Con : S. Jones ( 1/2 ) Pen : S. Jones ( 4 ) 2 ' , 13 ' , 20 ' , 23 '",
          [
            "/wiki/Jonathan_Davies_(rugby_union,_born_1988)",
            "/wiki/Stephen_Jones_(rugby_union)",
            "/wiki/Stephen_Jones_(rugby_union)"
          ]
        ],
        [
          "7,950",
          []
        ],
        [
          "9th",
          []
        ]
      ],
      [
        [
          "23 October 2009",
          []
        ],
        [
          "Newport Gwent Dragons",
          [
            "/wiki/Dragons_(rugby_union)"
          ]
        ],
        [
          "H",
          []
        ],
        [
          "18 - 3",
          []
        ],
        [
          "Pen : Priestland ( 6 ) 12 ' , 23 ' , 50 ' , 54 ' , 60 ' , 80+1 '",
          [
            "/wiki/Rhys_Priestland"
          ]
        ],
        [
          "6,464",
          []
        ],
        [
          "8th",
          []
        ]
      ],
      [
        [
          "30 October 2009",
          []
        ],
        [
          "Connacht",
          [
            "/wiki/Connacht_Rugby"
          ]
        ],
        [
          "A",
          []
        ],
        [
          "10 - 16",
          []
        ],
        [
          "Try : Williams 77 ' Con : Newton Pen : Priestland 57 '",
          [
            "/wiki/Lee_Williams_(rugby_union)",
            "/wiki/Daniel_Newton_(rugby_union)",
            "/wiki/Rhys_Priestland"
          ]
        ],
        [
          "1,750",
          []
        ],
        [
          "8th",
          []
        ]
      ],
      [
        [
          "4 December 2009",
          []
        ],
        [
          "Edinburgh",
          [
            "/wiki/Edinburgh_Rugby"
          ]
        ],
        [
          "H",
          []
        ],
        [
          "16 - 17",
          []
        ],
        [
          "Tries : Pugh 30 ' m , Williams 52 ' m Pen : Priestland 3 ' , S. Jones 69 '",
          [
            "/wiki/Richie_Pugh",
            "/wiki/Lee_Williams_(rugby_union)",
            "/wiki/Rhys_Priestland",
            "/wiki/Stephen_Jones_(rugby_union)"
          ]
        ],
        [
          "5,540",
          []
        ],
        [
          "9th",
          []
        ]
      ],
      [
        [
          "26 December 2009",
          []
        ],
        [
          "Ospreys",
          [
            "/wiki/Ospreys_(rugby_union)"
          ]
        ],
        [
          "H",
          []
        ],
        [
          "14 - 21",
          []
        ],
        [
          "Try : Edwards 79 ' m Pen : S. Jones ( 2 ) 6 ' , 40+1 ' , Priestland 33 '",
          [
            "/wiki/Johnathan_Edwards",
            "/wiki/Stephen_Jones_(rugby_union)",
            "/wiki/Rhys_Priestland"
          ]
        ],
        [
          "14,739",
          []
        ],
        [
          "9th",
          []
        ]
      ],
      [
        [
          "31 December 2009",
          []
        ],
        [
          "Newport Gwent Dragons",
          [
            "/wiki/Dragons_(rugby_union)"
          ]
        ],
        [
          "A",
          []
        ],
        [
          "14 - 9",
          []
        ],
        [
          "Try : Priestland 22 ' m Pen : S. Jones ( 2 ) 28 ' , 47 ' , Priestland 76 '",
          [
            "/wiki/Rhys_Priestland",
            "/wiki/Stephen_Jones_(rugby_union)",
            "/wiki/Rhys_Priestland"
          ]
        ],
        [
          "6,429",
          []
        ],
        [
          "9th",
          []
        ]
      ],
      [
        [
          "20 February 2010",
          []
        ],
        [
          "Leinster",
          [
            "/wiki/Leinster_Rugby"
          ]
        ],
        [
          "A",
          []
        ],
        [
          "14 - 27",
          []
        ],
        [
          "Try : Owens 17 ' m Pen : Priestland ( 3 ) 15 ' , 40 ' 44 '",
          [
            "/wiki/Ken_Owens",
            "/wiki/Rhys_Priestland"
          ]
        ],
        [
          "13,890",
          []
        ],
        [
          "",
          []
        ]
      ],
      [
        [
          "5 March 2010",
          []
        ],
        [
          "Ulster",
          [
            "/wiki/Ulster_Rugby"
          ]
        ],
        [
          "H",
          []
        ],
        [
          "25 - 8",
          []
        ],
        [
          "Tries : Fenby 3 ' c , Knoyle 21 ' m , Priestland 61 ' c Con : Priestland ( 2 ) Pen : Priestland ( 2 ) 28 ' , 46 '",
          [
            "/wiki/Andy_Fenby",
            "/wiki/Tavis_Knoyle",
            "/wiki/Rhys_Priestland",
            "/wiki/Rhys_Priestland",
            "/wiki/Rhys_Priestland"
          ]
        ],
        [
          "6,266",
          []
        ],
        [
          "",
          []
        ]
      ],
      [
        [
          "18 March 2010",
          []
        ],
        [
          "Munster",
          [
            "/wiki/Munster_Rugby"
          ]
        ],
        [
          "A",
          []
        ],
        [
          "17 - 23",
          []
        ],
        [
          "Try : Priestland 2 ' m Pen : Priestland ( 4 ) 33',45',54',77 '",
          [
            "/wiki/Rhys_Priestland",
            "/wiki/Rhys_Priestland"
          ]
        ],
        [
          "8,200",
          []
        ],
        [
          "",
          []
        ]
      ],
      [
        [
          "26 March 2010",
          []
        ],
        [
          "Edinburgh",
          [
            "/wiki/Edinburgh_Rugby"
          ]
        ],
        [
          "A",
          []
        ],
        [
          "20 - 24",
          []
        ],
        [
          "Tries : John 30 ' c , Fenby 67 ' c Con : Priestland , Newton Pen : Priestland ( 2 ) 31 ' , 43 '",
          [
            "/wiki/Phil_John_(rugby_union_born_1981)",
            "/wiki/Andy_Fenby",
            "/wiki/Rhys_Priestland",
            "/wiki/Daniel_Newton_(rugby_union)",
            "/wiki/Rhys_Priestland"
          ]
        ],
        [
          "2,762",
          []
        ],
        [
          "",
          []
        ]
      ],
      [
        [
          "2 April 2010",
          []
        ],
        [
          "Ospreys",
          [
            "/wiki/Ospreys_(rugby_union)"
          ]
        ],
        [
          "A",
          []
        ],
        [
          "19 - 27",
          []
        ],
        [
          "Try : J. Davies 18 ' c Con : S. Jones Pen : S. Jones ( 4 ) 3 ' , 31 ' , 55 ' , 73 '",
          [
            "/wiki/Jonathan_Davies_(rugby_union,_born_1988)",
            "/wiki/Stephen_Jones_(rugby_union)",
            "/wiki/Stephen_Jones_(rugby_union)"
          ]
        ],
        [
          "13,913",
          []
        ],
        [
          "",
          []
        ]
      ],
      [
        [
          "17 April 2010",
          []
        ],
        [
          "Cardiff Blues",
          [
            "/wiki/Cardiff_Blues"
          ]
        ],
        [
          "H",
          []
        ],
        [
          "16 - 39",
          []
        ],
        [
          "Try : King 10 ' c Con : S. Jones Pen : S. Jones ( 2 ) 23 ' , 40 ' Drop : S. Jones 29 '",
          [
            "/wiki/Regan_King",
            "/wiki/Stephen_Jones_(rugby_union)",
            "/wiki/Stephen_Jones_(rugby_union)",
            "/wiki/Stephen_Jones_(rugby_union)"
          ]
        ],
        [
          "10,171",
          []
        ],
        [
          "",
          []
        ]
      ],
      [
        [
          "25 April 2010",
          []
        ],
        [
          "Connacht",
          [
            "/wiki/Connacht_Rugby"
          ]
        ],
        [
          "H",
          []
        ],
        [
          "58 - 10",
          []
        ],
        [
          "Tries : R. Thomas ( 2 ) 9 ' c , 40 ' c , McCusker 19 ' c , J. Davies ( 2 ) 23 ' c , 55 ' m , King ( 2 ) 46 ' m , 75 ' m , Turnbull 67 ' m , Lamont 80+4 ' m Con : Priestland ( 5 ) 10 ' , 19 ' , 24 ' , 40+1 ' , 68 ' Pen : Priestland 5 '",
          [
            "/wiki/Rhys_M._Thomas",
            "/wiki/Rob_McCusker",
            "/wiki/Jonathan_Davies_(rugby_union,_born_1988)",
            "/wiki/Regan_King",
            "/wiki/Josh_Turnbull",
            "/wiki/Sean_Lamont",
            "/wiki/Rhys_Priestland",
            "/wiki/Rhys_Priestland"
          ]
        ],
        [
          "5,023",
          []
        ],
        [
          "",
          []
        ]
      ],
      [
        [
          "7 May 2010",
          []
        ],
        [
          "Glasgow Warriors",
          [
            "/wiki/Glasgow_Warriors"
          ]
        ],
        [
          "H",
          []
        ],
        [
          "32 - 37",
          []
        ],
        [
          "Tries : D. Evans 8 ' m , L. Williams 40+6 ' m , S. Jones 44 ' c Con : S. Jones Pen : S. Jones ( 5 ) 18 ' , 40 ' , 53 ' , 59 ' , 77 '",
          [
            "/wiki/Daniel_Evans_(rugby_player)",
            "/wiki/Lee_Williams_(rugby_union)",
            "/wiki/Stephen_Jones_(rugby_union)",
            "/wiki/Stephen_Jones_(rugby_union)",
            "/wiki/Stephen_Jones_(rugby_union)"
          ]
        ],
        [
          "5,630",
          []
        ],
        [
          "9th",
          []
        ]
      ]
    ],
    "section_title": "Celtic League",
    "section_text": "",
    "uid": "2009\u201310_Scarlets_season_1",
    "intro": "The 2009-10 season is the seventh in the history of the Scarlets regional side. The season will see the Scarlets compete in three competitions: the Celtic League, the Heineken Cup and the Anglo-Welsh Cup. The season will be their first full season at Parc y Scarlets."
  },
  "2018\u201319_National_League_18": {
    "url": "https://en.wikipedia.org/wiki/2018\u201319_National_League",
    "title": "2018\u201319 National League",
    "header": [
      [
        "Month",
        []
      ],
      [
        "Player of the Month",
        []
      ],
      [
        "Club",
        []
      ],
      [
        "Manager of the Month",
        []
      ],
      [
        "Club",
        []
      ]
    ],
    "data": [
      [
        [
          "August 2018",
          []
        ],
        [
          "Jake Robinson",
          [
            "/wiki/Jake_Robinson"
          ]
        ],
        [
          "Billericay Town",
          [
            "/wiki/Billericay_Town_F.C."
          ]
        ],
        [
          "Alan Dowson",
          [
            "/wiki/Alan_Dowson"
          ]
        ],
        [
          "Woking",
          [
            "/wiki/Woking_F.C."
          ]
        ]
      ],
      [
        [
          "September 2018",
          []
        ],
        [
          "Jack Turner",
          [
            "/wiki/Jack_Turner_(footballer,_born_1992)"
          ]
        ],
        [
          "Slough Town",
          [
            "/wiki/Slough_Town_F.C."
          ]
        ],
        [
          "Ian Allinson",
          [
            "/wiki/Ian_Allinson"
          ]
        ],
        [
          "St Albans City",
          [
            "/wiki/St_Albans_City_F.C."
          ]
        ]
      ],
      [
        [
          "October 2018",
          []
        ],
        [
          "Moses Emmanuel",
          [
            "/wiki/Moses_Emmanuel"
          ]
        ],
        [
          "Billericay Town",
          [
            "/wiki/Billericay_Town_F.C."
          ]
        ],
        [
          "Gary Johnson",
          [
            "/wiki/Gary_Johnson_(footballer,_born_1955)"
          ]
        ],
        [
          "Torquay United",
          [
            "/wiki/Torquay_United_F.C."
          ]
        ]
      ],
      [
        [
          "November 2018",
          []
        ],
        [
          "Josh Casey",
          []
        ],
        [
          "Woking",
          [
            "/wiki/Woking_F.C."
          ]
        ],
        [
          "Leigh Robinson",
          []
        ],
        [
          "Truro City",
          [
            "/wiki/Truro_City_F.C."
          ]
        ]
      ],
      [
        [
          "December 2018",
          []
        ],
        [
          "Shaun MacDonald",
          []
        ],
        [
          "Torquay United",
          [
            "/wiki/Torquay_United_F.C."
          ]
        ],
        [
          "Mark Jones",
          []
        ],
        [
          "Oxford City",
          [
            "/wiki/Oxford_City_F.C."
          ]
        ]
      ],
      [
        [
          "January 2019",
          []
        ],
        [
          "Jack Giddens",
          []
        ],
        [
          "East Thurrock United",
          [
            "/wiki/East_Thurrock_United_F.C."
          ]
        ],
        [
          "Jerry Gill",
          [
            "/wiki/Jerry_Gill"
          ]
        ],
        [
          "Bath City",
          [
            "/wiki/Bath_City_F.C."
          ]
        ]
      ],
      [
        [
          "February 2019",
          []
        ],
        [
          "Chris Whelpdale",
          [
            "/wiki/Chris_Whelpdale"
          ]
        ],
        [
          "Chelmsford City",
          [
            "/wiki/Chelmsford_City_F.C."
          ]
        ],
        [
          "Jamie Coyle Adam Flanagan",
          []
        ],
        [
          "Dartford",
          [
            "/wiki/Dartford_F.C."
          ]
        ]
      ],
      [
        [
          "March 2019",
          []
        ],
        [
          "Marvel Ekpiteta",
          []
        ],
        [
          "Hungerford Town",
          [
            "/wiki/Hungerford_Town_F.C."
          ]
        ],
        [
          "Neil Baker Jon Underwood",
          []
        ],
        [
          "Slough Town",
          [
            "/wiki/Slough_Town_F.C."
          ]
        ]
      ],
      [
        [
          "April 2019",
          []
        ],
        [
          "Fabien Robert",
          [
            "/wiki/Fabien_Robert"
          ]
        ],
        [
          "Gloucester City",
          [
            "/wiki/Gloucester_City_A.F.C."
          ]
        ],
        [
          "Mike Cook",
          [
            "/wiki/Mike_Cook_(footballer)"
          ]
        ],
        [
          "Gloucester City",
          [
            "/wiki/Gloucester_City_A.F.C."
          ]
        ]
      ]
    ],
    "section_title": "National League South -- Monthly Awards",
    "section_text": "Each month the Vanarama National League South announces their official Player of the Month and Manager of the Month .",
    "uid": "2018\u201319_National_League_18",
    "intro": "The 2018-19 National League season, known as the Vanarama National League for sponsorship reasons, is the fourth season under English football's new title of National League, fifteenth season consisting of three divisions and the fortieth season overall. The National League covers the top two levels of non-League football in England. The National League is the fifth highest level of the overall pyramid, while the National League North and National League South exist at the sixth level. The top team and the winner of the play-off of the Premier division will be promoted to English Football League Two, while the bottom four are relegated to the North or South divisions. The champions of the North and South divisions will be promoted to the Premier division, alongside the play-off winners from each division. The bottom three in each of the North and South divisions are relegated to the premier divisions of the Northern Premier League, Southern Football League Central or South, or Isthmian League."
  },
  "2007\u201308_Clyde_F.C._season_8": {
    "url": "https://en.wikipedia.org/wiki/2007\u201308_Clyde_F.C._season",
    "title": "2007\u201308 Clyde F.C. season",
    "header": [
      [
        "Player",
        []
      ],
      [
        "To",
        []
      ],
      [
        "Fee",
        []
      ]
    ],
    "data": [
      [
        [
          "Dan Kirkup",
          [
            "/wiki/Dan_Kirkup"
          ]
        ],
        [
          "Carlisle United",
          [
            "/wiki/Carlisle_United_F.C."
          ]
        ],
        [
          "Loan Return",
          []
        ]
      ],
      [
        [
          "Joe Cardle",
          [
            "/wiki/Joe_Cardle"
          ]
        ],
        [
          "Port Vale",
          [
            "/wiki/Port_Vale_F.C."
          ]
        ],
        [
          "Loan Return",
          []
        ]
      ],
      [
        [
          "Ryan Wilkie",
          []
        ],
        [
          "Workington",
          [
            "/wiki/Workington_A.F.C."
          ]
        ],
        [
          "Free",
          []
        ]
      ],
      [
        [
          "Evangelino Valentim",
          [
            "/wiki/Evangelino_Valentim"
          ]
        ],
        [
          "Released",
          []
        ],
        [
          "Free",
          []
        ]
      ],
      [
        [
          "Dougie Imrie",
          [
            "/wiki/Dougie_Imrie"
          ]
        ],
        [
          "Inverness Caledonian Thistle",
          [
            "/wiki/Inverness_Caledonian_Thistle_F.C."
          ]
        ],
        [
          "\u00a335,000",
          []
        ]
      ]
    ],
    "section_title": "Transfers -- January",
    "section_text": "In : Player From Fee Pat Clarke Cowdenbeath Undisclosed Jimmy Gibson Partick Thistle Free Billy Gibson St Patrick 's Athletic Free Shaun Fagan Galway United Free Iain Campbell Kilmarnock Loan Dave McKay Drumchapel United Free Paul MacDonald Hearts Free J\u00f6rg Albertz Unattached Free Gary McSwegan Unattached Free Marc McCusker Hearts Loan Out :",
    "uid": "2007\u201308_Clyde_F.C._season_8",
    "intro": "Season 2007-08 was Clyde's eighth consecutive season in the Scottish First Division. Former Scotland captain Colin Hendry was appointed manager in June 2007, replacing Joe Miller. Hendry resigned in January 2008, and was replaced by John Brown. The club finished 9th in the division by 1 goal, and were confined to the playoffs. They staged an impressive 6-5 aggregate victory over Alloa Athletic in the Semi Final, coming from 5-2 down with 25 minutes left. They defeated Airdrie United 3-0 over two legs to regain their status as a First Division team."
  },
  "2001\u201302_SC_Bastia_season_0": {
    "url": "https://en.wikipedia.org/wiki/2001\u201302_SC_Bastia_season",
    "title": "2001\u201302 SC Bastia season",
    "header": [
      [
        "Date",
        []
      ],
      [
        "Opponent",
        []
      ],
      [
        "H / A",
        []
      ],
      [
        "Result",
        []
      ],
      [
        "Goal ( s )",
        []
      ],
      [
        "Attendance",
        []
      ]
    ],
    "data": [
      [
        [
          "28 July 2001",
          []
        ],
        [
          "Sedan",
          [
            "/wiki/CS_Sedan_Ardennes"
          ]
        ],
        [
          "H",
          [
            "/wiki/Stade_Armand_Cesari"
          ]
        ],
        [
          "1 - 1",
          []
        ],
        [
          "Beneforti 83 '",
          [
            "/wiki/Patrick_Beneforti"
          ]
        ],
        [
          "6,500",
          []
        ]
      ],
      [
        [
          "4 August 2001",
          []
        ],
        [
          "Guingamp",
          [
            "/wiki/En_Avant_de_Guingamp"
          ]
        ],
        [
          "A",
          [
            "/wiki/Stade_de_Roudourou"
          ]
        ],
        [
          "1 - 0",
          []
        ],
        [
          "-",
          []
        ],
        [
          "10,268",
          []
        ]
      ],
      [
        [
          "12 August 2001",
          []
        ],
        [
          "Lyon",
          [
            "/wiki/Olympique_Lyonnais"
          ]
        ],
        [
          "H",
          []
        ],
        [
          "1 - 2",
          []
        ],
        [
          "Ferreira 71 ' ( pen . )",
          [
            "/wiki/Demetrius_Ferreira",
            "/wiki/Penalty_kick_(association_football)"
          ]
        ],
        [
          "8,512",
          []
        ]
      ],
      [
        [
          "18 August 2001",
          []
        ],
        [
          "Nantes",
          [
            "/wiki/FC_Nantes"
          ]
        ],
        [
          "A",
          [
            "/wiki/Stade_de_la_Beaujoire"
          ]
        ],
        [
          "1 - 2",
          []
        ],
        [
          "Essien 13 ' , Dieuze 29 '",
          [
            "/wiki/Michael_Essien",
            "/wiki/Nicolas_Dieuze"
          ]
        ],
        [
          "33,507",
          []
        ]
      ],
      [
        [
          "25 August 2001",
          []
        ],
        [
          "Marseille",
          [
            "/wiki/Olympique_de_Marseille"
          ]
        ],
        [
          "H",
          []
        ],
        [
          "1 - 0",
          []
        ],
        [
          "Beneforti 34 '",
          [
            "/wiki/Patrick_Beneforti"
          ]
        ],
        [
          "11,333",
          []
        ]
      ],
      [
        [
          "8 September 2001",
          []
        ],
        [
          "Metz",
          [
            "/wiki/FC_Metz"
          ]
        ],
        [
          "A",
          [
            "/wiki/Stade_Saint-Symphorien"
          ]
        ],
        [
          "0 - 1",
          []
        ],
        [
          "Deblock 20 ' , Essien 89 '",
          [
            "/wiki/Michael_Essien"
          ]
        ],
        [
          "15,252",
          []
        ]
      ],
      [
        [
          "15 September 2001",
          []
        ],
        [
          "Auxerre",
          [
            "/wiki/AJ_Auxerre"
          ]
        ],
        [
          "H",
          []
        ],
        [
          "0 - 1",
          []
        ],
        [
          "-",
          []
        ],
        [
          "7,739",
          []
        ]
      ],
      [
        [
          "22 September 2001",
          []
        ],
        [
          "Lille",
          [
            "/wiki/Lille_OSC"
          ]
        ],
        [
          "A",
          [
            "/wiki/Stade_Grimonprez-Jooris"
          ]
        ],
        [
          "2 - 1",
          []
        ],
        [
          "Jau 64 '",
          [
            "/wiki/Fabrice_Jau"
          ]
        ],
        [
          "16,565",
          []
        ]
      ],
      [
        [
          "29 September 2001",
          []
        ],
        [
          "AS Monaco",
          [
            "/wiki/AS_Monaco_FC"
          ]
        ],
        [
          "H",
          []
        ],
        [
          "1 - 0",
          []
        ],
        [
          "Beneforti 31 ' , Penneteau 70 '",
          [
            "/wiki/Patrick_Beneforti",
            "/wiki/Nicolas_Penneteau"
          ]
        ],
        [
          "6,766",
          []
        ]
      ],
      [
        [
          "13 October 2001",
          []
        ],
        [
          "Sochaux",
          [
            "/wiki/FC_Sochaux-Montb\u00e9liard"
          ]
        ],
        [
          "A",
          [
            "/wiki/Stade_Auguste_Bonal"
          ]
        ],
        [
          "4 - 1",
          []
        ],
        [
          "Lambourde 55 ' , Ferreira 82 '",
          [
            "/wiki/Bernard_Lambourde",
            "/wiki/Demetrius_Ferreira"
          ]
        ],
        [
          "16,090",
          []
        ]
      ],
      [
        [
          "20 October 2001",
          []
        ],
        [
          "Rennes",
          [
            "/wiki/Stade_Rennais_F.C."
          ]
        ],
        [
          "H",
          []
        ],
        [
          "1 - 2",
          []
        ],
        [
          "Ferreira 87 '",
          [
            "/wiki/Demetrius_Ferreira"
          ]
        ],
        [
          "5,796",
          []
        ]
      ],
      [
        [
          "27 October 2001",
          []
        ],
        [
          "Paris SG",
          [
            "/wiki/Paris_Saint-Germain_F.C."
          ]
        ],
        [
          "A",
          [
            "/wiki/Parc_des_Princes"
          ]
        ],
        [
          "1 - 0",
          []
        ],
        [
          "-",
          []
        ],
        [
          "40,879",
          []
        ]
      ],
      [
        [
          "3 November 2001",
          []
        ],
        [
          "Lorient",
          [
            "/wiki/FC_Lorient"
          ]
        ],
        [
          "H",
          []
        ],
        [
          "3 - 1",
          []
        ],
        [
          "Vairelles 55 ' ( pen . ) , 56 ' , Essien 68 '",
          [
            "/wiki/Tony_Vairelles",
            "/wiki/Penalty_kick_(association_football)",
            "/wiki/Michael_Essien"
          ]
        ],
        [
          "5,766",
          []
        ]
      ],
      [
        [
          "17 November 2001",
          []
        ],
        [
          "Montpellier",
          [
            "/wiki/Montpellier_HSC"
          ]
        ],
        [
          "A",
          [
            "/wiki/Stade_de_la_Mosson"
          ]
        ],
        [
          "2 - 1",
          []
        ],
        [
          "Lambourde 78 '",
          [
            "/wiki/Bernard_Lambourde"
          ]
        ],
        [
          "11,300",
          []
        ]
      ],
      [
        [
          "24 November 2001",
          []
        ],
        [
          "Bordeaux",
          [
            "/wiki/FC_Girondins_de_Bordeaux"
          ]
        ],
        [
          "H",
          []
        ],
        [
          "1 - 2",
          []
        ],
        [
          "Vairelles 62 '",
          [
            "/wiki/Tony_Vairelles"
          ]
        ],
        [
          "6,068",
          []
        ]
      ],
      [
        [
          "28 November 2001",
          []
        ],
        [
          "Lens",
          [
            "/wiki/RC_Lens"
          ]
        ],
        [
          "A",
          [
            "/wiki/Stade_Bollaert-Delelis"
          ]
        ],
        [
          "7 - 0",
          []
        ],
        [
          "Ferreira 45 '",
          [
            "/wiki/Demetrius_Ferreira"
          ]
        ],
        [
          "34,280",
          []
        ]
      ],
      [
        [
          "8 December 2001",
          []
        ],
        [
          "Troyes",
          [
            "/wiki/Troyes_AC"
          ]
        ],
        [
          "H",
          []
        ],
        [
          "2 - 0",
          []
        ],
        [
          "Vairelles 48 ' , O. Soumah 50 '",
          [
            "/wiki/Tony_Vairelles"
          ]
        ],
        [
          "6,710",
          []
        ]
      ],
      [
        [
          "19 December 2001",
          []
        ],
        [
          "Guingamp",
          [
            "/wiki/En_Avant_de_Guingamp"
          ]
        ],
        [
          "H",
          []
        ],
        [
          "3 - 0",
          []
        ],
        [
          "Vairelles 62 ' ( pen . ) , Essien 63 ' , Dieuze 67 ' , Bourdeau 86 ' ( o.g . )",
          [
            "/wiki/Tony_Vairelles",
            "/wiki/Penalty_kick_(association_football)",
            "/wiki/Michael_Essien",
            "/wiki/Nicolas_Dieuze",
            "/wiki/Own_goal"
          ]
        ],
        [
          "6,649",
          []
        ]
      ],
      [
        [
          "16 January 2002",
          []
        ],
        [
          "Lyon",
          [
            "/wiki/Olympique_Lyonnais"
          ]
        ],
        [
          "A",
          [
            "/wiki/Stade_de_Gerland"
          ]
        ],
        [
          "0 - 0",
          []
        ],
        [
          "-",
          []
        ],
        [
          "29,506",
          []
        ]
      ],
      [
        [
          "5 January 2002",
          []
        ],
        [
          "Nantes",
          [
            "/wiki/FC_Nantes"
          ]
        ],
        [
          "H",
          []
        ],
        [
          "0 - 2",
          []
        ],
        [
          "-",
          []
        ],
        [
          "5,508",
          []
        ]
      ]
    ],
    "section_title": "Division 1 -- Matches",
    "section_text": "",
    "uid": "2001\u201302_SC_Bastia_season_0",
    "intro": "In 2001-02 season, the French football club SC Bastia finished at the 11th place in league. The top scorer of the season, including 19 goals in 14 league matches have been Tony Vairelles. Bastia were eliminated to Coupe de France final, and in the Coupe de la Ligue it was able to make the quarter final, and the UEFA Intertoto Cup second round."
  },
  "2014\u201315_2._Liga_(Slovakia)_3": {
    "url": "https://en.wikipedia.org/wiki/2014\u201315_2._Liga_(Slovakia)",
    "title": "2014\u201315 2. Liga (Slovakia)",
    "header": [
      [
        "Team",
        []
      ],
      [
        "Head coach",
        []
      ],
      [
        "Captain",
        []
      ],
      [
        "Kit manufacturer",
        []
      ],
      [
        "Shirt sponsor",
        []
      ]
    ],
    "data": [
      [
        [
          "Bardejov",
          [
            "/wiki/Partiz\u00e1n_Bardejov"
          ]
        ],
        [
          "Rastislav Kica",
          []
        ],
        [
          "Vladislav Pal\u0161a",
          [
            "/wiki/Vladislav_Pal\u0161a"
          ]
        ],
        [
          "Colo",
          []
        ],
        [
          "Bardenergy",
          []
        ]
      ],
      [
        [
          "Michalovce",
          [
            "/wiki/MFK_Zempl\u00edn_Michalovce"
          ]
        ],
        [
          "Franti\u0161ek \u0160turma",
          []
        ],
        [
          "Michal Gallo",
          [
            "/wiki/Michal_Gallo"
          ]
        ],
        [
          "Joma",
          [
            "/wiki/Joma"
          ]
        ],
        [
          "Scorp",
          []
        ]
      ],
      [
        [
          "Pre\u0161ov",
          [
            "/wiki/1._FC_Tatran_Pre\u0161ov"
          ]
        ],
        [
          "Stanislav Varga",
          [
            "/wiki/Stanislav_Varga"
          ]
        ],
        [
          "Michal Krajn\u00edk",
          [
            "/wiki/Michal_Krajn\u00edk"
          ]
        ],
        [
          "ATAK",
          [
            "/wiki/ATAK"
          ]
        ],
        [
          "D\u00daHA",
          []
        ]
      ],
      [
        [
          "Rimavsk\u00e1 Sobota",
          [
            "/wiki/M\u0160K_Rimavsk\u00e1_Sobota"
          ]
        ],
        [
          "Gergely Geri",
          []
        ],
        [
          "Milomir Siv\u010devi\u0107",
          [
            "/wiki/Milomir_Siv\u010devi\u0107"
          ]
        ],
        [
          "Givova",
          [
            "/wiki/Givova"
          ]
        ],
        [
          "CLIPtec",
          []
        ]
      ],
      [
        [
          "Liptovsk\u00fd Mikul\u00e1\u0161",
          [
            "/wiki/MFK_Tatran_Liptovsk\u00fd_Mikul\u00e1\u0161"
          ]
        ],
        [
          "Karol Pra\u017eenica",
          []
        ],
        [
          "Ivan Li\u0161ivka",
          []
        ],
        [
          "Sportika SA",
          [
            "/wiki/Sportika_SA"
          ]
        ],
        [
          "VEREX",
          []
        ]
      ],
      [
        [
          "Zvolen",
          [
            "/wiki/MFK_Lokomot\u00edva_Zvolen"
          ]
        ],
        [
          "Anton J\u00e1no\u0161",
          [
            "/wiki/Anton_J\u00e1no\u0161"
          ]
        ],
        [
          "Michal Rakovan",
          []
        ],
        [
          "Luanvi",
          [
            "/wiki/Luanvi"
          ]
        ],
        [
          "",
          []
        ]
      ],
      [
        [
          "Doln\u00fd Kub\u00edn",
          [
            "/wiki/MFK_Doln\u00fd_Kub\u00edn"
          ]
        ],
        [
          "Jozef \u0160ino",
          []
        ],
        [
          "Michal Drengubiak",
          []
        ],
        [
          "Legea",
          [
            "/wiki/Legea"
          ]
        ],
        [
          "",
          []
        ]
      ],
      [
        [
          "Poprad",
          [
            "/wiki/FK_Poprad"
          ]
        ],
        [
          "Vladim\u00edr Laj\u010d\u00e1k",
          []
        ],
        [
          "Mat\u00fa\u0161 Bend\u00edk",
          []
        ],
        [
          "Adidas",
          [
            "/wiki/Adidas"
          ]
        ],
        [
          "",
          []
        ]
      ],
      [
        [
          "MFK Ko\u0161ice B",
          [
            "/wiki/FC_VSS_Ko\u0161ice"
          ]
        ],
        [
          "Marek Fabu\u013ea",
          []
        ],
        [
          "Mikul\u00e1\u0161 T\u00f3th",
          [
            "/wiki/Mikul\u00e1\u0161_T\u00f3th_(footballer)"
          ]
        ],
        [
          "Jako",
          [
            "/wiki/Jako"
          ]
        ],
        [
          "Steel Trans",
          []
        ]
      ],
      [
        [
          "Moldava nad Bodvou",
          [
            "/wiki/FK_Bodva_Moldava_nad_Bodvou"
          ]
        ],
        [
          "Karol Kisel",
          []
        ],
        [
          "Marek Petri\u010dko",
          []
        ],
        [
          "Jako",
          [
            "/wiki/Jako"
          ]
        ],
        [
          "Steel Slovakia",
          []
        ]
      ],
      [
        [
          "Lokomot\u00edva Ko\u0161ice",
          [
            "/wiki/FC_Lokomot\u00edva_Ko\u0161ice"
          ]
        ],
        [
          "Jaroslav Galko",
          [
            "/wiki/Jaroslav_Galko"
          ]
        ],
        [
          "Jakub Giertl",
          []
        ],
        [
          "Jako , Colo",
          [
            "/wiki/Jako"
          ]
        ],
        [
          "McCarter",
          []
        ]
      ],
      [
        [
          "Trebi\u0161ov",
          [
            "/wiki/FK_Slavoj_Trebi\u0161ov"
          ]
        ],
        [
          "Vladim\u00edr Rusn\u00e1k",
          []
        ],
        [
          "Jaroslav Capko",
          []
        ],
        [
          "Colo",
          []
        ],
        [
          "ZAPA beton",
          []
        ]
      ]
    ],
    "section_title": "Teams ( Eastern Group ) -- Personnel and kits",
    "section_text": "",
    "uid": "2014\u201315_2._Liga_(Slovakia)_3",
    "intro": "2. liga, currently named DOXXbet liga due to sponsorship reasons, is the second-highest division in the Slovak football league system after the Fortuna Liga. The 2014-15 season of the DOXXbet liga was [ok] the 22nd season of the second-tier football league in Slovakia, since its establishment in 1993. For the first time in history, twenty-four teams will compete in two groups, with top six sides from each of groups will advance to a further round."
  }
}