{
  "2013\u201314_Fencing_World_Cup_11": {
    "url": "https://en.wikipedia.org/wiki/2013\u201314_Fencing_World_Cup",
    "title": "2013\u201314 Fencing World Cup",
    "header": [
      [
        "Date",
        []
      ],
      [
        "Event",
        []
      ],
      [
        "Type",
        []
      ],
      [
        "Gold",
        []
      ],
      [
        "Silver",
        []
      ],
      [
        "Bronze",
        []
      ]
    ],
    "data": [
      [
        [
          "31 January 2014",
          []
        ],
        [
          "Troph\u00e9e BNP Paribas , Orl\u00e9ans",
          [
            "/wiki/Orl\u00e9ans"
          ]
        ],
        [
          "Grand Prix",
          []
        ],
        [
          "Olha Kharlan ( UKR )",
          [
            "/wiki/Olha_Kharlan"
          ]
        ],
        [
          "Kim Ji-yeon ( KOR )",
          [
            "/wiki/Kim_Ji-yeon"
          ]
        ],
        [
          "Yekaterina Dyachenko ( RUS ) Mariel Zagunis ( USA )",
          [
            "/wiki/Yekaterina_Dyachenko",
            "/wiki/Mariel_Zagunis"
          ]
        ]
      ],
      [
        [
          "7 February 2014",
          []
        ],
        [
          "Coupe du monde , Dakar",
          [
            "/wiki/Dakar"
          ]
        ],
        [
          "World Cup",
          []
        ],
        [
          "Olha Kharlan ( UKR )",
          [
            "/wiki/Olha_Kharlan"
          ]
        ],
        [
          "Charlotte Lembach ( FRA )",
          [
            "/wiki/Charlotte_Lembach"
          ]
        ],
        [
          "Ilaria Bianco ( ITA ) Anne-Elizabeth Stone ( USA )",
          [
            "/wiki/Ilaria_Bianco",
            "/wiki/Anne-Elizabeth_Stone"
          ]
        ]
      ],
      [
        [
          "21 February 2014",
          []
        ],
        [
          "Challenge Yves Brasseur , Ghent",
          [
            "/wiki/Ghent"
          ]
        ],
        [
          "World Cup",
          []
        ],
        [
          "Olha Kharlan ( UKR )",
          [
            "/wiki/Olha_Kharlan"
          ]
        ],
        [
          "Mariel Zagunis ( USA )",
          [
            "/wiki/Mariel_Zagunis"
          ]
        ],
        [
          "Dagmara Wozniak ( USA ) Dina Galiakbarova ( RUS )",
          [
            "/wiki/Dagmara_Wozniak",
            "/wiki/Dina_Galiakbarova"
          ]
        ]
      ],
      [
        [
          "28 February 2014",
          []
        ],
        [
          "Coupe du monde , Bolzano",
          [
            "/wiki/Bolzano"
          ]
        ],
        [
          "World Cup",
          []
        ],
        [
          "Mariel Zagunis ( USA )",
          [
            "/wiki/Mariel_Zagunis"
          ]
        ],
        [
          "Olha Kharlan ( UKR )",
          [
            "/wiki/Olha_Kharlan"
          ]
        ],
        [
          "Rossella Gregorio ( ITA ) Vassiliki Vougiouka ( GRE )",
          [
            "/wiki/Rossella_Gregorio",
            "/wiki/Vassiliki_Vougiouka"
          ]
        ]
      ],
      [
        [
          "14 March 2014",
          []
        ],
        [
          "Tournoi International , Antalya",
          [
            "/wiki/Antalya"
          ]
        ],
        [
          "World Cup",
          []
        ],
        [
          "C\u00e9cilia Berder ( FRA )",
          [
            "/wiki/C\u00e9cilia_Berder"
          ]
        ],
        [
          "Yuliya Gavrilova ( RUS )",
          [
            "/wiki/Yuliya_Gavrilova"
          ]
        ],
        [
          "Shen Chen ( CHN ) Rossella Gregorio ( ITA )",
          [
            "/wiki/Shen_Chen",
            "/wiki/Rossella_Gregorio"
          ]
        ]
      ],
      [
        [
          "21 March 2014",
          []
        ],
        [
          "Grand Prix , Moscow",
          [
            "/wiki/Moscow"
          ]
        ],
        [
          "Grand Prix",
          []
        ],
        [
          "Yekaterina Dyachenko ( RUS )",
          [
            "/wiki/Yekaterina_Dyachenko"
          ]
        ],
        [
          "Vassiliki Vougiouka ( GRE )",
          [
            "/wiki/Vassiliki_Vougiouka"
          ]
        ],
        [
          "Ibtihaj Muhammad ( USA ) Anne-Elizabeth Stone ( USA )",
          [
            "/wiki/Ibtihaj_Muhammad",
            "/wiki/Anne-Elizabeth_Stone"
          ]
        ]
      ],
      [
        [
          "2 May 2014",
          []
        ],
        [
          "Absolute Fencing Korfanty World Cup , Chicago",
          [
            "/wiki/Chicago"
          ]
        ],
        [
          "World Cup",
          []
        ],
        [
          "Mariel Zagunis ( USA )",
          [
            "/wiki/Mariel_Zagunis"
          ]
        ],
        [
          "Viktoriya Kovaleva ( RUS )",
          []
        ],
        [
          "Charlotte Lembach ( FRA ) Irene Vecchi ( ITA )",
          [
            "/wiki/Charlotte_Lembach",
            "/wiki/Irene_Vecchi"
          ]
        ]
      ],
      [
        [
          "10 May 2014",
          []
        ],
        [
          "Tournoi satellite , Reykjavik",
          [
            "/wiki/Reykjav\u00edk"
          ]
        ],
        [
          "Satellite",
          []
        ],
        [
          "Aleksandra Shatalova ( RUS )",
          []
        ],
        [
          "Mar\u00eda Bel\u00e9n P\u00e9rez Maurice ( ARG )",
          [
            "/wiki/Mar\u00eda_Bel\u00e9n_P\u00e9rez_Maurice"
          ]
        ],
        [
          "Adriana Attar Cohen ( ARG ) Ekaterina Titova ( RUS )",
          []
        ]
      ],
      [
        [
          "24 May 2014",
          []
        ],
        [
          "Coupe du monde , Beijing",
          [
            "/wiki/Beijing"
          ]
        ],
        [
          "Grand Prix",
          []
        ],
        [
          "Olha Kharlan ( UKR )",
          [
            "/wiki/Olha_Kharlan"
          ]
        ],
        [
          "Shen Chen ( CHN )",
          [
            "/wiki/Shen_Chen"
          ]
        ],
        [
          "Kim Ji-yeon ( KOR ) Charlotte Lembach ( FRA )",
          [
            "/wiki/Kim_Ji-yeon",
            "/wiki/Charlotte_Lembach"
          ]
        ]
      ],
      [
        [
          "1 June 2014",
          []
        ],
        [
          "Pan American Championships , San Jos\u00e9",
          [
            "/wiki/2014_Pan_American_Fencing_Championships",
            "/wiki/San_Jos\u00e9,_Costa_Rica"
          ]
        ],
        [
          "Zone",
          []
        ],
        [
          "Mar\u00eda Bel\u00e9n P\u00e9rez Maurice ( ARG )",
          [
            "/wiki/Mar\u00eda_Bel\u00e9n_P\u00e9rez_Maurice"
          ]
        ],
        [
          "Mariel Zagunis ( USA )",
          [
            "/wiki/Mariel_Zagunis"
          ]
        ],
        [
          "Dagmara Wozniak ( USA ) Ibtihaj Muhammad ( USA )",
          [
            "/wiki/Dagmara_Wozniak",
            "/wiki/Ibtihaj_Muhammad"
          ]
        ]
      ],
      [
        [
          "9 June 2014",
          []
        ],
        [
          "European Championships , Strasbourg",
          [
            "/wiki/2014_European_Fencing_Championships",
            "/wiki/Strasbourg"
          ]
        ],
        [
          "Zone",
          []
        ],
        [
          "Olha Kharlan ( UKR )",
          [
            "/wiki/Olha_Kharlan"
          ]
        ],
        [
          "Yekaterina Dyachenko ( RUS )",
          [
            "/wiki/Yekaterina_Dyachenko"
          ]
        ],
        [
          "Rossella Gregorio ( ITA ) Vassiliki Vougiouka ( GRE )",
          [
            "/wiki/Rossella_Gregorio",
            "/wiki/Vassiliki_Vougiouka"
          ]
        ]
      ],
      [
        [
          "14 June 2014",
          []
        ],
        [
          "African Championships , Cairo",
          [
            "/wiki/2014_African_Fencing_Championships",
            "/wiki/Cairo"
          ]
        ],
        [
          "Zone",
          []
        ],
        [
          "Azza Besbes ( TUN )",
          [
            "/wiki/Azza_Besbes"
          ]
        ],
        [
          "Amira Ben Chaabane ( TUN )",
          [
            "/wiki/Amira_Ben_Chaabane"
          ]
        ],
        [
          "Abik Boungab ( EGY ) Nada Hafez ( TUN )",
          [
            "/wiki/Nada_Hafez"
          ]
        ]
      ],
      [
        [
          "2 July 2014",
          []
        ],
        [
          "Asian Championships , Suwon",
          [
            "/wiki/2014_Asian_Fencing_Championships",
            "/wiki/Suwon"
          ]
        ],
        [
          "Zone",
          []
        ],
        [
          "Kim Ji-yeon ( KOR )",
          [
            "/wiki/Kim_Ji-yeon"
          ]
        ],
        [
          "Emura Misaki ( JPN )",
          []
        ],
        [
          "Shen Chen ( CHN ) Lee Ra-jin ( KOR )",
          [
            "/wiki/Shen_Chen",
            "/wiki/Lee_Ra-jin"
          ]
        ]
      ],
      [
        [
          "17 July 2014",
          []
        ],
        [
          "World Championships , Kazan",
          [
            "/wiki/2014_World_Fencing_Championships",
            "/wiki/Kazan"
          ]
        ],
        [
          "World",
          []
        ],
        [
          "Olha Kharlan ( UKR )",
          [
            "/wiki/Olha_Kharlan"
          ]
        ],
        [
          "Mariel Zagunis ( USA )",
          [
            "/wiki/Mariel_Zagunis"
          ]
        ],
        [
          "Yekaterina Dyachenko ( RUS ) Yana Egorian ( RUS )",
          [
            "/wiki/Yekaterina_Dyachenko",
            "/wiki/Yana_Egorian"
          ]
        ]
      ]
    ],
    "section_title": "Individual sabre -- Women 's sabre",
    "section_text": "",
    "uid": "2013\u201314_Fencing_World_Cup_11",
    "intro": "The 43rd FIE Fencing World Cup began on October 2013 and concluded on July 2014 at the 2014 World Fencing Championships held in Kazan. The World Cup medals were awarded during the FIE's gala dinner in Rome at Palazzo Colonna on 22 November 2014."
  },
  "2006\u201307_Ta\u00e7a_de_Portugal_4": {
    "url": "https://en.wikipedia.org/wiki/2006\u201307_Ta\u00e7a_de_Portugal",
    "title": "2006\u201307 Ta\u00e7a de Portugal",
    "header": [
      [
        "Home team",
        []
      ],
      [
        "Score",
        []
      ],
      [
        "Away team",
        []
      ]
    ],
    "data": [
      [
        [
          "Peniche ( IV )",
          []
        ],
        [
          "3 - 2",
          []
        ],
        [
          "Santacombadense ( IV )",
          []
        ]
      ],
      [
        [
          "Sanjoanense ( IV )",
          [
            "/wiki/A.D._Sanjoanense"
          ]
        ],
        [
          "1 - 0",
          []
        ],
        [
          "S\u00e3o Jo\u00e3o de Ver ( IV )",
          []
        ]
      ],
      [
        [
          "S\u00e1t\u00e3o ( IV )",
          []
        ],
        [
          "1 - 0",
          []
        ],
        [
          "Lousanense ( V )",
          []
        ]
      ],
      [
        [
          "Sertanense ( IV )",
          [
            "/wiki/Sertanense_F.C."
          ]
        ],
        [
          "1 - 0",
          []
        ],
        [
          "Anadia ( IV )",
          [
            "/wiki/Anadia_F.C."
          ]
        ]
      ],
      [
        [
          "Social Lamas ( IV )",
          []
        ],
        [
          "2 - 1",
          []
        ],
        [
          "Bombarralense ( IV )",
          []
        ]
      ],
      [
        [
          "Tocha ( IV )",
          []
        ],
        [
          "5 - 5 ( aet , p. 3 - 2 )",
          []
        ],
        [
          "Milheiroense ( IV )",
          [
            "/wiki/G.D._Milheiroense"
          ]
        ]
      ],
      [
        [
          "Tondela ( IV )",
          [
            "/wiki/C.D._Tondela"
          ]
        ],
        [
          "0 - 2",
          []
        ],
        [
          "Sourense ( IV )",
          []
        ]
      ],
      [
        [
          "Uni\u00e3o de Coimbra ( IV )",
          [
            "/wiki/C.F._Uni\u00e3o_de_Coimbra"
          ]
        ],
        [
          "WO",
          []
        ],
        [
          "Seia ( V )",
          []
        ]
      ],
      [
        [
          "Valecambrense ( IV )",
          []
        ],
        [
          "2 - 1",
          []
        ],
        [
          "Idanhense ( IV )",
          []
        ]
      ]
    ],
    "section_title": "",
    "section_text": "",
    "uid": "2006\u201307_Ta\u00e7a_de_Portugal_4",
    "intro": "The 2006-07 Ta\u00e7a de Portugal was the 67th edition of the Portuguese football knockout tournament, organized by the Portuguese Football Federation (FPF). The 2006-07 Ta\u00e7a de Portugal began on 3 September 2006. The final was played on 27 May 2007 at the Est\u00e1dio Nacional. Porto were the previous holders, having defeated Vit\u00f3ria de Set\u00fabal 1-0 in the previous season's final. Porto was not able to regain their title as they were defeated by Atl\u00e9tico CP in the fourth round. Sporting CP defeated Belenenses 1-0 in the final to win their 14th Ta\u00e7a de Portugal. By winning the Ta\u00e7a de Portugal, Sporting CP qualified for the 2007 Superta\u00e7a C\u00e2ndido de Oliveira."
  },
  "2014\u201315_UEFA_Europa_League_28": {
    "url": "https://en.wikipedia.org/wiki/2014\u201315_UEFA_Europa_League",
    "title": "2014\u201315 UEFA Europa League",
    "header": [
      [
        "Pos",
        []
      ],
      [
        "Player",
        []
      ],
      [
        "Team",
        []
      ]
    ],
    "data": [
      [
        [
          "GK",
          []
        ],
        [
          "Denys Boyko",
          [
            "/wiki/Denys_Boyko"
          ]
        ],
        [
          "Dnipro Dnipropetrovsk",
          [
            "/wiki/FC_Dnipro_Dnipropetrovsk"
          ]
        ]
      ],
      [
        [
          "GK",
          []
        ],
        [
          "Sergio Rico",
          [
            "/wiki/Sergio_Rico"
          ]
        ],
        [
          "Sevilla",
          [
            "/wiki/Sevilla_FC"
          ]
        ]
      ],
      [
        [
          "DF",
          []
        ],
        [
          "Douglas",
          [
            "/wiki/Douglas_Silva_Bacelar"
          ]
        ],
        [
          "Dnipro Dnipropetrovsk",
          [
            "/wiki/FC_Dnipro_Dnipropetrovsk"
          ]
        ]
      ],
      [
        [
          "DF",
          []
        ],
        [
          "Faouzi Ghoulam",
          [
            "/wiki/Faouzi_Ghoulam"
          ]
        ],
        [
          "Napoli",
          [
            "/wiki/S.S.C._Napoli"
          ]
        ]
      ],
      [
        [
          "DF",
          []
        ],
        [
          "Timoth\u00e9e Kolodziejczak",
          [
            "/wiki/Timoth\u00e9e_Kolodziejczak"
          ]
        ],
        [
          "Sevilla",
          [
            "/wiki/Sevilla_FC"
          ]
        ]
      ],
      [
        [
          "DF",
          []
        ],
        [
          "Ra\u00fal Albiol",
          [
            "/wiki/Ra\u00fal_Albiol"
          ]
        ],
        [
          "Napoli",
          [
            "/wiki/S.S.C._Napoli"
          ]
        ]
      ],
      [
        [
          "DF",
          []
        ],
        [
          "Aleix Vidal",
          [
            "/wiki/Aleix_Vidal"
          ]
        ],
        [
          "Sevilla",
          [
            "/wiki/Sevilla_FC"
          ]
        ]
      ],
      [
        [
          "MF",
          []
        ],
        [
          "Borja Valero",
          [
            "/wiki/Borja_Valero"
          ]
        ],
        [
          "Fiorentina",
          [
            "/wiki/ACF_Fiorentina"
          ]
        ]
      ],
      [
        [
          "MF",
          []
        ],
        [
          "Kevin De Bruyne",
          [
            "/wiki/Kevin_De_Bruyne"
          ]
        ],
        [
          "Wolfsburg",
          [
            "/wiki/VfL_Wolfsburg"
          ]
        ]
      ],
      [
        [
          "MF",
          []
        ],
        [
          "\u00c9ver Banega",
          [
            "/wiki/\u00c9ver_Banega"
          ]
        ],
        [
          "Sevilla",
          [
            "/wiki/Sevilla_FC"
          ]
        ]
      ],
      [
        [
          "MF",
          []
        ],
        [
          "Marek Ham\u0161\u00edk",
          [
            "/wiki/Marek_Ham\u0161\u00edk"
          ]
        ],
        [
          "Napoli",
          [
            "/wiki/S.S.C._Napoli"
          ]
        ]
      ],
      [
        [
          "MF",
          []
        ],
        [
          "Grzegorz Krychowiak",
          [
            "/wiki/Grzegorz_Krychowiak"
          ]
        ],
        [
          "Sevilla",
          [
            "/wiki/Sevilla_FC"
          ]
        ]
      ],
      [
        [
          "MF",
          []
        ],
        [
          "Ruslan Rotan",
          [
            "/wiki/Ruslan_Rotan"
          ]
        ],
        [
          "Dnipro Dnipropetrovsk",
          [
            "/wiki/FC_Dnipro_Dnipropetrovsk"
          ]
        ]
      ],
      [
        [
          "MF",
          []
        ],
        [
          "St\u00e9phane Mbia",
          [
            "/wiki/St\u00e9phane_Mbia"
          ]
        ],
        [
          "Sevilla",
          [
            "/wiki/Sevilla_FC"
          ]
        ]
      ],
      [
        [
          "FW",
          []
        ],
        [
          "Alan",
          [
            "/wiki/Alan_Carvalho"
          ]
        ],
        [
          "Red Bull Salzburg",
          [
            "/wiki/FC_Red_Bull_Salzburg"
          ]
        ]
      ],
      [
        [
          "FW",
          []
        ],
        [
          "Carlos Bacca",
          [
            "/wiki/Carlos_Bacca"
          ]
        ],
        [
          "Sevilla",
          [
            "/wiki/Sevilla_FC"
          ]
        ]
      ],
      [
        [
          "FW",
          []
        ],
        [
          "Gonzalo Higua\u00edn",
          [
            "/wiki/Gonzalo_Higua\u00edn"
          ]
        ],
        [
          "Napoli",
          [
            "/wiki/S.S.C._Napoli"
          ]
        ]
      ],
      [
        [
          "FW",
          []
        ],
        [
          "Yevhen Konoplyanka",
          [
            "/wiki/Yevhen_Konoplyanka"
          ]
        ],
        [
          "Dnipro Dnipropetrovsk",
          [
            "/wiki/FC_Dnipro_Dnipropetrovsk"
          ]
        ]
      ]
    ],
    "section_title": "Statistics -- Squad of the Season",
    "section_text": "The UEFA technical study group selected the following 18 players as the squad of the tournament : [ 56 ]",
    "uid": "2014\u201315_UEFA_Europa_League_28",
    "intro": "The 2014-15 UEFA Europa League was the 44th season of Europe's secondary club football tournament organised by UEFA, and the sixth season since it was renamed from the UEFA Cup to the UEFA Europa League. The 2015 UEFA Europa League Final was played at the Stadion Narodowy in Warsaw, with Spanish side and title holders Sevilla defeating Ukrainian side Dnipro Dnipropetrovsk 3-2 to win a record fourth title. This season was the first where clubs must comply with UEFA Financial Fair Play Regulations in order to participate. Moreover, this season was the first where a club from Gibraltar competed in the tournament, after the Gibraltar Football Association was accepted as the 54th UEFA member at the UEFA Congress in May 2013. They were granted one spot in the Europa League, which was taken by College Europa, the runners-up of the 2014 Rock Cup. Starting from this edition, the UEFA Europa League winners automatically qualify for the subsequent UEFA Champions League season even if they do not qualify for the Champions League through their domestic performance. Therefore, the winners of this tournament qualify for the 2015-16 UEFA Champions League. They are guaranteed to enter at least the play-off round, and since the group stage berth reserved for the Champions League title holders will not be used (the winners of the 2014-15 UEFA Champions League are guaranteed to qualify for the group stage through domestic performance), they will be elevated to enter the group stage via this berth. On 17 July 2014, the UEFA emergency panel ruled that Ukrainian and Russian clubs would not be drawn against each other until further notice due to the political unrest between the countries. Another ruling centred in regional instability was also made where Israeli teams were prohibited from hosting any UEFA competitions due to the 2014 Israel-Gaza conflict (whilst the ruling ended a short time after the war, all the country's sides were eliminated before it ended). The rules regarding suspension due to yellow card accumulation were also changed such that all bookings expired on completion of the quarter-finals and were not carried forward to the semi-finals. Moreover, this was the first season in which vanishing spray was used."
  },
  "2016\u201317_UEFA_Europa_League_24": {
    "url": "https://en.wikipedia.org/wiki/2016\u201317_UEFA_Europa_League",
    "title": "2016\u201317 UEFA Europa League",
    "header": [
      [
        "Team 1",
        []
      ],
      [
        "Agg",
        [
          "/wiki/Playoff_format"
        ]
      ],
      [
        "Team 2",
        []
      ],
      [
        "1st leg",
        []
      ],
      [
        "2nd leg",
        []
      ]
    ],
    "data": [
      [
        [
          "Celta Vigo",
          [
            "/wiki/RC_Celta_de_Vigo"
          ]
        ],
        [
          "4-1",
          []
        ],
        [
          "Krasnodar",
          [
            "/wiki/FC_Krasnodar"
          ]
        ],
        [
          "2-1",
          [
            "/wiki/2016\u201317_UEFA_Europa_League_knockout_phase"
          ]
        ],
        [
          "2-0",
          [
            "/wiki/2016\u201317_UEFA_Europa_League_knockout_phase"
          ]
        ]
      ],
      [
        [
          "APOEL",
          [
            "/wiki/APOEL_FC"
          ]
        ],
        [
          "0-2",
          []
        ],
        [
          "Anderlecht",
          [
            "/wiki/R.S.C._Anderlecht"
          ]
        ],
        [
          "0-1",
          [
            "/wiki/2016\u201317_UEFA_Europa_League_knockout_phase"
          ]
        ],
        [
          "0-1",
          [
            "/wiki/2016\u201317_UEFA_Europa_League_knockout_phase"
          ]
        ]
      ],
      [
        [
          "Schalke 04",
          [
            "/wiki/FC_Schalke_04"
          ]
        ],
        [
          "3-3 ( a )",
          [
            "/wiki/Away_goals_rule"
          ]
        ],
        [
          "Borussia M\u00f6nchengladbach",
          [
            "/wiki/Borussia_M\u00f6nchengladbach"
          ]
        ],
        [
          "1-1",
          [
            "/wiki/2016\u201317_UEFA_Europa_League_knockout_phase"
          ]
        ],
        [
          "2-2",
          [
            "/wiki/2016\u201317_UEFA_Europa_League_knockout_phase"
          ]
        ]
      ],
      [
        [
          "Lyon",
          [
            "/wiki/Olympique_Lyonnais"
          ]
        ],
        [
          "5-4",
          []
        ],
        [
          "Roma",
          [
            "/wiki/A.S._Roma"
          ]
        ],
        [
          "4-2",
          [
            "/wiki/2016\u201317_UEFA_Europa_League_knockout_phase"
          ]
        ],
        [
          "1-2",
          [
            "/wiki/2016\u201317_UEFA_Europa_League_knockout_phase"
          ]
        ]
      ],
      [
        [
          "Rostov",
          [
            "/wiki/FC_Rostov"
          ]
        ],
        [
          "1-2",
          []
        ],
        [
          "Manchester United",
          [
            "/wiki/Manchester_United_F.C."
          ]
        ],
        [
          "1-1",
          [
            "/wiki/2016\u201317_UEFA_Europa_League_knockout_phase"
          ]
        ],
        [
          "0-1",
          [
            "/wiki/2016\u201317_UEFA_Europa_League_knockout_phase"
          ]
        ]
      ],
      [
        [
          "Olympiacos",
          [
            "/wiki/Olympiacos_F.C."
          ]
        ],
        [
          "2-5",
          []
        ],
        [
          "Be\u015fikta\u015f",
          [
            "/wiki/Be\u015fikta\u015f_J.K."
          ]
        ],
        [
          "1-1",
          [
            "/wiki/2016\u201317_UEFA_Europa_League_knockout_phase"
          ]
        ],
        [
          "1-4",
          [
            "/wiki/2016\u201317_UEFA_Europa_League_knockout_phase"
          ]
        ]
      ],
      [
        [
          "Gent",
          [
            "/wiki/K.A.A._Gent"
          ]
        ],
        [
          "3-6",
          []
        ],
        [
          "Genk",
          [
            "/wiki/K.R.C._Genk"
          ]
        ],
        [
          "2-5",
          [
            "/wiki/2016\u201317_UEFA_Europa_League_knockout_phase"
          ]
        ],
        [
          "1-1",
          [
            "/wiki/2016\u201317_UEFA_Europa_League_knockout_phase"
          ]
        ]
      ],
      [
        [
          "Copenhagen",
          [
            "/wiki/F.C._Copenhagen"
          ]
        ],
        [
          "2-3",
          []
        ],
        [
          "Ajax",
          [
            "/wiki/AFC_Ajax"
          ]
        ],
        [
          "2-1",
          [
            "/wiki/2016\u201317_UEFA_Europa_League_knockout_phase"
          ]
        ],
        [
          "0-2",
          [
            "/wiki/2016\u201317_UEFA_Europa_League_knockout_phase"
          ]
        ]
      ]
    ],
    "section_title": "Knockout phase -- Round of 16",
    "section_text": "The draw for the round of 16 was held on 24 February 2017 . [ 56 ] The first legs were played on 9 March , and the second legs were played on 16 March 2017 .",
    "uid": "2016\u201317_UEFA_Europa_League_24",
    "intro": "The 2016-17 UEFA Europa League was the 46th season of Europe's secondary club football tournament organised by UEFA, and the eighth season since it was renamed from the UEFA Cup to the UEFA Europa League. The final was played between Ajax and Manchester United at the Friends Arena in Solna, Sweden. Manchester United beat Ajax 2-0 to win their first title. With this victory, they became the fifth club - after Juventus, Ajax, Bayern Munich and Chelsea - to have won all three major European trophies (European Champion Clubs' Cup/UEFA Champions League, UEFA Cup/UEFA Europa League, and the now-defunct Cup Winners' Cup). Manchester United qualified for the 2017-18 UEFA Champions League, and also earned the right to play against the winners of the 2016-17 UEFA Champions League, Real Madrid, in the 2017 UEFA Super Cup. As the title holders, Sevilla qualified for the 2016-17 UEFA Champions League. Winning the last three tournaments, Sevilla were unable to defend their titles after reaching the competition's knockout stage."
  },
  "2008\u201309_Ta\u00e7a_de_Portugal_0": {
    "url": "https://en.wikipedia.org/wiki/2008\u201309_Ta\u00e7a_de_Portugal",
    "title": "2008\u201309 Ta\u00e7a de Portugal",
    "header": [
      [
        "Home team",
        []
      ],
      [
        "Score",
        []
      ],
      [
        "Away team",
        []
      ]
    ],
    "data": [
      [
        [
          "Lixa ( IV )",
          []
        ],
        [
          "2-1 ( aet )",
          [
            "/wiki/Overtime_(sports)"
          ]
        ],
        [
          "A.D. Oliveirense ( IV )",
          []
        ]
      ],
      [
        [
          "A.C. Cac\u00e9m ( IV )",
          []
        ],
        [
          "1-0",
          []
        ],
        [
          "Tourizense ( III )",
          [
            "/wiki/G.D._Tourizense"
          ]
        ]
      ],
      [
        [
          "Barreirense ( IV )",
          [
            "/wiki/F.C._Barreirense"
          ]
        ],
        [
          "1-3",
          []
        ],
        [
          "Oper\u00e1rio ( III )",
          []
        ]
      ],
      [
        [
          "Benfica Castelo Branco ( IV )",
          []
        ],
        [
          "0-2",
          []
        ],
        [
          "Elvas ( IV )",
          []
        ]
      ],
      [
        [
          "Esmoriz ( III )",
          [
            "/wiki/S.C._Esmoriz"
          ]
        ],
        [
          "3-2",
          []
        ],
        [
          "Anadia ( IV )",
          []
        ]
      ],
      [
        [
          "GDPCC ( III )",
          [
            "/wiki/G.D.P._Costa_de_Caparica"
          ]
        ],
        [
          "0-1",
          []
        ],
        [
          "M\u00e3e d'\u00c1gua ( IV )",
          []
        ]
      ],
      [
        [
          "Real S.C. ( III )",
          []
        ],
        [
          "2-0",
          []
        ],
        [
          "Macedo de Cavaleiros ( IV )",
          []
        ]
      ],
      [
        [
          "Fabril ( IV )",
          [
            "/wiki/G.D._Fabril"
          ]
        ],
        [
          "1-1 ( aet , p. 3-1 )",
          [
            "/wiki/Overtime_(sports)",
            "/wiki/Penalty_shoot-out_(association_football)"
          ]
        ],
        [
          "Pampilhosa ( III )",
          [
            "/wiki/F.C._Pampilhosa"
          ]
        ]
      ],
      [
        [
          "Pontassolense ( III )",
          []
        ],
        [
          "3-3 ( aet , p. 2-4 )",
          [
            "/wiki/Overtime_(sports)",
            "/wiki/Penalty_shoot-out_(association_football)"
          ]
        ],
        [
          "Oliveira do Bairro ( III )",
          [
            "/wiki/Oliveira_do_Bairro_S.C."
          ]
        ]
      ],
      [
        [
          "Vilanovense ( IV )",
          []
        ],
        [
          "1-2",
          []
        ],
        [
          "Serzedelo ( IV )",
          []
        ]
      ],
      [
        [
          "Peniche ( IV )",
          []
        ],
        [
          "2-2 ( aet , p. 3-1 )",
          [
            "/wiki/Overtime_(sports)",
            "/wiki/Penalty_shoot-out_(association_football)"
          ]
        ],
        [
          "Fafe ( IV )",
          []
        ]
      ],
      [
        [
          "Rio Maior ( IV )",
          []
        ],
        [
          "0-1",
          []
        ],
        [
          "Paredes ( IV )",
          []
        ]
      ],
      [
        [
          "Oriental ( III )",
          []
        ],
        [
          "1-0",
          []
        ],
        [
          "Silves ( IV )",
          []
        ]
      ],
      [
        [
          "Camacha ( IV )",
          []
        ],
        [
          "1-0",
          []
        ],
        [
          "Moreirense ( III )",
          [
            "/wiki/Moreirense_F.C."
          ]
        ]
      ],
      [
        [
          "Messinense ( IV )",
          []
        ],
        [
          "2-1",
          []
        ],
        [
          "Praiense ( III )",
          [
            "/wiki/S.C._Praiense"
          ]
        ]
      ],
      [
        [
          "Cani\u00e7al ( III )",
          []
        ],
        [
          "3-0",
          []
        ],
        [
          "Beira-Mar de Monte Gordo ( III )",
          []
        ]
      ],
      [
        [
          "Bragan\u00e7a ( IV )",
          [
            "/wiki/GD_Bragan\u00e7a"
          ]
        ],
        [
          "2-0",
          []
        ],
        [
          "1\u00b0 de Dezembro ( IV )",
          []
        ]
      ],
      [
        [
          "Castrense ( IV )",
          []
        ],
        [
          "2-3",
          []
        ],
        [
          "Carregado ( III )",
          []
        ]
      ],
      [
        [
          "Le\u00e7a ( IV )",
          [
            "/wiki/Le\u00e7a_F.C."
          ]
        ],
        [
          "1-3",
          []
        ],
        [
          "Chaves ( III )",
          [
            "/wiki/G.D._Chaves"
          ]
        ]
      ],
      [
        [
          "Infesta ( III )",
          []
        ],
        [
          "3-3 ( aet , p. 3-2 )",
          [
            "/wiki/Overtime_(sports)",
            "/wiki/Penalty_shoot-out_(association_football)"
          ]
        ],
        [
          "Machico ( IV )",
          [
            "/wiki/A.D._Machico"
          ]
        ]
      ]
    ],
    "section_title": "",
    "section_text": "",
    "uid": "2008\u201309_Ta\u00e7a_de_Portugal_0",
    "intro": "2008-09 Ta\u00e7a de Portugal was the 86th season of Portuguese football knockout tournament. The competition started on August 30, 2008 with the First Round and ended with the Final held in on May 31, 2009. The defending champions were Sporting CP."
  },
  "2005\u201306_Ta\u00e7a_de_Portugal_6": {
    "url": "https://en.wikipedia.org/wiki/2005\u201306_Ta\u00e7a_de_Portugal",
    "title": "2005\u201306 Ta\u00e7a de Portugal",
    "header": [
      [
        "Home team",
        []
      ],
      [
        "Score",
        []
      ],
      [
        "Away team",
        []
      ]
    ],
    "data": [
      [
        [
          "Lusitano de \u00c9vora ( IV )",
          [
            "/wiki/Lusitano_G.C."
          ]
        ],
        [
          "5 - 1",
          []
        ],
        [
          "CF Vasco da Gama ( IV )",
          []
        ]
      ],
      [
        [
          "Messinense ( IV )",
          []
        ],
        [
          "5 - 0",
          []
        ],
        [
          "Santa Eul\u00e1lia ( V )",
          []
        ]
      ],
      [
        [
          "Montijo ( IV )",
          [
            "/wiki/C.D._Montijo"
          ]
        ],
        [
          "2 - 2 ( aet , p. 5 - 6 )",
          []
        ],
        [
          "Benfica ( IV )",
          [
            "/wiki/C.F._Benfica"
          ]
        ]
      ],
      [
        [
          "O Elvas ( IV )",
          [
            "/wiki/O_Elvas_C.A.D."
          ]
        ],
        [
          "1 - 1 ( aet , p. 3 - 4 )",
          []
        ],
        [
          "Juventude \u00c9vora ( IV )",
          []
        ]
      ],
      [
        [
          "Oeiras ( IV )",
          []
        ],
        [
          "1 - 1 ( aet , p. 4 - 3 )",
          []
        ],
        [
          "1\u00ba de Dezembro ( IV )",
          [
            "/wiki/S.U._1\u00ba_de_Dezembro"
          ]
        ]
      ],
      [
        [
          "Ponterrolense ( V )",
          []
        ],
        [
          "7 - 2",
          []
        ],
        [
          "Ferreiras ( IV )",
          []
        ]
      ],
      [
        [
          "Santacruzense ( V )",
          []
        ],
        [
          "0 - 0 ( aet , p. 3 - 2 )",
          []
        ],
        [
          "Ouriquense ( IV )",
          []
        ]
      ],
      [
        [
          "Santana ( IV )",
          [
            "/wiki/U.D._Santana"
          ]
        ],
        [
          "1 - 0",
          []
        ],
        [
          "Desportivo de Beja ( IV )",
          [
            "/wiki/C.D._Beja"
          ]
        ]
      ],
      [
        [
          "Sarilhense ( V )",
          []
        ],
        [
          "3 - 2 ( aet )",
          []
        ],
        [
          "Sintrense ( IV )",
          []
        ]
      ],
      [
        [
          "Uni\u00e3o Montemor ( V )",
          []
        ],
        [
          "0 - 1",
          []
        ],
        [
          "Lagoa ( IV )",
          [
            "/wiki/G.D._Lagoa"
          ]
        ]
      ],
      [
        [
          "Vasco da Gama AC ( V )",
          []
        ],
        [
          "2 - 1",
          []
        ],
        [
          "Atl\u00e9tico do Cac\u00e9m ( IV )",
          []
        ]
      ]
    ],
    "section_title": "",
    "section_text": "",
    "uid": "2005\u201306_Ta\u00e7a_de_Portugal_6",
    "intro": "The 2005-06 Ta\u00e7a de Portugal was the 66th edition of the Portuguese football knockout tournament, organized by the Portuguese Football Federation (FPF). The 2005-06 Ta\u00e7a de Portugal began on 4 September 2005. The final was played on 14 May 2006 at the Est\u00e1dio Nacional. Vit\u00f3ria de Set\u00fabal were the previous holders, having defeated Benfica 2-1, in the previous season's final. However, Vit\u00f3ria de Set\u00fabal was not able to regain their title as they were defeated in the final by Porto. Porto defeated Vit\u00f3ria de Set\u00fabal, 1-0 to win their fourth title in seven seasons and claim their 13th Ta\u00e7a de Portugal in their history. Since Porto had already qualified for the 2006-07 UEFA Champions League as domestic title holders, Vit\u00f3ria by reaching the final of the Ta\u00e7a de Portugal, had guaranteed a place in the 2006-07 UEFA Cup. As Porto won both the league and cup in the same season, Vit\u00f3ria would qualify for the 2006 Superta\u00e7a C\u00e2ndido de Oliveira as the cup runner-up."
  },
  "2011\u201312_MiWay_T20_Challenge_0": {
    "url": "https://en.wikipedia.org/wiki/2011\u201312_MiWay_T20_Challenge",
    "title": "2011\u201312 MiWay T20 Challenge",
    "header": [
      [
        "Stadium",
        []
      ],
      [
        "City",
        []
      ],
      [
        "Capacity",
        []
      ],
      [
        "Home team",
        []
      ]
    ],
    "data": [
      [
        [
          "Newlands",
          [
            "/wiki/Newlands_Cricket_Ground"
          ]
        ],
        [
          "Cape Town",
          [
            "/wiki/Cape_Town"
          ]
        ],
        [
          "25,000",
          []
        ],
        [
          "Cape Cobras",
          [
            "/wiki/Cape_Cobras"
          ]
        ]
      ],
      [
        [
          "Boland Bank Park",
          [
            "/wiki/Boland_Bank_Park"
          ]
        ],
        [
          "Paarl",
          [
            "/wiki/Paarl"
          ]
        ],
        [
          "10,000",
          []
        ],
        [
          "Cape Cobras",
          [
            "/wiki/Cape_Cobras"
          ]
        ]
      ],
      [
        [
          "Kingsmead",
          [
            "/wiki/Kingsmead_Cricket_Ground"
          ]
        ],
        [
          "Durban",
          [
            "/wiki/Durban"
          ]
        ],
        [
          "25,000",
          []
        ],
        [
          "Dolphins",
          [
            "/wiki/Dolphins_(cricket_team)"
          ]
        ]
      ],
      [
        [
          "City Oval",
          [
            "/wiki/City_Oval"
          ]
        ],
        [
          "Pietermaritzburg",
          [
            "/wiki/Pietermaritzburg"
          ]
        ],
        [
          "12,000",
          []
        ],
        [
          "Dolphins",
          [
            "/wiki/Dolphins_(cricket_team)"
          ]
        ]
      ],
      [
        [
          "Willowmoore Park",
          [
            "/wiki/Willowmoore_Park"
          ]
        ],
        [
          "Benoni",
          [
            "/wiki/Benoni,_Gauteng"
          ]
        ],
        [
          "20,000",
          []
        ],
        [
          "Impi",
          [
            "/wiki/Impalas_(cricket_team)"
          ]
        ]
      ],
      [
        [
          "Chevrolet Park",
          [
            "/wiki/Mangaung_Oval"
          ]
        ],
        [
          "Bloemfontein",
          [
            "/wiki/Bloemfontein"
          ]
        ],
        [
          "20,000",
          []
        ],
        [
          "Knights",
          [
            "/wiki/Knights_(cricket_team)"
          ]
        ]
      ],
      [
        [
          "De Beers Diamond Oval",
          [
            "/wiki/De_Beers_Diamond_Oval"
          ]
        ],
        [
          "Kimberley",
          [
            "/wiki/Kimberley,_Northern_Cape"
          ]
        ],
        [
          "11,000",
          []
        ],
        [
          "Knights",
          [
            "/wiki/Knights_(cricket_team)"
          ]
        ]
      ],
      [
        [
          "New Wanderers Stadium",
          [
            "/wiki/Wanderers_Stadium"
          ]
        ],
        [
          "Johannesburg",
          [
            "/wiki/Johannesburg"
          ]
        ],
        [
          "34,000",
          []
        ],
        [
          "Lions",
          [
            "/wiki/Imperial_Lions"
          ]
        ]
      ],
      [
        [
          "Senwes Park",
          [
            "/wiki/Senwes_Park"
          ]
        ],
        [
          "Potchefstroom",
          [
            "/wiki/Potchefstroom"
          ]
        ],
        [
          "9,000",
          []
        ],
        [
          "Lions",
          [
            "/wiki/Imperial_Lions"
          ]
        ]
      ],
      [
        [
          "SuperSport Park",
          [
            "/wiki/Centurion_Park"
          ]
        ],
        [
          "Centurion",
          [
            "/wiki/Centurion,_Gauteng"
          ]
        ],
        [
          "20,000",
          []
        ],
        [
          "Titans",
          [
            "/wiki/Titans_(cricket_team)"
          ]
        ]
      ],
      [
        [
          "St George 's Park",
          [
            "/wiki/St_George's_Park_Cricket_Ground"
          ]
        ],
        [
          "Port Elizabeth",
          [
            "/wiki/Port_Elizabeth"
          ]
        ],
        [
          "19,000",
          []
        ],
        [
          "Warriors",
          [
            "/wiki/Warriors_(cricket_team)"
          ]
        ]
      ],
      [
        [
          "Buffalo Park",
          [
            "/wiki/Buffalo_Park"
          ]
        ],
        [
          "East London",
          [
            "/wiki/East_London,_Eastern_Cape"
          ]
        ],
        [
          "15,000",
          []
        ],
        [
          "Warriors",
          [
            "/wiki/Warriors_(cricket_team)"
          ]
        ]
      ]
    ],
    "section_title": "Venues",
    "section_text": "Cape TownPaarlDurbanPietermaritzburgBenoniBloemfonteinKimberleyJohannesburgPotchefstroomCenturionPort ElizabethEast London Map of the venues for the 2011\u201312 MiWay T20 Challenge",
    "uid": "2011\u201312_MiWay_T20_Challenge_0",
    "intro": "The 2011-12 MiWay T20 Challenge was the ninth season of the MiWay T20 Challenge, established by the Cricket South Africa. The tournament was previously known as the Standard Bank Pro20 Series. The tournament was played between 15 February and 1 April 2012. The tournament had an expanded tournament format. It featured the addition of a seventh team, a change in the group stage from a single to a double round-robin tournament, and a 2-match knockout stage."
  },
  "2017\u201318_Ta\u00e7a_de_Portugal_0": {
    "url": "https://en.wikipedia.org/wiki/2017\u201318_Ta\u00e7a_de_Portugal",
    "title": "2017\u201318 Ta\u00e7a de Portugal",
    "header": [
      [
        "Round",
        []
      ],
      [
        "Teams remaining",
        []
      ],
      [
        "Teams involved",
        []
      ],
      [
        "Teams from the previous round",
        []
      ],
      [
        "New teams in this round",
        []
      ],
      [
        "Leagues entering in this round ( tier level )",
        []
      ]
    ],
    "data": [
      [
        [
          "First round",
          [
            "/wiki/2017\u201318_Ta\u00e7a_de_Portugal"
          ]
        ],
        [
          "153",
          []
        ],
        [
          "120",
          []
        ],
        [
          "none",
          []
        ],
        [
          "120",
          []
        ],
        [
          "Campeonato de Portugal ( 3rd ) District Football Associations ( 4th )",
          [
            "/wiki/Campeonato_de_Portugal_(league)",
            "/wiki/Portuguese_District_Football_Associations"
          ]
        ]
      ],
      [
        [
          "Second round",
          [
            "/wiki/2017\u201318_Ta\u00e7a_de_Portugal"
          ]
        ],
        [
          "110",
          []
        ],
        [
          "92",
          []
        ],
        [
          "60+17",
          []
        ],
        [
          "15",
          []
        ],
        [
          "LigaPro ( 2nd )",
          [
            "/wiki/LigaPro"
          ]
        ]
      ],
      [
        [
          "Third round",
          [
            "/wiki/2017\u201318_Ta\u00e7a_de_Portugal"
          ]
        ],
        [
          "64",
          []
        ],
        [
          "64",
          []
        ],
        [
          "46",
          []
        ],
        [
          "18",
          []
        ],
        [
          "Primeira Liga ( 1st )",
          [
            "/wiki/Primeira_Liga"
          ]
        ]
      ],
      [
        [
          "Fourth round",
          [
            "/wiki/2017\u201318_Ta\u00e7a_de_Portugal"
          ]
        ],
        [
          "32",
          []
        ],
        [
          "32",
          []
        ],
        [
          "32",
          []
        ],
        [
          "none",
          []
        ],
        [
          "none",
          []
        ]
      ],
      [
        [
          "Fifth round",
          [
            "/wiki/2017\u201318_Ta\u00e7a_de_Portugal"
          ]
        ],
        [
          "16",
          []
        ],
        [
          "16",
          []
        ],
        [
          "16",
          []
        ],
        [
          "none",
          []
        ],
        [
          "none",
          []
        ]
      ],
      [
        [
          "Quarter-finals",
          [
            "/wiki/2017\u201318_Ta\u00e7a_de_Portugal"
          ]
        ],
        [
          "8",
          []
        ],
        [
          "8",
          []
        ],
        [
          "8",
          []
        ],
        [
          "none",
          []
        ],
        [
          "none",
          []
        ]
      ],
      [
        [
          "Semi-finals",
          [
            "/wiki/2017\u201318_Ta\u00e7a_de_Portugal"
          ]
        ],
        [
          "4",
          []
        ],
        [
          "4",
          []
        ],
        [
          "4",
          []
        ],
        [
          "none",
          []
        ],
        [
          "none",
          []
        ]
      ],
      [
        [
          "Final",
          [
            "/wiki/2018_Ta\u00e7a_de_Portugal_Final"
          ]
        ],
        [
          "2",
          []
        ],
        [
          "2",
          []
        ],
        [
          "2",
          []
        ],
        [
          "none",
          []
        ],
        [
          "none",
          []
        ]
      ]
    ],
    "section_title": "Format",
    "section_text": "",
    "uid": "2017\u201318_Ta\u00e7a_de_Portugal_0",
    "intro": "The 2017-18 Ta\u00e7a de Portugal (also known as Ta\u00e7a de Portugal Placard for sponsorship reasons) was the 78th season of the Ta\u00e7a de Portugal, the premier knockout competition in Portuguese football. The competition was contested by 153 clubs, including teams from the top-three tiers of the Portuguese football league system and representatives of the fourth-tier District leagues and cups. It began with the first-round matches in September 2017 and was concluded in May 2018, with the final at the Est\u00e1dio Nacional. Desportivo das Aves defeated Sporting CP 2-1 and won their first Portuguese Cup, succeeding Benfica as trophy holders, but did not qualify for the 2018-19 UEFA Europa League group stage since they failed to obtain a license for European competitions."
  },
  "2012\u201313_Fencing_World_Cup_22": {
    "url": "https://en.wikipedia.org/wiki/2012\u201313_Fencing_World_Cup",
    "title": "2012\u201313 Fencing World Cup",
    "header": [
      [
        "Date",
        []
      ],
      [
        "Event",
        []
      ],
      [
        "Gold",
        []
      ],
      [
        "Silver",
        []
      ],
      [
        "Bronze",
        []
      ]
    ],
    "data": [
      [
        [
          "10 February 2013",
          []
        ],
        [
          "Coupe du Monde par \u00e9quipes , Madrid",
          [
            "/wiki/Madrid"
          ]
        ],
        [
          "Hungary",
          [
            "/wiki/Hungary"
          ]
        ],
        [
          "China",
          [
            "/wiki/China"
          ]
        ],
        [
          "Romania",
          [
            "/wiki/Romania"
          ]
        ]
      ],
      [
        [
          "17 February 2013",
          []
        ],
        [
          "Coupe du monde par \u00e9quipes , Padova",
          [
            "/wiki/Padua"
          ]
        ],
        [
          "Italy",
          [
            "/wiki/Italy"
          ]
        ],
        [
          "Hungary",
          [
            "/wiki/Hungary"
          ]
        ],
        [
          "Korea",
          [
            "/wiki/Korea"
          ]
        ]
      ],
      [
        [
          "24 March 2013",
          []
        ],
        [
          "Coupe du Monde par \u00e9quipes , Moscow",
          [
            "/wiki/Moscow"
          ]
        ],
        [
          "Hungary",
          [
            "/wiki/Hungary"
          ]
        ],
        [
          "Russia",
          [
            "/wiki/Russia"
          ]
        ],
        [
          "Korea",
          [
            "/wiki/Korea"
          ]
        ]
      ],
      [
        [
          "28 April 2013",
          []
        ],
        [
          "Coupe du Monde par \u00e9quipes , Athens",
          [
            "/wiki/Athens"
          ]
        ],
        [
          "Germany",
          [
            "/wiki/Germany"
          ]
        ],
        [
          "Italy",
          [
            "/wiki/Italy"
          ]
        ],
        [
          "Russia",
          [
            "/wiki/Russia"
          ]
        ]
      ],
      [
        [
          "5 May 2013",
          []
        ],
        [
          "Absolute Korfanty World Cup , Chicago",
          [
            "/wiki/Chicago"
          ]
        ],
        [
          "Russia",
          [
            "/wiki/Russia"
          ]
        ],
        [
          "Italy",
          [
            "/wiki/Italy"
          ]
        ],
        [
          "Korea",
          [
            "/wiki/Korea"
          ]
        ]
      ],
      [
        [
          "5 May 2014",
          []
        ],
        [
          "Coupe du Monde par \u00e9quipes , Shanghai",
          [
            "/wiki/Shanghai"
          ]
        ],
        [
          "France",
          [
            "/wiki/France"
          ]
        ],
        [
          "Korea",
          [
            "/wiki/Korea"
          ]
        ],
        [
          "Italy",
          [
            "/wiki/Italy"
          ]
        ]
      ],
      [
        [
          "4 June 2013",
          []
        ],
        [
          "Asian Championships , Shanghai",
          [
            "/wiki/2013_Asian_Fencing_Championships",
            "/wiki/Shanghai"
          ]
        ],
        [
          "Korea",
          [
            "/wiki/Korea"
          ]
        ],
        [
          "Iran",
          [
            "/wiki/Iran"
          ]
        ],
        [
          "Kazakhstan",
          [
            "/wiki/Kazakhstan"
          ]
        ]
      ],
      [
        [
          "16 June 2013",
          []
        ],
        [
          "European Championships , Zagreb",
          [
            "/wiki/2013_European_Fencing_Championships",
            "/wiki/Zagreb"
          ]
        ],
        [
          "Italy",
          [
            "/wiki/Italy"
          ]
        ],
        [
          "Hungary",
          [
            "/wiki/Hungary"
          ]
        ],
        [
          "Ukraine",
          [
            "/wiki/Ukraine"
          ]
        ]
      ],
      [
        [
          "21 June 2013",
          []
        ],
        [
          "Pan American Championships , Cartagena",
          [
            "/wiki/2013_Pan_American_Fencing_Championships",
            "/wiki/Cartagena,_Colombia"
          ]
        ],
        [
          "United States",
          [
            "/wiki/United_States"
          ]
        ],
        [
          "Canada",
          [
            "/wiki/Canada"
          ]
        ],
        [
          "Venezuela",
          [
            "/wiki/Venezuela"
          ]
        ]
      ],
      [
        [
          "28 June 2013",
          []
        ],
        [
          "African Championships , Cape Town",
          [
            "/wiki/Cape_Town"
          ]
        ],
        [
          "Egypt",
          [
            "/wiki/Egypt"
          ]
        ],
        [
          "Tunisia",
          [
            "/wiki/Tunisia"
          ]
        ],
        [
          "Senegal",
          [
            "/wiki/Senegal"
          ]
        ]
      ],
      [
        [
          "10 August 2013",
          []
        ],
        [
          "World Championships , Budapest",
          [
            "/wiki/2013_World_Fencing_Championships",
            "/wiki/Budapest"
          ]
        ],
        [
          "Russia",
          [
            "/wiki/Russia"
          ]
        ],
        [
          "Romania",
          [
            "/wiki/Romania"
          ]
        ],
        [
          "Korea",
          [
            "/wiki/Korea"
          ]
        ]
      ]
    ],
    "section_title": "Team Sabre -- Men 's team sabre",
    "section_text": "",
    "uid": "2012\u201313_Fencing_World_Cup_22",
    "intro": "The 42nd FIE Fencing World Cup began on October 2012 and concluded on July 2013 at the 2013 World Fencing Championships held in Budapest. Andrea Cassar\u00e0 of Italy won the title for a record fifth time in men's foil, while Romania's Ana Maria Br\u00e2nz\u0103 ended up the top-ranked fencer in women's \u00e9p\u00e9e for a record third time. The World Cup medals were awarded during the FIE's gala dinner in Paris at the Automobile Club de France on 30 November 2013."
  },
  "2019\u201320_UEFA_Europa_League_18": {
    "url": "https://en.wikipedia.org/wiki/2019\u201320_UEFA_Europa_League",
    "title": "2019\u201320 UEFA Europa League",
    "header": [
      [
        "Team 1",
        []
      ],
      [
        "Agg",
        [
          "/wiki/Playoff_format"
        ]
      ],
      [
        "Team 2",
        []
      ],
      [
        "1st leg",
        []
      ],
      [
        "2nd leg",
        []
      ]
    ],
    "data": [
      [
        [
          "IFK Norrk\u00f6ping",
          [
            "/wiki/IFK_Norrk\u00f6ping"
          ]
        ],
        [
          "2-4",
          []
        ],
        [
          "Hapoel Be'er Sheva",
          [
            "/wiki/Hapoel_Be'er_Sheva_F.C."
          ]
        ],
        [
          "1-1",
          [
            "/wiki/2019\u201320_UEFA_Europa_League_qualifying_phase_and_play-off_round_(Main_Path)"
          ]
        ],
        [
          "1-3",
          [
            "/wiki/2019\u201320_UEFA_Europa_League_qualifying_phase_and_play-off_round_(Main_Path)"
          ]
        ]
      ],
      [
        [
          "Torino",
          [
            "/wiki/Torino_F.C."
          ]
        ],
        [
          "6-1",
          []
        ],
        [
          "Shakhtyor Soligorsk",
          [
            "/wiki/FC_Shakhtyor_Soligorsk"
          ]
        ],
        [
          "5-0",
          [
            "/wiki/2019\u201320_UEFA_Europa_League_qualifying_phase_and_play-off_round_(Main_Path)"
          ]
        ],
        [
          "1-1",
          [
            "/wiki/2019\u201320_UEFA_Europa_League_qualifying_phase_and_play-off_round_(Main_Path)"
          ]
        ]
      ],
      [
        [
          "Antwerp",
          [
            "/wiki/Royal_Antwerp_F.C."
          ]
        ],
        [
          "2-2 ( a )",
          [
            "/wiki/Away_goals_rule"
          ]
        ],
        [
          "Viktoria Plze\u0148",
          [
            "/wiki/FC_Viktoria_Plze\u0148"
          ]
        ],
        [
          "1-0",
          [
            "/wiki/2019\u201320_UEFA_Europa_League_qualifying_phase_and_play-off_round_(Main_Path)"
          ]
        ],
        [
          "1-2 ( a.e.t . )",
          [
            "/wiki/2019\u201320_UEFA_Europa_League_qualifying_phase_and_play-off_round_(Main_Path)",
            "/wiki/Overtime_(sports)"
          ]
        ]
      ],
      [
        [
          "Austria Wien",
          [
            "/wiki/FK_Austria_Wien"
          ]
        ],
        [
          "2-5",
          []
        ],
        [
          "Apollon Limassol",
          [
            "/wiki/Apollon_Limassol_FC"
          ]
        ],
        [
          "1-2",
          [
            "/wiki/2019\u201320_UEFA_Europa_League_qualifying_phase_and_play-off_round_(Main_Path)"
          ]
        ],
        [
          "1-3",
          [
            "/wiki/2019\u201320_UEFA_Europa_League_qualifying_phase_and_play-off_round_(Main_Path)"
          ]
        ]
      ],
      [
        [
          "Feyenoord",
          [
            "/wiki/Feyenoord"
          ]
        ],
        [
          "5-1",
          []
        ],
        [
          "Dinamo Tbilisi",
          [
            "/wiki/FC_Dinamo_Tbilisi"
          ]
        ],
        [
          "4-0",
          [
            "/wiki/2019\u201320_UEFA_Europa_League_qualifying_phase_and_play-off_round_(Main_Path)"
          ]
        ],
        [
          "1-1",
          [
            "/wiki/2019\u201320_UEFA_Europa_League_qualifying_phase_and_play-off_round_(Main_Path)"
          ]
        ]
      ],
      [
        [
          "Br\u00f8ndby",
          [
            "/wiki/Br\u00f8ndby_IF"
          ]
        ],
        [
          "3-7",
          []
        ],
        [
          "Braga",
          [
            "/wiki/S.C._Braga"
          ]
        ],
        [
          "2-4",
          [
            "/wiki/2019\u201320_UEFA_Europa_League_qualifying_phase_and_play-off_round_(Main_Path)"
          ]
        ],
        [
          "1-3",
          [
            "/wiki/2019\u201320_UEFA_Europa_League_qualifying_phase_and_play-off_round_(Main_Path)"
          ]
        ]
      ],
      [
        [
          "Molde",
          [
            "/wiki/Molde_FK"
          ]
        ],
        [
          "4-3",
          []
        ],
        [
          "Aris",
          [
            "/wiki/Aris_Thessaloniki_F.C."
          ]
        ],
        [
          "3-0",
          [
            "/wiki/2019\u201320_UEFA_Europa_League_qualifying_phase_and_play-off_round_(Main_Path)"
          ]
        ],
        [
          "1-3 ( a.e.t . )",
          [
            "/wiki/2019\u201320_UEFA_Europa_League_qualifying_phase_and_play-off_round_(Main_Path)",
            "/wiki/Overtime_(sports)"
          ]
        ]
      ],
      [
        [
          "Lokomotiv Plovdiv",
          [
            "/wiki/PFC_Lokomotiv_Plovdiv"
          ]
        ],
        [
          "0-2",
          []
        ],
        [
          "Strasbourg",
          [
            "/wiki/RC_Strasbourg_Alsace"
          ]
        ],
        [
          "0-1",
          [
            "/wiki/2019\u201320_UEFA_Europa_League_qualifying_phase_and_play-off_round_(Main_Path)"
          ]
        ],
        [
          "0-1",
          [
            "/wiki/2019\u201320_UEFA_Europa_League_qualifying_phase_and_play-off_round_(Main_Path)"
          ]
        ]
      ],
      [
        [
          "Thun",
          [
            "/wiki/FC_Thun"
          ]
        ],
        [
          "3-5",
          []
        ],
        [
          "Spartak Moscow",
          [
            "/wiki/FC_Spartak_Moscow"
          ]
        ],
        [
          "2-3",
          [
            "/wiki/2019\u201320_UEFA_Europa_League_qualifying_phase_and_play-off_round_(Main_Path)"
          ]
        ],
        [
          "1-2",
          [
            "/wiki/2019\u201320_UEFA_Europa_League_qualifying_phase_and_play-off_round_(Main_Path)"
          ]
        ]
      ],
      [
        [
          "FCSB",
          [
            "/wiki/FCSB"
          ]
        ],
        [
          "1-0",
          []
        ],
        [
          "Mlad\u00e1 Boleslav",
          [
            "/wiki/FK_Mlad\u00e1_Boleslav"
          ]
        ],
        [
          "0-0",
          [
            "/wiki/2019\u201320_UEFA_Europa_League_qualifying_phase_and_play-off_round_(Main_Path)"
          ]
        ],
        [
          "1-0",
          [
            "/wiki/2019\u201320_UEFA_Europa_League_qualifying_phase_and_play-off_round_(Main_Path)"
          ]
        ]
      ],
      [
        [
          "Pyunik",
          [
            "/wiki/FC_Pyunik"
          ]
        ],
        [
          "0-8",
          []
        ],
        [
          "Wolverhampton Wanderers",
          [
            "/wiki/Wolverhampton_Wanderers_F.C."
          ]
        ],
        [
          "0-4",
          [
            "/wiki/2019\u201320_UEFA_Europa_League_qualifying_phase_and_play-off_round_(Main_Path)"
          ]
        ],
        [
          "0-4",
          [
            "/wiki/2019\u201320_UEFA_Europa_League_qualifying_phase_and_play-off_round_(Main_Path)"
          ]
        ]
      ],
      [
        [
          "Midtjylland",
          [
            "/wiki/FC_Midtjylland"
          ]
        ],
        [
          "3-7",
          []
        ],
        [
          "Rangers",
          [
            "/wiki/Rangers_F.C."
          ]
        ],
        [
          "2-4",
          [
            "/wiki/2019\u201320_UEFA_Europa_League_qualifying_phase_and_play-off_round_(Main_Path)"
          ]
        ],
        [
          "1-3",
          [
            "/wiki/2019\u201320_UEFA_Europa_League_qualifying_phase_and_play-off_round_(Main_Path)"
          ]
        ]
      ],
      [
        [
          "Mariupol",
          [
            "/wiki/FC_Mariupol"
          ]
        ],
        [
          "0-4",
          []
        ],
        [
          "AZ",
          [
            "/wiki/AZ_Alkmaar"
          ]
        ],
        [
          "0-0",
          [
            "/wiki/2019\u201320_UEFA_Europa_League_qualifying_phase_and_play-off_round_(Main_Path)"
          ]
        ],
        [
          "0-4",
          [
            "/wiki/2019\u201320_UEFA_Europa_League_qualifying_phase_and_play-off_round_(Main_Path)"
          ]
        ]
      ],
      [
        [
          "AEK Larnaca",
          [
            "/wiki/AEK_Larnaca_FC"
          ]
        ],
        [
          "1-4",
          []
        ],
        [
          "Gent",
          [
            "/wiki/K.A.A._Gent"
          ]
        ],
        [
          "1-1",
          [
            "/wiki/2019\u201320_UEFA_Europa_League_qualifying_phase_and_play-off_round_(Main_Path)"
          ]
        ],
        [
          "0-3",
          [
            "/wiki/2019\u201320_UEFA_Europa_League_qualifying_phase_and_play-off_round_(Main_Path)"
          ]
        ]
      ],
      [
        [
          "Legia Warsaw",
          [
            "/wiki/Legia_Warsaw"
          ]
        ],
        [
          "2-0",
          []
        ],
        [
          "Atromitos",
          [
            "/wiki/Atromitos_F.C."
          ]
        ],
        [
          "0-0",
          [
            "/wiki/2019\u201320_UEFA_Europa_League_qualifying_phase_and_play-off_round_(Main_Path)"
          ]
        ],
        [
          "2-0",
          [
            "/wiki/2019\u201320_UEFA_Europa_League_qualifying_phase_and_play-off_round_(Main_Path)"
          ]
        ]
      ],
      [
        [
          "Haugesund",
          [
            "/wiki/FK_Haugesund"
          ]
        ],
        [
          "0-1",
          []
        ],
        [
          "PSV Eindhoven",
          [
            "/wiki/PSV_Eindhoven"
          ]
        ],
        [
          "0-1",
          [
            "/wiki/2019\u201320_UEFA_Europa_League_qualifying_phase_and_play-off_round_(Main_Path)"
          ]
        ],
        [
          "0-0",
          [
            "/wiki/2019\u201320_UEFA_Europa_League_qualifying_phase_and_play-off_round_(Main_Path)"
          ]
        ]
      ],
      [
        [
          "Rijeka",
          [
            "/wiki/HNK_Rijeka"
          ]
        ],
        [
          "4-0",
          []
        ],
        [
          "Aberdeen",
          [
            "/wiki/Aberdeen_F.C."
          ]
        ],
        [
          "2-0",
          [
            "/wiki/2019\u201320_UEFA_Europa_League_qualifying_phase_and_play-off_round_(Main_Path)"
          ]
        ],
        [
          "2-0",
          [
            "/wiki/2019\u201320_UEFA_Europa_League_qualifying_phase_and_play-off_round_(Main_Path)"
          ]
        ]
      ],
      [
        [
          "Ventspils",
          [
            "/wiki/FK_Ventspils"
          ]
        ],
        [
          "0-9",
          []
        ],
        [
          "Vit\u00f3ria de Guimar\u00e3es",
          [
            "/wiki/Vit\u00f3ria_S.C."
          ]
        ],
        [
          "0-3",
          [
            "/wiki/2019\u201320_UEFA_Europa_League_qualifying_phase_and_play-off_round_(Main_Path)"
          ]
        ],
        [
          "0-6",
          [
            "/wiki/2019\u201320_UEFA_Europa_League_qualifying_phase_and_play-off_round_(Main_Path)"
          ]
        ]
      ],
      [
        [
          "Vaduz",
          [
            "/wiki/FC_Vaduz"
          ]
        ],
        [
          "0-6",
          []
        ],
        [
          "Eintracht Frankfurt",
          [
            "/wiki/Eintracht_Frankfurt"
          ]
        ],
        [
          "0-5",
          [
            "/wiki/2019\u201320_UEFA_Europa_League_qualifying_phase_and_play-off_round_(Main_Path)"
          ]
        ],
        [
          "0-1",
          [
            "/wiki/2019\u201320_UEFA_Europa_League_qualifying_phase_and_play-off_round_(Main_Path)"
          ]
        ]
      ],
      [
        [
          "Partizan",
          [
            "/wiki/FK_Partizan"
          ]
        ],
        [
          "3-2",
          []
        ],
        [
          "Yeni Malatyaspor",
          [
            "/wiki/Yeni_Malatyaspor"
          ]
        ],
        [
          "3-1",
          [
            "/wiki/2019\u201320_UEFA_Europa_League_qualifying_phase_and_play-off_round_(Main_Path)"
          ]
        ],
        [
          "0-1",
          [
            "/wiki/2019\u201320_UEFA_Europa_League_qualifying_phase_and_play-off_round_(Main_Path)"
          ]
        ]
      ]
    ],
    "section_title": "Qualifying rounds -- Third qualifying round",
    "section_text": "The third qualifying round was split into two separate sections : Champions Path ( for league champions ) and League Path ( for cup winners and league non-champions ) . The draw for the third qualifying round was held on 22 July 2019 . [ 34 ] The first legs were played on 6 , 7 and 8 August , and the second legs on 13 , 14 and 15 August 2019 . Team 1 Agg . Team 2 1st leg 2nd leg Champions Path Sutjeska Nik\u0161i\u0107 3\u20135 Linfield 1\u20132 2\u20133 Maccabi Tel Aviv 2\u20134 S\u016bduva 1\u20132 1\u20132 Ararat-Armenia 3\u20132 Saburtalo Tbilisi 1\u20132 2\u20130 Riga 3\u20133 ( a ) HJK 1\u20131 2\u20132 Ludogorets Razgrad 9\u20130 The New Saints 5\u20130 4\u20130 Sarajevo 1\u20132 BATE Borisov 1\u20132 0\u20130 F91 Dudelange 4\u20131 N\u00f5mme Kalju 3\u20131 1\u20130 Astana 9\u20131 Valletta 5\u20131 4\u20130 Sheriff Tiraspol 2\u20133 AIK 1\u20132 1\u20131 Slovan Bratislava 4\u20131 Dundalk 1\u20130 3\u20131",
    "uid": "2019\u201320_UEFA_Europa_League_18",
    "intro": "The 2019-20 UEFA Europa League is the 49th season of Europe's secondary club football tournament organised by UEFA, and the 11th season since it was renamed from the UEFA Cup to the UEFA Europa League. The final will be played at the Stadion Energa Gda\u0144sk in Gda\u0144sk, Poland. The winners of the 2019-20 UEFA Europa League will earn the right to play against the winners of the 2019-20 UEFA Champions League in the 2020 UEFA Super Cup. They will also automatically qualify for the 2020-21 UEFA Champions League group stage, and if they have already qualified through their league performance, the berth reserved will be given to the third-placed team of the 2019-20 Ligue 1, the 5th-ranked association according to next season's access list. The video assistant referee (VAR) system will be used in the competition from the knockout stage onwards. As the title holders of the Europa League, Chelsea qualified for the 2019-20 UEFA Champions League, although they had already qualified before the final through their league performance. They are unable to defend their title as they advanced to the Champions League knockout stage."
  },
  "2009\u201310_Ta\u00e7a_de_Portugal_7": {
    "url": "https://en.wikipedia.org/wiki/2009\u201310_Ta\u00e7a_de_Portugal",
    "title": "2009\u201310 Ta\u00e7a de Portugal",
    "header": [
      [
        "Team 1",
        []
      ],
      [
        "Score",
        []
      ],
      [
        "Team 2",
        []
      ]
    ],
    "data": [
      [
        [
          "Sporting CP",
          [
            "/wiki/Sporting_CP"
          ]
        ],
        [
          "4 - 3",
          []
        ],
        [
          "Mafra ( III )",
          []
        ]
      ],
      [
        [
          "Nacional",
          [
            "/wiki/C.D._Nacional"
          ]
        ],
        [
          "1 - 2",
          []
        ],
        [
          "Pa\u00e7os de Ferreira",
          [
            "/wiki/F.C._Pa\u00e7os_de_Ferreira"
          ]
        ]
      ],
      [
        [
          "Camacha ( III )",
          [
            "/wiki/A.D._Camacha"
          ]
        ],
        [
          "0 - 1",
          []
        ],
        [
          "Pinhalnovense ( III )",
          [
            "/wiki/C.D._Pinhalnovense"
          ]
        ]
      ],
      [
        [
          "Rio Ave",
          [
            "/wiki/Rio_Ave_F.C."
          ]
        ],
        [
          "2 - 2 ( a.e.t . ) , p. 4 - 2 )",
          [
            "/wiki/Overtime_(sports)",
            "/wiki/Penalty_shoot-out_(association_football)"
          ]
        ],
        [
          "Vit\u00f3ria de Guimar\u00e3es",
          [
            "/wiki/Vit\u00f3ria_S.C."
          ]
        ]
      ],
      [
        [
          "Aliados do Lordelo ( III )",
          [
            "/wiki/Aliados_Lordelo_F.C."
          ]
        ],
        [
          "0 - 1",
          []
        ],
        [
          "Naval",
          [
            "/wiki/Associa\u00e7\u00e3o_Naval_1\u00ba_de_Maio"
          ]
        ]
      ],
      [
        [
          "Freamunde ( II )",
          [
            "/wiki/S.C._Freamunde"
          ]
        ],
        [
          "1 - 3",
          []
        ],
        [
          "Braga",
          [
            "/wiki/S.C._Braga"
          ]
        ]
      ],
      [
        [
          "Desportivo de Chaves ( II )",
          [
            "/wiki/G.D._Chaves"
          ]
        ],
        [
          "1 - 0",
          []
        ],
        [
          "Beira-Mar ( II )",
          [
            "/wiki/S.C._Beira-Mar"
          ]
        ]
      ],
      [
        [
          "Belenenses",
          [
            "/wiki/C.F._Os_Belenenses"
          ]
        ],
        [
          "2 - 2 ( a.e.t . ) , p. 9-10 )",
          [
            "/wiki/Overtime_(sports)",
            "/wiki/Penalty_shoot-out_(association_football)"
          ]
        ],
        [
          "Porto",
          [
            "/wiki/FC_Porto"
          ]
        ]
      ]
    ],
    "section_title": "Fifth round",
    "section_text": "The matches were played on 20 and 24 January 2010 . [ 3 ]",
    "uid": "2009\u201310_Ta\u00e7a_de_Portugal_7",
    "intro": "The 2009-10 Ta\u00e7a de Portugal was the 70th season of the Ta\u00e7a de Portugal. The competition began on 30 August 2009, with the first round matches, and concluded with the final, held on 16 May at the Est\u00e1dio Nacional, in Oeiras, between defending champions Porto and then Liga de Honra team Chaves. Porto won 2-1 to take their second consecutive cup, and assuring a place in play-off round of the 2010-11 UEFA Europa League."
  },
  "2017\u201318_Elitserien_(bandy)_0": {
    "url": "https://en.wikipedia.org/wiki/2017\u201318_Elitserien_(bandy)",
    "title": "2017\u201318 Elitserien (bandy)",
    "header": [
      [
        "Club",
        []
      ],
      [
        "Home town",
        []
      ],
      [
        "Home ice",
        []
      ]
    ],
    "data": [
      [
        [
          "Bolln\u00e4s GIF",
          [
            "/wiki/Bolln\u00e4s_GIF"
          ]
        ],
        [
          "Bolln\u00e4s",
          [
            "/wiki/Bolln\u00e4s"
          ]
        ],
        [
          "S\u00e4vsta\u00e5s IP",
          [
            "/wiki/S\u00e4vsta\u00e5s_IP"
          ]
        ]
      ],
      [
        [
          "Broberg/S\u00f6derhamn Bandy",
          [
            "/wiki/Broberg/S\u00f6derhamn_Bandy"
          ]
        ],
        [
          "S\u00f6derhamn",
          [
            "/wiki/S\u00f6derhamn"
          ]
        ],
        [
          "H\u00e4ll\u00e5sen",
          [
            "/wiki/H\u00e4ll\u00e5sen"
          ]
        ]
      ],
      [
        [
          "Edsbyns IF",
          [
            "/wiki/Edsbyns_IF"
          ]
        ],
        [
          "Edsbyn",
          [
            "/wiki/Edsbyn"
          ]
        ],
        [
          "Svenska F\u00f6nster Arena *",
          [
            "/wiki/Edsbyn_Arena"
          ]
        ]
      ],
      [
        [
          "Hammarby IF",
          [
            "/wiki/Hammarby_IF_Bandy"
          ]
        ],
        [
          "Stockholm",
          [
            "/wiki/Stockholm"
          ]
        ],
        [
          "Zinkensdamms IP",
          [
            "/wiki/Zinkensdamms_IP"
          ]
        ]
      ],
      [
        [
          "Kalix BF",
          [
            "/wiki/Kalix_BF"
          ]
        ],
        [
          "Kalix",
          [
            "/wiki/Kalix"
          ]
        ],
        [
          "Kalix IP",
          [
            "/wiki/Kalix_IP"
          ]
        ]
      ],
      [
        [
          "IFK Motala",
          [
            "/wiki/IFK_Motala"
          ]
        ],
        [
          "Motala",
          [
            "/wiki/Motala"
          ]
        ],
        [
          "XL-Bygg Arena",
          []
        ]
      ],
      [
        [
          "Sandvikens AIK",
          [
            "/wiki/Sandvikens_AIK"
          ]
        ],
        [
          "Sandviken",
          [
            "/wiki/Sandviken"
          ]
        ],
        [
          "G\u00f6ransson Arena *",
          [
            "/wiki/G\u00f6ransson_Arena"
          ]
        ]
      ],
      [
        [
          "IK Sirius",
          [
            "/wiki/IK_Sirius"
          ]
        ],
        [
          "Uppsala",
          [
            "/wiki/Uppsala"
          ]
        ],
        [
          "Studenternas IP",
          [
            "/wiki/Studenternas_IP"
          ]
        ]
      ],
      [
        [
          "IK Tellus",
          [
            "/wiki/IK_Tellus_Bandy"
          ]
        ],
        [
          "Stockholm",
          [
            "/wiki/Stockholm"
          ]
        ],
        [
          "Zinkensdamms IP",
          [
            "/wiki/Zinkensdamms_IP"
          ]
        ]
      ],
      [
        [
          "Tillberga Bandy V\u00e4ster\u00e5s",
          [
            "/wiki/Tillberga_IK_Bandy"
          ]
        ],
        [
          "V\u00e4ster\u00e5s",
          [
            "/wiki/V\u00e4ster\u00e5s"
          ]
        ],
        [
          "ABB Arena Syd *",
          [
            "/wiki/ABB_Arena"
          ]
        ]
      ],
      [
        [
          "Vetlanda BK",
          [
            "/wiki/Vetlanda_BK"
          ]
        ],
        [
          "Vetlanda",
          [
            "/wiki/Vetlanda"
          ]
        ],
        [
          "Sapa Arena *",
          [
            "/wiki/Sapa_Arena"
          ]
        ]
      ],
      [
        [
          "Villa Lidk\u00f6ping BK",
          [
            "/wiki/Villa_Lidk\u00f6ping_BK"
          ]
        ],
        [
          "Lidk\u00f6ping",
          [
            "/wiki/Lidk\u00f6ping"
          ]
        ],
        [
          "Sparbanken Lidk\u00f6ping Arena *",
          [
            "/wiki/Sparbanken_Lidk\u00f6ping_Arena"
          ]
        ]
      ],
      [
        [
          "IFK V\u00e4nersborg",
          [
            "/wiki/IFK_V\u00e4nersborg"
          ]
        ],
        [
          "V\u00e4nersborg",
          [
            "/wiki/V\u00e4nersborg"
          ]
        ],
        [
          "Arena V\u00e4nersborg *",
          [
            "/wiki/Arena_V\u00e4nersborg"
          ]
        ]
      ],
      [
        [
          "V\u00e4ster\u00e5s SK",
          [
            "/wiki/V\u00e4ster\u00e5s_SK_Bandy"
          ]
        ],
        [
          "V\u00e4ster\u00e5s",
          [
            "/wiki/V\u00e4ster\u00e5s"
          ]
        ],
        [
          "ABB Arena Syd *",
          [
            "/wiki/ABB_Arena"
          ]
        ]
      ]
    ],
    "section_title": "Teams",
    "section_text": "Bolln\u00e4sBroberg/S\u00f6derhamnEdsbynHammarbyTellusKalixIFK MotalaSandvikenSiriusTillbergaVetlandaVilla Lidk\u00f6pingIFK V\u00e4nersborgV\u00e4ster\u00e5s Locations of the 2017\u201318 Elitserien teams Teams 1\u201310 from the regular 2016\u201317 Elitserien league were automatically qualified for this season 's play in the top-tier divisionen . [ 1 ] Three teams from the 2016\u20132017 season which played the qualification games ( IK Tellus , Kalix BF och TB V\u00e4ster\u00e5s ) managed to stay in the Elitserien , while Gripen Trollh\u00e4ttan BK was relegated to second-tier Allsvenskan and replaced by IFK Motala . [ 2 ] [ 3 ]",
    "uid": "2017\u201318_Elitserien_(bandy)_0",
    "intro": "The 2017-18 Elitserien is the eleventh season of the present highest Swedish men's bandy top division, Elitserien. The regular season begins in late-October 2017."
  },
  "2014\u201315_CA_Osasuna_season_12": {
    "url": "https://en.wikipedia.org/wiki/2014\u201315_CA_Osasuna_season",
    "title": "2014\u201315 CA Osasuna season",
    "header": [
      [
        "No",
        []
      ],
      [
        "Pos",
        []
      ],
      [
        "Name",
        []
      ],
      [
        "Liga Adelante",
        [
          "/wiki/2014\u201315_Segunda_Divisi\u00f3n"
        ]
      ],
      [
        "Copa del Rey",
        [
          "/wiki/2014\u201315_Copa_del_Rey"
        ]
      ],
      [
        "Total",
        []
      ]
    ],
    "data": [
      [
        [
          "1",
          []
        ],
        [
          "GK",
          [
            "/wiki/Goalkeeper_(association_football)"
          ]
        ],
        [
          "Riesgo",
          [
            "/wiki/Asier_Riesgo"
          ]
        ],
        [
          "1,034",
          []
        ],
        [
          "0",
          []
        ],
        [
          "1,034",
          []
        ]
      ],
      [
        [
          "2",
          []
        ],
        [
          "RB",
          [
            "/wiki/Defender_(association_football)"
          ]
        ],
        [
          "J. Fla\u00f1o",
          [
            "/wiki/Javier_Fla\u00f1o"
          ]
        ],
        [
          "2,141",
          []
        ],
        [
          "0",
          []
        ],
        [
          "2,141",
          []
        ]
      ],
      [
        [
          "3",
          []
        ],
        [
          "CB",
          [
            "/wiki/Defender_(association_football)"
          ]
        ],
        [
          "Cadamuro",
          [
            "/wiki/Liassine_Cadamuro-Benta\u00efba"
          ]
        ],
        [
          "1,103",
          []
        ],
        [
          "120",
          []
        ],
        [
          "1,223",
          []
        ]
      ],
      [
        [
          "4",
          []
        ],
        [
          "CB",
          [
            "/wiki/Defender_(association_football)"
          ]
        ],
        [
          "M. Fla\u00f1o",
          [
            "/wiki/Miguel_Fla\u00f1o"
          ]
        ],
        [
          "2,325",
          []
        ],
        [
          "8",
          []
        ],
        [
          "2,243",
          []
        ]
      ],
      [
        [
          "5",
          []
        ],
        [
          "LB",
          [
            "/wiki/Defender_(association_football)"
          ]
        ],
        [
          "Echaide",
          [
            "/wiki/Ion_Echaide"
          ]
        ],
        [
          "1,091",
          []
        ],
        [
          "120",
          []
        ],
        [
          "1,211",
          []
        ]
      ],
      [
        [
          "6",
          []
        ],
        [
          "DM",
          [
            "/wiki/Midfielder"
          ]
        ],
        [
          "Nekounam",
          [
            "/wiki/Javad_Nekounam"
          ]
        ],
        [
          "1,265",
          []
        ],
        [
          "120",
          []
        ],
        [
          "1,385",
          []
        ]
      ],
      [
        [
          "7",
          []
        ],
        [
          "SS",
          [
            "/wiki/Forward_(association_football)"
          ]
        ],
        [
          "Nino",
          [
            "/wiki/Nino_(footballer)"
          ]
        ],
        [
          "2,701",
          []
        ],
        [
          "0",
          []
        ],
        [
          "2,701",
          []
        ]
      ],
      [
        [
          "8",
          []
        ],
        [
          "RM",
          [
            "/wiki/Midfielder"
          ]
        ],
        [
          "Merino",
          [
            "/wiki/Mikel_Merino"
          ]
        ],
        [
          "1,724",
          []
        ],
        [
          "0",
          []
        ],
        [
          "1,724",
          []
        ]
      ],
      [
        [
          "9",
          []
        ],
        [
          "CF",
          [
            "/wiki/Forward_(association_football)"
          ]
        ],
        [
          "Kodro",
          [
            "/wiki/Kenan_Kodro"
          ]
        ],
        [
          "1,139",
          []
        ],
        [
          "81",
          []
        ],
        [
          "1,220",
          []
        ]
      ],
      [
        [
          "10",
          []
        ],
        [
          "AM",
          [
            "/wiki/Midfielder"
          ]
        ],
        [
          "Torres",
          [
            "/wiki/Roberto_Torres_Morales"
          ]
        ],
        [
          "2,114",
          []
        ],
        [
          "117",
          []
        ],
        [
          "2,231",
          []
        ]
      ],
      [
        [
          "11",
          []
        ],
        [
          "AM",
          [
            "/wiki/Midfielder"
          ]
        ],
        [
          "Sisi",
          [
            "/wiki/Sisi_(footballer)"
          ]
        ],
        [
          "2,249",
          []
        ],
        [
          "0",
          []
        ],
        [
          "2,249",
          []
        ]
      ],
      [
        [
          "12",
          []
        ],
        [
          "CF",
          [
            "/wiki/Forward_(association_football)"
          ]
        ],
        [
          "Ansarifard",
          [
            "/wiki/Karim_Ansarifard"
          ]
        ],
        [
          "588",
          []
        ],
        [
          "3",
          []
        ],
        [
          "591",
          []
        ]
      ],
      [
        [
          "13",
          []
        ],
        [
          "GK",
          [
            "/wiki/Goalkeeper_(association_football)"
          ]
        ],
        [
          "Santamar\u00eda",
          [
            "/wiki/Roberto_Santamar\u00eda_(footballer,_born_1985)"
          ]
        ],
        [
          "1,846",
          []
        ],
        [
          "120",
          []
        ],
        [
          "1,966",
          []
        ]
      ],
      [
        [
          "15",
          []
        ],
        [
          "RM",
          [
            "/wiki/Midfielder"
          ]
        ],
        [
          "Oier",
          [
            "/wiki/Oier_Sanjurjo"
          ]
        ],
        [
          "142",
          []
        ],
        [
          "0",
          []
        ],
        [
          "142",
          []
        ]
      ],
      [
        [
          "17",
          []
        ],
        [
          "LW",
          [
            "/wiki/Midfielder"
          ]
        ],
        [
          "Cedrick",
          [
            "/wiki/Cedrick_Mabwati"
          ]
        ],
        [
          "1,220",
          []
        ],
        [
          "0",
          []
        ],
        [
          "1,220",
          []
        ]
      ],
      [
        [
          "19",
          []
        ],
        [
          "CB",
          [
            "/wiki/Defender_(association_football)"
          ]
        ],
        [
          "Vujadinovi\u0107",
          [
            "/wiki/Nikola_Vujadinovi\u0107"
          ]
        ],
        [
          "1,324",
          []
        ],
        [
          "0",
          []
        ],
        [
          "1,324",
          []
        ]
      ],
      [
        [
          "22",
          []
        ],
        [
          "CB",
          [
            "/wiki/Defender_(association_football)"
          ]
        ],
        [
          "Loti\u00e8s",
          [
            "/wiki/Jordan_Loti\u00e8s"
          ]
        ],
        [
          "472",
          []
        ],
        [
          "0",
          []
        ],
        [
          "472",
          []
        ]
      ],
      [
        [
          "23",
          []
        ],
        [
          "DM",
          [
            "/wiki/Midfielder"
          ]
        ],
        [
          "Lo\u00e9",
          [
            "/wiki/Raoul_Lo\u00e9"
          ]
        ],
        [
          "1,989",
          []
        ],
        [
          "0",
          []
        ],
        [
          "1,989",
          []
        ]
      ],
      [
        [
          "26",
          []
        ],
        [
          "GK",
          [
            "/wiki/Goalkeeper_(association_football)"
          ]
        ],
        [
          "Ezkieta",
          [
            "/wiki/Jokin_Ezkieta"
          ]
        ],
        [
          "0",
          []
        ],
        [
          "0",
          []
        ],
        [
          "0",
          []
        ]
      ],
      [
        [
          "28",
          []
        ],
        [
          "CB",
          [
            "/wiki/Defender_(association_football)"
          ]
        ],
        [
          "D. Garc\u00eda",
          [
            "/wiki/David_Garc\u00eda_(footballer,_born_1994)"
          ]
        ],
        [
          "1,584",
          []
        ],
        [
          "120",
          []
        ],
        [
          "1,704",
          []
        ]
      ]
    ],
    "section_title": "Statistics -- Minutes played",
    "section_text": "",
    "uid": "2014\u201315_CA_Osasuna_season_12",
    "intro": "The 2014-15 CA Osasuna season is the 94th season in the club's history."
  },
  "2012\u201313_MC_El_Eulma_season_1": {
    "url": "https://en.wikipedia.org/wiki/2012\u201313_MC_El_Eulma_season",
    "title": "2012\u201313 MC El Eulma season",
    "header": [
      [
        "Date",
        []
      ],
      [
        "Pos",
        []
      ],
      [
        "Player",
        []
      ],
      [
        "From club",
        []
      ],
      [
        "Transfer fee",
        []
      ]
    ],
    "data": [
      [
        [
          "1 July 2012",
          []
        ],
        [
          "DF",
          []
        ],
        [
          "Khaled Bouzama",
          [
            "/wiki/Khaled_Bouzama"
          ]
        ],
        [
          "RC Kouba",
          [
            "/wiki/RC_Kouba"
          ]
        ],
        [
          "Undisclosed",
          []
        ]
      ],
      [
        [
          "1 July 2012",
          []
        ],
        [
          "DF",
          []
        ],
        [
          "Abdeslam Mebarakou",
          []
        ],
        [
          "MC Sa\u00efda",
          [
            "/wiki/MC_Sa\u00efda"
          ]
        ],
        [
          "Undisclosed",
          []
        ]
      ],
      [
        [
          "1 July 2012",
          []
        ],
        [
          "DF",
          []
        ],
        [
          "Tarek Zeghidi",
          [
            "/wiki/Tarek_Zeghidi"
          ]
        ],
        [
          "MSP Batna",
          [
            "/wiki/MSP_Batna"
          ]
        ],
        [
          "Undisclosed",
          []
        ]
      ],
      [
        [
          "1 July 2012",
          []
        ],
        [
          "DF",
          []
        ],
        [
          "Sofiane Boutebba",
          [
            "/wiki/Sofiane_Boutebba"
          ]
        ],
        [
          "US Chaouia",
          [
            "/wiki/US_Chaouia"
          ]
        ],
        [
          "Undisclosed",
          []
        ]
      ],
      [
        [
          "1 July 2012",
          []
        ],
        [
          "DF",
          []
        ],
        [
          "Nassim Oussalah",
          [
            "/wiki/Nassim_Oussalah"
          ]
        ],
        [
          "CA Batna",
          [
            "/wiki/CA_Batna"
          ]
        ],
        [
          "Undisclosed",
          []
        ]
      ],
      [
        [
          "1 July 2012",
          []
        ],
        [
          "MF",
          []
        ],
        [
          "Nassim Dehouche",
          [
            "/wiki/Nassim_Dehouche"
          ]
        ],
        [
          "MO B\u00e9ja\u00efa",
          [
            "/wiki/MO_B\u00e9ja\u00efa"
          ]
        ],
        [
          "Undisclosed",
          []
        ]
      ],
      [
        [
          "1 July 2012",
          []
        ],
        [
          "MF",
          []
        ],
        [
          "Slimane Illoul",
          [
            "/wiki/Slimane_Illoul"
          ]
        ],
        [
          "RC Kouba",
          [
            "/wiki/RC_Kouba"
          ]
        ],
        [
          "Undisclosed",
          []
        ]
      ],
      [
        [
          "1 July 2012",
          []
        ],
        [
          "FW",
          []
        ],
        [
          "Walid Derrardja",
          [
            "/wiki/Walid_Derrardja"
          ]
        ],
        [
          "NA Hussein Dey",
          [
            "/wiki/NA_Hussein_Dey"
          ]
        ],
        [
          "Undisclosed",
          []
        ]
      ],
      [
        [
          "1 July 2012",
          []
        ],
        [
          "FW",
          []
        ],
        [
          "Yassine Akkouche",
          [
            "/wiki/Yassine_Akkouche"
          ]
        ],
        [
          "CA Bordj Bou Arr\u00e9ridj",
          [
            "/wiki/CA_Bordj_Bou_Arr\u00e9ridj"
          ]
        ],
        [
          "Undisclosed",
          []
        ]
      ],
      [
        [
          "1 August 2012",
          []
        ],
        [
          "MF",
          []
        ],
        [
          "Abdelkader Harizi",
          [
            "/wiki/Abdelkader_Harizi"
          ]
        ],
        [
          "MC Oran",
          [
            "/wiki/MC_Oran"
          ]
        ],
        [
          "Free transfer",
          []
        ]
      ],
      [
        [
          "1 January 2013",
          []
        ],
        [
          "FW",
          []
        ],
        [
          "Ramzi Bourakba",
          [
            "/wiki/Ramzi_Bourakba"
          ]
        ],
        [
          "JSM B\u00e9ja\u00efa",
          [
            "/wiki/JSM_B\u00e9ja\u00efa"
          ]
        ],
        [
          "Undisclosed",
          []
        ]
      ],
      [
        [
          "1 January 2013",
          []
        ],
        [
          "FW",
          []
        ],
        [
          "Mark Pangwoh",
          []
        ],
        [
          "AS Gab\u00e8s",
          [
            "/wiki/AS_Gab\u00e8s"
          ]
        ],
        [
          "Undisclosed",
          []
        ]
      ],
      [
        [
          "6 January 2013",
          []
        ],
        [
          "FW",
          []
        ],
        [
          "Far\u00e8s Hamiti",
          [
            "/wiki/Far\u00e8s_Hamiti"
          ]
        ],
        [
          "CR Belouizdad",
          [
            "/wiki/CR_Belouizdad"
          ]
        ],
        [
          "Undisclosed",
          []
        ]
      ],
      [
        [
          "12 January 2013",
          []
        ],
        [
          "MF",
          []
        ],
        [
          "Yahya Coulibaly",
          []
        ],
        [
          "Stade Malien",
          [
            "/wiki/Stade_Malien"
          ]
        ],
        [
          "Undisclosed",
          []
        ]
      ]
    ],
    "section_title": "Transfers -- In",
    "section_text": "",
    "uid": "2012\u201313_MC_El_Eulma_season_1",
    "intro": "In the 2012-13 season, MC El Eulma is competing in the Ligue 1 for the 5th season, as well as the Algerian Cup. It is their 5th consecutive season in the top flight of Algerian football. They will be competing in Ligue 1, and the Algerian Cup."
  }
}