{
  "2014\u201315_Handball-Bundesliga_0": {
    "url": "https://en.wikipedia.org/wiki/2014\u201315_Handball-Bundesliga",
    "title": "2014\u201315 Handball-Bundesliga",
    "header": [
      [
        "Team",
        []
      ],
      [
        "Location",
        []
      ],
      [
        "Arena",
        []
      ],
      [
        "Capacity",
        []
      ]
    ],
    "data": [
      [
        [
          "Frisch Auf G\u00f6ppingen",
          [
            "/wiki/Frisch_Auf_G\u00f6ppingen"
          ]
        ],
        [
          "G\u00f6ppingen",
          [
            "/wiki/G\u00f6ppingen"
          ]
        ],
        [
          "EWS Arena",
          [
            "/wiki/EWS_Arena"
          ]
        ],
        [
          "5,600",
          []
        ]
      ],
      [
        [
          "F\u00fcchse Berlin",
          [
            "/wiki/F\u00fcchse_Berlin_(Handball)"
          ]
        ],
        [
          "Berlin",
          [
            "/wiki/Berlin"
          ]
        ],
        [
          "Max-Schmeling-Halle",
          [
            "/wiki/Max-Schmeling-Halle"
          ]
        ],
        [
          "9,500",
          []
        ]
      ],
      [
        [
          "SC Magdeburg",
          [
            "/wiki/SC_Magdeburg"
          ]
        ],
        [
          "Magdeburg",
          [
            "/wiki/Magdeburg"
          ]
        ],
        [
          "B\u00f6rdelandhalle",
          [
            "/wiki/GETEC_Arena"
          ]
        ],
        [
          "7,071",
          []
        ]
      ],
      [
        [
          "TuS Nettelstedt-L\u00fcbbecke",
          [
            "/wiki/TuS_Nettelstedt-L\u00fcbbecke"
          ]
        ],
        [
          "L\u00fcbbecke",
          [
            "/wiki/L\u00fcbbecke"
          ]
        ],
        [
          "Kreissporthalle L\u00fcbbecke",
          []
        ],
        [
          "3,250",
          []
        ]
      ],
      [
        [
          "HSV Hamburg",
          [
            "/wiki/Handball_Sport_Verein_Hamburg"
          ]
        ],
        [
          "Hamburg",
          [
            "/wiki/Hamburg"
          ]
        ],
        [
          "O2 World Hamburg",
          [
            "/wiki/Barclaycard_Arena_(Hamburg)"
          ]
        ],
        [
          "13,000",
          []
        ]
      ],
      [
        [
          "HSG Wetzlar",
          [
            "/wiki/HSG_Wetzlar"
          ]
        ],
        [
          "Wetzlar",
          [
            "/wiki/Wetzlar"
          ]
        ],
        [
          "RITTAL Arena",
          [
            "/wiki/Rittal_Arena_Wetzlar"
          ]
        ],
        [
          "4,412",
          []
        ]
      ],
      [
        [
          "HBW Balingen-Weilstetten",
          [
            "/wiki/HBW_Balingen-Weilstetten"
          ]
        ],
        [
          "Balingen",
          [
            "/wiki/Balingen"
          ]
        ],
        [
          "Sparkassen-Arena",
          []
        ],
        [
          "2,340",
          []
        ]
      ],
      [
        [
          "Rhein-Neckar L\u00f6wen",
          [
            "/wiki/Rhein-Neckar_L\u00f6wen"
          ]
        ],
        [
          "Mannheim",
          [
            "/wiki/Mannheim"
          ]
        ],
        [
          "SAP Arena",
          [
            "/wiki/SAP_Arena"
          ]
        ],
        [
          "13,200",
          []
        ]
      ],
      [
        [
          "SG Flensburg-Handewitt",
          [
            "/wiki/SG_Flensburg-Handewitt"
          ]
        ],
        [
          "Flensburg",
          [
            "/wiki/Flensburg"
          ]
        ],
        [
          "Flens-Arena",
          [
            "/wiki/Flens-Arena"
          ]
        ],
        [
          "6,300",
          []
        ]
      ],
      [
        [
          "TBV Lemgo",
          [
            "/wiki/TBV_Lemgo"
          ]
        ],
        [
          "Lemgo",
          [
            "/wiki/Lemgo"
          ]
        ],
        [
          "Lipperlandhalle",
          [
            "/wiki/Lipperlandhalle"
          ]
        ],
        [
          "5,000",
          []
        ]
      ],
      [
        [
          "THW Kiel",
          [
            "/wiki/THW_Kiel"
          ]
        ],
        [
          "Kiel",
          [
            "/wiki/Kiel"
          ]
        ],
        [
          "Sparkassen-Arena",
          [
            "/wiki/Sparkassen-Arena"
          ]
        ],
        [
          "10,285",
          []
        ]
      ],
      [
        [
          "TSV Hannover-Burgdorf",
          [
            "/wiki/TSV_Hannover-Burgdorf"
          ]
        ],
        [
          "Hannover",
          [
            "/wiki/Hanover"
          ]
        ],
        [
          "AWD Hall",
          [
            "/wiki/Swiss_Life_Hall"
          ]
        ],
        [
          "4,460",
          []
        ]
      ],
      [
        [
          "MT Melsungen",
          [
            "/wiki/MT_Melsungen"
          ]
        ],
        [
          "Melsungen",
          [
            "/wiki/Melsungen"
          ]
        ],
        [
          "Rothenbach-Halle",
          []
        ],
        [
          "4,300",
          []
        ]
      ],
      [
        [
          "TSG Friesenheim",
          [
            "/wiki/TSG_Friesenheim"
          ]
        ],
        [
          "Ludwigshafen",
          [
            "/wiki/Ludwigshafen"
          ]
        ],
        [
          "Friedrich-Ebert-Halle",
          [
            "/wiki/Friedrich-Ebert-Halle"
          ]
        ],
        [
          "2,500",
          []
        ]
      ],
      [
        [
          "VfL Gummersbach",
          [
            "/wiki/VfL_Gummersbach"
          ]
        ],
        [
          "Gummersbach",
          [
            "/wiki/Gummersbach"
          ]
        ],
        [
          "Eugen-Haas-Halle",
          []
        ],
        [
          "4,132",
          []
        ]
      ],
      [
        [
          "SG BBM Bietigheim",
          [
            "/wiki/SG_BBM_Bietigheim"
          ]
        ],
        [
          "Bietigheim",
          [
            "/wiki/Bietigheim_(Baden)"
          ]
        ],
        [
          "EgeTrans Arena",
          [
            "/wiki/EgeTrans_Arena"
          ]
        ],
        [
          "4,583",
          []
        ]
      ],
      [
        [
          "GWD Minden",
          [
            "/wiki/GWD_Minden"
          ]
        ],
        [
          "Minden",
          [
            "/wiki/Minden"
          ]
        ],
        [
          "Kreissporthalle",
          []
        ],
        [
          "4,059",
          []
        ]
      ],
      [
        [
          "Bergischer HC",
          [
            "/wiki/Bergischer_HC"
          ]
        ],
        [
          "Wuppertal Solingen",
          [
            "/wiki/Wuppertal",
            "/wiki/Solingen"
          ]
        ],
        [
          "Uni-Halle Klingenhalle",
          [
            "/wiki/Uni-Halle"
          ]
        ],
        [
          "3,200 2,800",
          []
        ]
      ],
      [
        [
          "HC Erlangen",
          [
            "/wiki/HC_Erlangen"
          ]
        ],
        [
          "Erlangen",
          [
            "/wiki/Erlangen"
          ]
        ],
        [
          "Arena N\u00fcrnberger Versicherung",
          [
            "/wiki/Arena_N\u00fcrnberger_Versicherung"
          ]
        ],
        [
          "8,130",
          []
        ]
      ]
    ],
    "section_title": "Team information",
    "section_text": "19 teams competed this year . KielGummersbachG\u00f6ppingenBietigheimBerlinBalingenWetzlarHamburgMelsungenMagdeburgFlensburgL\u00f6wenLemgoL\u00fcbbeckeBurgdorfErlangenMindenSolingenWuppertalLudwigshafen Location of teams in the Handball-Bundesliga",
    "uid": "2014\u201315_Handball-Bundesliga_0",
    "intro": "The 2014-15 Handball-Bundesliga was the 50th season of the Handball-Bundesliga, Germany's premier handball league and the 38th season consisting of only one league."
  },
  "List_of_UDF_objects_(1\u2013500)_0": {
    "url": "https://en.wikipedia.org/wiki/List_of_UDF_objects_(1\u2013500)",
    "title": "List of UDF objects (1\u2013500)",
    "header": [
      [
        "UDF number",
        []
      ],
      [
        "Object type",
        []
      ],
      [
        "Right ascension ( J2000 )",
        [
          "/wiki/Right_ascension",
          "/wiki/Epoch_(astronomy)"
        ]
      ],
      [
        "Declination ( J2000 )",
        [
          "/wiki/Declination",
          "/wiki/Epoch_(astronomy)"
        ]
      ],
      [
        "Apparent magnitude",
        [
          "/wiki/Apparent_magnitude"
        ]
      ],
      [
        "Redshift",
        [
          "/wiki/Redshift"
        ]
      ]
    ],
    "data": [
      [
        [
          "1",
          []
        ],
        [
          "Galaxy",
          [
            "/wiki/Galaxy"
          ]
        ],
        [
          "03 32 39.72",
          []
        ],
        [
          "\u221227\u00b0 49\u2032 42.5\u2033",
          []
        ],
        [
          "23",
          []
        ],
        [
          "0.53428",
          []
        ]
      ],
      [
        [
          "2",
          []
        ],
        [
          "Unknown",
          []
        ],
        [
          "03 32 39.478",
          []
        ],
        [
          "\u221227\u00b0 49\u2032 45.44\u2033",
          []
        ],
        [
          "30",
          []
        ],
        [
          "~",
          []
        ]
      ],
      [
        [
          "5",
          []
        ],
        [
          "Galaxy",
          [
            "/wiki/Galaxy"
          ]
        ],
        [
          "03 32 39.3684",
          []
        ],
        [
          "\u221227\u00b0 49\u2032 44.007\u2033",
          []
        ],
        [
          "27",
          []
        ],
        [
          "0.69",
          []
        ]
      ],
      [
        [
          "7",
          []
        ],
        [
          "Galaxy",
          [
            "/wiki/Galaxy"
          ]
        ],
        [
          "03 32 39.4512",
          []
        ],
        [
          "\u221227\u00b0 49\u2032 42.945\u2033",
          []
        ],
        [
          "25",
          []
        ],
        [
          "0.61",
          []
        ]
      ],
      [
        [
          "8",
          []
        ],
        [
          "Galaxy",
          [
            "/wiki/Galaxy"
          ]
        ],
        [
          "03 32 39.54334",
          []
        ],
        [
          "\u221227\u00b0 49\u2032 28.3944\u2033",
          []
        ],
        [
          "23",
          []
        ],
        [
          "0.6691",
          []
        ]
      ],
      [
        [
          "13",
          []
        ],
        [
          "Galaxy",
          [
            "/wiki/Galaxy"
          ]
        ],
        [
          "03 32 39.3248",
          []
        ],
        [
          "\u221227\u00b0 49\u2032 39.053\u2033",
          []
        ],
        [
          "25",
          []
        ],
        [
          "0.52",
          []
        ]
      ],
      [
        [
          "14",
          []
        ],
        [
          "Galaxy",
          [
            "/wiki/Galaxy"
          ]
        ],
        [
          "03 32 38.47",
          []
        ],
        [
          "\u221227\u00b0 49\u2032 31.76\u2033",
          []
        ],
        [
          "24",
          []
        ],
        [
          "0.6669",
          []
        ]
      ],
      [
        [
          "15",
          []
        ],
        [
          "Galaxy",
          [
            "/wiki/Galaxy"
          ]
        ],
        [
          "03 32 38.8459",
          []
        ],
        [
          "\u221227\u00b0 49\u2032 30.29\u2033",
          []
        ],
        [
          "27",
          []
        ],
        [
          "4.23",
          []
        ]
      ],
      [
        [
          "19",
          []
        ],
        [
          "Star",
          [
            "/wiki/Star"
          ]
        ],
        [
          "03 32 38.958",
          []
        ],
        [
          "\u221227\u00b0 49\u2032 37.03\u2033",
          []
        ],
        [
          "25",
          []
        ],
        [
          "~",
          []
        ]
      ],
      [
        [
          "21",
          []
        ],
        [
          "Galaxy",
          [
            "/wiki/Galaxy"
          ]
        ],
        [
          "03 32 40.05058",
          []
        ],
        [
          "\u221227\u00b0 49\u2032 37.0776\u2033",
          []
        ],
        [
          "28",
          []
        ],
        [
          "1.4",
          []
        ]
      ],
      [
        [
          "22",
          []
        ],
        [
          "Galaxy",
          [
            "/wiki/Galaxy"
          ]
        ],
        [
          "03 32 38.9566",
          []
        ],
        [
          "\u221227\u00b0 49\u2032 38.328\u2033",
          []
        ],
        [
          "27",
          []
        ],
        [
          "3.23 \u00b1 0.41",
          []
        ]
      ],
      [
        [
          "23",
          []
        ],
        [
          "Galaxy",
          [
            "/wiki/Galaxy"
          ]
        ],
        [
          "03 32 39.883",
          []
        ],
        [
          "\u221227\u00b0 49\u2032 39.43\u2033",
          []
        ],
        [
          "30",
          []
        ],
        [
          "3.982 \u00b1 3.598",
          []
        ]
      ],
      [
        [
          "25",
          []
        ],
        [
          "Galaxy",
          [
            "/wiki/Galaxy"
          ]
        ],
        [
          "03 32 39.903",
          []
        ],
        [
          "\u221227\u00b0 49\u2032 39.27\u2033",
          []
        ],
        [
          "30",
          []
        ],
        [
          "4.128 \u00b1 3.726",
          []
        ]
      ],
      [
        [
          "28",
          []
        ],
        [
          "Galaxy",
          [
            "/wiki/Galaxy"
          ]
        ],
        [
          "03 32 39.565",
          []
        ],
        [
          "\u221227\u00b0 49\u2032 38.04\u2033",
          []
        ],
        [
          "29",
          []
        ],
        [
          "3.615 \u00b1 0.543",
          []
        ]
      ],
      [
        [
          "33",
          []
        ],
        [
          "Galaxy",
          [
            "/wiki/Galaxy"
          ]
        ],
        [
          "03 32 39.1798",
          []
        ],
        [
          "\u221227\u00b0 49\u2032 36.132\u2033",
          []
        ],
        [
          "26",
          []
        ],
        [
          "0.95",
          []
        ]
      ],
      [
        [
          "36",
          []
        ],
        [
          "Galaxy",
          [
            "/wiki/Galaxy"
          ]
        ],
        [
          "03 32 39.8202",
          []
        ],
        [
          "\u221227\u00b0 49\u2032 33.94\u2033",
          []
        ],
        [
          "26",
          []
        ],
        [
          "0.44",
          []
        ]
      ],
      [
        [
          "44",
          []
        ],
        [
          "Galaxy",
          [
            "/wiki/Galaxy"
          ]
        ],
        [
          "03 32 40.314",
          []
        ],
        [
          "\u221227\u00b0 49\u2032 35.52\u2033",
          []
        ],
        [
          "28",
          []
        ],
        [
          "3.612 \u00b1 0.542",
          []
        ]
      ],
      [
        [
          "55",
          []
        ],
        [
          "Galaxy",
          [
            "/wiki/Galaxy"
          ]
        ],
        [
          "03 32 39.0418",
          []
        ],
        [
          "\u221227\u00b0 49\u2032 32.984\u2033",
          []
        ],
        [
          "26",
          []
        ],
        [
          "0.47",
          []
        ]
      ],
      [
        [
          "67",
          []
        ],
        [
          "Galaxy",
          [
            "/wiki/Galaxy"
          ]
        ],
        [
          "03 32 39.531",
          []
        ],
        [
          "\u221227\u00b0 49\u2032 32.61\u2033",
          []
        ],
        [
          "31",
          []
        ],
        [
          "4.683 \u00b1 0.668",
          []
        ]
      ],
      [
        [
          "68",
          []
        ],
        [
          "Galaxy",
          [
            "/wiki/Galaxy"
          ]
        ],
        [
          "03 32 38.8182",
          []
        ],
        [
          "\u221227\u00b0 49\u2032 28.439\u2033",
          []
        ],
        [
          "24",
          []
        ],
        [
          "0.82",
          []
        ]
      ]
    ],
    "section_title": "1\u2013100",
    "section_text": "",
    "uid": "List_of_UDF_objects_(1\u2013500)_0",
    "intro": "This is a list of UDF objects 1-500 from the Hubble Ultra Deep Field (UDF). The Hubble Ultra Deep Field is a small region of the sky in the constellation of Fornax. The data in these tables is from the SIMBAD Astronomical Database, and the apparent magnitude data is from Wikisky."
  },
  "BMW_X3_0": {
    "url": "https://en.wikipedia.org/wiki/BMW_X3",
    "title": "BMW X3",
    "header": [
      [
        "Model",
        []
      ],
      [
        "Year",
        []
      ],
      [
        "Engine code",
        []
      ],
      [
        "Power at rpm",
        []
      ],
      [
        "Torque at rpm",
        []
      ],
      [
        "0-100 km/h ( 0-62 mph ) ( s )",
        []
      ],
      [
        "Top speed",
        []
      ]
    ],
    "data": [
      [
        [
          "2.0i",
          []
        ],
        [
          "2004-2010",
          []
        ],
        [
          "N46B20",
          [
            "/wiki/BMW_N46"
          ]
        ],
        [
          "110 kW ( 148 hp ) at 6200",
          []
        ],
        [
          "200 N\u22c5m ( 148 lbf\u22c5ft ) at 3750",
          []
        ],
        [
          "11.5",
          []
        ],
        [
          "198 km/h ( 123 mph )",
          []
        ]
      ],
      [
        [
          "2.5i",
          []
        ],
        [
          "2004-2006",
          []
        ],
        [
          "M54B25",
          [
            "/wiki/BMW_M54"
          ]
        ],
        [
          "135 kW ( 181 hp ) at 6000",
          []
        ],
        [
          "245 N\u22c5m ( 181 lb\u22c5ft ) at 3500",
          []
        ],
        [
          "8.9 ( MT ) / 9.8 ( AT )",
          [
            "/wiki/Manual_transmission",
            "/wiki/Automatic_transmission"
          ]
        ],
        [
          "208 km/h ( 129 mph )",
          []
        ]
      ],
      [
        [
          "2.5si/ xDrive25i",
          []
        ],
        [
          "2007-2010",
          []
        ],
        [
          "N52B25",
          [
            "/wiki/BMW_N52"
          ]
        ],
        [
          "160 kW ( 215 hp ) at 6500",
          []
        ],
        [
          "250 N\u22c5m ( 184 lbf\u22c5ft ) at 2750-4250",
          []
        ],
        [
          "8.5 ( MT ) / 8.9 ( AT )",
          []
        ],
        [
          "210 km/h ( 130 mph ) ( MT/AT ) 221 km/h ( 137 mph ) ( MT ) * / 220 km/h ( 137 mph ) ( AT ) *",
          []
        ]
      ],
      [
        [
          "3.0i",
          []
        ],
        [
          "2004-2006",
          []
        ],
        [
          "M54B30",
          [
            "/wiki/BMW_M54"
          ]
        ],
        [
          "170 kW ( 228 hp ) at 5900",
          []
        ],
        [
          "300 N\u22c5m ( 221 lbf\u22c5ft ) at 3500",
          []
        ],
        [
          "7.8 ( MT ) / 8.1 ( AT )",
          []
        ],
        [
          "210 km/h ( 130 mph ) ( MT/AT ) 224 km/h ( 139 mph ) ( MT ) * / 210 km/h ( 130 mph ) ( AT ) *",
          []
        ]
      ],
      [
        [
          "3.0si/ xDrive30i",
          []
        ],
        [
          "2007-2010",
          []
        ],
        [
          "N52B30",
          [
            "/wiki/BMW_N52"
          ]
        ],
        [
          "200 kW ( 268 hp ) at 6650",
          []
        ],
        [
          "315 N\u22c5m ( 232 lb\u22c5ft ) at 2750",
          []
        ],
        [
          "7.2 ( MT ) / 7.5 ( AT )",
          []
        ],
        [
          "210 km/h ( 130 mph ) ( AT/MT ) 232 km/h ( 144 mph ) ( AT ) * / 228 km/h ( 142 mph ) ( MT ) *",
          []
        ]
      ]
    ],
    "section_title": "First generation ( E83 ; 2003\u20132010 ) -- Engines",
    "section_text": "Petrol",
    "uid": "BMW_X3_0",
    "intro": "The BMW X3 is a compact luxury crossover SUV manufactured by German automaker BMW since 2003. Based on the BMW 3 Series platform, and now in its third generation, BMW markets the crossover as a Sports Activity Vehicle, the company's proprietary descriptor for its X-line of vehicles. The first generation X3 was designed by BMW in conjunction with Magna Steyr of Graz, Austria - who also manufactured all X3s under contract to BMW. BMW manufactures the second generation X3 at their Spartanburg plant in South Carolina, United States. The third generation of the BMW X3 is also manufactured at BMW South Africa's Rosslyn plant, a facility that recently underwent a major upgrade to prepare for the X3 production. About 76,000 units will be manufactured there annually. Designed to compete with the Mercedes-Benz GLK-Class (renamed GLC-Class since 2016), Audi Q5, Porsche Macan, Jaguar F-Pace, Volvo XC60, Lincoln MKC (renamed Corsair since 2020), Lexus NX, and the Range Rover Velar, it slots below the larger X5 and the Coup\u00e9-like X6, but above the smaller X1 and the X2."
  },
  "OHB_SE_0": {
    "url": "https://en.wikipedia.org/wiki/OHB_SE",
    "title": "OHB SE",
    "header": [
      [
        "Business Unit",
        []
      ],
      [
        "Subsidiary",
        []
      ],
      [
        "Location",
        []
      ],
      [
        "Legal Form",
        []
      ],
      [
        "Share",
        []
      ]
    ],
    "data": [
      [
        [
          "Space System",
          []
        ],
        [
          "OHB System",
          []
        ],
        [
          "Bremen & Oberpfaffenhofen , Germany",
          []
        ],
        [
          "AG",
          []
        ],
        [
          "100%",
          []
        ]
      ],
      [
        [
          "Space System",
          []
        ],
        [
          "OHB Italia",
          []
        ],
        [
          "Milan , Italy",
          []
        ],
        [
          "S.p.A",
          [
            "/wiki/Societ\u00e0_per_azioni"
          ]
        ],
        [
          "100%",
          []
        ]
      ],
      [
        [
          "Space System",
          []
        ],
        [
          "LuxSpace",
          []
        ],
        [
          "Betzdorf , Luxembourg",
          []
        ],
        [
          "S\u00e0rl",
          [
            "/wiki/Soci\u00e9t\u00e9_\u00e0_responsabilit\u00e9_limit\u00e9e"
          ]
        ],
        [
          "100%",
          []
        ]
      ],
      [
        [
          "Space System",
          []
        ],
        [
          "Antwerp Space",
          []
        ],
        [
          "Antwerp , Belgium",
          []
        ],
        [
          "N.V",
          [
            "/wiki/Naamloze_vennootschap"
          ]
        ],
        [
          "100%",
          []
        ]
      ],
      [
        [
          "Space System",
          []
        ],
        [
          "OHB Sweden",
          []
        ],
        [
          "Stockholm , Sweden",
          []
        ],
        [
          "AB",
          [
            "/wiki/Aktiebolag"
          ]
        ],
        [
          "100%",
          []
        ]
      ],
      [
        [
          "Space System",
          []
        ],
        [
          "OHB Czechspace",
          []
        ],
        [
          "Klatovy & Brno , Czech Republic",
          []
        ],
        [
          "s.r.o",
          [
            "/wiki/Spole\u010dnost_s_ru\u010den\u00edm_omezen\u00fdm"
          ]
        ],
        [
          "100%",
          []
        ]
      ],
      [
        [
          "Space System",
          []
        ],
        [
          "OHB Hellas",
          []
        ],
        [
          "Athens , Greece",
          []
        ],
        [
          "mon.E.P.E",
          []
        ],
        [
          "100%",
          []
        ]
      ],
      [
        [
          "Aerospace + Industrial Products",
          []
        ],
        [
          "MT Aerospace",
          []
        ],
        [
          "Augsburg , Germany",
          []
        ],
        [
          "AG",
          []
        ],
        [
          "70%",
          []
        ]
      ],
      [
        [
          "Aerospace + Industrial Products",
          []
        ],
        [
          "MT Mechatronics",
          []
        ],
        [
          "Mainz , Germany",
          []
        ],
        [
          "GmbH",
          [
            "/wiki/Gesellschaft_mit_beschr\u00e4nkter_Haftung"
          ]
        ],
        [
          "70%",
          []
        ]
      ],
      [
        [
          "Aerospace + Industrial Products",
          []
        ],
        [
          "MT Aerospace Guyane",
          []
        ],
        [
          "Kourou , French Guiana",
          []
        ],
        [
          "S.A.S",
          [
            "/wiki/Soci\u00e9t\u00e9_par_actions_simplifi\u00e9e"
          ]
        ],
        [
          "70%",
          []
        ]
      ],
      [
        [
          "Aerospace + Industrial Products",
          []
        ],
        [
          "OHB Teledata",
          []
        ],
        [
          "Bremen , Germany",
          []
        ],
        [
          "GmbH",
          [
            "/wiki/Gesellschaft_mit_beschr\u00e4nkter_Haftung"
          ]
        ],
        [
          "100%",
          []
        ]
      ],
      [
        [
          "Aerospace + Industrial Products",
          []
        ],
        [
          "OHB Digital Services",
          []
        ],
        [
          "Bremen , Germany",
          []
        ],
        [
          "GmbH",
          [
            "/wiki/Gesellschaft_mit_beschr\u00e4nkter_Haftung"
          ]
        ],
        [
          "74.9%",
          []
        ]
      ]
    ],
    "section_title": "Organisation",
    "section_text": "OHB is set up as a Societas Europae \u2013 a European company . The OHB SE group encompasses subsidiaries across the European Union .",
    "uid": "OHB_SE_0",
    "intro": "OHB SE is a European multinational technology corporation. Headquartered in Bremen, Germany, the corporation consists of the two business divisions Space Systems and Aerospace + Industrial Products. A key product of the corporation is fully integrated spacecraft. At present OHB is the third largest corporation in Europe's space sector. The company OHB System AG is a major constituent of the OHB corporation. This company was founded in 1958 as a marine systems outfitter. The name OHB originates from this time; the name is an initialism of Otto Hydraulic Bremen. However the activities of the company shifted toward space technology in the 1980s after the couple Christa Fuchs and Manfred Fuchs took over ownership of the company."
  },
  "2006\u201307_in_Danish_football_0": {
    "url": "https://en.wikipedia.org/wiki/2006\u201307_in_Danish_football",
    "title": "2006\u201307 in Danish football",
    "header": [
      [
        "Date",
        []
      ],
      [
        "Venue",
        []
      ],
      [
        "Opponents",
        []
      ],
      [
        "Score*",
        []
      ],
      [
        "Competition",
        []
      ],
      [
        "Denmark scorers",
        []
      ],
      [
        "Report Tickets",
        []
      ]
    ],
    "data": [
      [
        [
          "16 August 2006",
          []
        ],
        [
          "Fionia Park , Odense ( H )",
          [
            "/wiki/Odense_Stadium",
            "/wiki/Odense"
          ]
        ],
        [
          "Poland",
          [
            "/wiki/Poland_national_football_team"
          ]
        ],
        [
          "2-0",
          []
        ],
        [
          "F",
          [
            "/wiki/Exhibition_game"
          ]
        ],
        [
          "Nicklas Bendtner , Dennis Rommedahl",
          [
            "/wiki/Nicklas_Bendtner",
            "/wiki/Dennis_Rommedahl"
          ]
        ],
        [
          "Report UEFA",
          []
        ]
      ],
      [
        [
          "1 September 2006",
          []
        ],
        [
          "Br\u00f8ndby Stadium , Br\u00f8ndby ( H )",
          [
            "/wiki/Br\u00f8ndby_Stadium",
            "/wiki/Br\u00f8ndby_Municipality"
          ]
        ],
        [
          "Portugal",
          [
            "/wiki/Portugal_national_football_team"
          ]
        ],
        [
          "4-2",
          []
        ],
        [
          "F",
          [
            "/wiki/Exhibition_game"
          ]
        ],
        [
          "Jon Dahl Tomasson , Thomas Kahlenberg , Martin J\u00f8rgensen , Nicklas Bendtner",
          [
            "/wiki/Jon_Dahl_Tomasson",
            "/wiki/Thomas_Kahlenberg",
            "/wiki/Martin_J\u00f8rgensen",
            "/wiki/Nicklas_Bendtner"
          ]
        ],
        [
          "Report UEFA",
          []
        ]
      ],
      [
        [
          "6 September 2006",
          []
        ],
        [
          "Laugardalsv\u00f6llur , Reykjav\u00edk ( A )",
          [
            "/wiki/Laugardalsv\u00f6llur",
            "/wiki/Reykjav\u00edk"
          ]
        ],
        [
          "Iceland",
          [
            "/wiki/Iceland_national_football_team"
          ]
        ],
        [
          "2-0",
          []
        ],
        [
          "ECQF",
          [
            "/wiki/UEFA_Euro_2008_qualifying"
          ]
        ],
        [
          "Dennis Rommedahl , Jon Dahl Tomasson",
          [
            "/wiki/Dennis_Rommedahl",
            "/wiki/Jon_Dahl_Tomasson"
          ]
        ],
        [
          "Report UEFA",
          []
        ]
      ],
      [
        [
          "7 October 2006",
          []
        ],
        [
          "Parken Stadium , Copenhagen ( H )",
          [
            "/wiki/Parken_Stadium",
            "/wiki/Copenhagen"
          ]
        ],
        [
          "Northern Ireland",
          [
            "/wiki/Northern_Ireland_national_football_team"
          ]
        ],
        [
          "0-0",
          []
        ],
        [
          "ECQF",
          [
            "/wiki/UEFA_Euro_2008_qualifying"
          ]
        ],
        [
          "",
          []
        ],
        [
          "Report UEFA",
          []
        ]
      ],
      [
        [
          "11 October 2006",
          []
        ],
        [
          "Rheinpark Stadion , Vaduz ( A )",
          [
            "/wiki/Rheinpark_Stadion",
            "/wiki/Vaduz"
          ]
        ],
        [
          "Liechtenstein",
          [
            "/wiki/Liechtenstein_national_football_team"
          ]
        ],
        [
          "4-0",
          []
        ],
        [
          "ECQF",
          [
            "/wiki/UEFA_Euro_2008_qualifying"
          ]
        ],
        [
          "Daniel Jensen , Michael Gravgaard , Jon Dahl Tomasson ( 2 )",
          [
            "/wiki/Daniel_Jensen",
            "/wiki/Michael_Gravgaard",
            "/wiki/Jon_Dahl_Tomasson"
          ]
        ],
        [
          "Report UEFA",
          []
        ]
      ],
      [
        [
          "15 November 2006",
          []
        ],
        [
          "Toyota Arena , Prague ( A )",
          [
            "/wiki/Stadion_Letn\u00e1",
            "/wiki/Prague"
          ]
        ],
        [
          "Czech Republic",
          [
            "/wiki/Czech_Republic_national_football_team"
          ]
        ],
        [
          "1-1",
          []
        ],
        [
          "F",
          [
            "/wiki/Exhibition_game"
          ]
        ],
        [
          "Peter L\u00f8venkrands",
          [
            "/wiki/Peter_L\u00f8venkrands"
          ]
        ],
        [
          "Report UEFA",
          []
        ]
      ],
      [
        [
          "20 January 2007",
          []
        ],
        [
          "Home Depot Center , Carson , California ( A )",
          [
            "/wiki/Dignity_Health_Sports_Park",
            "/wiki/Carson,_California"
          ]
        ],
        [
          "United States",
          [
            "/wiki/United_States_men's_national_soccer_team"
          ]
        ],
        [
          "1-3",
          []
        ],
        [
          "LT",
          []
        ],
        [
          "Dennis S\u00f8rensen",
          [
            "/wiki/Dennis_S\u00f8rensen"
          ]
        ],
        [
          "Report UEFA",
          []
        ]
      ],
      [
        [
          "24 January 2007",
          []
        ],
        [
          "Estadio Cuscatl\u00e1n , San Salvador ( A )",
          [
            "/wiki/Estadio_Cuscatl\u00e1n",
            "/wiki/San_Salvador"
          ]
        ],
        [
          "El Salvador",
          [
            "/wiki/El_Salvador_national_football_team"
          ]
        ],
        [
          "0-1",
          []
        ],
        [
          "LT",
          []
        ],
        [
          "",
          []
        ],
        [
          "Report UEFA",
          []
        ]
      ],
      [
        [
          "27 January 2007",
          []
        ],
        [
          "Estadio Tiburcio Car\u00edas Andino , Tegucigalpa ( A )",
          [
            "/wiki/Estadio_Tiburcio_Car\u00edas_Andino",
            "/wiki/Tegucigalpa"
          ]
        ],
        [
          "Honduras",
          [
            "/wiki/Honduras_national_football_team"
          ]
        ],
        [
          "1-1",
          []
        ],
        [
          "LT",
          []
        ],
        [
          "Morten Nordstrand",
          [
            "/wiki/Morten_Nordstrand"
          ]
        ],
        [
          "",
          []
        ]
      ],
      [
        [
          "7 February 2007",
          []
        ],
        [
          "Loftus Road , London ( N )",
          [
            "/wiki/Loftus_Road"
          ]
        ],
        [
          "Australia",
          [
            "/wiki/Australia_national_soccer_team"
          ]
        ],
        [
          "3-1",
          []
        ],
        [
          "F",
          [
            "/wiki/Exhibition_game"
          ]
        ],
        [
          "Jon Dahl Tomasson ( 2 ) , Daniel Jensen",
          [
            "/wiki/Jon_Dahl_Tomasson",
            "/wiki/Daniel_Jensen"
          ]
        ],
        [
          "",
          []
        ]
      ],
      [
        [
          "24 March 2007",
          []
        ],
        [
          "Estadio Santiago Bernab\u00e9u , Madrid ( A )",
          [
            "/wiki/Santiago_Bernab\u00e9u_Stadium",
            "/wiki/Madrid"
          ]
        ],
        [
          "Spain",
          [
            "/wiki/Spain_national_football_team"
          ]
        ],
        [
          "1-2",
          []
        ],
        [
          "ECQF",
          [
            "/wiki/UEFA_Euro_2008_qualifying"
          ]
        ],
        [
          "Michael Gravgaard",
          [
            "/wiki/Michael_Gravgaard"
          ]
        ],
        [
          "",
          []
        ]
      ],
      [
        [
          "28 March 2007",
          []
        ],
        [
          "MSV Arena , Duisburg ( A )",
          [
            "/wiki/MSV-Arena",
            "/wiki/Duisburg"
          ]
        ],
        [
          "Germany",
          [
            "/wiki/Germany_national_football_team"
          ]
        ],
        [
          "1-0",
          []
        ],
        [
          "F",
          [
            "/wiki/Exhibition_game"
          ]
        ],
        [
          "Nicklas Bendtner",
          [
            "/wiki/Nicklas_Bendtner"
          ]
        ],
        [
          "",
          []
        ]
      ],
      [
        [
          "2 June 2007",
          []
        ],
        [
          "Parken Stadium , Copenhagen ( H )",
          [
            "/wiki/Parken_Stadium",
            "/wiki/Copenhagen"
          ]
        ],
        [
          "Sweden",
          [
            "/wiki/Sweden_national_football_team"
          ]
        ],
        [
          "0-3 ( a )",
          [
            "/wiki/Denmark_v_Sweden_(UEFA_Euro_2008_qualifying)"
          ]
        ],
        [
          "ECQF",
          [
            "/wiki/UEFA_Euro_2008_qualifying"
          ]
        ],
        [
          "Daniel Agger , Jon Dahl Tomasson , Leon Andreasen",
          [
            "/wiki/Daniel_Agger",
            "/wiki/Jon_Dahl_Tomasson",
            "/wiki/Leon_Andreasen"
          ]
        ],
        [
          "",
          []
        ]
      ],
      [
        [
          "6 June 2007",
          []
        ],
        [
          "Skonto Stadions , Riga ( A )",
          [
            "/wiki/Skonto_Stadium",
            "/wiki/Riga"
          ]
        ],
        [
          "Latvia",
          [
            "/wiki/Latvia_national_football_team"
          ]
        ],
        [
          "2-0",
          []
        ],
        [
          "ECQF",
          [
            "/wiki/UEFA_Euro_2008_qualifying"
          ]
        ],
        [
          "Dennis Rommedahl ( 2 )",
          [
            "/wiki/Dennis_Rommedahl"
          ]
        ],
        [
          "",
          []
        ]
      ]
    ],
    "section_title": "National team results",
    "section_text": "For all-time list , see List of Denmark national football team results .",
    "uid": "2006\u201307_in_Danish_football_0",
    "intro": "This is the 2006-07 season in Danish football, starting in July 2006 and ending in June 2007."
  },
  "UNESCO_3": {
    "url": "https://en.wikipedia.org/wiki/UNESCO",
    "title": "UNESCO",
    "header": [
      [
        "Name",
        []
      ],
      [
        "Country",
        []
      ],
      [
        "Term",
        []
      ]
    ],
    "data": [
      [
        [
          "Audrey Azoulay",
          [
            "/wiki/Audrey_Azoulay"
          ]
        ],
        [
          "France",
          [
            "/wiki/France"
          ]
        ],
        [
          "2017-present",
          []
        ]
      ],
      [
        [
          "Irina Bokova",
          [
            "/wiki/Irina_Bokova"
          ]
        ],
        [
          "Bulgaria",
          [
            "/wiki/Bulgaria"
          ]
        ],
        [
          "2009-2017",
          []
        ]
      ],
      [
        [
          "Ko\u00efchiro Matsuura",
          [
            "/wiki/K\u014dichir\u014d_Matsuura"
          ]
        ],
        [
          "Japan",
          [
            "/wiki/Japan"
          ]
        ],
        [
          "1999-2009",
          []
        ]
      ],
      [
        [
          "Federico Mayor Zaragoza",
          [
            "/wiki/Federico_Mayor_Zaragoza"
          ]
        ],
        [
          "Spain",
          [
            "/wiki/Spain"
          ]
        ],
        [
          "1987-99",
          []
        ]
      ],
      [
        [
          "Amadou-Mahtar M'Bow",
          [
            "/wiki/Amadou-Mahtar_M'Bow"
          ]
        ],
        [
          "Senegal",
          [
            "/wiki/Senegal"
          ]
        ],
        [
          "1974-87",
          []
        ]
      ],
      [
        [
          "Ren\u00e9 Maheu",
          [
            "/wiki/Ren\u00e9_Maheu"
          ]
        ],
        [
          "France",
          [
            "/wiki/France"
          ]
        ],
        [
          "1961-74 ; acting 1961",
          [
            "/wiki/Acting_(law)"
          ]
        ]
      ],
      [
        [
          "Vittorino Veronese",
          [
            "/wiki/Vittorino_Veronese"
          ]
        ],
        [
          "Italy",
          [
            "/wiki/Italy"
          ]
        ],
        [
          "1958-61",
          []
        ]
      ],
      [
        [
          "Luther Evans",
          [
            "/wiki/Luther_H._Evans"
          ]
        ],
        [
          "United States",
          [
            "/wiki/United_States"
          ]
        ],
        [
          "1953-58",
          []
        ]
      ],
      [
        [
          "John Wilkinson Taylor",
          [
            "/wiki/John_Wilkinson_Taylor_(educator)"
          ]
        ],
        [
          "United States",
          [
            "/wiki/United_States"
          ]
        ],
        [
          "acting 1952-53",
          [
            "/wiki/Acting_(law)"
          ]
        ]
      ],
      [
        [
          "Jaime Torres Bodet",
          [
            "/wiki/Jaime_Torres_Bodet"
          ]
        ],
        [
          "Mexico",
          [
            "/wiki/Mexico"
          ]
        ],
        [
          "1948-52",
          []
        ]
      ],
      [
        [
          "Julian Huxley",
          [
            "/wiki/Julian_Huxley"
          ]
        ],
        [
          "United Kingdom",
          [
            "/wiki/United_Kingdom"
          ]
        ],
        [
          "1946-48",
          []
        ]
      ]
    ],
    "section_title": "Governing bodies -- Director-General",
    "section_text": "There has been no elected UNESCO Director-General from Southeast Asia , South Asia , Central and North Asia , Middle East , North Africa , East Africa , Central Africa , South Africa , Australia-Oceania , and South America since inception . The Directors-General of UNESCO came from West Europe ( 5 ) , Central America ( 1 ) , North America ( 2 ) , West Africa ( 1 ) , East Asia ( 1 ) , and East Europe ( 1 ) . Out of the 11 Directors-General since inception , women have held the position only twice . Qatar , the Philippines , and Iran are proposing for a Director-General bid by 2021 or 2025 . There have never been a Middle Eastern or Southeast Asian UNESCO Director-General since inception . The ASEAN bloc and some Pacific and Latin American nations support the possible bid of the Philippines , which is culturally Asian , Oceanic , and Latin . Qatar and Iran , on the other hand , have fragmented support in the Middle East . Egypt , Israel , and Madagascar are also vying for the position but have yet to express a direct or indirect proposal . Both Qatar and Egypt lost in the 2017 bid against France . The list of the Directors-General of UNESCO since its establishment in 1946 is as follows : [ 95 ]",
    "uid": "UNESCO_3",
    "intro": "The United Nations Educational, Scientific and Cultural Organization (UNESCO; French: Organisation des Nations unies pour l'\u00e9ducation, la science et la culture) is a specialized agency of the United Nations (UN) based in Paris, France. Its declared purpose is to contribute to promoting international collaboration in education, sciences, and culture in order to increase universal respect for justice, the rule of law, and human rights along with fundamental freedom proclaimed in the United Nations Charter. It is the successor of the League of Nations' International Committee on Intellectual Cooperation. UNESCO has 193 member states and 11 associate members. Most of its field offices are cluster offices that cover three or more countries; national and regional offices also exist. UNESCO pursues its objectives through five major programs: education, natural sciences, social/human sciences, culture and communication/information. Projects sponsored by UNESCO include literacy, technical, and teacher-training programs, international science programs, the promotion of independent media and freedom of the press, regional and cultural history projects, the promotion of cultural diversity, translations of world literature, international cooperation agreements to secure the world's cultural and natural heritage (World Heritage Sites) and to preserve human rights, and attempts to bridge the worldwide digital divide. It is also a member of the United Nations Development Group. UNESCO's aim is to contribute to the building of peace, the eradication of poverty, sustainable development and intercultural dialogue through education, the sciences, culture, communication and information. Other priorities of the organization include attaining quality Education For All and lifelong learning, addressing emerging social and ethical challenges, fostering cultural diversity, a culture of peace and building inclusive knowledge societies through information and communication. The broad goals and objectives of the international community - as set out in the internationally agreed development goals, including the Millennium Development Goals (MDGs) - underpin all UNESCO strategies and activities."
  },
  "2008\u201309_Inter_Milan_season_1": {
    "url": "https://en.wikipedia.org/wiki/2008\u201309_Inter_Milan_season",
    "title": "2008\u201309 Inter Milan season",
    "header": [
      [
        "N",
        []
      ],
      [
        "Pos",
        []
      ],
      [
        "Name",
        []
      ],
      [
        "Age",
        []
      ],
      [
        "EU",
        [
          "/wiki/Citizenship_of_the_European_Union"
        ]
      ],
      [
        "Moving to",
        []
      ],
      [
        "Type",
        []
      ],
      [
        "Transfer window",
        [
          "/wiki/Transfer_window"
        ]
      ],
      [
        "Transfer fee",
        [
          "/wiki/Transfer_(association_football)"
        ]
      ]
    ],
    "data": [
      [
        [
          "",
          []
        ],
        [
          "DF",
          [
            "/wiki/Defender_(association_football)"
          ]
        ],
        [
          "Ceccarelli",
          [
            "/wiki/Luca_Ceccarelli_(footballer,_born_20_March_1983)"
          ]
        ],
        [
          "26",
          []
        ],
        [
          "EU",
          []
        ],
        [
          "Milan",
          [
            "/wiki/A.C._Milan"
          ]
        ],
        [
          "Co-ownership Termination",
          []
        ],
        [
          "Summer",
          []
        ],
        [
          "",
          []
        ]
      ],
      [
        [
          "",
          []
        ],
        [
          "DF",
          [
            "/wiki/Defender_(association_football)"
          ]
        ],
        [
          "Andreolli",
          [
            "/wiki/Marco_Andreolli"
          ]
        ],
        [
          "23",
          []
        ],
        [
          "EU",
          []
        ],
        [
          "Roma",
          [
            "/wiki/A.S._Roma"
          ]
        ],
        [
          "Co-ownership Termination",
          []
        ],
        [
          "Summer",
          []
        ],
        [
          "",
          []
        ]
      ],
      [
        [
          "",
          []
        ],
        [
          "GK",
          [
            "/wiki/Goalkeeper_(association_football)"
          ]
        ],
        [
          "Cordaz",
          [
            "/wiki/Alex_Cordaz"
          ]
        ],
        [
          "26",
          []
        ],
        [
          "EU",
          []
        ],
        [
          "Treviso",
          [
            "/wiki/A.C.D._Treviso"
          ]
        ],
        [
          "Co-ownership Termination",
          []
        ],
        [
          "Summer",
          []
        ],
        [
          "",
          []
        ]
      ],
      [
        [
          "",
          []
        ],
        [
          "MF",
          [
            "/wiki/Midfielder"
          ]
        ],
        [
          "Maa Boumsong",
          [
            "/wiki/Daniel_Maa_Boumsong"
          ]
        ],
        [
          "22",
          []
        ],
        [
          "Non-EU",
          []
        ],
        [
          "Treviso",
          [
            "/wiki/A.C.D._Treviso"
          ]
        ],
        [
          "Co-ownership Termination",
          []
        ],
        [
          "Summer",
          []
        ],
        [
          "",
          []
        ]
      ],
      [
        [
          "",
          []
        ],
        [
          "FW",
          [
            "/wiki/Forward_(association_football)"
          ]
        ],
        [
          "Eliakwu",
          [
            "/wiki/Isah_Eliakwu"
          ]
        ],
        [
          "23",
          []
        ],
        [
          "Non-EU",
          []
        ],
        [
          "Triestina",
          [
            "/wiki/Unione_Triestina_2012_S.S.D."
          ]
        ],
        [
          "Co-ownership Termination",
          []
        ],
        [
          "Summer",
          []
        ],
        [
          "",
          []
        ]
      ],
      [
        [
          "29",
          []
        ],
        [
          "FW",
          [
            "/wiki/Forward_(association_football)"
          ]
        ],
        [
          "Suazo",
          [
            "/wiki/David_Suazo"
          ]
        ],
        [
          "28",
          []
        ],
        [
          "EU",
          []
        ],
        [
          "Benfica",
          [
            "/wiki/S.L._Benfica"
          ]
        ],
        [
          "Loan",
          []
        ],
        [
          "Summer",
          []
        ],
        [
          "Free",
          [
            "/wiki/Free_transfer_(association_football)"
          ]
        ]
      ],
      [
        [
          "28",
          []
        ],
        [
          "MF",
          [
            "/wiki/Midfielder"
          ]
        ],
        [
          "Maniche",
          [
            "/wiki/Maniche"
          ]
        ],
        [
          "30",
          []
        ],
        [
          "EU",
          []
        ],
        [
          "Atl\u00e9tico Madrid",
          [
            "/wiki/Atl\u00e9tico_Madrid"
          ]
        ],
        [
          "Loan End",
          []
        ],
        [
          "Summer",
          []
        ],
        [
          "Free",
          [
            "/wiki/Free_transfer_(association_football)"
          ]
        ]
      ],
      [
        [
          "21",
          []
        ],
        [
          "MF",
          [
            "/wiki/Midfielder"
          ]
        ],
        [
          "Solari",
          [
            "/wiki/Santiago_Solari"
          ]
        ],
        [
          "31",
          []
        ],
        [
          "EU",
          []
        ],
        [
          "San Lorenzo",
          [
            "/wiki/San_Lorenzo_de_Almagro"
          ]
        ],
        [
          "Contract expired",
          []
        ],
        [
          "Summer",
          []
        ],
        [
          "Free",
          [
            "/wiki/Free_transfer_(association_football)"
          ]
        ]
      ],
      [
        [
          "20",
          []
        ],
        [
          "MF",
          [
            "/wiki/Midfielder"
          ]
        ],
        [
          "Recoba",
          [
            "/wiki/\u00c1lvaro_Recoba"
          ]
        ],
        [
          "32",
          []
        ],
        [
          "EU",
          []
        ],
        [
          "Panionios",
          [
            "/wiki/Panionios_G.S.S."
          ]
        ],
        [
          "Contract expired",
          []
        ],
        [
          "Summer",
          []
        ],
        [
          "Free",
          [
            "/wiki/Free_transfer_(association_football)"
          ]
        ]
      ],
      [
        [
          "31",
          []
        ],
        [
          "MF",
          [
            "/wiki/Midfielder"
          ]
        ],
        [
          "C\u00e9sar",
          [
            "/wiki/C\u00e9sar_Aparecido_Rodrigues"
          ]
        ],
        [
          "33",
          []
        ],
        [
          "EU",
          []
        ],
        [
          "Bologna",
          [
            "/wiki/Bologna_F.C._1909"
          ]
        ],
        [
          "Released",
          []
        ],
        [
          "Summer",
          []
        ],
        [
          "Free",
          [
            "/wiki/Free_transfer_(association_football)"
          ]
        ]
      ],
      [
        [
          "",
          []
        ],
        [
          "MF",
          [
            "/wiki/Midfielder"
          ]
        ],
        [
          "Filkor",
          [
            "/wiki/Attila_Filkor"
          ]
        ],
        [
          "19",
          []
        ],
        [
          "EU",
          []
        ],
        [
          "Sassuolo",
          [
            "/wiki/U.S._Sassuolo_Calcio"
          ]
        ],
        [
          "Loan",
          []
        ],
        [
          "Summer",
          []
        ],
        [
          "N/A",
          []
        ]
      ],
      [
        [
          "",
          []
        ],
        [
          "FW",
          [
            "/wiki/Forward_(association_football)"
          ]
        ],
        [
          "Ribas",
          [
            "/wiki/Sebasti\u00e1n_Ribas"
          ]
        ],
        [
          "20",
          []
        ],
        [
          "EU",
          []
        ],
        [
          "Dijon",
          [
            "/wiki/Dijon_FCO"
          ]
        ],
        [
          "Transfer",
          []
        ],
        [
          "Summer",
          []
        ],
        [
          "undisclosed",
          []
        ]
      ],
      [
        [
          "30",
          []
        ],
        [
          "MF",
          [
            "/wiki/Midfielder"
          ]
        ],
        [
          "Pel\u00e9",
          [
            "/wiki/Pel\u00e9_(footballer,_born_1987)"
          ]
        ],
        [
          "20",
          []
        ],
        [
          "EU",
          []
        ],
        [
          "Porto",
          [
            "/wiki/FC_Porto"
          ]
        ],
        [
          "Trade",
          []
        ],
        [
          "Summer",
          []
        ],
        [
          "Included in Quaresma transfer",
          [
            "/wiki/Ricardo_Quaresma"
          ]
        ]
      ],
      [
        [
          "15",
          []
        ],
        [
          "MF",
          [
            "/wiki/Midfielder"
          ]
        ],
        [
          "Dacourt",
          [
            "/wiki/Olivier_Dacourt"
          ]
        ],
        [
          "25",
          []
        ],
        [
          "EU",
          []
        ],
        [
          "Fulham",
          [
            "/wiki/Fulham_F.C."
          ]
        ],
        [
          "Loan",
          []
        ],
        [
          "Winter",
          []
        ],
        [
          "Free",
          [
            "/wiki/Free_transfer_(association_football)"
          ]
        ]
      ],
      [
        [
          "77",
          []
        ],
        [
          "MF",
          [
            "/wiki/Midfielder"
          ]
        ],
        [
          "Quaresma",
          [
            "/wiki/Ricardo_Quaresma"
          ]
        ],
        [
          "25",
          []
        ],
        [
          "EU",
          []
        ],
        [
          "Chelsea",
          [
            "/wiki/Chelsea_F.C."
          ]
        ],
        [
          "Loan",
          []
        ],
        [
          "Winter",
          []
        ],
        [
          "Free",
          [
            "/wiki/Free_transfer_(association_football)"
          ]
        ]
      ],
      [
        [
          "51",
          []
        ],
        [
          "DF",
          [
            "/wiki/Defender_(association_football)"
          ]
        ],
        [
          "Bonucci",
          [
            "/wiki/Leonardo_Bonucci"
          ]
        ],
        [
          "21",
          []
        ],
        [
          "EU",
          []
        ],
        [
          "Pisa",
          [
            "/wiki/A.C._Pisa_1909"
          ]
        ],
        [
          "Loan",
          []
        ],
        [
          "Winter",
          []
        ],
        [
          "N/A",
          []
        ]
      ],
      [
        [
          "",
          []
        ],
        [
          "MF",
          [
            "/wiki/Midfielder"
          ]
        ],
        [
          "Maaroufi",
          [
            "/wiki/Ibrahim_Maaroufi"
          ]
        ],
        [
          "20",
          []
        ],
        [
          "EU",
          []
        ],
        [
          "Vicenza",
          [
            "/wiki/L.R._Vicenza_Virtus"
          ]
        ],
        [
          "Co-ownership",
          []
        ],
        [
          "Winter",
          []
        ],
        [
          "undisclosed",
          []
        ]
      ],
      [
        [
          "",
          []
        ],
        [
          "GK",
          [
            "/wiki/Goalkeeper_(association_football)"
          ]
        ],
        [
          "Viviano",
          [
            "/wiki/Emiliano_Viviano"
          ]
        ],
        [
          "23",
          []
        ],
        [
          "EU",
          []
        ],
        [
          "Brescia",
          [
            "/wiki/Brescia_Calcio"
          ]
        ],
        [
          "Loan",
          []
        ],
        [
          "Winter",
          []
        ],
        [
          "N/A",
          []
        ]
      ],
      [
        [
          "10",
          []
        ],
        [
          "FW",
          [
            "/wiki/Forward_(association_football)"
          ]
        ],
        [
          "Adriano",
          [
            "/wiki/Adriano_(footballer,_born_1982)"
          ]
        ],
        [
          "27",
          []
        ],
        [
          "Non-EU",
          []
        ],
        [
          "Flamengo",
          [
            "/wiki/Clube_de_Regatas_do_Flamengo"
          ]
        ],
        [
          "Released",
          []
        ],
        [
          "Winter",
          []
        ],
        [
          "Free",
          [
            "/wiki/Free_transfer_(association_football)"
          ]
        ]
      ]
    ],
    "section_title": "Players -- Players transfer",
    "section_text": "",
    "uid": "2008\u201309_Inter_Milan_season_1",
    "intro": "The 2008-09 season was Football Club Internazionale Milano's 100th in existence and 93th consecutive season in the top flight of Italian football."
  },
  "2018\u201319_Swiss_Super_League_0": {
    "url": "https://en.wikipedia.org/wiki/2018\u201319_Swiss_Super_League",
    "title": "2018\u201319 Swiss Super League",
    "header": [
      [
        "Club",
        []
      ],
      [
        "Location",
        []
      ],
      [
        "Stadium",
        []
      ],
      [
        "Capacity",
        []
      ]
    ],
    "data": [
      [
        [
          "Basel",
          [
            "/wiki/FC_Basel"
          ]
        ],
        [
          "Basel",
          [
            "/wiki/Basel"
          ]
        ],
        [
          "St. Jakob-Park",
          [
            "/wiki/St._Jakob-Park"
          ]
        ],
        [
          "37,994",
          []
        ]
      ],
      [
        [
          "Grasshopper",
          [
            "/wiki/Grasshopper_Club_Z\u00fcrich"
          ]
        ],
        [
          "Z\u00fcrich",
          [
            "/wiki/Z\u00fcrich"
          ]
        ],
        [
          "Letzigrund",
          [
            "/wiki/Letzigrund"
          ]
        ],
        [
          "26,104",
          []
        ]
      ],
      [
        [
          "Xamax",
          []
        ],
        [
          "Neuch\u00e2tel",
          [
            "/wiki/Neuch\u00e2tel"
          ]
        ],
        [
          "Stade de la Maladi\u00e8re",
          [
            "/wiki/Stade_de_la_Maladi\u00e8re"
          ]
        ],
        [
          "11,997",
          []
        ]
      ],
      [
        [
          "Lugano",
          [
            "/wiki/FC_Lugano"
          ]
        ],
        [
          "Lugano",
          [
            "/wiki/Lugano"
          ]
        ],
        [
          "Stadio Cornaredo",
          [
            "/wiki/Cornaredo_Stadium"
          ]
        ],
        [
          "6,390",
          []
        ]
      ],
      [
        [
          "Luzern",
          [
            "/wiki/FC_Luzern"
          ]
        ],
        [
          "Lucerne",
          [
            "/wiki/Lucerne"
          ]
        ],
        [
          "Swissporarena",
          [
            "/wiki/Swissporarena"
          ]
        ],
        [
          "16,490",
          []
        ]
      ],
      [
        [
          "Sion",
          [
            "/wiki/FC_Sion"
          ]
        ],
        [
          "Sion",
          [
            "/wiki/Sion,_Switzerland"
          ]
        ],
        [
          "Stade Tourbillon",
          [
            "/wiki/Stade_Tourbillon"
          ]
        ],
        [
          "14,283",
          []
        ]
      ],
      [
        [
          "St. Gallen",
          [
            "/wiki/FC_St._Gallen"
          ]
        ],
        [
          "St. Gallen",
          [
            "/wiki/St._Gallen"
          ]
        ],
        [
          "kybunpark",
          [
            "/wiki/Kybunpark"
          ]
        ],
        [
          "19,456",
          []
        ]
      ],
      [
        [
          "Thun",
          [
            "/wiki/FC_Thun"
          ]
        ],
        [
          "Thun",
          [
            "/wiki/Thun"
          ]
        ],
        [
          "Stockhorn Arena",
          [
            "/wiki/Stockhorn_Arena"
          ]
        ],
        [
          "10,014",
          []
        ]
      ],
      [
        [
          "Young Boys",
          [
            "/wiki/BSC_Young_Boys"
          ]
        ],
        [
          "Bern",
          [
            "/wiki/Bern"
          ]
        ],
        [
          "Stade de Suisse",
          [
            "/wiki/Stade_de_Suisse"
          ]
        ],
        [
          "31,789",
          []
        ]
      ],
      [
        [
          "Z\u00fcrich",
          [
            "/wiki/FC_Z\u00fcrich"
          ]
        ],
        [
          "Z\u00fcrich",
          [
            "/wiki/Z\u00fcrich"
          ]
        ],
        [
          "Letzigrund",
          [
            "/wiki/Letzigrund"
          ]
        ],
        [
          "26,104",
          []
        ]
      ]
    ],
    "section_title": "Teams -- Stadia and locations",
    "section_text": "BaselGrasshopperLuganoLuzernXamaxSionSt . GallenThunYoung BoysZ\u00fcrich Location of the 2018\u201319 Swiss Super League teams",
    "uid": "2018\u201319_Swiss_Super_League_0",
    "intro": "The 2018-19 Swiss Super League (referred to as the Raiffeisen Super League for sponsoring reasons) was the 122nd season of top-tier competitive football in Switzerland and the 16th under its current name and format. A total of 10 teams competed in the league: the 9 best teams from the 2017-18 season and the 2017-18 Swiss Challenge League champion Xamax. The season started on the weekend of 21-22 July 2018 and concluded on 25 May 2019 with a break between 17 December 2018 and 2 February 2019. In May 2018, the Swiss Football League voted in favor of reintroducing the relegation play-offs, starting from the 2018-19 season. At the end of the season, the 9th-placed team of the Swiss Super League will face the 2nd-placed team of the Swiss Challenge League in a two-legged play-off to determine which of the two will compete in the Super League the following season."
  },
  "2004\u201305_Aberdeen_F.C._season_1": {
    "url": "https://en.wikipedia.org/wiki/2004\u201305_Aberdeen_F.C._season",
    "title": "2004\u201305 Aberdeen F.C. season",
    "header": [
      [
        "Round",
        []
      ],
      [
        "Date",
        []
      ],
      [
        "Opponent",
        []
      ],
      [
        "H/A",
        []
      ],
      [
        "Score",
        []
      ],
      [
        "Aberdeen Scorer ( s )",
        []
      ],
      [
        "Attendance",
        []
      ],
      [
        "Report",
        []
      ]
    ],
    "data": [
      [
        [
          "1",
          []
        ],
        [
          "7 August",
          []
        ],
        [
          "Rangers",
          [
            "/wiki/Rangers_F.C."
          ]
        ],
        [
          "H",
          [
            "/wiki/Pittodrie_Stadium"
          ]
        ],
        [
          "0-0",
          []
        ],
        [
          "",
          []
        ],
        [
          "19,028",
          []
        ],
        [
          "AFC Heritage",
          []
        ]
      ],
      [
        [
          "2",
          []
        ],
        [
          "14 August",
          []
        ],
        [
          "Heart of Midlothian",
          [
            "/wiki/Heart_of_Midlothian_F.C."
          ]
        ],
        [
          "A",
          [
            "/wiki/Tynecastle_Park"
          ]
        ],
        [
          "0-0",
          []
        ],
        [
          "",
          []
        ],
        [
          "13,684",
          []
        ],
        [
          "AFC Heritage",
          []
        ]
      ],
      [
        [
          "3",
          []
        ],
        [
          "21 August",
          []
        ],
        [
          "Dunfermline Athletic",
          [
            "/wiki/Dunfermline_Athletic_F.C."
          ]
        ],
        [
          "A",
          [
            "/wiki/East_End_Park"
          ]
        ],
        [
          "1-0",
          []
        ],
        [
          "Whelan",
          [
            "/wiki/Noel_Whelan_(footballer)"
          ]
        ],
        [
          "8,533",
          []
        ],
        [
          "AFC Heritage",
          []
        ]
      ],
      [
        [
          "4",
          []
        ],
        [
          "28 August",
          []
        ],
        [
          "Livingston",
          [
            "/wiki/Livingston_F.C."
          ]
        ],
        [
          "H",
          [
            "/wiki/Pittodrie_Stadium"
          ]
        ],
        [
          "2-0",
          []
        ],
        [
          "Craig ( 2 )",
          [
            "/wiki/Steven_Craig"
          ]
        ],
        [
          "13,888",
          []
        ],
        [
          "AFC Heritage",
          []
        ]
      ],
      [
        [
          "5",
          []
        ],
        [
          "11 September",
          []
        ],
        [
          "Dundee United",
          [
            "/wiki/Dundee_United_F.C."
          ]
        ],
        [
          "A",
          [
            "/wiki/Tannadice_Park"
          ]
        ],
        [
          "1-1",
          []
        ],
        [
          "Mackie",
          [
            "/wiki/Darren_Mackie"
          ]
        ],
        [
          "10,995",
          []
        ],
        [
          "AFC Heritage",
          []
        ]
      ],
      [
        [
          "6",
          []
        ],
        [
          "18 September",
          []
        ],
        [
          "Kilmarnock",
          [
            "/wiki/Kilmarnock_F.C."
          ]
        ],
        [
          "A",
          [
            "/wiki/Rugby_Park"
          ]
        ],
        [
          "1-0",
          []
        ],
        [
          "Fowler",
          [
            "/wiki/James_Fowler_(footballer)"
          ]
        ],
        [
          "6,686",
          []
        ],
        [
          "AFC Heritage",
          []
        ]
      ],
      [
        [
          "7",
          []
        ],
        [
          "25 September",
          []
        ],
        [
          "Hibernian",
          [
            "/wiki/Hibernian_F.C."
          ]
        ],
        [
          "H",
          [
            "/wiki/Pittodrie_Stadium"
          ]
        ],
        [
          "0-1",
          []
        ],
        [
          "",
          []
        ],
        [
          "12,137",
          []
        ],
        [
          "AFC Heritage",
          []
        ]
      ],
      [
        [
          "8",
          []
        ],
        [
          "2 October",
          []
        ],
        [
          "Dundee",
          [
            "/wiki/Dundee_F.C."
          ]
        ],
        [
          "H",
          [
            "/wiki/Pittodrie_Stadium"
          ]
        ],
        [
          "1-1",
          []
        ],
        [
          "Heikkinen",
          [
            "/wiki/Markus_Heikkinen"
          ]
        ],
        [
          "11,217",
          []
        ],
        [
          "AFC Heritage",
          []
        ]
      ],
      [
        [
          "9",
          []
        ],
        [
          "16 October",
          []
        ],
        [
          "Inverness Caledonian Thistle",
          [
            "/wiki/Inverness_Caledonian_Thistle_F.C."
          ]
        ],
        [
          "A",
          [
            "/wiki/Pittodrie_Stadium"
          ]
        ],
        [
          "3-1",
          []
        ],
        [
          "Adams ( 2 ) , Mackie",
          [
            "/wiki/Derek_Adams",
            "/wiki/Darren_Mackie"
          ]
        ],
        [
          "9,530",
          []
        ],
        [
          "AFC Heritage",
          []
        ]
      ],
      [
        [
          "10",
          []
        ],
        [
          "23 October",
          []
        ],
        [
          "Motherwell",
          [
            "/wiki/Motherwell_F.C."
          ]
        ],
        [
          "H",
          [
            "/wiki/Pittodrie_Stadium"
          ]
        ],
        [
          "2-1",
          []
        ],
        [
          "Adams , Serverin",
          [
            "/wiki/Derek_Adams",
            "/wiki/Scott_Severin"
          ]
        ],
        [
          "10,737",
          []
        ],
        [
          "AFC Heritage",
          []
        ]
      ],
      [
        [
          "11",
          []
        ],
        [
          "27 October",
          []
        ],
        [
          "Celtic",
          [
            "/wiki/Celtic_F.C."
          ]
        ],
        [
          "A",
          [
            "/wiki/Celtic_Park"
          ]
        ],
        [
          "3-2",
          []
        ],
        [
          "Mackie , Pasquinelli , Stewart",
          [
            "/wiki/Darren_Mackie",
            "/wiki/Fernando_Pasquinelli",
            "/wiki/John_Stewart_(footballer,_born_1985)"
          ]
        ],
        [
          "57,151",
          []
        ],
        [
          "AFC Heritage",
          []
        ]
      ],
      [
        [
          "12",
          []
        ],
        [
          "31 October",
          []
        ],
        [
          "Rangers",
          [
            "/wiki/Rangers_F.C."
          ]
        ],
        [
          "A",
          [
            "/wiki/Ibrox_Stadium"
          ]
        ],
        [
          "0-5",
          []
        ],
        [
          "",
          []
        ],
        [
          "48,918",
          []
        ],
        [
          "AFC Heritage",
          []
        ]
      ],
      [
        [
          "13",
          []
        ],
        [
          "7 November",
          []
        ],
        [
          "Heart of Midlothian",
          [
            "/wiki/Heart_of_Midlothian_F.C."
          ]
        ],
        [
          "H",
          [
            "/wiki/Pittodrie_Stadium"
          ]
        ],
        [
          "0-1",
          []
        ],
        [
          "",
          []
        ],
        [
          "13,055",
          []
        ],
        [
          "AFC Heritage",
          []
        ]
      ],
      [
        [
          "14",
          []
        ],
        [
          "13 November",
          []
        ],
        [
          "Dunfermline Athletic",
          [
            "/wiki/Dunfermline_Athletic_F.C."
          ]
        ],
        [
          "H",
          [
            "/wiki/Pittodrie_Stadium"
          ]
        ],
        [
          "2-1",
          []
        ],
        [
          "Tod , Mackie",
          [
            "/wiki/Andy_Tod",
            "/wiki/Darren_Mackie"
          ]
        ],
        [
          "10,398",
          []
        ],
        [
          "AFC Heritage",
          []
        ]
      ],
      [
        [
          "15",
          []
        ],
        [
          "20 November",
          []
        ],
        [
          "Livingston",
          [
            "/wiki/Livingston_F.C."
          ]
        ],
        [
          "A",
          [
            "/wiki/Almondvale_Stadium"
          ]
        ],
        [
          "2-0",
          []
        ],
        [
          "Foster , Mackie",
          [
            "/wiki/Richard_Foster_(footballer)",
            "/wiki/Darren_Mackie"
          ]
        ],
        [
          "4,569",
          []
        ],
        [
          "AFC Heritage",
          []
        ]
      ],
      [
        [
          "16",
          []
        ],
        [
          "27 November",
          []
        ],
        [
          "Dundee United",
          [
            "/wiki/Dundee_United_F.C."
          ]
        ],
        [
          "H",
          [
            "/wiki/Pittodrie_Stadium"
          ]
        ],
        [
          "1-0",
          []
        ],
        [
          "Tosh",
          [
            "/wiki/Steve_Tosh"
          ]
        ],
        [
          "12,038",
          []
        ],
        [
          "AFC Heritage",
          []
        ]
      ],
      [
        [
          "17",
          []
        ],
        [
          "4 December",
          []
        ],
        [
          "Kilmarnock",
          [
            "/wiki/Kilmarnock_F.C."
          ]
        ],
        [
          "H",
          [
            "/wiki/Pittodrie_Stadium"
          ]
        ],
        [
          "3-2",
          []
        ],
        [
          "Pasquinelli ( 2 ) , Clark",
          [
            "/wiki/Fernando_Pasquinelli",
            "/wiki/Chris_Clark_(footballer,_born_1980)"
          ]
        ],
        [
          "11,139",
          []
        ],
        [
          "AFC Heritage",
          []
        ]
      ],
      [
        [
          "18",
          []
        ],
        [
          "11 December",
          []
        ],
        [
          "Hibernian",
          [
            "/wiki/Hibernian_F.C."
          ]
        ],
        [
          "A",
          [
            "/wiki/Easter_Road"
          ]
        ],
        [
          "1-2",
          []
        ],
        [
          "Mackie",
          [
            "/wiki/Darren_Mackie"
          ]
        ],
        [
          "13,461",
          []
        ],
        [
          "AFC Heritage",
          []
        ]
      ],
      [
        [
          "19",
          []
        ],
        [
          "18 December",
          []
        ],
        [
          "Dundee",
          [
            "/wiki/Dundee_F.C."
          ]
        ],
        [
          "A",
          [
            "/wiki/Dens_Park"
          ]
        ],
        [
          "0-1",
          []
        ],
        [
          "",
          []
        ],
        [
          "7,310",
          []
        ],
        [
          "AFC Heritage",
          []
        ]
      ],
      [
        [
          "20",
          []
        ],
        [
          "27 December",
          []
        ],
        [
          "Inverness Caledonian Thistle",
          [
            "/wiki/Inverness_Caledonian_Thistle_F.C."
          ]
        ],
        [
          "H",
          [
            "/wiki/Pittodrie_Stadium"
          ]
        ],
        [
          "0-0",
          []
        ],
        [
          "",
          []
        ],
        [
          "18,250",
          []
        ],
        [
          "AFC Heritage",
          []
        ]
      ]
    ],
    "section_title": "Scottish Premier League",
    "section_text": "Main article : 2004\u201305 Scottish Premier League Pos Team [ vte ] Pld W D L GF GA GD Pts Qualification or relegation 2 Celtic 38 30 2 6 85 35 +50 92 Qualification for the Champions League second qualifying round 3 Hibernian 38 18 7 13 64 57 +7 61 Qualification for the UEFA Cup first round 4 Aberdeen 38 18 7 13 44 39 +5 61 5 Heart of Midlothian 38 13 11 14 43 41 +2 50 6 Motherwell 38 13 9 16 46 49 \u22123 48 ^ Teams played each other three times ( 33 matches ) , before the league split into two groups ( the top six and the bottom six ) for the last five matches .",
    "uid": "2004\u201305_Aberdeen_F.C._season_1",
    "intro": "The 2004-05 season was Aberdeen's 92nd season in the top flight of Scottish football and their 94th season overall. Aberdeen competed in the Scottish Premier League, Scottish League Cup, Scottish Cup."
  },
  "2016\u201317_Swiss_Super_League_4": {
    "url": "https://en.wikipedia.org/wiki/2016\u201317_Swiss_Super_League",
    "title": "2016\u201317 Swiss Super League",
    "header": [
      [
        "Team",
        []
      ],
      [
        "Total",
        []
      ],
      [
        "Average",
        []
      ]
    ],
    "data": [
      [
        [
          "Basel",
          [
            "/wiki/FC_Basel"
          ]
        ],
        [
          "476,705",
          []
        ],
        [
          "26,484",
          []
        ]
      ],
      [
        [
          "Young Boys",
          [
            "/wiki/BSC_Young_Boys"
          ]
        ],
        [
          "325,316",
          []
        ],
        [
          "18,073",
          []
        ]
      ],
      [
        [
          "St. Gallen",
          [
            "/wiki/FC_St._Gallen"
          ]
        ],
        [
          "225,592",
          []
        ],
        [
          "12,533",
          []
        ]
      ],
      [
        [
          "Luzern",
          [
            "/wiki/FC_Luzern"
          ]
        ],
        [
          "196,557",
          []
        ],
        [
          "10,920",
          []
        ]
      ],
      [
        [
          "Sion",
          [
            "/wiki/FC_Sion"
          ]
        ],
        [
          "165,100",
          []
        ],
        [
          "9,172",
          []
        ]
      ],
      [
        [
          "Thun",
          [
            "/wiki/FC_Thun"
          ]
        ],
        [
          "97,288",
          []
        ],
        [
          "5,405",
          []
        ]
      ],
      [
        [
          "Grasshopper",
          [
            "/wiki/Grasshopper_Club_Z\u00fcrich"
          ]
        ],
        [
          "90,200",
          []
        ],
        [
          "5,011",
          []
        ]
      ],
      [
        [
          "Lausanne-Sport",
          [
            "/wiki/FC_Lausanne-Sport"
          ]
        ],
        [
          "80,722",
          []
        ],
        [
          "4,485",
          []
        ]
      ],
      [
        [
          "Vaduz",
          [
            "/wiki/FC_Vaduz"
          ]
        ],
        [
          "73,549",
          []
        ],
        [
          "4,086",
          []
        ]
      ],
      [
        [
          "Lugano",
          [
            "/wiki/FC_Lugano"
          ]
        ],
        [
          "72,498",
          []
        ],
        [
          "4,027",
          []
        ]
      ],
      [
        [
          "League total",
          []
        ],
        [
          "1,803,518",
          []
        ],
        [
          "10,020",
          []
        ]
      ]
    ],
    "section_title": "Attendance",
    "section_text": "[ 23 ]",
    "uid": "2016\u201317_Swiss_Super_League_4",
    "intro": "The 2016-17 Swiss Super League, also known as Raiffeisen Super League for sponsoring purposes, was the 120th season of top-tier football in Switzerland and the 14th in the current format. Basel were the defending champions. The fixtures were published on 17 June 2016. A total of 10 teams competed in the league: the 9 best teams from the 2015-16 season and the 2015-16 Swiss Challenge League champion Lausanne-Sport. The season started on the weekend of 23 and 24 July 2016 and ended on 2 June 2017. On 28 April 2017, Basel won their 20th league title following their 2-1 away win against Luzern, with six games to spare. It is also their 8th consecutive title."
  },
  "2003\u201304_Aberdeen_F.C._season_3": {
    "url": "https://en.wikipedia.org/wiki/2003\u201304_Aberdeen_F.C._season",
    "title": "2003\u201304 Aberdeen F.C. season",
    "header": [
      [
        "Round",
        []
      ],
      [
        "Date",
        []
      ],
      [
        "Opponent",
        []
      ],
      [
        "H/A",
        []
      ],
      [
        "Score",
        []
      ],
      [
        "Aberdeen Scorer ( s )",
        []
      ],
      [
        "Attendance",
        []
      ],
      [
        "Report",
        []
      ]
    ],
    "data": [
      [
        [
          "R3",
          []
        ],
        [
          "10 January",
          []
        ],
        [
          "Dundee",
          [
            "/wiki/Dundee_F.C."
          ]
        ],
        [
          "H",
          [
            "/wiki/Pittodrie_Stadium"
          ]
        ],
        [
          "0-0",
          []
        ],
        [
          "",
          []
        ],
        [
          "11,012",
          []
        ],
        [
          "AFC Heritage",
          []
        ]
      ],
      [
        [
          "R3R",
          []
        ],
        [
          "21 January",
          []
        ],
        [
          "Dundee",
          [
            "/wiki/Dundee_F.C."
          ]
        ],
        [
          "A",
          [
            "/wiki/Dens_Park"
          ]
        ],
        [
          "3-2",
          []
        ],
        [
          "Clark , Heikkinen , Zdrilic",
          [
            "/wiki/Chris_Clark_(footballer,_born_1980)",
            "/wiki/Markus_Heikkinen",
            "/wiki/David_Zdrilic"
          ]
        ],
        [
          "5,857",
          []
        ],
        [
          "AFC Heritage",
          []
        ]
      ],
      [
        [
          "R4",
          []
        ],
        [
          "7 February",
          []
        ],
        [
          "Falkirk",
          [
            "/wiki/Falkirk_F.C."
          ]
        ],
        [
          "A",
          [
            "/wiki/Ochilview_Park"
          ]
        ],
        [
          "2-0",
          []
        ],
        [
          "Zdrilic , Booth",
          [
            "/wiki/David_Zdrilic",
            "/wiki/Scott_Booth"
          ]
        ],
        [
          "4,747",
          []
        ],
        [
          "AFC Heritage",
          []
        ]
      ],
      [
        [
          "QF",
          []
        ],
        [
          "6 March",
          []
        ],
        [
          "Livingston",
          [
            "/wiki/Livingston_F.C."
          ]
        ],
        [
          "H",
          [
            "/wiki/Pittodrie_Stadium"
          ]
        ],
        [
          "1-1",
          []
        ],
        [
          "Muirhead",
          [
            "/wiki/Scott_Muirhead"
          ]
        ],
        [
          "11,593",
          []
        ],
        [
          "AFC Heritage",
          []
        ]
      ],
      [
        [
          "QFR",
          []
        ],
        [
          "18 March",
          []
        ],
        [
          "Livingston",
          [
            "/wiki/Livingston_F.C."
          ]
        ],
        [
          "A",
          [
            "/wiki/Almondvale_Stadium"
          ]
        ],
        [
          "0-1",
          []
        ],
        [
          "",
          []
        ],
        [
          "4,485",
          []
        ],
        [
          "AFC Heritage",
          []
        ]
      ]
    ],
    "section_title": "Results -- Scottish Cup",
    "section_text": "Main article : 2003\u201304 Scottish Cup",
    "uid": "2003\u201304_Aberdeen_F.C._season_3",
    "intro": "The 2003-04 season was Aberdeen's 91st season in the top flight of Scottish football and their 93rd season overall. Aberdeen competed in the Scottish Premier League, Scottish League Cup, Scottish Cup."
  },
  "NCSOFT_3": {
    "url": "https://en.wikipedia.org/wiki/NCSoft",
    "title": "NCSoft",
    "header": [
      [
        "Title",
        []
      ],
      [
        "Developer",
        []
      ],
      [
        "Genre",
        []
      ],
      [
        "Date Closed",
        []
      ]
    ],
    "data": [
      [
        [
          "Auto Assault",
          [
            "/wiki/Auto_Assault"
          ]
        ],
        [
          "NetDevil",
          [
            "/wiki/NetDevil"
          ]
        ],
        [
          "MMORPG",
          []
        ],
        [
          "2007-08-31",
          []
        ]
      ],
      [
        [
          "Dungeon Runners",
          [
            "/wiki/Dungeon_Runners"
          ]
        ],
        [
          "NCSoft",
          []
        ],
        [
          "MMORPG",
          []
        ],
        [
          "2010-01-01",
          []
        ]
      ],
      [
        [
          "Dragonica",
          [
            "/wiki/Dragonica"
          ]
        ],
        [
          "Gravity",
          [
            "/wiki/Gravity_(company)"
          ]
        ],
        [
          "Casual MMORPG",
          []
        ],
        [
          "2011-07-13",
          []
        ]
      ],
      [
        [
          "Exteel",
          [
            "/wiki/Exteel"
          ]
        ],
        [
          "NCSoft ( E & G Studios )",
          []
        ],
        [
          "TPS",
          [
            "/wiki/Third-person_shooter"
          ]
        ],
        [
          "2010-09-01",
          []
        ]
      ],
      [
        [
          "Point Blank",
          [
            "/wiki/Point_Blank_(2008_video_game)"
          ]
        ],
        [
          "Zepetto",
          []
        ],
        [
          "FPS",
          [
            "/wiki/First-person_shooter"
          ]
        ],
        [
          "2011-07-13",
          []
        ]
      ],
      [
        [
          "Tabula Rasa",
          [
            "/wiki/Tabula_Rasa_(video_game)"
          ]
        ],
        [
          "Destination Games",
          [
            "/wiki/Destination_Games"
          ]
        ],
        [
          "MMORPG",
          []
        ],
        [
          "2009-02-28",
          []
        ]
      ],
      [
        [
          "City of Heroes",
          [
            "/wiki/City_of_Heroes"
          ]
        ],
        [
          "Paragon Studios",
          [
            "/wiki/Paragon_Studios"
          ]
        ],
        [
          "MMORPG",
          []
        ],
        [
          "2012-11-30",
          []
        ]
      ],
      [
        [
          "Trickster",
          [
            "/wiki/Trickster_Online"
          ]
        ],
        [
          "Ntreev Soft",
          []
        ],
        [
          "MMORPG",
          []
        ],
        [
          "2013-02-27",
          []
        ]
      ],
      [
        [
          "Master X Master",
          [
            "/wiki/Master_X_Master"
          ]
        ],
        [
          "NCSoft ( Studio MXM )",
          []
        ],
        [
          "MOBA",
          []
        ],
        [
          "2018-01-31",
          []
        ]
      ],
      [
        [
          "WildStar",
          [
            "/wiki/WildStar_(video_game)"
          ]
        ],
        [
          "NCSoft ( Carbine )",
          []
        ],
        [
          "MMORPG",
          []
        ],
        [
          "2018-11-30",
          []
        ]
      ]
    ],
    "section_title": "Games -- Closed",
    "section_text": "",
    "uid": "NCSOFT_3",
    "intro": "NCSoft is a South Korean video game developer. The company has produced Lineage, City of Heroes, WildStar, Guild Wars, Aion, Blade & Soul, Exteel and Master X Master."
  },
  "1998\u201399_Albanian_Superliga_0": {
    "url": "https://en.wikipedia.org/wiki/1998\u201399_Albanian_National_Championship",
    "title": "1998\u201399 Albanian National Championship",
    "header": [
      [
        "Team",
        []
      ],
      [
        "Location",
        []
      ],
      [
        "Stadium",
        []
      ],
      [
        "Capacity",
        []
      ],
      [
        "Last season",
        []
      ]
    ],
    "data": [
      [
        [
          "Apolonia",
          [
            "/wiki/KF_Apolonia"
          ]
        ],
        [
          "Fier",
          [
            "/wiki/Fier"
          ]
        ],
        [
          "Loni Papu\u00e7iu Stadium",
          [
            "/wiki/Loni_Papu\u00e7iu_Stadium"
          ]
        ],
        [
          "10,000",
          []
        ],
        [
          "7th",
          []
        ]
      ],
      [
        [
          "Besa",
          [
            "/wiki/KF_Besa_Kavaj\u00eb"
          ]
        ],
        [
          "Kavaj\u00eb",
          [
            "/wiki/Kavaj\u00eb"
          ]
        ],
        [
          "Besa Stadium",
          [
            "/wiki/Besa_Stadium"
          ]
        ],
        [
          "8,000",
          []
        ],
        [
          "14th",
          []
        ]
      ],
      [
        [
          "Burreli",
          [
            "/wiki/KF_Burreli"
          ]
        ],
        [
          "Burrel",
          [
            "/wiki/Burrel,_Albania"
          ]
        ],
        [
          "Liri Ballabani Stadium",
          [
            "/wiki/Liri_Ballabani_Stadium"
          ]
        ],
        [
          "2,500",
          []
        ],
        [
          "Second Division",
          [
            "/wiki/Kategoria_e_Par\u00eb"
          ]
        ]
      ],
      [
        [
          "Bylis",
          [
            "/wiki/KF_Bylis"
          ]
        ],
        [
          "Ballsh",
          [
            "/wiki/Ballsh"
          ]
        ],
        [
          "Adush Mu\u00e7a Stadium",
          [
            "/wiki/Adush_Mu\u00e7a_Stadium"
          ]
        ],
        [
          "6,000",
          []
        ],
        [
          "13th",
          []
        ]
      ],
      [
        [
          "Dinamo Tirana",
          [
            "/wiki/FK_Dinamo_Tirana"
          ]
        ],
        [
          "Tirana",
          [
            "/wiki/Tirana"
          ]
        ],
        [
          "Qemal Stafa Stadium",
          [
            "/wiki/Qemal_Stafa_Stadium"
          ]
        ],
        [
          "19,700",
          []
        ],
        [
          "12th",
          []
        ]
      ],
      [
        [
          "Elbasani",
          [
            "/wiki/KF_Elbasani"
          ]
        ],
        [
          "Elbasan",
          [
            "/wiki/Elbasan"
          ]
        ],
        [
          "Ruzhdi Bizhuta Stadium",
          [
            "/wiki/Elbasan_Arena"
          ]
        ],
        [
          "15,000",
          []
        ],
        [
          "6th",
          []
        ]
      ],
      [
        [
          "Flamurtari",
          [
            "/wiki/Flamurtari_FC"
          ]
        ],
        [
          "Vlor\u00eb",
          [
            "/wiki/Vlor\u00eb"
          ]
        ],
        [
          "Flamurtari Stadium",
          [
            "/wiki/Flamurtari_Stadium"
          ]
        ],
        [
          "15,000",
          []
        ],
        [
          "15th",
          []
        ]
      ],
      [
        [
          "La\u00e7i",
          [
            "/wiki/KF_La\u00e7i"
          ]
        ],
        [
          "La\u00e7",
          [
            "/wiki/La\u00e7"
          ]
        ],
        [
          "La\u00e7i Stadium",
          [
            "/wiki/La\u00e7i_Stadium"
          ]
        ],
        [
          "5,000",
          []
        ],
        [
          "8th",
          []
        ]
      ],
      [
        [
          "Lushnja",
          [
            "/wiki/KF_Lushnja"
          ]
        ],
        [
          "Lushnj\u00eb",
          [
            "/wiki/Lushnj\u00eb"
          ]
        ],
        [
          "Abdurrahman Roza Haxhiu Stadium",
          [
            "/wiki/Abdurrahman_Roza_Haxhiu_Stadium"
          ]
        ],
        [
          "12,000",
          []
        ],
        [
          "9th",
          []
        ]
      ],
      [
        [
          "Partizani",
          [
            "/wiki/FK_Partizani_Tirana"
          ]
        ],
        [
          "Tirana",
          [
            "/wiki/Tirana"
          ]
        ],
        [
          "Qemal Stafa Stadium",
          [
            "/wiki/Qemal_Stafa_Stadium"
          ]
        ],
        [
          "19,700",
          []
        ],
        [
          "3rd",
          []
        ]
      ],
      [
        [
          "Sk\u00ebnderbeu",
          [
            "/wiki/KF_Sk\u00ebnderbeu_Kor\u00e7\u00eb"
          ]
        ],
        [
          "Kor\u00e7\u00eb",
          [
            "/wiki/Kor\u00e7\u00eb"
          ]
        ],
        [
          "Sk\u00ebnderbeu Stadium",
          [
            "/wiki/Sk\u00ebnderbeu_Stadium"
          ]
        ],
        [
          "12,000",
          []
        ],
        [
          "11th",
          []
        ]
      ],
      [
        [
          "Shkumbini",
          [
            "/wiki/KF_Shkumbini"
          ]
        ],
        [
          "Peqin",
          [
            "/wiki/Peqin"
          ]
        ],
        [
          "Shkumbini Stadium",
          [
            "/wiki/Shkumbini_Stadium"
          ]
        ],
        [
          "6,000",
          []
        ],
        [
          "4th",
          []
        ]
      ],
      [
        [
          "Teuta",
          [
            "/wiki/KF_Teuta_Durr\u00ebs"
          ]
        ],
        [
          "Durr\u00ebs",
          [
            "/wiki/Durr\u00ebs"
          ]
        ],
        [
          "Niko Dovana Stadium",
          [
            "/wiki/Niko_Dovana_Stadium"
          ]
        ],
        [
          "12,040",
          []
        ],
        [
          "5th",
          []
        ]
      ],
      [
        [
          "Tirana",
          [
            "/wiki/KF_Tirana"
          ]
        ],
        [
          "Tirana",
          [
            "/wiki/Tirana"
          ]
        ],
        [
          "Qemal Stafa Stadium",
          [
            "/wiki/Qemal_Stafa_Stadium"
          ]
        ],
        [
          "19,700",
          []
        ],
        [
          "2nd",
          []
        ]
      ],
      [
        [
          "Tomori",
          [
            "/wiki/KF_Tomori"
          ]
        ],
        [
          "Berat",
          [
            "/wiki/Berat"
          ]
        ],
        [
          "Tomori Stadium",
          [
            "/wiki/Tomori_Stadium"
          ]
        ],
        [
          "14,750",
          []
        ],
        [
          "10th",
          []
        ]
      ],
      [
        [
          "Vllaznia",
          [
            "/wiki/KF_Vllaznia_Shkod\u00ebr"
          ]
        ],
        [
          "Shkod\u00ebr",
          [
            "/wiki/Shkod\u00ebr"
          ]
        ],
        [
          "Loro Bori\u00e7i Stadium",
          [
            "/wiki/Loro_Bori\u00e7i_Stadium"
          ]
        ],
        [
          "15,000",
          []
        ],
        [
          "Champions",
          [
            "/wiki/1997\u201398_Albanian_Superliga"
          ]
        ]
      ]
    ],
    "section_title": "Teams -- Stadia and last season",
    "section_text": "ApoloniaBesaBurreliBylisDinamo TiranaElbasaniFlamurtariLa\u00e7iLushnjaPartizaniSk\u00ebnderbeuShkumbiniTeutaTiranaTomoriVllaznia Locations of the 1998\u201399 Albanian National Championship teams",
    "uid": "1998\u201399_Albanian_Superliga_0",
    "intro": "N/A"
  }
}