{
  "List_of_tallest_buildings_in_Worcester,_Massachusetts_1": {
    "url": "https://en.wikipedia.org/wiki/List_of_tallest_buildings_in_Worcester,_Massachusetts",
    "title": "List of tallest buildings in Worcester, Massachusetts",
    "header": [
      [
        "Name",
        []
      ],
      [
        "Street address",
        []
      ],
      [
        "Years as tallest",
        []
      ],
      [
        "Height feet / m",
        [
          "/wiki/Foot_(unit)",
          "/wiki/Metre"
        ]
      ],
      [
        "Floors",
        []
      ]
    ],
    "data": [
      [
        [
          "Old Union Station",
          [
            "/wiki/Union_Station_(Worcester,_Massachusetts)"
          ]
        ],
        [
          "2 Washington Square",
          []
        ],
        [
          "1875-1898",
          []
        ],
        [
          "200 feet ( 61 m )",
          []
        ],
        [
          "",
          []
        ]
      ],
      [
        [
          "Worcester City Hall",
          [
            "/wiki/Worcester_City_Hall_and_Common"
          ]
        ],
        [
          "455 Main Street",
          []
        ],
        [
          "1898-1971",
          []
        ],
        [
          "203 feet ( 62 m )",
          []
        ],
        [
          "4",
          []
        ]
      ],
      [
        [
          "100 Front Street",
          [
            "/wiki/100_Front_Street"
          ]
        ],
        [
          "100 Front Street",
          []
        ],
        [
          "1971-1974",
          []
        ],
        [
          "226 feet ( 69 m )",
          []
        ],
        [
          "20",
          []
        ]
      ],
      [
        [
          "Worcester Plaza",
          [
            "/wiki/Worcester_Plaza"
          ]
        ],
        [
          "446 Main Street",
          []
        ],
        [
          "1974-1991 ( tied 1991-present )",
          []
        ],
        [
          "289 feet ( 88 m )",
          []
        ],
        [
          "24",
          []
        ]
      ],
      [
        [
          "Sky Mark Tower",
          []
        ],
        [
          "600 Main Street",
          []
        ],
        [
          "tied 1991-Present",
          []
        ],
        [
          "289 feet ( 88 m )",
          []
        ],
        [
          "24",
          []
        ]
      ]
    ],
    "section_title": "Timeline of tallest buildings",
    "section_text": "",
    "uid": "List_of_tallest_buildings_in_Worcester,_Massachusetts_1",
    "intro": "This list of tallest buildings in Worcester, Massachusetts ranks skyscrapers in the U.S. city of Worcester, Massachusetts by height. Worcester currently has 18 high-rise buildings. In the city, there are 12 buildings that stand taller than . The two tallest structures in Worcester are the 24-story Sky Mark Tower and Worcester Plaza, both of which rise . The rest of the high rise buildings are between 150 and 110 ft tall."
  },
  "List_of_Queens_Park_Rangers_F.C._records_and_statistics_0": {
    "url": "https://en.wikipedia.org/wiki/List_of_Queens_Park_Rangers_F.C._records_and_statistics",
    "title": "List of Queens Park Rangers F.C. records and statistics",
    "header": [
      [
        "",
        []
      ],
      [
        "Name",
        []
      ],
      [
        "From",
        []
      ],
      [
        "Fee",
        []
      ],
      [
        "Date",
        []
      ]
    ],
    "data": [
      [
        [
          "1",
          []
        ],
        [
          "Christopher Samba",
          [
            "/wiki/Christopher_Samba"
          ]
        ],
        [
          "Anzhi Makhachkala",
          [
            "/wiki/FC_Anzhi_Makhachkala"
          ]
        ],
        [
          "\u00a312.5M",
          []
        ],
        [
          "2013",
          []
        ]
      ],
      [
        [
          "2",
          []
        ],
        [
          "Steven Caulker",
          [
            "/wiki/Steven_Caulker"
          ]
        ],
        [
          "Cardiff City",
          [
            "/wiki/Cardiff_City_F.C."
          ]
        ],
        [
          "\u00a38.5M",
          []
        ],
        [
          "2014",
          []
        ]
      ],
      [
        [
          "3",
          []
        ],
        [
          "Leroy Fer",
          [
            "/wiki/Leroy_Fer"
          ]
        ],
        [
          "Norwich City",
          [
            "/wiki/Norwich_City_F.C."
          ]
        ],
        [
          "\u00a38M",
          []
        ],
        [
          "2014",
          []
        ]
      ],
      [
        [
          "4",
          []
        ],
        [
          "Lo\u00efc R\u00e9my",
          [
            "/wiki/Lo\u00efc_R\u00e9my"
          ]
        ],
        [
          "Marseille",
          [
            "/wiki/Olympique_de_Marseille"
          ]
        ],
        [
          "\u00a38M",
          []
        ],
        [
          "2013",
          []
        ]
      ],
      [
        [
          "5",
          []
        ],
        [
          "Sandro",
          [
            "/wiki/Sandro_(footballer,_born_1989)"
          ]
        ],
        [
          "Tottenham Hotspur",
          [
            "/wiki/Tottenham_Hotspur_F.C."
          ]
        ],
        [
          "\u00a36M",
          []
        ],
        [
          "2014",
          []
        ]
      ],
      [
        [
          "6",
          []
        ],
        [
          "Jordon Mutch",
          [
            "/wiki/Jordon_Mutch"
          ]
        ],
        [
          "Cardiff City",
          [
            "/wiki/Cardiff_City_F.C."
          ]
        ],
        [
          "\u00a36M",
          []
        ],
        [
          "2014",
          []
        ]
      ],
      [
        [
          "7",
          []
        ],
        [
          "Matt Phillips",
          [
            "/wiki/Matt_Phillips"
          ]
        ],
        [
          "Blackpool",
          [
            "/wiki/Blackpool_F.C."
          ]
        ],
        [
          "\u00a35M",
          []
        ],
        [
          "2013",
          []
        ]
      ],
      [
        [
          "8",
          []
        ],
        [
          "St\u00e9phane Mbia",
          [
            "/wiki/St\u00e9phane_Mbia"
          ]
        ],
        [
          "Marseille",
          [
            "/wiki/Olympique_de_Marseille"
          ]
        ],
        [
          "\u00a35M",
          []
        ],
        [
          "2012",
          []
        ]
      ],
      [
        [
          "9",
          []
        ],
        [
          "Junior Hoilett",
          [
            "/wiki/Junior_Hoilett"
          ]
        ],
        [
          "Blackburn Rovers",
          [
            "/wiki/Blackburn_Rovers_F.C."
          ]
        ],
        [
          "\u00a34M",
          []
        ],
        [
          "2012",
          []
        ]
      ],
      [
        [
          "10",
          []
        ],
        [
          "Bobby Zamora",
          [
            "/wiki/Bobby_Zamora"
          ]
        ],
        [
          "Fulham",
          [
            "/wiki/Fulham_F.C."
          ]
        ],
        [
          "\u00a34M",
          []
        ],
        [
          "2012",
          []
        ]
      ]
    ],
    "section_title": "Transfers -- Highest transfer fees paid",
    "section_text": "",
    "uid": "List_of_Queens_Park_Rangers_F.C._records_and_statistics_0",
    "intro": "This article lists records and statistics relating to the English football club Queens Park Rangers. Queen's Park Rangers 10 -0 Verona stars . Pre season 2015"
  },
  "2018_Canadian_U18_Curling_Championships_-_Men's_tournament_0": {
    "url": "https://en.wikipedia.org/wiki/2018_Canadian_U18_Curling_Championships_-_Men's_tournament",
    "title": "2018 Canadian U18 Curling Championships - Men's tournament",
    "header": [
      [
        "Province",
        []
      ],
      [
        "Skip",
        []
      ],
      [
        "Third",
        []
      ],
      [
        "Second",
        []
      ],
      [
        "Lead",
        []
      ],
      [
        "Club ( s )",
        []
      ]
    ],
    "data": [
      [
        [
          "Alberta",
          [
            "/wiki/Alberta"
          ]
        ],
        [
          "Ryan Jacques",
          [
            "/wiki/Ryan_Jacques"
          ]
        ],
        [
          "Dustin Mikush",
          []
        ],
        [
          "Gabriel Dyck",
          [
            "/wiki/Gabriel_Dyck"
          ]
        ],
        [
          "Michael Henricks",
          []
        ],
        [
          "Saville Sports Centre , Edmonton",
          [
            "/wiki/Saville_Community_Sports_Centre",
            "/wiki/Edmonton"
          ]
        ]
      ],
      [
        [
          "British Columbia",
          [
            "/wiki/British_Columbia"
          ]
        ],
        [
          "Hayato Sato ( fourth )",
          []
        ],
        [
          "Dawson Ballard ( skip )",
          []
        ],
        [
          "Joshua Miki",
          []
        ],
        [
          "Troy Chong",
          []
        ],
        [
          "Royal City Curling Club , New Westminister Coquitlam Curling Club , Coquitlam",
          [
            "/wiki/Royal_City_Curling_Club",
            "/wiki/New_Westminster",
            "/wiki/Coquitlam"
          ]
        ]
      ],
      [
        [
          "Manitoba",
          [
            "/wiki/Manitoba"
          ]
        ],
        [
          "Brett Walter",
          []
        ],
        [
          "Thomas Dunlop",
          []
        ],
        [
          "Zachary Wasylik",
          []
        ],
        [
          "Chase Dusessoy",
          []
        ],
        [
          "Elmwood Curling Club , Winnipeg",
          [
            "/wiki/Winnipeg"
          ]
        ]
      ],
      [
        [
          "New Brunswick",
          [
            "/wiki/New_Brunswick"
          ]
        ],
        [
          "Liam Marin",
          []
        ],
        [
          "Adam Tracy",
          []
        ],
        [
          "Dylan MacDonald",
          []
        ],
        [
          "Josh Vaughan",
          []
        ],
        [
          "Thistle St. Andrews Curling Club , Saint John",
          [
            "/wiki/Saint_John,_New_Brunswick"
          ]
        ]
      ],
      [
        [
          "Newfoundland and Labrador",
          [
            "/wiki/Newfoundland_and_Labrador"
          ]
        ],
        [
          "Ryan McNeil-Lamswood",
          []
        ],
        [
          "Coleton Vriesendorp",
          []
        ],
        [
          "James Trickett",
          []
        ],
        [
          "Alex Phillips",
          []
        ],
        [
          "St. John 's Curling Club , St. John 's",
          [
            "/wiki/St._John's_Curling_Club",
            "/wiki/St._John's,_Newfoundland_and_Labrador"
          ]
        ]
      ],
      [
        [
          "Northern Ontario",
          [
            "/wiki/Northern_Ontario"
          ]
        ],
        [
          "Jacob Horgan",
          []
        ],
        [
          "Maxwel Cull",
          []
        ],
        [
          "Nicholas Bissonnette",
          []
        ],
        [
          "Shane Robinson",
          []
        ],
        [
          "Curl Sudbury , Sudbury",
          [
            "/wiki/Greater_Sudbury"
          ]
        ]
      ],
      [
        [
          "Northwest Territories",
          [
            "/wiki/Northwest_Territories"
          ]
        ],
        [
          "Adam Naugler",
          []
        ],
        [
          "Logan Waddell",
          []
        ],
        [
          "Caleb Brake",
          []
        ],
        [
          "Jullian Bowling",
          []
        ],
        [
          "Yellowknife Curling Club , Yellowknife",
          [
            "/wiki/Yellowknife_Curling_Centre",
            "/wiki/Yellowknife"
          ]
        ]
      ],
      [
        [
          "Nova Scotia",
          [
            "/wiki/Nova_Scotia"
          ]
        ],
        [
          "Owen Purcell ( fourth )",
          []
        ],
        [
          "Graeme Weagle ( skip )",
          []
        ],
        [
          "Jeffrey Meagher",
          []
        ],
        [
          "Scott Weagle",
          []
        ],
        [
          "Chester Curling Club , Chester",
          [
            "/wiki/Chester,_Nova_Scotia"
          ]
        ]
      ],
      [
        [
          "Ontario",
          [
            "/wiki/Ontario"
          ]
        ],
        [
          "Joshua Leung",
          []
        ],
        [
          "Scott Mitchell",
          []
        ],
        [
          "Nathan Steele",
          []
        ],
        [
          "Colin Schnurr",
          []
        ],
        [
          "Whitby Curling Club , Whitby",
          [
            "/wiki/Whitby,_Ontario"
          ]
        ]
      ],
      [
        [
          "Prince Edward Island",
          [
            "/wiki/Prince_Edward_Island"
          ]
        ],
        [
          "Mitchell Schut",
          []
        ],
        [
          "Nick Johnston",
          []
        ],
        [
          "Liam Kelly",
          []
        ],
        [
          "Colin MacKenzie",
          []
        ],
        [
          "Cornwall Curling Club , Cornwall",
          [
            "/wiki/Cornwall_Curling_Club",
            "/wiki/Cornwall,_Prince_Edward_Island"
          ]
        ]
      ],
      [
        [
          "Quebec",
          [
            "/wiki/Quebec"
          ]
        ],
        [
          "J\u00e9r\u00f4me Adam",
          []
        ],
        [
          "Philippe Simard",
          []
        ],
        [
          "Bruno Dupras",
          []
        ],
        [
          "Justin Adam",
          []
        ],
        [
          "Belv\u00e9d\u00e8re Curling Club , Val-d'Or Amos Curling Club , Amos",
          [
            "/wiki/Val-d'Or",
            "/wiki/Amos,_Quebec"
          ]
        ]
      ],
      [
        [
          "Saskatchewan",
          [
            "/wiki/Saskatchewan"
          ]
        ],
        [
          "Jayden Bindig",
          []
        ],
        [
          "Nathen Pomedli",
          []
        ],
        [
          "Braden Fleischhacker",
          []
        ],
        [
          "Ethan Nygaard",
          []
        ],
        [
          "Wadena Curling Club , Wadena",
          [
            "/wiki/Wadena,_Saskatchewan"
          ]
        ]
      ]
    ],
    "section_title": "Teams",
    "section_text": "The teams including the following players :",
    "uid": "2018_Canadian_U18_Curling_Championships_-_Men's_tournament_0",
    "intro": "The men's tournament of the 2018 Canadian U18 Curling Championships was held from April 9 to 14 at the W.C. O'Neill Arena Complex and Heather Curling Club in Saint Andrews, New Brunswick."
  },
  "National_Register_of_Historic_Places_listings_in_Iowa_14": {
    "url": "https://en.wikipedia.org/wiki/National_Register_of_Historic_Places_listings_in_Iowa",
    "title": "National Register of Historic Places listings in Iowa",
    "header": [
      [
        "",
        []
      ],
      [
        "Name on the Register",
        []
      ],
      [
        "Date listed",
        []
      ],
      [
        "Location",
        []
      ],
      [
        "City or town",
        []
      ]
    ],
    "data": [
      [
        [
          "1",
          []
        ],
        [
          "Berkhimer Bridge",
          [
            "/wiki/Berkhimer_Bridge"
          ]
        ],
        [
          "May 15 , 1998 ( # 98000523 )",
          []
        ],
        [
          "245th St. over the Des Moines River 42\u00b044\u203221\u2033N 94\u00b015\u203211\u2033W / 42.739167\u00b0N 94.253056\u00b0W / 42.739167 ; -94.253056 ( Berkhimer Bridge )",
          [
            "/wiki/Des_Moines_River"
          ]
        ],
        [
          "Humboldt",
          [
            "/wiki/Humboldt,_Iowa"
          ]
        ]
      ],
      [
        [
          "2",
          []
        ],
        [
          "Corydon Brown House",
          [
            "/wiki/Corydon_Brown_House"
          ]
        ],
        [
          "November 14 , 1978 ( # 78001223 )",
          []
        ],
        [
          "East of Dakota City off Iowa Highway 3 42\u00b043\u203228\u2033N 94\u00b011\u203227\u2033W / 42.724444\u00b0N 94.190833\u00b0W / 42.724444 ; -94.190833 ( Corydon Brown House )",
          [
            "/wiki/Iowa_Highway_3"
          ]
        ],
        [
          "Dakota City",
          [
            "/wiki/Dakota_City,_Iowa"
          ]
        ]
      ],
      [
        [
          "3",
          []
        ],
        [
          "Humboldt County Court House",
          [
            "/wiki/Humboldt_County_Courthouse_(Iowa)"
          ]
        ],
        [
          "August 28 , 2003 ( # 03000823 )",
          []
        ],
        [
          "203 Main St. 42\u00b043\u203221\u2033N 94\u00b012\u203258\u2033W / 42.7225\u00b0N 94.216111\u00b0W / 42.7225 ; -94.216111 ( Humboldt County Court House )",
          []
        ],
        [
          "Dakota City",
          [
            "/wiki/Dakota_City,_Iowa"
          ]
        ]
      ],
      [
        [
          "4",
          []
        ],
        [
          "Humboldt Free Public Library",
          [
            "/wiki/Humboldt_Public_Library"
          ]
        ],
        [
          "May 23 , 1983 ( # 83000368 )",
          []
        ],
        [
          "30 6th St. , N. 42\u00b043\u203216\u2033N 94\u00b013\u203210\u2033W / 42.721111\u00b0N 94.219444\u00b0W / 42.721111 ; -94.219444 ( Humboldt Free Public Library )",
          []
        ],
        [
          "Humboldt",
          [
            "/wiki/Humboldt,_Iowa"
          ]
        ]
      ],
      [
        [
          "5",
          []
        ],
        [
          "Renwick Generating Plant",
          [
            "/wiki/Renwick_Generating_Plant"
          ]
        ],
        [
          "February 17 , 1995 ( # 95000099 )",
          []
        ],
        [
          "103 N. Field St. 42\u00b049\u203243\u2033N 93\u00b058\u203242\u2033W / 42.828611\u00b0N 93.978333\u00b0W / 42.828611 ; -93.978333 ( Renwick Generating Plant )",
          []
        ],
        [
          "Renwick",
          [
            "/wiki/Renwick,_Iowa"
          ]
        ]
      ],
      [
        [
          "6",
          []
        ],
        [
          "Stephen Harris Taft House",
          [
            "/wiki/Stephen_Harris_Taft_House"
          ]
        ],
        [
          "December 27 , 2002 ( # 02001601 )",
          []
        ],
        [
          "809 1st Ave. , N. 42\u00b043\u203220\u2033N 94\u00b013\u203211\u2033W / 42.722222\u00b0N 94.219722\u00b0W / 42.722222 ; -94.219722 ( Stephen Harris Taft House )",
          []
        ],
        [
          "Humboldt",
          [
            "/wiki/Humboldt,_Iowa"
          ]
        ]
      ]
    ],
    "section_title": "Humboldt County",
    "section_text": "",
    "uid": "National_Register_of_Historic_Places_listings_in_Iowa_14",
    "intro": "This is a list of properties and historic districts in Iowa that are listed on the National Register of Historic Places. There are listings in all of Iowa's 99 counties, adding up to over 2,300 total."
  },
  "List_of_public_corporations_by_market_capitalization_7": {
    "url": "https://en.wikipedia.org/wiki/List_of_public_corporations_by_market_capitalization",
    "title": "List of public corporations by market capitalization",
    "header": [
      [
        "Rank",
        []
      ],
      [
        "Name",
        []
      ],
      [
        "Headquarters",
        []
      ],
      [
        "Primary industry",
        []
      ],
      [
        "Market value ( USD million )",
        [
          "/wiki/United_States_dollar"
        ]
      ]
    ],
    "data": [
      [
        [
          "1",
          []
        ],
        [
          "Microsoft",
          [
            "/wiki/Microsoft"
          ]
        ],
        [
          "United States",
          []
        ],
        [
          "Software industry",
          [
            "/wiki/Software_industry"
          ]
        ],
        [
          "271,854",
          []
        ]
      ],
      [
        [
          "2",
          []
        ],
        [
          "General Electric",
          [
            "/wiki/General_Electric"
          ]
        ],
        [
          "United States",
          []
        ],
        [
          "Conglomerate",
          [
            "/wiki/Conglomerate_(company)"
          ]
        ],
        [
          "258,871",
          []
        ]
      ],
      [
        [
          "3",
          []
        ],
        [
          "Exxon Mobil",
          [
            "/wiki/ExxonMobil"
          ]
        ],
        [
          "United States",
          []
        ],
        [
          "Oil and gas",
          [
            "/wiki/Petroleum_industry"
          ]
        ],
        [
          "172,213",
          []
        ]
      ],
      [
        [
          "4",
          []
        ],
        [
          "Royal Dutch Shell",
          [
            "/wiki/Royal_Dutch_Shell"
          ]
        ],
        [
          "The Netherlands",
          []
        ],
        [
          "Oil and gas",
          []
        ],
        [
          "164,157",
          []
        ]
      ],
      [
        [
          "5",
          []
        ],
        [
          "Merck",
          [
            "/wiki/Merck_&_Co."
          ]
        ],
        [
          "United States",
          []
        ],
        [
          "Health care",
          [
            "/wiki/Health_care"
          ]
        ],
        [
          "154,753",
          []
        ]
      ],
      [
        [
          "6",
          []
        ],
        [
          "Pfizer",
          [
            "/wiki/Pfizer"
          ]
        ],
        [
          "United States",
          []
        ],
        [
          "Health care",
          []
        ],
        [
          "148,074",
          []
        ]
      ],
      [
        [
          "7",
          []
        ],
        [
          "Intel Corporation",
          [
            "/wiki/Intel"
          ]
        ],
        [
          "United States",
          []
        ],
        [
          "Computer hardware",
          [
            "/wiki/Computer_hardware"
          ]
        ],
        [
          "144,060",
          []
        ]
      ],
      [
        [
          "8",
          []
        ],
        [
          "The Coca-Cola Company",
          [
            "/wiki/The_Coca-Cola_Company"
          ]
        ],
        [
          "United States",
          []
        ],
        [
          "Beverage",
          [
            "/wiki/Drink"
          ]
        ],
        [
          "142,164",
          []
        ]
      ],
      [
        [
          "9",
          []
        ],
        [
          "Wal-Mart",
          [
            "/wiki/Walmart"
          ]
        ],
        [
          "United States",
          []
        ],
        [
          "Retail",
          [
            "/wiki/Retail"
          ]
        ],
        [
          "123,062",
          []
        ]
      ],
      [
        [
          "10",
          []
        ],
        [
          "IBM",
          [
            "/wiki/IBM"
          ]
        ],
        [
          "United States",
          []
        ],
        [
          "Software industry , computer hardware",
          []
        ],
        [
          "121,184",
          []
        ]
      ]
    ],
    "section_title": "Publicly traded companies -- 1998",
    "section_text": "This Financial Times\u2013based list is up to date as of 30 September 1998 . [ 79 ]",
    "uid": "List_of_public_corporations_by_market_capitalization_7",
    "intro": "The following is a list of publicly traded companies having the greatest market capitalization. This list is primarily based on the Financial Times Global 500. Market capitalization is calculated from the share price (as recorded on selected day) multiplied by the number of outstanding shares. Figures are converted into USD millions (using rate from selected day) to allow for comparison. Only companies with free float at least 15% are included, value of unlisted stock classes is excluded. Investment companies are not included in the list."
  },
  "Sierra_Leonean_High_Commissioner_to_the_United_Kingdom_0": {
    "url": "https://en.wikipedia.org/wiki/Sierra_Leonean_High_Commissioner_to_the_United_Kingdom",
    "title": "Sierra Leonean High Commissioner to the United Kingdom",
    "header": [
      [
        "commissioned/acreditated",
        []
      ],
      [
        "High commissioner ( Commonwealth )",
        [
          "/wiki/High_commissioner_(Commonwealth)"
        ]
      ],
      [
        "Observations",
        []
      ],
      [
        "List of heads of state of Sierra Leone",
        [
          "/wiki/List_of_heads_of_state_of_Sierra_Leone"
        ]
      ],
      [
        "List of Prime Ministers of the United Kingdom",
        [
          "/wiki/List_of_prime_ministers_of_the_United_Kingdom"
        ]
      ],
      [
        "Term end",
        []
      ]
    ],
    "data": [
      [
        [
          "1959",
          []
        ],
        [
          "Richard Edmund Kelfa-Caulker",
          [
            "/wiki/Richard_Edmund_Kelfa-Caulker"
          ]
        ],
        [
          "Sierra Leonean and Gambia Commissioner to the United Kingdom",
          []
        ],
        [
          "Maurice Henry Dorman",
          [
            "/wiki/Maurice_Henry_Dorman"
          ]
        ],
        [
          "Harold Macmillan",
          [
            "/wiki/Harold_Macmillan"
          ]
        ],
        [
          "1961",
          []
        ]
      ],
      [
        [
          "1961",
          []
        ],
        [
          "William Henry Fitzjohn",
          [
            "/wiki/William_Henry_Fitzjohn"
          ]
        ],
        [
          "",
          []
        ],
        [
          "Maurice Henry Dorman",
          [
            "/wiki/Maurice_Henry_Dorman"
          ]
        ],
        [
          "Harold Macmillan",
          [
            "/wiki/Harold_Macmillan"
          ]
        ],
        [
          "1964",
          []
        ]
      ],
      [
        [
          "1964",
          []
        ],
        [
          "Richard Edmund Kelfa-Caulker",
          [
            "/wiki/Richard_Edmund_Kelfa-Caulker"
          ]
        ],
        [
          "( * 1909 ; 1975 ) On Thursday Dr. and Mrs. Fitzjohn had a farewsll audience with the Queen at Buckingham Palace . He is succeeded by Mr. Richard Kelfa- Caulker , currently representative at the UN . Mr. Kelfa-Caulker was Dr. Fitzjohn 's predecessor in London",
          []
        ],
        [
          "Henry Josiah Lightfoot Boston",
          [
            "/wiki/Henry_Josiah_Lightfoot_Boston"
          ]
        ],
        [
          "Harold Wilson",
          [
            "/wiki/Harold_Wilson"
          ]
        ],
        [
          "1966",
          []
        ]
      ],
      [
        [
          "1967",
          []
        ],
        [
          "Victor Sigismond Kanu",
          []
        ],
        [
          "",
          []
        ],
        [
          "Henry Josiah Lightfoot Boston",
          [
            "/wiki/Henry_Josiah_Lightfoot_Boston"
          ]
        ],
        [
          "Harold Wilson",
          [
            "/wiki/Harold_Wilson"
          ]
        ],
        [
          "1971",
          []
        ]
      ],
      [
        [
          "1968",
          []
        ],
        [
          "Joseph Ayodele Wilson",
          []
        ],
        [
          "",
          []
        ],
        [
          "Banja Tejan-Sie",
          [
            "/wiki/Banja_Tejan-Sie"
          ]
        ],
        [
          "Harold Wilson",
          [
            "/wiki/Harold_Wilson"
          ]
        ],
        [
          "",
          []
        ]
      ],
      [
        [
          "July 3 , 1968",
          []
        ],
        [
          "de : Ambrose Patrick Genda",
          []
        ],
        [
          "",
          []
        ],
        [
          "Banja Tejan-Sie",
          [
            "/wiki/Banja_Tejan-Sie"
          ]
        ],
        [
          "Harold Wilson",
          [
            "/wiki/Harold_Wilson"
          ]
        ],
        [
          "1969",
          []
        ]
      ],
      [
        [
          "1971",
          []
        ],
        [
          "Davidson Nicol",
          [
            "/wiki/Davidson_Nicol"
          ]
        ],
        [
          "In 1971 he was appointed High Commissioner ( with the rank of Ambassador Extraordinary and Plenipotentiary ) of the Republic of Sierra Leone to the United Kingdom and concurrently Ambassador of Sierra Leone to the kingdoms of Sweden , Denmark and Norway",
          []
        ],
        [
          "Siaka Stevens",
          [
            "/wiki/Siaka_Stevens"
          ]
        ],
        [
          "Edward Heath",
          [
            "/wiki/Edward_Heath"
          ]
        ],
        [
          "1972",
          []
        ]
      ],
      [
        [
          "1972",
          []
        ],
        [
          "Jacob Arthur Christian Davies",
          []
        ],
        [
          "",
          []
        ],
        [
          "Siaka Stevens",
          [
            "/wiki/Siaka_Stevens"
          ]
        ],
        [
          "Edward Heath",
          [
            "/wiki/Edward_Heath"
          ]
        ],
        [
          "October 1974",
          []
        ]
      ],
      [
        [
          "October 1974",
          []
        ],
        [
          "de : Ralph Emeric Kashope Taylor-Smith",
          []
        ],
        [
          "",
          []
        ],
        [
          "Siaka Stevens",
          [
            "/wiki/Siaka_Stevens"
          ]
        ],
        [
          "Harold Wilson",
          [
            "/wiki/Harold_Wilson"
          ]
        ],
        [
          "1977",
          []
        ]
      ],
      [
        [
          "1978",
          []
        ],
        [
          "de : Sahr Thomas Matturi",
          []
        ],
        [
          "Corps , Major General Lord Michael Fitzalan Howard , and Dr. Sahr Thomas Matturi setting off for Buckingham Palace to present Dr. Matturi ' s Letters of Credence as Sierra Leone 's High Commissioner in London",
          []
        ],
        [
          "Siaka Stevens",
          [
            "/wiki/Siaka_Stevens"
          ]
        ],
        [
          "James Callaghan",
          [
            "/wiki/James_Callaghan"
          ]
        ],
        [
          "September 8 , 1980",
          []
        ]
      ],
      [
        [
          "September 8 , 1980",
          []
        ],
        [
          "Victor Emmanuel Sumner",
          []
        ],
        [
          "( * April 17 , 1929 in Freetown ) in 1962 married Gladys Victoria Small , they had one daughter two sons . Educated at Fourah Bay College , Sierra Leone ; Otterbein College , Westerville , Ohio , U.S.A. and at Laval University . On April 1 , 1987 he was retired",
          [
            "/wiki/Freetown"
          ]
        ],
        [
          "Siaka Stevens",
          [
            "/wiki/Siaka_Stevens"
          ]
        ],
        [
          "Margaret Thatcher",
          [
            "/wiki/Margaret_Thatcher"
          ]
        ],
        [
          "",
          []
        ]
      ],
      [
        [
          "April 1 , 1987",
          []
        ],
        [
          "Caleb Babatund\u00e1 Aubee",
          []
        ],
        [
          "1981-1986 ambassador in Beijing , ( es : Anexo : Embajadores de Sierra Leona en China ) A new high commissioner is appointed to the UK In May Caleb Babatunde Aubee was appointed Sierra Leone 's high commissioner to the UK , succeeding the retiring Victor Sumner . Mr Aubee was previously ambassador in China but also Spouse : Adenrele A Odedina . Mr. Aubee , an active party man , is no stranger to Sierra Leoneans here , since he already served as deputy high commissioner in the early 1980s",
          []
        ],
        [
          "Joseph Saidu Momoh",
          [
            "/wiki/Joseph_Saidu_Momoh"
          ]
        ],
        [
          "Margaret Thatcher",
          [
            "/wiki/Margaret_Thatcher"
          ]
        ],
        [
          "1991",
          []
        ]
      ],
      [
        [
          "1993",
          []
        ],
        [
          "Cyril Foray",
          [
            "/wiki/Cyril_Foray"
          ]
        ],
        [
          "( * March 16 , 1934 ; 2003 ) After he retired from the college faculty , he was appointed Sierra Leone 's high commissioner to the United Kingdom for the period of 1993 - 1994 under the military government of Valentine Strasser",
          [
            "/wiki/Valentine_Strasser"
          ]
        ],
        [
          "Valentine Strasser",
          [
            "/wiki/Valentine_Strasser"
          ]
        ],
        [
          "John Major",
          [
            "/wiki/John_Major"
          ]
        ],
        [
          "1994",
          []
        ]
      ],
      [
        [
          "May 25 , 1995",
          []
        ],
        [
          "Haroun Buhari",
          []
        ],
        [
          "Buhari bows out As Sierra Leone 's High Commissioner in London bids farewell after two-and-a-half years , West Africa . 1994 : Sierra Leone High Commissioner to the Gambia , Alhaji Haroun Buhari , has presented his letters of credence to President Abdou Diouf of Senegal as Ambassador Extraordinary and Plenipotentiary to that country",
          []
        ],
        [
          "Valentine Strasser",
          [
            "/wiki/Valentine_Strasser"
          ]
        ],
        [
          "John Major",
          [
            "/wiki/John_Major"
          ]
        ],
        [
          "1996",
          []
        ]
      ],
      [
        [
          "1996",
          []
        ],
        [
          "Cyril Foray",
          [
            "/wiki/Cyril_Foray"
          ]
        ],
        [
          "which indicates a reluctance on your part to resign . In the circumstances , I am directed by His Excellency the President to inform you that you are hereby dismissed as Sierra Leone 's High Commissioner to the United Kingdom with effect from 28 April 2000",
          []
        ],
        [
          "Ahmad Tejan Kabbah",
          [
            "/wiki/Ahmad_Tejan_Kabbah"
          ]
        ],
        [
          "John Major",
          [
            "/wiki/John_Major"
          ]
        ],
        [
          "April 28 , 2000",
          []
        ]
      ],
      [
        [
          "April 28 , 2000",
          []
        ],
        [
          "British military intervention in the Sierra Leone Civil War",
          [
            "/wiki/British_military_intervention_in_the_Sierra_Leone_Civil_War"
          ]
        ],
        [
          "",
          []
        ],
        [
          "Ahmad Tejan Kabbah",
          [
            "/wiki/Ahmad_Tejan_Kabbah"
          ]
        ],
        [
          "Tony Blair",
          [
            "/wiki/Tony_Blair"
          ]
        ],
        [
          "",
          []
        ]
      ],
      [
        [
          "April 9 , 2000",
          []
        ],
        [
          "Sulaiman Tejan-Jalloh",
          [
            "/wiki/Sulaiman_Tejan-Jalloh"
          ]
        ],
        [
          "",
          []
        ],
        [
          "Ahmad Tejan Kabbah",
          [
            "/wiki/Ahmad_Tejan_Kabbah"
          ]
        ],
        [
          "Tony Blair",
          [
            "/wiki/Tony_Blair"
          ]
        ],
        [
          "2005",
          []
        ]
      ],
      [
        [
          "March 12 , 2010",
          []
        ],
        [
          "Edward Turay",
          [
            "/wiki/Edward_Turay"
          ]
        ],
        [
          "",
          []
        ],
        [
          "Ernest Bai Koroma",
          [
            "/wiki/Ernest_Bai_Koroma"
          ]
        ],
        [
          "David Cameron",
          [
            "/wiki/David_Cameron"
          ]
        ],
        [
          "",
          []
        ]
      ]
    ],
    "section_title": "List of representatives",
    "section_text": "",
    "uid": "Sierra_Leonean_High_Commissioner_to_the_United_Kingdom_0",
    "intro": "The Sierra Leonean High Commissioner to the United Kingdom is the official representative of the Government of Sierra Leone to the Government of the United Kingdom."
  },
  "List_of_recurring_characters_in_The_Suite_Life_on_Deck_0": {
    "url": "https://en.wikipedia.org/wiki/List_of_recurring_characters_in_The_Suite_Life_on_Deck",
    "title": "List of recurring characters in The Suite Life on Deck",
    "header": [
      [
        "Character",
        []
      ],
      [
        "Portrayed by",
        []
      ],
      [
        "Season 1",
        []
      ],
      [
        "Season 2",
        []
      ],
      [
        "Season 3",
        []
      ],
      [
        "First appearance",
        []
      ],
      [
        "Last appearance",
        []
      ]
    ],
    "data": [
      [
        [
          "Woody Fink",
          []
        ],
        [
          "Matthew Timmons",
          []
        ],
        [
          "11",
          []
        ],
        [
          "17",
          []
        ],
        [
          "20",
          []
        ],
        [
          "The Suite Life Sets Sail",
          [
            "/wiki/The_Suite_Life_Sets_Sail"
          ]
        ],
        [
          "Graduation on Deck",
          [
            "/wiki/List_of_The_Suite_Life_on_Deck_episodes"
          ]
        ]
      ],
      [
        [
          "Emma Tutweiller",
          []
        ],
        [
          "Erin Cardillo",
          [
            "/wiki/Erin_Cardillo"
          ]
        ],
        [
          "7",
          []
        ],
        [
          "9",
          []
        ],
        [
          "7",
          []
        ],
        [
          "The Suite Life Sets Sail",
          [
            "/wiki/The_Suite_Life_Sets_Sail"
          ]
        ],
        [
          "Graduation on Deck",
          [
            "/wiki/List_of_The_Suite_Life_on_Deck_episodes"
          ]
        ]
      ],
      [
        [
          "Carey Martin",
          []
        ],
        [
          "Kim Rhodes",
          [
            "/wiki/Kim_Rhodes"
          ]
        ],
        [
          "2",
          []
        ],
        [
          "0",
          []
        ],
        [
          "2",
          []
        ],
        [
          "The Suite Life Sets Sail",
          [
            "/wiki/The_Suite_Life_Sets_Sail"
          ]
        ],
        [
          "Graduation on Deck",
          [
            "/wiki/List_of_The_Suite_Life_on_Deck_episodes"
          ]
        ]
      ],
      [
        [
          "Padma",
          []
        ],
        [
          "Tiya Sircar",
          [
            "/wiki/Tiya_Sircar"
          ]
        ],
        [
          "2",
          []
        ],
        [
          "0",
          []
        ],
        [
          "0",
          []
        ],
        [
          "The Suite Life Sets Sail",
          [
            "/wiki/The_Suite_Life_Sets_Sail"
          ]
        ],
        [
          "The Mommy and the Swami",
          [
            "/wiki/List_of_The_Suite_Life_on_Deck_episodes"
          ]
        ]
      ],
      [
        [
          "Mrs. Pepperman",
          []
        ],
        [
          "Lillian Adams",
          [
            "/wiki/Lillian_Adams"
          ]
        ],
        [
          "4",
          []
        ],
        [
          "0",
          []
        ],
        [
          "0",
          []
        ],
        [
          "Parrot Island",
          [
            "/wiki/List_of_The_Suite_Life_on_Deck_episodes"
          ]
        ],
        [
          "The Wrong Stuff",
          [
            "/wiki/List_of_The_Suite_Life_on_Deck_episodes"
          ]
        ]
      ],
      [
        [
          "Kirby Morris",
          []
        ],
        [
          "Windell Middlebrooks",
          [
            "/wiki/Windell_Middlebrooks"
          ]
        ],
        [
          "4",
          []
        ],
        [
          "5",
          []
        ],
        [
          "1",
          []
        ],
        [
          "Showgirls",
          [
            "/wiki/List_of_The_Suite_Life_on_Deck_episodes"
          ]
        ],
        [
          "Rat Tale",
          [
            "/wiki/List_of_The_Suite_Life_on_Deck_episodes"
          ]
        ]
      ],
      [
        [
          "Addison",
          []
        ],
        [
          "Rachael Kathryn Bell",
          []
        ],
        [
          "1",
          []
        ],
        [
          "3",
          []
        ],
        [
          "3",
          []
        ],
        [
          "International Dateline",
          [
            "/wiki/List_of_The_Suite_Life_on_Deck_episodes"
          ]
        ],
        [
          "Graduation on Deck",
          [
            "/wiki/List_of_The_Suite_Life_on_Deck_episodes"
          ]
        ]
      ],
      [
        [
          "Holden",
          []
        ],
        [
          "Chad Duell",
          [
            "/wiki/Chad_Duell"
          ]
        ],
        [
          "2",
          []
        ],
        [
          "0",
          []
        ],
        [
          "0",
          []
        ],
        [
          "International Dateline",
          [
            "/wiki/List_of_The_Suite_Life_on_Deck_episodes"
          ]
        ],
        [
          "Boo You",
          [
            "/wiki/List_of_The_Suite_Life_on_Deck_episodes"
          ]
        ]
      ],
      [
        [
          "Arwin Hawkhauser",
          []
        ],
        [
          "Brian Stepanek",
          [
            "/wiki/Brian_Stepanek"
          ]
        ],
        [
          "1",
          []
        ],
        [
          "0",
          []
        ],
        [
          "2",
          []
        ],
        [
          "It 's All Greek to Me",
          [
            "/wiki/List_of_The_Suite_Life_on_Deck_episodes"
          ]
        ],
        [
          "Graduation on Deck",
          [
            "/wiki/List_of_The_Suite_Life_on_Deck_episodes"
          ]
        ]
      ],
      [
        [
          "Connie",
          []
        ],
        [
          "Jennifer Tisdale",
          [
            "/wiki/Jennifer_Tisdale"
          ]
        ],
        [
          "2",
          []
        ],
        [
          "0",
          []
        ],
        [
          "0",
          []
        ],
        [
          "Flowers and Chocolate",
          [
            "/wiki/List_of_The_Suite_Life_on_Deck_episodes"
          ]
        ],
        [
          "Cruisin ' for a Bruisin '",
          [
            "/wiki/List_of_The_Suite_Life_on_Deck_episodes"
          ]
        ]
      ],
      [
        [
          "Mrs. Gergely",
          []
        ],
        [
          "( unknown )",
          []
        ],
        [
          "5",
          []
        ],
        [
          "6",
          []
        ],
        [
          "3",
          []
        ],
        [
          "Flowers and Chocolate",
          [
            "/wiki/List_of_The_Suite_Life_on_Deck_episodes"
          ]
        ],
        [
          "Frozen",
          [
            "/wiki/List_of_The_Suite_Life_on_Deck_episodes"
          ]
        ]
      ],
      [
        [
          "Mr . Blanket",
          []
        ],
        [
          "Michael Hitchcock",
          [
            "/wiki/Michael_Hitchcock"
          ]
        ],
        [
          "0",
          []
        ],
        [
          "3",
          []
        ],
        [
          "0",
          []
        ],
        [
          "Goin ' Bananas",
          [
            "/wiki/List_of_The_Suite_Life_on_Deck_episodes"
          ]
        ],
        [
          "Mean Chicks",
          [
            "/wiki/List_of_The_Suite_Life_on_Deck_episodes"
          ]
        ]
      ],
      [
        [
          "Dante",
          []
        ],
        [
          "Larry Vanburen Jr",
          []
        ],
        [
          "0",
          []
        ],
        [
          "1",
          []
        ],
        [
          "1",
          []
        ],
        [
          "Breakup in Paris",
          [
            "/wiki/List_of_The_Suite_Life_on_Deck_episodes"
          ]
        ],
        [
          "My Oh Maya",
          [
            "/wiki/List_of_The_Suite_Life_on_Deck_episodes"
          ]
        ]
      ],
      [
        [
          "Maya Bennett",
          []
        ],
        [
          "Zoey Deutch",
          [
            "/wiki/Zoey_Deutch"
          ]
        ],
        [
          "0",
          []
        ],
        [
          "0",
          []
        ],
        [
          "7",
          []
        ],
        [
          "My , Oh Maya",
          [
            "/wiki/List_of_The_Suite_Life_on_Deck_episodes"
          ]
        ],
        [
          "Graduation on Deck",
          [
            "/wiki/List_of_The_Suite_Life_on_Deck_episodes"
          ]
        ]
      ],
      [
        [
          "The Mirror",
          []
        ],
        [
          "Michael Airington",
          []
        ],
        [
          "0",
          []
        ],
        [
          "1",
          []
        ],
        [
          "1",
          []
        ],
        [
          "Once Upon a Suite Life",
          [
            "/wiki/List_of_The_Suite_Life_on_Deck_episodes"
          ]
        ],
        [
          "A London Carol",
          [
            "/wiki/List_of_The_Suite_Life_on_Deck_episodes"
          ]
        ]
      ],
      [
        [
          "Coco The Party Panda",
          []
        ],
        [
          "TBA",
          []
        ],
        [
          "0",
          []
        ],
        [
          "1",
          []
        ],
        [
          "1",
          []
        ],
        [
          "Mother of the Groom",
          [
            "/wiki/List_of_The_Suite_Life_on_Deck_episodes"
          ]
        ],
        [
          "Party On !",
          [
            "/wiki/List_of_The_Suite_Life_on_Deck_episodes"
          ]
        ]
      ],
      [
        [
          "Moose",
          []
        ],
        [
          "Hutch Dano",
          [
            "/wiki/Hutch_Dano"
          ]
        ],
        [
          "1",
          []
        ],
        [
          "0",
          []
        ],
        [
          "1",
          []
        ],
        [
          "Mulch Ado About Nothing",
          [
            "/wiki/List_of_The_Suite_Life_on_Deck_episodes"
          ]
        ],
        [
          "Twister : Part 2",
          [
            "/wiki/List_of_The_Suite_Life_on_Deck_episodes"
          ]
        ]
      ],
      [
        [
          "Eunice Pickett",
          []
        ],
        [
          "Ginette Rhodes",
          []
        ],
        [
          "1",
          []
        ],
        [
          "0",
          []
        ],
        [
          "2",
          []
        ],
        [
          "The Suite Life Sets Sail",
          [
            "/wiki/List_of_The_Suite_Life_on_Deck_episodes"
          ]
        ],
        [
          "Twister : Part 3",
          [
            "/wiki/List_of_The_Suite_Life_on_Deck_episodes"
          ]
        ]
      ],
      [
        [
          "Frankie",
          []
        ],
        [
          "Lisa K. Wyatt",
          [
            "/wiki/Lisa_K._Wyatt"
          ]
        ],
        [
          "0",
          []
        ],
        [
          "0",
          []
        ],
        [
          "2",
          []
        ],
        [
          "Bon Voyage",
          [
            "/wiki/List_of_The_Suite_Life_on_Deck_episodes"
          ]
        ],
        [
          "Graduation on Deck",
          [
            "/wiki/List_of_The_Suite_Life_on_Deck_episodes"
          ]
        ]
      ],
      [
        [
          "Kurt Martin",
          []
        ],
        [
          "Robert Torti",
          [
            "/wiki/Robert_Torti"
          ]
        ],
        [
          "1",
          []
        ],
        [
          "0",
          []
        ],
        [
          "1",
          []
        ],
        [
          "Mom and Dad on Deck",
          [
            "/wiki/List_of_The_Suite_Life_on_Deck_episodes"
          ]
        ],
        [
          "Graduation on Deck",
          [
            "/wiki/List_of_The_Suite_Life_on_Deck_episodes"
          ]
        ]
      ]
    ],
    "section_title": "Character appearances",
    "section_text": "This table includes only characters that have appeared in more than one episode . They are not necessarily recurring characters .",
    "uid": "List_of_recurring_characters_in_The_Suite_Life_on_Deck_0",
    "intro": "The following is a list of recurring, minor characters, in the Disney Channel Original Series, The Suite Life on Deck. This article also includes Marcus Little, who was a main character in season 2 of the series."
  },
  "List_of_San_Diego_Padres_Opening_Day_starting_pitchers_1": {
    "url": "https://en.wikipedia.org/wiki/List_of_San_Diego_Padres_Opening_Day_starting_pitchers",
    "title": "List of San Diego Padres Opening Day starting pitchers",
    "header": [
      [
        "Season",
        []
      ],
      [
        "Pitcher",
        []
      ],
      [
        "Decision",
        []
      ],
      [
        "Final score",
        []
      ],
      [
        "Opponent",
        []
      ],
      [
        "Location",
        []
      ],
      [
        "Attendance",
        []
      ]
    ],
    "data": [
      [
        [
          "1969",
          [
            "/wiki/1969_San_Diego_Padres_season"
          ]
        ],
        [
          "Dick Selma",
          [
            "/wiki/Dick_Selma"
          ]
        ],
        [
          "W",
          []
        ],
        [
          "2-1",
          []
        ],
        [
          "Houston Astros",
          [
            "/wiki/Houston_Astros"
          ]
        ],
        [
          "San Diego Stadium",
          [
            "/wiki/SDCCU_Stadium"
          ]
        ],
        [
          "23,370",
          []
        ]
      ],
      [
        [
          "1970",
          [
            "/wiki/1970_San_Diego_Padres_season"
          ]
        ],
        [
          "Pat Dobson",
          [
            "/wiki/Pat_Dobson"
          ]
        ],
        [
          "W",
          []
        ],
        [
          "8-3",
          []
        ],
        [
          "Atlanta Braves",
          [
            "/wiki/Atlanta_Braves"
          ]
        ],
        [
          "San Diego Stadium",
          [
            "/wiki/SDCCU_Stadium"
          ]
        ],
        [
          "25,125",
          []
        ]
      ],
      [
        [
          "1971",
          [
            "/wiki/1971_San_Diego_Padres_season"
          ]
        ],
        [
          "Tom Phoebus",
          [
            "/wiki/Tom_Phoebus"
          ]
        ],
        [
          "L",
          []
        ],
        [
          "0-4",
          []
        ],
        [
          "San Francisco Giants",
          [
            "/wiki/San_Francisco_Giants"
          ]
        ],
        [
          "San Diego Stadium",
          [
            "/wiki/SDCCU_Stadium"
          ]
        ],
        [
          "34,554",
          []
        ]
      ],
      [
        [
          "1972",
          [
            "/wiki/1972_San_Diego_Padres_season"
          ]
        ],
        [
          "Clay Kirby",
          [
            "/wiki/Clay_Kirby"
          ]
        ],
        [
          "W",
          []
        ],
        [
          "6-5",
          []
        ],
        [
          "Atlanta Braves",
          [
            "/wiki/Atlanta_Braves"
          ]
        ],
        [
          "San Diego Stadium",
          [
            "/wiki/SDCCU_Stadium"
          ]
        ],
        [
          "16,655",
          []
        ]
      ],
      [
        [
          "1973",
          [
            "/wiki/1973_San_Diego_Padres_season"
          ]
        ],
        [
          "Clay Kirby ( 2 )",
          [
            "/wiki/Clay_Kirby"
          ]
        ],
        [
          "W",
          []
        ],
        [
          "4-2",
          []
        ],
        [
          "Los Angeles Dodgers",
          [
            "/wiki/Los_Angeles_Dodgers"
          ]
        ],
        [
          "San Diego Stadium",
          [
            "/wiki/SDCCU_Stadium"
          ]
        ],
        [
          "32,019",
          []
        ]
      ],
      [
        [
          "1974",
          [
            "/wiki/1974_San_Diego_Padres_season"
          ]
        ],
        [
          "Bill Greif",
          [
            "/wiki/Bill_Greif"
          ]
        ],
        [
          "L",
          []
        ],
        [
          "0-8",
          []
        ],
        [
          "Los Angeles Dodgers",
          [
            "/wiki/Los_Angeles_Dodgers"
          ]
        ],
        [
          "Dodger Stadium",
          [
            "/wiki/Dodger_Stadium"
          ]
        ],
        [
          "31,566",
          []
        ]
      ],
      [
        [
          "1975",
          [
            "/wiki/1975_San_Diego_Padres_season"
          ]
        ],
        [
          "Randy Jones",
          [
            "/wiki/Randy_Jones_(baseball)"
          ]
        ],
        [
          "ND ( L )",
          []
        ],
        [
          "0-2 ( 10 )",
          []
        ],
        [
          "San Francisco Giants",
          [
            "/wiki/San_Francisco_Giants"
          ]
        ],
        [
          "San Diego Stadium",
          [
            "/wiki/SDCCU_Stadium"
          ]
        ],
        [
          "17,670",
          []
        ]
      ],
      [
        [
          "1976",
          [
            "/wiki/1976_San_Diego_Padres_season"
          ]
        ],
        [
          "Randy Jones ( 2 )",
          [
            "/wiki/Randy_Jones_(baseball)"
          ]
        ],
        [
          "W",
          []
        ],
        [
          "8-2",
          []
        ],
        [
          "Atlanta Braves",
          [
            "/wiki/Atlanta_Braves"
          ]
        ],
        [
          "San Diego Stadium",
          [
            "/wiki/SDCCU_Stadium"
          ]
        ],
        [
          "44,728",
          []
        ]
      ],
      [
        [
          "1977",
          [
            "/wiki/1977_San_Diego_Padres_season"
          ]
        ],
        [
          "Randy Jones ( 3 )",
          [
            "/wiki/Randy_Jones_(baseball)"
          ]
        ],
        [
          "L",
          []
        ],
        [
          "3-5",
          []
        ],
        [
          "Cincinnati Reds",
          [
            "/wiki/Cincinnati_Reds"
          ]
        ],
        [
          "Riverfront Stadium",
          [
            "/wiki/Riverfront_Stadium"
          ]
        ],
        [
          "51,937",
          []
        ]
      ],
      [
        [
          "1978",
          [
            "/wiki/1978_San_Diego_Padres_season"
          ]
        ],
        [
          "Gaylord Perry",
          [
            "/wiki/Gaylord_Perry"
          ]
        ],
        [
          "ND ( W )",
          []
        ],
        [
          "3-2",
          []
        ],
        [
          "San Francisco Giants",
          [
            "/wiki/San_Francisco_Giants"
          ]
        ],
        [
          "Candlestick Park",
          [
            "/wiki/Candlestick_Park"
          ]
        ],
        [
          "36,131",
          []
        ]
      ],
      [
        [
          "1979",
          [
            "/wiki/1979_San_Diego_Padres_season"
          ]
        ],
        [
          "Gaylord Perry ( 2 )",
          [
            "/wiki/Gaylord_Perry"
          ]
        ],
        [
          "W",
          []
        ],
        [
          "4-3",
          []
        ],
        [
          "Los Angeles Dodgers",
          [
            "/wiki/Los_Angeles_Dodgers"
          ]
        ],
        [
          "Dodger Stadium",
          [
            "/wiki/Dodger_Stadium"
          ]
        ],
        [
          "46,536",
          []
        ]
      ],
      [
        [
          "1980",
          [
            "/wiki/1980_San_Diego_Padres_season"
          ]
        ],
        [
          "Randy Jones ( 4 )",
          [
            "/wiki/Randy_Jones_(baseball)"
          ]
        ],
        [
          "W",
          []
        ],
        [
          "6-4",
          []
        ],
        [
          "San Francisco Giants",
          [
            "/wiki/San_Francisco_Giants"
          ]
        ],
        [
          "San Diego Stadium",
          [
            "/wiki/SDCCU_Stadium"
          ]
        ],
        [
          "29,535",
          []
        ]
      ],
      [
        [
          "1981",
          [
            "/wiki/1981_San_Diego_Padres_season"
          ]
        ],
        [
          "John Curtis",
          [
            "/wiki/John_Curtis_(baseball)"
          ]
        ],
        [
          "ND ( W )",
          []
        ],
        [
          "4-1",
          []
        ],
        [
          "San Francisco Giants",
          [
            "/wiki/San_Francisco_Giants"
          ]
        ],
        [
          "Candlestick Park",
          [
            "/wiki/Candlestick_Park"
          ]
        ],
        [
          "54,520",
          []
        ]
      ],
      [
        [
          "1982",
          [
            "/wiki/1982_San_Diego_Padres_season"
          ]
        ],
        [
          "Juan Eichelberger",
          [
            "/wiki/Juan_Eichelberger"
          ]
        ],
        [
          "L",
          []
        ],
        [
          "0-1",
          []
        ],
        [
          "Atlanta Braves",
          [
            "/wiki/Atlanta_Braves"
          ]
        ],
        [
          "Jack Murphy Stadium",
          [
            "/wiki/SDCCU_Stadium"
          ]
        ],
        [
          "30,188",
          []
        ]
      ],
      [
        [
          "1983",
          [
            "/wiki/1983_San_Diego_Padres_season"
          ]
        ],
        [
          "Tim Lollar",
          [
            "/wiki/Tim_Lollar"
          ]
        ],
        [
          "W",
          []
        ],
        [
          "16-13",
          []
        ],
        [
          "San Francisco Giants",
          [
            "/wiki/San_Francisco_Giants"
          ]
        ],
        [
          "Candlestick Park",
          [
            "/wiki/Candlestick_Park"
          ]
        ],
        [
          "50,542",
          []
        ]
      ],
      [
        [
          "1984 **",
          [
            "/wiki/1984_San_Diego_Padres_season"
          ]
        ],
        [
          "Eric Show",
          [
            "/wiki/Eric_Show"
          ]
        ],
        [
          "W",
          []
        ],
        [
          "5-1",
          []
        ],
        [
          "Pittsburgh Pirates",
          [
            "/wiki/Pittsburgh_Pirates"
          ]
        ],
        [
          "Jack Murphy Stadium",
          [
            "/wiki/SDCCU_Stadium"
          ]
        ],
        [
          "44,553",
          []
        ]
      ],
      [
        [
          "1985",
          [
            "/wiki/1985_San_Diego_Padres_season"
          ]
        ],
        [
          "LaMarr Hoyt",
          [
            "/wiki/LaMarr_Hoyt"
          ]
        ],
        [
          "ND ( L )",
          []
        ],
        [
          "3-4",
          []
        ],
        [
          "San Francisco Giants",
          [
            "/wiki/San_Francisco_Giants"
          ]
        ],
        [
          "Candlestick Park",
          [
            "/wiki/Candlestick_Park"
          ]
        ],
        [
          "52,714",
          []
        ]
      ],
      [
        [
          "1986",
          [
            "/wiki/1986_San_Diego_Padres_season"
          ]
        ],
        [
          "Eric Show ( 2 )",
          [
            "/wiki/Eric_Show"
          ]
        ],
        [
          "L",
          []
        ],
        [
          "1-2",
          []
        ],
        [
          "Los Angeles Dodgers",
          [
            "/wiki/Los_Angeles_Dodgers"
          ]
        ],
        [
          "Dodger Stadium",
          [
            "/wiki/Dodger_Stadium"
          ]
        ],
        [
          "49,444",
          []
        ]
      ],
      [
        [
          "1987",
          [
            "/wiki/1987_San_Diego_Padres_season"
          ]
        ],
        [
          "Eric Show ( 3 )",
          [
            "/wiki/Eric_Show"
          ]
        ],
        [
          "ND ( L )",
          []
        ],
        [
          "3-4 ( 12 )",
          []
        ],
        [
          "San Francisco Giants",
          [
            "/wiki/San_Francisco_Giants"
          ]
        ],
        [
          "Candlestick Park",
          [
            "/wiki/Candlestick_Park"
          ]
        ],
        [
          "52,020",
          []
        ]
      ],
      [
        [
          "1988",
          [
            "/wiki/1988_San_Diego_Padres_season"
          ]
        ],
        [
          "Ed Whitson",
          [
            "/wiki/Ed_Whitson"
          ]
        ],
        [
          "ND ( L )",
          []
        ],
        [
          "3-6",
          []
        ],
        [
          "Houston Astros",
          [
            "/wiki/Houston_Astros"
          ]
        ],
        [
          "Astrodome",
          [
            "/wiki/Astrodome"
          ]
        ],
        [
          "39,906",
          []
        ]
      ]
    ],
    "section_title": "Pitchers",
    "section_text": "Andy Benes , the Opening Day starting pitcher in 1993 , 1994 , and 1995",
    "uid": "List_of_San_Diego_Padres_Opening_Day_starting_pitchers_1",
    "intro": "The San Diego Padres are a Major League Baseball (MLB) team based in San Diego, California. The Padres currently compete in the National League (NL) West division. The Padres first played their home games at San Diego Stadium, now called Qualcomm Stadium, and formerly called Jack Murphy Stadium, until , when they moved into Petco Park. The first game of the new baseball season for a team is played on Opening Day, and being named the Opening Day starter is an honor, which is often given to the player who is expected to lead the pitching staff that season, though there are various strategic reasons why a team's best pitcher might not start on Opening Day. The Padres have used 24 different Opening Day starting pitchers in their 42 seasons. The 24 starters have a combined Opening Day record of 15 wins, 14 losses and 13 no decisions. No decisions are only awarded to the starting pitcher if the game is won or lost after the starting pitcher has left the game. The Padres' first Opening Day starting pitcher was Dick Selma, who received a win against the Houston Astros. Randy Jones, Eric Show and Jake Peavy tie the Padres' record for most Opening Day starts with four. Peavy has the most consecutive Opening Day starts with four (2006-2009). Jones and Andy Benes each have had three consecutive Opening Day starts. Benes has the most consecutive Opening Day losses with three from to ."
  },
  "List_of_black-and-white_films_that_have_been_colorized_5": {
    "url": "https://en.wikipedia.org/wiki/List_of_black-and-white_films_that_have_been_colorized",
    "title": "List of black-and-white films that have been colorized",
    "header": [
      [
        "Title",
        []
      ],
      [
        "Year produced",
        []
      ],
      [
        "Year colorized",
        []
      ],
      [
        "Distributor and color conversion company",
        []
      ]
    ],
    "data": [
      [
        [
          "The Fallen Idol",
          [
            "/wiki/The_Fallen_Idol_(film)"
          ]
        ],
        [
          "1948",
          []
        ],
        [
          "2003",
          []
        ],
        [
          "Legend Films",
          []
        ]
      ],
      [
        [
          "Family Honeymoon",
          [
            "/wiki/Family_Honeymoon"
          ]
        ],
        [
          "1949",
          []
        ],
        [
          "1988",
          []
        ],
        [
          "Republic Pictures",
          []
        ]
      ],
      [
        [
          "A Farewell to Arms",
          [
            "/wiki/A_Farewell_to_Arms_(1932_film)"
          ]
        ],
        [
          "1932",
          []
        ],
        [
          "1994",
          []
        ],
        [
          "Paramount Home Entertainment",
          [
            "/wiki/Paramount_Home_Entertainment"
          ]
        ]
      ],
      [
        [
          "The Fastest Gun Alive",
          [
            "/wiki/The_Fastest_Gun_Alive"
          ]
        ],
        [
          "1956",
          []
        ],
        [
          "1987",
          []
        ],
        [
          "Turner Entertainment",
          []
        ]
      ],
      [
        [
          "Father of the Bride",
          [
            "/wiki/Father_of_the_Bride_(1950_film)"
          ]
        ],
        [
          "1950",
          []
        ],
        [
          "1988",
          []
        ],
        [
          "Turner Entertainment",
          []
        ]
      ],
      [
        [
          "Father 's Little Dividend",
          [
            "/wiki/Father's_Little_Dividend"
          ]
        ],
        [
          "1951",
          []
        ],
        [
          "1989",
          []
        ],
        [
          "Turner Entertainment ( American Film Technologies )",
          []
        ]
      ],
      [
        [
          "The Fighting 69th",
          [
            "/wiki/The_Fighting_69th"
          ]
        ],
        [
          "1940",
          []
        ],
        [
          "1987",
          []
        ],
        [
          "Turner Entertainment",
          []
        ]
      ],
      [
        [
          "The Fighting Kentuckian",
          [
            "/wiki/The_Fighting_Kentuckian"
          ]
        ],
        [
          "1949",
          []
        ],
        [
          "1990",
          []
        ],
        [
          "Republic Pictures",
          []
        ]
      ],
      [
        [
          "The Fighting Seabees",
          [
            "/wiki/The_Fighting_Seabees"
          ]
        ],
        [
          "1944",
          []
        ],
        [
          "1990",
          []
        ],
        [
          "Republic Pictures",
          []
        ]
      ],
      [
        [
          "The First Round-Up",
          [
            "/wiki/The_First_Round-Up"
          ]
        ],
        [
          "1934",
          []
        ],
        [
          "1994",
          []
        ],
        [
          "RHI Entertainment , Inc",
          []
        ]
      ],
      [
        [
          "Fish Hooky",
          [
            "/wiki/Fish_Hooky"
          ]
        ],
        [
          "1933",
          []
        ],
        [
          "1994",
          []
        ],
        [
          "RHI Entertainment , Inc",
          []
        ]
      ],
      [
        [
          "Fish Tales",
          [
            "/wiki/Fish_Tales_(film)"
          ]
        ],
        [
          "1936",
          []
        ],
        [
          "1992",
          []
        ],
        [
          "Warner Bros",
          []
        ]
      ],
      [
        [
          "Fishy Tales",
          [
            "/wiki/Fishy_Tales"
          ]
        ],
        [
          "1937",
          []
        ],
        [
          "1994",
          []
        ],
        [
          "RHI Entertainment , Inc",
          []
        ]
      ],
      [
        [
          "The Fixer Uppers",
          [
            "/wiki/The_Fixer_Uppers"
          ]
        ],
        [
          "1935",
          []
        ],
        [
          "1991",
          []
        ],
        [
          "Hal Roach Studios",
          []
        ]
      ],
      [
        [
          "Flame of Barbary Coast",
          [
            "/wiki/Flame_of_Barbary_Coast"
          ]
        ],
        [
          "1945",
          []
        ],
        [
          "1991",
          []
        ],
        [
          "Republic Pictures",
          []
        ]
      ],
      [
        [
          "Fly My Kite",
          [
            "/wiki/Fly_My_Kite"
          ]
        ],
        [
          "1931",
          []
        ],
        [
          "1994",
          []
        ],
        [
          "RHI Entertainment , Inc",
          []
        ]
      ],
      [
        [
          "Fly My Kite",
          []
        ],
        [
          "1931",
          []
        ],
        [
          "2007",
          []
        ],
        [
          "Legend Films",
          []
        ]
      ],
      [
        [
          "The Flying Deuces",
          [
            "/wiki/The_Flying_Deuces"
          ]
        ],
        [
          "1939",
          []
        ],
        [
          "1990",
          []
        ],
        [
          "RHI Entertainment , Inc",
          []
        ]
      ],
      [
        [
          "The Flying Deuces",
          []
        ],
        [
          "1939",
          []
        ],
        [
          "2012",
          []
        ],
        [
          "Legend Films",
          []
        ]
      ],
      [
        [
          "Flying Down to Rio",
          [
            "/wiki/Flying_Down_to_Rio"
          ]
        ],
        [
          "1933",
          []
        ],
        [
          "1991",
          []
        ],
        [
          "Turner Entertainment",
          []
        ]
      ]
    ],
    "section_title": "F",
    "section_text": "",
    "uid": "List_of_black-and-white_films_that_have_been_colorized_5",
    "intro": "This is a list of black and white films that were subsequently colorized."
  },
  "Shooting_at_the_2013_Southeast_Asian_Games_\u2013_Men's_50_metre_rifle_prone_Team_0": {
    "url": "https://en.wikipedia.org/wiki/Shooting_at_the_2013_Southeast_Asian_Games_\u2013_Men's_50_metre_rifle_prone_Team",
    "title": "Shooting at the 2013 Southeast Asian Games \u2013 Men's 50 metre rifle prone Team",
    "header": [
      [
        "Rank",
        []
      ],
      [
        "Nation",
        []
      ],
      [
        "Shooter",
        []
      ],
      [
        "Score",
        []
      ]
    ],
    "data": [
      [
        [
          "1",
          []
        ],
        [
          "Thailand",
          [
            "/wiki/Thailand_at_the_2013_Southeast_Asian_Games"
          ]
        ],
        [
          "Attapon Uea Aree ( 618.1 ) Napis Tortungpanich ( 612.2 ) Tavarit Majcharcheep ( 610.7 )",
          [
            "/wiki/Napis_Tortungpanich"
          ]
        ],
        [
          "1841.0",
          []
        ]
      ],
      [
        [
          "2",
          []
        ],
        [
          "Vietnam",
          [
            "/wiki/Vietnam_at_the_2013_Southeast_Asian_Games"
          ]
        ],
        [
          "Nguyen Thanh Dat ( 614.2 ) Nguyen Duy Hoang ( 611.8 ) Phung Le Huyen ( 611.6 )",
          []
        ],
        [
          "1837.6",
          []
        ]
      ],
      [
        [
          "3",
          []
        ],
        [
          "Myanmar",
          [
            "/wiki/Myanmar_at_the_2013_Southeast_Asian_Games"
          ]
        ],
        [
          "Ling Aung ( 614.9 ) Aung Thuya ( 614.6 ) Wai Yan Min Thu ( 605.6 )",
          []
        ],
        [
          "1835.1",
          []
        ]
      ],
      [
        [
          "4",
          []
        ],
        [
          "Singapore",
          [
            "/wiki/Singapore_at_the_2013_Southeast_Asian_Games"
          ]
        ],
        [
          "Lim Wen Yi Abel ( 614.3 ) Ong Jun Hong ( 608.2 ) Kasmijan Bin Kimin ( 604.3 )",
          []
        ],
        [
          "1826.8",
          []
        ]
      ],
      [
        [
          "5",
          []
        ],
        [
          "Indonesia",
          [
            "/wiki/Indonesia_at_the_2013_Southeast_Asian_Games"
          ]
        ],
        [
          "Sahurun ( 615.5 ) Rahmad Wisnuaji ( 606.0 ) I Kadek Bagiartha ( 600.4 )",
          []
        ],
        [
          "1821.9",
          []
        ]
      ],
      [
        [
          "6",
          []
        ],
        [
          "Malaysia",
          [
            "/wiki/Malaysia_at_the_2013_Southeast_Asian_Games"
          ]
        ],
        [
          "Mohamad Lutfi Othman ( 607.5 ) Muhammad Ezuan Nasir Khan ( 606.6 ) Nik Muhammad Aimullah Supardi ( 606.6 )",
          []
        ],
        [
          "1820.7",
          []
        ]
      ],
      [
        [
          "7",
          []
        ],
        [
          "Philippines",
          [
            "/wiki/Philippines_at_the_2013_Southeast_Asian_Games"
          ]
        ],
        [
          "Jayson Valdez ( 610.4 ) Benny Cagurin ( 607.3 ) Emerito Concepcion ( 591.7 )",
          [
            "/wiki/Emerito_Concepci\u00f3n"
          ]
        ],
        [
          "1809.4",
          []
        ]
      ],
      [
        [
          "8",
          []
        ],
        [
          "Laos",
          [
            "/wiki/Laos_at_the_2013_Southeast_Asian_Games"
          ]
        ],
        [
          "Parn Douangpaseuth ( 605.9 ) Outhoone Keopaseuth ( 593.2 ) Salavaphouma Sisane ( 592.8 )",
          []
        ],
        [
          "1791.9",
          []
        ]
      ]
    ],
    "section_title": "Results",
    "section_text": "",
    "uid": "Shooting_at_the_2013_Southeast_Asian_Games_\u2013_Men's_50_metre_rifle_prone_Team_0",
    "intro": "The Men's 50 metre rifle prone Team event at the 2013 Southeast Asian Games took place on 11 December 2013 at the North Dagon Shooting Range in Yangon, Myanmar. There were eight teams of three shooters competed, the results of the team competition also served as qualification for individual competition, the top eight shooters qualified to individual final\nEach shooter fired 60 shots with a .22 Long Rifle at 50 metres distance from the prone position. Scores for each shot were in increments of .1, with a maximum score of 10.9, all scores from three shooters per team combine to determine team scores."
  }
}