{
  "List_of_second_division_football_clubs_in_UEFA_countries_48": {
    "url": "https://en.wikipedia.org/wiki/List_of_second_division_football_clubs_in_UEFA_countries",
    "title": "List of second division football clubs in UEFA countries",
    "header": [
      [
        "Team",
        []
      ],
      [
        "Location",
        []
      ],
      [
        "Stadium",
        []
      ],
      [
        "Turf",
        []
      ],
      [
        "Stadium capacity",
        []
      ]
    ],
    "data": [
      [
        [
          "IK Brage",
          [
            "/wiki/IK_Brage"
          ]
        ],
        [
          "Borl\u00e4nge",
          [
            "/wiki/Borl\u00e4nge"
          ]
        ],
        [
          "Domnarvsvallen",
          [
            "/wiki/Domnarvsvallen"
          ]
        ],
        [
          "Artificial",
          [
            "/wiki/Artificial_turf"
          ]
        ],
        [
          "6,500",
          []
        ]
      ],
      [
        [
          "Degerfors IF",
          [
            "/wiki/Degerfors_IF"
          ]
        ],
        [
          "Degerfors",
          [
            "/wiki/Degerfors"
          ]
        ],
        [
          "Stora Valla",
          [
            "/wiki/Stora_Valla"
          ]
        ],
        [
          "Natural",
          [
            "/wiki/Poaceae"
          ]
        ],
        [
          "12,500",
          []
        ]
      ],
      [
        [
          "AFC Eskilstuna",
          [
            "/wiki/AFC_Eskilstuna"
          ]
        ],
        [
          "Eskilstuna",
          [
            "/wiki/Eskilstuna"
          ]
        ],
        [
          "Tunavallen",
          [
            "/wiki/Tunavallen"
          ]
        ],
        [
          "Artificial",
          []
        ],
        [
          "6,000",
          []
        ]
      ],
      [
        [
          "Falkenbergs FF",
          [
            "/wiki/Falkenbergs_FF"
          ]
        ],
        [
          "Falkenberg",
          [
            "/wiki/Falkenberg"
          ]
        ],
        [
          "Falcon Alkoholfri Arena",
          [
            "/wiki/Falcon_Alkoholfri_Arena"
          ]
        ],
        [
          "Natural",
          []
        ],
        [
          "5,565",
          []
        ]
      ],
      [
        [
          "IK Frej",
          [
            "/wiki/IK_Frej"
          ]
        ],
        [
          "T\u00e4by",
          [
            "/wiki/T\u00e4by"
          ]
        ],
        [
          "Vikingavallen",
          [
            "/wiki/Vikingavallen"
          ]
        ],
        [
          "Artificial",
          []
        ],
        [
          "2,650",
          []
        ]
      ],
      [
        [
          "GAIS",
          [
            "/wiki/GAIS"
          ]
        ],
        [
          "Gothenburg",
          [
            "/wiki/Gothenburg"
          ]
        ],
        [
          "Gamla Ullevi",
          [
            "/wiki/Gamla_Ullevi"
          ]
        ],
        [
          "Natural",
          []
        ],
        [
          "18,416",
          []
        ]
      ],
      [
        [
          "Gefle IF",
          [
            "/wiki/Gefle_IF"
          ]
        ],
        [
          "G\u00e4vle",
          [
            "/wiki/G\u00e4vle"
          ]
        ],
        [
          "Gavlevallen",
          [
            "/wiki/Gavlevallen"
          ]
        ],
        [
          "Artificial",
          []
        ],
        [
          "6,500",
          []
        ]
      ],
      [
        [
          "Halmstads BK",
          [
            "/wiki/Halmstads_BK"
          ]
        ],
        [
          "Halmstad",
          [
            "/wiki/Halmstad"
          ]
        ],
        [
          "\u00d6rjans Vall",
          [
            "/wiki/\u00d6rjans_Vall"
          ]
        ],
        [
          "Natural",
          []
        ],
        [
          "7,135",
          []
        ]
      ],
      [
        [
          "Helsingborgs IF",
          [
            "/wiki/Helsingborgs_IF"
          ]
        ],
        [
          "Helsingborg",
          [
            "/wiki/Helsingborg"
          ]
        ],
        [
          "Olympia",
          [
            "/wiki/Olympia_(Helsingborg)"
          ]
        ],
        [
          "Natural",
          []
        ],
        [
          "16,500",
          []
        ]
      ],
      [
        [
          "J\u00f6nk\u00f6pings S\u00f6dra IF",
          [
            "/wiki/J\u00f6nk\u00f6pings_S\u00f6dra_IF"
          ]
        ],
        [
          "J\u00f6nk\u00f6ping",
          [
            "/wiki/J\u00f6nk\u00f6ping"
          ]
        ],
        [
          "Stadsparksvallen",
          [
            "/wiki/Stadsparksvallen"
          ]
        ],
        [
          "Natural",
          []
        ],
        [
          "5,500",
          []
        ]
      ],
      [
        [
          "Landskrona BoIS",
          [
            "/wiki/Landskrona_BoIS"
          ]
        ],
        [
          "Landskrona",
          [
            "/wiki/Landskrona"
          ]
        ],
        [
          "Landskrona IP",
          [
            "/wiki/Landskrona_IP"
          ]
        ],
        [
          "Natural",
          []
        ],
        [
          "10,500",
          []
        ]
      ],
      [
        [
          "Norrby IF",
          [
            "/wiki/Norrby_IF"
          ]
        ],
        [
          "Bor\u00e5s",
          [
            "/wiki/Bor\u00e5s"
          ]
        ],
        [
          "Bor\u00e5s Arena",
          [
            "/wiki/Bor\u00e5s_Arena"
          ]
        ],
        [
          "Artificial",
          []
        ],
        [
          "16,899",
          []
        ]
      ],
      [
        [
          "Varbergs BoIS",
          [
            "/wiki/Varbergs_BoIS"
          ]
        ],
        [
          "Varberg",
          [
            "/wiki/Varberg"
          ]
        ],
        [
          "P\u00e5skbergsvallen",
          [
            "/wiki/P\u00e5skbergsvallen"
          ]
        ],
        [
          "Natural",
          []
        ],
        [
          "4,000",
          []
        ]
      ],
      [
        [
          "IFK V\u00e4rnamo",
          [
            "/wiki/IFK_V\u00e4rnamo"
          ]
        ],
        [
          "V\u00e4rnamo",
          [
            "/wiki/V\u00e4rnamo"
          ]
        ],
        [
          "Finnvedsvallen",
          [
            "/wiki/Finnvedsvallen"
          ]
        ],
        [
          "Natural",
          []
        ],
        [
          "5,000",
          []
        ]
      ],
      [
        [
          "\u00d6sters IF",
          [
            "/wiki/\u00d6sters_IF"
          ]
        ],
        [
          "V\u00e4xj\u00f6",
          [
            "/wiki/V\u00e4xj\u00f6"
          ]
        ],
        [
          "Myresj\u00f6hus Arena",
          [
            "/wiki/Myresj\u00f6hus_Arena"
          ]
        ],
        [
          "Natural",
          []
        ],
        [
          "12,000",
          []
        ]
      ],
      [
        [
          "\u00d6rgryte IS",
          [
            "/wiki/\u00d6rgryte_IS"
          ]
        ],
        [
          "Gothenburg",
          []
        ],
        [
          "Gamla Ullevi",
          []
        ],
        [
          "Natural",
          []
        ],
        [
          "18,416",
          []
        ]
      ]
    ],
    "section_title": "Sweden",
    "section_text": "Main article : List of football clubs in Sweden Country : Sweden Football association : Swedish Football Association Second-level league : Superettan BrageDegerforsEskilstunaFalkenbergFrejGefleGAIS\u00d6rgryteHalmstadHelsingborgsJ\u00f6nk\u00f6pingsLandskronaNorrby\u00d6stersVarbergV\u00e4rnamo Location of the 2018 Superettan teams",
    "uid": "List_of_second_division_football_clubs_in_UEFA_countries_48",
    "intro": "The Union of European Football Associations (UEFA) is the administrative and controlling body for European football. It consists of 55 member associations, each of which is responsible for governing football in their respective countries. All widely recognised sovereign states located entirely within Europe are members, with the exceptions of the United Kingdom, Monaco, and Vatican City. Eight states partially or entirely outside Europe are also members: Armenia, Azerbaijan, Russia, Georgia, Kazakhstan, Israel, Cyprus and Turkey. The United Kingdom is divided into the four separate football associations of England, Northern Ireland, Scotland, and Wales; each association has a separate UEFA membership. The Faroe Islands, an autonomous country of the Kingdom of Denmark, also has its own football association which is a member of UEFA. The football association of Gibraltar, a British Overseas Territory, was approved as a member by UEFA in 2013. Kosovo was approved as a member in 2016, even though it is claimed by Serbia and is not recognised by several other UEFA member states. Each UEFA member has its own football league system, except Liechtenstein. Clubs playing in each top-level league compete for the title as the country's club champions. Clubs also compete in the league and national cup competitions for places in the following season's UEFA club competitions, the UEFA Champions League and UEFA Europa League. Due to promotion and relegation, the clubs playing in the top-level league are different every season, except in San Marino where there is only one level."
  },
  "List_of_members_of_the_European_Parliament_for_Sweden,_1995_0": {
    "url": "https://en.wikipedia.org/wiki/List_of_members_of_the_European_Parliament_for_Sweden,_1995",
    "title": "List of members of the European Parliament for Sweden, 1995",
    "header": [
      [
        "Name",
        []
      ],
      [
        "National party",
        []
      ],
      [
        "EP Group",
        []
      ]
    ],
    "data": [
      [
        [
          "Margaretha af Ugglas",
          [
            "/wiki/Margaretha_af_Ugglas"
          ]
        ],
        [
          "Moderate Party",
          [
            "/wiki/Moderate_Party"
          ]
        ],
        [
          "EPP",
          [
            "/wiki/European_People's_Party_group"
          ]
        ]
      ],
      [
        [
          "Birgitta Ahlqvist",
          [
            "/wiki/Birgitta_Ahlqvist"
          ]
        ],
        [
          "Social Democratic Party",
          [
            "/wiki/Swedish_Social_Democratic_Party"
          ]
        ],
        [
          "PES",
          [
            "/wiki/Progressive_Alliance_of_Socialists_and_Democrats"
          ]
        ]
      ],
      [
        [
          "Axel Andersson",
          []
        ],
        [
          "Social Democratic Party",
          [
            "/wiki/Swedish_Social_Democratic_Party"
          ]
        ],
        [
          "PES",
          [
            "/wiki/Progressive_Alliance_of_Socialists_and_Democrats"
          ]
        ]
      ],
      [
        [
          "Jan Andersson",
          [
            "/wiki/Jan_Andersson_(politician)"
          ]
        ],
        [
          "Social Democratic Party",
          [
            "/wiki/Swedish_Social_Democratic_Party"
          ]
        ],
        [
          "PES",
          [
            "/wiki/Progressive_Alliance_of_Socialists_and_Democrats"
          ]
        ]
      ],
      [
        [
          "Hadar Cars",
          []
        ],
        [
          "Liberal People 's Party",
          [
            "/wiki/Liberals_(Sweden)"
          ]
        ],
        [
          "ELDR",
          [
            "/wiki/Alliance_of_Liberals_and_Democrats_for_Europe_Party"
          ]
        ]
      ],
      [
        [
          "Charlotte Cederschi\u00f6ld",
          [
            "/wiki/Charlotte_Cederschi\u00f6ld"
          ]
        ],
        [
          "Moderate Party",
          [
            "/wiki/Moderate_Party"
          ]
        ],
        [
          "EPP",
          [
            "/wiki/European_People's_Party_group"
          ]
        ]
      ],
      [
        [
          "Karin Falkmer",
          []
        ],
        [
          "Moderate Party",
          [
            "/wiki/Moderate_Party"
          ]
        ],
        [
          "EPP",
          [
            "/wiki/European_People's_Party_group"
          ]
        ]
      ],
      [
        [
          "Reynoldh Furustrand",
          []
        ],
        [
          "Social Democratic Party",
          [
            "/wiki/Swedish_Social_Democratic_Party"
          ]
        ],
        [
          "PES",
          [
            "/wiki/Progressive_Alliance_of_Socialists_and_Democrats"
          ]
        ]
      ],
      [
        [
          "Per Gahrton",
          [
            "/wiki/Per_Gahrton"
          ]
        ],
        [
          "Green Party",
          [
            "/wiki/Green_Party_(Sweden)"
          ]
        ],
        [
          "GG",
          [
            "/wiki/The_Green_Group_in_the_European_Parliament"
          ]
        ]
      ],
      [
        [
          "Holger Gustafsson",
          [
            "/wiki/Holger_Gustafsson"
          ]
        ],
        [
          "Christian Democrats",
          [
            "/wiki/Christian_Democrats_(Sweden)"
          ]
        ],
        [
          "EPP",
          [
            "/wiki/European_People's_Party_group"
          ]
        ]
      ],
      [
        [
          "Bengt Hurtig",
          []
        ],
        [
          "Left Party",
          [
            "/wiki/Left_Party_(Sweden)"
          ]
        ],
        [
          "EUL-NGL",
          [
            "/wiki/European_United_Left\u2013Nordic_Green_Left"
          ]
        ]
      ],
      [
        [
          "Inga-Britt Johansson",
          []
        ],
        [
          "Social Democratic Party",
          [
            "/wiki/Swedish_Social_Democratic_Party"
          ]
        ],
        [
          "PES",
          [
            "/wiki/Progressive_Alliance_of_Socialists_and_Democrats"
          ]
        ]
      ],
      [
        [
          "Maj-Lis L\u00f6\u00f6w",
          []
        ],
        [
          "Social Democratic Party",
          [
            "/wiki/Swedish_Social_Democratic_Party"
          ]
        ],
        [
          "PES",
          [
            "/wiki/Progressive_Alliance_of_Socialists_and_Democrats"
          ]
        ]
      ],
      [
        [
          "Karl Olsson",
          []
        ],
        [
          "Centre Party",
          [
            "/wiki/Centre_Party_(Sweden)"
          ]
        ],
        [
          "ELDR",
          [
            "/wiki/Alliance_of_Liberals_and_Democrats_for_Europe_Party"
          ]
        ]
      ],
      [
        [
          "Kristina Persson",
          [
            "/wiki/Kristina_Persson"
          ]
        ],
        [
          "Social Democratic Party",
          [
            "/wiki/Swedish_Social_Democratic_Party"
          ]
        ],
        [
          "PES",
          [
            "/wiki/Progressive_Alliance_of_Socialists_and_Democrats"
          ]
        ]
      ],
      [
        [
          "Bengt-Ola Ryttar",
          []
        ],
        [
          "Social Democratic Party",
          [
            "/wiki/Swedish_Social_Democratic_Party"
          ]
        ],
        [
          "PES",
          [
            "/wiki/Progressive_Alliance_of_Socialists_and_Democrats"
          ]
        ]
      ],
      [
        [
          "Yvonne Sandberg-Fries",
          []
        ],
        [
          "Social Democratic Party",
          [
            "/wiki/Swedish_Social_Democratic_Party"
          ]
        ],
        [
          "PES",
          [
            "/wiki/Progressive_Alliance_of_Socialists_and_Democrats"
          ]
        ]
      ],
      [
        [
          "Karin Starrin",
          []
        ],
        [
          "Centre Party",
          [
            "/wiki/Centre_Party_(Sweden)"
          ]
        ],
        [
          "ELDR",
          [
            "/wiki/Alliance_of_Liberals_and_Democrats_for_Europe_Party"
          ]
        ]
      ],
      [
        [
          "Per Stenmarck",
          []
        ],
        [
          "Moderate Party",
          [
            "/wiki/Moderate_Party"
          ]
        ],
        [
          "EPP",
          [
            "/wiki/European_People's_Party_group"
          ]
        ]
      ],
      [
        [
          "Maj Theorin",
          [
            "/wiki/Maj_Britt_Theorin"
          ]
        ],
        [
          "Social Democratic Party",
          [
            "/wiki/Swedish_Social_Democratic_Party"
          ]
        ],
        [
          "PES",
          [
            "/wiki/Progressive_Alliance_of_Socialists_and_Democrats"
          ]
        ]
      ]
    ],
    "section_title": "List",
    "section_text": "",
    "uid": "List_of_members_of_the_European_Parliament_for_Sweden,_1995_0",
    "intro": "This is a list of the 22 appointed members in the European Parliament for Sweden in the 1995 session (from 1 January 1995 until 16 September 1995), ordered by name. They were appointed, not elected. The first Swedish MEP elections were held on 17 September 1995."
  },
  "List_of_members_of_the_Australasian_Antarctic_expedition_1": {
    "url": "https://en.wikipedia.org/wiki/List_of_members_of_the_Australasian_Antarctic_expedition",
    "title": "List of members of the Australasian Antarctic expedition",
    "header": [
      [
        "Name",
        []
      ],
      [
        "Age",
        []
      ],
      [
        "Role",
        []
      ],
      [
        "Notes",
        []
      ]
    ],
    "data": [
      [
        [
          "Charles Dovers",
          []
        ],
        [
          "21",
          []
        ],
        [
          "Cartographer",
          []
        ],
        [
          "Member of western sledging journey that reached Gaussberg",
          [
            "/wiki/Gaussberg"
          ]
        ]
      ],
      [
        [
          "Charles Harrisson",
          []
        ],
        [
          "43",
          []
        ],
        [
          "Biologist and Artist",
          []
        ],
        [
          "Accompanied Wild on eastern sledging journey",
          []
        ]
      ],
      [
        [
          "Charles Hoadley",
          [
            "/wiki/Charles_Hoadley"
          ]
        ],
        [
          "24",
          []
        ],
        [
          "Geologist",
          []
        ],
        [
          "Member of western sledging journey that reached Gaussberg",
          [
            "/wiki/Gaussberg"
          ]
        ]
      ],
      [
        [
          "Sydney Evan Jones",
          []
        ],
        [
          "24",
          []
        ],
        [
          "Medical officer",
          []
        ],
        [
          "Member of western sledging journey that reached Gaussberg",
          [
            "/wiki/Gaussberg"
          ]
        ]
      ],
      [
        [
          "Alexander Lorimer Kennedy",
          []
        ],
        [
          "22",
          []
        ],
        [
          "Magnetician and assistant cartographer",
          []
        ],
        [
          "Accompanied Wild on eastern sledging journey",
          []
        ]
      ],
      [
        [
          "Morton Henry Moyes",
          [
            "/wiki/Morton_Moyes"
          ]
        ],
        [
          "25",
          []
        ],
        [
          "Meteorologist",
          []
        ],
        [
          "Remained at base during the main sledging journeys . In 1916 , Moyes acted as navigator on Aurora during the rescue of the marooned Ross Sea party at the end of Shackleton 's Imperial Trans-Antarctic Expedition . Moyes also participated in BANZARE in 1929-30",
          [
            "/wiki/Ross_Sea_party",
            "/wiki/Imperial_Trans-Antarctic_Expedition",
            "/wiki/British_Australian_and_New_Zealand_Antarctic_Research_Expedition"
          ]
        ]
      ],
      [
        [
          "Andrew Douglas Watson",
          []
        ],
        [
          "24",
          []
        ],
        [
          "Geologist",
          []
        ],
        [
          "Accompanied Wild on eastern sledging journey",
          []
        ]
      ],
      [
        [
          "John Robert Francis ( Frank ) Wild",
          [
            "/wiki/Frank_Wild"
          ]
        ],
        [
          "38",
          []
        ],
        [
          "Leader of Western party",
          []
        ],
        [
          "Veteran of the Discovery Expedition , 1901-04 , and the Nimrod Expedition , 1907-09 , Wild was a member of Shackleton 's Imperial Trans-Antarctic Expedition , 1914-16 and led the Elephant Island group . He was second-in-command of Shackleton 's final expedition in the Quest , 1921-22 , and acted as its leader after Shackleton 's death in January 1922",
          [
            "/wiki/Discovery_Expedition",
            "/wiki/Nimrod_Expedition",
            "/wiki/Imperial_Trans-Antarctic_Expedition",
            "/wiki/Elephant_Island",
            "/wiki/Shackleton\u2013Rowett_Expedition"
          ]
        ]
      ]
    ],
    "section_title": "Land parties -- Western Base",
    "section_text": "",
    "uid": "List_of_members_of_the_Australasian_Antarctic_expedition_1",
    "intro": "The Australasian Antarctic Expedition, under the leadership of Douglas Mawson, left Hobart, Tasmania, on 2 December 1911 in SY Aurora. Members of the expedition were organised into three parties, two in bases established on the Antarctic mainland and the third on the sub-Antarctic Macquarie Island. The Main Party base, under Mawson, was established at Cape Denison in Commonwealth Bay, at 67\u00b00'S, 142\u00b040'E. A Far Western party, under Frank Wild, was based on the Shackleton Ice Shelf, at 66\u00b00'S, 100\u00b0E. The Macquarie Island base under George Ainsworth, as well as carrying out meteorological and other observations, acted as a wireless relay station connecting the Antarctic to Hobart. Aurora was captained by John King Davis, who also acted as the expedition's second-in-command."
  },
  "Gymnastics_at_the_1976_Summer_Olympics_\u2013_Men's_artistic_individual_all-around_0": {
    "url": "https://en.wikipedia.org/wiki/Gymnastics_at_the_1976_Summer_Olympics_\u2013_Men's_artistic_individual_all-around",
    "title": "Gymnastics at the 1976 Summer Olympics \u2013 Men's artistic individual all-around",
    "header": [
      [
        "Rank",
        []
      ],
      [
        "Name",
        []
      ],
      [
        "Country",
        []
      ]
    ],
    "data": [
      [
        [
          "6T",
          []
        ],
        [
          "Eizo Kenmotsu",
          [
            "/wiki/Eizo_Kenmotsu"
          ]
        ],
        [
          "Japan",
          [
            "/wiki/Japan_at_the_1976_Summer_Olympics"
          ]
        ]
      ],
      [
        [
          "8T",
          []
        ],
        [
          "Gennady Krysin",
          [
            "/wiki/Gennady_Krysin"
          ]
        ],
        [
          "Soviet Union",
          [
            "/wiki/Soviet_Union_at_the_1976_Summer_Olympics"
          ]
        ]
      ],
      [
        [
          "11T",
          []
        ],
        [
          "Vladimir Marchenko",
          [
            "/wiki/Vladimir_Marchenko_(gymnast)"
          ]
        ],
        [
          "Soviet Union",
          [
            "/wiki/Soviet_Union_at_the_1976_Summer_Olympics"
          ]
        ]
      ],
      [
        [
          "15",
          []
        ],
        [
          "Hisato Igarashi",
          [
            "/wiki/Hisato_Igarashi"
          ]
        ],
        [
          "Japan",
          [
            "/wiki/Japan_at_the_1976_Summer_Olympics"
          ]
        ]
      ],
      [
        [
          "23",
          []
        ],
        [
          "Vladimir Tikhonov",
          [
            "/wiki/Vladimir_Tikhonov_(gymnast)"
          ]
        ],
        [
          "Soviet Union",
          [
            "/wiki/Soviet_Union_at_the_1976_Summer_Olympics"
          ]
        ]
      ],
      [
        [
          "24",
          []
        ],
        [
          "Roland Br\u00fcckner",
          [
            "/wiki/Roland_Br\u00fcckner"
          ]
        ],
        [
          "East Germany",
          [
            "/wiki/East_Germany_at_the_1976_Summer_Olympics"
          ]
        ]
      ],
      [
        [
          "25",
          []
        ],
        [
          "Wolfgang Klotz",
          [
            "/wiki/Wolfgang_Klotz"
          ]
        ],
        [
          "East Germany",
          [
            "/wiki/East_Germany_at_the_1976_Summer_Olympics"
          ]
        ]
      ],
      [
        [
          "26",
          []
        ],
        [
          "B\u00e9la Laufer",
          [
            "/wiki/B\u00e9la_Laufer"
          ]
        ],
        [
          "Hungary",
          [
            "/wiki/Hungary_at_the_1976_Summer_Olympics"
          ]
        ]
      ],
      [
        [
          "28",
          []
        ],
        [
          "Rainer Hanschke",
          [
            "/wiki/Rainer_Hanschke"
          ]
        ],
        [
          "East Germany",
          [
            "/wiki/East_Germany_at_the_1976_Summer_Olympics"
          ]
        ]
      ],
      [
        [
          "32",
          []
        ],
        [
          "Tom Beach",
          [
            "/wiki/Tom_Beach"
          ]
        ],
        [
          "United States",
          [
            "/wiki/United_States_at_the_1976_Summer_Olympics"
          ]
        ]
      ],
      [
        [
          "34T",
          []
        ],
        [
          "Werner Steinmetz",
          [
            "/wiki/Werner_Steinmetz"
          ]
        ],
        [
          "West Germany",
          [
            "/wiki/West_Germany_at_the_1976_Summer_Olympics"
          ]
        ]
      ],
      [
        [
          "37",
          []
        ],
        [
          "Ion Checiche\u015f",
          [
            "/wiki/Ion_Checiche\u015f"
          ]
        ],
        [
          "Romania",
          [
            "/wiki/Romania_at_the_1976_Summer_Olympics"
          ]
        ]
      ],
      [
        [
          "38T",
          []
        ],
        [
          "Mihai Bor\u015f",
          [
            "/wiki/Mihai_Bor\u015f"
          ]
        ],
        [
          "Romania",
          [
            "/wiki/Romania_at_the_1976_Summer_Olympics"
          ]
        ]
      ],
      [
        [
          "40",
          []
        ],
        [
          "\u00c1rp\u00e1d Farkas",
          [
            "/wiki/\u00c1rp\u00e1d_Farkas"
          ]
        ],
        [
          "Hungary",
          [
            "/wiki/Hungary_at_the_1976_Summer_Olympics"
          ]
        ]
      ],
      [
        [
          "43",
          []
        ],
        [
          "Marshall Avener",
          [
            "/wiki/Marshall_Avener"
          ]
        ],
        [
          "United States",
          [
            "/wiki/United_States_at_the_1976_Summer_Olympics"
          ]
        ]
      ],
      [
        [
          "46",
          []
        ],
        [
          "Bart Conner",
          [
            "/wiki/Bart_Conner"
          ]
        ],
        [
          "United States",
          [
            "/wiki/United_States_at_the_1976_Summer_Olympics"
          ]
        ]
      ],
      [
        [
          "48T",
          []
        ],
        [
          "Imre B\u00e1nr\u00e9vi",
          [
            "/wiki/Imre_B\u00e1nr\u00e9vi"
          ]
        ],
        [
          "Hungary",
          [
            "/wiki/Hungary_at_the_1976_Summer_Olympics"
          ]
        ]
      ],
      [
        [
          "48T",
          []
        ],
        [
          "\u015etefan Gal",
          [
            "/wiki/\u015etefan_Gal"
          ]
        ],
        [
          "Romania",
          [
            "/wiki/Romania_at_the_1976_Summer_Olympics"
          ]
        ]
      ],
      [
        [
          "52",
          []
        ],
        [
          "Vladislav Nehasil",
          [
            "/wiki/Vladislav_Nehasil"
          ]
        ],
        [
          "Czechoslovakia",
          [
            "/wiki/Czechoslovakia_at_the_1976_Summer_Olympics"
          ]
        ]
      ],
      [
        [
          "53",
          []
        ],
        [
          "Reinhard Dietze",
          [
            "/wiki/Reinhard_Dietze"
          ]
        ],
        [
          "West Germany",
          [
            "/wiki/West_Germany_at_the_1976_Summer_Olympics"
          ]
        ]
      ]
    ],
    "section_title": "Results -- Remaining placings",
    "section_text": "",
    "uid": "Gymnastics_at_the_1976_Summer_Olympics_\u2013_Men's_artistic_individual_all-around_0",
    "intro": "These are the results of the men's individual all-around competition, one of eight events for male competitors in artistic gymnastics at the 1976 Summer Olympics in Montreal. The qualification and final rounds took place on July 18, 20 and 21st at the Montreal Forum."
  }
}